!This program cannot be run in DOS mode.
)Rich
.text
`.rdata
@.data
.rsrc
@.reloc
?PSV
t{9>uwj 
YY;u
YY;u
VW8E
QSW3
~0_[Y
D$$h
D$,P
D$dP
Y_^[
wHt?
Rt%-D
HHuBh@
QVh?
VVVP
PVVj(V
u+S3
YYV3
jD^V
PWSj03
GWSS
tSh(
h5,M
t$`f
L$P9\$ds
L$PQ
YCS3
D$(;
t$df
D$TP
YCS3
D$TP
D$TP
D$ S3
<H/u
j\Zf
YYS3
D$lj
D$l9
D$lP
L$l9
D$l9
D$lP
t$,s
D$ P
D$0PSW
PSVW
D$ P
D$lhD
D$lP
D$LS3
D$ls
YYS3
!|$`3
D$PP
u1S3
D$XP
9|$$t%
YYS3
D$ PS
YYS3
YYS3
u$hP
Y_^[
SVWP
YCS3
Y_^[
<H/u
j\Zf
t6h8
hx0M
D$$P
D$\P
t=Wj
SVW3
K 99t
vJ9U
C0)0
|	9}
SVW3
K$99t
vJ9U
C4)0
|	9}
QQSV
F uW
9y<v
9q<s
9A<s
wI+u
9A<s
wC+u
A$90tF
A 90tK
w#9^
~_^[
D: ;
@tD9]
uw9]
9Y8u
YYV3
h0	N
tixet
hd	N
hp	N
hx	N
_^[]
L9@QQ
$QPR
9SRP
9_$|
D$0j@P
_^[3
D$0j@P
_^[3
D$4j@P
_^[3
D$4j@P
_^[3
t$0QQ
D$HjlP
$_^[3
t$0QQ
D$HjlP
$_^[3
D$ j@P
T$ VS
YY<+t
9S$|
@t\=
u/9U
<+t"<-t
<Xu	
@tk=
9GNu
Y_^[
SVWj
PSQj
PVVj#V
\tCP
<H/u
j\Zf
HA;M
QSSj
j_Xf
SSSS
SP@P
PSVVVV
,s*+
sCSWj
SSSh,
0f;1u
QVWh
QSWh
Y_[Y
j _3
D8$;
hPaN
j X3
QQSV
90tK
_[Y]
=PAM
=(AM
uPh0%N
D$ P
D$lP
D$ P
D$lP
D$$P
D$lP
h &N
D$ P
D$lP
h@&N
hd&N
Y_^[
h|&N
tO!}
hD)N
D$ P
D$dP
X8t%
RPh,
h0*N
hx*N
hP,N
hh+N
h +N
hl-N
h$'N
h4'N
hl'N
hP.N
hT'N
h8.N
D$,$
D$<P
D$<h
D$Dh
D$Lh
D$@P
D$<h
D$Dh@/N
Y_^[
hx/N
5\AM
hp0N
YPS3
h01N
YPSj
L$ 9
D$ ;
5\AM
D$<P
D$<hh1N
D$@P
D$<h
D$@P
;\$ 
5\AM
YPWj	
YPSj
D$<P
D$<hP2N
D$DP
D$,P
D$,;D$0
hp2N
YPWj
Y_^[
5`AM
5\AM
h`3N
!2^]
h`3N
Y_[3
t"SW
Y_[3
@PVW
t!VWj
_^[]
<91u
<90u
h`3N
h|3N
t Pj
L9@Q
%LBM
hh5N
hx5N
hX5N
VhZdA
h@6N
hp6N
hM*M
D$$P
D$$h
D$,P
D$$hL7N
D$tP
Y_^[
h`7N
YCS3
hP8N
hx8N
w$hx@N
t-h09N
h$:N
h@:N
YCS3
h,;N
hP:N
h$:N
h`;N
1[9X
h(<N
YCS3
h4=N
hH=N
h`=N
hp=N
h(>N
h<>N
GhH>N
*hP>N
CP;CT
h\>N
hp>N
h|>N
;CXu
h@6N
L0@V
;G$t
;G$t
h8?N
jD^V
PSSj
h8@N
hL@N
h\AN
hHBN
h<>N
hTBN
hdBN
h CN
h@6N
QSVW
h\DN
9:u"
t.SW
u	;G
Y_[3
sFSW
u$!E
u$!E
8YEu*
8ZEu
8YEt
8YEt
$xDN
t=;q
/;1u
$xDN
t6;p
+;0u
8YEt
8ZEu
8YEt
8YEt
8ZEu
?PQW
GFEN
hHEN
QQVW
t7SV
htFN
h8GN
h`GN
hPHN
hLIN
h8GN
t79}
hhIN
D$$VW
D$8d
hLJN
!D$@PWV
hpJN
L$8d
L$$3
_^[]
Y_[3
hdKN
h`LN
h(LN
HtWHt'h
P$hPNN
hp>N
hlNN
Vh|>N
h(ON
hHPN
 hlQN
htQN
PhLQN
Ph`QN
hLQN
hTQN
hlQN
hTQN
htQN
`$j 
G@+G<
G@+G<j
hhRN
	VPQS
t"Sj X3
SW9E
w\+E
_[^]
Pj-QQ
SSSSj
	tJf
QQSVW
QSVW
SVWP
t.f9
t.f9
$$XN
Yt	3
PSWV
_^[]
QQSVW
9f9:t
QSVW
9f9:t
_^[]
v_SV
_^[]
SVWP
Y_^[
u%!C
D$8P
D$4P
Y_^[
hHYN
QPPS
QVVj
h ZN
hxZN
QVVj
D$4P
D$4h
D$8P
t$ 3
D$4P
D$4h
D$8P
D$0P
D$$P
D$4P
D$4h
D$8P
hd[N
hx[N
Y9|$(t
9|$$t
Y_^[
QPPPP
<H/u
j\Zf
HA;M
,s*+
sASW
hd\N
h<]N
hL]N
YY_^]
hERHT
PWSh
hl^N
=EPIPu$
=DNOCu
hXTUM
hDNOC
h0_N
=l@M
XTUM
ERHT
h<`N
h``N
D$\P
0we3
XTUMt
ERHTu/
h<`N
h``N
=DNOC
=XTUM
=EPIP
=ERHT
h<`N
D$\P
tB9^
QSVP
t>9_
QSPV
t>9_
SSSP
t!9]
PhXcN
sYVW
]j'X
WWPW
98_u(
t PV
t"PV
hxdN
hxdN
F$+F j
C\+CX3
C\+CXF
F$+F 
SVWP
Y_^[
h%4B
$@eN
Clh@
D$`SVW
D$xd
wph@
D$ P
$xdN
D$@P3
D$XP
D$XP
L$xd
Y_^[
L$`3
9$ubf
j<RP
j<RP
t4W;E
HSVW
?.uK
<-u}
?:u]S
h8gN
HSVW
<+tX<-tT3
f98ubh|gN
u$jh
HtEh@
CP+CLj
C(QQ
h$hN
h0hN
t$;u
hhhN
Ht$H
Ht9H
hxiN
hxjN
CHVP
tWOt(Ot
[_^]
sYVW
<^/t
<Y/u	
f98tvj
h,kN
hdkN
h,kN
hdkN
D$$h,kN
D$,h
D$ P
D$$hdkN
D$lP
s8VP
9>tJ
+H8t
90tG
QSVW
_^[Y]
C8tlN
H<;H@t
H@9H<t
F<;F@tl
F@;FDuB
F8tlN
G8tlN
SVW;
D$(d
L$(d
Y_^[
@PQP3
@@QP3
CD+C@
CD+C@
FT+FP
FT+FPG
;FXu
;FXu
FT+FPW
FT+FPG
j0Zf
h<mN
h<mN
hdmN
hpmN
Vjd3
FDtI
9F<^
L9@Q
QWPV
tQSV
D$hSVW
=$BM
QSSj
D$(P
D$@P
Y_^[
L$h3
t$,Sj
D$DP
D$\P
D$(+D$$
t$(V
YY8]
Y_^[
D$$P
D$$h4nN
D$,P
D$tP
hXnN
WWWWP
QWWWP
uYh@oN
uUhxoN
u1h0pN
hppN
uFh4qN
u)hhqN
t<!}
D$pSVW
D$<3
D$$P
|$4h
D$LP
9|$Xu
D$$P
d$<P
t$,+
!|$ 
|$ k
9D$ 
D$PP3
D$LP
D$  
D$dP+
D$dPV
|$H+
D$HPS
YYj8
D$dP
D$dP
D$ ;D$
Y_^[
L$p3
D$hP
L$(j
t$(W
9|$Ht
h rN
D$hP
L$(j
t$(W
?QPW
QQVW
h sN
YYV3
t	9{
$ sN
Ph~f
h,xN
D$\P
hPxN
t*Jt
Q VPR
D$ d
L$ d
@A;L$
Sj	j
hTyN
I`9q`u
Hd^]
VjR^+
|Sj/Q
@`9x`u
jRY+
!{ !{$
h`zN
t$0WV
Ph|}N
Ph|}N
D$ w
D$<P
D$<h4{N
D$DP
D$<j]P
t$,W
t$,W
t$,W
t$,W
t$,W
t$,W
D$ ;
D$<P
D$<h4{N
D$DP
D$<j]P
D$ ;
YYSj
D$<P
D$<h4{N
D$DP
D$<j]P
Y_^[
t$4V
Ph|}N
Ph|}N
D$ ;
D$<P
D$<h4{N
D$DP
D$<j]P
t$,W
t$,W
t$,W
|$$Y
t$,W
t$,W
t$,W
D$ ;
D$<P
D$<h4{N
D$DP
D$<j]P
D$ ;
YYSj
D$<P
D$<h4{N
D$DP
D$<j]P
Y_^[
t$4V
Ph|}N
Ph|}N
D$ ;
D$<P
D$<h4{N
D$DP
D$<j]P
t$,W
t$,W
t$,W
|$$Y
t$,W
t$,W
t$,W
D$ ;
D$<P
D$<h4{N
D$DP
D$<j]P
D$ ;
YYSj
D$<P
D$<h4{N
D$DP
D$<j]P
Y_^[
t$4V
Ph|}N
Ph|}N
D$<P
D$ w
D$LP
D$Lh4{N
D$TP
D$Lj]P
t$,W
t$,W
t$,W
t$,W
t$,W
t$,W
D$ ;
D$LP
D$Lh4{N
D$TP
D$Lj]P
D$ ;
YYSj
D$LP
D$Lh4{N
D$TP
D$Lj]P
Y_^[
t$0WV
Ph|}N
Ph|}N
D$(;
D$<P
D$<h4{N
D$DP
D$<j]P
t$,W
t$,W
t$,W
D$<P
D$<h4{N
D$DP
D$<j]P
YYSj
D$<P
D$<h4{N
D$DP
D$<j]P
Y_^[
t$8WV
Ph|}N
D$$P
Ph|}N
D$,;
D$$w
D$DP
D$Dh4{N
D$LP
D$Dj]P
t$4W
t$4W
t$4W
D$$;
D$ w
D$DP
D$Dh4{N
D$LP
D$Dj]P
D$$;
D$ w
D$DP
D$Dh4{N
D$LP
D$Dj]P
D$$;
D$ w
YYSj
D$DP
D$Dh4{N
D$LP
D$Dj]P
Y_^[
t$4WV
Ph|}N
Ph|}N
D$ P
D$@w
D$DP
D$Dh4{N
D$LP
D$Dj]P
t$,W
t$,W
t$,W
t$,W
t$,W
t$,W
D$$;
D$ w
D$DP
D$Dh4{N
D$LP
D$Dj]P
D$$;
D$ w
YYSj
D$DP
D$Dh4{N
D$LP
D$Dj]P
Y_^[
t$8WV
Ph|}N
D$$P
Ph|}N
D$,;
D$$w
D$DP
D$Dh4{N
D$LP
D$Dj]P
t$4W
t$4W
t$4W
D$$;
D$ w
D$DP
D$Dh4{N
D$LP
D$Dj]P
D$$;
D$ w
YYSj
D$DP
D$Dh4{N
D$LP
D$Dj]P
D$$;
D$ w
YYSj
D$DP
D$Dh4{N
D$LP
D$Dj]P
Y_^[
t$4WV
Ph|}N
Ph|}N
D$ P
D$@w
D$DP
D$Dh4{N
D$LP
D$Dj]P
t$,W
t$,W
t$,W
t$,W
t$,W
t$,W
D$$;
D$ w
D$DP
D$Dh4{N
D$LP
D$Dj]P
D$$;
D$ w
YYSj
D$DP
D$Dh4{N
D$LP
D$Dj]P
Y_^[
t$4V
Ph|}N
h0~N
Ph|}N
D$ w
D$LP
D$Lh4{N
D$TP
D$Lj]P
t$,W
t$,W
t$,W
t$,W
t$,W
t$,W
D$ ;
D$LP
D$Lh4{N
D$TP
D$Lj]P
D$ ;
YYSj
D$LP
D$Lh4{N
D$TP
D$Lj]P
Y_^[
t$0WV
D$<$
Ph|}N
h@~N
Ph|}N
D$ w
D$LP
D$Lh4{N
D$TP
D$Lj]P
t$,W
t$,W
t$,W
L$@P
t$,W
t$,W
t$,W
D$<$
D$ ;
D$LP
D$Lh4{N
D$TP
D$Lj]P
D$ ;
YYSj
D$LP
D$Lh4{N
D$TP
D$Lj]P
D$<$
Y_^[
t$8WV
Ph|}N
hT~N
D$$P
Ph|}N
D$,;
D$$w
D$DP
D$Dh4{N
D$LP
D$Dj]P
t$4W
t$4W
t$4W
D$$;
D$ w
D$DP
D$Dh4{N
D$LP
D$Dj]P
D$$;
D$ w
YYSj
D$DP
D$Dh4{N
D$LP
D$Dj]P
D$$;
D$ w
YYSj
D$DP
D$Dh4{N
D$LP
D$Dj]P
Y_^[
t$4WV
Ph|}N
hh~N
Ph|}N
D$ P
D$@w
D$DP
D$Dh4{N
D$LP
D$Dj]P
t$,W
t$,W
t$,W
t$,W
t$,W
t$,W
D$$;
D$ w
D$DP
D$Dh4{N
D$LP
D$Dj]P
D$$;
D$ w
YYSj
D$DP
D$Dh4{N
D$LP
D$Dj]P
Y_^[
t$8WV
Ph|}N
h|~N
D$$P
D$HP
Ph|}N
D$H;
D$$w
D$LP
D$Lh4{N
D$TP
D$Lj]P
t$4W
t$4W
t$4W
D$$;
D$LP
D$Lh4{N
D$TP
D$Lj]P
D$$;
D$LP
D$Lh4{N
D$TP
D$Lj]P
D$$;
D$LP
D$Lh4{N
D$TP
D$Lj]P
D$$;
YYSj
D$LP
D$Lh4{N
D$TP
D$Lj]P
Y_^[
t$8WV
Ph|}N
D$$P
Ph|}N
D$0;
D$$w
D$DP
D$Dh4{N
D$LP
D$Dj]P
t$,W
t$,W
t$,W
t$,W
t$,W
t$,W
D$$;
D$ w
D$DP
D$Dh4{N
D$LP
D$Dj]P
D$$;
D$ w
D$DP
D$Dh4{N
D$LP
D$Dj]P
D$$;
D$ w
YYSj
D$DP
D$Dh4{N
D$LP
D$Dj]P
Y_^[
t$8WV
Ph|}N
D$$P
Ph|}N
D$$P
D$0;
D$$w
D$DP
D$Dh4{N
D$LP
D$Dj]P
t$,W
t$,W
t$,W
t$,W
t$,W
t$,W
D$$;
D$ w
D$DP
D$Dh4{N
D$LP
D$Dj]P
D$$;
D$ w
D$DP
D$Dh4{N
D$LP
D$Dj]P
D$$;
D$ w
YYSj
D$DP
D$Dh4{N
D$LP
D$Dj]P
Y_^[
t$8WV
Ph|}N
D$$P
Ph|}N
D$,;
D$$w
D$DP
D$Dh4{N
D$LP
D$Dj]P
t$4W
t$4W
t$4W
D$$;
D$ w
D$DP
D$Dh4{N
D$LP
D$Dj]P
D$$;
D$ w
YYSj
D$DP
D$Dh4{N
D$LP
D$Dj]P
D$$;
D$ w
YYSj
D$DP
D$Dh4{N
D$LP
D$Dj]P
Y_^[
t$8WV
Ph|}N
D$$P
Ph|}N
D$,;
D$$w
D$DP
D$Dh4{N
D$LP
D$Dj]P
t$4W
t$4W
t$4W
D$$;
D$ w
D$DP
D$Dh4{N
D$LP
D$Dj]P
D$$;
D$ w
YYSj
D$DP
D$Dh4{N
D$LP
D$Dj]P
D$$;
D$ w
YYSj
D$DP
D$Dh4{N
D$LP
D$Dj]P
Y_^[
t$8WV
Ph|}N
D$$P
Ph|}N
D$,;
D$$w
D$DP
D$Dh4{N
D$LP
D$Dj]P
t$4W
t$4W
t$4W
D$$;
D$ w
D$DP
D$Dh4{N
D$LP
D$Dj]P
D$$;
D$ w
YYSj
D$DP
D$Dh4{N
D$LP
D$Dj]P
D$$;
D$ w
YYSj
D$DP
D$Dh4{N
D$LP
D$Dj]P
Y_^[
j,[S
h0~N
h@~N
hT~N
hh~N
h|~N
j	X^
j	X_
_^[]
_^Y]
t.IIt
hx[N
QQSW
Y^_[
t~VW
D$`SVW
D$xd
D$ P
L$xd
Y_^[
L$`3
D$$P
D$$h
D$,hT
D$4h
D$(P
D$$h
D$,h
+|$ Y+
D$$YP
d$8P
Y_^[
D$$hT
D$,h
D$ P
D$$h
D$lP
(9D$
Y_^[
D$$h
98t#
QSVW
D$$h
D$\P
D$\P
t$ ;
HHSj
PQQSVW
Ht9H
\$ ;
vHSj
Y_^[
t!SW
Y_[3
(Y9u
_^[]
(Y9]
QQSV3
D$$h0
D$,h
D$ P
D$$h`
D$lP
GP+GL
<~ j`
Y_^[
_P+_L
}xj`
D$$P
D$$h
D$,h0
D$4h
D$(P
D$$h
D$,h(
D$tP
Y_^[
H\^]
HD^]
CP+CL
CP+CL
H\IVt/It$It
hdkN
hdkN
sFSW
YFY<=t
YY<'t
4HWV
F</u
uWhT
uZh`=N
Wh`=N
t_Vj
t[;u
G`+G\
t:WS
Y_^2
Ht/H
w`+w\
FP+FLj
YY9E
9[ug
t=h4
QSVW
D$$h
D$dP
Y_^[
D$@SVW
D$Xd
L$ ;
|$`;
L$ P
L$ Q
u<9|$
T$$R
|$Df
L$ 3
D$4s
D$4Ph
YYV3
t	9{
D$$;
t$(;
L$Xd
Y_^[
L$@3
u,SW
D$t3
D$XP
D$`P
Y_^[
D$$P
D$(P
D$ WP
D$ s
D$ Pj
#@h|
D$<uUVP
D$DP
L$tj
9\$ t
9{,u&
{0	u 
9_,u
hI%M
t$ u8j\
L$4P
9T$$t
)X$u
L$$r
|$(k
Yt+3
H(It=It%
Y_^[
Q$u$
D$4P
D$4h
D$<h
D$Dh
D$8P
D$4h
D$<h
v0PQ
CP+CL
CP+CL
v0Ph
9^0u
\$ k
D$$P
D$$h
D$,h
D$4h
D$(P
D$$h
D$,hp
u&9L$
Y_^[
D$$h
D$dP
Y_^[
Y_^[
D$$h
D$\P
D$\P
D$ SVW
D$8d
D$$j
D$$P
L$ Q
O\VP
L$8d
Y_^[
L$ 3
9w<t
9w<t
D$HP
D$d3
L$(j
D$lP
Y_^[
D$0P
D$4P
D$0P
D$,s
D$,Pj
9D$X
u>hHEN
D$0P
D$4P
D$Hs
t$(j
D$0P
D$4P
D$,SP
D$,s
D$,Pj
D$0SVW
D$Hd
YY9{<u+jp
|$P;
D$(P
D$$s
D$$Pj
L$Hd
Y_^[
L$03
D$0SVW
D$Hd
u.jp
|$P;
D$(P
NHZ3
C;D$
D$$s
D$$Pj
t$ j
L$Hd
Y_^[
L$03
NHSV
_^[]
_^[]
s9{ u_
D$HSVW
D$`d
D$$P
D$<SP
L$`d
Y_^[
L$H3
u]h4
PWVh
D$HSVW
D$`d
D$$P
D$<SP
L$`d
Y_^[
L$H3
u]h4
~ SW
_^[3
{\9u
Ph~f
ZRPj
C`Vj
RQPS
~#Qj
QRPh
QRPh
QRPh,|O
QRPhL|O
QRPhl|O
QRPh
QRPh
QRPh
u~9^
t-9^
<8PE
;|84u
uKj 
W_f;
SVWj>3
hwfD
_^[]
YPWj	
~,WPV
98t^
tVPV
t/9U
f9;u 
@uoW
u'9E
PPPPPPPP
SVWt
t;;}
t/9u
t*9u
woVW
t!9u
<$tL
-JkM
|!=2
Vu<+
t:f;
h4gE
u.95
<x=u
8csm
Sj Z
0;1tt
SW9E
t?f;
Vuy3
 SW3
t&:a
^[_3
VW9]
_^[]
t"Ou
<Xt	
u>9u
j-Zf
j-Xf
_^[]
 SW3
u)jAXf;
u>9u
_^[]
t'Ou
 SW3
_^[]
j@j 
^_[]
 SW3
tR:Q
t<:Q
t&:Q
@FA;
 SW3
^_[3
<Xt	
u+9u
~.8]
QW@Ph
W@Ph
~U8]
QQSVWd
QSVW
Y__^[
9^$u
_^[]
SSSSS
Wj6Y
^_[]
SSSSS
<.u1
SSSSS
.t|PVj@
_tcP
,uCP
_^[]
PPPPP
SSSSS
PPPPP
^H_[
>CuS
PPPPP
@PVW
VVVVV
h8KM
PPPPP
VVVVV
xSSSh
VWw$
~lSW
@_^]
=RCC
=MOC
=csm
8csm
9csm
~SSV
j,hH
~A;L
>csm
taSV
YYPV
t)SV
Hu4j
=MOC
t*=RCC
;7|G;p
9>u&
tR99u2
r,9Y
@_^[]
_^[]
u,9E
u,9E
9]$u
9](SS
t"SS9] u
oV f
o^0f
of@f
onPf
ov`f
o~pf
FGIu
X^_]
FGIu
j@j ^V
SWf9M
j@j 
uTVWh
VVhU
Y__^[
9csm
AWf;
tRHtC
tEHt0
u%	U
f9>t
Vh TM
f9>t
>=uu
f9>t
h(TM
h4TM
hHTM
f9>t
PPPPP
URPQQh@
L$,3
UVWS
[_^]
SVWj
_^[]
uNSW
@u^V
t%HHt
HHtXHHt
HHty+
RPSW
90tW
?If90t
_^[]
to=H
Y_^[]
Fpt"
hXWM
Y;=@
5P@M
WhXWM
h|WM
htWM
5L@M
h35E
8csm
h,<E
hdaM
h4aM
PPPPP
<v*V
h,aM
h$aM
^SSSSS
t?VSP
Y[_^
PPPPP
>"u&
< tK<	tG
wf93t
f90u
f90u
VVV+
@PSVV
t*VV
t$WV
Ht%C
Ht(f
zuxVV
tXFVP
QSVP
WWWWW
50@M
(%PbM
(5`bM
(-pbM
-@kM
-JkM
-@kM
-@kM
-@kM
-@kM
-^kM
tWItHIt9It 
QQSV
j0Xf
RPSW
90tO
j Xf
j%Yf;
jdX;
j-Xf;
j-X3
j+Xf;
jeXf;
jEXf;
jeXf
j+Xf;
j]Xf;
j][f;
j]Yf;
j+Xf;
j0Xf;
t\jXXf;
YYj0[
PPPPP
j-Xf;
j+Xf;
ou'j8Xf;
j8Xf;
u	f;O
?%uC
&VVVVV
7SVS
QQSV
tAVWP
Y[_^
PPPPP
QQSVW
TSj$h
j<SW
j<SW
j<SW
WWWWW
@u^V
t$HHt
HHtYHHt
HHty+
RPSW
90tX
v	N+D$
80t/
PPPPP
SQRP
jdRP
@PVS
@PVS
Wj0S
|-;E
PPPPP
@SurP
jdX;
F<-uq
]tfF:
YYj0[
d<%u
?%uN
@SurP
F<-uk
]t`F:
YYj0[
l<%u
Jvf;
Jvf;
Jvf;
Jvf;
Jvf;
Jvf;
Jvf;
j0Xf
RPSW
90tN
j Xf
u)jAXf;
u+9u
Y_^[
9] SS
Pj1S
Pj2S
Pj3S
Pj4S
Pj5S
Pj6S
Vj7S
F Pj*S
F$Pj+Sj
F(Pj,S
F,Pj-S
F0Pj.S
F4Pj/S
Pj0S
F8PjDS
F<PjES
F@PjFS
FDPjGS
FHPjHS
FLPjIS
FPPjJS
FTPjKS
FXPjLS
F\PjMS
F`PjNS
FdPjOS
FhPj8S
FlPj9S
FpPj:S
FtPj;S
FxPj<S
F|Pj=S
Pj>S
Pj?S
Pj@S
PjAS
PjBS
PjCS
Pj(S
Pj)S
Pj1S
Pj2S
Pj3S
Pj4S
Pj5S
Pj6S
Pj7S
Pj*S
Pj+S
Pj,S
Pj-S
Pj.S
Pj/S
Pj0S
PjDS
PjES
PjFS
PjGS
PjHS
PjIS
PjJS
PjKS
PjLS
PjMS
PjNS
PjOSj
Pj8S
Pj9S
Pj:S
Pj;S
Pj<S
Pj=S
Pj>S
Pj?S
Pj@S
PjAS
PjBS
PjCS
Pj(S
Pj)Sj
tBhd
_^[]
v4;5|
v>Sj
C0Pj
C4Pj
vL;5
C PjPV
C$PjQV
C(Pj
C)Pj
C*PjTV
C+PjUV
C,PjVV
C-PjWV
C.PjRV
C/PjSV
C8Pj
C<Pj
C@Pj
CDPj
CHPjPV
CLPjQV
|FVW
tKh@xM
t:h<xM
u/Vj
u49^
u1Vj
hpwM
Wj@hhuM
5$@M
u hDxM
PPPPP
j@Sh
t,j@
C@Ph
_^[]
PPPPPPPP
_^[]
t!Ht
_^[]
Y_^[
Y_^[
~%9M
QVj	
r 8^
tCHt(Ht 
3t(;
SSSSS
t(9}
SVWUj
]_^[
;t$,v-
UQPXY]Y[
QSWVj
=0@M
t VV9u
u:9U
u@9U
u(9U
uU9U
VVVVV
tRHtCHt4Ht%HtFHHt
SVW3
	X 9} 
t/Ht
9] t
_^[]
@tH9
ub;F
QSSSj
tej=S
VVVVV
t!PV
SSSSS
PSj?
PSj?
>:u8FV
jd_Fj
PPPPP
Pf95 
PVVRV
Pf95
VVVVVQRSSj
VVVVV
VVVVV
WVS3
r"9U
r"9U
SVW3
_^[u
SSSSW
SSSSW
@PWV
_^[]
WVU3
v	N+D$
PPPPP
u-ht
u"9U
u	9p
u	9E
;9u	
0K;]
@uoV
_^[]
t$WV
9M$u
<+t"<-t
+t HHt
u09E
HYYt
SSSSS
_^[]
<8=u
QQSV3
VVVVj
tCVV
tx~?j
t1SW
tSj=V
u`9]
?sjj
tPVV
SSSSS
SSSSS
_^[]
QRPh
F SW
_[^Y
V tI
_[^Y
WQRP
WQRP
V$9V
_^]2
RPQj
tT^]
8xu:f
mu3f
_^][
t-;~
_^]3
tMRQSP
L$ Q
D$0PSQV
SPQV
L$ QS
;)tH
u-_3
VuZ9l$0t#
SUWtP
L$ QWR
_^[]
I(-<
u	9X
t#Ht
j@Y3
j@Y3
j@Y3
j@Y3
j@Y3
Pj@j
GetP9
rocA9F
D$ _^]
9_^]3
T$ _^]
8_^]3
QSRP
|$@P
T$HQRW
L$<~@
;\$<
W(PSQW
D$@RP
PVQU
9D$ ~(
L$,;1t
;D$ |
QVPU
;D$(
D$@;
9T$ 
\$,tR
D$,RPQSU
;D$ 
|$03
t$(f
D$4u
D$,3
L$ |
t$ u
;L$(
T$$+
T$,f
|$(t
L$<~Y
<PQW
D$(f
_^][
\$LUV
t$L;
L$XQWPS
D$$t4
L$(QR
D$\P
L$\+
H\t*
VtQP
L$ QP
T$dR
l$0+o$
9L$Ptf
L$\QS
l$(+o$
9D$Pu
L$`UQSV
D$\P
K US
L$8Q
T$dRSV
N8WP
D$XR
T$XPQRV
_^][
T$T9
<PWS
:;9u
l$P3
N8RP
D$XR
S,QS
L$0QP
T$<RP
L$TQR
D$\P
T$\R
L$dPQ
T$`WR
9D$X
T$TRQ
D$hPS
D$TPQ
L$hQS
L$`Q
T$\R
T$d_^]
L$TQR
D$\P
9_^]3
T$\_^]
L$d_^]
8_^]
D$TP
L$XW
L$hQS
L$\Q
:_^]
8_^]
_^][
RPQj
L$4R
D$(P
L$(RP
P8QP
L$(+
T$(P
D$(QRP
L$(+
MTRP
UpPj
T$4P
D$,U
D$$QRPU
|$0 
\$$Q
|$0$
t$,R+
|$0&
|$(+
Vt+Vx
L$(+
u*j$h
T$(+
U\PQ
D$(RP
\$$P
L$4QRP
D$0P
L$(RP
P8QP
L$(+
L$(+
E`QR
M`RP
\$$R
T$,PQR
D$@P
D$4U
9D$4
L$(+
|$0<
|$0<
T$4P
D$,U
L$(3
|$0)
D$4t
L$$+AD
T$ Q
D$,U
T$(Q
L$(R
L$$U
L$8_^]
T$4_^]
D$$;
D$8_^
D$0PP
T$8_^]
MpRj
T$(PQRU
_^][
_^][
L$4_^]
_^][
L$(R
QPSWRV
0_^[
RUWP
T$(j
L$,QRP
UWPV
QUWRPV
L$,R
QPWSRV
0_][^Y
D$ Q
_][^Y
PQRV
SUVW
_^]3
_^]3
_^]3
_^]3
>-u$
>>u0
<xt	
}	[^
D$ _[
T$ _[
L$ _[
_^][
7_^]3
7_^]3
0^]3
>>u@
1^]3
2^]3
0^]3
u	_^]
8_^]3
9_^]3
:_^]3
_^][Y
8_^]
:_^]
D1L<
uQUS
_^][Y
_^][Y
_^][Y
_^][Y
_^]3
					
u	[_
u	[_
}	[_
]u	;
;>tF
T$ ][_
D$ ][
L$ ][_
D$ ][
uK_^
2_^3
T$ RW
][_^
D$ PW
][_^
][_^
D$ PW
][_^
L$ ][
T$ ][_
L$ ][
L$ ][_
D$ ][
T$ RW
][_^
D$ ][
L$ ][
>]u#
T$ ][
D$ ][
L$ ][
L$ ][
T$ ][
D$ ][
L$ ][_
D$ ][
L$ ][
T$ RW
][_^
L$ ][_
][_^
D$ ][
T$ ][
L$ ][
D$ ][
L$$_
1^]3
T$$_
2^]3
D$$_
0^]3
T$$_
QSUV
t$ W
;l$ }
;l$ }
;l$ }
;l$ }
t';l$ }
;l$ }
t';l$ }
;l$ }
ut;l$ }n
th;~
L;T$
;l$ }
8uue
8ou]
8puI
8ouA
8au0
8mu(
0^][
L$ _
1^][
;t$$
;|$$
l$ W
_]^[
90t%
98t"
;T$$
_^][
\$$+
T$$+
\$$+
_^][
8_^][
_^][
;T$$
_^][
\$$+
T$$+
\$$+
_^][
8_^][
_^][
ua8P
QSUW
9_]3
:_]3
:_][Y
9_][Y
}7^_]
8_]3
}{[^
}k[^
}	[^
}L[^
}<[^
},[^
_^][
[_^]
[_^]
[_^]
[_^]
[_^]
					
:]uZ
:>t2
D$ ^]_
?>t$
L$ ^]_
L$ ^]
}D[^
}4[^
}$[^
}5[^
}%[^
}	[^
L$ Q
^][_
D$ P
^][_
^][_
L$ Q
^][_
D$ ^]
L$ ^][
L$ ^][
D$ ^][
D$ P
^][_
L$ ^]
D$ ^]
:]u)
L$ ^]
D$ ^][
L$ ^]
D$ ^]
L$ ^]
D$ ^]
L$ ^][
L$ ^]
D$ ^]
^][_
}c^][
}_^][
L$ ^]
L$ ^]
L$ ^]
D$ ^][
L$ ^][3
u	_[
u	_[
SUVW
L$ _^]
D$ _^]
;l$$}
;l$$}
;l$$}
t%;l$$}
;l$$}
t%;l$$}
;l$$}
;l$$
\$ u
;l$$}
				
9puz
9oul
9su^
9auM
9mu?
9pu1
9_]3
:_]3
:_][
9_][
}4^_]
8_]3
}|[^
}l[^
}	[^
}K[^
};[^
}+[^
L$ _^]
L$ _^]
D$ _^]
_^][
D$ _^]
L$ _^]
T$ _^]
[_^]
[_^]
[_^]
[_^]
[_^]
					
L$ ^]_
D$ ^]_
D$ ^]
}B[^
}2[^
}"[^
}4[^
}$[^
}	[^
D$ P
_^[]
L$ Q
_^[]
_^[]
D$ PU
_^[]
L$ _^
T$ _^[
L$ _^[
D$ _^[
_^[]
D$ _^
L$ _^
D$ _^
L$ _^[
D$ _^
L$ _^
D$ _^
L$ _^
D$ _^[
D$ _^
L$ _^
_^[]
}c_^[
}__^[
L$ _^
L$ _^
L$ _^
D$ _^[
L$ _^[3
u	_^
u	_^
SUVW
L$ _^]
D$ _^]
;l$$}
;l$$}
;l$$}
t%;l$$}
;l$$}
t%;l$$}
;l$$}
;l$$
;l$$}
				
0^]3
wDUV
wDUV
1^]3
wDUV
2^]3
wDUV
wDUV
wDUV
l$0VW
D$(P
9D$$u|
D$0_
0^]3
L$(t
T$(R
L$0_^]
9t$$
l$(t
+GDPVW
T$(R
L$0_
1^]3
+ODh
+GDh
wDSV
T$0_
2^]3
D$0_^
T$(_^]
_^[]
9.t]S
D$$9
_[^]
E<@jG
[_^3
sLuL
^[]Y
^[]Y
^[]Y
^[]Y
T$ P
D$ Q
L$ R
T$ P
D$ Q
L$ R
D$$QRh
T$ P
D$ Q
L$ R
T$ P
D$ Q
L$ R
D$$QRhPrG
xWu\
VWu`
:xu[
:;tw
SVWt
_^[]
SVWuV
_^[]
SVWt
_^[]
SVWuZ
_^[]
SVWt
_^[]
SUVWt
QSUW
_^][
SVWt"
_^[]
_^]3
_^][
_^][
PDhD
HDhD
N$RP
V0WQR
N0WPQ
WlSU
Wt9T$
P;D$
_,UV
o<+ot
GD)_p)_l
SUVW
Ol#O4
Olf+Op
G`)Gt;
OtwX
_^]3
SUVW
Ol#O4
w`tE;
Wl+Wp
Wlf+Wd
Gxf+
_^]3
_^][
_^][
SUVW
_^]3
_^][
_^][
tq9_ tl9_$tg
V(SU
O0PQ
O0PQ
9V r
V ;Q
W0QR
W0QR
][_3
u#;\$
][_^
|$$8
O(9O$u
G Vh
W PQ
T$(W
^[_]
tmSV
9w$t
^[_]
n(9n$u
N Wh
N$WP
[_^]
9n4W
9n(u
F(+{
V4P+
F,^3
V0U+
N4W+
V,^3
N,_^3
^][_
L$4t<
+T$$
T$4P
L$$t&
L$4t
O@;H s
L$$t&
L$4t
O@;H(s
L$(PUQ
D$ )D$
)D$(
Gh;G\sU
9Ghs'3
9Ghr
GTPQ
GpPj
D$0t 
G`9Gh
L$$s*
L$$uI
G`9Gh
GTPQ
WpRj
D$0t
GXPQ
TOpRj
D$0t
D$$;
D$$;
T$4v
D$(+
T$4+
D$,+D$
D$,t,
w<^]
T$,;P
D$8+F
\$,+^
D$8t1
D$0^][_
F$QR
;T$$f
|$(f
L$,f
;L$$
l$,f
t$ u
_^][
_^][
T$$f
)l$ 
_^][
\$ tz+4
t$$f
\$ f	
SV~=
~7f9
~iSV
SVWf	
|$ WSPV
<SUVW
+T$T
L$ #
D$Tt.;
T$$#
+D$8
;l$<v
L$4u/
D$(+
;l$T
)l$T
T$(+
;l$Tsb)l$T
;D$T
L$4s@)D$T
;l$Ts
)l$T
;t$,
L$Tw
L$P+
D$,+
x<_^]
D$dv
D$,8
T$43
T$@u
T$(*
T$0f
D$<+
u ;T$
t$@#
;t$4
T$8u
L$ +
T$4f
L$@#
;L$4t
t!jd
hcWL&
RhcWL&
QhcWL&
Rh;A
Rh;A
Rh{w
Qh{w
Rhx	
Rhx	
Rhtu
Phtu
Rh%Q
Qh%Q
RhAC
RhAC
hB9-3
RhB9-3
PhB9-3
Rhj=
Rhj=
RhXr
PhXr
Rhi<
Phi<
hN<M
RhN<M
QhN<M
h))|f
Rh))|f
Ph))|f
hl#1
Rhl#1
Rhl#1
Rh0c
Qh0c
Rhs5
Qhs5
Rh?k
Ph?k
h'\_
Rh'\_
Qh'\_
Rh\4
Qh\4
Rh<d
Ph<d
hTi*I
RhTi*I
QhTi*I
hDyAR
RhDyAR
QhDyAR
RhdO
RhdO
RhY%
QhY%
Rhd/
Phd/
RhSX
PhSX
Rh2m
Rh2m
Rh(0
Rh(0
hsd]s
Rhsd]s
Rhsd]s
RhMC
PhMC
Rhhv
Phhv
RhXG
PhXG
RhW_
RhW_
Rh61
Qh61
h>QE
Rh>QE
Ph>QE
h`O;
Rh`O;
Ph`O;
Rh#y
Qh#y
Rhz]
Qhz]
Rhi.
Rhi.
RhnI
RhnI
hVd=
RhVd=
RhVd=
h:~'
Rh:~'
Rh:~'
hA.{8
RhA.{8
QhA.{8
Rh_:
Qh_:
Rh#E
Qh#E
RhXA
RhXA
Rh<:
Qh<:
h$]&
Rh$]&
Qh$]&
Rh!t
Qh!t
Rh{w
Qh{w
RhKr
QhKr
Rh;J
Rh;J
RhI}
RhI}
hxER
RhxER
RhxER
hDbe}
RhDbe}
QhDbe}
RhA%
PhA%
h{K,~
Rh{K,~
Qh{K,~
Rhn2
Rhn2
hJGWW
RhJGWW
RhJGWW
Rh2p
Qh2p
Rhek
Rhek
Rhxl
Phxl
Rh^!
Ph^!
RhET
PhET
Rhj>
Qhj>
RhNb
QhNb
Rhqa
Qhqa
Rh@T
Rh@T
RhEn
QhEn
h~ez
Rh~ez
Rh~ez
hBVv
RhBVv
QhBVv
RhW)
PhW)
Rhx,
Rhx,
RhQb
QhQb
Rh@4
Ph@4
Rhii
Rhii
Rhf,
Phf,
Rh n
Ph n
h$E$
Rh$E$
Rh$E$
hcD+
RhcD+
QhcD+
h5$X5
Rh5$X5
Ph5$X5
RhW9
QhW9
hZ_+/
RhZ_+/
QhZ_+/
RheT
PheT
h$e0
Rh$e0
Ph$e0
Rhi2
Qhi2
RhQ^
QhQ^
h?oV
Rh?oV
Qh?oV
h Il
Rh Il
Qh Il
h1(T
Rh1(T
Qh1(T
Rhw<
Qhw<
h:+>
Rh:+>
Qh:+>
Rh R
Ph R
Rh}_
Qh}_
Rh%\
Ph%\
h@}N
Rh@}N
Qh@}N
Rhe4
Qhe4
Rh#^
Qh#^
RhHJ
PhHJ
RhHn
QhHn
h[H[
Rh[H[
Qh[H[
Rhvb
Qhvb
h1to-
Rh1to-
Ph1to-
RhEE
RhEE
hMCl)
RhMCl)
QhMCl)
Rh41
Ph41
Rh4!
Qh4!
RhXD
PhXD
Rh4	
Qh4	
h'1e
Rh'1e
Qh'1e
hXWI-
RhXWI-
QhXWI-
hoqhR
RhoqhR
RhoqhR
h:a`Z
Rh:a`Z
Rh:a`Z
RhrE
RhrE
hKiC
RhKiC
QhKiC
RhAH
RhAH
hWU|
RhWU|
QhWU|
h< )
Rh< )
Qh< )
RhcQ
QhcQ
h?,R
Rh?,R
Ph?,R
Rh#0
Qh#0
RhYF
QhYF
RhqX
QhqX
h]Cde
Rh]Cde
Qh]Cde
Rh3n
Ph3n
hyYhc
RhyYhc
QhyYhc
Rhlc
Qhlc
Rhh`
Rhh`
hJa 
RhJa 
QhJa 
Rhbc
Rhbc
h4a_
Rh4a_
Qh4a_
Rhbq
Qhbq
h5Q\4
Rh5Q\4
Ph5Q\4
RhWg
RhWg
RhTC
RhTC
h\o'
Rh\o'
Qh\o'
h49]
Rh49]
Rh49]
h'Ogu
Rh'Ogu
Rh'Ogu
hlLF2
RhlLF2
QhlLF2
Rhc[
Rhc[
hdvR
RhdvR
QhdvR
hF\B
RhF\B
QhF\B
Rh5!
Qh5!
hylU
RhylU
RhylU
h9#N
Rh9#N
Qh9#N
hd&L_
Rhd&L_
Qhd&L_
RhMX
RhMX
h(x?G
Rh(x?G
Qh(x?G
Rh6_
Rh6_
PPPPPPPP
SVWf
<$Xf
h'8M
h,8M
hR8M
ho8M
h)9M
h=9M
hP9M
hc9M
hn9M
hy9M
j`h@
VERSION.dll
<5IkQ
<5IkQ
<5IkQ
 USERENV.dll
WS2_32.dll
NETAPI32.dll
CRYPT32.dll
ADVAPI32.dll
SHELL32.dll
OLEAUT32.dll
generic
iostream
system
iostream stream error
Unknown exception
bad allocation
SystemFunction036
Visual C++ CRT: Not enough memory to complete call to strerror.
LC_TIME
LC_NUMERIC
LC_MONETARY
LC_CTYPE
LC_COLLATE
LC_ALL
 !"#$%&'()*+,-./0123456789:;<=>?@ABCDEFGHIJKLMNOPQRSTUVWXYZ[\]^_`abcdefghijklmnopqrstuvwxyz{|}~
bad exception
 !"#$%&'()*+,-./0123456789:;<=>?@abcdefghijklmnopqrstuvwxyz[\]^_`abcdefghijklmnopqrstuvwxyz{|}~
 !"#$%&'()*+,-./0123456789:;<=>?@ABCDEFGHIJKLMNOPQRSTUVWXYZ[\]^_`ABCDEFGHIJKLMNOPQRSTUVWXYZ{|}~
CorExitProcess
UTF-8
UTF-16LE
UNICODE
(null)
( 8PX
700WP
`h````
xpxxxx
HH:mm:ss
dddd, MMMM dd, yyyy
MM/dd/yy
December
November
October
September
August
July
June
April
March
February
January
Saturday
Friday
Thursday
Wednesday
Tuesday
Monday
Sunday
FlsFree
FlsSetValue
FlsGetValue
FlsAlloc
UUUUU
?Dj0Q:W$=
Lyc>=
?C;0=
5M[g
M_8=
/r(=
?4j<=
Nl,"=
Xg+=
?{fHn
5s3R6=
?#60
modf
floor
ceil
atan
exp10
?acos
asin
log10
SunMonTueWedThuFriSat
JanFebMarAprMayJunJulAugSepOctNovDec
('8PW
700PP
`h`hhh
xppwpp
e+000
Illegal byte sequence
Function not implemented
No locks available
Filename too long
Resource deadlock avoided
Result too large
Domain error
Broken pipe
Too many links
Read-only file system
Invalid seek
No space left on device
File too large
Inappropriate I/O control operation
Too many open files
Too many open files in system
Is a directory
Not a directory
No such device
Improper link
File exists
Resource device
Not enough space
Resource temporarily unavailable
No child processes
Bad file descriptor
Exec format error
Arg list too long
No such device or address
Input/output error
Interrupted function call
No such process
No such file or directory
Operation not permitted
united-states
united-kingdom
trinidad & tobago
south-korea
south-africa
south korea
south africa
slovak
puerto-rico
pr-china
pr china
new-zealand
hong-kong
holland
great britain
england
czech
china
britain
america
swiss
swedish-finland
spanish-venezuela
spanish-uruguay
spanish-puerto rico
spanish-peru
spanish-paraguay
spanish-panama
spanish-nicaragua
spanish-modern
spanish-mexican
spanish-honduras
spanish-guatemala
spanish-el salvador
spanish-ecuador
spanish-dominican republic
spanish-costa rica
spanish-colombia
spanish-chile
spanish-bolivia
spanish-argentina
portuguese-brazilian
norwegian-nynorsk
norwegian-bokmal
norwegian
italian-swiss
irish-english
german-swiss
german-luxembourg
german-lichtenstein
german-austrian
french-swiss
french-luxembourg
french-canadian
french-belgian
english-usa
english-us
english-uk
english-trinidad y tobago
english-south africa
english-nz
english-jamaica
english-ire
english-caribbean
english-can
english-belize
english-aus
english-american
dutch-belgian
chinese-traditional
chinese-singapore
chinese-simplified
chinese-hongkong
chinese
canadian
belgian
australian
american-english
american english
american
Norwegian-Nynorsk
 Complete Object Locator'
 Class Hierarchy Descriptor'
 Base Class Array'
 Base Class Descriptor at (
 Type Descriptor'
`local static thread guard'
`managed vector copy constructor iterator'
`vector vbase copy constructor iterator'
`vector copy constructor iterator'
`dynamic atexit destructor for '
`dynamic initializer for '
`eh vector vbase copy constructor iterator'
`eh vector copy constructor iterator'
`managed vector destructor iterator'
`managed vector constructor iterator'
`placement delete[] closure'
`placement delete closure'
`omni callsig'
 delete[]
 new[]
`local vftable constructor closure'
`local vftable'
`RTTI
`udt returning'
`copy constructor closure'
`eh vector vbase constructor iterator'
`eh vector destructor iterator'
`eh vector constructor iterator'
`virtual displacement map'
`vector vbase constructor iterator'
`vector destructor iterator'
`vector constructor iterator'
`scalar deleting destructor'
`default constructor closure'
`vector deleting destructor'
`vbase destructor'
`string'
`local static guard'
`typeof'
`vcall'
`vbtable'
`vftable'
operator
 delete
 new
__unaligned
__restrict
__ptr64
__eabi
__clrcall
__fastcall
__thiscall
__stdcall
__pascal
__cdecl
__based(
GetProcessWindowStation
GetUserObjectInformationW
GetLastActivePopup
GetActiveWindow
MessageBoxW
_nextafter
_logb
frexp
fmod
_hypot
_cabs
ldexp
fabs
sqrt
atan2
tanh
cosh
sinh
1#QNAN
1#INF
1#IND
1#SNAN
SHLWAPI.dll
 !"#$%
CDATA[
 !"#
 !"#
 !"#
 !"#
 !"#
 !"#
 !"#
 !"#
CDATA[
 !"#
 !"#
 !"#
 !"#
CDATA[
 !"#
 !"#
version
encoding
standalone
ISO-8859-1
US-ASCII
UTF-8
UTF-16
UTF-16BE
UTF-16LE
ATTLIST
CDATA
DOCTYPE
ELEMENT
EMPTY
ENTITIES
ENTITY
FIXED
IDREF
IDREFS
IGNORE
IMPLIED
INCLUDE
NDATA
NMTOKEN
NMTOKENS
NOTATION
PCDATA
PUBLIC
REQUIRED
SYSTEM
 n;^
Qkkbal
i]Wb
9a&g
MGiI
wn>Jj
#.zf
+o*7
Z* ,	
H$6t
52F*
	#jT$
^6o}
[-&LMb#{'
w+OQvr
R1h58
SKyu
)\ZEo^m/
ru&o
i8P/
?(3w
H*0"ZOW
{kHw
)T`D
!AxU
l!;b	F
:1X:
y9*O
kM`~
Vc0a
dQy/
lDa>
7~8A
C-Yn
gqr<
$/o|
f-=v
mj>zjZ
l6qnk
IiGM>nw
1A26b
i91k
ewh/?y
*5KS
6~_'
F*.f
1wsHp
M8MF
Pe6^
#bML"
`F(>
vQO+t
[h1R
XsBI
hPU3
^oEZ_
2%k_
w3Xc
/P8i
OZw3(?
Z"0*
fP~V
^GP~
b;!l
V_:X1:
NJ2"v
O*9y]
fu`z
/yQA
&]|v
 deflate 1.2.5 Copyright 1995-2010 Jean-loup Gailly and Mark Adler 
1.2.5
incorrect length check
incorrect data check
invalid distance too far back
invalid distance code
invalid literal/length code
invalid distances set
invalid literal/lengths set
invalid bit length repeat
invalid code -- missing end-of-block
too many length or distance symbols
invalid code lengths set
invalid stored block lengths
invalid block type
header crc mismatch
unknown header flags set
incorrect header check
invalid window size
unknown compression method
								
incompatible version
buffer error
insufficient memory
data error
stream error
file error
stream end
need dictionary
 inflate 1.2.5 Copyright 1995-2010 Mark Adler 
nvapi_QueryInterface
nvapi_pepQueryInterface
nvapi.dll
nvapi.dll
nvpowerapi.dll
nvpowerapi.dll
[%2.2hu:%2.2hu:%2.2hu] %s
bad locale name
ios_base::badbit set
ios_base::failbit set
ios_base::eofbit set
ABCDEFGHIJKLMNOPQRSTUVWXYZabcdefghijklmnopqrstuvwxyz0123456789+/=
?456789:;<=
 !"#$%&'()*+,-./0123
XmlRpc.Return
Z%$u
install
remove
debug
help
daemonu
%s -install   to install the service
%s -remove    to remove the service
%s -debug     to debug the service
%s -?|h|help  to show help list
\Contacts
\Searches
/RegUpdatus
ComUpdatus.exe
Failed to set permissions for COM object
Stopping %s.
invalid string position
string too long
vector<T> too long
bad cast
**********************  UPDATUS IS RUNNING  **********************
******************************************************************
false
true
Pending
Not initialized
Already initialized
Invalid handle
Lack of memory or other resource
Another instance is running
Not found
Buffer too small
Bad parameter
Access denied
Operation failed
Invalid version
General error
No error
Unknown error
Enter SERVICE_Init
Another instance is running!
Initialize failed: '%s' (error code: %d)!
UPDT daemon is running, press 'exit' + CR to exit!
exiting...
    %s
Initialize path failed!
Another daemon instance is running!
Cannot create log tracehandler: %s
SetSecurityDescriptorControl
DEST
L09n
b'kJ
invalid bitset<N> position
invalid bitset<N> char
Cannot load packages from PS
Cannot create async install thread
invalid map/set<T> iterator
map/set<T> too long
No event dispatcher!
No RPC secret.
http://localhost:2559
RPC interface initialization failed.
Cannot bind broadcast socket!
Cannot start RPC interface!
localhost
nvoglv64.dll
nvwgf2umx.dll
nvd3dumx.dll
nvwgf2um.dll
nvoglv32.dll
drivers\nvlddmkm.sys
nvd3dum.dll
nvappbar.exe
nvwddi64.dll
keystone.exe
nvwdmcpl.dll
nView64.dll
nvwimg64.dll
nwiz.exe
nvapi64.dll
nvogl32.dll
nvexpbar.dll
nvcpluir.dll
nvcplui.exe
nvcpl.dll
nvwssr.dll
nvwss.dll
nvmccssr.dll
nvmccss.dll
nvmoblsr.dll
nvmobls.dll
nvvitvsr.dll
nvvitvs.dll
nvgamesr.dll
nvgames.dll
nvdispsr.dll
nvdisps.dll
nvmctray.dll
nvShell.dll
nView.dll
nvapi.dll
nvoglnt.dll
drivers\nv4_mini.sys
nv4_disp.dll
-impure-
[FATAL ERROR] Exception during tracing!
CreateEvent failed
Config write error
%04u-%02u-%02uT%02u:%02u:%02uZ
Journal file corrupted
Data to parse required
Data source is not open
Data read error
No data
Attribute name cannot be empty
Attribute already exists in the tag
NULL pointer is not allowed
HashImplementation::reset failed
boolean
double
string
array
struct
dateTime.iso8601
No host data of that type was found
Host not found
Graceful shutdown in progress
WSAStartup not yet called
Winsock version out of range
Network system is unavailable
Too many levels of remote in path
Stale NFS file handle
Disc quota exceeded
Too many users
Too many processes
Directory not empty
No route to host
Host is down
File name too long
Too many levels of symbolic links
Connection refused
Connection timed out
Too many references, can't splice
Can't send after socket shutdown
Socket is not connected
Socket is already connected
No buffer space available
Connection reset by peer
Software caused connection abort
Net connection reset
Network is unreachable
Network is down
Can't assign requested address
Address already in use
Address family not supported
Protocol family not supported
Operation not supported on socket
Socket type not supported
Protocol not supported
Bad protocol option
Protocol wrong type for socket
Message too long
Destination address required
Socket operation on non-socket
Operation already in progress
Operation now in progress
Operation would block
Too many open sockets
Invalid argument
Bad address
Permission denied
Bad file number
Interrupted system call
1.2.5
value
<array><data>
<value>
</value>
</data></array>
<struct>
<member>
<name>Major</name>
</member>
<name>Minor</name>
<name>BuildNumber</name>
<name>Description</name>
<name>ReleaseDate</name>
</struct>
<name>id</name>
<name>state</name>
<name>name</name>
<name>category</name>
<name>version</name>
<name>releaseDate</name>
<name>downloadDate</name>
<name>installDate</name>
<name>UpdateType</name>
<name>Name</name>
<name>Version</name>
<name>ReleaseDateTime</name>
<name>DetailsURL</name>
<name>isBeta</name>
methodCall
GetVersion
params
GetSHIM
GetSUGAR
GetPackageList
CheckUpdatesNow
SetCheckFrequency
param
GetCheckFrequency
SetSearchBetaVersions
GetSearchBetaVersions
GetUpdatesList
GetLastCheckTime
SetEnableUpdates
GetEnableUpdates
SetEnableUpdateType
GetEnableUpdateType
IsUpdateTypeSupported
Installer_EnableUpdatus
Installer_EnableNotifius
Installer_EnableDRS
</methodName>
<methodName>
Unknown Function name
Unknown internal error
<?xml version="1.0"?>
<methodResponse>
   <fault>
      <value>
         <struct>
            <member>
               <name>faultCode</name>
               <value><int>
</int></value>
               </member>
            <member>
               <name>faultString</name>
               <value><string>
</string></value>
               </member>
            </struct>
         </value>
      </fault>
   </methodResponse>
base64 (NOT A TYPE, BUT XML FIELD)
INVALID
                                                                                                                                                                                                                                                                
<?xml version='1.0' encoding='utf-8' ?>
%s<methodResponse>
%s<params>
%s</params>
%s</methodResponse>
%s<param>
%s<value>
%s</value>
%s</param>
%s<i4>%d</i4>
%s<boolean>%d</boolean>
%s<dateTime.iso8601>%s</dateTime.iso8601>
%s<string>%s</string>
UTF-8
UNICODE
version
encoding
	+0<
0123456789
?xml
methodName
http://
https://
/crossdomain.xml
POST
Invalid HTTP header
HTTP/%d.%d
HTTP/1.
GET %s
POST %s
GET %s HTTP/1.%d
POST %s HTTP/1.%d
host: 
User-Agent: 
Authorization: Basic 
HTTP/%d.%d 200 OK
Server: NVIDIA Stream HTTP server/2008
Content-Type: text/xml
Content-Length: %d
Transfer-Encoding: chunked
HTTP 400 Bad request
Error Nr: %d
udp://
tcp://
%1024[a-zA-Z0-9.-]:%d
%s:%d
Internal error! type should be 1 or 0
string://
func://
raB3GH
RSDSAg
C:\dvs\p4\build\sw\rel\gpu_drv\r310\r310_00\drivers\notifius\daemon\exe\Win32\ReleaseUnicode\daemonU.pdb
GetFileVersionInfoW
VerQueryValueW
GetFileVersionInfoSizeW
LoadUserProfileW
UnloadUserProfile
GetUserProfileDirectoryW
WSAWaitForMultipleEvents
WSAResetEvent
WSACreateEvent
WSAEventSelect
WSAEnumNetworkEvents
WSACloseEvent
NetUserAdd
NetUserSetInfo
NetUserDel
NetUserGetInfo
NetApiBufferFree
CryptProtectData
CryptUnprotectData
CreateServiceW
CloseServiceHandle
DeleteService
OpenSCManagerW
StartServiceCtrlDispatcherW
LogonUserW
LsaOpenPolicy
OpenServiceW
RegCreateKeyExW
LsaAddAccountRights
StartServiceA
ChangeServiceConfig2W
QueryServiceStatus
LsaClose
ImpersonateLoggedOnUser
ChangeServiceConfigW
SetServiceStatus
QueryServiceStatusEx
OpenSCManagerA
RevertToSelf
RegisterServiceCtrlHandlerW
ControlService
RegCloseKey
CopySid
GetSecurityDescriptorControl
EqualSid
LsaLookupNames2
InitializeSecurityDescriptor
ConvertStringSidToSidW
GetFileSecurityW
SetSecurityDescriptorDacl
SetNamedSecurityInfoW
SetFileSecurityW
InitializeAcl
SetEntriesInAclW
IsValidSid
LsaNtStatusToWinError
GetLengthSid
LsaFreeMemory
CreateProcessWithLogonW
RegQueryValueExW
RegOpenKeyExW
OpenThreadToken
GetTokenInformation
LookupPrivilegeValueW
ImpersonateSelf
SetSecurityDescriptorOwner
GetSecurityDescriptorOwner
AdjustTokenPrivileges
ConvertSidToStringSidW
ConvertStringSecurityDescriptorToSecurityDescriptorW
RegSetValueExW
CryptGetHashParam
CryptAcquireContextW
CryptReleaseContext
CryptCreateHash
CryptDestroyHash
CryptHashData
SHFileOperationW
SHGetFolderPathW
SHDeleteKeyW
PathGetDriveNumberW
GetModuleBaseNameA
PSAPI.DLL
WinHttpReceiveResponse
WinHttpSetOption
WinHttpSendRequest
WinHttpConnect
WinHttpCloseHandle
WinHttpQueryHeaders
WinHttpQueryDataAvailable
WinHttpOpen
WinHttpOpenRequest
WinHttpCrackUrl
WinHttpReadData
WinHttpAddRequestHeaders
WINHTTP.dll
GetSystemTime
CreateProcessW
GetCurrentProcess
WaitForSingleObject
OutputDebugStringW
Sleep
GetExitCodeProcess
GetFileAttributesW
GetModuleFileNameW
GetTempPathW
GetLastError
SetConsoleCtrlHandler
CloseHandle
QueryPerformanceCounter
QueryPerformanceFrequency
FindFirstFileW
HeapAlloc
HeapFree
GetModuleHandleW
GetProcessHeap
GetProcAddress
FindClose
FindNextFileW
LocalFree
SetFileAttributesW
lstrlenW
GetSystemTimeAsFileTime
GetProcessTimes
GetTickCount
GetVersionExW
GetFileAttributesExW
CreateFileW
GetCurrentThread
InterlockedDecrement
WideCharToMultiByte
MultiByteToWideChar
SetEnvironmentVariableW
GetModuleHandleExW
CreateDirectoryW
CopyFileW
GetStartupInfoW
GetStdHandle
SetLastError
LocalAlloc
RemoveDirectoryW
WaitForMultipleObjects
DeleteFileW
GetVolumeInformationW
CreateMutexW
SystemTimeToFileTime
SetEvent
WriteFile
FormatMessageW
FileTimeToSystemTime
ReadFile
ReleaseSemaphore
FlushFileBuffers
ResetEvent
CreateSemaphoreW
CreateEventW
ReleaseMutex
FileTimeToLocalFileTime
InitializeCriticalSection
LeaveCriticalSection
EnterCriticalSection
GetModuleFileNameA
lstrlenA
SetEndOfFile
SetFilePointerEx
GetFileInformationByHandle
KERNEL32.dll
CoCreateInstance
CoUninitialize
CoInitialize
StringFromGUID2
CoCreateGuid
ole32.dll
FreeLibrary
InterlockedExchange
LoadLibraryA
RaiseException
InterlockedIncrement
InterlockedCompareExchange
GetStringTypeW
EncodePointer
DecodePointer
DeleteCriticalSection
ReadConsoleInputA
SetConsoleMode
GetConsoleMode
PeekConsoleInputA
GetNumberOfConsoleInputEvents
GetCommandLineA
HeapSetInformation
LoadLibraryW
MoveFileW
SetStdHandle
InitializeCriticalSectionAndSpinCount
GetFileType
ExitThread
GetCurrentThreadId
CreateThread
GetCPInfo
RtlUnwind
LCMapStringW
TerminateProcess
UnhandledExceptionFilter
SetUnhandledExceptionFilter
IsDebuggerPresent
IsProcessorFeaturePresent
SetHandleCount
ExitProcess
GetConsoleCP
GetACP
GetOEMCP
IsValidCodePage
TlsAlloc
TlsGetValue
TlsSetValue
TlsFree
HeapCreate
HeapSize
FreeEnvironmentStringsW
GetEnvironmentStringsW
GetCurrentProcessId
GetLocaleInfoW
SetFilePointer
GetUserDefaultLCID
GetLocaleInfoA
EnumSystemLocalesA
IsValidLocale
HeapReAlloc
WriteConsoleW
CompareStringW
GetTimeZoneInformation
SetEnvironmentVariableA
GetModuleHandleA
DebugBreak
.?AVerror_category@std@@
.?AV_Generic_error_category@std@@
.?AV_Iostream_error_category@std@@
.?AV_System_error_category@std@@
.?AV_Locimp@locale@std@@
.?AVlength_error@std@@
.?AVout_of_range@std@@
Copyright (c) 1992-2004 by P.J. Plauger, licensed by Dinkumware, Ltd. ALL RIGHTS RESERVED.
.?AVtype_info@@
.?AVbad_exception@std@@
                          
abcdefghijklmnopqrstuvwxyz
ABCDEFGHIJKLMNOPQRSTUVWXYZ
                          
abcdefghijklmnopqrstuvwxyz
ABCDEFGHIJKLMNOPQRSTUVWXYZ
kU'9
HMXB
?Zd;
?/L[
S;uD
z?aUY
D?$?
U>c{
zc%C1
.:3q
-64OS
NKeb
.?AV_com_error@@
.?AV?$ctype@_W@std@@
.?AUctype_base@std@@
.?AVfacet@locale@std@@
.?AV?$basic_ostringstream@_WU?$char_traits@_W@std@@V?$allocator@_W@2@@std@@
.?AV?$basic_stringbuf@_WU?$char_traits@_W@std@@V?$allocator@_W@2@@std@@
.?AV?$basic_ostream@_WU?$char_traits@_W@std@@@std@@
.?AV?$basic_streambuf@_WU?$char_traits@_W@std@@@std@@
.?AV?$basic_ios@_WU?$char_traits@_W@std@@@std@@
.?AV?$_Iosb@H@std@@
.?AVios_base@std@@
.?AVruntime_error@std@@
.?AVexception@std@@
.?AVfailure@ios_base@std@@
.?AVsystem_error@std@@
NVIDIA Update Service Daemon
.?AVbad_cast@std@@
.?AVbad_alloc@std@@
.?AV?$numpunct@_W@std@@
.?AV?$num_put@_WV?$ostreambuf_iterator@_WU?$char_traits@_W@std@@@std@@@std@@
.?AVupdtTime@@
.?AVupdtFirewallCtrlImplClass@@
.?AVupdtFirewallCtrlClass@@
.?AVCAtlException@ATL@@
.?AVupdtDaemonManager@@
.?AU?$Composite@VElement@ElementFactory@@@@
.?AVGroupElement@ElementFactory@@
.?AVElement@ElementFactory@@
.?AV?$updtPool@UEventParam@updtEventDispatcher@@@@
.?AV?$updtPool@U?$updtNode@UEventParam@updtEventDispatcher@@@@@@
.?AV?$updtPriorityQueue@UEventParam@updtEventDispatcher@@$00VPriorityQueue_Lock_ConditionVar@@@@
.?AVupdtSUGARClient@@
.?AVHTTPClient@@
.?AVWinHTTPClient@@
.?AVupdtTimeSpan@@
.?AVinvalid_argument@std@@
.?AVPackageManager@GFE@@
.?AVEventCallback@updtConnectionManager@@
.?AVupdtConnectionManager@@
.?AVCallback@updtEventDispatcher@@
.?AVDaemon@API@UPDT@@
.?AVBase@Server@GTL@NVIDIA@@
.?AVupdtRefCount@@
.?AVlogic_error@std@@
.?AVShimComplexLine@updtShimXmlClass@@
.?AVShimLine@updtShimXmlClass@@
.?AVupdtSyncObject@@
.?AVupdtMutex@@
.?AVFileTraceHandler@GFE@@
.?AVTraceHandler@GFE@@
.?AVFloatElement@ElementFactory@@
.?AVInt64Element@ElementFactory@@
.?AVIntElement@ElementFactory@@
.?AVBackingStore@updtPersistentStore@@
.?AVupdtMemBackingStore@@
.?AVupdtJournalBackingStore@@
.?AVObject@updtPersistentStore@@
.?AVParseException@XML@GFE@@
.?AVRuntimeException@GFE@@
.?AVException@GFE@@
.?AVNode@XML@GFE@@
.?AVAbstractHttpAccessConsumer@HttpAccess@GFE@@
.?AVFileBasedConsumer@HttpAccess@GFE@@
.?AVupdtAsyncSocket@@
.?AVMemoryBasedConsumer@HttpAccess@GFE@@
.?AVIOBase@GFE@@
.?AVFile@GFE@@
.?AV_RPCServerStub_UPDT_API_IDaemon_Installer_EnableDRS@@
.?AV_RPCServerStub_UPDT_API_IDaemon_Installer_EnableNotifius@@
.?AV_RPCServerStub_UPDT_API_IDaemon_Installer_EnableUpdatus@@
.?AV_RPCServerStub_UPDT_API_IDaemon_IsUpdateTypeSupported@@
.?AV_RPCServerStub_UPDT_API_IDaemon_GetEnableUpdateType@@
.?AV_RPCServerStub_UPDT_API_IDaemon_SetEnableUpdateType@@
.?AV_RPCServerStub_UPDT_API_IDaemon_GetEnableUpdates@@
.?AV_RPCServerStub_UPDT_API_IDaemon_SetEnableUpdates@@
.?AV_RPCServerStub_UPDT_API_IDaemon_GetLastCheckTime@@
.?AV_RPCServerStub_UPDT_API_IDaemon_GetUpdatesList@@
.?AV_RPCServerStub_UPDT_API_IDaemon_GetSearchBetaVersions@@
.?AV_RPCServerStub_UPDT_API_IDaemon_SetSearchBetaVersions@@
.?AV_RPCServerStub_UPDT_API_IDaemon_GetCheckFrequency@@
.?AV_RPCServerStub_UPDT_API_IDaemon_SetCheckFrequency@@
.?AV_RPCServerStub_UPDT_API_IDaemon_CheckUpdatesNow@@
.?AV_RPCServerStub_UPDT_API_IDaemon_GetPackageList@@
.?AV_RPCServerStub_UPDT_API_IDaemon_GetSUGAR@@
.?AV_RPCServerStub_UPDT_API_IDaemon_GetSHIM@@
.?AV_RPCServerStub_UPDT_API_IDaemon_GetVersion@@
.?AVupdtSTREAMBaseUnit@@
.?AVupdtSTREAMRPC@@
.?AVupdtSTREAMBaseAutoUnit@@
.?AUBaseUserData@updtSTREAM@@
.?AVupdtSTREAMServerMTF@@
.?AVupdtSTREAMServerSingleton@@
.?AVupdtSTREAMServerSTB@@
.?AVupdtSTREAMServer@@
.?AVGetCrossDomain@@
.?AUHTTPUserData@updtSTREAMHTTP@@
.?AVupdtSTREAMHTTP@@
.?AVupdtSTREAMSock@@
.?AVupdtSTREAMDriverModule@@
.?AVupdtSTREAMDriver@@
.?AVupdtSTREAMString@@
.?AUFuncUserData@updtSTREAMFunc@@
.?AVupdtSTREAMFunc@@
.?AVupdtSocket@@
IHDR
IDATx
%Gy'
y##"
yU}>
C		R
DR(!
HAB@
"%  D
	(J 
RzdB+
 n+t
ePEAB
Ry(^
~H(Q
S+m!,[
	*A	
$(Ai:W
Ef:@
bC I
>|H3
Eo+my
u)h6
^^zg,
ov Z?
;.JA
u,z}v
8V)?
UJaX
@S]s{
65J3'f/6
T\"N
J%T*!
6_PK
ZPZ7
P(Wj
?Xq)V
Watl
o2[@@!
llB/
	x$,}
	CBu
ZbA)?
Xte,~
m45 
q	4[3
dco=+'
<wRNSz
9pVE
 ssz
][Y7
YxVxVv
P@o9
ha	]
Ri/T FB1
H?+9
nSOCz!
D84s
P)%W
\zmU,
F'FW
S!1	71
Uz~4We|
]BA*
c`iF
@(bE
hb	R
Xmy|
w)~F
~ee#
@08I
M-cq~	Q;
f	@)
&hkeX
HO!*
IKXV
0J_B
}:;4
?'1Yk
"dW*"
[Bo<
$uI8
n{xCe,
VhDg
y@ 	I
{P5}<p
Bh/K
kv>!
Vc"s
q[[y
IDAT
1"DJ;
,?;K
x	!f
@*@J
b	]4
Ey p
k1GSh
Tll|`^uF
ZJP.
7D&$U
BWxT
-w67
 ^=|
ODf7
-w/o9
4H	$
 w6+{v:
"=G@ x
Xy:)?
4w)9
v3Y8
 VZk
*B6s
g1PZ
gn.w
a,wZH
nVH|k
dde]
I'Nw
7Ph5
.SWw
B{!Bs.
m,B*;
	l`L
#h\:
oQ$}!
{188
*tbfR
(GBQ
:*8{
"'#qjj
1>>B
LyPmP
k7bbp
~/)FL](3&
=@(!D
BBwY
@+>+?+
x{XU
vV'/y X
^FAw
`txcrg
BL<xyH
{"Ibxh
Z}^_
N(AB
Sw|r
x1<w
`r`~
8N|qi=3
#Awd
-4T3
Z_8:
i-V|.5
r%(WP
12QE
|=mM
3x;tOo
^?D%;W.
V/#D
D* 	
@JH)
],!}
*	DI
$0{i
g_k^_
;3'qvqq
zCA(
t%"!%
yaIo
ui6a
;|ids
J*$22K
4+01
!"$R
R'tA@J
3#1?
	Q[?
/~fn
&IWA
G<2Y
mtM5"
>OB3
\8=p
~	U/P
X*Q i
9s6>:
#Q&MZI
|"9h
@L;9
O nJ,Ou1w
& 1h
k\_N
IDAT
!jKHi
A7AfOnR0
A_Fp
oeFY
wV<Q;
AJe:Q&
OxHw
\M"@Fz@s@E
h38	
yk$I
K-?S
KA%A<}
	[xi:
Sg:'
\}(XEa4
|wc(t
^4}R
o	=1pb_
)"~/
{+7$1
v%JAu
O6^BV
Q$gl$
S'Ib"
b%r$
~=XD
{Y.p
djK$
@z^	a
EWj8
!BIB 
yBi|
C|nJ/
jh{m
D|^a
h)D(
5aq!`
kxyk
b1oy
&7PD
P'AD
?hJ_
O5,j
3v6_
)CHh
"T{J)
6G9l
Eogk
\o_[
OUyq
^^p;
GGw^
dd}sc{
s.4jg
lk&39
QhR'&
<I>{
A`jQ
@B3G
8z!@
gF?>
-I[411
GLo,
V^B@
>(tN_Z
h,Py
mSxY
\ku 
1fx~Y
8SD(
<ts?
M$C~
fE5!
W(:R
?J@<?7x8
P`xL
I[M\
U r:
vH&x
81~H
@ip$
Kh%'
L%M 
0C}P
`~^#
IDAT
o/v9
 8f:
*P^vW&
$h[2
|pqh
>H!P@
6s3@u;
emM^
xJ;A
o.7f
U	jj~
RL&S
?l9D{
j=>=,3,
BRj-
l.4Q
i^ICz
[)1pn
`/2IW]
YlTYY
1&8$
I&S|
|&OQ
<Am'
&rJCU
pN#a=
SWYeq
cLI2D
_tD{ik
`O#b
LDcz
,l-)
RJP)
ck5N!
$hOV`
vd[3
cm5v}
&I/{Z
S%^\
{6OQ
Tp Bs 
ovz2
cfde
5qii
Y!gw
V&[2
(wb?
A	B_`
!8Ez
z|[k
a_Il2
'cEp}
sL3|
erV6S
Jv${|
|G!`{
{9rD
B+3Q
"S`k
hz0-
U$mo
kHY.k
u7Kz
TaO:
%	S~
G`gX
iKE'
VW)j
U`cZ2~
reDL
h0J	
vFHS
lqc>
i	uL
{?Zr
.B$=
yJhD
#0s]
yuc>
NXwJ
C{N9
nGw!
`y\`
?4`kj%	
/]/a
$)m(
}[M!}
"AP)
*AX,
VPl+
Ka f
`N:te
@iV:
L\<B
@ty5W
<&a'cq
/Ms-
dVaB
	g %
N^%WV
5wem6
!o+tV
y}a,|
IDAT+
x~O>
<JuV)
31q5
66@,a
lGMPA?
@yEJ~=
5qeu
0UE&
&RC\|b
3 [$
<#2m
yMT`j4
4.DL
CG?.
O_zG	
{Hf5~
$X6! 
@hl'
b7NPK
N04v
tvgb^
DJo:_AW&
/tw/Ol
;~_p
dsgE,n
q"Cb
bDc6
o"H3r
V	':
	{X@
'bj1#
Oh}7Kz
Keg6
;0,d
U`}Z
b_p"e
aQ=G
D==Q
.}{}.
q0?1^i
UkS=
I3TZ
60 7
k]Gd
^_=V
E`}J
ej`:
L3|N
MaA	!
u.wC}
:'"2
<'5&
&2m+E
.5^&
@bHj
	]5UQSCi
Q!D{
b|-H5
;q S
ZIjf
	'{v
c)RR
K"e:$n
90&`
M391gj
3[kb&S
v,VU)
fTf.
LrPz{1
p`wg]}
x[mo
ume-
J~if
YUF?
>kVL
muij
y500
?2O`	
7%|I
Wj__
*:LHF=
IDATCK
pY}|
F@pv
xkyM
~%_Q:
}kj![Y
}#"Li&
[G!g
#dVE
GT/3
T53a
GV5B
Z	98
zGtp
b(|?
:j*CF
6Iuf
SK@w
;g^Q
@M1c
p7PVnm-
*^\Z+
]@}j
.	>N
j1;{
2d\K
!R& 
fwQ_
=;=k
:#"B
]gs6
7ibr
\nln
sjar
gpizE
f^YX
4-?b
j%c 
g"&G
D]bn!
oaf`P
9&'f
?`VG
fG]hvp
:3fir^
KDX2V^2
.M4'h
3EhO
euPV3Y
@VoRVkj
ducw
L3:?
v;W+
O8Tm9>
)BR e	
AkS.r
:ev~
GVZ3
q*	>~
/xO1"
p@{/
9wFd
&Plb
'D8q
<u2R
(+V=
v\[V
\(p%
ao*E~#
UPJx
856f`
SU9gI
s||\
]^U^
gi g1
}tW 
XA,qy%
Ox2 >~
AhLt
X5D.
.+tTJt{
,q/3
N+,~0
Ie>G
HimJ3
iW%!t<
la`9
		gA
	821
gm@~
IEND
G	xP
,	P6
-	U9
8*Y'
	,!L%
3%Q1
?0\<
O;m@
WAt?
Q;p7
C1a.
C0b$
E1c!
W>x"
C-j	C-k	D-k
U9l/
1!(0
T?cP
 dHwM
X?c8
]Bq.
N64$
+	<%F
mJgM
%}YuC
F, 	F, 
H-#	>("	>("
2_2i2t2
3?3D3
3	4_4
4Z6-7F7K7b7r7
:&:;:L:^:e:k:
;,;6;F;V;
;2<[<c<p<y<
=&=-=4=;=Y=w=
=)>0>@>U>f>w>
2;2s2x2
2;3]3c3~3
4"4E4K4i4~4
616B6r6w6
7$7:7b7
868U8[8
9C:m:s:
;/;4;E;J;
;5<;<G<
?l?r?
0&0\0i0
2"3(3g3u3
3F4L4e4
5L5R5h5
6$6y6
6B7H7T7
8*8/898i8o8
9,929Z9`9
9-:3:<:D:L:^:p:{:
:+;A;
;+<0<c<i<
= =H=N={=
>,>1>
?$?+?@?E?
1@1E1n1
232s2
33393e3
4Y4a4
5-545>5C5m5
5@6E6d6
627t7
<=<E<f<
<@=~=
H1N1
3"4)4
6Y6r6
8C9%:
:!;);
3G4L4S4Z4a4h4o4v4}4
5(5N5]5
6	727i7
9#959M9R9p9
:|;#<
1	2v2
203B3
>7>(?
0e1~1
2U2b2v2
2"3{3
6(696O6p6{6
797E7
7A8Z8l8
959B9R9y9
9):U:{:
;,;W;
>,>,?
0*1J1t1
2J2^2n2
5'5P5
536O6[6
6"7/757[7
8G9V9z9
:(;7;P;w;
;-<H<`<y<
<,=1=<=J=q=
> >E>
?4?S?
0W0v0
1K2c2n2
404\4
6b6p6
;/;J;Y;z;
<]<r<
< =m=v=|=H>w?
2u3{3
4{5K6p6
7c8 9(9.9L9Z9
:R<e<
=Z=`=
>S?c?
181K1m1
4:5u5
536>6F6
6I7G8
8.9D9
=0=W=a=m=
=#>c>
@0S1
7H7g7
8N8b8
98:?:P:j:z:?;M;W;z;%<
<;=r=
>'>q>
7,7=7R7u7
828{8
9':j:
:<;T;
20<0R0
1Z2r2x2
2'393M3
3.4;4U4|4
5I5V5
747D7
808C8
8K9c9m9w9
9D:O:d:/;e;
<N<d=
>3?x?
0'080
101?1
4'4U4
7E8X8
:;;U;
<&<L<
=+>I>
?.?:?S?_?t?
90P0
7E8~8
9$:3:H:
;h;t;
;:<V<
=@=|=
>>>P>
>0?E?
0J0|0
0+1K1
2F2f2
3L3`3q3
4G5Y5j5
7!8q8
;:;M;`;
;'<3<><
0?0a0
0J1t1
4N5{5
7/8f8
:4;m;
;#<}<
A0i0
1(1P112K2v2
6"6G6X6
:	<O<
>[?a?
090U0
011O1
3J3b3i3|3
4%414C4U4]4
4)5`5
6B7h7
N0e0$1
4	5$5w5
7=8H8u8
0 1m1
4b5u5
6B6W6
7_7m7}7
8,8|8
9F9{9
:2:?:F:W:l:x:
;-;<;H;^;m;y;
='=7=H=Y=
142h2
3,4k4
8"9h9
9%:P:
3T4[5
:<:v:
<6=e=
>(>0>
>/?6?D?]?q?
384e4
4?5U5h5
506h6
8B8o8
9.:<:A:c:n:
;.<h<~<
>)>Y>
a0o0
1)292n2
3T3g3
;V;l;
<m=W>r>-?r?
0$1>1`1
292S2
2*3`3r3
354n4(595F5M5T5[5b5
=%>}?
2K4}4
5/5E5\5
6;7N7`7q7
8$979S9q9
:@:F:l:
<n<}<
<&=D=U=g=x=
0 040u0
0N1Y1
222B2O2^2
3.4s4
4)565a5
5 6E6n6
6;7L7
:#:):5:H:i:o:~:
0?1J1_1e1u1
2-2U2
3.3=3u3
4:4H4e4
5,5I5
7!7V7{7
:<:N:f:x:
;n;};
;8<Q<
=(=p=
=!>f>
>H?p?
0H0y0
1;1J1
1!2)2Z2l2
3*3H3S3X3]3c3h3m3w3|3
4%4)4.44484=4
6*7]7
9)9.9]9e9r9
:;:g:
;!;-;>;^;
;3<><P<
=!=0=<=I=Q=Y=_=q={=
>">(>4>W>e>
?R?p?
2070m0
1)1d1s1
2>2R2
383W3
8G9\9
9#:b:
:G;Y;x;
=5>G>
>^?p?
0!0N0b0
1$2E2
3.4=4K4i4
86:v:
;a;{;
>@?P?U?o?
0.0S0
0[1h1
3-3w3
324w4
5(5>5
6	7X7
9P:}:
:8;L;J<w<
> >*>2>7>G>P>Z>d>
0(020
0)1K1m1
5'6S657'8
<Y<^<	=
171B1
1)242
5S5l5
6E7U7
7'8<8M8r8
8[:p:w:
;f;x;
;j<u<z<
0)151d1
1E2[2
3%3*3V3x3
8:8F8K8
;8;_<
=S=O>^>
0C0T0
1&1b1
3H4|4	5R5
757@7
8-9Z9i9w9
:B;`;
?P?e?
2K3T3
4	5E5
7%8<8l8
8*939Q9~9
99:H:V:
333>3
454U4^4
585r5
6#656E6
99:f:
:j;y;
<&=>=
>">O>g>x>
181g1
1:2K2Q2i2w2
4\7y8
:,:m:
<'<J<U<v<
3:3w3
4)4F4c4
5#5d5
6U6t6
7*7I7
9;:Z:y:
:1;P;o;
<%<d<
=S=r=
>*>I>
?B?{?
0-0J0g0
1'1f1
2U2t2
3*3I3
3B4{4
7<:|:
>N?`?q?
/0Y0w0
0}1'2B2d5
6P7d7
090g0
2y4#5
8/8@8
O0a0r0
1D1b1
1	2+2M2q2!3
9D:n:
;<<W<H?
041H1
91:C:T:
;?;];
1,2@2w2
5-6H6/8
:];x;
5$5R5
7L8g8U:
>C?U?f?
080V0
0!1D1g1
9D:n:
:T;z;
2:3N3
6-7H7/9
;]<x<
W0r0Y2
7G7s7
0K0Y0
1&1K1Y1~1
2%2J2X2}2
3$3I3W3|3
7q7}7
;g<r<
>g>q>
>S?]?
'020>0
1Q1L4a4l4
5P5v5
6(6H6Y6
7+858t8
829W9m9
;n;};
<"</<<<I<V<c<p<}<
<R=\=
=a>k>
?m?w?
:1s1
5%5S5s5
7+797
788H8Y8a8g8q8w8
98:R:a:
>-?<?K?l?{?
1N1h1w1
2&2k2
3%4W4
6[6m6}6
6g7x7
8=8O8_8
9 :/:>:_:n:
;.<E<
?0?I?]?|?
627w7
:(:U:
;&<8<I<
=)=8=Y=h=
364N4_4
7"7&7*7.72767:7>7
:#:G:X:
;_<o<
>'>8>]>n>
F0U0
5U5v5
6D6h6
9Q9":
>b?l?
:0^0
2!4;4M4^4
6F7U7c7
9 :6:t:
< <M<
C0U0f0
091u1
7,7=7
9+9_9f9m9
a0t0
171F1g1v1
263B3Q3
4,5C6u6
8N8]8s8x8
9B9T9e9
:d;u;
; =p=
=B>|>
>-?r?
0V1g1
1-2?2O2z2
2(3m3
4+4I4X4
5M5l5v5
5P6t6~6
6/7>7L7
9Y:k:|:
4.5B5
5"626<6j6~6
:a;q;{;
d0z0
0G1Y1
132>2P2i2v2
3(3F3a3
7%7/797C7M7W7a7k7u7
8&808:8D8Q8_8i8v8
9$9.989B9L9V9`9j9t9~9
:(:2:<:F:P:Z:d:n:x:
;&;9;
<#</<7<b<t<
=:=G=
0 010=0E0K0Z0c0
2 2F2t2~2
3&3K3V3r3
4#4-4=4[4x4
5C6}6
9&989>9D9K9T9[9a9h9t9
9,:D:K:S:X:\:`:
::;@;D;H;L;
<7<i<p<t<x<|<
<2=8=R=a=n=z=
>B>u>
90s0
1_2f2
4'424i5
6#7Z7
8-84888<8@8D8H8L8P8
989?9D9H9L9m9
96:<:@:D:H:
:<;C;K;
=<>G>
>S?Y?^?f?v?
g1o1~1
232@2M2U2i2w2
3K3]3|3
3:4@4
4-5R5_5l5x5
6?6D6K6Q6y839b9h9w9
:	:+:2:C:h:u:}:
<E=a=
=">b>
>$?H?S?`?r?
W0q0z0
001W1f2q3
H;L;P;T;X;\;`;d;h;l;p;t;x;|;
1i2E4g4&7-7
0&090W2
303k3~3
3	414J4f4
5P5b5
5*626p6n7v7
<0=<=
=5>A>8?
5u7;8Q8[8e8
9&9Y9
?4?@?
1T1v1
1.2I2Z2
4)5-7]7
9B9J9
<I<S<_<k<w<
1N3}6
<N<W<c<
=%=-=K=
0&0.060B0K0P0V0`0i0t0
363T3x3
4$4E4N4u4
4p5x5
6(606@6F6W6
7 8'8@8T8Z8c8v8
8.9N9e9
;g=A>
?B?X?
0O1y1
112N2
666U6
7>7N7x7
9[9b9o9u9
:>;P;
=)=D=
3<3]3=5^7b7f7j7n7r7v7z7
8O8w8q9
95;F;
<$<7<[<
<J=g=
?&???[?d?j?s?x?
30373H3N3Y3c3i3u3{3
3	4+4@4f4
6i6y6
7%7,71797B7N7S7X7^7b7h7m7s7x7
9.:;:A:`;g;
;o<u<
=2=:=@=N=
=>>l>
0'0h0s0}0
0Y2j2r2x2}2
4!4-454=4I4r4z485O5
7Q8[8
:!;_;
>Y>a>i>q>
?%?1?
0/1q1
3<4[4`4f4j4p4t4z4~4
6,6=6E6U6f6
8E8N8W8m8
9[9_9c9g9k9o9s9w9{9
3:6>6B6F6J6N6R6V6@7b?h?
;$;/;K;
<M<X<^<
<7=>=
2:2E2K2Q2W2
3O4g4
:l<p<t<x<|<
1f1@2M2m2
1"141k1
2J3\3n3
4"4\4
6B7S7q8
9 :a:
:2<o<)=2=t=}=
>U>^>w>
0x1}1
2 2Z2_2f2k2r2w2
384=4O4m4
7<7x7
;.;A;S;
?*?4?K?p?
203{3
4!4&4/494D4
8w8k9
;$=?=U=k=s=
>0b2t2
2$3|3
7R8y8
;*;Y;~;
<"<(<-<E<_<~<
=?=I=y=
00060<0K0Q0j0r0|0
1"1+141@1L1Y1`1k1s1{1
2d2q2
6>728:8
9d:j:
\0b0p0
1#1A3^3
5b5+6>6
:2:B:_:
S2p2
3A4X4
>f>l>q>w>
8B:s:
:D;J;V;e;
<Y<~<
<H>U>c>z>
>-?G?
6<7@7D7H7L7
u1 262
245;5
"3c3j3
: :$:(:,:0:4:8:<:@:D:H:L:P:T:X:\:+;j;I<
?*?6?B?N?Z?f?
3	4e9
2 2$2(2,2024282<2@2D2H2L2P2T2X2\2`2d2h2l2p2t2x2|2
9.9b9z9
:u;|;D<H<L<P<T<X<
=0=4=8=<=@=D=H=L=P=T=X=\=x=|=)>0>
1 1$1T1
2d3h3l3p3t3x3|3
435:5
7x8|8
8;9B9
= =$=(=,=0=4=T=X=\=`=d=h=
=C>J>
s0z0
2 2$2(2,20242T2X2\2`2d2h2
2X4_4H5L5P5T5X5\5`5d5h5l5p5t5x5|5
5w6~6L7P7T7X7\7`7d7
8@9D9H9L9P9T9t9x9|9
:S;Z;
;(=/=
1014181<1@1`1d1h1l1p1t1x1|1
2C3J3
6H6L6P6T6
9;:B:T:X:\:`:d:
;D;H;L;P;T;
;(<,<0<4<8<<<
2#2@3D3H3L3
4`5d5h5l5p5t5
5#6*6i6p6
8"8,8H8
:$:(:,:0:4:8:<:@:`:d:h:l:p:t:
:"; <'<t<x<|<
=)=i=p=z=
=<>@>D>H>L>P>p>t>x>|>
090y0
1 1$1(1,101P1T1X1\1`1d1h1
1V2]2g2
454<4J4c4t5x5|5
6,6064686<6@6D6H6L6
6'7.787
7W8^8{8
8t9x9|9
:,:0:4:8:<:@:D:H:L:
=;=y=
> >$>(>H>L>P>T>X>\>`>
>)?0?:?V?
0`0g0
1(1,1
4	5i5p5z5
7$7(7,70747T7X7\7`7d7h7l7p7t7x7|7
7#8*8
9 9$9
9X:\:`:d:h:l:p:t:
;5<<<
<)=0=,?0?4?8?<?@?D?H?L?P?
0O1V1d1h1l1p1t1
132:2T2X2\2`2
2T3X3\3`3d3h3
3T4X4\4`4d4h4
5Z5a5t5x5|5
7#7<7
9 9$9(9H9L9P9T9X9\9
;T;X;\;`;d;h;l;p;t;x;|;
<J<Q<_<x<
= =$=(=,=0=P=T=X=\=`=d=h=l=
?+?j?q?
0 0@0D0H0L0P0T0X0
0Q1X1f1|1m2
3@3G3U3n3
5 5$585<5@5D5H5L5P5T5X5
546;6I6
6`7g7
94989<9@9D9H9L9P9T9
<&<4<M<
< =$=(=,=0=4=8=X=\=`=d=h=l=p=
=:>A>O>h>
0$0(0,0004080L0P0
0B1I1
4'4@4
6064686<6\6`6d6h6l6
6T7[7$8(8,8084888<8@8D8
8x9|9
;U;\;
;I<P<H>L>P>T>X>\>`>d>h>l>
u0|0
0T1[1x1|1
2[3b3p3t3
=)=@=\=c=
$0c0j0q0
132:2A2W2
384<4@4D4
4$5(5,505
7G7N7
7'8.8b8
8%9?9F9
:g:~:
;.;>;X;\;`;d;h;l;p;t;
;/<L<o<v<
<7=G=
>$>4>D>T>l>p>t>x>|>
?4?M?\?u?
0?0F0V0p0t0x0
141L1P1T1X1\1
1"2b2
383<3@3D3H3L3P3T3
4X4t4
585Q5g5
6)606B6\6`6d6h6
6'7.7L7h7z7
7$8D8H8L8P8T8X8\8
8U9e9
:5:I:d:}:
;@;G;i;
<$<5<L<l<}<
=H=O=`=j=
>3>:>K>R>f>p>|>
>)?3???K?q?
2-7S7b7y:
<S=a=
A0Q0
;$<e>
2T4X4\4`4d4h4l4p4t4x4|4
5(6=6
1M6Z6x6u8}8
8(<8<
=1=C=\=s={=
>5>A>_>g>l>r>
>J?R?^?n?
0!040
1#181D1M1T1Z1d1n1x1
1O2Y2h2v2~2
3_3i3x3
4o4y4
5!5.5
6$616>6
747A7N7
8*8D8Q8^8
9 9:9T9a9n9
:0:J:d:q:~:
;.;@;Z;t;
<'<><P<j<
=$=7=N=`=~=
>&>.>4>G>^>p>
?(?6?>?D?W?n?
0)080F0N0T0g0~0
0/191H1V1^1d1w1
1?2I2X2f2n2t2
3O3Y3h3v3~3
4_4i4x4
5o5y5
6!6.6
7$717>7
848A8N8
9.9H9U9b9
: :>:X:e:r:
;0;J;d;q;~;
<.<@<Z<t<
='=>=P=j=
>$>7>N>`>~>
?&?.?4?G?^?p?
0(060>0D0W0n0
1)181F1N1T1g1~1
1/292H2V2^2d2w2
2?3I3X3f3n3t3
3O4Y4h4v4~4
5_5i5x5
6o6y6
7)767
848A8N8
9.9H9U9b9
: :>:X:e:r:
;0;N;h;u;
<+<=<S<m<z<
='=>=P=j=
>$>7>N>`>z>
?&?.?4?G?^?p?
0(060>0D0W0n0
0/191H1V1^1d1w1
1O2Y2h2v2~2
3_3i3x3
4)464
585E5R5
626L6Y6f6
707N7h7u7
8+8=8S8m8z8
9'9>9P9j9
:$:7:N:`:z:
;&;.;4;G;^;p;
<)<8<F<N<T<g<~<
<?=I=X=f=n=t=
>_>i>x>
0,090F0
1*1D1Q1^1
2 2:2T2a2n2
303J3d3q3~3
4.4@4b4|4
5$575N5`5z5
6&6.646G6^6p6
7(767>7D7W7n7
8)888F8N8T8g8~8
8/999H9V9^9d9w9
9?:I:X:f:n:t:
;O;Y;h;v;~;
<_<i<x<
="=o=y=
>%>2>
?(?5?B?
080E0R0
1*1D1Q1^1
2 2:2T2a2n2
303J3d3q3~3
4.4@4Z4t4
5'5>5P5j5
6$676N6`6z6
7&7.747G7^7p7
8(868>8D8W8n8
9)989F9N9T9g9~9
9/:9:H:V:^:d:t:
:?;I;X;f;n;t;
;O<Y<h<v<~<
=o=y=
>$>1>>>
?.?H?U?b?
0 0>0X0e0r0
101N1h1u1
2.2@2^2x2
3'3>3P3v3
4&4.444G4^4p4
5(565>5D5W5n5
6)686F6N6T6g6~6
6/797H7V7^7d7t7
7?8I8X8f8n8t8
8O9Y9h9v9~9
:_:i:x:
<$<1<><
=4=A=N=
>*>D>Q>^>
? ?>?X?e?r?
000N0h0u0
1.1@1Z1t1
2'2>2P2j2
3$343K3]3s3
4&4.444G4^4p4
5)585F5N5T5d5{5
5/696H6V6^6d6w6
6?7I7X7f7n7t7
8O8Y8h8v8~8
9_9i9x9
:":o:y:
;!;.;
<$<1<><
=4=A=N=
>*>D>Q>^>
? ?:?T?a?n?
000J0d0q0~0
1.1@1Z1t1
2'2>2P2j2
3$373N3`3~3
4&4.444G4^4p4
5(565>5D5W5n5
6)686F6N6T6g6~6
6/797H7V7^7d7w7
7?8I8X8f8n8t8
9O9Y9h9v9~9
:_:i:x:
;o;y;
<!<.<
=$=1=>=
>4>A>N>
?*?D?Q?^?
0 0:0T0a0n0
101J1d1q1~1
2.2@2r2
3&3.343G3^3p3
4)484F4N4T4g4~4
4?5I5X5f5n5t5
5O6Y6h6v6~6
7_7i7x7
8o8y8
:$:1:>:
;4;A;N;
<2<L<Y<f<
=0=J=d=q=~=
>.>@>Z>t>
?'?>?P?j?
0$040K0]0s0
1&1.141G1^1p1
2)282F2N2T2g2~2
2?3I3X3f3n3t3
4_4i4x4
5o5y5
6!6.6
7$717>7
848A8N8
9*9D9Q9^9
: :::T:a:n:
;0;R;l;y;
<'<><P<j<
=$=7=N=`=z=
>&>.>4>G>^>p>
?(?6?>?D?W?n?
/090H0V0^0d0w0
1_1i1x1
2o2y2
3!3.3
4$414>4
5-5:5G5
626L6Y6f6
707V7p7}7
8'8>8P8
9(969>9D9W9n9
9/:9:H:V:^:d:w:
:O;Y;h;v;~;
=*=7=
>&>@>M>Z>
? ?>?X?e?r?
000V0p0}0
1'1>1P1v1
2&2.242G2^2p2
3)383F3N3T3g3~3
3?4I4X4f4n4t4
4O5Y5h5v5~5
6_6i6x6
7o7y7
8!8.8
9$919>9
:4:A:N:
;.;H;U;b;
<3<M<Z<g<
=0=R=l=y=
>'>>>P>n>
?$?7?N?`?~?
0&0.040G0^0p0
1(161>1D1W1n1
2)282F2N2T2g2~2
2?3I3X3f3n3t3
4_4i4x4
5o5y5
6$616>6
7*7D7Q7^7
8 8>8X8e8r8
909J9d9q9~9
:.:@:^:x:
;';>;P;j;
<$<7<N<`<
=(=6=>=D=W=n=
>)>8>F>N>T>g>~>
>??I?X?f?n?t?
0_0i0x0
1"1o1y1
2!2.2
3$313>3
424L4Y4f4
505R5l5y5
6'6>6P6r6
7&7.747G7^7p7
8)888F8N8T8d8{8
8/999H9V9^9d9w9
9?:I:X:f:n:t:
;_;i;x;
<)<6<
=:=T=a=n=
>0>N>h>u>
?.?@?^?x?
0'0>0P0
1(161>1D1T1k1}1
2)282F2N2T2d2{2
2/393H3V3^3d3w3
3?4I4X4f4n4t4
5_5i5x5
707=7J7
828L8Y8f8
909n9
:$:7:N:`:
:/;9;H;V;^;d;w;
;?<I<X<f<n<t<
<O=Y=h=v=~=
>o>y>
?%?2?
0(050B0
181E1R1
2.2H2U2b2
3 3F3`3m3z3
4.4@4Z4t4
5'5>5P5z5
6&6.646G6^6p6
7)787F7N7T7g7~7
7/898H8V8^8d8w8
9_9i9x9
;0;=;J;
<6<P<]<j<
=0=V=p=}=
>'>>>P>v>
?&?.?4?G?^?p?
0)080F0N0T0g0~0
0?1I1X1f1n1t1
2_2i2x2
3!3.3
4(454B4
5*5D5Q5^5
6 6>6X6e6r6
707R7l7y7
8'8>8P8v8
9&9.949G9^9p9
:):8:F:N:T:g:~:
:?;I;X;f;n;t;
<_<i<x<
=o=y=
>!>.>
?4?A?N?
0*0D0Q0^0
1 1:1T1a1n1
202J2d2q2~2
3.3@3Z3t3
4'4>4P4j4
5$545K5]5s5
6&6.646D6[6m6
7(767>7D7W7n7
8)888F8N8T8g8~8
8/999H9V9^9d9w9
9?:I:X:f:n:t:
:O;Y;h;v;~;
<_<i<x<
=o=y=
>!>.>
?$?1?>?
040A0N0
1*1D1Q1^1
2 2:2T2a2n2
303J3d3q3~3
4.4@4Z4t4
5'5>5P5j5
6$676N6`6~6
7&7.747G7^7p7
8(868>8D8W8n8
9)989F9N9T9g9~9
9/:9:H:V:^:d:w:
:?;I;X;f;n;t;
;O<Y<h<v<~<
=_=i=x=
>o>y>
?!?.?
0$010>0
141A1N1
2*2D2Q2^2
3 3:3T3a3n3
404N4h4u4
5.5@5b5|5
6$676N6`6~6
7&7.747G7^7p7
8(868>8D8W8n8
9)989F9N9T9g9~9
9/:9:H:V:^:d:w:
:?;I;X;f;n;t;
;O<Y<h<v<~<
=_=i=x=
>">o>y>
?%?2?
0,090F0
1.1H1U1b1
2 2>2X2e2r2
303R3l3y3
4'4>4P4n4
5$575N5`5~5
6&6.646G6^6p6
7(767>7D7W7n7
8)888F8N8T8g8~8
8/999H9V9^9d9w9
9?:I:X:f:n:t:
:O;Y;h;v;~;
<_<i<x<
=o=y=
>!>.>
?0?=?J?
0*0D0Q0^0
1 1:1T1a1n1
202J2d2q2~2
3.3@3Z3t3
4'4>4P4j4
5$575N5`5z5
6&6.646G6^6p6
7(767>7D7W7n7
8)888F8N8T8g8~8
8/999H9V9^9d9w9
9?:I:X:f:n:t:
:O;Y;h;v;~;
<_<i<x<
=o=y=
>!>.>
?$?1?>?
040A0N0
1*1D1Q1^1
2 2:2T2a2n2
303J3d3q3~3
4.4@4Z4t4
5'5>5P5j5
6$676N6`6z6
7&7.747G7^7p7
8(868>8D8W8n8
9)989F9N9T9g9~9
9/:9:H:V:^:d:w:
:?;I;X;f;n;t;
;O<Y<h<v<~<
=_=i=x=
>o>y>
?!?.?
0$010>0
141A1N1
2*2D2Q2^2
3 3:3T3a3n3
404J4d4q4~4
5.5@5Z5t5
6'6>6P6j6
7$777N7`7z7
8&8.848G8^8p8
9(969>9D9W9n9
:):8:F:N:T:g:~:
:/;9;H;V;^;d;w;
;?<I<X<f<n<t<
<O=Y=h=v=~=
>_>i>x>
?o?y?
0!0.0
1$111>1
242A2N2
3*3D3Q3^3
4 4:4T4a4n4
505N5h5u5
6.6@6Z6t6
7'7>7P7j7
8$878N8`8z8
9&9.949G9^9p9
:(:6:>:D:W:n:
;);8;F;N;T;g;~;
;/<9<H<V<^<d<w<
<?=I=X=f=n=t=
>O>Y>h>v>~>
?o?y?
0)060
1"1<1I1V1
2 2>2X2e2r2
303N3h3u3
4.4@4Z4t4
5'5>5P5n5
6$676N6`6z6
7&7.747G7^7p7
8(868>8D8W8n8
9)989F9N9T9g9~9
9/:9:H:V:^:d:w:
:?;I;X;f;n;t;
;O<Y<h<v<~<
=_=i=x=
>o>y>
?%?2?
0(050B0
181E1R1
2.2H2U2b2
3 3>3X3e3r3
404R4l4y4
5'5>5P5j5
6$676N6`6z6
7&7.747G7^7p7
8(868>8D8W8n8
9)989F9N9T9g9~9
9/:9:H:V:^:d:w:
:?;I;X;f;n;t;
<O<Y<h<v<~<
=_=i=x=
>o>y>
?!?.?
0,090F0
121L1Y1f1
202N2h2u2
3.3@3Z3t3
4'4>4P4j4
5$575N5`5
6(666>6D6W6n6
6/797H7V7^7d7w7
7?8I8X8f8n8t8
8O9Y9h9v9~9
:_:i:x:
;o;y;
<%<2<
=(=5=B=
>8>E>R>
?.?H?U?b?
0 0>0X0e0r0
101N1h1u1
2.2@2b2|2
3$373N3`3
4(464>4D4W4n4
5)585F5N5T5g5~5
5/696H6V6^6d6w6
6?7I7X7f7n7t7
7O8Y8h8v8~8
9_9i9x9
:o:y:
;!;.;
<$<1<><
=4=A=N=
>*>D>Q>^>
? ?:?T?a?n?
000J0d0q0~0
1.1@1Z1t1
2$2;2M2\2v2
3'3>3P3n3
4$444K4]4s4
5&5.545G5^5p5
6(666>6D6W6n6
7)787F7N7T7d7{7
7/898H8V8^8d8w8
8?9I9X9f9n9t9
9O:Y:h:v:~:
;_;i;x;
<"<o<y<
=%=2=
>(>5>B>
?"?<?I?V?
0 0B0\0i0v0
1.1@1^1x1
2'2>2P2j2
3$343K3]3s3
4&4.444D4[4m4
5(565>5D5T5k5}5
6)686F6N6T6g6~6
6/797H7V7^7d7w7
7?8I8X8f8n8t8
8O9Y9h9v9~9
:_:i:x:
<,<9<F<
=2=L=Y=f=
>0>J>d>q>~>
?.?@?Z?t?
0'0>0P0j0
1$171N1`1z1
2&2.242G2^2p2
3(363>3D3W3n3
4)484F4N4T4g4~4
4/595H5V5^5d5w5
5?6I6X6f6n6t6
6O7Y7h7v7~7
8_8i8x8
9o9y9
:!:.:
;$;1;>;
<4<A<N<
=.=H=U=b=
> >B>\>i>v>
?+?=?S?m?z?
0'0>0P0n0
1 1&191P1b1
2)282F2N2T2g2~2
2/393H3V3^3d3w3
3?4I4X4f4n4t4
5O5Y5h5v5~5
6_6i6x6
7o7y7
9#909
:#:0:
;*;7;
<-<:<G<
=*=D=Q=^=
>3>M>Z>g>
?-?C?]?j?w?
0+0=0S0m0z0
1$1;1M1c1}1
2$272N2`2z2
3&3.343D3[3m3
4(464>4D4T4k4}4
5)585F5N5T5g5~5
5/696H6V6^6d6w6
6?7I7X7f7n7t7
7O8Y8h8v8~8
9_9i9x9
:o:y:
;!;.;
<$<1<><
=4=A=N=
>*>D>Q>^>
? ?B?\?i?v?
0.0@0b0|0
1$171N1`1~1
2&2.242G2^2p2
3(363>3D3T3k3}3
4)484F4N4T4g4~4
4/595H5V5^5d5w5
5?6I6X6f6n6t6
7O7Y7h7v7~7
8_8i8x8
9.9;9H9
:*:D:Q:^:
; ;>;X;e;r;
<0<R<l<y<
='=>=P=v=
>&>.>4>D>[>m>
?(?6?>?D?W?n?
0)080F0N0T0g0~0
0/191H1V1^1d1w1
1?2I2X2f2n2t2
2O3Y3h3v3~3
4_4i4x4
6(656B6
7"7<7I7V7
8 8:8T8a8n8
909J9d9q9~9
:.:@:Z:t:
;';>;P;j;
<$<7<N<`<z<
=&=.=4=G=^=p=
>(>6>>>D>W>n>
?)?8?F?N?T?g?~?
/090H0V0^0d0w0
0?1I1X1f1n1t1
2_2i2x2
3"3o3y3
4)464
585E5R5
626L6Y6f6
707N7h7u7
8.8@8Z8t8
9'9>9P9j9
:$:7:N:`:~:
;&;.;4;D;[;m;
<(<6<><D<T<k<}<
=)=8=F=N=T=d={=
=/>9>H>V>^>d>t>
>??I?X?f?n?t?
O0Y0h0v0~0
1O1Y1h1v1~1
2O2Y2h2v2~2
3O3Y3h3v3~3
4_4i4x4
5"5o5y5
6 6-6:6
787E7R7
8#8=8J8W8
939M9Z9g9
:-:C:]:j:w:
;+;=;S;m;z;
<'<><P<n<
=$=7=N=`=
>(>6>>>D>W>n>
>/?9?H?V?^?d?w?
O0Y0h0v0~0
1_1i1x1
2"2o2y2
4#404
5#505
6(656B6
7-7:7G7
8.8H8U8b8
9 9:9T9a9n9
:-:C:]:j:w:
;+;=;S;m;z;
<$<;<M<c<}<
=$=4=K=]=s=
>&>.>4>G>^>p>
?(?6?>?D?T?k?}?
0)080F0N0T0d0{0
0/191H1V1^1d1t1
1?2I2X2f2n2t2
2O3Y3h3v3~3
4o4y4
6$616>6
7-7:7G7
8#8=8J8W8
9 9:9T9a9n9
:0:J:d:q:~:
;.;@;Z;t;
<'<><P<j<
=$=4=K=]=s=
>&>.>4>D>[>m>
?(?6?>?D?T?k?}?
0)080F0N0T0d0{0
0/191H1V1^1d1t1
1?2I2X2f2n2t2
2O3Y3h3v3~3
4_4i4x4
5o5y5
6!6.6
7$717>7
848A8N8
9*9D9Q9^9
: :::T:a:n:
;0;J;d;q;~;
<.<@<Z<t<
=$=;=M=c=}=
>$>7>N>`>z>
?&?.?4?G?^?p?
0(060>0D0T0k0}0
1)181F1N1T1g1~1
1/292H2V2^2d2w2
2?3I3X3f3n3t3
3O4Y4h4v4~4
5_5i5x5
6o6y6
7!7.7
8$818>8
949A9N9
:*:D:Q:^:
; ;>;X;e;r;
<0<J<d<q<~<
=.=@=^=x=
>'>>>P>j>
?$?7?N?`?~?
0&0.040G0^0p0
1(161>1D1W1n1
2)282F2N2T2g2~2
2/393H3V3^3d3w3
4O4Y4h4v4~4
5_5i5x5
6o6y6
7!7.7
8$818>8
949A9N9
:*:D:Q:^:
; ;>;X;e;r;
<0<N<h<u<
=.=@=Z=t=
>'>>>P>j>
?$?7?N?`?
0(060>0D0W0n0
1)181F1N1T1g1~1
1?2I2X2f2n2t2
3_3i3x3
5*575
646A6N6
7*7D7Q7^7
8 8:8T8a8n8
909J9d9q9~9
:+:=:S:m:z:
;';>;P;j;
<$<7<N<`<
=(=6=>=D=W=n=
=/>9>H>V>^>d>w>
>??I?X?f?n?t?
O0Y0h0v0~0
1_1i1x1
2o2y2
3(353B3
484E4R4
5.5H5U5b5
6 6B6\6i6v6
7.7@7b7|7
8$878N8`8~8
9&9.949G9^9p9
:):8:F:N:T:g:~:
:/;9;H;V;^;d;w;
;O<Y<h<v<~<
=o=y=
>%>2>
?*?7?
040A0N0
1#1=1J1W1
232M2Z2g2
303J3d3q3~3
4.4@4b4|4
5$575N5`5
6(666>6D6W6n6
7)787F7N7T7g7~7
7/898H8V8^8d8w8
8?9I9X9f9n9t9
:_:i:x:
;o;y;
<%<2<
=$=1=>=
>4>A>N>
?@?Z?g?t?
000B0p0
1&1.141G1^1p1
2(262>2D2T2k2}2
3(363>3D3W3n3
3/494H4V4^4d4w4
4?5I5X5f5n5t5
5O6Y6h6v6~6
7_7i7x7
8o8y8
9!9.9
:$:1:>:
;8;E;R;
<.<H<U<b<
= =>=X=e=r=
>0>J>d>q>~>
?.?@?Z?t?
0'0>0P0j0
1$171N1`1z1
2&2.242G2^2p2
3(363>3D3W3n3
4)484F4N4T4g4~4
4/595H5V5^5d5w5
5?6I6X6f6n6t6
6Q7[7j7x7
8o8y8
9!9.9
:$:1:>:
;8;E;R;
<.<H<U<b<
= =>=X=e=r=
>0>R>l>y>
?'?>?P?j?
0$070N0`0z0
1&1.141G1^1p1
2(262>2D2W2n2
3)383F3N3T3g3~3
3/494H4V4^4d4w4
4?5I5X5f5n5t5
5O6Y6h6v6~6
7_7i7x7
8o8y8
9!9.9
:(:5:B:
;";<;I;V;
< <B<\<i<v<
=+===S=m=z=
>$>;>M>c>}>
?$?4?K?]?s?
0&0.040D0[0m0
1(161>1D1T1k1}1
2)282F2N2T2g2~2
2/393H3V3^3d3w3
3?4I4X4f4n4t4
4O5Y5h5v5~5
6_6i6x6
7o7y7
8!8.8
9$919>9
:-:::G:
;#;=;J;W;
<3<M<Z<g<
=-=C=]=j=w=
>.>@>Z>t>
?'?>?P?
0(060>0D0T0k0}0
1)181F1N1T1g1~1
1/292H2V2^2d2w2
2O3Y3h3v3~3
4_4i4x4
5o5y5
7*777
848A8N8
9*9D9Q9^9
: :::T:a:n:
;0;N;h;u;
<.<@<Z<t<
=$=;=M=c=}=
>$>4>K>]>s>
?&?.?4?G?^?p?
0(060>0D0W0n0
1)181F1N1T1d1{1
2)282F2N2T2d2{2
3)383F3N3T3d3{3
3/494H4V4^4d4w4
4?5I5X5f5n5t5
5O6Y6h6v6~6
7_7i7x7
8o8y8
:$:1:>:
;-;:;G;
<#<=<J<W<
=3=M=Z=g=
>0>J>d>q>~>
?.?@?Z?t?
0'0>0P0j0
1$141K1]1s1
2&2.242D2[2m2
3(363>3D3W3n3
4)484F4N4T4g4~4
4/595H5V5^5d5t5
5?6I6X6f6n6t6
6O7Y7h7v7~7
8_8i8x8
9o9y9
:!:.:
;*;7;
<4<A<N<
=6=P=]=j=
>0>J>d>q>~>
?+?=?S?m?z?
0'0>0P0j0
1$141K1]1s1
2&2.242G2^2p2
3(363>3D3W3n3
4)484F4N4T4g4~4
4/595H5V5^5d5t5
5?6I6X6f6n6t6
6O7Y7h7v7~7
8_8i8x8
9o9y9
:!:.:
;$;1;>;
<*<D<Q<^<
= =J=d=q=~=
>.>@>j>
?$?7?N?`?
0(060>0D0W0n0
0/191H1V1^1d1w1
1O2Y2h2v2~2
3o3y3
4$414>4
5*5D5Q5^5
6 6J6d6q6~6
7.7@7j7
8$878N8`8
9(969>9D9T9k9}9
:):8:F:N:T:g:~:
:/;9;H;V;^;d;w;
;?<I<X<f<n<t<
<O=Y=h=v=~=
>_>i>x>
?"?o?y?
0!0.0
1$111>1
242A2N2
3*3D3Q3^3
4 4:4T4a4n4
505J5d5q5~5
6.6@6Z6t6
7'7>7P7j7
8$878N8`8z8
9&9.949G9^9p9
:(:6:>:D:W:n:
;);8;F;N;T;g;~;
;/<9<H<V<^<d<t<
<?=I=X=f=n=t=
=O>Y>h>v>~>
?_?i?x?
1$111>1
2-2:2G2
3.3H3U3b3
4 4>4X4e4r4
505J5d5q5~5
6.6@6^6x6
7'7>7P7j7
8$878N8`8z8
9&9.949G9^9p9
:(:6:>:D:W:n:
;);8;F;N;T;g;~;
;/<9<H<V<^<d<w<
<?=I=X=f=n=t=
=O>Y>h>v>~>
?_?i?x?
0"0o0y0
1%121
2$212>2
3&333@3
444A4N4
5*5D5Q5^5
6 6:6T6a6n6
7-7C7]7j7w7
8+8=8S8m8z8
9'9>9P9n9
:$:7:N:`:z:
;&;.;4;D;[;m;
<(<6<><D<W<n<
=)=8=F=N=T=d={=
=/>9>H>V>^>d>t>
>??I?X?f?n?t?
O0Y0h0v0~0
1_1i1x1
2o2y2
4*474
545A5N5
6*6D6Q6^6
737M7Z7g7
8-8C8]8j8w8
9+9=9S9m9z9
:$:;:M:c:}:
;$;4;K;];s;
<&<.<4<D<[<m<
=(=6=>=D=T=k=}=
>)>8>F>N>T>d>{>
>/?9?H?V?^?d?w?
?0I0X0f0n0t0
1O1Y1h1v1~1
2_2i2x2
3"3o3y3
4,494F4
5*5D5Q5^5
636M6Z6g6
7-7C7]7j7w7
8+8=8S8m8z8
9$9;9M9c9}9
:$:4:K:]:s:
;&;.;4;D;[;m;
<(<6<><D<T<k<}<
=)=8=F=N=T=d={=
=/>9>H>V>^>d>w>
>??I?X?f?n?t?
0_0i0x0
2(252B2
343A3N3
4*4D4Q4^4
5 5B5\5i5v5
6.6@6^6x6
7'7>7P7j7
8$878N8`8~8
9&9.949G9^9p9
:):8:F:N:T:g:~:
:?;I;X;f;n;t;
;O<Y<h<v<~<
=_=i=x=
>o>y>
?%?2?
0*070
1-1:1G1
2*2D2Q2^2
3 3:3T3a3n3
404N4h4u4
5.5@5^5x5
6'6>6P6j6
7$777N7`7~7
8&8.848G8^8p8
9(969>9D9W9n9
9/:9:H:V:^:d:w:
:O;Y;h;v;~;
<_<i<x<
=!=.=
>$>1>>>
?-?:?G?
0.0H0U0b0
1 1B1\1i1v1
2.2@2b2|2
3$373N3`3~3
4&4.444G4^4p4
5)585F5N5T5g5~5
5/696H6V6^6d6t6
6?7I7X7f7n7t7
8O8Y8h8v8~8
9o9y9
:):6:
;8;E;R;
<*<D<Q<^<
= =F=`=m=z=
>+>=>S>m>z>
?$?;?M?c?}?
0$040K0]0s0
1&1.141D1[1m1
2(262>2D2W2n2
3)383F3N3T3g3~3
3?4I4X4f4n4t4
5_5i5x5
6!6.6
747A7N7
8.8H8U8b8
9 9B9\9i9v9
:.:@:Z:t:
;';>;P;n;
<$<7<N<`<z<
=&=.=4=G=^=p=
>(>6>>>D>W>n>
?)?8?F?N?T?g?~?
?0I0X0f0n0t0
0O1Y1h1v1~1
2_2i2x2
3o3y3
5*575
6-6:6G6
7#7=7J7W7
838M8Z8g8
909J9d9q9~9
:.:@:Z:t:
;';>;P;j;
<$<7<N<`<z<
=&=.=4=G=^=p=
>(>6>>>D>W>n>
?)?8?F?N?T?g?~?
/090H0V0^0d0w0
0?1I1X1f1n1t1
2O2Y2h2v2~2
3_3i3x3
4"4o4y4
5%525
6$616>6
787E7R7
8.8H8U8b8
9 9>9X9e9r9
:0:R:l:y:
;';>;P;v;
<&<.<4<G<^<p<
=)=8=F=N=T=g=~=
=/>9>H>V>^>d>w>
>O?Y?h?v?~?
0o0y0
1!1.1
2(252B2
343A3N3
4*4D4Q4^4
5 5>5X5e5r5
6-6C6]6j6w6
7.7@7f7
8$878N8`8z8
9&9.949G9^9p9
:(:6:>:D:W:n:
:/;9;H;V;^;d;w;
;?<I<X<f<n<t<
=_=i=x=
>o>y>
0$010>0
141A1N1
2*2D2Q2^2
3 3F3`3m3z3
4.4@4f4
5$575N5`5
6(666>6D6W6n6
6/797H7V7^7d7w7
7?8I8X8f8n8t8
8O9Y9h9v9~9
:_:i:x:
;o;y;
<!<.<
=(=5=B=
>8>E>R>
?*?D?Q?^?
0 0>0X0e0r0
101J1d1q1~1
2.2@2^2x2
3'3>3P3n3
4$474N4`4~4
5&5.545G5^5p5
6)686F6N6T6g6~6
6/797H7V7^7d7w7
7?8I8X8f8n8t8
9O9Y9h9v9~9
:_:i:x:
;";o;y;
<%<2<
=(=5=B=
>8>E>R>
?.?H?U?b?
0 0>0X0e0r0
101N1h1u1
2.2@2^2x2
3'3>3P3n3
4$474N4`4z4
5&5.545G5^5p5
6(666>6D6W6n6
7)787F7N7T7g7~7
7/898H8V8^8d8w8
8?9I9X9f9n9t9
:O:Y:h:v:~:
;_;i;x;
<"<o<y<
=%=2=
>,>9>F>
?*?D?Q?^?
030M0Z0g0
101J1d1q1~1
2+2=2S2m2z2
3'3>3P3j3
4$474N4`4z4
5&5.545G5^5p5
6(666>6D6W6n6
7)787F7N7T7g7~7
7/898H8V8^8d8w8
8O9Y9h9v9~9
:_:i:x:
;o;y;
<)<6<
=-=:=G=
>.>H>U>b>
?3?M?Z?g?
000J0d0q0~0
1+1=1S1m1z1
2'2>2P2j2
3$343K3]3s3
4&4.444D4[4m4|4
5&5.545D5[5m5
6(666>6D6T6k6}6
7(767>7D7W7n7
8)888F8N8T8d8{8
9)989F9N9T9d9{9
:):8:F:N:T:d:{:
:/;9;H;V;^;d;t;
;?<I<X<f<n<t<
<O=Y=h=v=~=
>_>i>x>
?_?i?x?
0"0o0y0
2*272
383E3R3
4.4H4U4b4
5 5:5T5a5n5
606N6h6u6
7.7@7^7x7
8'8>8P8n8
9$979N9`9z9
:&:.:4:D:[:m:
;(;6;>;D;T;k;};
<)<8<F<N<T<g<~<
</=9=H=V=^=d=w=
=?>I>X>f>n>t>
>O?Y?h?v?~?
0_0i0x0
1o1y1
3*373
444A4N4
5*5D5Q5^5
6 6>6X6e6r6
707J7d7q7~7
8.8@8Z8t8
9'9>9P9j9
:$:7:N:`:z:
;&;.;4;G;^;p;
<(<6<><D<W<n<
</=9=H=V=^=d=t=
=?>I>X>f>n>t>
?_?i?x?
1(151B1
242A2N2
3*3D3Q3^3
434M4Z4g4
505V5p5}5
6'6>6P6~6
7&7.747G7^7p7
8.8<8D8J8]8t8
:";>;
<8<S<n<
<	=$=[=
=L>r>
?6?Y?
0)0O0
0 1;1V1
1!2<2_2
2+3^3
5.5S5
656P6s6
7-8^8
8>9Y9|9
;3;`;
<F<i<
=#=>=Y=
>=>r>
>	?B?
#0\0
161Y1
2]2x2
4(4C4
5 5g5
5"6V6q6
6+7N7
898n8
9:9n9
:::n:
:;;d;
;-<s<
>.>e>
?J?o?
1!2l2
4L4g4
565Q5
9.:q:
1;2E2M2S2[2
3B4L4
6(7]7
8%9h9
; <^<
?9?n?
4%5u5
7+9Y9
213f3
4I5x5
1:1e1
3	4}4
647w7
7/8T8
:~;2=_=
=>>s>
9):r:Z<
2-3R3\3f3p3z3
4=4Q4`4j4|4
5$5)535?5D5N5\5i5w5
6 6+6:6@6G6L6R6Z6`6f6l6q6
7*757?7P7U7_7m7r7|7
8-8>8E8L8S8v8
9*939D9W9e9i9p9t9{9
h2l2p2t2x2|2
2@5D5H5L5P5T5X5d5h5l5p5t5x5|5
6 6$6(6,6064686<6@6D6H6L6P6h6l6p6t6x6
; ;$;(;,;0;4;
,040<0D0L0T0\0d0l0t0|0
h5p5x5
6 6(60686@6H6P6X6`6h6p6x6
7 7(70787@7H7P7X7`7h7p7x7
> >$>(>,>0>4>8><>@>D>H>L>P>T>X>\>`>d>h>l>p>t>x>|>
? ?$?(?,?0?4?8?<?@?D?H?L?P?T?X?\?`?d?h?
< <$<(<,<0<4<8<<<@<D<H<L<P<T<X<\<`<d<h<l<p<t<x<|<
H5L5P5T5X5\5`5d5h5l5p5t5x5|5
8 8$8(8,8084888<8@8D8H8L8P8T8X8\8`8d8h8t9x9|9
; ;$;(;,;0;4;8;<;@;D;H;x<|<
> >$>(>X?\?`?d?h?l?p?t?x?|?
1@2D2H2L2P2T2X2\2`2d2h2l2p2t2x2|2
3 5$5(5,5054585<5@5D5H5L5P5T5X5\5`5
8 8$8(8,8084888<8@8D8H8
: :$:(:,:
`;l;x;
 1$1(1,1014181<1@1D1
5X5\5`5d5h5l5p5t5x5|5
6$606<6H6T6`6l6x6
7 7,787D7P7\7h7t7
7\:`:d:h:
6 6$6(6,6064686<6@6D6H6L6P6T6X6\6`6d6h6l6p6t6x6|6
 7$7h7l7p7t7x7|7
9 9$9(9,9094989<9@9
4T5X5\5`5d5h5l5p5t5x5|5
1(4,4044484<4L5P5T5X5\5`5d5h5l5p5t5x5|5
; ;$;(;
;$<(<,<0<4<@<D<H<L<P<`<d<h<l<p<
9(:,:0:4:8:<:@:D:H:L:P:T:X:\:
:$?(?,?0?4?8?<?@?D?H?L?P?T?X?\?`?d?h?l?p?t?x?|?
0 0$0(0,0004080<0@0D0H0L0P0T0X0\0`0
; ;$;(;,;0;4;8;<;@;D;H;L;P;T;X;\;`;d;h;l;p;t;x;|;
; =$=(=,=0=4=8=<=@=D=H=L=P=T=X=\=`=d=h=l=p=t=x=|=
9 9$9(9,9094989<9@9D9H9L9P9T9X9,;0;4;8;<;@;D;H;L;P;T;X;\;`;d;h;l;p;t;x;|;
> >$>(>,>0>4>8><>@>D>H>L>P>T>X>\>`>d>h>l>p>t>
0040D0H0P0h0x0|0
1$1(1,10181P1`1d1t1x1|1
2$2<2L2P2`2d2t2x2|2
303@3D3T3X3\3`3d3l3
4$44484<4D4\4l4p4
5 5$5(505H5X5\5l5p5t5|5
6 6$6<6L6P6`6d6l6
7 70747<7T7X7p7
8$8<8L8P8`8d8h8p8
9,909@9D9L9d9t9x9
:0:4:L:\:`:p:t:|:
;$;4;8;H;L;T;l;|;
<4<D<H<X<\<d<|<
=$=(=8=<=D=\=l=p=
>(>8><>L>P>X>p>
?,?0?@?D?L?d?t?x?
0 0$0,0D0T0X0h0l0t0
1(181<1L1P1T1\1t1
2 2$2(202H2X2\2d2|2
303@3D3T3X3h3l3p3t3|3
4,404H4X4\4l4p4x4
5 5$54585H5L5T5l5|5
6$6(686<6@6H6`6p6t6
7 7$7,7D7T7X7h7l7p7x7
8(888<8L8P8T8\8t8
9 9094989@9X9h9l9|9
:$:<:L:P:`:d:h:p:
; ;0;4;D;H;L;T;l;|;
<(<,<4<L<\<`<p<t<x<|<
=0=@=D=T=X=\=d=|=
>,>0>@>D>H>P>h>x>|>
? ?$?(?0?H?X?\?l?p?t?x?
0(0,0<0@0D0H0L0T0l0p0
1$1<1L1P1`1d1h1p1
2$2<2,949@9`9l9
:$:@:`:
; ;<;@;`;
<4<8<X<x<
= =@=`=l=
>(>0>`>h>l>
? ?@?`?
0 0@0L0h0t0
101L1P1p1
20282@2H2P2d2
3,34383<3@3H3P3X3l3t3x3
4$4,444H4P4T4X4`4h4p4
5 5(50585@5L5l5x5
6$606P6X6d6
7$7,7D7L7T7\7d7p7
7,8@8L8T8
9$90989P9h9p9
: :,:L:X:x:
;0;<;\;d;l;x;
;<<D<L<T<h<|<
=$=L=T=h=t=|=
> >@>H>T>
?$?,?8?X?d?
0(00080D0d0l0t0|0
1 1@1H1T1t1|1
2$2<2H2h2t2
3 3,3L3X3x3
4(444<4T4`4
5$5,545<5D5L5T5\5d5p5
6,646@6`6h6p6|6
7,787@7X7d7
8 8(80888@8L8l8t8
949@9`9h9p9|9
:$:8:D:L:|:
;$;0;P;X;`;h;p;|;
< <,<4<\<d<x<
=0=8=@=H=P=\=|=
> >,>L>X>x>
?$?,?<?H?h?p?x?
000<0\0h0
1(101H1P1\1|1
2$2\2p2|2
3(343<3T3`3
4 4<4D4L4T4\4d4l4t4|4
505D5P5X5
6 6(60686@6L6t6|6
7L7`7l7t7
8(848T8\8h8
8$989D9L9d9p9
:$:0:P:X:d:
;0;8;@;L;l;t;
<<<D<P<p<|<
=$=8=D=L=d=l=t=
>,>4>@>`>l>
?$?D?L?l?
040H0T0\0|0
1$1<1D1L1X1
2$2,2L2`2l2t2
303<3D3\3d3p3
4,484@4p4
5(505P5d5p5x5
6$60686P6p6
7 7(70787@7H7T7t7|7
8$8D8L8T8\8d8p8
9(909D9P9X9p9x9
:,:4:D:L:`:l:t:
;0;<;D;d;t;|;
<$<<<P<\<d<
=,=4=@=`=h=t=
>0>D>P>X>p>x>
?$?,?4?D?L?`?l?t?
0$0,040<0D0L0T0\0d0l0t0|0
1$1,141<1D1P1t1|1
2$2,2@2L2T2l2t2|2
30383@3H3P3\3|3
4$4,484X4`4h4p4x4
5(5H5P5X5`5l5
6$6,686X6`6l6
7(707H7P7X7`7h7p7x7
8$8,848<8D8P8t8|8
9$909T9\9d9l9t9|9
:$:,:4:@:d:l:t:|:
;$;,;4;<;D;L;T;\;d;l;x;
<4<<<D<L<T<\<d<l<t<|<
=$=,=4=<=D=L=X=x=
>0>8>@>H>T>t>|>
? ?(?0?8?D?l?|?
0$000T0\0d0l0t0|0
181@1H1P1X1d1
242<2D2L2d2l2t2|2
30383D3d3l3t3|3
4(484@4T4`4h4
545<5D5L5T5\5d5l5|5
6$6,646<6D6L6T6\6d6l6x6
7,747@7`7h7p7x7
8$8,848<8D8L8T8`8
9$9,949<9D9P9p9x9
:$:,:4:@:d:l:t:|:
;$;,;4;<;D;L;T;\;d;p;
<$<,<4<<<D<L<T<\<h<
=<=D=L=T=\=h=
>8>D>d>l>t>|>
?$?,?8?\?t?|?
0$0,040<0L0T0h0t0|0
1$1,141<1D1P1p1x1
2 2,2L2T2\2d2p2
3,343<3D3L3X3
4$4,444<4D4L4T4\4d4l4t4|4
5$5,545<5D5L5T5\5d5l5
6<6D6L6T6\6h6
7$7,787X7`7h7t7
888@8L8l8t8|8
9$9,949<9D9L9T9\9d9l9t9|9
: :,:L:T:`:
;$;,;4;<;D;L;T;`;
<$<4<<<P<\<d<|<
=$=,=4=<=D=L=T=\=d=l=t=|=
>$>,>4><>D>L>T>\>d>l>t>|>
?<?D?L?T?\?d?l?t?|?
0$0,040@0d0l0t0|0
1$1,141<1D1L1T1`1
2$2,242<2D2L2T2\2d2l2t2|2
3$3,343<3D3L3T3\3d3l3t3|3
4$4,444<4D4L4T4\4d4l4t4|4
5$5,545<5D5L5T5\5d5l5t5|5
6$6,646H6T6\6|6
7$7D7L7X7x7
8$8,848<8P8\8d8|8
9,949H9h9p9x9
:$:D:L:T:\:d:l:t:|:
;(;8;@;T;`;h;
<$<<<D<L<T<\<d<l<t<|<
=$=,=4=<=D=X=d=l=
>(>H>P>\>|>
?4?T?\?d?l?t?
080@0H0P0X0d0
1$1,141<1D1L1T1\1d1l1t1|1
2$2,242<2D2L2T2\2d2l2t2|2
3$303`3h3p3
4 4@4H4P4\4|4
5$5,545<5D5L5T5\5d5l5t5|5
6$6,646<6D6L6T6\6d6l6t6|6
7$7,7@7L7T7t7|7
8$8,848<8D8L8T8\8d8l8t8|8
9$9,949<9D9L9d9l9t9
:0:8:@:L:l:t:|:
;$;,;4;<;D;L;T;\;d;l;t;|;
<$<,<4<<<H<l<t<|<
=$=,=4=<=D=L=T=\=d=l=t=|=
>$>,>4><>D>L>T>\>|>
?,?<?D?L?T?\?d?l?t?|?
040L0d0t0|0
1$1,141@1d1l1t1|1
2$2,242<2D2L2T2\2d2l2t2|2
3$3,343<3D3\3d3l3t3|3
4$40484T4\4d4l4t4|4
5$5,545<5D5L5T5\5l5t5|5
6$6<6D6L6T6\6d6p6
6<7D7L7d7l7t7|7
80888@8L8l8t8|8
9 9,9L9T9\9d9l9t9
:$:,:4:<:D:L:T:\:d:l:t:|:
;,;4;<;D;L;T;\;d;l;t;|;
0$0P0|0
1 4H4L4P4T4X4\4`4d4h4l4x4|4
40646\6`6
= =$=(=,=0=4=8=<=@=D=H=L=P=T=X=\=`=d=h=l=p=t=x=|=
> >$>(>,>0>4>8><>@>D>H>L>P>T>X>\>`>
?$?0?4?8?<?@?D?H?
2 2$2(2,2024282<2P2T2X2\2`2d2h2l2p2t2
3$3,343<3D3L3T3\3d3l3t3|3
7$7(7<7P7p7
9(9D9d9
: :$:(:,:0:4:8:<:@:D:H:L:P:T:X:\:`:d:h:l:p:x:|:
; ;$;(;,;0;4;8;<;@;H;L;P;T;X;\;`;d;h;l;p;t;x;|;
< <$<(<,<0<4<8<<<@<D<H<L<P<T<X<`<d<h<l<p<t<x<|<
?$?,?4?<?D?L?T?\?d?l?t?|?
0$0,0H0d0
1,1P1p1
343P3l3
4(4T4t4
5054585<5@5D5H5L5P5T5X5\5`5
646\6
7,7P7l7
8D8`8x8
9$:d:
:(;p;
;8<x<
<(=d=
>@>d>
?8?X?x?
0 0$0(0,0004080<0@0D0H0L0P0T0X0\0`0d0h0l0p0t0x0|0
1$1(1,14181<1D1H1L1P1T1X1\1`1d1h1l1p1t1x1|1
Z0X03
>0!0	
Western Cape1
Durbanville1
Thawte1
Thawte Certification1
Thawte Timestamping CA0
121221000000Z
201230235959Z0^1
Symantec Corporation100.
'Symantec Time Stamping Services CA - G20
"W*o
]jxdE
`F~T
&0$0"
http://ocsp.thawte.com0
80604
.http://crl.thawte.com/ThawteTimestampingCA.crl0
TimeStamp-2048-10
y@b%
Symantec Corporation100.
'Symantec Time Stamping Services CA - G20
121018000000Z
201229235959Z0b1
Symantec Corporation1402
+Symantec Time Stamping Services Signer - G40
2oNW
a;EQ
g0e0*
http://ts-ocsp.ws.symantec.com07
+http://ts-aia.ws.symantec.com/tss-ca-g2.cer0<
50301
+http://ts-crl.ws.symantec.com/tss-ca-g2.crl0(
TimeStamp-2048-20
b07x
,&c3
\vnO^
EFAn
y3+.{
>"hcS
VeriSign, Inc.1705
.Class 3 Public Primary Certification Authority0
061108000000Z
211107235959Z0
VeriSign, Inc.1
VeriSign Trust Network1:08
1(c) 2006 VeriSign, Inc. - For authorized use only1E0C
<VeriSign Class 3 Public Primary Certification Authority - G50
CcjRK
{]KV
*0(0&
 http://crl.verisign.com/pca3.crl0
60402
0*0(
https://www.verisign.com/cps0
3130m
[0Y0W0U
	image/gif0!0
#http://logo.verisign.com/vslogo.gif04
(0&0$
http://ocsp.verisign.com0>
Washington1
Redmond1
Microsoft Corporation1)0'
 Microsoft Code Verification Root0
060523170129Z
160523171129Z0_1
VeriSign, Inc.1705
.Class 3 Public Primary Certification Authority0
#_p)6
qdLe.
	TPk
N0L0J
Dhttp://crl.microsoft.com/pki/crl/products/MicrosoftCodeVerifRoot.crl0
n.aAHu
$s%<
(LeT
l#qg
g.Q{49
/HoS
uN1+gc
VeriSign, Inc.1
VeriSign Trust Network1;09
2Terms of use at https://www.verisign.com/rpa (c)101.0,
%VeriSign Class 3 Code Signing 2010 CA0
110902000000Z
140901235959Z0
California1
Santa Clara1
NVIDIA Corporation1>0<
5Digital ID Class 3 - Microsoft Software Validation v21
Software1
NVIDIA Corporation0
j'ev
buu2B
R8QqU
{fkA
ACNJ
90705
/http://csc3-2010-crl.verisign.com/CSC3-2010.crl0D
=0;09
0*0(
https://www.verisign.com/rpa0
e0c0$
http://ocsp.verisign.com0;
/http://csc3-2010-aia.verisign.com/CSC3-2010.cer0
R8y:
i7k7
z\lN
VeriSign, Inc.1
VeriSign Trust Network1:08
1(c) 2006 VeriSign, Inc. - For authorized use only1E0C
<VeriSign Class 3 Public Primary Certification Authority - G50
100208000000Z
200207235959Z0
VeriSign, Inc.1
VeriSign Trust Network1;09
2Terms of use at https://www.verisign.com/rpa (c)101.0,
%VeriSign Class 3 Code Signing 2010 CA0
&J@<
z;T0S
i0g0e
0V0(
https://www.verisign.com/cps0*
https://www.verisign.com/rpa0
[0Y0W0U
	image/gif0!0
#http://logo.verisign.com/vslogo.gif04
-0+0)
#http://crl.verisign.com/pca3-g5.crl04
(0&0$
http://ocsp.verisign.com0
VeriSignMPKI-2-80
3130
G8J-l
B=e6
VeriSign, Inc.1
VeriSign Trust Network1;09
2Terms of use at https://www.verisign.com/rpa (c)101.0,
%VeriSign Class 3 Code Signing 2010 CA
mZ6U)
;-j$
2``1
0r0^1
Symantec Corporation100.
'Symantec Time Stamping Services CA - G2
130110192915Z0#
OD;K
<G,n2K
Q2-f
9a.hQ
5c!U
Quo!|U
./;*
,s%=
~)ix
WP>r
D?:Z
5sA&
/.)11Y
@115
a,5-
IQ!%
6%#$'
&!% !#>"4)
QIHKJ
ihkB
dAH@CB
\AM}Au
s|=5
dJ):
V&T]
IAA2
S+)A
VV`GFA@
N7IV`
r~#v
vy,x6{X
JU9T2
W/V?QX
>P=SR
5]\_
^[YX
0Zee
sitkt
o`DV
UYy{
:@YY
;x.s
:::2D+
D$:]~u
vl% 
yg`g
`kz j
_cbb
8M>X
H,KJ
*U?T;
WuVoQe
P`SRB
]E\_
>>`^
_ !>>D>
>> >
`SKvvc
+q>P
l[(F
S%;m
#_cL
quc,e
54Nc
_(bjj
q#TF
C)Agd
fMU`
 %LH
6|yl
yb!4\
U]]1
mrtsSS
ShlbiWu
nqnkb
_=))5
WX-|L
Gsh[
1;1;
2&a,
LGDx
|P!;
!W#P
qgT7
|		6
@Oban
np?&*
h-PT
YP @DI
|U UR}
Qu+	
X]H<u
u?uJ
Q-r!
m@Qav
a$QU
oncD^
aW&rt 
?)18%818H _
\]mU
y+(f
aG9b
o(wY
uA@CO
K)1KI
PQLP
~Rd]f\_
|(_YX
v`on
'IIIIR
IIII
IIII
aCYuu
YFS@
Eyyy
K\Fx
}8|ME
"5GG
JT!F#
C*Lu
xxgE
0R'A
S}}9
.5a1=
TwA09+
~B![I
				
H@nSDL
qpr !w
xS !w
P]MJE
CNLeO
AA!f
e3De`
#::o
ymw_
/o.i
)*(=+*Y
ec,p
S^X[|kZjwE_c{S
%,&"
_MZ[CBQX
MVQW!wE
T+W)V.-E
!F!F
MVoF_5
w9iF
ieim
HD?e
jCR_
FESa
yv|o
SnROH_MMc
_zXC\C
FOMO*
rN}hA
IIII
~IIII`g}{IIII|z}
IIIIMEE)
Ks@W
LC\q"
WPVQ
TFAB
	B_B'
o'CtH
VoLa
55F/
/IYI
\gD5
U/ciL
-UhG
R!::;
_cnV>
Q	9KO
uK\=
	AY"
(o>-
TTTT
U=')-
S+AV
|<%;
TTTT
sTTkyz
*h5S
SQ4@7d6+)
S~2=<?t
TTTTdcibTTTTz~QN
dbcQ
Hu}a
QLeiIIII{lcn
HIIhi
&!._
N476
0"!7
$3*;
]YXX
^jvV`
'IyA-
twvq
_`kL~O{_`
_N|IQHK
KYJZUm
_`TT]W8
,A83U
Sh%!
]HH_c
H6w/
v%G@
!H'!
c,-W[<
vV(W
_YXL
AlAAc[
S;UL
uMuKuuD
{DYU
uiimc
_c'22,/_c
_*3-3-3G
=;!H
t=QE
_c[\[K
_MPM(
Q&_c
5Z4bG
EKP;N8<
!M5z%
Z`UN#
k)]!
LTa@
IF45O
-t\	
.HNY
IvaM
2}5G-
5,e]
v)dG
'a/9
L%Fx
wBF<
ZEXV`
_D[GSF`
_BLML4
5WqV
8Yu]
W;dy
Eine.
7&Y%)
=H}F
c=q%i
aArX_ZW
WvDyr)
Zw)y
IDJrY
3B)5.
+9 y^
Ki	1
^8W}
4Y.$
EY,I
uV_.
OA4f
,9,y
wG	5
J=L~/M
?@-.
ewT%
hFiS
UqUjn
2K'-
:m??
|6j[
=nwm
IUYe
=Ql~
KvhX
LT@:
^>{>
g_Ls
-))55
11==9
INrp@
FP7N
lz8z
0e5S+
%Z(.
]pE@
ya<F?
F$`h
HF>%
g4?9
O$G&hpK
NR)3
l>h|
;895
e."y
4Hcz
?=3D
7~^i
8=2(G
_T.aVmd8k*;
;^ ;E	
Bsg%
tI+~zHR
e]5G
zj<F4
_ciaY
]T@{
:E/^o
X58{
o>T-BX
1R5!]
t8|t
Q[4e
6;L%
su@a
um9e
b6Yo
mG/3m
P	>'
va-uL
ExG}'@
D#:z
sP(H
!"UV@
^gOq
A{Tii9
`}d(:kN
(uazyt
4O5U
zN4;
VjsG
ty53
I	D>{
V)EI
p8qh,
JMT[
29UT+s
>ldp
MpGP
}:tq
Ek$A
w'#	
z0..
f3=q
5\N?I
3NaKC9
@{=_
'{#?
@-)N
GjG:
\nv5
FpkfLY
wcet
c`'/G
E%HO
lr?:O
+.-<x
:Aq<f8s
u=dg
yj\cp%
`ssuP
6EXlp
p_MP
Ky>x
N	Bl
r-h_
NmM~M
fg(m@
{%>+
Q )L
/HA}
NIUvNwX
sah.
zQ1N
|9w'
7FM)
1HMt
y[&O
F"Ko
:?sp
q3N}L
EvIx
HZVD8
mV'S
ma^)[
zNN6
2L@S-E
pF.s
G\)s
H2>U
:E |
e`Ba|1oV
@$+z
dlb@e
U%)9
]Eh_
5K,H
4vt`
\fG`
19xn
E8es
D&'D.:
nwwp|
'D[(
n'E.
)?Ee
=^r@
.0;M
wisvF
4/L@
oH[B
F=;wm
.&Ee
MMYyyH
8YBO
IL&NE3
^%I}N
D#zl
	2.O
ybjU
v`oH>
=H$q
NY=z
iIxPO
~K%=
NiBE
E(%:
mM8P&
!=)L
m=w1
j|DI
<&jBM
S						
			>
GSf<?
dh&3
?D+;1
Qc4GX
n'3$
h?8z
sW~'
^OW?
i33E
k)Px
.[u$
K9:^
u~j2
uBJo
Nq5wR
p;&):
ugpax"#?u}}
Mfehkf:z<:VYSYUO:K3;92
>J:5B
^::rH
;:ZxiMor~xnnUx|m
>zH8
QMDVUCPG~OKAPM
~UKLFMUQ
zprL
TGPQKML
/:zp:+#f
44)4g
./5f'66*/%'2
;z8/)(f.'
4#73#52#"f2.
#4+/(
/2(:
353'*f1'?h
%)'%2
1:::
fvwrru
[UU$-\/
d`D%
2"Z%9
a~D;
 g-g
eY]QI
V9}1
}qum
:"Z9
::::
%I,E
K::::
<X>.
?::::
62.$
DC::::
c8:::5d
oP=6
p	:2
::::HR
::::cs
	::::n!
{QP#
::::
id!y
::::
F:TD
t-&Cc
::::s\
`Gcgp
'::::
>(:::-
8FJj
iE):
r)F<
J@@2z
SUfO
n5tV
:3*:
r:::
::::5k
: (:
Q53z8:
}5:::
:(:s
::+s
>:r~
5[LZO
*?]5
g5MG
3xj\
yUZw
)A2	
UUUO
6::F
:::UN
=E.-
:SY!
:Se!
.'Nka!
5::~
?F)E,
2edag
;:::F8
2:jZ
@9;O>
#N9{
x9;a
2lm	
~2"L
6H29
6H0}
{69~
.ilm
:::mli
D&9G2
:::ilm
O6jl
PzR:*::
g6L	5
z69w*9
g8::9
b>O3
g6O(m
!8::
::O)
92;+
t;::
}<O5
:::Z
>;::
2;::
_2:::z
_*:::
g2N>
g*N?9
"P8c5
z:::
>:::
O.P;l
::il
=::ilm
>:::
:Pzc	
>:::
(R>;::
G6;5
G625
R:*::P2
2R>;::
:Pzc	
:Pzc	
:Pzc	
:Pzc	
(R>;::
jR>;::
>;::Ga
w29r
:::P9P:P;R:::
4::P:
7::P?
jPzP?
:P;b
v9::
~;::
:::P:P:P8P:P8R:::z
:R:*::P2
B&"N8
n=B9
}_Nj
HUY{
				N
-W;::F
							
6::F
CX;::L
-x7::N
											
4::F
	D)A
N4NC-
E:::
	-e48:D
-4)::NI
48:D
								N
0::A
0::A
4::F
					F)
-m1::A
1::A
6::-
6::N-@(L
6::A
-B6::A
6::A
-87::A
-:4::@
;::N
4::-$4::N-@(
7::A
7::A
4::N-@(
:::NJi
4::A
													N
5::F
5::-
5::@
-0*::@
*::HvA
*::N2-
*::H
*::H
*::H
5::H
5::E
					
5::A
5::A
N=N4N
*::A
-F*::A
														
:::F
*::A
								
N?-a:::N
-9/::N=F
<::F
						
::NC
::H{e
(::H{}
-r(::E{-
9::F
					
-8:N
5::F
										
4::F
%::F
				
-f6::F
				F)
N7E{)
::::}
=HK}
>::N-@(
?::@
&::F
=HK}
?::N-@(
A*;::
%::F
N=-}-::F:
															F)
sM	M
;:::
-::A
-t2::F
;:::
:::N
-d"::A
:::N
"::A
:::N
:::N
-%2::@
:::N
&::NP
AE;::E
8::F
;::,
;::E}D
								F)
!::A
-61::@
%::N=N@u
@:L@i
C9;::
;::F
7::F
:::N
'::A
:::N
;::N
'::A
:::N
,];::N
											
4::@
5::N=@:
											
=Hke
5::N=@:
									
*::N
::N5F
															
;:::
)::@
N>LHi
							
<::F
?::F
N<LK
