!This program cannot be run in DOS mode.
Rich
.text
.rdata
@.data
.rsrc
jyittwf
ywkpkmn
xmhuwzt
5!a@
5$`@
3=$`@
jMQj
5$`@
=!a@
=$`@
%$`@
5!a@
)=!a@
58`@
h,`@
j"jGRP
5!a@
5$`@
=!a@
j(h<`@
=$`@
5$`@
h$`@
h<`@
Qh!a@
=!a@
5!a@
5!a@
=!a@
h<`@
=@`@
5!a@
=<`@
15$`@
=!a@
5$`@
PSQh$
#=@`@
5$`@
+5<`@
-$`@
5<`@
-!a@
5$`@
5!a@
=$`@
=<`@
1=!a@
5@`@
5<`@
5<`@
5$`@
-$`@
5!a@
5@`@
=$`@
;=!a@
5!a@
Xh$`@
;5!a@
5<`@
5!a@
j.h$`@
h!a@
h<`@
-@`@
5$`@
RY+5
u3h{
-@`@
5$`@
=@`@
-$`@
=$`@
5!a@
-<`@
=$`@
=<`@
h$`@
Sh!a@
5!a@
5$`@
=!a@
-<`@
hXn)
5$`@
95<`@
-$`@
RX15
h<`@
h!a@
u;F3
=@`@
5!a@
)5!a@
=$`@
u=hd
XHh$
5$`@
RSRh<`@
h$`@
5$`@
@ha	
5!a@
9=!a@
h<`@
5<`@
-$`@
h$`@
5!a@
h<`@
1=!a@
5!a@
15$`@
-!a@
5$`@
h)a@
=$`@
-<`@
-!a@
)5$`@
5$`@
	5<`@
)=!a@
-$`@
5<`@
=$`@
-$`@
-$`@
-!a@
9=<`@
5!a@
%0P@
%(P@
%,P@
%tQ@
%pQ@
%lQ@
%hQ@
%dQ@
%`Q@
%\Q@
%XQ@
%TQ@
%PQ@
%LQ@
%HQ@
%DQ@
%@Q@
%<Q@
%8Q@
%4Q@
%0Q@
%,Q@
%(Q@
%$Q@
% Q@
%xQ@
% P@
%TP@
%PP@
%LP@
%HP@
%DP@
%|P@
%<P@
%8P@
%@P@
%XP@
%\P@
%`P@
%dP@
%hP@
%lP@
%pP@
%tP@
%xP@
p99F
ExitProcess
GetCommandLineA
GetModuleHandleA
kernel32.dll
CheckMenuRadioItem
CreateWindowExA
DdeCreateStringHandleW
DdeDisconnectList
DdeFreeDataHandle
DdeGetData
DdeQueryConvInfo
DdeReconnect
DefDlgProcW
DefFrameProcA
DefMDIChildProcA
DefMDIChildProcW
DefWindowProcA
DeleteMenu
DeregisterShellHookWindow
DestroyWindow
DispatchMessageA
DrawAnimatedRects
EndDeferWindowPos
EnumClipboardFormats
FlashWindowEx
FrameRect
GetAltTabInfoW
GetClassNameW
GetDCEx
GetKeyboardType
GetMenuBarInfo
GetMessageA
GetMouseMovePointsEx
GetNextDlgGroupItem
GetProcessDefaultLayout
GetTopWindow
GetWindowDC
GetWindowTextA
InSendMessageEx
IsCharAlphaW
IsCharLowerW
IsCharUpperA
IsWindowUnicode
LoadCursorA
LoadIconA
LockSetForegroundWindow
MessageBeep
MessageBoxA
PaintDesktop
PostQuitMessage
RegisterClassExA
RegisterHotKey
SendDlgItemMessageA
SendMessageA
SetClassWord
SetMessageExtraInfo
SetPropA
SetTimer
SetWinEventHook
SetWindowsHookExA
ShowCursor
ShowWindow
SwitchDesktop
TranslateMessage
UnloadKeyboardLayout
UpdateWindow
user32.dll
DefSubclassProc
FlatSB_EnableScrollBar
ImageList_Create
ImageList_DragEnter
ImageList_DragShowNolock
ImageList_Merge
ImageList_ReplaceIcon
InitMUILanguage
MenuHelp
comctl32.dll
CLIPFORMAT_UserFree
CoEnableCallCancellation
CoGetApartmentID
CoGetCancelObject
CoGetInstanceFromFile
CoGetPSClsid
CoInitializeWOW
CoRegisterSurrogateEx
CoReleaseMarshalData
ComPs_NdrDllCanUnloadNow
DllDebugObjectRPCHook
HMENU_UserFree
HWND_UserFree
IsValidPtrIn
IsValidPtrOut
OleDestroyMenuDescriptor
OleSetMenuDescriptor
RevokeDragDrop
ole32.dll
DrawThemeParentBackground
DrawThemeText
GetThemeBool
GetThemeFont
GetThemePartSize
GetThemeSysColorBrush
GetThemeSysInt
GetThemeTextExtent
IsThemeDialogTextureEnabled
uxtheme.dll
0Q9FSrq85xC
1OQJatKN7o5Xn
e$#"l)((r-,,w/.-z/.-z-,,w)((r$#"l
X&%$mECB
&%$m
Y322va^]
322v
_HFF
U?>=}zvu
?>=}
c_\\
?(''ioll
(''i
:%$$fron
%$$f
Zgec
HMLK
3'&%e
'&%e
DTRQ
X}yx
1533l
533l
:PNM~
PNM~
Ac`_
Fsqo
H}{z
=xts
4ged
*VTSy
VTSy
 <;:d
<::d
&_]\|
_]\|
0/.W
0//W
!\ZYv
]ZZv
(zww
0//S
0//S
665T
665T
,++K
,++K
ZYXe
ZYXe
*))B
**)B
igfk
igfk
$$$9
%$$9
QPPX
RQOX
''&4
(''4
	CBAJ
BA@H
mljc
ihfa
##",
$##+
9884
9885
AA@<
AA@<
FFED
FFED
OONJ
MLMK
WVUO
ABHX
ZXXQ
.7Hz
\ZZP
3Kfq
ZYXL
,:LG
TSRG
MLK@
JIH7
DCB-
'2M"
--,#
#2R 
YXX<
[YV;
<;;&
<<;&
srqE
srqE
?>>%
@??%
KKK*
LKK*
VVU,
WVU,
jii3
ihh3
dcc/
dcc/
POO#
OOO#
onn.
onn.
	KOO
RRR"
QQQ"
{---
~===
{???
p222
D`qJ
"8X'
0DV*
'%(	"W
%"%	
	lll
S ;[
N#>a
3!2M
5">b
!&0D
<?xml version="1.0" encoding="UTF-8" standalone="yes"?>
<assembly 
  xmlns="urn:schemas-microsoft-com:asm.v1"
  manifestVersion="1.0">
<assemblyIdentity
    name="Lacricca.Video.Tools"
    processorArchitecture="x86"
    version="5.1.0.0"
    type="win32"/>
<description>Mpeg4 Stability Recorder</description>
<dependency>
    <dependentAssembly>
        <assemblyIdentity
            type="win32"
            name="Microsoft.Windows.Common-Controls"
            version="6.0.0.0"
            processorArchitecture="x86"
            publicKeyToken="6595b64144ccf1df"
            language="*"
        />
    </dependentAssembly>
</dependency>
</assembly>
	1RE
yTbp
GLD 
D/OP
p OD\
Dkl	vX
X-Y;
Hcpt
B}4P
-g]`
B#]-
u93ViWe
aa9o
#~n<
a_jl
BpyeW
^"20
N&0g
i.fL
}/BN
f]jKZmaM}
cP^v
S,XD?
uFnu8
"_P"
N|Tz
	.E-O
bvG&
9HLv
(=OD
t'rw
;Y!B
;Y!B
i/k{
z#32
JOah
fZ/}
MYbN
hzST
Pwhs0
X-5D,"
l:Ek
+yTx
h+`*
]>!k,C
!uy.
,8q2
^935
<9QuT{}
U-N/U
}G07
rBbc
;zhO
VKh6b
sqTt
 YX;	
-v&`
mHKB
Ow37
*|{hw)
VN=h
 j"g
oS.6p
435Q
fi[H
[kK3b
ax	}
'UOn
Fl'r
9+NQz
Dz]bjn
GqKb
Njg$w
A`?*h,@
X;O9D!
 V6(
(:b@J
vSC![U_
E6uaF
BqWB![!
)BKkhy
tcad
9QHD
Um/b
vZ!t/
d<+L
(UGm
J+:w[ K
Dsx.Ur
elH-s
9oh"
@l+8
x)]7^
#ycd
r*E>
rph.5:3
/C8+h  
nt\G:
xg8_
U%9Qa!
r/iZ6
P^y4
+G?Y
59/%
ujV_
{P3"*b
Zm.PvZ
!wM+
aytpf
DRT>5
*o\{:
/Mw%
	};!!
*eJ]
oSI `
<c,iB
qH9[
Fl'D
>Cy"
#ex 
l`LWl
!BX"
+|"G\?
~Q+yZ
{9w"
mA='']
Oj@R
zGDR
mlR1
h(w)z
yF]Me
F!AN
*tL2
8F	;)
y^6!^
bEY~
bi1&
o7QeUp
+%Kf
b:vm
q`lCoCN
B*[6$q
,LAt
yeMV
e^j<
T_W@
!|hI
ZXyu
#:*x
S#%6
2?.l
a22c7(
4S	9
D/)B,
?fKJ
!1C`
F,2	#
p`nR
:C}DbQ
ltsc!
	h:_3
Jn<ct
V+c8
hX8V&
qt'/
0]'Y
Ctrs
tf	2{}
f{j9
@qjGr
QPej
ej21f
1<^:
:CDG
A8*d
ZRo-
h`}yg1{
4r/]
pfWW
Rf:o
v%T/
bxlU
.[58
]9=_
FL=u
Zx#{
nR7S:
nvct/
JUn9ao
#`M*
YIAN
{tNf:
4c(^_ 
&HG]hI
Cx_G
.*'4
1gF_
)*1=c
NnQ.
4~`}^'
#w;>
E*MY,I
<?HR
'aay
{VtqLK
an#-H
hJ\)
\p-e
|	~e
9x*I
7bCb
V#R,`
yl}D:sm
:y{1
y8] '
q%,m^
I\`?[
K5Sq
ged%
;un/
NF{Y
Lp,wuf
d@>8
Ps<V
xqE|
&`@^a
|J TK
nOnq
5NQz
z]rB
tjZXU
h_LKX
$G/a
'sE q
yOZ1<+
`jUr
qT(M
 V6u1
&**G
fYHb
<'/Gz
Q):^@v}
#v'sn
qI|U
Y6'JF
zXx5
N<IE
S<>$
}xZ8y
:!Lv
d .i2
L$4E
t"le
uC5@
$xk~,b
ZLS$
VPEq
__nw>
4lg^/*,
umPr
/4>g
wQt,
	tO%
oQCl
?X_6
^^ZpC
GEU1u$`
=gO#
J8qk9
Vy\&l
oLl;
T$v[
'\;A
;">BZ
Uey	4
DcP6
},/[
0+({
Dh@9
'XN?
n9^a>
U9()
4`	T
xsq3
325 
lsyD
B$wU
AI}_]J
b;lf
a;I5
Y9zP
})=2~
6S3D
Fk}3
/&MQH
lw>Y
[FUN
.Lur
n!o+
k/Jr
yoqt!
lST"
u4``
O)lDV
F:pJ
Lmi1
%<oW^
Fl;[+
.qz 
B	7c0z
<tZl
F]!%
[#Nu
K].M
0"1,
$v^p
s Ni
'I1Xn~
+'?qL
<S%4
?3eX
t1%w
2	+*3
@hXW.
C/PVRW
IiaM
]hL\
6TRut*HLRqu
m"c;
39Y~.<
A)JK
B#%J
pm<9
{~ -
{/@k
U$3ai-
Ac~D
|8R1GZ
Io\`t
(]$UM
9;3m
J	>c5T
M"0J\
!54Qj
,^Y"
;97/
E3ZUL
}ZKl
-Zl*^K
lY6g
].:V
m332M
Slqb
	n{e
K-}/
| E%
b/	aT
h/DGJt
c>v]
BIAv@
.Q/`
W'=l
0_O.
X80_
xclW
T1D)
&}&%"X
}WxJ
NP!3
v hb
kd)x
c2Gn
$'6=a/
.AH*
3b:L
"#-tnY
E>[7
@*9J
?: gx
}h#X
1pn~
<=HV
q4*/
j#g&
6<h.
,ES44
ME*L
}V64
J=pV	@B
pyy.
Oi1wT
Z*&m(N
%OXC
S93e	
d?D;;
$DzPQ
8>$X
vF8o
us=>e=xH
1_<7up1
bPk1
CAqv
ORwrv
i45%v
}{ r
}X%Z
\:xGX
\,9f
cFbl
wt4~
M=p%
CBOc
*K~qo
I,[s2v
[uhs
r%7w!)
Ih;`KD
;;Q^
${K,
2O	1
5*OL
+JBZ
/\>AB
DHX"R
O$wA
4MeM
oT;_
\/5z)
~FbH*
Ur7W
-+`B~
Yg8.<
YT)w
TEb[?
:?Q5
yW-k
9\Zy
bvB}
HTDf6u 
!50p
bccdb4)
LXh"
*o*g
:(G^uQ
DeSdC/
>^Xi
9x:UH
jDG[
m@jW
4bto
`}05
T&0\
1L,"
681u
'rp0n
[|^l
f}`HO2
eviQ
<9xaF
[[>SnG
6!0~_
0<gM
No*&>E
%;\*
Ee?L
&$E.
(9-b
	gk	
=zb7v
-4*k
vNnT~+
MYR&y
PB{5fG,
k"ZzoL
6f{W
y`Z1+
^jx$
9\~tN
W1\5Br
gcCX
5!^I
9{R0
h@x1%
m*)`
`l]:f
N=1]
;,q&
d},}
:7m4
a5X.S!
!:$F
"-VG
Lw97
Q;4s5W
yvO}
Zpca
ni=9VRc
!5Zz
vhsx\
c`}l
.$g	
iWC/
}6[\
_kx[
[`u&
.3k*=
?Ie(
R?*NR
P`JL
dfmZ
pO?&ws
[aw	
/^S&
K[Na
IyYX
{jW?5
5Mnv
P;I|
{ r3
15Jy
IhZuk
os-X
UvjE
h=/&<-
ntSA
H_'-
%hL.A
-\x)3p
1Q|%
PilA
#2Ge)
T>S 
-.Y	
-!g7.
%UTZ6i
Qoye
i$/H
%@Hh
rb$%
H'5A9
w|T}
HH/`T
\&i b
VXNa
GTR3X
e%bL
qroV
&AV*
@K)Ta
Z*,I
nbEwQ"o
;@1e
0+Es
ZPV4
Qf;!
%TO|
Y/B.
xq!}J
dR+4	
8Bblp
9~7mw
]?l 
<@U~
1d"R
6KyR
"Q@BD
a& 7
Ya28
Qd=v&
\IF,
3Eo%
lrNM
?,3\3
>VX[
/jD,
]tZL
F/OZ-8_2
w+Xo
)Ob*
HE=I
t)fd'
=TWR
P*~c(
 Ih<
;%Ly
%3kM
LBtIT
c	KZ
w:c+%
p\fRr
KiZ6
%&C|s)
oTN.
>OEE
kh^g
b`'p o
"&Z[
2arC
=Z}{&
?G#\
M@yK
2zGU
Ut44
B6qs}<n
=ug.0x
=o)$g
}O=96
rPFh
w3)-%
 ~O|E
#vOe
yGaF
F:!]
^^x}iM2
|%}MD
FeLQd1
*<~Pg
 D2}
L@<O
3(`g
}{N,
{V% 	Tl
vG;p
7:$7
CS7x
6*XV
(v4s
Ad.~
wC|#h
r"x+
V`I+
5=EM1s
|DrS
S~HnJ9
@^nU
NI-g
0iS-[
b1"u
`"W)d
JlP<n!
!_uU/
>82LF
}"]X
w.`f
	QIt
N&GuSE
9"P)bi
2#R0hG
#Y]F
1s+3
Ba)SQ
-K&1H
yMQC
/s-m
O$2W
cw,A9
{&e/`
<H^5
?eG83
$5+?9
T)x^
bs#v
%FkX
v-<_
GCl|
1Ju0*
4#l1Fu|
i_)^(
Fn[b
v@[i
UjY@g	
a_kN
r}ea97k
91k>
Tm:b
P\#L
v=Z?
T$XT
LtkC3
|$Lj
KfKu
L$@j
5(P@
+t$(
+D$0
Ozkb
SvjF
d|[(
FD]6E&
Jl A
887v
=2CF
U#Cm
FK'>
>TAqh
7tg-d
W23!xq
?;w;
G|~	U
yK4N
I6[gY
R2	B
B47U
MRm=B
7[c0\
"kMT
g"y_
RqK"
?u	3M,
8f-?=y9rb
?3^:
j%kg(
h'[\
{SnPgQ[3R
Igw5
>:b^
$tXM
bb:&k
3RPD
n$u`.
|.'/
<FRa
r=2@
X|FH
Ix9a
	,@Y
`96(
1W7&
k]l 
[zG+e
^`ta4jUS
q_Z5
f#,%	1
&XFn
Ri9PD!
Et	s
3J\W
Jx0K
bY	?
Ln-8
rlF	
|f17
?0[_
{Y}zjY(
V@s;a
B<<&h
M]>]|{{^O
8w}F
>=5W
g>ekX]-
r{@d_ d
;DjS
xmr|4
\d7b
=x}l
#xGT
,?+}
hASU+`B
;uIp
sLlZ-
w%L|
)em\
gma`
y|G/
<tdrC
8y5CE
x#U5
)x \
*L\8
! S2j
-q6l
d0*'
W? $/
d?5Z
B!ipq
IOJm
"1W8
U@jf
I>%F
,hrF
cV'=j
_R9ce
NoU;
]u[?
tPkN`6
`*<kR=6q
=Vw\_
1$UR
oX=pqt
;?{)_
v<W$(
q{/&3
l^6w6
YI4r
A|#>^`
pB%^?
&i&/c"
T8*(
?zJ&
ImsMv
"t\}
Llx`
ehad
a$yme
2-l_
Z~k^
,n}x-h
xbalH
dI4wB9
Ln9qB
:L?y
66sK
2U`#
^z(F
=UnK
:YUs
m GY1
Y;}D
+a=f
3;V*
/na8
Tn:Y]
i(5k
j%fcc R
;xp_h
%!nSx
,y:m
^WE@
3O1m
~4&8
-IDIR
v~2uA/e&
Qa_0
W)_>
YOIPr
Y24|
{,h@
zPFn
D+W	]
BEX6
[gW1
`$3'
SH.	
F?0?
0ImC
V3"7
O&K,
ZrXY
Zpx\)C
t5``
|=z!
7oW}n
ydU~
PEbM
U"4?%ID
xdt.
g'1vC
.`-pq
1qXS
"<N.
@Zs)A
osie
!h{l
tt1[
O&NEa.L
Bq=%
d|Ut
srxO
}C%b*J
xA5y
^AeK
BOFl?
uNy;
"U-4
C2L:S
iu[nTD
h#5ei
yQTUT	SyP"!M#
Jq;T
n2:Y
#jl.
[s+%
gcfs
UfS<3
%	N1	
m}D`
"= <Uzd
  ?MXQ
*Au#
kxT;	M
*<!a
vJgS
2n|C
-eDl
8EjAc
ZbREo
}=xp!
M#<t
oq~	
.*1*!G
-*7e=
vO]2
P:_cT
X@~I
I)Cr
.ZDL7o}
hi	'
|l'+O.U
6btUI BiUM
;I_)
i	(|
jG^8N
@p	X
F@C	
oSh?
4]4i
TB;Q
uUWy
8'dnl)3
xL9m
nZj9j
<0JSUqoY
c)OG
7g+,U
5@NE
	*M}
_5{ZP
)0M:
5~O8
&Y2t
B"zr
Z"7-
&h%BI
,Rs,
Uis?
S]Wj
U+]F
nvK8
c!o7
S5Y"
BKJSQo;EcX
/q6l
?K.E<
Y'n\
h/z`
"G($"s~
]ceu
jrjV
1F1`
Y^-h
m^(H
<O5J
zX|!
/4H1
QV'=
fTNw
t>!f[m
LEn{
3V=%
qL@?
(}(H
?SMh
[XZOy
T(no!_
`h'z
g9wu
#>^a
pC%^?m`a
9`vA
|>+T
iU39G
8*~x
s,NE
x`GZY
Keha
Y-kGk
nyX0u
}A_<f[_4	s
p=a 
5fOR9t
~uG[1
qNUy"
;$7x
W`^pI
$Y6|
*>7e
eR/2
)KY+F
LomA
y8}D
4	^H
:kANmw=
:+s 
D'mR
PuK4
eH&]
-=[}sQ
8a.5c
0Q,t
1.,{_
-/UE
&%,pu
Tg'069
S(HN
r#.R
7U0"]6
*dIi-$
]z).
L$@j
NF3D$
+t$(v9
+D$0
T$XT
LtkC3
|$LI
50P@
D$$L
s<FY
