!This program cannot be run in DOS mode.
'Rich
.text
`.data
.rsrc
j(jdh
QjTh
@h(!
@CC@#
@h<20@
@CxAE
5l$@@
`-EC
@h/@*@
@h0nj
.LBC
H),$@
@h:j
@C35
@CRC
@h$QS
@C<@
h@$/
@Cx=E
@C/4Q
C@&P
@Cx2E
4I^C
D@%L
@CJ%
&@$+
@hi5H
h@Hp6BC
@hB*H
@<@9
@hBU	T
h@Tr2
@Cx1,C
<p@@
@CBr4
$n#C
@hSw%@
h @@
ZC_nAV
5@CN,
[ @,
@$`V
b@cB
@&=y*
{.@f]
@@@@m5L
@2b@
C@5b
D3@@(*&
@3@A
@@A@%
@Cb=
@Cx@T@
@@I@@
s5@g
@Cxn
4CEC
@A@C,@@
@3bC
@h@@d
@Cx@
@%@@
@CxA
@c@@
@h,L
h@@,@
@CxB@
@CbDB
@h0O
@CxC@
eP@s@@
h@%@	
@CxL@
IQ)@
h@E5
@CxT7@
@hAND
@Cas
AVWAf9
@CxC3
(s`C
y2sD
D@@@5@
@Cx*@@%LDC
P@8@@
@hBU<
@h@nEg@
h@(Ts
@C-0
@Cx3
H@%@@
@h4A@
@Cx5F
CKAPu0h
@@,4)
=G@)%7(
DC@@
5<@"@
%5C=&BA@#
j/E8@ICjo2 +Q
<x8CB/4
A))/,
@@#Ji
M!%5
(%b%s
L^@@`%
`@!NF(
!3%/
s)3@@
`e@g
o3@@D
)3%p
(e,!
@ae.
4,A@%O5
a@/g
 NYP
VWSP[
[_^3
@Cx@A
@hBa
@h@-G@R@
o4cC
h@!5@@
@Cxd4C
@C%i
OI,qA
@h5.@
D0@@
@ha}
@CR&
:@C)0
@h@@@*@
$4bC
@hI@
@h,i
@h0$@
A.n@
5AIs\
@Cx0.C
P@@!
@L%C
@hS(+@@
i`A@
@CxGC
DJ@i
@h*Bb@
DPh@
@hOBa
@hIE@B@
@k@@
@#@D
@CxJ5edC
@C@J.a
h@,D
@Cx/@P
@hC4*
@CA0a
@E(B
@Cx@
@&@@
@h@Ga
@h4@
@Cx@
5(@@
@h	a
h@j@
	],PJ@
h@,}
@CxG
,bkC
E.,@
@Cxb
F-@@
@h5~
@h2E
h@`!)
@4G@@
@CxA$0$i
%8@R
ss@%
h@0D&
/%`B
@C4%
@3,8
h@J@
@CxD
7@QC
LF"A
@h@ 
@CKBF
h@-UB
\1#C
"=@@
@h +AO
@h{B@
@Cx(
@h4@%
PA!C
@Cx2H
@h234
h@',
@!@AC
@-@@
@h@N
@C0`
@hJoG<@
@C.)
n2C	
@Cxi
@C,4/
@Cx#$5
@Cx"A
C%@@
@hmB
@CxA0C
@CA@.
h@!)
@Cx*@
423C
@C{5
@CxCs
@hBoF
h@6(
}n:Z
wHio/l
Et0b~
R	Vr
R	Vr
#)O)
;M(h	
a_r	V
40e>
45Nl*
$'~:
w8mNj
=5[)k
l/.N
ig7)m
zcJ+:
gB	V
.1No"
LtOj
xs!H6
+?Mh,O
).2 
"y0;
2HY.r
"h0?
NV(X
g{M i
?82G
Hc%G
3<Mp/
}'.N
89~v	V
b?f*b^
$.j2
$^eD7x
*CG@24(
BK8A0
}3IV=
=DIV
$DIV
q	VM
2IVrB
v	V{
52IV
8@-@C4Po
/refujo
clasics
conf.ini
Tooly
Edit
SysListView32
Name
Second name
GetScrollInfo
GetDC
FillRect
DrawTextA
EndPaint
GetClientRect
DispatchMessageA
TranslateMessage
TranslateAcceleratorA
GetMessageA
LoadAcceleratorsA
RegisterClassExA
LoadCursorA
LoadIconA
UpdateWindow
ShowWindow
CreateWindowExA
DefWindowProcA
DestroyWindow
PostQuitMessage
SendMessageA
USER32.dll
lstrcpynA
GetStartupInfoA
WriteFile
lstrcatA
lstrlenA
FindNextFileA
GetFileSize
FindClose
GetCurrentDirectoryA
FindFirstFileA
HeapAlloc
GetModuleHandleA
GetCommandLineA
GetProcessHeap
CloseHandle
ReadFile
CreateFileA
KERNEL32.dll
InitCommonControlsEx
COMCTL32.dll
<?xml version="1.0" encoding="UTF-8" standalone="yes"?>
<assembly xmlns="urn:schemas-microsoft-com:asm.v1" manifestVersion="1.0">
<assemblyIdentity
	version="1.0.0.0"
	processorArchitecture="*"
	name="Company.Product.Name"
	type="win32"
<description></description>
<dependency>
	<dependentAssembly>
		<assemblyIdentity
			type="win32"
			name="Microsoft.Windows.Common-Controls"
			version="6.0.0.0"
			processorArchitecture="*"
			publicKeyToken="6595b64144ccf1df"
			language="*"
		/>
	</dependentAssembly>
</dependency>
</assembly>
