!This program cannot be run in DOS mode.
Richu
.text
.rdata
@.rsrc
@.neolit
.SEFCMD
@.PTData
{{{{p
{{{{{{p
{{{{x
wdwD{
{{{{w
{{{{{{w
wwwwwwwww
{{{{{{{{{w
{{{{{{{{
{{{{{{{{w
{{{{p
{{{{{{w
{{{{w
KERNEL32.dll
USER32.dll
ADVAPI32.dll
LoadLibraryA
GetProcAddress
MessageBoxA
RegOpenKeyExA
NeoLite Executable File Compressor
Copyright (c) 1998,1999 NeoWorx Inc
Portions Copyright (c) 1997-1999 Lee Hasiuk
All Rights Reserved.
 in 
}~WOG
U~WOG
]_^Y
SQRVW
;F<t
Eb;E
;F<u
U~;U
;E2r
+EzP
Un;U*
M:;U
;M:s
;Mnu
+EzP
En;E*u
Ef)EV
+EzP
]_^ZY[
SQRV
^ZY[
SQVW
_^Y[
PRSQ
SQRUVW
t$(;
+\$(
t$(+\$(;
t$(;
+\$(
t$(+\$(;
t$(+\$(;
t$(+\$(;
t$(+\$(;
t$(+\$(;
t$(+\$(Ff
+\$$Ff
+\$$
+\$$f
P+\$(
P+\$(
t$(+\$(Ff
P+\$(
t$(+\$(Ff
;<$w^
+D$$
_^]ZY[
PAPADDINGXX
YYGQVWhT
This file cannot install itself.  You need to
8 using a New Boundary Technologies product.
Software\Lanovation\PictureTaker\SettMs\General
User +
guage
DIe Datei ist nicht 
ierend
Sie muss mit einem
t werden.A
 peut pas s
`de lui-m
meCIl fa
^en utilisant un
Q|d$
PrismXL Pack
nel32.dl
8ltUI
System
\Control
.&\desktop\ResourceLocal
nt:<
<RM1leHandleA
Vers-^
FreeLibrf
EnumWan!
s%R3ACP
cAddress
Load+
KERNEL
BoDUSER
RegQueryValueZ
OpenKey
*	Close
ADVAPI
0W(BY
=Hsvy|
mpsx
@N@R@
V@Z@`A
 *N-?
-G>|?
5o8:Q
;:I7
x?_%
p?Pv@
uNP"
rKA!l
N; ri>e
i.I$
g	s$
yrARn
&g'b"
q)eV
h r.
d:gV
r8 ~'s
ebVnr*
*n313L,f
arN! 
n8?E!D
_(* 5N,
eX.EE1
u	E +L
p"g-l
QK  
<:v;C
#aoa
	b @
oSCm
cn^e
Yl)3a6|
6G<d
udk*e"
gi|/
'mi%
Kg^n~u
& xP;ouu
P B1zQ
*q6.
 "	1Q
y*5m
t-B}
w3jW
#PSoSQ
mQ Hx
r$- l;
>R).i
*'CX
rkxq
RQn-
:;v%
B'*?JkyU
PQ[La
>j[t
t? &
G5BLo.J
sm!_Qq
+1s[
}4*.k
uCY%
%Qc/
 7.&*
jvZ0
_Qw4z3
:QS5
60RQ
6O/?
EW_m
<5QQQ
T;A+
6z/{
-&5K
Qm3N
@52;&
qXr5
wphu
=Z.y
PQ~7Sz
a4+4
R0'-2
?T_+
WJS;
J0t2^U/r
:{_Qn
p!2V
;z^5:
,RQqwO
{"ba
2t,t"
tfY)i
 wQs
a	5"sA
k2)k
A6QqH
5%_f,
qY@n4
5e8F|
d -m
7J~)
+h@@i
EE*)R
Gq[R]L
%be>
5Qzu
^Hpl
qQQHML
*q,?
4@8p
P@gB
vNFJ
$s-Y 
k6%7Y6
i34:
_RKI#
Ue?s
H<u'J 
wj%e
IHP 
cdU@e
.A.5
a(%^
\Ei%e%
pR0. 
-fKJ
pr~Jw
J5[5
/5M@
mQRQ
Qqqq=
y	 I
+gqU
snI(
'5(.
'PRR
^=%5E
-#GJ[
eJBb
CVcC'Q
>-0Q
/w4W
P6&	
L,\2
!dD%
i	"t
4 Bn	
<assembly xmlns="urn:schemas-microsoft-com:asm.v1" manifestVersion="1.0">
</K>
JellyFish
DABBLER"
aS&L
	3gN
LIBT
Q$)O
'~bp-
0	Zws
anq1
0elm
R<IL
G2BH
Y)#gn
n), 
@}1H~
%o"O
Block_List
Cmp_Recs
Descs
Info_Blocks
Info_Recs
License
Pkg_Signature
PT_Info
RB_Regs
SMS_Info
Ver_Infs
Wkstn_Rqs
