!This program cannot be run in DOS mode.
Rich
.text
`.rdata
@.data
.rsrc
@.reloc
"W9F
th9~
50YG
5pYG
P,^]
50YG
5pYG
D$@d
D$(;
T$0R
D$0P
D$0;
D$(;
D$,;
u	PV
L$@d
L$L3
_^[3
L$L3
D$4PS
L$,I
D$0F
D$ +
L$ j;
D$4 
D$4Pj
D$0G
D$0U
D$0D
D$0k
D$0 
D$0F
D$ +
D$4Pj
\$0j
D$4Z
D$4P
D$4Y
L$0;
D$ ?
L$0;
D$2P
D$$P
D$,P
D$(P
50YG
5pYG
hh}E
D$ d
L$ d
hh}E
D$ d
L$ d
hh}E
D$ d
L$ d
_^[]
htdG
htdG
	;9u
t6;p
+;0u
?w/j
tq9u
tlf9s@
f9s@
D$$0
sBj%V
T$HR
9s0t
RAQh
w!9^
tCWj
@PSV
htdG
h<dG
50YG
5pYG
9>t.hh
u'hh
PVVV
97t9hh
QPSPPP
9>t3hh
htdG
?PSV
tHWj
0f;1u
$9>u
x ;~
x*;w
QQSW3
#SSSSW
SSSW
F$_[
97tU9s
7_^[
q(9>u
^_[]
bj"Xf
j"Yf
s	j'Xf
t-9E
wUPQ
j'Yf;
j'Yf;
8%Pu
8%uEP3
t	G;~
xR;~
SVWP
Y_^[
PPPPPPP
QPPP
QQVW
Sj'Z
j'Yf;
j'Yf;
j'Yf;
 t:S
D$$V
|$89|$(t4
|$4h
D$LV
|$T;
ub9|$,t\W
D$(3
9|$(t
D$lh
>{u<V
t$ V
D$(3
tJ9|$<
Y_^[
9|$<t<
D$dP
9|$,
D$dP
D$(3
9|$,
9|$(
D$$!|$\!|$`
D$dP
L$`;
!L$\3
>{u=V
t$ V
|Pj{Xf;
bj"Xf
j"Yf
50YG
5pYG
50YG
5pYG
rlH;
QSVW
htdG
w#9^
~_^[
G,VP
t8Sj
?j\S
j(Y+
50YG
5pYG
_^[]
8YEu*
8ZEu
8YEt
8YEt
htdG
t6;p
+;0u
8YEt
8ZEu
8YEt
8YEt
8ZEu
tIVS
?.uEW
?*Wu
hpNG
tG;u
nt4Ht
j ^;
@_^[
sUS3
htdG
hHOG
htdG
VW9]
K QP
_^[]
8Y-u*
8Z-u
8Y-t
8Y-t
htdG
t6;p
+;0u
8Y-t
8Z-u
8Y-t
8Y-t
8Z-u
htdG
tb+u
P0_^
?PQW
PRQV
D$<P
D$LP
L$4Q
L$HQ
9\$8t
\$83
D$ P
Y_^[
VWt.H
VW9X,u
\$09
D$ F
D$8+
D$09
D$@PW
T$4Rh
T$(R
\$,;
T$,Rhl
9\$,
D$< 
D$$Y
L$Pj	Xf
\$Hj
D$ F
D$8+
L$8S
u Vj
t$PP
D$,;
^[_]
E VW
L$,_^[3
Fd4SG
Fd4SG
_[^]
9~`tT
WQWj
Nw;t5
9Wlu
_^[]
WhRQ
j7SSSSS
RRRR
9_8u,
{`Wh
slVh
Rh(QG
h0UG
QSVW
P9>t
^[_]
QQWRRRj
C Ph
C Ph
hdTG
_893u"
SVW9M
_^[]
 1H\3
p<9>t
QhXQG
FphC
Hth@
Hxh?
3Hlh;
3Hlh7
s|9>t
Qj\P
3Hlh>
1Hl3
 1Hl3
F$tVG
F4 WG
F88WG
F@PWG
FD`WG
4SVW
h<UG
hXUG
D$ w
P@f;
f;A,s3
@,F;
tfS9~
P([_^]
uEf9F
X9>t
t(PWV
@_^[
VWu	
uYj@
9~$~ 
x9;~$}4
G;~$|
Sj Z
0;1tt
hP`G
hp`G
8csm
htdG
SSSSS
_^[]
_^[]
 SW3
h4eA
woVW
_^[]
t'Ou
 SW3
SW9E
t?f;
Vuy3
 SW3
^[_3
Vu<+
t:f;
YQPVh
Y__^[
9csm
=$ZG
t h$ZG
hoJA
h0aG
t&:a
oV f
o^0f
of@f
onPf
ov`f
o~pf
FGIu
X^_]
FGIu
u,9E
u,9E
uTVWho
j hPaG
PPPPP
@u^V
t%HHt
HHt$HHt
RPWS
90tW
?If90t
YYt.
 SW3
j%Yf;
jdX;
j-Xf;
j-X3
j+Xf;
jeXf;
jEXf;
jeXf
j+Xf;
j]Xf;
j][f;
j]Yf;
j+Xf;
j0Xf;
t\jXXf;
YYj0[
PPPPP
j-Xf;
j+Xf;
ou'j8Xf;
j8Xf;
u	f;O
?%uC
&VVVVV
PPPPP
<v*V
^SSSSS
hpaG
hDzA
v	N+D$
Fh= 
_^[]
Y_^[]
Fpt"
j0Xf
RPWS
80tS
j Yf
YYt/
u)jAXf;
u+9u
^_[3
@SurP
jdX;
F<-uq
]tfF:
YYj0[
d<%u
?%uN
@SurP
F<-uk
]t`F:
YYj0[
l<%u
8csm
 w	f
"u	3
tAVWP
Y[_^
PPPPP
8"u8
t	j\Yf
t$9U
QQSVWh
j@j ^V
SWf9M
j@j 
URPQQh
L$,3
UVWS
[_^]
SVWj
_^[]
_^[]
h bG
Y_^[
Y_^[
h@bG
j h`bG
t!Ht
VVhU
QSWVj
@u^V
t$HHt
HHt$HHt
RPWS
90tX
YYt.
Y_^[
ub;F
QSSSj
~%9M
QVj	
r 8^
9]$u
9](SS
t"SS9] u
9] SS
v4;5
vL;5
PPPPPPPP
PPPPPPPP
Jvf;
Jvf;
Jvf;
Jvf;
Jvf;
Jvf;
Jvf;
t$WV
@uoV
_^[]
SVWUj
]_^[
;t$,v-
UQPXY]Y[
_^[]
~,WPV
h cG
98t^
tVPV
t/9U
t$WV
Ht%C
Ht(f
hHcG
hhcG
B,SW
5pYG
B0X_[
jK_9
5pYG
5pYG
50YG
5pYG
C(9E
9C0u
50YG
5pYG
50YG
5pYG
5pYG
K(9M
S(9U
;C(u
K(9M
S(9U
50YG
5pYG
9K,t'
Y_^[
j\Yf
(SVW
@_^[
j\Xf
j\Xf
uARP
50YG
5pYG
90ta
SVjL
8FDu
50YG
5pYG
5pYG
ItXIt
50YG
5pYG
50YG
5pYG
_(9]
_(+]
W(9U
50YG
5pYG
G8	S
50YG
5pYG
9O,t'
Y_^[
LSVW
5pYG
X_^[
,SVW
w`SV
f9_:
jLSP
G|9X,
F W3
~4j*W
j(Y+
50YG
5pYG
YYY]
)wh)wt
;G@t
@V;A
50YG
5pYG
tiFV
9w0u
50YG
5pYG
SVW3
;G$s
G:Yj
50YG
5pYG
50YG
5pYG
Xf;GN
\$ ^
50YG
5pYG
D$,j
D$83
\$ 3
L$(QV
SVWj
D$(P
L$ Qj
50YG
5pYG
_^[3
D$xSV
D$0P
D$0P
D$@P
D$@P
D$|+D$t
D$`P
D$`P
+D$xf
D$PP
D$PP
_^[3
|cf9E
vLh(
h8QG
9N,t
NtPj
50YG
5pYG
OXQP
GdPQ
j	Xf
D$( 
D$(P
D$(P
OXQP
D$`S
D$(F
D$ j
L$ k
L$ +
L$ +
D$4P
D$#PS
50YG
5pYG
L$l_^[3
9X0u
@0|UG
N QP
Sj j j
j(Y+
D$4j
D$(.
D$,E
D$,?
L$(+
L$ k
D$43
\$8W
50YG
5pYG
YYj?Y
L$0Qj
_^[3
D$$j
D$(F
D$8u
50YG
5pYG
L$ Qj
_^[3
Htz-
8WjB
\$ V
50YG
5pYG
P<9]
50YG
5pYG
hwbE
!|$8
D$DP
D$DP
t$$+
|$$j
d$ ;
D$DP
D$8;
Y_^[
D$PSVW
D$hd
D$(P
D$ 3
L$hd
Y_^[
L$P3
h6cE
L$,Q
L$,Q
L$83
L$$QV
D$8SP
L$4QV
50YG
5pYG
D$<;
D$XP
t$<P
D$ F
Y_^[
93uW
D$HSVW
D$`d
VVSVj
VVVQP
D$ P
L$`d
Y_^[
L$H3
D$hP
D$D`
D$0 
D$lP
D$8P
D$lP
D$xP
D$@P
D$$ 
D$(E
D$(?
L$$;
D$,P
D$4PV
D$DP
D$4;
D$Ls
D$LP
Y_^[
98t	V
hSdE
D$hSVW
D$@P
D$ ;X
Y_^[
L$h3
p 9>u7
Y9>u)
}Lh\NG
h<dG
50YG
5pYG
D$`SV
D$\P
D$8P
D$8P
D$(P
D$(P
D$d+D$\
D$HP
D$HP
D$h+D$`f
L$l_^[3
;ND~
;FLt
N$QP
j	Xf
O$QP
SSSVS
50YG
5pYG
FH9^D
SVWj![
50YG
5pYG
+~XP
Qj*V
Qj6V
Qj5S
hw_E
SVWP
j(^V
Y_^[
F8PV
50YG
5pYG
50YG
5pYG
\$ 9]
D$,P
8^8t
D$ !
50YG
5pYG
KXQP
50YG
5pYG
50YG
5pYG
PhVhvmC
9H,u
	9H0u
50YG
5pYG
P0;U
P,;U
VWj<
50YG
5pYG
50YG
5pYG
50YG
5pYG
50YG
5pYG
50YG
5pYG
50YG
5pYG
h\NG
tPS3
D$ZP
D$(9|$(r
L$(QP
_^[3
j\Zf
50YG
5pYG
50YG
5pYG
.u$f9
j\^f
8\um
9\uc
t"Sj0X3
hMiE
D$PSVW
D$hd
D$(P
T$$RQP
D$ F
9D$$
L$hd
Y_^[
L$P3
D$TP
D$8s
L$$P
D$ 3
D$4 
\$(k
D$(PV
Y_^[
h\NG
h<dG
SVWh
SVWj![
D$(h
\$(j
D$ +
D$ k
50YG
5pYG
PPPj
PPPP
50YG
5pYG
50YG
5pYG
50YG
5pYG
h$YG
PPPj
50YG
5pYG
50YG
5pYG
j(Y+
50YG
5pYG
50YG
5pYG
SVWj3_j
D$Pj
D$HPS
D$P,
D$pP
D$8P
L$HQS
_^[3
tx9]
,SVW
\$0SS
L$(k
L$ ;
G9|$0
G;|$0|
;D$0}
;D$0
D$HP
D$PP
$9|$4
9|$<
9|$8
50YG
5pYG
D$JP
D$,F
D$(+
D$@P
D$ G
D$ U
D$ D
D$ k
D$@P
D$@P
D$(E
D$(?
L$(k
L$ ;
D$(S
_^[3
hWYE
D$\VW
D$pd
D$Lh
L$pd
L$\3
D$ P
C@;CD
D$$ 
PH_^3
D$0P
QH_^
D$0G
D$0U
D$0D
D$0k
SVWjE[
L$ Q
50YG
5pYG
D$mj
D$tP
D$hP
D$Lh
50YG
5pYG
50YG
5pYG
SVWP
SVWP
50YG
5pYG
D$DP
!|$8f
D$(P
D$(s
D$(P
L$$j
L$|_^3
D$(P
 w$V
D$`P
_^[3
SVWP
SVWP
SVWj
L$T_^[3
L$L_^3
50YG
5pYG
\$(W
jX_W
D$<SP
\$ 9
D$ !
D$(+
D$8P
D$8P
t$4P
_^[3
50YG
5pYG
\$(W
9t$Hs
9t$Hr
D$P9t$ds
9t$dr
9t$`
9t$D
D$,PhX
L$Pj
_9|$ds
9t$|t 
L$l9
t$0;
T$0RhH
\$ 9t$0t7S
L$49|$Hs
D$0;
D$(.
L$(+
L$(;
L$(k
L$ ;
L$(+
D$,;
_^[3
D$ P
RSf9}
D$<P
L$t_^[3
D$4P
Wf9u
L$l_^[3
50YG
5pYG
L$4Qh
L$dQh
D$HP
D$|P
|$Hk
L$dQ
;|$Lu
D$$+
_^[3
SVWP
D$(h
L$D_^
hcjE
D$`d
CT+CP
Kd+K`
Kd+K`
D$$P
50YG
5pYG
L$`d
50YG
5pYG
9X0u
NHQP
h<dG
QQVW
50YG
5pYG
0SVW
D$@d
D$$ 
D$$!
D$ +
D$ !
L$$+
L$@d
Y_^[
9^8u	9~<
|*QQQ
50YG
5pYG
P\j [
D$xSVW
Y_^[
L$x3
D$4u
D$D 
50YG
5pYG
;D$Dv
D$D+
D$$+
D$$E
D$$?
L$$k
D$ls
D$$.
D$4E
D$D?
L$$+
L$$k
\$<j
D$L+
D$$j
D$8+
\$<u
t	9F
0SVW
hdfE
D$(d
v	;F
v	;F
\$ _
d$ Z
50YG
5pYG
50YG
5pYG
L$(d
Y_^[
0SVW
D$@d
L$@d
Y_^[
50YG
5pYG
\$4;
D$(d
L$(d
v	9^
9N4vr
50YG
5pYG
50YG
5pYG
50YG
5pYG
50YG
5pYG
50YG
5pYG
50YG
5pYG
50YG
5pYG
50YG
5pYG
D$(P
D$(P
D$(P
D$0PP
h8jE
D$ d
50YG
5pYG
L$ d
D$8SVW
D$Pd
D$$3
|$<f
WWPj
D$ W
D$(+
D$ k
D$ ;
6SPVW
50YG
5pYG
L$Pd
Y_^[
L$83
D$`SVW
D$xd
5pYG
QSSPR
D$$3
D$0 
D$@Y
L$ +
L$ ;
L$ k
t$,P
L$xd
Y_^[
L$`3
h\NG
SVW3
D$8W
D$ +
_^[3
D$nWP
D$hP
D$0P
helE
L$(3
D$ Y
t$,P
L$ Vj
D$ls
D$Ps
L$0Q
L$,j
D$( 
D$$YY
t$,P
D$ +
;D$(r
D$( 
D$4s
D$'S3
Y_^[
50YG
5pYG
9F(u
50YG
5pYG
50YG
5pYG
SVj8
D$<j
D$@<
D$tj
50YG
5pYG
\$ V
\$\r
T$4RQP
D$@S
\$`S
\$XS
QQSVWd
QSVW
Y__^[
<$Xf
80t/
PPPPP
SQRP
jdRP
@PVS
@PVS
Wj0S
|-;E
VVVVV
@_^]
=RCC
=MOC
=csm
8csm
9csm
j,hP
~A;L
>csm
taSV
YYPV
t)SV
Hu4j
=MOC
t*=RCC
;7|G;p
9>u&
tR99u2
r,9Y
@_^[]
SSSSW
SSSSW
@PWV
_^[]
PPPPP
WVU3
v	N+D$
r"9U
r"9U
9M$u
<+t"<-t
+t HHt
h\ZG
PPPPP
u-hTZG
u"9U
hLZG
hDZG
u	9p
u	9E
;9u	
0K;]
@tH9
SVWj
Y_^[
P$h0
j,h@
j,h@
=L9o<
Unknown exception
bad allocation
CorExitProcess
(null)
( 8PX
700WP
`h````
xpxxxx
FlsFree
FlsSetValue
FlsGetValue
FlsAlloc
HH:mm:ss
dddd, MMMM dd, yyyy
MM/dd/yy
December
November
October
September
August
July
June
April
March
February
January
Saturday
Friday
Thursday
Wednesday
Tuesday
Monday
Sunday
 !"#$%&'()*+,-./0123456789:;<=>?@ABCDEFGHIJKLMNOPQRSTUVWXYZ[\]^_`abcdefghijklmnopqrstuvwxyz{|}~
 Complete Object Locator'
 Class Hierarchy Descriptor'
 Base Class Array'
 Base Class Descriptor at (
 Type Descriptor'
`local static thread guard'
`managed vector copy constructor iterator'
`vector vbase copy constructor iterator'
`vector copy constructor iterator'
`dynamic atexit destructor for '
`dynamic initializer for '
`eh vector vbase copy constructor iterator'
`eh vector copy constructor iterator'
`managed vector destructor iterator'
`managed vector constructor iterator'
`placement delete[] closure'
`placement delete closure'
`omni callsig'
 delete[]
 new[]
`local vftable constructor closure'
`local vftable'
`RTTI
`udt returning'
`copy constructor closure'
`eh vector vbase constructor iterator'
`eh vector destructor iterator'
`eh vector constructor iterator'
`virtual displacement map'
`vector vbase constructor iterator'
`vector destructor iterator'
`vector constructor iterator'
`scalar deleting destructor'
`default constructor closure'
`vector deleting destructor'
`vbase destructor'
`string'
`local static guard'
`typeof'
`vcall'
`vbtable'
`vftable'
operator
 delete
 new
__unaligned
__restrict
__ptr64
__eabi
__clrcall
__fastcall
__thiscall
__stdcall
__pascal
__cdecl
__based(
('8PW
700PP
`h`hhh
xppwpp
GetProcessWindowStation
GetUserObjectInformationW
GetLastActivePopup
GetActiveWindow
MessageBoxW
 !"#$%&'()*+,-./0123456789:;<=>?@abcdefghijklmnopqrstuvwxyz[\]^_`abcdefghijklmnopqrstuvwxyz{|}~
 !"#$%&'()*+,-./0123456789:;<=>?@ABCDEFGHIJKLMNOPQRSTUVWXYZ[\]^_`ABCDEFGHIJKLMNOPQRSTUVWXYZ{|}~
invalid map/set<T> iterator
vector<T> too long
map/set<T> too long
RegOpenKeyTransactedW
RegCreateKeyTransactedW
RegDeleteKeyTransactedW
RegDeleteKeyExW
invalid string position
string too long
F3.1.0.201
 n;^
Qkkbal
i]Wb
9a&g
MGiI
wn>Jj
#.zf
+o*7
#V h?H>
RBRGV
Vtye|zu;C
ZOEUh
9u>V
Hba%HAC
F(s-ui
T}'L
MTIEL
Q|(1
dCb\c
	9}+
FvMTo
]7A1L
uUcgp
g>^'O
m'q m
A|pL{ar
vKmPe
_TJ`Cb&
DREDHnG
W?v![
U`OjI;H
_(YrO
I#_`_#,f
 R;_<
 0Sa
fLu:b
DdI:R
`ms]
p<?$
HsI.'I
sajWj6/X
alb:j
tqe`Ih
GJEuF
MkLU	
]2uBW
FpxSI
@9(F
GsVAV
CDLI
W@VPH@
W@TP@VQ	
~PWI
	[LM@[LJ]	]F	
a7hd0,-7yt<a4hd,%* (!yt<a4hd70%017ya D
j]IM]KL{WVL]@L
{TWK]yV\k]T^|]T]L]8
IKKMX\[
JQ\M
ZIFOM(
`{vgq
3>mjqn>qp>l
py{>}qsswj2>vl#.f;.&f
TCVCGR
EISHRCT
ob,''&b#76*bg&nb!-7,6'0
XNEO+
J\W]
ZVLWM\K
l[OK[MJ}QPJ[FJ
@l[OK[MJ}QPJ[FJ>
%#5"P
OHRCTHGJ&
~MBKI
	PWU
~s02=t's!6 &>6s$:';s6>#'*s6'24s
!nv?&~v?&
s>~>nv7
s&!?ntv t
~~usdy
~*0s|
FAIL
OPEN
REQUEST
{URL
ehli-
?2ts{~2q}||wqf>2z`/"j7"*j2If}257a5>2g`~/57a5O
UBTN]B'
[XDA\
NADM
=0vqy|05c0vy|u<0xb- h5 (h
encem
 -hcx`-eyy}R
h~}bc~hRehlih
~-*(~*- 3-*(~*
mQHIrLKAJR
qWDKVIDQ@dFF@I@WDQJWlj%
	A^GM
16(yca7c
pLUToQV\WO
wVlJYAvWLQ^Q[YLQWV8
`\ED
AFLG_
gFnAFIDeM[[IOM(
JvonUklfmu88|JvonUklfmu
3>kpn
}u>~jvwm~2>vl#.f;.&f
gU_HEqITMCTujidGUC
BIqITMrNTCGB&
g1nb&-,'b
6*+1
r:g2
jXREH|DY@NYxgdiJXN
ONX_YDR+
zjZKPIMjPM\v[S
~\MpM\TpW_V
WXT\
{H_R
[FNL
}p31>w$p#5$p#9$5|p8"m`(u`h(P
VGTUC
OHRCT@GEC
o^IMXIeB_XMBOI,
~s02=t's0!62'6s'*#:02?s
0!:#'s<1960'
s;!nc+vck+S
0ZCsby`d0
rzusd<0s|cyt-5c<0xb- h5 (h
jsCRIPT
PROGID
)8#:>
+$+-/8pp
)8#:>
)8#:>J
~N_D]Y`LCLJH_
~N_D]Y~DYHrbCjHYcL@HIdYH@-
7a>2|s
w/57a5
tDUNWSjFIF@BU
UBVRNUB'
KGLM
Csby`d]q~qwub**Ufq|Csby`d
JG.#]Z@B
tcgb
b}hc
oVw@BLVQW\dFF@VVJW
FIJV@%
cZ{LN@Z][PhJJLZZF[
FYLG)
id&% d-)%#!d0=4!d
4ya h&44ya h"yca7c
TWY\
QUY_]
b[aEIOM
AFLG_
gFlM[\ZGQ(
/"FgdUklRpma"/<"'f
TmWs
y{Iwpzqi$$TmWs
y{Iwpzqi
@GOJCB
,8+2
6'/B
~EQB[mBEOmBGN+
MQPJ
tMxWR[kPN_]UWPY
@tMxWR[kPN_]UWPY>
}p4"? p31385p6?"pwu#wP
KIPC&
^I]YI_X
XDE_
~s"&6&6spv7isv7s:'6> 
s277sc+v#S
ZcVy|uBuaeucd**t
edy~u
jSfILErEQUEST
^jSfILErEQUEST 
gj=%8!j+(%8>/.fj>"#9wz2o:J
[LADILYH
YED^
AwfFz`wsvW``}`_}vw
DFKK
TSFUS
SONT
b[lDDkIDDMZ
GZCzG]\AFM(
ZcT||Sq||ub**nZcT||Sq||ub
23bf
?7,ffeplsf
4#cf
23bf
?7,ffeplsf
4#cf
23bf
?7,ffeplsf
4#cf
23bf
?7,ffeplsf
-">9:hjf
4#cf
23bf
?7,ffeplsf
4#cf
23bf
?7,baf
Zfff
(|n-h
V1vs#
:JUe
^bk~i
gW,?
HJ-$
=C;%
5+'R
?@#V
P>( 
)`fYb
4VTM
AvxJJ8
ca9u
o2:2t
OO*F
.m/ 
 N&?
^cW!
%AkL
7-Tn92'
ZnOI
.1yX
]*QS?C*
tQ?~
nUe[f
u=<0$
dguc02(luUB
L7vK
bjatcu(|ovUB
ohorQohbiq(|ovUB
luih4(luUB
VrVN
%_Nm
fJfW
Lv5M
x!2a
8Uxp
0\# 
{Cs}F
h(8j
'1Pl
n}3S
[MGr
8:D[
,l[qsu2Xvpf
RptS
I^q`w
|/C3
U:W1
2Aw+`
8S@"
>K|]
oy<[
_*Wk
Tj59
=g4JN
oyTQ
98_	F
gtw:?
QTB'
T.\`
hASv
8GP3q
rnj@
dLWHX
oTCj<
CwFvV
ob^t 
ZDo-K
V7*'
+U-J
yDp2w
`?{{82
]GCy
S3;n
w;8N
f#fT
<<8 
VXwp
f\86/R
4|DJ
PQRUtxy|
{Bd<f
 `$@
/pct
%n1tG
/_(`
n-7A
#PEh
u1l\
{~'Q
5y[L|
ej5I
-)_L
$<gB
iex&
.Di{
{XF%
dY5ZN('
Hg/]
\Fr53"
Y<rI
X&#m"J:
vQv6
3]\:R
UTGr
k\-i
wfa\V
e0.B
#D=z
<<=.|
N||b!
nvT+(
d4D+
p=MK
` Uc
-[z&sx:e5;x
`fiF
J_yq
,T2{
5xgyf#7
|3xE
	3t$
dUF;
=N;^x
IBHN
![tN:
;0]l"d
=L~'
x[	$$L[V
~P)|
Mq-9
Op<K
F	0K
!aVB\
B(Mn
E$$:
Z`<e
]tn\dK
Q1?I
3]z]
p_O[
<yJH
Y`]Y(D
"}77E;v
/5 C
O4:3
TV#:
A\'T
Ty-3PN
tZ,.Y
)qzM
0{g`
{Y"?x
?|"&
a.4;_
[7..
{Qc'xL
8O7v
Pxh81V
z1n=
CC)g3
dE7B
4KG(
bg"q
5G@R
*}dh
vC:f
A(TB
{$$4
MOBT
)eK>Bi
Wd!+&
:IFW
h+~zc
}fv=R
#	7	
}=wGI
{)y=
ah$D\
h~B@8a
6;lC
0"v&
M@XPt$F
C4_z
Stv!KV8A
]A	r|K
%] g
P;GGX
T((CI?
@Mm,
5?P.
??:"9%
mSj]~
ND8((Q
"'J6
=S*i
h[W#
2+~h
Av=vvS
LO[8g
ZIsS
_A<Ge
((a!
MQc_Geg
7Mr`oA
PZu@
|w'%
>C4i
L9%e3f
N&ko
((!F&
fP6J"K.
Fvs-
K((w
((w2
 	q?lhr*
JwG:
.x-I
2+} 
dbc(
/Y7$
DqQ 
m8^?mIrE
8ON,
DL\x
@SITh
%B'B.
6g11
~wos
n,6{t
OPus
3qLe=R
X/_n
\9,0
FZ'F)
m#aIi
q2"	
<h"w
q	i;
@)K",
4FhD
!%X`
PX2&:
]NBv~
[4m/
6irv7
$;~k
fSq`
Cn{#N
G6M=A
4% *p
l	i`
u'QE
z(k4
	qVQ
h]2C
g$2@
r2VTX
Z~p)J>
4\Ot
+'*=
8r[(
?#A3
~AcI:%
,4aZ
.Z%S
0f+e
;O4=
d+L/
,WP[3
$"hIBc
ShB3
hksZ
94{XF
nb$4
3bRW
e{}F
q@;E
78bT
j=DQ&
JNdQ
8|0R
h``|
`[+I?8
]a)K
$E\\
2K7w
-h[)
V`;X
c(|w
GwEK
-%v$
+Qz|X[
L0xg
{HyY
^Txl
`58n
lw(MM
`Bm*o{R%
I#+d
GrWj
'N	w
cS?w
e-0u
*#1F
~Y^|
F8BP
Fx*A+
mY+A
titkt
W$;@
^4'*
xPtQ
<oRCoX
LX%R
 F|jh
y2%[
D^rZL
x}H0 
P|-!+
K+[j
^Txl
AFdFk
FB* 
2-ngv.
\A2AD
`9 M#
7S9%j9
z3i,
/Yag]
`zHr
J.w"A
qugy
# JH
]$6W
?#2ki"
8RvFU8
^6%G:
[{EE
e1[#
pl6~_
RZ=f
Y6~g^p
EE td
fV"0{
u499\0
@OIX
	y=#K
IOeQk
[~nB^
nmn)
?u1*
+Az^
NtYp-
&YCzZ#y
eGbT
FbJ\|
G2J<{$
EE)0G
\M,'
~CHH
=h$y
c<8F
s}"V
FZWeA
K`[@
yVHs.
TC6qVY
W:OY
S-UW
LN6?
@'I(
JmI//
/(Db7
-)3"
4@i_
ZBNt
Wz<[
pP <
DpkV
|)5?PX
^VlPp@
BWZ[
J6"&
1<kp
=,_rH
KqX8
p`D"ao
I<&O
p:d^
?i(Qd
!q{wg	q
=vl<t
T4l>
#9Tjo
`NK2%
{veFTv$
RPNg
2Qy*
hs;<,9
k[JQHLqVL]J^Y[]K
LTZk|f9
,[\XQ)YXXhY
>'>^
G~A>~~
ml59
b7H#
{A!r
\*2?
[99U
vs!&
xqCLN
zeMN
!3l.'
T7n^
1BHv
7c1&Y
${e5
99$X$
iPO99
=D99
H*&_
F!@&
WUfj
$Fr)
Pg99
)Y`r
3@;ON
@>M@
fW99O
Di|>E
>k!;
x')O
|64y 
Z@WL9
x'@w
EVb!
F"d3'
]Ued
"HHZw8
|id&
(,tH
pf<<
]%i"
<2f%
vo-P
on%-
bxn+
oj1&
e@n}
.ai8,
(>fO
n%E;
}9ZN
X7~G
)`+j
i,K2
1VKB
|wHg+Q
F_ hBU/D!
r"Cq
9~%i
/LQ<
L"f%
6 cA
}^J%o
\	/p
s|Hw
wwzt
}]V^
FU'd
 wwOu$
or?w
IG*4/
n3.?
+B XP
-j%Z
i2!33'
M&8"
hr!S_j
Jfarww.hw
)Sm55
xHg0(
;e($
,."%M0O
nq&&
bj!m
8y6n
cE-]g
brq=
\peML
z{/%u
H!)|
OY1C
<^j.
YFN0
I&=urbw
%2(w
tE/c
FDG6
;EbU
7FIu
8:Cc
f',9
V9$!i
NY$?
$/pTx
fpN4
=(0$D/
 .e97
j"p@n
:/]YJ]
t]E:
p}*j
PR>AT
=+R?
:#vy
t]=(K
%=3T
PQ"-
Jc_&3
~"|s7
|$pB
%j&s
DY.$
?+VD
U^Qt"
aYry
,G-G
hKfv%Ev
4<g,
PmY 
_)HZ'
^|OU
].5A
J55:w
9X/Et
tyy|z
PcoG
f2^,
Tg/q_
nO7n
W&*}
+If$#h*
]l*GA_
\>3ZCev_Q
|2XC
$o)A
WV!v`Y
PqwG
?F1_
IX*v
v)bW
8A>f
Zr%6
/} ~5
/&yZ
xDj4+
L'xR)1
S3,IqX1
Ly_0
]5@y
z<kP
?GnV
u3ck
d7pgIn
3>m5
9<Z))
=KhX
I.wc
g))=
T|N))NK
;	+6
8cJV
j|\}
Oe~w
CzqC	*
BQ&8"
X0*31`
Q;sB
[mP'Q
>I-sN_
4s#XJ
g$bM
H]v`
r_fS
iGM!
^L-T
pG1uGEwz
d|Im
2gYw
1bq$X
,^!G
.Oyv+
lVs0
\S?%
VTJ0
#S!=
dY:z
sX+x
m1Mp
Ow33Kx
;Ha]
(gb:1l
CDkx
O?k!
	?+`
;'_(
V1T9
t 7n
|5{D
KL7~
zw~3/7S
mL3w
@7}1
WE^~
|5bp
".c^
Xj~_
7|Fq.
_8Jd;|
&O=3N
mfTR
0tEj
ym=V
]b=+d
sN~W
g,2gG
tR_p7
\"S9
Ir;$
O`pk
u|71
LC$5
i423
ACR/
8-0M
HcdL
`Z?Z
@7eT6
|:X+$Y
xUa\
 k0.vN\
8x	!
^}"	T
*bf/
;hT>w;h
]Hb)
(&_(
9O7\A
ua3A
>T?{
b!`i
% Ww
w-@)/
NeSs
x[pp
>po:o&
T5+0
`WmUHw
:Wf.
JX~M
+R4]y
%^#Y
{s0O
g_X}D
O,/WMY
vR"t
"G6|f
'J]9-?
yxH;PS
IS]"
Bf&i
_16NBv
cEgG
K^Hb+
^erB
d1{3}K
"2U|
rN1{7r
PI., 1^
j|>C
7cRn
itci
mY+`=
\:-C
	Ljz
pe`]*&
dNci=Q
@)<-
Vrv:
_\$g
*9iRA
!Yel
@+MvQ^
TS3`
N=z2
4eP'
WqdE
zKZ@=
+GT?u
!Em.eDq
lx"5o7
U#4tL&
6Zb_
)vjY
Q<~4
Wbr&O
=Sd+
Og-k1/
h#RC
%Q2g5
	D:_
o1?%Yp
Vu5;
`?y0
riR,
w=	 
,bz,
TQc-
T@o\
Df&qJ,
@J-j
m=M}
q~Y4
vg$%n
t%t|T.
]t.FC
K67I
u*PDBY
:z*E
3S![$
T,Yi
|$'t8
mB4:
BEoe
gb%LZW7
#FYT
#%o<$
/ W5
8"Mspg	
IDW}
iOC0E
SEahv
uV <	c^
=Ra5
yJuU2
f%p6
uVMw
&)?f
b3d@
LP=-n+GT
W[`p
	8%E5k
.8Z6
!%-^"
mvK.
["2G
UE&'*
Tc7s
<'s9 zWc
bpCk
=?lw
x`+*
Aj:''
Lua[
TX:}
8fjN
8>d 
:''k
HQUT<
lNR< 
ilyH
83Sd|
%zU<
g"d\	
QR$j<|f
iAp@
''aI
IFfR
j\@>A
HxoVz
jv, y
uC2;
%6;J
O4HS
+$BW
FiYO
2G?q
FO29
a5(I
OZS?7
~~j1
\%_G
@wy*
CCUH
?mEo
qM~e>
,5B?J
K~Om
VU#i
IW:=
\'IA
vIN%SS
pkd:
R;1[
sJWZ
R__k9
gT"q
wX)s
{E.B
ZK/a
nbl=
B0/C*}
]vcQ]
6gfv
&@je>
'.yz54yz
Uny_d
JH7Y/
9F	X
f=AxR
j-("
^&"%N
UpP4
ZL"-
Er"QH
96VL
hrAu
-3NpZ?
`<Pw
1d~E
	@}jY
iAjy
Z\\H
cq?W;
:?pwNA
^#!z
:';h4
uk(	;
x`;n
;1D3
G6\H
#]Rzw
sc2O
e?6vI
PGXy
M:\'
c*iS
r(|	
CCm)
P0AJ
nZnr
oRgK
O25	
!GQ_
5wm)n
w9Y8
<aZ	
Z;w0
'M-6
j12)
o}/5;z^
%#}D
ZDd^
mI'gp
\5|m.
:gfg
2bF2
ni=O
x]pn
#&76
u9{k
JH!A
MF>q
tW9O
'qzr
Rm{C
jSx?O
ys_K?
oenK?~x
qexllxcE
q~C'__
radw/bsG
TE)x}tx
Gybm)
z{06
1/!&
< ^Y
|+X_
hu{|
+l\,
h0gF=%
v;\>
b`811
xZ_)3
\*$?
hf"l"H
@B'U
S_Ew
f!/'}
`_K==
Uv|)
K\rd
c}IL
hU'W
	U'>!
c@cA
lG%n
CkkuS5
WKsf
PD|:
rK?Yk
{!/& 
	2?J
t$\_
U=PC
Ny3&
+kkY
<c(-
NBp}
?p8{
>,,c<	
>&@+
888^{
JvII
#?fb
mR`"
u:!in~k
9.4k
PLlul
 lK~
/Jqk
?>gk
<^<#//@
[13O*
zia"
2y}z
fd,W
Ke<#
-vgk
a=7t
4xh0+
_Q|")f
V~[U
:&es
va{T
T"|&
x n[
kkOA
3cGV
#5@\
F:~E
{`(/?*
IJXN
AXxou*
?HOKB:JKK{J
-4-M
TmR-mm
gCsoF
mtttv
iT||;w
;@%c
RqO>N
j$t4
gNiJ
nBI"
?@rX
4_MM}
cfpm
rgd`
M4!yX
({`(/?*
OGLYNX
QB[xou*
?HOKB:JKK{J
-4-M
TmR-mm
s^}P
3AOM,
{.Hp
?t\|
hNji
qP8jDN}Le
Hg#`
zuu%KS
UjEEE
{W9r
),f~
wX_7
J.`>qE;)hG
A			
]__s
DMmk
"{O0
wiBx
u:zz
H#cXX
W,&v
8'iV
?\!-)
Z**p
~\MtV]LU\
PU\wXT\|An9
l[Yz[R[J[u[Gi>
?;5>
>6?"=1$9?>P
iVCHrNTCGBrIMCH&
eA\I^_CBMXI
I@J,
!*#'
6 '!<*
Sbi`dWud[ui@qbq}
cRYPTdESTROYhASH 
	83:>
+>+J
n_T]Y
HAHL^HnBCYHUY-
Q`kbf[
b}`fYwk
dHjFUTOFKnISBUsOUBFCnISBUAFDBnItSUBFJ'
kd{alnZGExZGOal(
Cud@b
hiR|q~{ud
EiTcpimcEjguuIdlcer
Nb_hjd~yh
Nal~~Boghny
AII%
H[@HG]jFYP)
06-*#D
tWY\lAH]tQZ8
[@D_IXA
LDD(
Qjgnn]Lmvkd{KamlU
wpKm{l_y{pjMjlwpy
stjbIQHJIGBrI`OJCq&
'17/'
712',&'&
-5,.-#&B
bE_NYEN_nYYDYoGL+
qMMIj\W]k\HL\JMx9
vJJNoK[LGwPXQ
>$5">5$
 $9?>
oHRCTHCRwSCT_iVROIHg&
hI@IXIy^@oMODIiBX^U{,
#72'6
2*6!67
:=7<$S
Wud@qbu~d
gETwINDOW 
#$.%=
}B^YyE_HLI`H^^LJHz-
Y{~~F{
tBSaHUB@UHRICpNICHP'
oM\nADMaFNGZEI\AGFjQ`IFLDM(
|cdbs}`Q
AcrVtiecuuNcgv
JabolaK
hPIQLg\Q@qJrLA@fMDW%
o[LLe@K[H[P)
6!%0!
,6!% D
kT]]H8
{Q[\ME|AEM|GnADM|AEM(
EgvQ{qvgoVkogCqDkngVkog
]qngXwr{I
tCJCGUCkSRC^&
700',6
0-!'11
nS[JEOnE]BYDEFNE_x_YBELX|+
PU\xMMKP[LM\J|An9
}L[_J[zWL[]JQLGi>
9=5P
uCRcHBi@`OJC&
IXjE@I|CEBXI^iT,
6?6'6
cuXq~t|u
sETeVENT 
/&/>/	8#>#)+&
/)>#%$J
hCYH_n_DYDNLA~HNYDBC-
[|{f{s~{hwQ`{f{qs~Awqf{}|
cRWKNDFSBoFICKB'
xZGKM[[
nAZ[\
SbuqduD
|xu|`#"C~q`cx
JiemTcuistec
 -~dwh7-(i
w@VJPWF@hDKDB@W
iJFDQ@w@VJPWF@%
lQYHGMlG_@[FGDLG]z][@GNZ)
6-0!
-(!D
PgqmwpagOclcegp88PgomtgVgorFkp
c~g1B
:POZ^
J>POZ^
J9PO
LWRWVNW
3.53&"?98LVv
{fwj>
}p8"m`(u`h(P
EGJJ
ROKCISR
EGJJDGEM
dMBH@IxEAICYX,
P]NP
v s~ms7!<#s 6?5~?:%:=4s<1960'sc+v#s2 s:'s: s7<=6S
Q``**_~Yt|u
uNREGISTERslo 
::pp
/-#9>/8
|xdy
^N_D]Y
H__B_
>9'k
AFNK
MF]E
XZGKM[[
=0vqy|0cdqbd0u~e}<0xb- h5 (h
Gvv<<ucrRokcisr
(~-Vk0=u(}!y0(xP 3di0(x
]PC]
CLKA`]@FPQDGI@cJWaJFPH@KQ%
NL]zYLJ@HEoFEML[)
44~~'6!%0!
[J]YL]l]UH|QJ8
LM[\ZGQ
_IA\
[MDN
DA^AFO
GJBMK\[(
Crr88Dklcnkxg
_nn$$`_nn
gVV&
list<T> too long
@Qm6t
F%D,3
e+000
bad exception
1#QNAN
1#INF
1#IND
1#SNAN
lstrlenW
EnterCriticalSection
LeaveCriticalSection
GetProcAddress
GetModuleHandleW
GetCurrentProcess
FlushInstructionCache
GetCurrentThreadId
RaiseException
GetLastError
SetLastError
FreeLibrary
lstrcmpiW
MultiByteToWideChar
SizeofResource
LoadResource
FindResourceW
LoadLibraryExW
GetModuleFileNameW
InterlockedDecrement
InterlockedIncrement
DeleteCriticalSection
InitializeCriticalSectionAndSpinCount
LocalAlloc
LoadLibraryA
CreateEventW
CreateMutexW
WaitForSingleObject
GetCommandLineW
GetTempFileNameW
GetTickCount
MapViewOfFile
HeapAlloc
HeapFree
lstrcmpW
FindClose
GetFullPathNameW
FindFirstFileW
FindNextFileW
DebugBreak
OutputDebugStringW
lstrlenA
LoadLibraryW
MulDiv
GlobalUnlock
GlobalLock
GlobalAlloc
KERNEL32.dll
SetWindowLongW
KillTimer
SetTimer
RegisterClassExW
GetClassInfoExW
LoadCursorW
DestroyWindow
CreateWindowExW
DefWindowProcW
GetWindowLongW
CallWindowProcW
CharNextW
DispatchMessageW
TranslateMessage
GetMessageW
PeekMessageW
IsWindow
MessageBoxW
SendMessageW
GetWindowRect
MoveWindow
SetWindowPos
MapWindowPoints
GetClientRect
GetParent
GetMonitorInfoW
MonitorFromWindow
GetWindow
IsWindowVisible
ShowWindow
PostMessageW
GetDC
ReleaseDC
ClientToScreen
GetWindowTextLengthW
GetWindowTextW
SetWindowTextW
UpdateWindow
GetFocus
GetDesktopWindow
InvalidateRect
CreateAcceleratorTableW
RedrawWindow
GetSysColor
GetClassNameW
GetDlgItem
SetFocus
IsChild
EndPaint
FillRect
BeginPaint
RegisterWindowMessageW
USER32.dll
DeleteObject
DeleteDC
CreateCompatibleDC
SelectObject
GetObjectW
GetDeviceCaps
GetStockObject
CreateSolidBrush
GDI32.dll
GetOpenFileNameW
GetSaveFileNameW
COMDLG32.dll
RegCloseKey
RegOpenKeyExW
RegCreateKeyExW
RegQueryValueExW
RegSetValueExW
RegEnumKeyExW
RegDeleteValueW
RegDeleteKeyW
RegQueryInfoKeyW
ADVAPI32.dll
DoEnvironmentSubstW
CommandLineToArgvW
SHGetFolderPathW
SHELL32.dll
CoCreateInstance
CoTaskMemFree
CoTaskMemRealloc
CoTaskMemAlloc
CoUninitialize
StringFromCLSID
OleUninitialize
OleLockRunning
CreateStreamOnHGlobal
OleInitialize
ole32.dll
OLEAUT32.dll
PathAddBackslashW
PathRemoveFileSpecW
PathFileExistsW
SHLWAPI.dll
InterlockedCompareExchange
InterlockedPushEntrySList
GetProcessHeap
IsProcessorFeaturePresent
VirtualFree
VirtualAlloc
InterlockedPopEntrySList
EncodePointer
DecodePointer
GetSystemTimeAsFileTime
HeapSetInformation
GetStartupInfoW
TerminateProcess
UnhandledExceptionFilter
SetUnhandledExceptionFilter
IsDebuggerPresent
Sleep
HeapSize
ExitProcess
HeapCreate
HeapReAlloc
WriteFile
GetStdHandle
TlsAlloc
TlsGetValue
TlsSetValue
TlsFree
GetCPInfo
GetACP
GetOEMCP
IsValidCodePage
GetStringTypeW
FreeEnvironmentStringsW
GetEnvironmentStringsW
SetHandleCount
GetFileType
QueryPerformanceCounter
GetCurrentProcessId
RtlUnwind
SetFilePointer
WideCharToMultiByte
GetConsoleCP
GetConsoleMode
LCMapStringW
SetStdHandle
WriteConsoleW
ReadFile
CreateFileW
CloseHandle
FlushFileBuffers
UnregisterClassA
.?AVlogic_error@std@@
.?AVlength_error@std@@
.?AVout_of_range@std@@
.?AVtype_info@@
                          
abcdefghijklmnopqrstuvwxyz
ABCDEFGHIJKLMNOPQRSTUVWXYZ
                          
abcdefghijklmnopqrstuvwxyz
ABCDEFGHIJKLMNOPQRSTUVWXYZ
.?AVCAtlException@ATL@@
.?AVexception@std@@
.?AVException@@
.?AVbad_alloc@std@@
BXNG
.?AVbad_exception@std@@
kU'9
HMXB
?Zd;
?/L[
S;uD
z?aUY
D?$?
U>c{
zc%C1
.:3q
-64OS
NKeb
VUVYWVW#fef
kjk#wvw
JFGE
JFGE
^]^=
jijc
`_`s
babEYXY
HGHEfefEfef
rqrEfefEqpqEwvw
POPiZYZ3fef
t\]iqcd
HGHsUTU
HGHs
MLME
POPE
mab}
wvwI
wvw1
bab3
XWX3fef3ede
fef=`_`gVUV
989gfefgfefgede)
wvwgpopgfefgfefgwvwgwvw=
fef=qpq
fef]
UTU]NMN
ede)wvw
ede)zef
WVWg
IHIg
rqrg
fef{
ede)
EDEg
EDE3
babg
wvw)
<?xml version="1.0" encoding="UTF-8"?>
<assembly xmlns="urn:schemas-microsoft-com:asm.v1" manifestVersion="1.0">
  <trustInfo xmlns="urn:schemas-microsoft-com:asm.v3">
    <security>
      <requestedPrivileges>
        <requestedExecutionLevel level="requireAdministrator" uiAccess="false"/>
      </requestedPrivileges>
    </security>
  </trustInfo>
</assembly>
2+232=2K2U2g2
5%535Q5Y5b5n5w5
7!7*7?7K7T7
919B9
:#:Y:
<4<M<
="=)=1=6=>=H=N=T=Z=`=j=t=z=
>N>}>
?2?h?n?
O1Z1
3'3>3N5W5q5|5
6`7u7
8#8t8A9K9k9w9O:}:
;1;O;U;[;g;
<F<N=
040N0
151E1v1
1M2W2w2
3	3#313Y3i3
6=7C7[7m7
8W8]8d8|8
9(9M9
9%:+:2:J:\:
;E=a=.?3?=?B?L?R?e?
0/0L0Y0
1#1)1
3#3s3
4-5L5
6B7L7Q7
<"<@<N<l<|<
< =&=,=:=b=k=q={=
>=>b>j>p>y>
?%?|?
00060?0F0
4T5]6
707u7
8O9]9x9
>#>*>1>8>?>W>i>
>=?I?N?c?h?
2J2U2]2s2{2
2 3[3l3w3
4e4y4
555S5
5D6c6
6Q7v7
:J:f:u:
:	;\;
= =&=*=0=4=:=D=M=d=
>K?u?
4)424>4
5"5)5	6!6]7
9 :-:
;U;t;
<?<u<
=0=x=
?*?6?N?\?z?
2)222A2X2v2|2
4 4)4.474<4E4J4S4X4a4f4o4t4}4
5%5*53585A5F5O5T5]5b5k5p5y5~5
6!6&6/646=6B6K6P6Y6^6g6l6u6z6
7"7+70797>7G7L7U7Z7c7h7q7v7
8#8(81868?8D8M8R8[8`8i8n8w8|8
9 9)9.979<9E9J9S9X9a9f9n9y9~9
:#:(:1:6:>:D:M:R:[:`:i:n:v:
; ;);.;6;>;I;N;W;\;e;j;s;x;
< <)<.<7<<<E<J<S<X<a<f<o<t<|<
<	=$=C=I=S=\=e=z=
8-8:8
8=;J;j;~;
<6<H<l<
;f;G<P<
0]0j0p0x0
2C2X2r2
3=3C3J3Q3
4 4,4:4K4g4v4
5#6R6
9(94:r:x:
;.;@;};
1J1\1c1s102<2
2{394
717o7|7
9-9:9g9s9}9
:$:):1:;:A:G:M:S:]:g:m:z:
=E>J?R?\?
0 0)0
1+1R1`1
4^4n4U5
787p7
81888+919Y9e9
:$:?:W:
:9;?;F;M;T;[;s;
<E<K<R<Y<`<g<
<"=T=
>1>U>b>
0!030:0G0
1Q1[1j1q1
2@2L2k2
5M5Z5c5m5
6*686O6
7J7P7k7y7
:G:u:
<'<0<O<
=B>P>
?b?i?
0)0[0
1@1G1m1s1
3/3O3
364s5
5$6l6
7&8|8
=1===H=S=
?&?{?
2+262=2D2K2R2Y2`2g2n2u2|2
5'5@5]5
6/6G6s6
7'7=7b7p7
< ===P=t=
0$0-070A0]0i0
1*1;1A1
232T2
3M3T3[3j3
4&4B4{4
4!5n5
>=>D>H>L>P>T>X>\>`>
>"?-?H?O?T?X?\?}?
F0L0P0T0X0
1$1+13181<1@1i1
2 2$2(2,2
3I3P3T3X3\3`3d3h3l3
4"4*4
4p5.646F6
9B9H9|9
9>:u>}>
4-5R5a5i5v5
7$7*70767<7C7J7Q7X7_7f7m7u7}7
:^:r:
;';,;
<$<F=K=l=u=
>X>a>m>
>i?q?
0!0)090?0P0
1d2v2V3`3m3
4A4T4
4"5:5O6V6
8d8s8
<->p>
3,4@5b=h=
6E6W6j6}6
7!7/7c7p7
8M8t8~8
9<9Q9w9
9	:!:G:
:&;.;w;};
<*<@<F<N<S<[<`<h<m<t<
0,0f0s0}0
1A1x1
102M2
4%4A4J4P4Y4^4m4
4.5}5
7T9?:W:{:
0F0r0
5.5F5
/050
8Z9x9
0/:5:
<`<k<u<
> >%>+>
?9???i?
0F0^0|0
13191M1R1s1x1
2'222U2a2l384=4O4m4
5-5;5A5d5k5
6$7)7.737C7r7x7
8#818
8)979=9C9
2 32383R3a3n3z3
4B4u4
5,6J6
868\8t;k<
=?>k>
2S3_3
3X4d4
4Z536
9*9X9
:];~;
;2<u=
>7>B>H>X>]>n>v>|>
?2?L?
2<3'797K7]7o7
8%878I8[8m8
<;<`<
=E>_>h>
>A?i?
010?0M0Z0y0
1!1/1
2-282[2
2`4w4
8H9R9
:n;x;
<X=^=c=i=z=
051?1W1
3'3V4_4h4q4
4$5-5`5n5&686J6\6n6
:e:-;
; <;<G<_<m<
3'333?3K3o3
5@5R5^5
=+===I=
=#>Y>
?%?1?
1$101
263H3r3
4(4^4f4
5"5L5`5
686@6r7
8)8G8M8S8_8
9%9=9K9i9q9z9
9>:J:h:y:
:O;U;\;d<j<
?F?R?j?x?
1 1(111B1Q1h1
7!787V7\7b7
=S>\>v>
0%0<0Z0`0f0r0
1F4w4
51575=5I5d5p5
6(6G6k6
7&7/7>7U7s7{7
8"818
:$:+:`:t:
<:<Z<f<~<
= =,=R={=
>1>7>=>
?m?v?
7e8n8w8
;&;/;>;U;s;y;
;<=H=
? ?(?1?=?F?U?l?
2 2$2(2
3+343=3R3^3g3
4-454>4J4S4b4y4
7%7X7f7
9#9,959J9V9_9
>$>->6>K>W>`>
?$?m?
3J4d4o4{4
6$6-696B6Q6h6
7"8<8G8%90999B9W9c9l9
;^>n>w>
1*161N1\1z1
1g2u2
2#363z3
4'434K4Y4w4
4`6f8x8
;E;W;
<;<q<w<}<
<t=z=
>%>1>
5)5;5G5_5
7&787D7
7@8V8
9Y9m9
:,:=:N:r:
:J;~;f?
033<3c3
4%434=4|4
515L5c5s5y5
5$6/6V6_6y6
8(828D8`8
;C;R;^;k;u;
; <v<
=G=W=
?&?L?T?^?l?v?
2U2r2}2
3+3W3~3/4p4
5#5,5A5M5V5
606O6
748Z8c9n9
:B:g:v:~:
;+;E;N;W;`;u;
>C>K>a>
?%?.?C?f?r?
0 0&0,080R0^0f0
1"1v1|1
3]3m3
4;4I4
6"6.6u6
7 727N7t7z7
8/8>8n8z8
Q0p0
131;1E1S1]1o1
2'2<2[2e2m2
30464T4b4
545:5@5N5
7-727;7Y7p7
848F8^8r8
9*9d9o9y9
;G;S;k;y;
<:=M=
>!>->6>E>\>z>
1`2f2
4)434=4W4e4o4
565H5Y5o5
526<6F6P6j6x6
7&707J7X7b7
>'>8>
0=0E0O0]0g0y0
3$434A4
455A5
7,7e7
8&8,8=8W8]8
;A;h;
=7=E=O=
m0s0
0b1w1}1
1"2(2H2W2e2
3F4g4
6E6\6m6
849s9
:':;:V:c:z:
;*;6;N;\;z;
<.<T<|<b=o={=
?'?V?
r0z0
0&1,1I1W1]1
3"3$4:4@4X4
8@8i8
9!9-9?9K9c9
:Q:b:q:
;';i;
>!>->Q>c>o>
>Y?s?
5'5:5a5q5}5
636A6
7 7)7>7J7S7
7D8s8
9&9=9[9a9g9s9
<Q<_<v<
?Z?l?
1G4~5
6D6_6t6
9!9N9[9`9o9{9
9?:J:S:\:q:}:
<W<n<y<
>(>1>d>r>
?+?B?`?f?l?x?
(0.0
1$1.1@1\1
444B4`4p4
5 5.5F5j5
6M6S6
7X9v9
;&<]<r<
0i1{1
122^2j2
3E3y5-6c6
7H7\7
888>8D8V8q8
;(;:;F;
>">,>:>D>V>r>
1#121I1g1m1s1
3F3R3r3
818A8g8o8y8
8O:\:f:p:
:6<T<b<
=4=:=@=N=t=
=6>D>
?P?d?j?
0"0.0@0L0d0
1%233
5"666l6t6
707\7o7
8-9A9N:Y:j:
:-;C;U;
Q0>1T1f1
2'232E2Q2i2
3A4W4e4
5&525D5P5h5
7=8\8
9f9z9
;);5;
;#<5<A<
<.=:=f={=
?$?4?]?b?z?
!0/0\0h0v0
0 1:1Y1_1
2%2<2N2]2
3%353
3(4D4R4a4
5%555
:B;l;
<"<4<@<X<~<
>N>T>Z>l>
363N3
4P4V4
0?0z0
1f1l1+2=2N2
3$3-383
4b5i5o5
6I6W6
9K:\:
;T;f;r;
<$=@=
?*?V?b?j?
0W1c1
2 2;2G2_2m2
3"30363@3J3^3l3}3
5F5R5b5s5z5
526@6}6
828Z8c8m8w8
8$9<9H9`9n9
;,;C;a;g;m;y;
=*=3=B=Y=w=}=
1#1V1d1
;$;9;E;N;
<.<<<Z<b<k<w<
<0=<=
m1v1
4'434?4c4u4
5>6T6Z6`6
8B8T8~8
989n9t9z9
)141=1F1[1g1p1
2'3@3L3d3r3
4N4h4t4
5"5(5.5:5
7:8C8L8U8j8v8
:!:A:
=4=B=L=
= >4>@>J>T>n>|>
>)?i?}?
0'1-1C1l1
102@2k2w2
3/5<5V5a5#6e7	8
9!919;9E9O9i9w9
9!:B;Z;n;
;#<+<5<C<M<_<{<
0&030
0,12142:2c3m3w3
4<4B4
5 5U5_5
828J8c8
:;:C:M:[:e:w:
;,<K<Y<w<
=+=1=7=E=U=]=~=
>(>:>V>|>
0h0u0>2R2&353O3X3^3g3}3
464T4Z4`4l4
4-5Q5~5
6.7C7
959C9M9
9T:.;9;F;d;o;
1(121D1`1
2"2+2i2y2
2+3e3k3
6Q6a6
6<7^7e7t7
8#858Q8w8}8
9(9;9
9':-:
:2;;;I;
0;0C0M0[0e0w0
0+151?1I1c1q1{1
5'5-5
7_8}8
979]9c9i9w9
< =(=2=@=J=\=x=
*1O1
2>4p4|4
4-5A5
8)8G8O8X8d8m8|8
<7<B<{>
0-090
2%2W2c2
354@4K4
4%5=5I5a5o5
6,8}8
;#;5;Q;w;};
;t<&=2=?=I=c=q={=
1-1Y1m1
1\2j2
293B3K3T3i3u3~3
3a4o4w4
6(636Q6_6u6
7l7}7
9-9S9[9e9s9}9
;Q;_;
<%<3<=<O<k<
>W?~?
080^0d0j0x0
0;1K1]2n2
6L9v9
:":.:F:l:
:&;7;j;
<%<1<C<O<g<
>B>S>
?#?z?
&1{1
2$2W2e2
5.565?5K5T5c5z5
6#6;6I6g6o6x6
7,8`8
9=9C9I9U9
93:?:W:e:
< <)<8<O<m<s<y<
<]=e=n=z=
>4>@>I>|>
30`0l081\1s1y1
4+4[4a4
595_5e5k5y5
5I6X6f6g7
8$8@8f8l8r8
839=9]9m9{9
:2:b:p:
;B;H;R;
<V=a=|=
=#>>>S>h>}>
?%?:?O?d?y?
0 050J0_0t0
1$2<2
2F3Z3
3J4^4
4E5\5
5E6Z6i6q6N7
8G8p8v8
:9:?:_:q:
0^1s1
2-262H2]2
696b6h6t6
6-757
<(<=<S<z<
>*>W>i>
?'?M?
080D0p0
5(7N7
7+8^8
:<:z:
<X<i<
<P=y=
= >_>f>|>
0&020^0l0
161H1r1
2,2b2h2n2
3X3m3
7)7;7G7_7
7'8<8K8
9E:Y:
;.;4;Y;
<\<c<
=Y>c>o>{>
> ?4?^?
0:0F1a1r1
565>5H5V5`5r5
636A6K6
6(727R7c7
8)909~9
=*=6=
=%>4>A?L?U?d?
0|051M1R1
3(4[4
4"5>5L8
8H>	?
7K:{:
2l3`4h4
697?7M7
9j:K;
<:=Q=
0.42464:4>4B4F4J4N4R4V4Z4g4)5Q5a5~5
474R4
5)5L5w5
6;6^6
6!7I7q7
748W8}8
869v9
;.<Q<
<	=O=
=8>\>
?4?X?
324r4
6S6v6
9,9l9
9':J:u:
>;?^?
60k0
3 4;4^4y4
6a6|6
667c7
8J8e8
9+9h9
:::U:p:
;6;Q;l;v;~;
<!<8<r<
<4=W=z=
>(>C>U>q>
?#?<?E?K?Y?v?~?
0#030F0X0b0q0{0
H3L3P3T3X3\3`3d3h3l3x3|3
5P5T5|>
H:L:P:T:X:\:`:d:h:l:p:t:x:|:
; ;$;(;,;0;4;8;<;@;D;H;L;P;T;X;\;`;d;h;l;p;t;x;|;
 585H5L5\5l5p5
6 6$6(6,6064686<6@6D6H6L6P6T6X6\6`6d6h6l6p6t6x6|6
7 7$7(7,7074787<7@7D7
8\8`8d8h8
; ;$;(;,;0;4;8;<;@;D;H;L;P;T;X;\;`;d;h;p;t;x;|;
< <$<(<,<0<4<8<<<@<D<H<L<P<T<X<
4 4$4(4,4044484<4@4H4P4X4`4h4p4x4
4L5P5T5X5\5`5
h>l>
? ?$?(?,?0?4?8?<?@?l?|?
0 0$0(0,0004080<0@0D0H0L0P0T0X0\0`0d0h0l0p0t0x0|0
2(2,2<2H2`2x2|2
3 3$3(3,3034383<3@3D3H3L3P3T3X3\3`3d3h3l3p3t3x3|3
4@4L4
6 6$6(6,6064686<6@6D6H6L6P6T6X6\6`6d6h6l6p6t6x6|6
7 7$7(7,7074787<7@7D7H7L7P7T7X7\7`7d7h7l7p7t7x7|7
8 8$8(8,8084888<8@8D8H8L8P8T8X8\8`8d8h8l8p8t8x8|8
:$:(:,:0:
;$;(;<;@;P;T;X;\;d;|;
<(<8<<<L<P<T<\<t<
0$0(0,040H0h0
1$1(1H1h1
24282X2x2
383D3`3
4,44484@4H4P4d4l4p4x4
4$585D5L5l5|5
6$606h6|6
747@7`7h7p7|7
8(8H8P8\8|8
9<9H9h9p9x9
:0:<:\:h:
;(;H;P;X;d;
<$<,<4<<<D<L<T<\<d<l<t<|<
=$=,=4=<=D=L=T=\=d=p=
>,>4><>D>L>T>`>
?,?4?<?D?P?p?x?
080D0d0p0
1(1H1P1X1d1
2$2,242<2D2L2T2\2d2l2t2|2
3(343T3`3
4<4D4L4T4`4
545<5D5P5p5|5
6$6,646<6D6L6T6\6d6l6t6|6
7(7H7T7t7
848T8\8d8l8t8|8
90989@9H9P9\9|9
:0:<:\:d:p:
;4;@;l;t;|;
<,<4<<<D<L<T<\<d<l<t<|<
=$=,=4=<=D=L=T=\=d=l=t=|=
>$>,>4><>D>L>T>\>d>l>t>|>
?,?4?<?D?L?T?d?l?t?|?
0$0,0@0L0T0l0|0
1$1,1<1D1L1T1d1l1t1
2$2,242<2D2L2T2\2d2l2t2|2
2$3,343<3D3L3\3d3t3|3
4P4d4p4x4
5(505p5
6D6X6d6l6
7$7,7D7L7T7\7d7l7t7
8D8X8d8l8
9$9d9t9
9$:8:D:L:d:p:
:,;@;L;T;l;
<4<@<h<
= =8=L=X=`=x=
>0><>\>d>p>
?,?4?<?H?l?x?
0(040<0T0\0h0
0,1@1L1T1
242H2T2\2
3,383t3
4<4D4P4
5$505T5\5d5p5
6$6,6D6L6T6`6
7$7,7D7P7t7|7
8<8P8\8d8|8
9$90989h9p9t9
0 0@0`0
2H6H7L7P7T7X7\7`7d7h7l7p7t7x7|7
8 8$8(8,8084888<8@8D8H8L8P8T8X8\8`8d8h8l8p8t8x8|8
9(989H9l9x9|9
>4?<?D?L?X?
0L0h0
1 1$1(1,1014181<1@1D1H1L1P1T1X1\1`1d1h1l1p1t1x1|1
2 2$2(2,2024282<2@2D2H2L2P2T2X2\2`2d2h2l2p2t2x2|2
3 3$3(3,3034383<3@3D3H3L3P3T3X3\3`3d3h3l3p3t3x3|3
4 4$4(4,4044484<4@4D4H4L4P4T4X4\4`4d4h4l4p4t4x4|4
5 5$5(5,5054585<5@5D5H5L5P5T5X5\5`5d5h5l5p5t5x5|5
6 6$6(6,6064686<6@6D6H6L6P6T6X6\6`6d6h6l6p6t6x6|6
7 7$7(7,7074787<7@7D7H7L7P7T7X7\7`7d7h7l7p7t7x7|7
8 8$8(8,8084888<8@8D8H8L8P8T8X8`8d8h8l8p8t8x8|8
9 9$9(9,9094989<9@9D9H9L9P9T9X9\9`9d9h9l9p9t9x9|9
: :$:(:,:0:4:L:T:`:
;$;(;H;X;
;@<D<\<`<
C&G%
+\vya
56:1
}1p(
`042:Z2|]\
8O<cP_
G|2[
~aGM?
!,TK
bAPT)
8P=n
AOuBnc)
q./f
#i(i
Wis2
>0<0
0!0	
^iV/vP
AddTrust AB1&0$
AddTrust External TTP Network1"0 
AddTrust External CA Root0
000530104838Z
200530104838Z0o1
AddTrust AB1&0$
AddTrust External TTP Network1"0 
AddTrust External CA Root0
mA_rZq
ijX#
q0o1
AddTrust AB1&0$
AddTrust External TTP Network1"0 
AddTrust External CA Root
AlG`
c~y{
sIv`
Greater Manchester1
Salford1
COMODO CA Limited1#0!
COMODO RSA Code Signing CA0
170524000000Z
180524235959Z0
101191
Berlin1
Berlin1
Schwedter Str. 9A1
freemium GmbH1
freemium GmbH0
A"@B
m449
t>'|
M-h5
U_8/-7QT7
?0=0;
0+0)
https://secure.comodo.net/CPS0C
<0:08
2http://crl.comodoca.com/COMODORSACodeSigningCA.crl0t
h0f0>
2http://crt.comodoca.com/COMODORSACodeSigningCA.crt0$
http://ocsp.comodoca.com0
support@freemium.com0
N9.%
3MfG
AddTrust AB1&0$
AddTrust External TTP Network1"0 
AddTrust External CA Root0
000530104838Z
200530104838Z0
Greater Manchester1
Salford1
COMODO CA Limited1+0)
"COMODO RSA Certification Authority0
xH0E
HCgNr*
	FNm>
|3WA<
PjUF
3:.\
1\:jG
=0;09
3http://crl.usertrust.com/AddTrustExternalCARoot.crl05
)0'0%
http://ocsp.usertrust.com0
qL|G
^@k#
Greater Manchester1
Salford1
COMODO CA Limited1+0)
"COMODO RSA Certification Authority0
130509000000Z
280508235959Z0}1
Greater Manchester1
Salford1
COMODO CA Limited1#0!
COMODO RSA Code Signing CA0
#KKc
:3FPs
^Lby
E0C0A
;http://crl.comodoca.com/COMODORSACertificationAuthority.crl0q
e0c0;
/http://crt.comodoca.com/COMODORSAAddTrustCA.crt0$
http://ocsp.comodoca.com0
TQ-R
DvWj
e	#I
~ wa
zi'e
{:Q9
SN20s
Greater Manchester1
Salford1
COMODO CA Limited1#0!
COMODO RSA Code Signing CA
%1Ua
aaAM
X]&	
