!This program cannot be run in DOS mode.
Rich
.text
`.rdata
@.data
.rsrc
@.reloc
jSZ+
P(_^[
% iG
jSY+
%`iG
5HiG
D$8d
D$,P
D$ Z
D$ ;
T$(Rh(
D$(P
D$(;
D$ ;
D$$;
L$8d
% iG
D$(QP
D$$P
%`iG
5HiG
%`iG
5HiG
D$$Pj
D$ A
D$$P
%`iG
5HiG
D$ P
% iG
D$(j
D$ P
jSY+
D$ P
D$,3
D$.SP
D$$X
L$$k
D$$+
D$$+
D$$+
D$ PSSS
D$,P
D$<P
%`iG
5HiG
L$(Q
_^[3
D$*P
D$ @
D$$Q
D$$+
jSY+
%`iG
5HiG
L$ Q
K QP
% iG
% iG
% iG
% iG
_^[]
	;9u
t6;p
+;0u
?w/j
tq9u
tlf9s@
f9s@
D$$0
sBj%V
T$HR
9s0t
h8U@
RAQh
w!9^
tCWj
@PSV
jSY+
9>t.h`
u'h`
D$0P
D$$;
D$(PVVV
D$,P
D$DPV
_^[3
97t9h`
QPSPPP
9>t3h`
t>h|
?PSV
hpsG
9q$t
9q$t
tHWj
0f;1u
% iG
$9>u
x ;~
x*;w
QQSW3
#SSSSW
SSSW
F$_[
97tU9s
7_^[
q(9>u
^_[]
bj"Xf
j"Yf
s	j'Xf
t-9E
wUPQ
j'Yf;
j'Yf;
8%Pu
8%uEP3
t	G;~
xR;~
SVWP
Y_^[
PPPPPPP
QPPP
QQVW
Sj'Z
j'Yf;
j'Yf;
j'Yf;
 t:S
D$$V
|$89|$(t4
|$4h
D$LV
|$T;
ub9|$,t\W
D$(3
9|$(t
D$lh
>{u<V
t$ V
D$(3
tJ9|$<
Y_^[
9|$<t<
D$dP
9|$,
D$dP
D$(3
9|$,
9|$(
D$$!|$\!|$`
D$dP
L$`;
!L$\3
>{u=V
t$ V
|Pj{Xf;
bj"Xf
j"Yf
$SV3
% iG
$SV3
% iG
% iG
rlH;
QSVW
w#9^
~_^[
G,VP
t8Sj
?j\S
D$4P
D$@h
% iG
_^[]
8YEu*
8ZEu
8YEt
8YEt
t6;p
+;0u
8YEt
8ZEu
8YEt
8YEt
8ZEu
tIVS
?.uEW
?*Wu
tG;u
nt4Ht
j ^;
@_^[
sUS3
VW9]
K QP
_^[]
8Y-u*
8Z-u
8Y-t
8Y-t
t6;p
+;0u
8Y-t
8Z-u
8Y-t
8Y-t
8Z-u
%`iG
5HiG
% iG
tb+u
P0_^
?PQW
PRQV
D$$$
D$$Z
L$$;
D$4P
L$,Q
L$@Q
D$+j
8\$+t
9\$0t
\$03
% iG
% iG
D$|P
Y_^[
VWt*H
% iG
9{,u
9>t7W
D$(P
T$$Rh
T$ R
|$ ;
T$ Rhd
D$09|$ 
\$0j
D$4Z
% iG
D$@j	Yf
T$,+
D$(+
T$LRj
L$,+
D$ A
u Wj
t$@P
D$0_^[
^[_]
E VW
L$,_^[3
hxaG
FX(bG
F\@bG
FX(bG
F\@bG
_[^]
hXaG
9~`tT
WQWj
Nw;t5
9Wlu
_^[]
h8cG
WhRQ
j7SSSSS
Rh$hG
RRRR
9_8u,
{`Wh4hG
slVhDhG
VhThG
VhdhG
QSVW
P9>t
^[_]
QQWRRRj
C Ph`
hxcG
F$,eG
F$,eG
C Ph
F$xeG
F$xeG
_893u"
h8aG
h(aG
SVW9M
_^[]
 1H\3
p<9>t
FphC
Hth@
Hxh?
3Hlh;
3Hlh7
s|9>t
Qj\P
3Hlh>
1Hl3
 1Hl3
F0XfG
FPXgG
4SVW
D$ 3
P@f;
f;A,s3
@,F;
tfS9~
P([_^]
uEf9F
X9>t
t(PWV
@_^[
VWu	
uYj@
9~$~ 
x9;~$}4
G;~$|
h\oG
Sj Z
0;1tt
8csm
h8pG
SSSSS
_^[]
_^[]
 SW3
woVW
_^[]
t'Ou
 SW3
SW9E
t?f;
Vuy3
 SW3
^[_3
Vu<+
t:f;
jXhXpG
YQPVh
h`NA
Y__^[
9csm
hxpG
t&:a
oV f
o^0f
of@f
onPf
ov`f
o~pf
FGIu
X^_]
FGIu
u,9E
u,9E
uTVWh
PPPPP
@u^V
t%HHt
HHt$HHt
RPWS
90tW
?If90t
YYt.
 SW3
j%Yf;
jdX;
j-Xf;
j-X3
j+Xf;
jeXf;
jEXf;
jeXf
j+Xf;
j]Xf;
j][f;
j]Yf;
j+Xf;
j0Xf;
t\jXXf;
YYj0[
PPPPP
j-Xf;
j+Xf;
ou'j8Xf;
j8Xf;
u	f;O
?%uC
&VVVVV
PPPPP
<v*V
^SSSSS
h qG
v	N+D$
hHqG
hhqG
Fh= 
_^[]
Y_^[]
Fpt"
j0Xf
RPWS
80tS
j Yf
YYt/
u)jAXf;
u+9u
^_[3
@SurP
jdX;
F<-uq
]tfF:
YYj0[
d<%u
?%uN
@SurP
F<-uk
]t`F:
YYj0[
l<%u
8csm
 w	f
"u	3
tAVWP
Y[_^
PPPPP
8"u8
t	j\Yf
t$9U
QQSVWh
j@j ^V
SWf9M
j@j 
URPQQhP
L$,3
UVWS
[_^]
SVWj
_^[]
_^[]
h`NA
Y_^[
Y_^[
t!Ht
VVhU
h(rG
QSWVj
@u^V
t$HHt
HHt$HHt
RPWS
90tX
YYt.
Y_^[
ub;F
QSSSj
~%9M
QVj	
r 8^
9]$u
9](SS
t"SS9] u
9] SS
v4;5
vL;5
PPPPPPPP
PPPPPPPP
Jvf;
Jvf;
Jvf;
Jvf;
Jvf;
Jvf;
Jvf;
t$WV
@uoV
_^[]
hHrG
SVWUj
]_^[
;t$,v-
UQPXY]Y[
_^[]
hhrG
~,WPV
98t^
tVPV
t/9U
t$WV
Ht%C
Ht(f
h0sG
% iG
jSZ+
% iG
jSZ+
%`iG
5HiG
jSZ+
Q0^[
jSZ+
%`iG
5HiG
jSY+
% iG
%`iG
5HiG
%`iG
5HiG
jSY+
C(9E
9C0u
QRVP
%`iG
5HiG
jSY+
% iG
%`iG
5HiG
%`iG
5HiG
C$9E
;C$r
uq;{(u
C,Y;
;{(u
;C(u
uz;{(u!
C,Y;
;{(u
jSY+
% iG
S,;S0tQ
Y_^[
QQVW
j\Yf
(SVWj@[
jSZ+
uz9E
@_^[
j\Xf
j\Xf
jSY+
jSY+
%`iG
5HiG
V W3
~4j*W
jSY+
SVWh
jSY+
SWjL
jwY+
%`iG
5HiG
% iG
jSY+
AV;H
jSY+
% iG
%`iG
5HiG
j[Y+
% iG
K(9M
S(9U
%`iG
5HiG
%`iG
5HiG
% iG
% iG
jSY+
% iG
jSY+
%`iG
5HiG
9K,t'
% iG
Y_^[
0SVW
%`iG
5HiG
%`iG
5HiG
X_^[
SVW3
%`iG
5HiG
;G$s
G:Yj
%`iG
5HiG
jSZ+
%`iG
5HiG
%`iG
5HiG
f;GN
%`iG
5HiG
jSY+
%`iG
5HiG
jSY+
% iG
jSY+
% iG
% iG
%`iG
5HiG
% iG
% iG
jSY+
% iG
wx+u
jSY+
jQ[9w
jSY+
%`iG
5HiG
jSY+
jSY+
h}hE
D$0d
Qh4hG
t$89t$
%`iG
5HiG
QhthG
%`iG
5HiG
T$(RhxaG
t$$;
T$$RhhaG
D$$;
L$0d
D$ d
t$(;
Rh(cG
L$ d
%`iG
5HiG
D$$j
D$(Z
D$ @
D$$Q
D$$+
D$ Pj
%`iG
5HiG
jSY+
D$`SV
D$(P
D$(P
D$d+D$\
D$8P
D$8P
D$h+D$`f
D$HP
D$HP
%`iG
5HiG
L$l_^[3
pt9>
jSY+
vLh(
Vh$hG
9N,t
NtPj
OXQP
GdPQ
% iG
%`iG
5HiG
OXQP
9X0u
N QP
Vj j j
D$,j
|$83
\$ [
D$(5
L$(W
L$0V
D$$S
D$8$
D$$"
D$8A
L$$h
L$(S
L$,k
YYj?Y
D$(Pj
_^[3
D$$j
D$$jAY
%`iG
5HiG
D$8u
D$ Pj
_^[3
Htz-
8WjB
SWjT[
% iG
% iG
=f9]
% iG
%`iG
5HiG
% iG
%`iG
5HiG
=9>t
L$(Q
L$(Q
L$43
% iG
D$8S
L$4QV
D$(X
D$ 5
L$(k
D$(+
D$(+
D$(+
D$<;
t$8P
% iG
Y_^[
%`iG
5HiG
jSZ+
93uU
h#vE
D$HSVW
D$`d
VVj Vj
VVVQP
% iG
L$`d
Y_^[
L$H3
hnvE
|$@j
D$ A
D$<`
L$hQV
D$ F
T$ k
D$ Z+
D$ +
T$ ^
D$lP
L$4Q
L$lQ
D$@P
% iG
\$ j5^
L$ k
D$ +
D$ +
D$ +
D$ S
D$$$
T$(+
L$,k
D$,+
D$,+
D$,+
D$(S
D$$$
D$("
T$,+
L$0Q
L$pQ
D$$A
D$0PV
D$DP
D$$A
% iG
D$$A
D$Ls
D$LP
9|$ }
D$0A
L$ k
Y_^[
98t	V
jSY+
t$$;s
p 9>
jSY+
9>u,
%`iG
5HiG
D$`SV
D$\P
D$(P
D$(P
D$d+D$\
D$8P
D$8P
D$h+D$`
D$HP
D$HP
L$l_^[3
;FD~
QQVW
%`iG
5HiG
jSY+
N$QP
j	Xf
%`iG
5HiG
O$QP
% iG
%`iG
5HiG
h)~E
D$(9>t
=9>t
D$ds
D$d;
9\$tu
D$ds
D$dh
SSSPS
D$ds
D$d;
D$LPj
FH9^D
D$ Q
D$ +
jSY+
L$ j
D$$k
D$$Y+
D$4Pj
|$F 
D$ Q
D$ +
jSY+
L$ j
D$$k
D$$Y+
D$<H
D$$;
\$ 9\$8
;D$8
D$ j
% iG
t$4Q
D$ds
D$d;
D$JP
D$LP
D$ds
D$d;
Y_^[
jwY+
jwY+
% iG
%`iG
5HiG
jSY+
%`iG
5HiG
+~XP
% iG
SVWP
%`iG
5HiG
% iG
jwY+
jwY+
Y_^[
% iG
jS_j$[j"^
F8PV
9^4tXV
t|SP
jSZ+
jSY+
D$$P
D$$P
jSY+
D$ Pj
%`iG
5HiG
% iG
jSY+
\$ Y
j@[jQ_
jSY+
% iG
P<_^[
%`iG
5HiG
% iG
KXQP
jSY+
jSY+
v-HP
% iG
%`iG
5HiG
% iG
9H,u
9H0u
H0;M
H,;M
VjSZ+
% iG
QQVj<
%`iG
5HiG
%`iG
5HiG
jSY+
% iG
jSY+
%`iG
5HiG
jSY+
% iG
% iG
%`iG
5HiG
jSY+
%`iG
5HiG
%`iG
5HiG
%`iG
5HiG
% iG
D$ W
D$$P
D$(P
% iG
\$(!D$(
D$ZP
D$(9\$(r
|$L;
L$(QP
D$ V
_^[3
% iG
j\Zf
%`iG
5HiG
.u$f9
jwY+
%`iG
5HiG
j\^f
8\ud
9\uc
t"Sj0X3
RPQW
D$@s
L$<P
\$$u5
D$$T
D$$Z
D$ +
T$ j:
T$$^
%`iG
5HiG
D$ T
D$ jw
D$$Y+
L$ j:
D$8PS
D$$9D$8t>
Y_^[
% iG
jSY+
jSY+
% iG
SVWh
D$-j
%`iG
5HiG
D$$P
D$,PSh
D$ Q
D$ +
jSY+
L$ j
D$$k
D$$Y+
_^[3
jSY+
PPPj
jSY+
PPPP
jSY+
%`iG
5HiG
jSY+
% iG
jSY+
% iG
PPPj
%`iG
5HiG
jSY+
%`iG
5HiG
jSY+
% iG
% iG
SWjSY+
D$$P
D$$P
D$$P
%`iG
5HiG
%`iG
5HiG
P<_^[
jSY+
P,^]
%`iG
5HiG
%`iG
5HiG
D$@j
%`iG
5HiG
D$8,
D$8PV
D$`P
D$(P
jSY+
D$8P
,SVW
%`iG
5HiG
%`iG
5HiG
t}9\$
D$(P
C;\$
% iG
D$ PW
%`iG
5HiG
%`iG
5HiG
L$ QP
G9|$ 
G;|$ |
% iG
;D$ }
;D$ 
%`iG
5HiG
D$$P
D$$X
L$$+
D$$+
D$$+
D$$+
D$8P
D$$j
D$$+
D$$+
D$$+
L$$j[
L$$P
D$(=
D$<X
D$45
L$<k
D$<+
D$<+
D$<+
L$43
9|$$
9|$,
9|$(
jSY+
D$:P
D$0P
L$0Q
L$0Q
jSY+
_^[3
8;{T
C@;CDu:
PH_^3
D$ A
D$ P
QQVW
QH_^
D$("
L$ +
D$0A
L$ +
\$ ;
jSY+
% iG
D$*P
D$ P
D$$Z
D$ @
D$0Q
D$0+
jSY+
D$ k
D$ Y+
L$ Q
% iG
D$ 3
|$$j
D$eS
D$lP
% iG
D$`P
D$Dh
SVWP
SVWP
D$\V
!|$ 3
L$d_^3
 w$V
_^[3
% iG
$jSY+
j$[j"
%`iG
5HiG
D$ s
D$ P
L$<_^
SVWP
D$$X
D$(5
L$$k
D$$+
D$$+
D$$+
L$(W
D$<Z
D$4@
D$8Q
D$8+
$jSY+
t$$P
jX_W
D$<SP
|$<_jF
D$T9
D$h9
D$8P9t$(t
t$(P
\$(j
D$,3
_^[3
\$0j
% iG
D$$9t$8s
9t$8r
D$@9t$Ts
9t$Tr
9t$P
9t$4
L$@j
_9|$Ts
L$x9
9t$lt
L$\9|$ps
t$ ;
T$ Rh@
9t$ tnS
L$$9|$8s
D$ ;
_^[3
RSf9}
L$L_^[3
Wf9u
L$t_^[3
t$ ;
%`iG
5HiG
D$$P
D$\P
L$(Q
;|$(u
_^[3
SVWP
D$hd
D$(3
CT+CP
Kd+K`
Kd+K`
D$,P
%`iG
5HiG
L$$;
L$hd
% iG
jSY+
% iG
jSY+
%`iG
5HiG
% iG
(SVW
D$8d
D$(;w
L$0QS
L$8d
Y_^[
jF[3
P,9~8u	9^<
|2QQQ
jSY+
h8U@
%`iG
5HiG
% iG
jSZ+
jSY+
D$hSVW
Y_^[
L$h3
D$HS
D$D$
D$H"
L$(;
L$4+
D$Hu
D$CP
r	;F
D$L5
;D$4v
D$4+
D$XP
D$LW
%`iG
5HiG
D$\s
D$8Z
D$4@
D$ Q
D$ +
jSY+
|$Lj
T$(k
D$(T
D$(jw
D$,Y+
L$(j:
% iG
t	9F
jSZ+
jSY+
D$ d
L$ d
 SVW
D$0d
v	;F
v	;F
% iG
% iG
D$ $
t$$+
% iG
\$$;
r	;P
\$$;
% iG
L$0d
Y_^[
D$ d
L$ d
Y_^[
% iG
%`iG
5HiG
h+yE
D$0d
% iG
L$0d
jSY+
v	9G
jSY+
% iG
9W4v ;
% iG
%`iG
5HiG
SVW;
YYY]
h:hE
D$0d
t$(;
\$8;
L$$Qh
%`iG
5HiG
L$$Qj
jSY+
L$0d
D$ ;
%`iG
5HiG
D$ d
L$ d
jSY+
6SPVW
	VSSQ
%`iG
5HiG
jSY+
hLW@
D$>V
D$8PjY
D$8P
D$@P
% iG
D$8P
D$0W
_^[3
D$nWP
D$ P
D$hP
L$hQ
%`iG
L$ W
5HiG
!|$`
!|$(P
L$$Vj
D$lj
D$Ps
t$`P
D$0P
D$0P
D$0A
D$$F
D$$Y
L$ k
D$ +
D$$$
D$ "
D$ X
L$,+
D$$Z
D$ Q
D$ +
L$ j
D$$k
D$$Y+
D$4s
D$4SP
Y_^[
% iG
jSY+
jSY+
% iG
% iG
jSY+
% iG
jwY+
%`iG
5HiG
% iG
%`iG
5HiG
% iG
% iG
jA_8
j<^V
SVj8
D$4j
D$D<
D$4X
D$(5
L$4k
D$4+
D$4+
D$4+
L$(h
L$0P
D$<j
D$<+
D$<+
D$<+
L$<j[
L$<V
L$@j
D$D=P
%`iG
5HiG
\$T9p
T$,RQP
\$<S
\$XS
\$HS
jSY+
D$ k
D$ Y+
%`iG
5HiG
QQSVWd
QSVW
Y__^[
<$Xf
80t/
PPPPP
SQRP
jdRP
@PVS
@PVS
Wj0S
|-;E
VVVVV
@_^]
=RCC
=MOC
=csm
8csm
9csm
~A;L
>csm
taSV
YYPV
t)SV
Hu4j
=MOC
t*=RCC
;7|G;p
9>u&
tR99u2
r,9Y
@_^[]
SSSSW
SSSSW
@PWV
_^[]
PPPPP
WVU3
v	N+D$
r"9U
r"9U
9M$u
<+t"<-t
+t HHt
PPPPP
u"9U
u	9p
u	9E
;9u	
0K;]
@tH9
hLW@
SVWj
Y_^[
j,h 
j,h 
=L9o<
Unknown exception
bad allocation
CorExitProcess
(null)
( 8PX
700WP
`h````
xpxxxx
FlsFree
FlsSetValue
FlsGetValue
FlsAlloc
HH:mm:ss
dddd, MMMM dd, yyyy
MM/dd/yy
December
November
October
September
August
July
June
April
March
February
January
Saturday
Friday
Thursday
Wednesday
Tuesday
Monday
Sunday
 !"#$%&'()*+,-./0123456789:;<=>?@ABCDEFGHIJKLMNOPQRSTUVWXYZ[\]^_`abcdefghijklmnopqrstuvwxyz{|}~
 Complete Object Locator'
 Class Hierarchy Descriptor'
 Base Class Array'
 Base Class Descriptor at (
 Type Descriptor'
`local static thread guard'
`managed vector copy constructor iterator'
`vector vbase copy constructor iterator'
`vector copy constructor iterator'
`dynamic atexit destructor for '
`dynamic initializer for '
`eh vector vbase copy constructor iterator'
`eh vector copy constructor iterator'
`managed vector destructor iterator'
`managed vector constructor iterator'
`placement delete[] closure'
`placement delete closure'
`omni callsig'
 delete[]
 new[]
`local vftable constructor closure'
`local vftable'
`RTTI
`udt returning'
`copy constructor closure'
`eh vector vbase constructor iterator'
`eh vector destructor iterator'
`eh vector constructor iterator'
`virtual displacement map'
`vector vbase constructor iterator'
`vector destructor iterator'
`vector constructor iterator'
`scalar deleting destructor'
`default constructor closure'
`vector deleting destructor'
`vbase destructor'
`string'
`local static guard'
`typeof'
`vcall'
`vbtable'
`vftable'
operator
 delete
 new
__unaligned
__restrict
__ptr64
__eabi
__clrcall
__fastcall
__thiscall
__stdcall
__pascal
__cdecl
__based(
('8PW
700PP
`h`hhh
xppwpp
GetProcessWindowStation
GetUserObjectInformationW
GetLastActivePopup
GetActiveWindow
MessageBoxW
 !"#$%&'()*+,-./0123456789:;<=>?@abcdefghijklmnopqrstuvwxyz[\]^_`abcdefghijklmnopqrstuvwxyz{|}~
 !"#$%&'()*+,-./0123456789:;<=>?@ABCDEFGHIJKLMNOPQRSTUVWXYZ[\]^_`ABCDEFGHIJKLMNOPQRSTUVWXYZ{|}~
invalid map/set<T> iterator
vector<T> too long
map/set<T> too long
RegOpenKeyTransactedW
RegCreateKeyTransactedW
RegDeleteKeyTransactedW
RegDeleteKeyExW
invalid string position
string too long
F3.1.0.201
 n;^
Qkkbal
i]Wb
9a&g
MGiI
wn>Jj
#.zf
+o*7
U=Umi
k4iGbfo
1>Q<`)cP
B]@=QUU~H
`za2|e|
BwQAZ
.k%,&
_Q{Ew
"v"[Q
p_w\v8ujt
}+|3c
d}kij
V-UzT
BvA4@
DlKeJ
IV3u
^MINzF9!M
-m%jh
=e8=8
 \!|/
hu)5&
-0:$h5)F:[-
DrOkW
EhhO
'p-y,21
kXbR
WPX]
CTBD\T
CT@DTBE
jDC]
FQP]FQW@
ddi:,;?,;i
i :inl:nI
*'afnk'"t+'ou:7
'\ruk: "t +csShs:"kkc+csDru:"kkc+t}:"krZ
DsgcsebUyxbsnb,,UzyesWxrEszpRszsbs
&+onhbon+
d+yn{nj
1+.o
yt:110t5! <tq0xt7;!: 1&iq0T
|q2=>"4q#4 $4"%z&08%}q%98"la)t!Q
Ynz~nx
11uYnz~nx
'*ikd-~*xoy
go*}c~b*ogz~s*o~km*Qx7/f
&*g'g7/n&*
xf7-/y-W
2?;>z
}p619<p3?>>53$|p8"m`(u`h(p
$?pwu#w|p%"<mwu#w
@FQ3
egl@O@FDS
uSTOB@UDgHMD	
+&uvjor&`ojc&gr&#js
GBYDU0
eh.!$-h;!2-hm$=h-0+--,;hm$=H
k`mkc
QZAY
\@@DkFQGD[ZGQk\QUPQFG
F\[Y
[\TL
yE\]fX_U^F
eCP_B]PETpRRT]TCPE^Cx~1
\CZP	
 '-&>ss
;,(=,
&'=;&%:I
OsjkPnichp==HiEuhptbuKErsshiChpi
^b{zA
xrya,,YxBdwoXyb
MM	?
Jxreh\dy`nyXGDIjxn11Xreh\dy`Oden
q'xt0;:1t
 <='id,q$	T
|q?>q58"!qvt"v}q9#la)tai)Q
N}jg'+gne#ns{y"6.o'+ex6,.x,'+cy6;s.;3s
'*ikd-~*ixok~o*~szcikf*@Yixcz~*eh`oi~&*bx7:r/:2r
u#|p>1=5mwu#wP
P\F]G
DSSNS
RBSHQU
jch.eibc/;#b
cSBY@D}Q^QWUB
NcSBY@D}Q^QWUB0
ruom;oH
zmil
[DQZ4
{BcTVXBECHpRRTBB^C
R]^BT1
~GfQS]G@FMuWWQGG[F
[DQZ4
,. :=;0
**,::&;ss7
,. :=;0
**,::&;I
*'efc'njf`b'tn}b'/"c+"c.'\b:"c+a: "t Z
;6uwx1b6zywr6
{wqs6Ms+3r:p+13e1K
WZIWR
^eqb{B
nf_dMbgn
:.=$
 19T
?!02:8?6kk5>
>$%8?4Q
AxMbgn^e{jh`bel11uAxMbgn^e{jh`bel
o*)/n0*/n*c~ogy&*knn*:r/z
G]_	]z
8"514
""?"
?45P
y@uZ_VvKVPFGZ\]		My@uZ_VvKVPFGZ\]3
NQUHNOR
UIHR
LuBjjEgjjct<<biQitmTisrohc
zCt\\sQ\\UB
zCt\\sQ\\UB0
IIJ_C\I
";'&zf";
IIJ_C\I
$'),!&/
%)/-f2!8
IIJ_C\I
%,}f";
IIJ_C\I
+:!8<
&<-:.)+-;f<$*
IIJ_C\I
;+:!8<
!*f";
IIJ_C\I
;+:!8<
)!&f";
uIII
TQG"		G
Q+Ye
mDVs
=BU6t
Ybz]
=e		[
&r`#f
X?x}-
		:]
4D[k
Plepg
iY"1
FD#*
3M5+
;%)\
1N-X
^0&.
'nhWl
:XZC
OxvDD6
mo7{
OuT	
a<4<z
		AA$H
 c!.
.@(1
PmY/
+OeB
9#Z`7<)
T`AG
 ?wV
S$_]1M$
z_1p
`[kUh
{32>*
XC		
ji{m><&b{[L
SXC		
8xE9xE
ldozm{&rax[L
SXC		
8xE&
afa|_aflg
&rax
55=?
C55;	
lAI.;]
BzJD
BB55R
bt~K
2xn!
c,1'<
"/;.
UbHJL
aOI_
MR'Vs,
kIMj
pgHYN
T?`N
}p_(8
m2ED
VO 8h
I/IU
ZX(ii
2iTS
NY3J;
55`n
ol++
,QDt
V@mh
(80@
aghG
K^xp
h%mJ
EJha
fJWgo{
sp(,
)~T(#
}}cx%jG
i0}}
X1^Fb
[]Ya
W"YVCAe
}}:'
[1(JVtNv9K
'l!uHJk
UYM-
is*0
fP%#2S
T}}]
\3v 
$l(N
P}}Y
qn*rN+6?
UTF]
##=nE?W"!
f~l@
=j&*/=
y{.a
sqk&
gT.?
 d[Q
L4y3
$5fQ
Bj}}
KnXj
nMS0
qL O[=2
]r:H
ISg &7
L)g\
M36x7_/
cDc#
&HI/G
@ARg
~I8|
Qj2i
bstIC
p%;W
6Q(o
))(;i
\jCb1
<3jP
[iiw4
{cA>=
q!Q>
e(X^
u5@v
8No3fm/p .h
XAig_O`
300f
x$DQ
SzOW
8@&o
!lsmr7#
h'lQ
pAR/
)Z/Jl
]V\Z
5O`Z.
/$Ix6p
)Xj3
00XOB
jD=h
Ye9-
[d(_
5uBVH
INkV<Yz
]	g7
Q00.
Nt(q
I`zHp_
E%+]
'InI
dK[O
(m^\
MtIM<P
%)4j
00X1
| 5J
OO=C
ky67g
WMX;
7LBK~
,.[Bl
9$_,
UK(6
"TV!
%C|vPb
d'"[tZ
r	wP
VLC'mK
g#OVV
W*gZ
=O:a(
uL3?P
[yWG
sTf*<
V=?b
foeo
b]/d
UCwwY
M?8*
x9P,:
x,E7
kd57:,
;j1z
)bk:
B1>/
+Zzi:
[qOq
zMKwxG
gi)A
Nik<VK%\
	-1|
8@=z
"}Tb
M&ZZE
I55^T"
]Pp1
("M3
""'?$8
pNw@c
SY%55L
?:W+
&	9fT
 N7t
uFJ>
/6cu
\k kkN
QRF%zb
GTnN
B\!Zx
55|<
PL~BZxz
*Po}r\
MGh]
aj:8
#^)t
Q$8x.{
S;vr
55<[;
{M+W?V3
[kn0
V55j
	HpV
55j/
l"quo7
WjZ'
3e0T
>gEE
A67U
h<J3
9*0-
\;^;W
jWPl
6>Y}
Nq|9
n{10
t8+mK
u!V&
%@UI
XeE@
?#^?P
9P2[U
	9x!
/jIs
)!K_C
qxxe	
H>7tGF
FKVxCV
_a3'
.Jj:
W@s::x
>O4D8r
M\YS	
5,5m
jxqpzd)
MM'w\TQ
RGvS 1
K/-!e
	P3G
vdn?KV
R^SD
Pq@R
90-`
FZ8J
UClP
}*YCh
SPq`9
ZFW*
y`|!
3[%#3
_nfN
V^26
x|.`
%b*u>h
B]080
*27&
b^jK
\@92
HH.P
L+@w[
=TT$
A;Dm
3<O:
Jt].r%
4_&(
	P/S
b(gd
HH<n
JM]H
:*; 9=
( 'g#:
]*-) X())
Ni/-Kz
soOVO/
Oh]8
t">S
O]j	7lN
3<<<<r
8kS~
F8Quc
e#7q
u%F3
U0wl
nZVwl
1HH6
_HH,:
v"f_GY`
~Bih
M4FI
cy-V
(>m4
&|z/
m[+{
'*D\
< wh
>ka/
')xe
q+&xI
otod
>(?Q
~o+@V
K!l!
hXr$
oAY7('
?GK<n
B_QKJ
\Bu:
~pu>
	p`O
Iipq
8otl
YLY)
a@WLr
j^>=+
<2&n
B@+wL
N?%L>
1C8{
bHM+
C	|y
Q+R/
Sc!X
ez90!y
NYGp
12Us
nr=nV
F-d>{
;Z2z
&"0.Ul
@UO.
C"Uc
g1|2
wwAz
W~}Z~^y
sc<SUT
T3^y
2(5O:
"BC)
wwJww
<+8a+
Z'd8
X	'w
x#*\
z*)ipkc
;8SXN
Bm;*
'Ns!
14\`
UJaL
uiLU
n$N^
&/ww
[h,}
5_6yD
JG)X.
([>(m
=`[X
;@[Q
wwuq
6mUww
wwHd
MTww
Opz\
d.OsW
*!,m5 cBO
bjZ[
H$tnK
(U]#
wweH
d&B4
y>pPh;
0w\W
^n)3
%$j,
WK:1
sxa#
2:eK
hb;b
(0WZ
	-4Bd
v5[C*
\mv)
2f)?c,
<Jz/
%.1:
hjFz
Ts5E<
lU?(
P=6(yt2
^KDqO
Wuy(
`5s^
|tnY
:J\m
4;yA
+;,v
x !V
'JyZw
3(+;m
8CbCE
X&f[
fb_xbsdpwuse8bztERH
wvvFw
i`2]
p$[\+Q
vD0J
%oN\
V_mb`
TKc`,
n:H"
2A8Ic
lfX/
d*Jsn:7
V)*	
;"ccb 
*XV/
_|48^
y{HD
1xX]
/wKJ
cfQ5
:mk"
_|y(
0\/7
GAn9
,(&O
3tnyb
bl]:`
V	nY
SjA#w:
W]qe
9,!cD1
.A,[
oRLL
5#yy
yw#`
*+`h
!^gd
 l[9
'=+n
*/tc
#*TM
,qG"
5e5K
2V-8z
k$,}i
OL:Z
~O8|
l%n/Z
lI0qe
UcY_FKOU
56N<p
rH D)
|;`,
XC@r
1SY|
P6\SZU&
eD8F
=Y#;
6 I|
MzC_
_>.Kv
.!U+
B*<;
F4T7
'l.!
qB".
5`rw
%;Qq
D,"$
]<H!
tShx
l}.-
igJN
Z^Ji
@vf$gv#{
!=DQ
A`(fXP$
L+35
F&O7
^GI^Y
}}7T_
_&?vrb
DNP3
iq3X
fxnM
Xq|BG
obRJ
7pCo
: mA
'=NZ{
X57_
mbZ")
**Fo
xP(G
a'$^
.Pw@
"S\`
-/Vv
s29,
C,14|
[L1*
1:eAm
se[!
(=%1Q:
5;p,"
7eU{
/:HL_H
aHP/
EG+TA
	&ie
(>G*
/6cl
aH(=^
0(&A
ED78
_vJ3&
k7if"
i1eW
QL;1
q~Ju
uuxv
{QM8
o@w4
DD7IS
ld?t
@ Q9
mmb/
*'&j
,!!$"
=bB`
0W>j
<Iq^
V+Wk
s1>P2	
>|{0r
A/Mz
<;ET
>I;|h
S,bG
7yHn
*}n'Q
.M(<
4Bw%x&m
A`kN
_q?zF
&kHimyT 
=8]e
-k;3M
<o(?
EgUp
X%!3R
8vB1S
uFe`
r>!&CjE!
P!b`$
VU<$
\R\V
Un_9
sk"Nx
6b9:I
!:ZRd"T
n=h	2z5
%H0|Z
 k{]
gTA7
sR,)
jPM>
09Q`
}ox9C
YB*z89
YZc6
-5ftF	
4VuQ
`vwF
lJ)D
%>&H
BGe3'
xR/{
f07m4
>iy3
h?L!RAG
h1]j.
|F+w
0JPi]/j
jKCB
V&TH
 zvv5
&vv&
_dKee
stnZ
IdKD
/Te"
.8@m
@X#z
ltvv
NR*]y
dIJ{+
"~\'
04vv
0u%%
#D!L
hvvTD
ZzTU
S0f{
4\lG
FZB&
a, {o
"PCn
b_ENv
lWU5
zET~r
D~TD
BdiF
;/dL
Q'T?
u4yVF]
!`A^
.v$W
bS$bs_
<%Vw
T1`f
Uv}0
*3Kr
~URz
Vl	l
NcWj
iE;9
@xj:
r!+&
D}u1
V_%rU'*
xSeE 
)	E3NmFF3
=/	:
\%C*
hR)T.
g|=(
5f5-
g+cPdQia
8[X :.
Tl5V
Oa,f=-
he,4
P=*NZH
?L'$
z)X@hE+
>$*U
mydK
(FA95
]"tK
Y,Ws
>a>kp
fjH1
'>Y[WF)i
3))d
UOd{
+MZ4
Q{/b
~Tj$Q
*]Q{r?
7^KZ
%6iC
0hYKV
QZhn
01r7,u-
6Xn0V
FA:"
6"Tn
 OrBk
ny#{
>\O#
OG0!
M~q*
Fz/K
ZF+6Z
i*\D
+a'}c]
GH2?{
HL@YE
#}si
,s5|_
;qEl
`.6`
PL]Ml
uk@i
fXb<
Fut+
Ev[zND~
pWNo
R]q3
mG!q
JQcLS
:+hi"
'2Ie
|7K"
8i80
1)H8h
o;1[
v6f	
}_q&t 
`a/#
,z`-
,SH!
=ZmWorM
wLff
Vh?z
a	X0_P
I%>y4
r2n?
{l<UX6
i6Pv
#	2UJ
Ww5)
LKZq
GRB#
0m$7U
LBj\
Tw1V
-=5K
C*	C
j_|.
[<j '|Q J
_bZ4
Ol3E$2
ub_J
Wc?2F
lYcm
DEa;
|:~Z
5dD|
hO'5
y.f=Z#
3<Cf
V87z
_*1Dl (
zAfi
V]19
}a>0
`FSr*
M|mw
!_#&\o
-@u7
l[7L
m,BiN
,TC096
|+Zn
l1"YU
C`{dQe
n=0z
ukD5@
SC3.a)
b[o3
|@eSO
4R+ 
8s	l
$KV0
{ihKi
uveK
 h)z
i*A)
#6=m
FusSE
B@ri
-S+d
0YA0F{
O"+Q
Y]UV
!uZ,m
<X-<
^i>w[Ju
O+AY
6G8rN
(^#F
|5$g
s./.
ZAv@
!	J)P
E`]>
~cNr
cWx+E
L"mj
*^JH
gdjobelBfjln%qb{XOU
hokb
jkk[j
+mo	8R
ek !][
^q@[
Tn3>k
8*?3
m(yr
*xRc
;wSR
]'J>
,+1*
A 	nsU
j>ncv
(=)t*%
2kA1
ZRb9L
N+uP
n[`|
/B;=
(Hao8
&G[n
@[g><
U?/n]S
REjv;
;]pg
zku/
6QDu
Q7)o
1w_:
aXLv
=P<0B
8x(M
al)4
wRt#|
M}B..
;%XfL)
v*Fa
'rhS
Vk|O
$	d<}
LJJ^
ug)A-
,)faXW
H57l
,1-~"
nv-x
-'R%
Q J^
5KDla
eu$Y
s) `_
FQNo
[,J1
n$	q
UU{?
F&W\
xLxd
yDq]
7QGI
iZ[:
#a{?x
a/O.
i$L:	
L-a&
1[; 
|'$?
yk9#-lH
}lih
u_U,r
x}yC#
Gnc6FDA
+cr&
jQFJ
rWzd
),=<
@B+K
GL4{
~]3E
-{px
XgqI
`Yr5E
syUA5
eodA5tr
{orffriO
{tI-UU
eEuI
xkn}%hyM
^O#rw~r
Mshg#
pq:<
;%+,
6*TS
v!RU
+ul*
!fV&
uC*J
b:mL7/
|1V4
hj2;;
rPU#9
V .5
bl(f(B
JH-_
YUO}
xtw4,'
g{y(
tj9{
lCgk<h
If}Q8
`3@5
f"QO
UD7d
<6Z#
Ce&>
j|*C
|@P 
=::"
*SCK
KV=AW
}rq(
t~RF2
oT.{+
cprB
IU=S
~[<c
v7-)
Qydg
g4]4&
wYjg9r
>	hi
B$tg-
.}Cc
K0	Yj
shOob
 "JM+
V]n2
$RJB
dPJAI1
ZiCeh
O)Z/M
7E..
|Jl-HNO
0jX<
I^ro
"1S 
"0b$
oXNQ
PO>iq
eQYN
231b
f 5*Dh0
#'6,
$A $
@DW?iN
}'EI[
y9=y	]y
hNF@yT
.}zxV8Pu
X5_'
]L<"
83il5
O7U^
snz}j
&	*a 
"!g@@Rf_
a\Fi|c
E{vm
	])"
,!Vq
qN	J
TBEA
z8uMj
WSke
{h(V6
9d{//V
%I3G
svp0
=>"4
YnlNe~f]jg~n\
Ixsz~Noy~xesBkyb
14&1 9cb~4<<P
p\tVGz]GVAURPVr]WaV_VR@V`GAVR^3
bmrhegSNLrUSHOF!
EiShohorogjo|c
s_y^YDYQ\YJU0
-/!;<-:
$);;
*"-+<H
KgKzmi|mAf{|ifkm
w[wFQU@QsA]P4
gPCXP_Ex_XE1
gMGrFQQg@F]ZS4
WfsoUbjhqbAnkbTwbdP
Fwb~_eR
dsubydoA
nyen
YnjoMbgnNsJ
: 1&:1 
&&;&
4 $4"%
nyen
Hdeenh
Zey~^bxoknGoyykmo]
<<?'
?"57"?%>4
9>4?'P
F@VA
W__3
MRUSBLQ`!
jurtev
xUQ@q\\_S0
$'*)$
:--H
OdgjidIddgk
c]PQw\UF`[yAX@]vM@Q4
vTE}^RP]Tx_W^f1
wFQU@Q`\FQUP4
%,,9I
DubfsbAnkbJfwwni`P
ZyuwzP
{sByP
Ns{jeoNe}bydefne
ybelx\
19;"1
=&17 ;&-
=$"9
$774#"Q
Hynj
nMbgn\
Ixok~oZxeioyy]
		IH4
"?35##cb
9"#$
XVA]V_
W__3
RH[D
+&hir&`ishb
DI@U
-;'=:+-
)&)/-:rr
0!;<H
Zm{g}zkmEifiomz22NgzkmZmeg~mLazmk|gzq
fQG[AFWQyUZUSQF
r[FWQwFQU@Qp]FQW@[FM4
RR;	
wFQU@Qr]XQ4
,:&<;*,
('(.,;ss
&'=,'=I
"t'afnk'\a: "t +buu:"cZ
xw{s+13e1
OGL+NSB_
5=:T
!!kk
0?5=4
8<4>$%Q
.x+Pbo6.~'hjgg6.oV
V[HV
V[HV
KFUK
Kzz00ibeeyoLcfoNckfem
_	Z!
G]_	]V
G]_	]'z
}p5>%=p "?35##jpu#P
URZ_
PAVRGV
@]RC@[\G
&+8&ctt;#b
kT_S
&um,
hevh :ux0mxp0H
-dd}
FQY[BQp]F4
RCTPETeT\AuXC1
oQFF	
di*('*,%il-i= $,&<=:I
*'dhjjfic'pnichp='7
;6uwx1b6zywr6{w
x6eud
list<T> too long
@Qm6t
%D,3
e+000
bad exception
1#QNAN
1#INF
1#IND
1#SNAN
lstrlenW
EnterCriticalSection
LeaveCriticalSection
GetProcAddress
GetModuleHandleW
GetCurrentProcess
FlushInstructionCache
GetCurrentThreadId
RaiseException
GetLastError
SetLastError
FreeLibrary
lstrcmpiW
MultiByteToWideChar
SizeofResource
LoadResource
FindResourceW
LoadLibraryExW
GetModuleFileNameW
InterlockedDecrement
InterlockedIncrement
DeleteCriticalSection
InitializeCriticalSectionAndSpinCount
LocalAlloc
LoadLibraryA
CreateEventW
WaitForSingleObject
SetFilePointer
SetFilePointerEx
SetEndOfFile
GetFileSize
ReadFile
GetFileAttributesExW
GetCurrentProcessId
GetTempFileNameW
GetTickCount
GetSystemTimeAsFileTime
MapViewOfFile
HeapFree
FindClose
GetFullPathNameW
FindFirstFileW
FindNextFileW
DebugBreak
OutputDebugStringW
lstrlenA
LoadLibraryW
MulDiv
lstrcmpW
GlobalUnlock
GlobalLock
GlobalAlloc
KERNEL32.dll
SetWindowLongW
KillTimer
SetTimer
RegisterClassExW
GetClassInfoExW
LoadCursorW
DestroyWindow
CreateWindowExW
DefWindowProcW
GetWindowLongW
CallWindowProcW
CharNextW
DispatchMessageW
TranslateMessage
GetMessageW
PeekMessageW
LoadIconW
LoadImageW
SendMessageW
IsWindow
GetWindowRect
MoveWindow
SetWindowPos
MapWindowPoints
GetClientRect
GetParent
GetMonitorInfoW
MonitorFromWindow
GetWindow
IsWindowVisible
ShowWindow
PostMessageW
GetDC
ReleaseDC
ClientToScreen
GetWindowTextLengthW
GetWindowTextW
SetWindowTextW
UpdateWindow
GetFocus
GetDesktopWindow
InvalidateRect
CreateAcceleratorTableW
RedrawWindow
GetSysColor
GetClassNameW
GetDlgItem
SetFocus
IsChild
EndPaint
FillRect
BeginPaint
RegisterWindowMessageW
USER32.dll
DeleteObject
DeleteDC
CreateCompatibleDC
SelectObject
GetObjectW
GetDeviceCaps
GetStockObject
CreateSolidBrush
GDI32.dll
GetOpenFileNameW
GetSaveFileNameW
COMDLG32.dll
RegCloseKey
RegOpenKeyExW
RegCreateKeyExW
RegQueryValueExW
RegSetValueExW
RegEnumKeyExW
RegDeleteValueW
RegDeleteKeyW
RegQueryInfoKeyW
ADVAPI32.dll
DoEnvironmentSubstW
CommandLineToArgvW
Shell_NotifyIconW
SHELL32.dll
CoCreateInstance
CoTaskMemFree
CoTaskMemRealloc
CoTaskMemAlloc
OleUninitialize
OleLockRunning
CreateStreamOnHGlobal
OleInitialize
ole32.dll
OLEAUT32.dll
PathFileExistsW
SHLWAPI.dll
InterlockedCompareExchange
InterlockedPushEntrySList
GetProcessHeap
HeapAlloc
IsProcessorFeaturePresent
VirtualFree
VirtualAlloc
InterlockedPopEntrySList
EncodePointer
DecodePointer
GetCommandLineW
HeapSetInformation
GetStartupInfoW
TerminateProcess
UnhandledExceptionFilter
SetUnhandledExceptionFilter
IsDebuggerPresent
Sleep
HeapSize
ExitProcess
HeapCreate
HeapReAlloc
WriteFile
GetStdHandle
TlsAlloc
TlsGetValue
TlsSetValue
TlsFree
GetCPInfo
GetACP
GetOEMCP
IsValidCodePage
GetStringTypeW
FreeEnvironmentStringsW
GetEnvironmentStringsW
SetHandleCount
GetFileType
QueryPerformanceCounter
RtlUnwind
WideCharToMultiByte
GetConsoleCP
GetConsoleMode
LCMapStringW
SetStdHandle
WriteConsoleW
CreateFileW
CloseHandle
FlushFileBuffers
UnregisterClassA
.?AVlogic_error@std@@
.?AVlength_error@std@@
.?AVout_of_range@std@@
.?AVtype_info@@
                          
abcdefghijklmnopqrstuvwxyz
ABCDEFGHIJKLMNOPQRSTUVWXYZ
                          
abcdefghijklmnopqrstuvwxyz
ABCDEFGHIJKLMNOPQRSTUVWXYZ
.?AVCAtlException@ATL@@
.?AVexception@std@@
.?AVException@@
.?AVbad_alloc@std@@
1h|4
.?AVbad_exception@std@@
kU'9
HMXB
?Zd;
?/L[
S;uD
z?aUY
D?$?
U>c{
zc%C1
.:3q
-64OS
NKeb
KH5ETJ8
;<,,WL;
ZW><^UB
_UA.cYE
srkbwvq
d^a$
bc_*
^_[,
abY-
]ZV@
^_[G
\]YI
YTPK
OPL[
HIEd
FEAv
QJ3C
WQ;G
{V]SDE
RE0[
|ksqiY
Z[TP
QG1s
mh[UeeV
b^Sl
qrnI
NI-+
QG30
`TD>
TMBD^TA
aYF5i_K
<=9Jlkg|qrk
gf`s
qrkp
rqk|
RI4^451
jkj\
HC?/WSLbXYL
eaX3
QI26
i_NG^UB
ymZ}
TUQP
sgT?
TUQ@ymZ
\]Yl
<?xml version="1.0" encoding="UTF-8"?>
<assembly xmlns="urn:schemas-microsoft-com:asm.v1" manifestVersion="1.0">
  <trustInfo xmlns="urn:schemas-microsoft-com:asm.v3">
    <security>
      <requestedPrivileges>
        <requestedExecutionLevel level="requireAdministrator" uiAccess="false"/>
      </requestedPrivileges>
    </security>
  </trustInfo>
</assembly>
2-2;2A2G2[2o2y2
707>7L7f7r7
9&9>9f9x9
:3:D:i:{:
=L>U>\>c>h>p>|>
?,?2?d?
070h0n0
1+191G1O1m1u1
2	313C3Y3w3
4-4U4g4}4
5W7o7
858U8a8
9(909:9`9
<-<C<a<o<y<
=?=.>@>X>
?&?2?O?_?m?
0/090O0}0
6P6j6x6
7/7I7q7
8(808:8
9 9(9F9N9X9
:':5:C:Q:Y:w:
<g=x=
=#>6><>
> ?^?d?k?
010V0
0%181>1E1
5k6r6
7)7X7h7}7
9O9y9
>E>_>'?
>0Q0
041J2
3#3e3l3
4*4@4
4.5;5S5m5
5"6O6U6^6e6
9.9d9u9
272C2O2[2c2{2
4U4[4b4i4p4w4
6A6V6_6
7'71777f7
8E8`8g8
9 9*9h9
:D:I:g:
>+>a>
>B?Z?b?}?
80^0
3%3.383E3N3U3Y3_3c3i3m3s3w3}3
4/5c5
5#6I6[6
8f8q8~8
:h;o;
0/1H1
384[4y4
6>6V6b6n6z6
6`7v7
7+8C8O8[8g8o8
9!9&9/949=9B9K9P9Y9^9g9l9u9z9
:":+:0:9:>:G:L:U:Z:c:h:q:v:
;';,;5;:;C;H;Q;V;_;d;m;r;{;
<#<(<1<6<?<D<M<R<[<`<i<n<v<
= =)=.=7=<=E=J=R=]=b=k=p=y=~=
>!>&>.>8>>>G>L>T>_>d>m>r>{>
? ?(?3?8?A?F?O?T?]?b?k?p?y?~?
0%0*03080A0F0O0T0]0b0k0p0y0~0
1!13191U1a1m1y1
1H2d2q2n3
3Z4:5
<-=D=V=d=
?h?x?
0 040H0R0h0^1
9@:S:m:
;';C;
;T=Z=`=
>1?g?s?
%0t0
0U1|1
2.272J2
4"4+424:4?4G4Q4W4]4c4i4s4}4
6F6L6S6Z6r6
8'858F8b8q8
;N;c;};
;b<w<
?R?_?
4$4k4
4E5Y5m5
6%6J6_6k6w6
:9;K;\;z;
?!?/?=?E?c?k?u?
0&030=0c0r0w0
1 1&101:1@1M1\1d1l1q1w1|1
303<3H3T3\3t3|3
5$525g5x5
696G6M6S6g6{6
777J7n7w7
8%8/8h8v;
<)<3<><
<$=[=
>(>J>n>u>h?n?
.0;0U0a0|0
121v1|1
1@2r2x2
2O3i3
;)<a<
=^=d=
=/>s>
0E0l0
0%1Z1
2,2r2#3T3
3?4{4
595?5g5
7E7y7
7T8~8
;(;7;y;
<o=x=
>8>y>
'0w2
5,5C5V5
6*797|7
:1;I;
;;<B<H<M<T<Y<c<m<t<~<
=0	1.1
1@2J2n2
2*303T3q3
3	4 4
4M5S5Z5i5
686K6Z6a6m6
8+8H8W8
809V9a9}9
:	;7;
0#0'0+0/03070;0?0C0G0K0O0S0W0[0_0c0g0k0o0s0w0{0
1I2O2T2\2l2v2|2
343;3C3H3L3P3y3
3*4044484<4
4'5Y5`5d5h5l5p5t5x5|5
7-74787<7@7D7H7L7P7
888?8D8H8L8m8
869<9@9D9H9
:(:7:Z:_:d:{:
>+?1?@?
8	9":
;&;.;9;
=%=/=8=C=O=T=d=i=o=u=
>r>L?T?l?
>0I0O0t0z0
383A3M3
3*404<4B4K4R4t4
5&50555Q5[5q5|5
696@6Z6a6
8+929?9E9
:Y:_:k:
<@=^=
4=4!6y8}8
<V<n<x<
=6=S=
>#>)>2>8>A>M>S>[>a>m>s>
>7?=?g?m?s?
A0d0n0
1 1&1-131:1@1H1O1T1\1e1q1v1{1
272=2U2
6R6]6g6
6-7@7
9%989J9e9m9u9
:=:N:b:
=-=f=
7h:l:p:t:x:|:
o6u6
414m4
4.555J5
5 6P6b6
7A7N7Z7b7j7v7
:s:z:
;';:;^;
<X<^<h<
=G=L=
?#?<?Z?
0S1s1c2
2S4-5
5.6D6
6A7s7
9 9,999]9o9}9
:1:`:
5[8_8c8g8k8o8s8w8
8W9c9
<-<x<m=Q>
0 1i1
4&4/4:4?4H4R4]4
='=9=K=]=o=
2A3M3
3#464N4n4
5K5x5
5>6_6h6
9\;c;\<
4-4c4m4
727Z7
8&828G8R8f8x8
:1:C:U:g:y:
>.>:>O>Z>|>
1(1'3;3V3e3
:J:d:p:|:
<+<O<]<
>J>\>n>
0H0r0
1B1P1
2:5Z5
5(6T6b6
>!>6>B>H>N>_>p>y>
>K?a?
0a2s2
4#4,454M4g4r4u5{5
9.9H9S9Z9
:5:G;
 0$0(0,0004080<0@0D0
2#242E2N2e2
4G6a6p6
717<7_9d9
;";.;4;:;K;\;e;x;
<&</<D<P<V<\<m<~<
=1=9=B=W=c=i=o=
?"?5?P?\?e?n?
0K0W0c0o0w0
0J2h2}2
2:3P3(4
505?5f5z5
626:6V6b6h6n6
888D8P8\8x8
<!<'<-<><O<X<k<
>B>N>W>`>x>
?1?@?S?q?}?
070?0
2-292E2Q2m2u2~2
3q5}5
6/686T6
7,787H7T7\7|7
7&899H9\9
;$;/;C;U;];f;{;
<2<D<L<U<j<v<|<
='=/=8=M=Y=_=e=
=	> >,>8>D>`>h>q>
>a?s?
W0 282D2P2e2p2
404<4E4N4f4
4J6a6u6
7"7-7?9
90:H:d:
;9;r<
=:=L=X=d=
=s?y?
575S5}5
7G7g7
8!8K8|8
=)=S=e=q=}=
262E2X2p2|2
4(40494
:$:0:6:<:M:^:g:
='=0=9=Q=k=v=
==>X>d>p>|>
050A0M0Y0a0y0
8(80898N8Z8`8f8w8
9*9?9J9^9p9x9
;);A;M;V;_;w;
;u?~?
/0O0f0~0
1,1L1X1|1
2"202:2D2b2
2#4,424T4z4
5'555;5A5U5i5s5
797T7i7y7
8K8Y8g8
9)939Q9e9
9Y:);4;H;Z;r;
< <@<L<R<l<r<
?#?;?Q?Y?c?}?
0C0U0k0
1R2j2x2
3I3]3o3
454U4a4
4:5X5
6>6j6
7%7K7w7
7%8N8
9+:Q:`:f:);3;P;i;u;
<'<0<C<\<
0%0.0
2+2?2b2q2
3,3T3Z3f3
3c4y4
6c7~7
:#:k:
;";*;6;Z;l;r;x;
; <N<^<l<
=.=8=`=
?M?u?
30K0s0
263m3
4,4F4S4
5.5V5b5
9"9*939#:
=C=\=
>%>3>A>I>g>o>y>G?M?
010Y0k0
1!1,1D1V1i1
3-393N3Y3m3
414e4u4
5'5:5R5^5g5p5
5/7A7M7b7m7
9D9R9
;f<x<
<B=\=j=x=
>L?`?
?0n0~0
1"1:1T1_1
222g2v2
3"3*3H3P3Z3|3
4#444J4R4c4
7)7A7W7_7i7
7-8m8
8`9v9
: :&:,:@:T:^:r:z:
; <]<w<
>#>+>5>O>]>c>i>}>
3'333K3a3i3s3
3?4E4g4m4z4
7<7B7
9*9<9R9w9
:#;5;f;
;#<8<N<x<
=]=?>~>c?v?
090F0L0[0i0
1+151K1e1}1
2'2>2Q2e2
3Y4h4
515X5
5J6Y6e6z6
7'757[7c7
838B8U8m8y8
94:E:m:s:
;*;8;B;L;j;
<%<-<K<S<]<
='=6=I=a=m=v=
>'>h>n>
90?0
031o1
303>3D3J3^3r3|3
5/5E5M5W5q5
5.6D6g6u6
;C<X<d<p<|<
0(0@0Z0e0I1X1l1
2$2z2_3e3
5,686n6
7H7P7\7
7	8!8H8
9&929>9h9
;#;M;U;a;
2<2C2
2(3Q3]3i3~3
4+4?4_4
6!6;6G6S6_6g6
6A8\8d8y8
8M:S:G;
=B=T=j=
>!>;>G>_>u>}>
?&?@?N?\?j?r?
2$2W2
2L3R3m3&4A4R4f4u4
4	5!5-565?5W5q5|5
6$727@7Z7f7~7
8*8A8V8r8
:%:-:^:f:r:
4W4_4
4M5w5
5J6S6
:;:m:
;K;Y;
;,<:<H<V<^<|<
="=8=@=J=d=r=x=~=
0/0;0G0S0[0s0{0
262H2^2|2
3'353M3`3l3
4.4E4S4
5Y5m5
5#636
6P7V7u7
7%878C8O8y8
9E9U9c9u9
:/:A:G:M:g:
;%<0<A<S<e<
=%=+=J=d=p=
> >2>:>d>l>x>
2/2D2
2(3:3L3p3~3
474Q4]4y4
5B5Z5v5
5 6.6@6V6g6
707O7t7z7
:3:[:
;8;H;V;z;
;P<e<}<
=-=?=K=W=
=A?^?
111c1{1
2A2O2U2
3G3_3{3
3'454;4`4x4
575O5k5
6$6*6L6k6q6
707h7
8)8I8g8o8{8
909L9
=/>>>J>_>j>~>
?O?U?u?
162m2
4Q5k5
6-696E6o6
7N8/9
;1;?;_;};
<A<T<
<9=o=
='?N?
070S0}0
2S4c4o4w4
5(50565K5v5
6^6d6
7E7W7h7
9!9)939M9[9a9g9{9
;-;C;g;};
<%<1<a<k<
=%>->I>
?&?U?c?
0*083Y3
5m5s5
6$6?6G6b6
7"7+7:7b8m8
909D9]9w9
:):?:]:o:
;5;U;a;g;
;]<#=-=8=K=Z=o=z=
>F?[?i?s?
0U0g0
3 3)343
5c6r6
737>7
:7:?:H:
>$>*>;>L>U>h>
*161B1W1b1v1
2e2z2
5!5)525G5S5Y5_5p5
7+7>7V7b7k7t7
91;M;
=,=>=b=p=
>:>I>k>
?0?Z?l?x?
1.1@1H1r1z1
2%232S2q2y2
3#3 4Z4
5C5g5y5
6U7i7
9!9'999Q9y9
:+:<:P:h:
;6;B;r;
>1>C>K>T>i>u>{>
>'?3?@?S?|?
0&000:0X0x0
1I2X2q2
373W3c3
4[4p4
565V5b5
8 8L8^8v8
:N:h:
;/;U;a;
B0R0f0
313?3I3S3q3
5$525@5H5f5n5x5
5!636I6g6u6
7X8_8
;t=z=
>:>@>h?n?
I0U0b0r0
121F1P1h1
4%4-474Q4_4e4k4
5U6b6
7=7U7q7
9#9A9I9S9
9!:1:N:\:j:x:
;O<Z<
<$=9=?=
0,020
101y1
1%2q2
3&3D3L3V3x3<4H4`4~4
5,5L5X5
8I9u9
9>:O:z:o;
>5>C>I>O>e>y>
k0{0
1B2Y2l2{2
3O4V4`4
6*6V6\6
7E7K7s7
8%8+8?8S8]8s8
:4:F:\:z:
=&=<=B=]=
0<0J0T0^0|0
111=1U1k1s1}1
2Z2a2
7,7^7t7
9=9E9Q9
: :9:S:_:w:
=,=:=@=F=Z=n=x=
0%0=0W0b0o1
1 222
4#4=4K4Q4W4k4
7"7.7:7O7Z7n7
9.9Q9`9s9
9 :7:C:O:[:c:{:
<U=d=r=
?-?C?K?U?o?}?
1 1H1Z1p1
3.3:3R3h3p3z3
4)4C4O4g4}4
5E6f6t6
6!728A8I8
:(:4:::@:Q:b:k:|:
<V=h=m?
H0h0v0
1-1?1Q1Y1
3"3.3X3`3j3
3/4Q4Y4c4
525@5Z5f5~5
7=7E7O7
8/8=8G8Q8o8
9(969D9L9j9r9|9+<E<S<a<o<w<
=%=?=K=c=y=
>->>>D>
1<3P5
7*727J7R7[7
838G8j8y8
=1=I=q=
>#>;>
0"0@0N0X0b0
161Z1
1F2U2r2
5G5@7
7X8a8g8m8w8}8
9'9Q9c9o9{9
:":7:L:a:v:
;3;H;];r;
</<D<V<c<y<
0/0>0?1^1l1z1
3*323<3V3d3j3p3
9.9<9F9P9s9
9J:$;_<y<
=*=0=6=J=^=h=
0!0H0
10181b1j1v1
434=4T4Z4
4.5:5]5
2!2-2s2
3+3O3h3n3t3
334K4]4
5#5=5W5c5
5i6Q7q7
8/9A:
;!;-;];,<
=9=Q=q=
>+>U>
?-?K?S?_?
0&0c0i0h1
2P2w2
3?3Q3]3i3
5+535]5e5q5
6*6o6
7*7?7U7|7
8/8M8U8a8
9%9,9H9^9t9
:-:5:A:q:
;);>;P;t;
<0<J<V<r<
1)1"242:2_2
2%3b3h3
7=7D7r7}8
:8:J:`:~:
;8;H;V;p;|;
<"<><
<d>{>
>#?;?W?
0<0k0
1L2Q2W2[2a2e2k2o2u2y2~2
3Q6q6
6)7_7
1b3u3C4d5X6
=%=0=G?
0n1|3
82989
:];Q<Y<
>*?0?>?
6*686h6
7B7e7
9+9X9
9):O:Y:a:x:
;G;t;
>"?|?
0#0g0
1;1_1
1	2F2y2
2K4x4
5-5b5
6:7m7t8
:D;N;V;
<9<w<
="=9=
5(6]6
7+7F7a7
8:8f8
9a9|9
:@:`:{:
;"<E<e<
=*=E=`={=
>&>0>8>O>
>,?j?
0U0x0
1*10161<1B1Q1Z1c1i1o1s1
2*242@2J2\2j2n2s2
3)34383=3
H3L3P3T3X3\3`3d3h3l3x3|3
5 5$5(5,5`5d5
?$?,?4?
X:\:`:d:h:l:p:t:x:|:
; ;$;(;,;0;4;8;<;@;D;H;L;P;T;X;\;`;d;h;l;p;t;x;|;
05@5D5T5d5h5x5
6 6$6(6,6064686<6@6D6H6L6P6T6X6\6`6d6h6l6p6t6x6|6
7 7$7(7,7074787<7
8T8X8\8`8
; ;$;(;,;0;4;8;@;D;H;L;P;T;X;\;`;d;h;l;p;t;x;|;
< <$<(<
4 4(40484@4H4P4X4`4h4p4x4
5 5$5(5,5054585<5@5D5H5L5P5T5X5
=p>t>x>|>
? ?$?(?,?0?4?8?<?@?D?h?
 0,0D0H0L0P0T0X0\0`0d0h0l0p0t0x0|0
2 2$2(2,2024282<2@2D2H2L2P2T2X2\2`2d2h2l2p2t2x2|2
3 3$3H3T3`3
4$404<4H4T4`4l4x4
5 5$5(5,5054585<5@5D5H5L5P5T5X5\5`5d5h5l5p5t5x5|5
6 6$6(6,6064686<6@6D6H6L6P6T6X6\6`6d6h6l6p6t6x6|6
7 7$7(7,7074787<7@7D7H7L7P7T7X7\7`7d7h7l7p7t7x7|7
94:8:L:P:`:d:h:p:
; ;0;4;8;<;D;\;l;p;
<(<,<0<8<P<D?X?`?h?p?t?x?
000P0l0p0
181D1`1
2 2@2`2
3(3H3P3l3|3
4T4h4t4|4
5(545<5T5`5
646@6`6h6t6
7(7H7P7\7|7
848<8D8P8p8|8
909<9\9d9p9
:(:H:T:t:|:
;$;,;4;@;d;
<$<,<4<<<D<L<T<\<d<l<t<|<
=$=,=4=@=`=l=
>$>,>4>@>`>l>
? ?@?L?l?x?
0(0H0T0t0|0
1 1,1L1T1\1d1l1t1|1
2$2,242<2D2L2T2\2h2
343<3H3h3p3|3
4$404P4X4`4h4t4
585@5L5l5t5|5
6 6@6H6P6\6|6
7,747<7D7L7T7\7d7p7
8$8,848<8D8L8T8\8d8p8
9$9D9L9T9\9h9
:(:H:P:X:`:l:
;$;,;4;@;H;d;
<(<L<l<t<|<
=,=L=T=\=d=l=t=|=
>$>,>8>X>`>h>p>x>
?,?4?<?P?\?d?
0,040<0P0\0d0|0
1,141@1d1
2$2,242<2D2L2T2\2d2p2
3(303<3\3d3l3t3|3
4(4<4H4P4
5 5,545d5x5
6$686D6L6d6p6
7$7\7p7|7
8<8@8H8T8
889H9\9p9|9
9$:8:D:L:|:
;,;L;\;p;
<(<<<H<P<
= =(=4=T=`=
><>H>t>|>
? ?L?d?x?
0L0`0l0t0
0,1@1L1T1
242H2T2\2t2
303<3D3t3
344H4T4\4
5<5D5d5x5
646H6T6\6t6
7(747<7l7
8 808T8`8h8
94989
0 0@0`0
2H6H7L7P7T7X7\7`7d7h7l7p7t7x7|7
8 8$8(8,8084888<8@8D8H8L8P8T8X8\8`8d8h8l8p8t8x8|8
9(989H9l9x9|9
>4?<?D?L?X?
0L0h0
1 1$1(1,1014181<1@1D1H1L1P1T1X1\1`1d1h1l1p1t1x1|1
2 2$2(2,2024282<2@2D2H2L2P2T2X2\2`2d2h2l2p2t2x2|2
3 3$3(3,3034383<3@3D3H3L3P3T3X3\3`3d3h3l3p3t3x3|3
4 4$4(4,4044484<4@4D4H4L4P4T4X4\4`4d4h4l4p4t4x4|4
5 5$5(5,5054585<5@5D5H5L5P5T5X5\5`5d5h5l5p5t5x5|5
6 6$6(6,6064686<6@6D6H6L6P6T6X6\6`6d6h6l6p6t6x6|6
7 7$7(7,7074787<7@7D7H7L7P7T7X7\7`7d7h7l7p7t7x7|7
8 8$8(8,8084888@8D8H8L8P8T8X8\8`8d8h8l8p8t8x8|8
9 9$9(9,9094989<9@9D9H9L9P9T9X9\9`9d9h9l9p9t9x9|9
:,:4:@:
;(;8;
; <$<<<@<h<
n};U
f88=
O(`}
j}`|
lYU8
Ol0mp
3M(`=jq!P
R=pc	
	\9Lw+
HSpr
LJ>(
>0<0
0!0	
AddTrust AB1&0$
AddTrust External TTP Network1"0 
AddTrust External CA Root0
000530104838Z
200530104838Z0o1
AddTrust AB1&0$
AddTrust External TTP Network1"0 
AddTrust External CA Root0
mA_rZq
ijX#
q0o1
AddTrust AB1&0$
AddTrust External TTP Network1"0 
AddTrust External CA Root
AlG`
c~y{
sIv`
Greater Manchester1
Salford1
COMODO CA Limited1#0!
COMODO RSA Code Signing CA0
180523000000Z
190523235959Z0
101191
Berlin1
Berlin1
Schwedter Stra
e 9A1
Freemium GmbH1
Freemium GmbH0
 -P7<
i.lp
	R(H
?0=0;
0+0)
https://secure.comodo.net/CPS0C
<0:08
2http://crl.comodoca.com/COMODORSACodeSigningCA.crl0t
h0f0>
2http://crt.comodoca.com/COMODORSACodeSigningCA.crt0$
http://ocsp.comodoca.com0
info@freemium.com0
W'^U
sOdm
N%"q7d
AddTrust AB1&0$
AddTrust External TTP Network1"0 
AddTrust External CA Root0
000530104838Z
200530104838Z0
Greater Manchester1
Salford1
COMODO CA Limited1+0)
"COMODO RSA Certification Authority0
xH0E
HCgNr*
	FNm>
|3WA<
PjUF
3:.\
1\:jG
=0;09
3http://crl.usertrust.com/AddTrustExternalCARoot.crl05
)0'0%
http://ocsp.usertrust.com0
qL|G
^@k#
Greater Manchester1
Salford1
COMODO CA Limited1+0)
"COMODO RSA Certification Authority0
130509000000Z
280508235959Z0}1
Greater Manchester1
Salford1
COMODO CA Limited1#0!
COMODO RSA Code Signing CA0
#KKc
:3FPs
^Lby
E0C0A
;http://crl.comodoca.com/COMODORSACertificationAuthority.crl0q
e0c0;
/http://crt.comodoca.com/COMODORSAAddTrustCA.crt0$
http://ocsp.comodoca.com0
TQ-R
DvWj
e	#I
~ wa
zi'e
{:Q9
SN20s
Greater Manchester1
Salford1
COMODO CA Limited1#0!
COMODO RSA Code Signing CA
)k,/
./\3!T
{IZ|eK
