!This program cannot be run in DOS mode.
RichiZ
.text
.rdata
.data
.rsrc
SUVWj
hH@@
hD@@
h@@@
h<@@
D$<U
h8@@
h0@@
\$ j\
8\$0
$(@@
t$,V
Y_^][
D$<U
h8@@
h @@
\$$j\
8\$0
D$(PSSh
VWh@
YYWV
D$,VW
hp@@
t$$U
h8@@
t$4UV
h8@@
hl@@
hd@@
C,hl@@
C,h`@@
Yt)V
h8@@
C,PV
s,hl@@
h`@@
h8@@
_^][
YWjX
YY^[
QSVWj\
QVWj\
SVW3
YYVW
_^[d
?"YYu
<8"u
<Eu$
< tH
<Su$
YY[OW
YHY3
_^[d
_^[d
hv+@
hSVW
hr+@
>"u:F
XPVSS
zGI]s
\MbKQ
KLl1l\
%jCb
?close@ofstream@@QAEXXZ
?close@ifstream@@QAEXXZ
?write@ostream@@QAEAAV1@PBDH@Z
?seekg@istream@@QAEAAV1@JW4seek_dir@ios@@@Z
?read@istream@@QAEAAV1@PADH@Z
??0ifstream@@QAE@PBDHH@Z
??0ofstream@@QAE@PBDHH@Z
?openprot@filebuf@@2HB
??1ios@@UAE@XZ
??1ofstream@@UAE@XZ
?tellg@istream@@QAEJXZ
?open@ifstream@@QAEXPBDHH@Z
??1ifstream@@UAE@XZ
?seekp@ostream@@QAEAAV1@JW4seek_dir@ios@@@Z
?close@fstream@@QAEXXZ
??0fstream@@QAE@PBDHH@Z
??1fstream@@UAE@XZ
MSVCIRT.dll
??3@YAXPAX@Z
strlen
strcat
strcpy
??2@YAPAXI@Z
__CxxFrameHandler
_EH_prolog
MSVCRT.dll
_exit
_XcptFilter
exit
_acmdln
__getmainargs
_initterm
__setusermatherr
_adjust_fdiv
__p__commode
__p__fmode
__set_app_type
_except_handler3
_controlfp
ResumeThread
SuspendThread
CreateThread
Sleep
WaitForSingleObject
CreateSemaphoreA
WinExec
GetSystemDirectoryA
GetWindowsDirectoryA
FindFirstFileA
FindClose
FindNextFileA
CopyFileA
MoveFileA
DeleteFileA
SetFileAttributesA
GetCommandLineA
GetModuleHandleA
GetStartupInfoA
KERNEL32.dll
_strcmpi
.exe
start 
.jpg
USR_Shohdi_Photo_USR
\*.*
ccRegVfy.exe
ccApp.exe
IEXPLORE.EXE
system
system32
windows
\*.exe
 i6	
!This program cannot be run in DOS mode.
*6Oz	vO
*6Oz	/O
*6OZ	*O
*6Oz	
*6ORich
.text
.data
.rsrc
msvcrt.dll
KERNEL32.dll
NB10
nddeapir.pdb
8MZu
>"u:F
XPVSS
Y_^[
_c_exit
_exit
_XcptFilter
_cexit
exit
_acmdln
__getmainargs
_initterm
__setusermatherr
_adjust_fdiv
__p__commode
__p__fmode
__set_app_type
msvcrt.dll
_controlfp
_except_handler3
GetModuleHandleA
GetStartupInfoA
KERNEL32.dll
p+v^0x
1`5e
l,leT
p^V0
do_b
p\:}
+[lq
oFolsM
_+(p
pC^X
pffD
_bA2
`")p
SYfn
s`_-
BbBb
$EA;E
D+S"@
Bg2 
Id~I`}i
QXNcYgS|x
Mqq(
EUHi
[4@X@
QInC
km5:
1AR?
qs@M
<>@|
;Ym.D!
yGO>m
wml#"
p)ha
V}K;
V}K;
V}K;
V}K;
V}K;
)l{!
y/75-
V}K;
AA/6ax
W+La
m$bZ
yu>m
A2m&;
A:o"mW(
5`Yq
x#fyA
O#,t`
<.@|
qC(`
 \V^
cf`]
0fOd
S"lN
)`P%
g/z?Uc&;
e`]ga%
?'-wN
2eHs[f
QUSlM
9w'Q
A\+O
r/im
1UkR!
!#)&
 ev`
?A$H
cWNn
7'g5
F?CQ
NcYgS|
.j;_~
iJcw
j7=m
@~42l~
 oWJ
bzV-
s;*	
=]4a
u4']
}nn0.
>k0*
H#;b
{b2_
/l?<
	?)%
@5(q
OZ+M4~>|
}gTHA
_YnJy
joC;.
 hTF
W_Q 
?)/@
?HH1
VQ{b\
{s=A
C#f?
;Tq^
~m9p
fYl,
S>N|J
}D)w>r
.oCW
}0@P
Weh;
>zqF
V!ls_
XzV@y
.Z(6
D|c0
oz#&
1x/A
]MS{
;67v
}g#8z
YtCJ
R!zV
l8 +8
5>*r[
eEYg
!ZOB
4pz.
:#V#,
<jG#
ex[)
2x/*(
$c)j
;Gt%
F=!}
1te#
Myt19ej
B\	2
SgGBW
!.qp
x#h!S
tm.W
)f?O.
33C'
t4Md@|{
V1@$
I3F_
0)iJ^5_
X\W_
tAwx
.^h&
o*/@
5J-+pe
-7_0
kL%y
.(lg
7Gt%
C(?^5Hw
Fz&&
]![%
)	v>
N)b7
>@w1|
D4b`
H<aj|
F*XCT
3xj7
F"5[y
)\\\
H2/g#c
$D5y
Ft%e
a=h=
"mU G
1x/q
(CVN
tRzi
m.Zw%
kR!	
V}L;
V}K;
kR!	
V}L;
V}K?
V}K;
kR!	
V}L;
V}K;
_>U(
*r?G
u	!	
g+',
'	^j
,0dp
aG03
:s[^P
lQ0zF0
;Two
N3{P
]$K"
yW>L
sd+T
`l&&
:F6N56hp
8l9+
n<,h
tF#v@
j@6:K
yN;g2
'G>U
USR_Shohdi_Photo_USR
	kI3
Df{2<
's.z
LNJW
!MO+
\}SP
5-NL$
7smm
~]rh%
$bUC
Q<'Q
6&+"
b$,C
@USYiLZ]
i[|R[Q
[,eA
u/	m^
J$T 
s*Qs,G
P.ved
j(fg
U%u0
H%#oD
87o$
jx _
-=#n
A}7+
+_)U
97om
bcY!
ow%u
97om
bcY!
ow%u
97om
bcY!
ow%u
97om
bcY!
ow%u
97om
bcY!
ow%u
7Z%%k
bo8e
97om
bcY!
ow%u
MGF}
l3Hg
3M%X
'P^~SJJ
3j*U
B-w4
I3eD&
H<#9
Zfkk
C'c]
+5dL(
h	8+
O12{
czF?
2'@y
< tjg
1UGK
%3A{-
c:Vq
x a>
:Zo<2G7
|N?#-
5)Ph
U~|I
+!1T
@%WYi
j,;f
ecY!
2j(f7
m44C
MdB7]a
t]?n
E-64
 kjz
 vj0
<Z-c
?or#
ZO? 
	Hkcf,
~4<F,
0DdI<
a44T'
=gS;
0C+t.
)O\2
97~$;
5[{'
ZG16:}
s)hF
eKuqH<
E!kV
zA~{
MUt5
AAwK$
Lkc,
A(<q
6\cr
r~P8N
3l`1
ow%u
crS;
yg^}SsHFo
bP+C
<x8@
MU[M
/"8-
=lx[
eWwIu
upwBx4
I^de
Yi?Z
M:b'
bcYtW**I
-u`&
WDOU
q?'Lx
HW^	9o|q
w +j
)r^y
7jkPEpV
E4e}
kM4F;
v/:b-
F8pb
~.g7r^
n6?)/
#k86
5l-:
6o4q
u	s%
57C,Qm
o}:q
UNPe
2Zrz
G'8&
U?iQ
f %._<
i.2'
:mAK
>zvA:
UXDlYii 
=1\o
1wh''
#?y%
|!;]
6:9o
xXh_4
9!nl)e
syIb:k
#Ei#
09c	9r
P't@#
gsg-
@IGi
Sw-#
BM`i
Yque
\cyv8X|j
WL"t
QK;%x)
O"8y
L-nlbsK;
)oC*
]:7o
gsch
-uX)
%aWEU
+NZm-
MkcNf
|vG{
q!m?
v9.,[
~Y:7o
v/-j
dnIp
V57#
03$[
5.nl
eSk$
;9om
)@T.
$?y&
<L,=
rJ%]
XS%C
nvX>
,Lu_
v[$V
:*Bc
?ox 
owP>
oxMG>
EW)/
3},J4
e{ZV/8
G'u^k
beY!
ow%u
'?^}S
97pm
bdY!
ox%u
'?]}S
97pm
bdY!
'?]}S
97om
ow%w
97om
bcZ!
ow%u
97on
bcZ!
ow&u
97on
bcZ!
ow&u
97on
bcZ!
ow%u
q?'i&
j nR-
Kxz[G1
mmcc
,,"L
'sMMeJ9
Anzp
Z\@$
{_|1k
,'PZ
@)D;.
?TKW
)(r-[
?"	_E
6'd]
97om
bcY!
ow%u
ss]'
5hcil
hky2
M+q 
!This program cannot be run in DOS mode.
MRich
.text
`.rdata
@.data
.rsrc
QQV3
Ph @@
h@4@
hP2@
SVW3
h82@
h 4@
SVW3
h(3@
h<3@
5\0@
h\3@
ht3@
tjWW
t`9}
5\0@
t$9E
t'9]
X_^[
Wj%Y3
=@@@
u?Wj%Y3
=H@@
Wj%Y3
SWh05@
Th<5@
QWWh,4@
@_^[
VhP5@
Vh\5@
Vhh5@
@@FF
u"!E
hx5@
WVVt
Ph 5@
Y_^[
=D0@
8MZu
5L@@
< w]:
XPVSS
U<"u
h 6@
54@@
ForceRemove
NoRemove
Delete
AppID
CLSID
Component Categories
FileType
Interface
Hardware
Mime
SECURITY
SYSTEM
Software
TypeLib
SOFTWARE
JavaSoft
Java Plug-in
1.6.0_12
UseNewJavaPlugin
SOFTWARE\Microsoft\Internet Explorer\Extensions\{08B0E5C0-4FCB-11CF-AAA5-00401C608501}
\regutils.dll
RegJavaConsoleIExplorer
-new
-old
-high
-jpisetup
-settreatas
\jp2ssv.dll
\ssv.dll
UpdateTreatAsKey
RedirectAllStaticVersionKeys
IsSSVEnabledInMozilla
RemoveAllMozillaJavaPlugins
RedirectAllStaticVersionKeys
HKLMNeedsUpdating
CheckMozJavaPlugins
RunBrokerProcess
RedirectAllStaticVersionKeys
ForceRemove
NoRemove
Delete
AppID
CLSID
Component Categories
FileType
Interface
Hardware
Mime
SECURITY
SYSTEM
Software
TypeLib
shell32.dll
SHGetFolderPathEx
SOFTWARE
JavaSoft
Java Plug-in
UseNewJavaPlugin
SOFTWARE
JavaSoft
Java Plug-in
JavaHome
CLSID
TreatAs
=L9o<
RSDS
C:\BUILD_~1\jdk6_12\control\build\WINDOW~1\tmp\deploy\plugin\ssvagent\obj\ssvagent.pdb
RegCloseKey
RegOpenKeyExA
RegSetValueExA
RegDeleteKeyA
RegEnumKeyA
RegQueryValueExA
ADVAPI32.dll
USER32.dll
_mbscmp
_except_handler3
_local_unwind2
free
__p___argc
__p___argv
_splitpath
MSVCR71.dll
__dllonexit
_onexit
_c_exit
_exit
_XcptFilter
_ismbblead
_cexit
exit
_acmdln
_amsg_exit
__getmainargs
_initterm
__setusermatherr
_adjust_fdiv
__p__commode
__p__fmode
__set_app_type
_controlfp
InterlockedExchange
GetACP
GetLocaleInfoA
GetThreadLocale
GetVersionExA
InitializeCriticalSection
DeleteCriticalSection
FreeLibrary
GetProcAddress
LoadLibraryA
WideCharToMultiByte
GetLongPathNameA
GetShortPathNameA
GetModuleFileNameA
GetModuleHandleA
CloseHandle
GetLastError
CreateFileA
lstrlenW
GetStartupInfoA
KERNEL32.dll
CoTaskMemFree
StringFromCLSID
ole32.dll
memset
__security_error_handler
ExitProcess
QueryPerformanceCounter
GetTickCount
GetCurrentThreadId
GetCurrentProcessId
GetSystemTimeAsFileTime
<?xml version="1.0" encoding="UTF-8" standalone="yes"?>
<assembly xmlns="urn:schemas-microsoft-com:asm.v1" manifestVersion="1.0"> 
  <assemblyIdentity version="6.0.120.4"
     processorArchitecture="X86"
     name="ssvagent.exe"
     type="win32"/> 
  <description>Java(TM) SE Runtime Environment SSV Agent Process.</description> 
  <!-- Identify the application security requirements. -->
  <trustInfo xmlns="urn:schemas-microsoft-com:asm.v3">
    <security>
      <requestedPrivileges>
        <requestedExecutionLevel
          level="asInvoker"
          uiAccess="false"/>
        </requestedPrivileges>
       </security>
  </trustInfo>
</assembly>
Y0W03
>0 0
@5h_
VeriSign, Inc.1+0)
"VeriSign Time Stamping Services CA0
070615000000Z
120614235959Z0\1
VeriSign, Inc.1402
+VeriSign Time Stamping Services Signer - G20
J[/K
5TX5
6^bMRQ4q
JcEG.k
(0&0$
http://ocsp.verisign.com0
,0*0(
"http://crl.verisign.com/tss-ca.crl0
TSA1-20
u6t:
!?DA	
y>]r}
Western Cape1
Durbanville1
Thawte1
Thawte Certification1
Thawte Timestamping CA0
031204000000Z
131203235959Z0S1
VeriSign, Inc.1+0)
"VeriSign Time Stamping Services CA0
_zj1.
XWou
(0&0$
http://ocsp.verisign.com0
:0806
0http://crl.verisign.com/ThawteTimestampingCA.crl0
TSA2048-1-530
?7!Op1
Ief8
VeriSign, Inc.1705
.Class 3 Public Primary Certification Authority0
040716000000Z
140715235959Z0
VeriSign, Inc.1
VeriSign Trust Network1;09
2Terms of use at https://www.verisign.com/rpa (c)041.0,
%VeriSign Class 3 Code Signing 2004 CA0
"'$l8
q,]!
HRHo8
=0;09
0*0(
https://www.verisign.com/rpa01
*0(0&
 http://crl.verisign.com/pca3.crl0
Class3CA2048-1-430
==d6|h
a0_1
VeriSign, Inc.1705
.Class 3 Public Primary Certification Authority
yg#$
/cU}
,w:J
VeriSign, Inc.1
VeriSign Trust Network1;09
2Terms of use at https://www.verisign.com/rpa (c)041.0,
%VeriSign Class 3 Code Signing 2004 CA0
060614000000Z
090715235959Z0
California1
	Palo Alto1
Sun Microsystems, Inc.1>0<
5Digital ID Class 3 - Microsoft Software Validation v21
Sun Microsystems1
Sun Microsystems, Inc.0
eyyi
[W=?
90705
/http://CSC3-2004-crl.verisign.com/CSC3-2004.crl0D
=0;09
0*0(
https://www.verisign.com/rpa0
i0g0$
http://ocsp.verisign.com0?
3http://CSC3-2004-aia.verisign.com/CSC3-2004-aia.cer0
==d6|h
	/6+
'dSO
g6\k
Mk,Q:
VeriSign, Inc.1
VeriSign Trust Network1;09
2Terms of use at https://www.verisign.com/rpa (c)041.0,
%VeriSign Class 3 Code Signing 2004 CA
,w:J
1p0n
http://java.com/0
k'_|{
t0#PE
0g0S1
VeriSign, Inc.1+0)
"VeriSign Time Stamping Services CA
090117203301Z0#
d4j^
%Gc&
^cUG
fh9Z
USR_Shohdi_Photo_USR`x
>MZx
GetProcAddress
USER32.DLL
ADVAPI32.DLL
MPR.DLL
WSOCK32.DLL
SHELL32.DLL
URLMON.DLL
Angry Angel v3.0
DllHasRun
SYSTEM\CurrentControlSet\Services\LanmanServer\Parameters
AutoShareServer
SYSTEM\CurrentControlSet\Services\LanmanServer\Parameters
AutoShareWks
SYSTEM\CurrentControlSet\Services\LanmanServer\Parameters
AutoShareServer
SYSTEM\CurrentControlSet\Services\LanmanServer\Parameters
AutoShareWks
V(PT
SOFTWARE\Microsoft\Windows\CurrentVersion\Run
Serverx
VtX3
VLPTj
VTX=
VLTj
OpenMutexA
DeleteFileA
GetSystemTime
GetComputerNameA
WideCharToMultiByte
TerminateThread
CreateThread
_lcreat
GetSystemDirectoryA
VirtualAllocEx
WaitForSingleObject
CloseHandle
CreateKernelThread
CreateRemoteThread
WriteProcessMemory
OpenProcess
GetCurrentProcessId
RegisterServiceProcess
Sleep
_lclose
_llseek
_lwrite
_lread
_lopen
SetFileTime
SetFileAttributesA
FindClose
FindNextFileA
FindFirstFileA
SetCurrentDirectoryA
GetDriveTypeA
WinExec
GetCommandLineA
GetLastError
CreateMutexA
LoadLibraryA
ShowCursor
wsprintfA
SendMessageA
GetWindow
MessageBoxA
FindWindowA
GetWindowThreadProcessId
RegNotifyChangeKeyValue
RegQueryValueExA
RegSetValueExA
RegOpenKeyA
WNetCloseEnum
WNetEnumResourceA
WNetOpenEnumA
recv
closesocket
socket
connect
gethostbyname
htons
send
WSACleanup
WSAStartup
ShellExecuteA
URLDownloadToFileA
\setupx.exe
\updatex.exe
\Serverx.exe
TRPS
    =winn
=windtz
$*.*
t4TS
    
=.exet
=.scrt
RQPS
ylPz
G(+C
V4Xf=`
GPY+K
This program must be run under Win32
SCODE
`DATA
.idata
.reloc
%00@
KERNEL32.dll
Sleep
V8XY
Serverx
wXTWj
|Xh@
C:\setupx.dll
http://vguarder.91i.net/SETUPX.EXE
C:\setupx.dll
C:\setupx.dll
 DE 
!This program cannot be run in DOS mode.
LRich
.text
.data
.rsrc
msvcrt.dll
ADVAPI32.dll
KERNEL32.dll
NTDLL.DLL
GDI32.dll
USER32.dll
WINMM.dll
WSOCK32.dll
ws2_32.DLL
COMCTL32.dll
ole32.dll
OLEAUT32.dll
SHLWAPI.dll
SHELL32.dll
CRYPT32.dll
NMAS.dll
MST120.dll
NETAPI32.dll
U=wNBDw
R>w5S>w
P>w~@=w
Wwh OwL Ow
TwZ+Ow
yWwyYWw3NQw	`Rw
TYPELIB
CLSID
Delete
NoRemove
ForceRemove
rUvz
Run Always
NoFullDuplex
SOFTWARE\Policies\Microsoft\Conferencing
NoChangeDirectSound
Direct Sound
Auto Mix
Auto Gain Control
Full Duplex
Sound Card Capabilities
CreateH323CC
h323cc.dll
Codec Choice
Microphone Sensitivity
Automatic Mic Sensitivity
Typical BandWidth
RecordMute
SpeakerMute
Calibrated Volume
WaveIn Device ID
WaveOut Device ID
Timeout
NMAutoConf_WaitEvent
NetMtg.Install.NMRK
NetMeeting
ConfigFile
Use AutoConfig
#'+.1479<>@BDFHJLNPQSUVXY[\^_abcefgijklnopqrsuvwxyz{|}~
Speaker Volume
WaveOut Device Name
WaveIn Device Name
Last Calibrated Volume
TestSnd.Wav
CONF.EXE ATW Event Handle
CallingMethod
GateKeeperAddressing
H.323 Gateway
Enable H.323 Gateway
CallTimeout
Account
Phonenum
Gatekeeper
%s%d.dat
%s%s
.dat
Max Entries
File
Expire
CallSecurity
false
true
h323
data
password
conference
secure
gateway
callto:
directory
host
phone
type
NetMeeting Root
Root
SecureAuthentication
1.3.6.1.5.5.7.3.2
NmCertID
CertSelectCertificateA
CRYPTDLG
CertViewPropertiesA
_NMSTR
netmeet.htm
DS Do Not Disturb Warning
5.1.2600.2180
IntranetSupportURL
NetMeeting Home Page
NetMeeting_EndSession
ConfESHiddenWindow
ShowFirstTimeURL
DontUseULS
NoRDS
SetProcessDefaultLayout
USER32
"%s\rundll32.exe" msconf.dll,CleanupNetMeetingDispDriver %ld
DS Machine Name Warning
Capture Device ID
SOFTWARE\Microsoft\Conferencing\Video Control
User Name
WindowHeight
WindowWidth
WindowY
WindowX
HKEY_CURRENT_CONFIG
HKEY_DYN_DATA
HKEY_PERFORMANCE_DATA
HKEY_USERS
HKEY_LOCAL_MACHINE
HKEY_CURRENT_USER
HKEY_CLASSES_ROOT
HKCC
HKDD
HKPD
HKLM
HKCU
HKCR
MS_AutodialMonitor
mnmsrvc
ServicesActive
SOFTWARE\Microsoft\Conferencing\Mcpt
.tlb
DISPLAY
AtlAxWin
CONF:ShuttingDown
RDS:Call
RDS:Active
RDS:Pause
rUvz
UnRegisterTypeLib
oleaut32.dll
Call was rejected
IMessageFilter
WM_ATLGETCONTROL
WM_ATLGETHOST
F,/@
@Qm6t
F`,@
#32770
SOFTWARE\Microsoft\Conferencing\Log\Incoming
CallLog
Software\Microsoft\Internet Audio\ACMH323Encodings
WizardNoUI
WizardUI
Start
System\CurrentControlSet\Services\mnmdd
DefDir
SOFTWARE\Microsoft\Conferencing\UI\CallMRU
\Microsoft\Internet Explorer\Quick Launch
CONF:Init
RegServer
UnregServer
Embedding
Fp5@
AXWIN Frame Window
ATL:%8.8X
AXWIN UI Window
DEST
NoChat
NoReceivingFiles
NoSendingFiles
NoOldWhiteBoard
NoNewWhiteBoard
PreferSecureOutgoingCalls
StatusBar
NoWebDirectory
NmMakeCert
NMMKCERT.DLL
Server Name
IntranetWebDirName
IntranetWebDirServer
IntranetWebDirURL
NoAutoAcceptCalls
PersistAutoAcceptCalls
AutoAccept
RegisteredOwner
SOFTWARE\Microsoft\Windows\CurrentVersion
logon.netmeeting.microsoft.com
ConfHiddenWindow
NoReceivingVideo
NoSendingVideo
NoVideoPage
NoAudio
NoAudioPage
NoSecurityPage
NoGeneralPage
tooltips_class32
Type
Addr
Name
DirSortColumn
DirSortAscending
DirColumnWidths
DirColumnOrder
NoDirectoryServices
SOFTWARE\Microsoft\Conferencing\UI\Directory
8W]	
NoAddingDirectoryServers
button
SysListView32
DirectSoundCaptureCreate
DirectSoundCaptureEnumerateA
DirectSoundCreate
DirectSoundEnumerateA
DSOUND.DLL
FT_CreateInterface
nmft.dll
FieldPos
(&(objectClass=RTPerson)(cn=%s)%s)
(&(objectClass=RTPerson)(cn=%s)(sappid=ms-netmeeting)(sprotid=h323)%s)
sFlags
givenName
surName
location
comment
ilsA26214430
ilsA26279966
ilsA32833566
ilsA32964638
ilsA39321630
o=Microsoft
DirExpire
DirCache
2.11
objectClass=RTPerson
boost
gain
%s%d
Count
Telephone
RemoteNoPause
PreviewNoPause
RemoteOnly
PreviewOnly
DataOnly
Full
mode
MaxFileSendSize
Receive Directory
SOFTWARE\Microsoft\Conferencing\File Transfer
ADEST
Don't Publish
Client ID
Location
Comments
Email Name
First Name
Last Name
sport
1720
1503
sprotmimetype
text/h323
text/t120
sprotid
t120
sappguid
008aff194794cf118796444553540000
smimetype
text/iuls
sappid
ms-netmeeting
smodop
ilsA26214430
%u.%u.%u.%u
sipaddress
(&(objectClass=RTPerson)(cn=%s))
(&(objectClass=RTPerson)(cn=%s)(sttl=10))
c=-,o=Microsoft,cn=%s,objectClass=RTPerson
ilsA26279966
ssecurity
ilsA39321630
ilsA32964638
ilsA32833566
sflags
comment
location
rfc822mailbox
surname
givenname
sttl
CNmLDAP_WCNAME
DrawDibSetPalette
DrawDibClose
DrawDibOpen
DrawDibDraw
MSVFW32.DLL
SetupCloseInfFile
SetupOpenInfFileA
SetupInstallFromInfSectionA
SETUPAPI.DLL
InternetCloseHandle
InternetQueryDataAvailable
InternetReadFile
InternetOpenUrlA
InternetSetStatusCallback
InternetOpenA
WININET.DLL
ldap_get_option
ldap_delete
ldap_modify
ldap_value_free
ldap_unbind
ldap_simple_bind_s
ldap_set_option
ldap_search_s
ldap_search
ldap_result
ldap_init
ldap_open
ldap_next_entry
ldap_next_attribute
ldap_msgfree
ldap_get_values
ldap_first_entry
ldap_first_attribute
ldap_add
ldap_bind
ldap_bind_s
ldap_abandon
wldap32.dll
Shell_TrayWnd
TrayNotifyWnd
SecurityDetails
msctls_trackbar32
NMTrackbar
"%s\Rundll32.exe" shell32.dll,Control_RunDLL desk.cpl,,1
SOFTWARE\Microsoft\Conferencing\Video Control\Local
MSWHEEL_ROLLMSG
Resolve Name
RequireSecureIncomingCalls
DESK.CPL
InstallGraphicsDriver
CSDVersion
System\CurrentControlSet\Control\Windows
SeShutdownPrivilege
Arial
.cnf
*.cnf
ConferenceShortcut
ConfName
Address
Transport
RemoteConfName
CallFlags
Password
SpeedDialFolder
STATIC
ComboBoxEx32
ComboBox
Edit
Button
conf.exe
Software\Microsoft\User Location Service\Client
SOFTWARE\Microsoft\Conferencing\Audio Control
SOFTWARE\Microsoft\Conferencing\UI
SOFTWARE\Microsoft\Conferencing
Background
button
edit
NMWindowClass
MPWClass
MPFloatWClass
MPPopupMsgWClass
ConfRebarFrameClass
ConfAudioBandClass
ConfAudioLevelBandClass
SysListView32
conf.hlp
MaximumBandwidth
Taskbar Icon
conf.chm
NoRDSWin9x
WindowState
Wb32MainWindowClass
SOFTWARE\Microsoft\Conferencing\Tools
Microsoft NetMeeting
SOFTWARE\Microsoft\Windows\CurrentVersion\Run
Xchg_TAPIVideoRelease
NoChangingCallMode
NoAdvancedCalling
Enable Proxy
Proxy
COMBOBOX
"%s%s" -%s
NodeControllerName
Capture Device Name
ImageQuality
XferOnConnect
SOFTWARE\Microsoft\Conferencing\Video Control\Remote
Mirror
FrameSize
NMRemoteVideo
NMLocalVideo
GetNumCaptureDevices
FindFirstCaptureDeviceByIndex
FindFirstCaptureDevice
dcap32.dll
SMTP
callto://
SMTP
6Software\Microsoft\WAB\DLLPath
WAB32DLL.dll
WABOpen
%s%s/%s
Software\Microsoft\User Location Service\Client
First Name
Last Name
Email Name
Location
Comments
Don't Publish
Resolve Name
User Name
%s%s\%s.lnk
InterlockedCompareExchange
InterlockedPopEntrySList
InterlockedPushEntrySList
IsProcessorFeaturePresent
kernel32.dll
n i3%
%D,3
FDllGetVersion
ForceNpxEmulation
System\CurrentControlSet\Control\Session Manager
conf.hlp
hhctrl.ocx
shlwapi.dll
NmUtil_HtmlHelpMarshalWnd
NMGenWindowClass
NMEdgedWindow
NetMeeting::FromHandle
NMToolbar
NMSeparator
NMLayeredView
combobox
NMComboBox
SOFTWARE\Classes\http\shell\open\command
InstallationDirectory
 (%d).%s
DllGetClassObject
dsound.dll
Microsoft Base Cryptographic Provider v1.0
*              
NetMeetingPing
icmp.dll
IcmpSendEcho
IcmpCloseHandle
IcmpCreateFile
EnableAutodial
Software\Microsoft\Windows\CurrentVersion\Internet Settings
RasGetAutodialParamW
rasapi32.dll
NMButton
NMBorderWindow
shlwapi.dll
PathRemoveFileSpecA
RSDS
conf.pdb
t%Wh
Q,_^]
|.9}
t.It&It
Iu%3
<SVW3
t.Sh	
t.Sh+
@PSh,
VSh+
VVSh
0Sh	
VVhK
QPhC
>_^]
jbX]
jcX;
t	9^ 
u<Sh
H8t>
QQS3
@[_^
@Wj	Y3
u-Wj	Y3
_^[]
SSVW
Htt-p
98t;
WWhG
WPhP
WWhG
WPhP
_^[]
NSVW
j@hCN
j	Y3
	5XnE
	5XnE
u39F4
F49E
F09E
9FDw
$VWj
9FDw
9~$t
jAY3
VVVVVVVj
^@SP
h8 @
F(Ph$ @
FHPh
=,zE
tr=8
9X t
PShp
tjSj
tk=5
tY=8
=,zE
NVWt'
tY=1
t@=8
=,zE
58hE
ItrItOj
t<Iu9
WVVV
 uXVVV
v/VVV
 uXVVV
v/VVV
 u[j
 uFj
 u-j
 u[j
 uFj
 u-j
_^[]
SVW3
_^[]
@WPW
tKWWh
hO @
hO @
@_^[
5`hE
=XhE
hP @
5`hE
%XhE
YhP @
ohO @
%lhE
5PhE
=XhE
5`hE
5`hE
5`hE
5`hE
=HhE
5HhE
5HhE
=HhE
WPt'h!
5`hE
hO @
%\hE
=,zE
9Bxv
9B|w1
%lhE
%\hE
95HhE
5lhE
5\hE
SVW3
SWhq
9xlu
Hp99t
9xtu
5|hE
WSSS
ShthE
5phE
5phE
9xhw
9xlv
9xpwe9xtw`
Hh99r
9xls
Hp99r
9xts
5phE
5phE
tDHHt
vW)E
PWhC
WWhF
uVj0
WWhF
PWhC
WWhQ
WWhN
PWhC
WWhF
WWhF
PWhC
WWhQ
WWhN
9=,zE
Wt(j
WWhF
WWhG
WPhP
WWhG
WPhP
SVW3
h$ @
h8 @
~,WVh'
_t?;
t=9]
t8VW
$SVW
E(_^[
C8_^[]
$A<.t
!This program cannot be run in DOS mode.
Rich)
.text
.data
.rsrc
ADVAPI32.dll
KERNEL32.dll
NTDLL.DLL
GDI32.dll
USER32.dll
OCMANAGE.dll
SHELL32.dll
SETUPAPI.dll
sysocmgr: level 0x%08x error: %S
sysocmgr: %S
Kernel32.dll
CreateActCtxW
ActivateActCtx
DeactivateActCtx
FindActCtxSectionStringW
QueryActCtxW
GetModuleHandleExW
IsolationAware function called after IsolationAwareCleanup
NetApiBufferFree
NetServerGetInfo
Comctl32.dll
InitCommonControlsEx
CreatePropertySheetPageW
PropertySheetW
CorExitProcess
mscoree.dll
runtime error 
TLOSS error
SING error
DOMAIN error
R6028
- unable to initialize heap
R6027
- not enough space for lowio initialization
R6026
- not enough space for stdio initialization
R6025
- pure virtual function call
R6024
- not enough space for _onexit/atexit table
R6019
- unable to open console device
R6018
- unexpected heap error
R6017
- unexpected multithread lock error
R6016
- not enough space for thread data
This application has requested the Runtime to terminate it in an unusual way.
Please contact the application's support team for more information.
R6009
- not enough space for environment
R6008
- not enough space for arguments
R6002
- floating point not loaded
Microsoft Visual C++ Runtime Library
Runtime Error!
Program: 
<program name unknown>
GetProcessWindowStation
GetUserObjectInformationA
GetLastActivePopup
GetActiveWindow
MessageBoxA
user32.dll
NB10
sysocmgr.pdb
u9Vh@
xu	3
GWVh
u]hl
t/hD
Pjej
_^t	
uq95
t[95
PSSj
PSSSSSSh 
SUV3
|$$3
@@hL
S@@hH
8:u(
f90t 
PVhc
D$$P
j\[SV
D$$Ph
D$$Ph
PWhf
PWWh {
Phf,
PVh {
PWhb
Phf,
PWhd
uI9=
xu h
u+9}
t&9}
Ht&Hu1
uI9=
xu h
u+9}
t&9}
QPhb
Vjj^t^9
E`B;
8MZu
Y_^[
AABBf
r	f=Z
r	f=Z
 AABB
t>f;
Yr&f
taf=/
tO+}
SVW3
>=Yt
t9VP
4~f9.u
Y[_^]
8"u*
_^[t
QQSVWh
PWS3
t0SSj
ti8]
_^][YY
_[^]
VC20XC00U
SVWU
tEVU
t3x<
]_^[
uiSj
j?^;
GGBBf
VWumh8
tzVS
GIt%
t/Ku
SVWUj
]_^[
t.;t$$t(
j$hH
u5SSWhD
t	@@;
9] u
Y9E t
E SSSS
t;9u
HSVWj
j4h`
t WW
WWWWVSW
WWVPVSW
j$hp
F9=lt
PVhD
WWWW
Yu+Vj
95pt
GWhD
RegCloseKey
RegQueryValueExW
RegOpenKeyExW
AdjustTokenPrivileges
LookupPrivilegeValueW
OpenProcessToken
FreeSid
EqualSid
AllocateAndInitializeSid
GetTokenInformation
OpenThreadToken
ADVAPI32.dll
FormatMessageW
lstrcpynW
GetModuleHandleA
GetLastError
GetModuleHandleW
GetProcAddress
LoadLibraryW
SetLastError
GetModuleFileNameW
OutputDebugStringA
FreeLibrary
lstrcmpiW
lstrcpyW
WideCharToMultiByte
GetCurrentProcess
GetCurrentThread
GetFullPathNameW
ExpandEnvironmentStringsW
SetCurrentDirectoryW
GetCurrentDirectoryW
LoadLibraryA
ReleaseMutex
Sleep
CloseHandle
CreateThread
CreateMutexW
lstrcatW
GetVersionExW
VirtualProtect
LocalFree
GetCurrentProcessId
LocalAlloc
GetVersionExA
HeapFree
HeapAlloc
ExitProcess
WriteFile
GetStdHandle
GetModuleFileNameA
UnhandledExceptionFilter
FreeEnvironmentStringsA
MultiByteToWideChar
GetEnvironmentStrings
FreeEnvironmentStringsW
GetEnvironmentStringsW
GetCommandLineA
GetCommandLineW
SetHandleCount
GetFileType
GetStartupInfoA
HeapDestroy
HeapCreate
VirtualFree
VirtualAlloc
HeapReAlloc
RtlUnwind
LCMapStringA
LCMapStringW
GetSystemInfo
VirtualQuery
GetLocaleInfoA
GetCPInfo
GetStringTypeA
GetStringTypeW
KERNEL32.dll
GetDeviceCaps
GDI32.dll
MessageBoxW
LoadStringW
wvsprintfW
ExitWindowsEx
LoadCursorW
MoveWindow
SystemParametersInfoW
GetWindowRect
SetCursor
EndDialog
DialogBoxParamW
SendMessageW
SetWindowLongW
PostMessageW
GetParent
AllowSetForegroundWindow
ReleaseDC
GetDC
USER32.dll
OcTerminate
OcInitialize
OcRememberWizardDialogHandle
OcCreateSetupPage
OcCreateOcPage
OcSubComponentsPresent
OcGetWizardPages
OCMANAGE.dll
SHELL32.dll
DbgPrintEx
ntdll.dll
pSetupFree
SETUPAPI.dll
<?xml version="1.0" encoding="UTF-8" standalone="yes"?>
<assembly xmlns="urn:schemas-microsoft-com:asm.v1" manifestVersion="1.0">
<assemblyIdentity
    version="5.1.0.0"
    processorArchitecture="x86"
    name="Microsoft.Windows.SysOCMgr"
    type="win32"
<description>SysOCMgr</description>
<dependency>
    <dependentAssembly>
        <assemblyIdentity
            type="win32"
            name="Microsoft.Windows.Common-Controls"
            version="6.0.0.0"
            processorArchitecture="x86"
            publicKeyToken="6595b64144ccf1df"
            language="*"
        />
    </dependentAssembly>
</dependency>
</assembly>
""'xw
""""z
"""'z
"""'
**"'
**"x
**"x
~nnnnnnngx
nnngwwp
wwwx
wwwwwwww
wwwwwwwwwx
wwwwwwx
wwww
wwwx
wwwww
nnnn
nnwww
wwwwx
wwwwwx
wwww
wwwq
wwwwp
wwwwww
W7'''''7A
C#[/>iiD>8!#7
SSSSSSSS
WU'%]469=EFHJNl0#A
!d"(.469=EFHJMTr
$(.469=EFHJ
$(.469=EFM
$(.469=ET
P!AW
$(.469F
$(.46J
fm,&
%53,&
/953,&
]:953,&
XYYYYO#
i=:953,&H
	d*g
Ysssssss
i=;:953,M
qqqqqqq)A
m:::::::R
svvvvvvvgA
]:::::::M
B$1_`ajbgA
^::::::;M
K[d[
$(.469+A
)::::EMT
$(.46%A
`=JS
$(]#
R:953,&
=:953,&
TFB=:953,&
RHEB=:953,&
HEB=:953,&"\f
xgsTMJ
HEB=:953-\2
nNMJ
HEB=:`^[@
8nDDbih/[g
x!!ff
?[8?GOQY
0c%%\\))8?GlQV
lc%%\\))dd++ee//>nl
ed))dd++ee///^^^O
{{]^///^^^^Q
SMJJ
}zwmmhvLHFFHJMZ
YYYY
}}}yyyti=BF
JMRS
}}}yyytt
JMRS
}}}yyyttp
JMRT
}}}yyyttpD
OMRT
}}}yyyttppGW
luunniiDu
UBFU
R@55B
46*+5
+#-28<
CE=+FU
x.BU
&,[7
&,[\C
$(" 
!"%,[M
WWWtF>
Swwwj=B>
{A5>
777\;
/_]`n5>
\\\;C
2"&,\45>
(%" 
V<8\
,%" 
;8721^.
<930>
AADIN
*.**)
6AD}II
uee*))))00
||offZZZJj
~~vvvlia<<
~~vvphh
?CGM
~~vvpphc_
dnzzqqmhcd
KKKKQKT
KKKK
ErT,-468
.:><1
!%);
~{onyR
wv}|
zmg]/0
MfSI*
xthbZQO;?
ulid\VL
MMMMMMMMMMMM
&888
3HHH
S0  
LUUU
gU99
;;;Ueee
SSS)}}}
```H
aaaH
bbbH
cccH
dddH
eeeH
eeeH
fffH
gggH
iiiH
jjjH
kkkH
lllH
mmmH
mmmH
nnnH
oooH
pppH
rrrH
sssH
tttH
uuuH
vvvH
vvvH
wwwH
xxxH
nIIY
yyyH
N;;S
{{{H
|||H
{{{I
---2
wwwL
sssc
OOOt
III 
xxxu
bbb1
xxxe
&;;;
{0  
&LLL
ccc_
iiic
jjjb
kkkb
kkkb
lllb
nnnb
ooob
qqqb
rrrb
tttb
uvwb
O44`
{{{f
...'
wwwX
Dooo'MMM
GGGZ
=ccc#
heee"
hhh"
lkk"
mno"
_qv}"
.uy}"
0  D
www#
5""G
lll$
ooo5
TEEE
RIFF
AVI LIST
hdrlavih8
G\AN
LIST
strlstrh8
vidsRLE 
strfh
vedt
JUNK
LISTv$
movi00dc(
00dc
00dc
00dcR
00dc
00dc\
00dc$
00dc&
00dc$
00dc 
00dc$
00dc
00dc
00dc
00dc<
00dcX
00dc
00dc
00dcz
00dcr
00dcb
00dc8
00dc
00dc
00dc
00dc
idx1
00dc
00dc
00dc
00dc
00dc
00dc
00dc
00dc
00dc
00dc
00dc
00dc
00dc
00dc
00dc
00dc
00dc
00dc
00dc
00dc
00dc
00dc
00dc
00dc
00dc
00dc
DDDDDDDDDDDDDDDDDDDDDDDD@
DDDDDDDDDDDDDDDDDDDDDDDD@
DDDDDDDDDDDDDDDDDDDDDDDD@
DDDDDDDDDDDDDDDDDDDDDDDD@
@@@@D@@@@@@@@@@@@@@@@@@@@@@@@@@@@@@@@@@@@@@@@@@@@@@@@@@@@@@@@@@@@@@@@@@@@@@@@@@@@@
DDDD
@@@DDDDDD@@@@@@@@@@@@@@@@@@@@@@@@@@@@@@@@@@@@@@@@@@@@@@@@@@@@@@@@@@@@@@@@@@@@@@@@@
DDDDDDDDD
@@DDD@@@DDDDDDD@@@@@@@@@@@@@@@@@@@@@@@@@@@@@@@@@@@@@@@@@@@@@@@@@@@@@@@@@@@@@@@@@@@
DDDDDDD
@DDDD@@@@@@@DDDDDDD@@@@@@@@@@@@@@@@@@@@@@@@@@@@@@@@@@@@@@@@@@@@@@@@@@@@@@@@@@@@@@@
DDDDDDD
DDDDD
DD@DD@@@@@@@@@@@@DDDDDD@@@@@@@@@@@@@@@@@@@@@@@@@@@@@@@@@@@@@@DDDDDDDDDDDD@@@@@@@@@
DDDDDDD
DDDDDDDDDDDDDDDDD
D@@DD@@@@@@@@@@@@@@@@DDDDDD@@@@@@@@@@@@@@@@@@@@@@@@@@@@@@DDDDDDDDDDDDDDDDDDDD@@@@@
DDDDDDD
DDDDDDDDDDDDDDDDDDDDDDD
@@@DD@@@@@@@@@@@@@@@@@@@@@DDDDDDD@@@@@@@@@@@@@@@@@@@@@DDDDDDDDDDDDDDDDDDDDDDDDDDD@
DDDDDD
DDDDDDDDDDDDDDDDDDDDDDDDDDDDD
@@@DD@@@@@@@@@@@@@@@@@@@@@@@@@DDDDDDD@@@@@@@@@@@@@@@DDDDDDDDDDDDDDDDDDDDDDDDDDDDDD
DDDDDDD
DDDDDDDDDDDDDDDDDDDDDDDDDDDDDDD
@@@DD@@@@@@@@@@@@@@@@@@@@@@@@@@@@@DDDDDDD@@@@@@@@@DDDDDDDDDDDDDDDDDDDDDDDDDDDDDDDD
DDDDDDD
DDDDDDDDDDDDDDDDDDDDDDDDDDDDDDDD
@@@DD@@@@@@@@@@@@@@@@@@@@@@@@@@@@@@@@@DDDDDDD@@@DDDDDDDDDDDDDDDDDDDDDDDDDDDDDDDDDD
DDDDDD
DDDDDDDDDDDDDDDDDDDDDDDDDDDDDDDDDD
@@@DD@@@@@@@@@@@@@@@@@@@@@@@@@@@@@@@@@@@@@@@DDDDDDDDDDDDDDDDDDDDDDDDDDDDDDDDDDDDDD
DDDDDDDDDDDDDDDDDDDDDDDDDDDDDDDDDDDD
@@@DD@@@@@@@@@@@@@@@@@@@@@@@@@@@@@@@@@@@@@@@@@DDDDDDDDDDDDDDDDDDDDDDDDDDDDDDDDDDDD
DDDDDDDDDDDDDDDDDDDDDDDDDDDDDDDDDDDD
@@@DD@@@@@@@@@@@@@@@@@@@@@@@@@@@@@@@@@@@@@@@@DDDDDDDDDDDDDDDDDDDDDDDDDDDDDDDDDDDDD
DDDDDDDDDDDDDDDDDDDDDDDDDDDDDDDDDDDDD
@@@DD@@@@@@@@@@@@@@@@@@@@@@@@@@@@@@@@@@@@@@@DDDDDDDDDDDDDDDDDDDDDDDDDDDDDDDDDDDDDD
DDDDDDDDDDDDDDDDDDDDDDDDDDDDDDDDDDDDDD
DD@DD@@@@@@@@@@@@@@@@@@@@@@@@@@@@@@@@@@@@@@DDDDDDDDDDDDDDDDDDDDDDDDDDDDDDDDDDDDDDD
DDDDDDDDDDDDDDDDDDDDDDDDDDDDDDDDDDDDDDD
D@@DD@@@@@@@@@@@@@@@@@@@@@@@@@@@@@@@@@@@@@DDDDDDDDDDDDDDDDDDDDDDDDDDDDDDDDDDDDDDDD
DDDDDDDDDDDDDDDDDDDDDDDDDDDDDDDDDDDDDDDD
@@@DD@@@@@@@@@@@@@@@@@@@@@@@@@@@@@@@@@@@@DDDDDDDDDDDDDDDDDDDDDDDDDDDDDDDDDDDDDDDDD
DDDDDDDDDDDDDDDDDDDDDDDDDDDDDDDDDDDDDDDDD
@@@DD@@@@@@@@@@@@@@@@@@@@@@@@@@@@@@@@@@@DDDDDDDDDDDDDDDDDDDDDDDDDDDDDDDDDDDDDDDDDD
DDDDDDDDDDDDDDDDDDDDDDDDDDDDDDDDDDDDDDDDDD
@@@DD@@@@@@@@@@@@@@@@@@@@@@@@@@@@@@@@@@DDDDDDDDDDDDDDDDDDDDDDDDDDDDDDDDDDDDDDDDDD@
DDDDDDDDDDDDDDDDDDDDDDDDDDDDDDDDDDDDDDDDDD
@@@DD@@@@@@@@@@@@@@@@@@@@@@@@@@@@@@@@@@DDDDDDDDDDDDDDDDDDDDDDDDDDDDDDDDDDDDDDDDDD@
DDDDDDDDDDDDDDDDDDDDDDDDDDDDDDDDDDDDDDDDDD
D@@DD@@@@@@@@@@@@@@@@@@@@@@@@@@@@@@@@@DDDDDDDDDDDDDDDDDDDDDDDDDDDDDDDDDDDDDDDDDDD@
DDDDDDDDDDDDDDDDDDDDDDDDDDDDDDDDDDDDDDDDDDD
DD@DD@@@@@@@@@@@@@@@@@@@@@@@@@@@@@@@@DDDDDDDDDDDDDDDDDDDDDDDDDDDDDDDDDDDDDDDDDDD@@
DDDDDDDDDDDDDDDDDDDDDDDDDDDDDDDDDDDDDDDDDD
D@@DD@@@@@@@@@@@@@@@@@@@@@@@@@@@@@@@@DDDDDDDDDDDDDDDDDDDDDDDDDDDDDDDDDDDDDDDDDDD@@
DDDDDDDDDDDDDDDDDDDDDDDDDDDDDDDDDDDDDDDDDDD
@@@DD@@@@@@@@@@@@@@@@@@@@@@@@@@@@@@@DDDDDDDDDDDDDDDDDDDDDDDDDDDDDDDDDDDDDDDDDDD@@@
DDDDDDDDDDDDDDDDDDDDDDDDDDDDDDDDDDDDDDDDDDDD
@@@DD@@@@@@@@@@@@@@@@@@@@@@@@@@@@@@@DDDDDDDDDDDDDDDDDDDDDDDDDDDDDDDDDDDDDDDDDDD@@@
DDDDDDDDDDDDDDDDDDDDDDDDDDDDDDDDDDDDDDDDDDD
@@@DD@@@@@@@@@@@@@@@@@@@@@@@@@@@@@@DDDDDDDDDDDDDDDDDDDDDDDDDDDDDDDDDDDDDDDDDDDD@@@
DDDDDDDDDDDDDDDDDDDDDDDDDDDDDDDDDDDDDDDDDDDD
@@@DD@@@@@@@@@@@@@@@@@@@@@@@@@@@@@@DDDDDDDDDDDDDDDDDDDDDDDDDDDDDDDDDDDDDDDDDDD@@@@
DDDDDDDDDDDDDDDDDDDDDDDDDDDDDDDDDDDDDDDDDDDD
@@@DD@@@@@@@@@@@@@@@@@@@@@@@@@@@@@DDDDDDDDDDDDDDDDDDDDDDDDDDDDDDDDDDDDDDDDDDDD@@@@
DDDDDDDDDDDDDDDDDDDDDDDDDDDDDDDDDDDDDDDDDDD
@@@DD@@@@@@@@@@@@@@@@@@@@@@@@@@@@@DDDDDDDDDDDDDDDDDDDDDDDDDDDDDDDDDDDDDDDDDDD@@@@@
DDDDDDDDDDDDDDDDDDDDDDDDDDDDDDDDDDDDDDDDDDDD
@@@DD@@@@@@@@@@@@@@@@@@@@@@@@@@@@@DDDDDDDDDDDDDDDDDDDDDDDDDDDDDDDDDDDDDDDDDDD@@@@@
DDDDDDDDDDDDDDDDDDDDDDDDDDDDDDDDDDDDDDDDDDD
@@@DD@@@@@@@@@@@@@@@@@@@@@@@@@@@@DDDDDDDDDDDDDDDDDDDDDDDDDDDDDDDDDD@@@DDDDDD@@@@@@
DDDDDDDDDDDDDDDDDDDDDDDDDDDDDDDD
DDDD
@@@DD@@@@@@@@@@@@@@@@@@@@@@@@@@@@DDDDDDDDDDDDDDDDDDDDDDDDDDDDDDD@@@@@@@@@@DD@@@@@@
DDDDDDDDDDDDDDDDDDDDDDDDDDDDDDD
@@@DD@@@@@@@@@@@@@@@@@@@@@@@@@@@DDDDDDDDDDDDDDDDDDDDDDDDDDDDDD@@@@@@@@@@@@@@@@@@@@
DDDDDDDDDDDDDDDDDDDDDDDDDDDDD
@@@DD@@@@@@@@@@@@@@@@@@@@@@@@@@@DDDDDDDDDDDDDDDDDDDDDDDDDDDDD@@@@@@@@@@@@@@@@@@@@@
DDDDDDDDDDDDDDDDDDDDDDDDDDDD
@@@DD@@@@@@@@@@@@@@@@@@@@@@@@@@@DDDDDDDDDDDDDDDDDDDDDDDDDDDD@@@@@@@@@@@@@@@@@@@@@@
DDDDDDDDDDDDDDDDDDDDDDDDDDD
@@@DD@@@@@@@@@@@@@@@@@@@@@@@@@@@DDDDDDDDDDDDDDDDDDDDDDDDDDD@@@@@@@@DDDD@@@@@@@@@@@
DDDDDDDDDDDDDDDDDDDDDDDDDDD
DDDDDD
@@@DD@@@@@@@@@@@@@@@@@@@@@@@@@@@DDDDDDDDDDDDDDDDDDDDDDDDDD@@@@@@@DDDDDDDD@@@@@@@@@
DDDDDDDDDDDDDDDDDDDDDDDDDD
DDDDDDDDDD
@@@DD@@@@@@@@@@@@@@@@@@@@@@@@@@@DDDDDDDDDDDDDDDDDDDDDDDDDD@@@@@@DDDDDDDDDD@@@@@@@@
DDDDDDDDDDDDDDDDDDDDDDDDDD
DDDDDDDDDD
@@@DD@@@@@@@@@@@@@@@@@@@@@@@@@@@DDDDDDDDDDDDDDDDDDDDDDDDD@@@@@@DDDDDDDDDD@@@@@@@@@
DDDDDDDDDDDDDDDDDDDDDDDDD
DDDDDDDDDDD
@@@DD@@@@@@@@@@@@@@@@@@@@@@@@@@@DDDDDDDDDDDDDDDDDDDDDDDD@@@@@@DDDDDDDDDDDD@@@@@@@@
DDDDDDDDDDDDDDDDDDDDDDDDD
DDDDDDDDDDDDD
@@@DD@@@@@@@@@@@@@@@@@@@@@@@@@@DDDDDDDDDDDDDDDDDDDDDDDDD@@@@@DDDDDDDDDDDDDD@@@@@@@
DDDDDDDDDDDDDDDDDDDDDDDD
DDDDDDD
DDDDD
@@@DD@@@@@@@@@@@@@@@@@@@@@@@@@@DDDDDDDDDDDDDDDDDDDDDDDDD@@@@@DDDDDD@@@@@DDDD@@@@@@
DDDDDDDDDDDDDDDDDDDDDDDD
DDDDDD
DDDD
@@@DD@@@@@@@@@@@@@@@@@@@@@@@@@@DDDDDDDDDDDDDDDDDDDDDDDDD@@@@DDDDDD@@@@@@@DDD@@@@@@
DDDDDDDDDDDDDDDDDDDDDDDD
DDDDD
DDDD
@@@DD@@@@@@@@@@@@@@@@@@@@@@@@@@DDD@@DDDDDDDDDDDDDDDDDDDD@@@@DDDDDD@@@@@@@DDDD@@@@@
DDDDDDDDDDDD
DDDDD
DDDD
@@@DD@@@@@@@@@@@@@@@@@@@@@@@@@@DDD@@@@@@@@@@@@@@@@DDDDD@@@@@DDDDD@@@@@@@@DDDD@@@@@
DDDDD
DDDDD
@@@DD@@@@@@@@@@@@@@@@@@@@@@@@@@DDD@@@@@@@@@@@@@@@@@@@@@@@@@@@@@DD@@@@@@@@DDDD@@@@@
DDDDD
@@@DD@@@@@@@@@@@@@@@@@@@@@@@@@@DDD@@@@@@@@@@@@@@@@@@@@@@@@@@@@@DD@@@@@@@@DDDD@@@@@
DDDDDDD
@@@DD@@@@@@@@@@@@@@@@@@@@@@@@@@@DD@@@@@@@@@@@@@@@@@@@@@@@@@@@@@DDD@@@@@@@DDDDDD@@@
DDDDDDD
@@@DD@@@@@@@@@@@@@@@@@@@@@@@@@@@DD@@@@@@@@@@@@@@@@@@@@@@@@@@@@@DDD@@@@@@@DDDDDD@@@
DDDDDDD
@@@DD@@@@@@@@@@@@@@@@@@@@@@@@@@@DD@@@@@@@@@@@@@@@@@@@@@@@@@@@@@@DDD@@@@@@DDDDDD@@@
DDDDDDD
@@@DD@@@@@@@@@@@@@@@@@@@@@@@@@@@DD@@@@@@@@@@@@@@@@@@@@@@@@@@@@@@DDDD@@@@DDDDDDD@@@
DDDDDDDDDDDDDD
@@@DD@@@@@@@@@@@@@@@@@@@@@@@@@@@DDD@@@@@@@@@@@@@@@@@@@@@@@@@@@@@@DDDDDDDDDDDDD@@@@
DDDDDDDDDDDDD
@@@DD@@@@@@@@@@@@@@@@@@@@@@@@@@@DDD@@@@@@@@@@@@@@@@@@@@@@@@@@@@@@@@DDDDDDDDDDD@@@@
DDDDDDDDDD
@@@DD@@@@@@@@@@@@@@@@@@@@@@@@@@@DDD@@@@@@@@@@@@@@@@@@@@@@@@@@@@@@@@DDDDDDDDDD@@@@@
DDDDDDDDDD
@@@DD@@@@@@@@@@@@@@@@@@@@@@@@@@@@DD@@@@@@@@@@@@@@@@@@@@@@@@@@@@@@@@DDDDDDDDD@@@@@@
DDDDDDDDD
@@@DD@@@@@@@@@@@@@@@@@@@@@@@@@@@@DDD@@@@@@@@@@@@@@@@@@@@@@@@@@@@@@DDDDDDDDD@@@@@@D
DDDDDD
@@@DD@@@@@@@@@@@@@@@@@@@@@@@@@@@@DDD@@@@@@@@@@@@@@@@@@@@@@@@@@@@@@@@@DDD@@@@@@@@@D
@@@DD@@@@@@@@@@@@@@@@@@@@@@@@@@@@@DD@@@@@@@@@@@@@@@@@@@@@@@@@@@@@@@@@@@@@@@@@@@@DD
D@@DD@@@@@@@@@@@@@@@@@@@@@@@@@@@@@DD@@@@@@@@@@@@@@@@@@@@@@@@@@@@@@@@@@@@@@@@@@@DDD
D@@DD@@@@@@@@@@@@@@@@@@@@@@@@@@@@@@DD@@@@@@@@@@@@@@@@@@@@@@@@@@@@@@@@@@@@@@@@DDDDD
DDDDD
D@@DD@@@@@@@@@@@@@@@@@@@@@@@@@@@@@@DD@@@@@@@@@@@@@@@@@@@@@@@@@@@DD@@@@@@@@@DDDDDDD
DDDD
DDDDDDD
D@@DD@@@@@@@@@@@@@@@@@@@@@@@@@@@@@@DDD@@@@@@@@@@@@@@@@@@@@@@@@@@DDDDDDDDDDDDDDDDDD
DDDDDDDDDDDDDDDDDD
D@@DD@@@@@@@@@@@@@@@@@@@@@@@@@@@@@@DDD@@@@@@@@@@@@@@@@@@@@@@@@@DDDDDDDDDDDDDDDDDDD
DDDDDDDDDDDDDDDDDD
D@@DD@@@@@@@@@@@@@@@@@@@@@@@@@@@@@@@DDD@@@@@@@@@@@@@@@@@@@@@@@@DDDDDDDDDDDDDDDDDDD
DDDD
DDDDDDDDDDDDDDDDDDD
D@@DD@@@@@@@@@@@@@@@@@@@@@@@@@@@@@@@DDD@@@@@@@@@@@@@@@@@@@@@@@@DDDDDDDDDDDDDDDDDDD
DDDDDDDDDDDDDDDDDDD
D@@DD@@@@@@@@@@@@@@@@@@@@@@@@@@@@@@@@DDD@@@@@@@@@@@@@@@@@@@@@@DDDDDDDDDDDDDDDDDDDD
DDDDDDDDDDDDDDDDDDD
D@@DD@@@@@@@@@@@@@@@@@@@@@@@@@@@@@@@@DDD@@@@@@@@@@@@@@@@@@@@@@DDDDDDDDDDDDDDDDDDDD
DDDDDDDDDDDDDDDDDDDD
D@@DD@@@@@@@@@@@@@@@@@@@@@@@@@@@@@@@@@DDD@@@@@@@@@@@@@@@@@@@@DDDDDDDDDDDDDDDDDDDDD
DDDDDDDDDDDDDDDDDDDD
D@@DD@@@@@@@@@@@@@@@@@@@@@@@@@@@@@@@@@@DDD@@@@@@@@@@@@@@@@@@@DDDDDDDDDDDDDDDDDDDDD
DDDD
DDDDDDDDDDDDDDDDDDDDD
D@@DD@@@@@@@@@@@@@@@@@@@@@@@@@@@@@@@@@@DDD@@@@@@@@@@@@@@@@@@@DDDDDDDDDDDDDDDDDDDDD
DDDDDDDDDDDDDDDDDDDDD
D@@DD@@@@@@@@@@@@@@@@@@@@@@@@@@@@@@@@@@@DDD@@@@@@@@@@@@@@@@@DDDDDDDDDDDDDDDDDDDDDD
DDDDDDDDDDDDDDDDDDDDDD
D@@DD@@@@@@@@@@@@@@@@@@@@@@@@@@@@@@@@@@@DDDD@@@@@@@@@@@@@@@@DDDDDDDDDDDDDDDDDDDDDD
DDDD
DDDDDDDDDDDDDDDDDDDDDD
D@@DD@@@@@@@@@@@@@@@@@@@@@@@@@@@@@@@@@@@@DDDD@@@@@@@@@@@@@@@DDDDDDDDDDDDDDDDDDDDDD
DDDD
DDDDDDDDDDDDDDDDDDDDDD
D@@DD@@@@@@@@@@@@@@@@@@@@@@@@@@@@@@@@@@@@@DDDD@@@@@@@@@@@@@DDDDDDDDDDDDDDDDDDDDDDD
DDDD
DDDDDDDDDDDDDDDDDDDDDDD
@@@DD@@@@@@@@@@@@@@@@@@@@@@@@@@@@@@@@@@@@@@DDDD@@@@@@@@@@@@DDDDDDDDDDDDDDDDDDDDDDD
DDDD
DDDDDDDDDDDDDDDDDDDDDDD
@@@DD@@@@@@@@@@@@@@@@@@@@@@@@@@@@@@@@@@@@@@@DDDD@@@@@@@@@@DDDDDDDDDDDDDDDDDDDDDDDD
DDDD
DDDDDDDDDDDDDDDDDDDDDDD
@@@DD@@@@@@@@@@@@@@@@@@@@@@@@@@@@@@@@@@@@@@@@DDDD@@@@@@@@@DDDDDDDDDDDDDDDDDDDDDDDD
DDDD
DDDDDDDDDDDDDDDDDDDDDDDD
@@@DD@@@@@@@@@@@@@@@@@@@@@@@@@@@@@@@@@@@@@@@@@DDDDD@@@@@@DDDDDDDDDDDDDDDDDDDDDDDDD
DDDD
DDDDDDDDDDDDDDDDDDDDDDDD
D@@@D@@@@@@@@@@@@@@@@@@@@@@@@@@@@@@@@@@@@@@@@@@DDDDD@@@@@DDDDDDDDDDDDDDDDDDDDDDDDD
DDDDD
DDDDDDDDDDDDDDDDDDDDDDDDD
DD@@D@@@@@@@@@@@@@@@@@@@@@@@@@@@@@@@@@@@@@@@@@@@DDDDD@@@@DDDDDDDDDDDDDDDDDDDDDDDDD
DDDDD
DDDDDDDDDDDDDDDDDDDDDDDDD
D@@@D@@@@@@@@@@@@@@@@@@@@@@@@@@@@@@@@@@@@@@@@@@@@DDDDDD@DDDDDDDDDDDDDDDDDDDDDDDDDD
DDDDDDDDDDDDDDDDDDDDDDDDDDDDDDD
@@@@D@@@@@@@@@@@@@@@@@@@@@@@@@@@@@@@@@@@@@@@@@@@@@@DDDDDDDDDDDDDDDDDDDDDDDDDDDDDDD
DDDDDDDDDDDDDDDDDDDDDDDDDDDDDD
@@@@D@@@@@@@@DD@@@@@@@@@@@@@@@@@@@@@@@@@@@@@@@@@@@@@@DDDDDDDDDDDDDDDDDDDDDDDDDDDDD
DDDDDD
DDDDDDDDDDDDDDDDDDDDDDDDDDDD
D@@@D@@@@@@@DDDDDDDDD@@@@@@@@@@@@@@@@@@@@@@@@@@@@@@@@@@DDDDDDDDDDDDDDDDDDDDDDDDDDD
DDDDDDD
DDDDDDDDDDDDDDDDDDDDDDDDDD
DD@@D@@@@@@DD@@@@@@DDDDDDD@@@@@@@@@@@@@@@@@@@@@@@@@@@@@@@DDDDDDDDDDDDDDDDDDDDDDDDD
DDDDDDDD
DDDDDDDDDDDDDDDDDDDDDDDD
DD@@D@@@@@@D@@@@@@@@@@@@@@@DDDDDDD@@@@@@@@@@@@@@@@@@@@@@@@@DDDDDDDDDDDDDDDDDDDDDDD
DDDDDDDD
DDDDDDDDDDDDDDDDDDDDD
@@@@D@@@@@DD@@@@@@@@@@@@@@@@@@@@DDDDDDDD@@@@@@@@@@@@@@@@@@@@@@DDDDDDDDDDDDDDDDDDDD
DDDDDDDD
DDDDDDDDDDDDDDDD
@@@@D@@@@DD@@@@@@@@@@@@@@@@@@@@@@@@@@@DDDDDDDD@@@@@@@@@@@@@@@@@@@@@DDDDDDDDDDDD@@@
DDDDDDDD
@@@@D@@@DD@@@@@@@@@@@@@@@@@@@@@@@@@@@@@@@@@@DDDDDDD@@@@@@@@@@@@@@@@@@@@@@DD@@@@@@@
DDDDDDD
@@@@DDDDD@@@@@@@@@@@@@@@@@@@@@@@@@@@@@@@@@@@@@@@@@@@DDDDDDD@@@@@@@@@@@@@@DD@@@@@@@
DDDDD
DDDDDDDD
@@@@DDDD@@@@@@@@@@@@@@@@@@@@@@@@@@@@@@@@@@@@@@@@@@@@@@@@@DDDDDDDD@@@@@@@@DD@@@@@@@
DDDDDDDD
@@@@DDDD@@@@@@@@@@@@@@@@@@@@@@@@@@@@@@@@@@@@@@@@@@@@@@@@@@@@@@@DDDDDDDD@@DD@@@@@@@
DDDDDDDDDD
@@@DDDD@@@@@@@@@@@@@@@@@@@@@@@@@@@@@@@@@@@@@@@@@@@@@@@@@@@@@@@@@@@@@@DDDDDDDDD@@@@
DDDDDDDD
@@DDDDD@@@@@@@@@@@@@@@@@@@@@@@@@@@@@@@@@@@@@@@@@@@@@@@@@@@@@@@@@@@@@@@@@@@@@@DDDDD
DDDDDDDDDD
DD@@DDDDDDDDD@@@@@@@@@@@@@@@@@@@@@@@@@@@@@@@@@@@@@@@@@@@@@@@@@@@@@@@@@@@@@@@@@@@@@
DDDDDDDDDDDDD
@@@DDDDDDDDDDDDDDDDD@@@@@@@@@@@@@@@@@@@@@@@@@@@@@@@@@@@@@@@@@@@@@@@@@@@@@@@@@@@@@@
DDDDDDDDDDDDDDDDDDDD
@@@DDDDDDDDDDDDDDDDDDDDDDD@@@@@@@@@@@@@@@@@@@@@@@@@@@@@@@@@@@@@@@@@@@@@@@@@@@@@@@D
DDDDDDDDDDDDDDDDDDDDDDDDDDDDD
@@DDDDDDDDDDDDDDDDDDDDDDDDDDDDDDDDD@@@@@@@@@@@@@@@@@@@@@@@@@@@@@@@@@@@@@@@@@@@@DDD
DDDDDDDDDDDDDDDDDDDDDDDDDDDDDDDDDDDD
@@DDDDDDDDDDDDDDDDDDDDDDDDDDDDDDDDDDDDDDD@@@@@@@@@@@@@@@@@@@@@@@@@@@@@@@@@@@@@DDD@
DDDDDDDDDDDDDDDDDDDDDDDDDDDDDDDDDDDDDDDDDDD
@DDDDDDDDDDDDDDDDDDDDDDDDDDDDDDDDDDDDDDDDDDDDDDD@@@@@@@@@@@@@@@@@@@@@@@@@@@@@DD@@@
DDDDDDDDDDDDDDDDDDDDDDDDDDDDDDDDDDDDDDDDDDDDDDDDDD
@DDDDDDDDDDDDDDDDDDDDDDDDDDDDDDDDDDDDDDDDDDDDDDDDDDDDD@@@@@@@@@@@@@@@@@@@@@@DD@@@@
DDDDDDDDDDDDDDDDDDDDDDDDDDDDDDDDDDDDDDDDDDDDDDDDDDDDDDDDDDDD
@DDDDDDDDDDDDDDDDDDDDDDDDDDDDDDDDDDDDDDDDDDDDDDDDDDDDD@DDDDDDDD@@@@@@@@@@@DDD@@@@@
DDDDDDDDDDDDDDDDDDDDDDDDDDDDDDDDDDDDDDDDDDDDDDDDDDDDD
DDDDDDDD
DDDDDDDDDDDDDDDDDDDDDDDDDDDDDDDDDDDDDDDDDDDDDDDDDDDDDD@@@@@@@DDDDDDDDD@@@DDD@@@@@@
DDDDDDDDDDDDDDDDDDDDDDDDDDDDDDDDDDDDDDDDDDDDDDDDDDD
DDDDDDDDDD
D@@@@DDDDDDDDDDDDDDDDDDDDDDDDDDDDDDDDDDDDDDDDDDDDDDDDD@@@@@@@@@@@@@@DDDDDDD@@@@@@@
DDDDDDDDDDDDDDDDDDDDDDDDDDDDDDDDDDDDDDDDDDDD
DDDDD
D@@@@@@@@@@@@DDDDDDDDDDDDDDDDDDDDDDDDDDDDDDDDDDDDDDDDD@@@@@@@@@@@@@@@DDDDDD@@@@@@@
DDDDDDDDDDDDDDDDDDDDDDDDDDDDDDDDDD
DDDDD
@@@@@@@@@@@@@@@@@@@@@@@DDDDDDDDDDDDDDDDDDDDDDDDDDDDDDD@@@@@@@@@@@DDDDD@@@@D@@@@@@@
DDDDDDDDDDDDDDDDDDDDDDDDDDD
DDDD
@@@@@@@@@@@@@@@@@@@@@@@@@@@@@@DDDDDDDDDDDDDDDDDDDDDDDD@@@@@@@@DDDD@@@@@@@@DD@@@@@@
DDDDDDDDDDDDDDDDDDDD
DDDDD
@@@@@@@@@@@@@@@@@@@@@@@@@@@@@@@@@@@@@DDDDDDDDDDDDDDDDD@@@@@DDDD@@@@@@@@@@@@D@@@@@@
DDDDDDDDDDDDD
DDDDD
@@@@@@@@@@@@@@@@@@@@@@@@@@@@@@@@@@@@@@@@@@@@@D@DDDDDDD@DDDD@@@@@@@@@@@@@@@@DD@@@@@
DDDDDD
@@@@@@@@@@@@@@@@@@@@@@@@@@@@@@@@@@@@@@@@@@@@@@@@@@@@@DD@@@@@@@@@@@@@@@@@@@@DD@@@@@
@@@@@@@@@@@@@@@@@@@@@@@@@@@@@@@@@@@@@@@@@@@@@@@@@@@@@DD@@@@@@@@@@@@@@@@@@@@@D@@@@@
@@@@@@@@@@@@@@@@@@@@@@@@@@@@@@@@@@@@@@@@@@@@@@@@@@@@DDDD@@@@@@@@@@@@@@@@@@@@DD@@@@
@@@@@@@@@@@@@@@@@@@@@@@@@@@@@@@@@@@@@@@@@@@@@@@@@@@@DD@D@@@@@@@@@@@@@@@@@@@@@D@@@@
@@@@@@@@@@@@@@@@@@@@@@@@@@@@@@@@@@@@@@@@@@@@@@@@@@@@DD@DD@@@@@@@@@@@@@@@@@@@@DD@@@
@@@@@@@@@@@@@@@@@@@@@@@@@@@@@@@@@@@@@@@@@@@@@@@@@@@@D@@@D@@@@@@@@@@@@@@@@@@@@DD@@@
@@@@@@@@@@@@@@@@@@@@@@@@@@@@@@@@@@@@@@@@@@@@@@@@@@@DD@@@DD@@@@@@@@@@@@@@@@@@@@D@@@
@@@@@@@@@@@@@@@@@@@@@@@@@@@@@@@@@@@@@@@@@@@@@@@@@@@@D@@@@D@@@@@@@@@@@@@@@@@@@@DD@@
@@@@@@@@@@@@@@@@@@@@@@@@@@@@@@@@@@@@@@@@@@@@@@@@@@@DD@@@@DD@@@@@@@@@@@@@@@@@@@@D@@
@@@@@@@@@@@@@@@@@@@@@@@@@@@@@@@@@@@@@@@@@@@@@@@@@@@D@@@@@@D@@@@@@@@@@@@@@@@@@@@DD@
@@@@@@@@@@@@@@@@@@@@@@@@@@@@@@@@@@@@@@@@@@@@@@@@@@@D@@@@@@DD@@@@@@@@@@@@@@@@@@@DD@
DDDD@@@@@@@@@@@@@@@@@@@@@@@@@@@@@@@@@@@@@@@@@@@@@@DD@@@@@@@D@@@@@@@@@@@@@@@@@@@DD@
DDDDDDDDD
DDDDD
DDDDDDDDDDDDDD@@@@@@@@@@@@@@@@@@@@@@@@@@@@@@@@@@@@DD@@@@@@@DD@@@@@@@@@@@@@DDDDDDDD
DDDDDDDDDDDDDDDD
DDDDDDDD
@@@@@@@@DDDDDDDDDDDDDDD@@@@@@@@@@@@@@@@@@@@@@@@@@@DD@@@@@@@@D@@@@@@@@@DDDDDDD@@@@@
DDDDDDDDDDDDDDDD
@@@@@@@@@@@@@@@@@DDDDDDDDDDDDDDDD@@@@@@@@@@
@@@@@@@@
DDDDDDDDDDDDDDD
@@@@@@@@@@@@@@@@@@@@@@@@@@@@@@@DDDDDDDDDDDD
@@@@@@@@
DDDDDDD
@@@@@@@@@@@@@@@@@@@@@@@@@@@@@@@@@@@@@@@@DDD
@@@@@@@@@@@@@@@@@@@@@@@@@@O
@@@@@@@@
@@@@@@@@@@@@@@@@@@@@@@@@@@@@@@@@@@@@@@@@@@@
@@@@@@@@@@@@@@@@@@@@@@@@@@O
@@@@@@@@
@@@@@@@@@@@@@@@@@@@@@@@@@@@@@@@@@@@@@@@@@@@
@@@@@@@@@@@@@@@@@@@@@@@@@@O
@@@@@@@@
@@@@@@@@@@@@@@@@@@@@@@@@@@@@@@@@@@@@@@@@@@@
@@@@@@@
p@@@@w
p@@@@@@O
@@@@@@@@
@@@@@@@@@@@@@@@@@@@@@@@@@@@@@@@@@@@@@@@@@@@
@@@@@@
@@@G
@@@@@O
@@@@@@@@
@@@@@@@@@@@@@@@@@@@@@@@@@@@@@@@@@@@@@@@@@@@
@@@@@
@@@@@H
@@@@O
@@@@@@@@
@@@@@@@@@@@@@@@@@@@@@@@@@@@@@@@@@@@@@@@@@@@
@@@@@
@@@@H
@@x@@@O
@@@@@@@@
@@@@@@@@@@@@@@@@@@@@@@@@@@@@@@@@@@@@@@@@@@@
@@@@@
@@@@
@@@@@@@@
@@@@@@@@@@@@@@@@@@@@@@@@@@@@@@@@@@@@@@@@@@@
@@@@@
@@@G
@@@@@@x@@O
@@@@@@@@
@@@@@@@@@@@@@@@@@@@@@@@@@@@@@@@@@@@@@@@@@@@
@@@@@
@@@H
@@@@O@@O
@@@@@@@@
@@@@@@@@@@@@@@@@@@@@@@@@@@@@@@@@@@@@@@@@@@@
@@@@@
@@@H
@@@O
@@@O@@O
@@@@@@@@
@@@@@@@@@@@@@@@@@@@@@@@@@@@@@@@@@@@@@@@@@@@
@@@@@
@@@@
@@@@O
@@@@@@@@
@@@@@@@@@@@@@@@@@@@@@@@@@@@@@@@@@@@@@@@@@@@
@@@@@
@@@@x@@@@@@
@@@@@@@@
@@@@@@@@@@@@@@@@@@@@@@@@@@@@@@@@@@@@@@@@@@@
@@@@@
@@@@G
@@@@@@@@
@@@@@@@@@@@@@@@@@@@@@@@@@@@@@@@@@@@@@@@@@@@
@@@@@
@@@@@x@@
@@@O
@@@@@@@@
@@@@@@@@@@@@@@@@@@@@@@@@@@@@@@@@@@@@@@@@@@@
@@@@@
@@@@@@
@@@O
@@@@@@@@
@@@@@@@@@@@@@@@@@@@@@@@@@@@@@@@@@@@@@@@@@@@
@@@@@
w@@H
p@@@@O
@@@@@@@@
@@@@@@@@@@@@@@@@@@@@@@@@@@@@@@@@@@@@@@@@@@@
@@@@@
@@@@@@w
@@@@@@@O
@@@@@@@@
@@@@@@@@@@@@@@@@@@@@@@@@@@@@@@@@@@@@@@@@@@@
@@@@@
w@@@@@@O
@@@@@O
@@@@@@@@
@@@@@@@@@@@@@@@@@@@@@@@@@@@@@@@@@@@@@@@@@@@
@@@@@
@@@@@@@O
@@@@@@@@
@@@@@@@@@@@@@@@@@@@@@@@@@@@@@@@@@@@@@@@@@@@
@@@@O@H@@@@@@w
@@@@@@O
@@@@@@@@
@@@@@@@@@@@@@@@@@@@@@@@@@@@@@@@@@@@@@@@@@@@
@@@@
@@@@@@@@@
@@@@@@O
@@@@@@@@
@@@@@@@@@@@@@@@@@@@@@@@@@@@@@@@@@@@@@@@@@@@
@@@@@O
w@@O@
@@@@@@O
@@@@@@@@
@@@@@@@@@@@@@@@@@@@@@@@@@@@@@@@@@@@@@@@@@@@
@@@@@@@@@@@@@@@@@@@@@@@@@@O
@@@@@@@@
@@@@@@@@@@@@@@@@@@@@@@@@@@@@@@@@@@@@@@@@@@@
@@@@@@@@@@@@@@@@@@@@@@@@@@O
@@@@@@@@
@@@@@@@@@@@@@@@@@@@@@@@@@@@@@@@@@@@@@@@@@@@
@@@@@@@@@@@@@@@@@@@@@@@@@@O
@@@@@@@@
@@@@@@@@@@@@@@@@@@@@@@@@@@@@@@@@@@@@@@@@@@@
@@@@@@@@
@@@@@@@@@@@@@@@@@@@@@@@@@@@@@@@@@@@@@@@@@@@
@@@@@@@@
@@@@@@@@@@@@@@@@@@@@@@@@@@@@@@@@@@@@@@@@@@@@@@@@@@@@@@@@@@@@@@@@@@@@@@@@@@@@@@@@@@
@@@@@@@@@@@@@@@@@@@@@@@@@@@@@@@@@@@@@@@@@@@@@@@@@@@@@@@@@@@@@@@@@@@@@@@@@@@@@@@@@@
@@@@@@@@@@@@@@@@@@@@@@@@@@@@@@@@@@@@@@@@@@@@@@@@@@@@@@@@@@@@@@@@@@@@@@@@@@@@@@@@@@
@@@@@@@@@@@@@@@@@@@@@@@@@@@@@@@@@@@@@@@@@@@@@@@@@@@@@@@@@@@@@@@@@@@@@@@@@@@@@@@@@@
@@@@@@@@@@@@@@@@@@@@@@@@@@@@@@@@@@@@@@@@@@@@@@@@@@@@@@@@@@@@@@@@@@@@@@@@@@@@@@@@@@
@@@@@@@@@@@@@@@@@@@@@@@@@@@@@@@@@@@@@@@@@@@@@@@@@@@@@@@@@@@@@@@@@@@@@@@@@@@@@@@@@@
@@@@@@@@@@@@@@@@@@@@@@@@@@@@@@@@@@@@@@@@@@@@@@@@@@@@@@@@@@@@@@@@@@@@@@@@@@@@@@@@@@
@@@@@@@@@@@@@@@@@@@@@@@@@@@@@@@@@@@@@@@@@@@@@@@@@@@@@@@@@@@@@@@@@@@@@@@@@@@@@@@@@@
@@@@@@@@@@@@@@@@@@@@@@@@@@@@@@@@@@@@@@@@@@@@@@@@@@@@@@@@@@@@@@@@@@@@@@@@@@@@@@@@@@
@@@@@@@@@@@@@@@@@@@@@@@@@@@@@@@@@@@@@@@@@@@@@@@@@@@@@@@@@@@@@@@@@@@@@@@@@@@@@@@@@@
jpbG
f o>
HH@[
*('y
|_yqoc
PbDm
[Oie
%uy~oP]
*}3Z
8PNy
+JvX 
o-Sd:/
/+no
Gh>&
ju&.qtM W
i!__
Gm5$
/#nY
=	t?
5h+&
/#nY
=	t?
5h+&
/#nY
=	t?
5h+&
/#nY
=	t?
5h+&
/#nY
=	t?
5h+&
[5--
id`t
=`t@
fK]I
?J~M
 4^@
-"eO
!This program cannot be run in DOS mode.
/{Rich
.text
.data
.rsrc
msvcrt.dll
ADVAPI32.dll
KERNEL32.dll
NTDLL.DLL
USER32.dll
SHLWAPI.dll
From
Sender
Reply-To
Return-Path
Return-Receipt-To
Apparently-To
Date
Received
Message-ID
X-Mailer
Encoding
Encrypted
Comment
Subject
MIME-Version
Content-Type
Content-Transfer-Encoding
Content-ID
Content-Description
Content-Disposition
Content-Base
Content-Location
Newsgroups
Path
Followup-To
Expires
References
Control
Distribution
Keywords
Summary
Approved
Lines
Xref
Organization
X-Newsreader
X-Priority
X-MSMail-Priority
X-Offsets
X-Unsent
X-ArticleId
X-Newsgroup
X-VoiceMail
X-MSOESRec
X-RFC2646
Format=Flowed
Response
Original
par:content-type:charset
par:content-type:number
par:content-type:total
par:content-type:id
par:content-type:boundary
par:content-type:name
par:content-type:protocol
par:content-type:micalg
par:content-disposition:filename
par:content-type:type
par:content-type:start
att:filename
att:generated-filename
att:pri-content-type
att:sub-content-type
att:normalized-subject
att:illegal-lines
att:rendered
att:auto-inlined
att:sent-time
att:received-time
att:priority
att:athena-server
att:athena-account-name
att:athena-pop3-uidl
att:athena-store-msgid
att:athena-user-name
att:athena-forward-to
att:athena-store-fdrid
att:athena-ghosted
att:athena-uncachedsize
att:athena-combined
att:format
att:athena-account-id
text/plain
text/html
application/octet-stream
multipart/mixed
multipart/alternative
multipart/related
message/partial
message/rfc822
application/ms-tnef
application/x-pkcs7-signature
application/pkcs7-signature
text/enriched
text
multipart
message
image
audio
video
application
plain
html
enriched
ms-rtf
mixed
parallel
digest
related
alternative
rfc822
partial
external-body
octet-stream
postscript
jpeg
basic
mpeg
ms-tnef
msword
pkcs7-mime
pkcs7-signature
x-pkcs7-mime
x-pkcs7-signature
signed
mac-binhex40
x-vcard
7bit
quoted-printable
base64
8bit
binary
uuencode
x-uuencode
x-uue
mac-binhex40
flowed
original
response
inline
attachment
sha1
rsa-md5
High
Normal
Original-Recipient
Disposition-Notification-To
Microsoft Outlook Express HTML Format
Internet Message (rfc822/rfc1522)
message/rfc822
signed-data
enveloped-data
signed-receipt
OutlookExpress_InstanceMutex_101897
MSOE.DLL
CoStartOutlookExpress
CoShutdownOutlookExpress
CoCreateOutlookExpress
MSOERES.DLL
Software\Clients\News\Microsoft Outlook
OLNews
Software\Microsoft\Outlook Express
NoUpgradeOLNews
Outlook Express
Microsoft Outlook
Software\Clients\News
Software\Clients\News\Outlook Express\Protocols\%s\shell\open\command
Software\Microsoft\Outlook Express\Outlook Newsreader\Protocols\%s\shell\open\command
%s\shell\open\command
news
nntp
snews
AllowSetForegroundWindow
USER32.DLL
ADVPACK.DLL
msoeres.dll
inetres.dll
acctres.dll
outlacct.dll
msimn.exe
Software\Microsoft\Windows\CurrentVersion
Software\Microsoft\Outlook Express\Inetcomm
Software\Microsoft\Windows\CurrentVersion\App Paths\msimn.exe
Software\Microsoft\Internet Account Manager
Disable RFC2646 Wrapping
DllPath
ProgramFilesDir
UnReg
Path
SystemDrive
ProgramFiles
%SystemDrive%
%SystemRoot%
SystemRoot
%ProgramFiles%
%UserProfile%
UserProfile
SYS_EXTRA
SYS_MOD_PATH_DIR
SYS_MOD_PATH
RegInstall
RSDSO
msimn.pdb
u	9E
jAY3
jAB9
u)Pht
#Whp
XPVj
t(h @
_vsnprintf
msvcrt.dll
RegCloseKey
RegQueryValueExA
RegOpenKeyExA
ADVAPI32.dll
CloseHandle
ReleaseMutex
GetFileAttributesA
GetLastError
FreeLibrary
GetProcAddress
LoadLibraryA
lstrlenW
WaitForSingleObject
CreateMutexA
ExitProcess
GetModuleHandleA
GetStartupInfoA
SetErrorMode
GetCommandLineW
QueryPerformanceCounter
GetTickCount
GetCurrentThreadId
GetCurrentProcessId
GetSystemTimeAsFileTime
TerminateProcess
GetCurrentProcess
UnhandledExceptionFilter
SetUnhandledExceptionFilter
KERNEL32.dll
MessageBoxA
LoadStringA
SendMessageTimeoutA
SetForegroundWindow
GetWindowThreadProcessId
USER32.dll
SHSetValueA
SHGetValueA
StrCmpIW
SHLWAPI.dll
GetEnvironmentVariableA
lstrlenA
lstrcpynA
GetVersionExA
GetModuleFileNameA
StrStrIA
PathRemoveFileSpecA
<?xml version="1.0" encoding="UTF-8" standalone="yes"?>
<assembly xmlns="urn:schemas-microsoft-com:asm.v1" manifestVersion="1.0">
<assemblyIdentity type="win32" name="Microsoft.Windows.InternetExplorer.OutlookExpress" version="1.0.0.0" processorArchitecture="x86"/>
<description>Outlook Express</description>
<dependency>
    <dependentAssembly>
        <assemblyIdentity
            type="win32"
            name="Microsoft.Windows.Common-Controls"
            version="6.0.0.0"
            language="*"
            processorArchitecture="x86"
            publicKeyToken="6595b64144ccf1df"
        />
    </dependentAssembly>
</dependency>
</assembly>
"""""""""""$DDB"""""""""""""""""""$LLL
B""""""""""""""""""L
"""""""""""""""",DL
""""""""""""""""
fdLlllf
"""""""""""""""
ffl"""""""""""""",
ffff
""B""""""""""$lB"",ff
"$B""""""""""$D""""
nnnn
NB""
DDDDDL
DDDDDDDDDDDO
DDDDDDDDDDDO
DDDDDO
DLLLO
LLlllO
wwwwwwwwwwwwww
LLlfffH
fffd""""DB"""""""""",B"
fnnnB""$
B"""""""""","",f
""""""""""""""
nnnnL
l""""""""""""""",
""""""""""""""""
"""""""""""""""",
"""""""""""""""""",
""""""""""""""""""",
"""""""""""""""""""""""""""""""""""
"""""""DDB""""""""""""$
"""""""""""
ll"""""""""""Fl
fb""""""""",d",fff"$""""""",B""
nnBD""
DDDD
DDDDDDDD
DDDDDDDD
DDDD
ldwwwwwwwww
,ffd""$B"""""""
nnB"FB""""""""",
lb""""""""""n
"""""""""""'~
r""""""""""""'ww"""""""""""""""""""""""
""""",L
""""$b
&B"""",
"""""n
Z0EUoF8
$CU~
]]pM
$CU~
p]F?
FL$1Ln
^V22
^CCU~
_LE\
a9BJJJJJzJJJ
bP7{
vbP5=
bb"{
iiiiiiiiiiitpMU}
tL$1En
O_^po
RD-&!<
kkkh
jjkjjk
kO1$
T_LC1$
~nULC1$
~\UE11,*
}nUL0?*
~\[4
wxqW
s|SW
YWxu
XXXXQQQIII`ybwu
]<BB....
4NNN@>
ybxu
zbxuO?,+ZZ,
;Z1L~^
^[[M$$L
FUC\
u9BJJzJJ
RC1U
DtOr9B
f^E1$
nLC02
}\]4
ZBllll
QIIII
22V%
cvN>
zvN?,%
?[1}
DDnDWu_?
 i6	
nn@D
wwwwww|
DDDDK
DDDDO
DDDDO
DDDDO
DDDDO
DDDD
eeeeeeeeee
eeeeeeeeee
eeeeeeeeee
eeeeeeeeee
eeeeeeeeee
eeeeee
,u,,,
mmmmmmm
eeeeeeeeeeeeeeee
eeeeeeeeeeeeeeee
eeeeeeeeeeeeeeee
eeeeeeeeeeeeeeee
eeeeeeeeeeeeeeee
eeeeeeeeee
uuMG,
mmmmmmmmmm
uMG,
uuMG
uuMG
''''
fdLlllf
ffff
nnnn
wwwwwwwww|f
wwwwwwww
DDDDDDDD
wwwwwwww
DDDDDDDD
wwwwwwww
DDDDDDDD
wwwwwwww
DDDDDDDD
wwwwwwww
DDDDDDDD
DDDDDO
wwwww
DLLLO
DDDDD
LLlllO
LLlfffO
fffd
fnnn@
nnnnL
wwwwwww
wwwwwwwwwwww
wwwwwwww
wwwwwwwww
wwwwwwww
wwwwwwwww
wwwwwwww
wwwwwwwww
wwwwwwww
wwwwwwwww
wwww
wwww
wwww
[version]
Signature="$CHICAGO$"
[Reg]
AddReg=Athena.Reg,OLNews.Reg
DelReg=Install.Del.Reg
[UnReg]
DelReg=Athena.Reg,OLNews.Reg
[OLNews]
AddReg=OLNews.Reg
[Athena.Reg]
HKLM,"Software\Microsoft\Windows\CurrentVersion\App Paths\msimn.exe",,131072,%SYS_MOD_PATH%
HKLM,"Software\Microsoft\Windows\CurrentVersion\App Paths\msimn.exe",Path,131072,%SYS_MOD_PATH_DIR%
HKCR,.eml
HKCR,"Microsoft Internet Mail Message"
HKLM,"%KEY_MSIMN_MAILCLIENT%\%KEY_MSIMN_OUTLOOK%"
HKCR,.eml,,,"Microsoft Internet Mail Message"
HKCR,.eml,"Content Type",,"message/rfc822"
HKCR,"Microsoft Internet Mail Message",,,"%STR_MSIMN_MAILMESSAGE%"
HKCR,"Microsoft Internet Mail Message\DefaultIcon",,131072,"%SYS_MOD_PATH%,-4"
HKCR,"Microsoft Internet Mail Message\shell\open\command",,131072,"""%SYS_MOD_PATH%"" /eml:%%1"
HKLM,"%KEY_MSIMN_MAILCLIENT%\%KEY_MSIMN_OUTLOOK%",,,"%KEY_MSIMN_OUTLOOK%"
HKLM,"%KEY_MSIMN_MAILCLIENT%\%KEY_MSIMN_OUTLOOK%\Protocols\mailto",,,"%STR_MSIMN_MAILTOURL%"
HKLM,"%KEY_MSIMN_MAILCLIENT%\%KEY_MSIMN_OUTLOOK%\Protocols\mailto","EditFlags",1,02,00,00,00
HKLM,"%KEY_MSIMN_MAILCLIENT%\%KEY_MSIMN_OUTLOOK%\Protocols\mailto","%KEY_MSIMN_URLPROTOCOL%",,""
HKLM,"%KEY_MSIMN_MAILCLIENT%\%KEY_MSIMN_OUTLOOK%\Protocols\mailto\DefaultIcon",,131072,"%SYS_MOD_PATH%,-2"
HKLM,"%KEY_MSIMN_MAILCLIENT%\%KEY_MSIMN_OUTLOOK%\Protocols\mailto\shell\open\command",,131072,"""%SYS_MOD_PATH%"" /mailurl:%%1"
HKLM,"%KEY_MSIMN_MAILCLIENT%\%KEY_MSIMN_OUTLOOK%\shell\open\command",,131072,"""%SYS_MOD_PATH%"""
HKCR,.nws
HKCR,"Microsoft Internet News Message"
HKLM,"%KEY_MSIMN_NEWSCLIENT%\%KEY_MSIMN_OUTLOOK%"
HKCR,.nws,,,"Microsoft Internet News Message"
HKCR,.nws,"Content Type",,"message/rfc822"
HKCR,"Microsoft Internet News Message",,,"%STR_MSIMN_NEWSMESSAGE%"
HKCR,"Microsoft Internet News Message\DefaultIcon",,131072,"%SYS_MOD_PATH%,-5"
HKCR,"Microsoft Internet News Message\shell\open\command",,131072,"""%SYS_MOD_PATH%"" /nws:%%1"
HKLM,"%KEY_MSIMN_NEWSCLIENT%\%KEY_MSIMN_OUTLOOK%",,,"%KEY_MSIMN_OUTLOOK%"
HKLM,"%KEY_MSIMN_NEWSCLIENT%\%KEY_MSIMN_OUTLOOK%\Protocols\news",,,"%STR_MSIMN_NEWSURL%"
HKLM,"%KEY_MSIMN_NEWSCLIENT%\%KEY_MSIMN_OUTLOOK%\Protocols\news","EditFlags",1,02,00,00,00
HKLM,"%KEY_MSIMN_NEWSCLIENT%\%KEY_MSIMN_OUTLOOK%\Protocols\news","%KEY_MSIMN_URLPROTOCOL%",,""
HKLM,"%KEY_MSIMN_NEWSCLIENT%\%KEY_MSIMN_OUTLOOK%\Protocols\news\DefaultIcon",,131072,"%SYS_MOD_PATH%,-3"
HKLM,"%KEY_MSIMN_NEWSCLIENT%\%KEY_MSIMN_OUTLOOK%\Protocols\news\shell\open\command",,131072,"""%SYS_MOD_PATH%"" /newsurl:""%%1"""
HKLM,"%KEY_MSIMN_NEWSCLIENT%\%KEY_MSIMN_OUTLOOK%\Protocols\snews",,,"%STR_MSIMN_SNEWSURL%"
HKLM,"%KEY_MSIMN_NEWSCLIENT%\%KEY_MSIMN_OUTLOOK%\Protocols\snews","EditFlags",1,02,00,00,00
HKLM,"%KEY_MSIMN_NEWSCLIENT%\%KEY_MSIMN_OUTLOOK%\Protocols\snews","%KEY_MSIMN_URLPROTOCOL%",,""
HKLM,"%KEY_MSIMN_NEWSCLIENT%\%KEY_MSIMN_OUTLOOK%\Protocols\snews\DefaultIcon",,131072,"%SYS_MOD_PATH%,-3"
HKLM,"%KEY_MSIMN_NEWSCLIENT%\%KEY_MSIMN_OUTLOOK%\Protocols\snews\shell\open\command",,131072,"""%SYS_MOD_PATH%"" /newsurl:""%%1"""
HKLM,"%KEY_MSIMN_NEWSCLIENT%\%KEY_MSIMN_OUTLOOK%\Protocols\nntp",,,"%STR_MSIMN_NNTPURL%"
HKLM,"%KEY_MSIMN_NEWSCLIENT%\%KEY_MSIMN_OUTLOOK%\Protocols\nntp","EditFlags",1,02,00,00,00
HKLM,"%KEY_MSIMN_NEWSCLIENT%\%KEY_MSIMN_OUTLOOK%\Protocols\nntp","%KEY_MSIMN_URLPROTOCOL%",,""
HKLM,"%KEY_MSIMN_NEWSCLIENT%\%KEY_MSIMN_OUTLOOK%\Protocols\nntp\DefaultIcon",,131072,"%SYS_MOD_PATH%,-3"
HKLM,"%KEY_MSIMN_NEWSCLIENT%\%KEY_MSIMN_OUTLOOK%\Protocols\nntp\shell\open\command",,131072,"""%SYS_MOD_PATH%"" /newsurl:""%%1"""
HKLM,"%KEY_MSIMN_NEWSCLIENT%\%KEY_MSIMN_OUTLOOK%\shell\open\command",,131072,"""%SYS_MOD_PATH%"" /news"
HKLM,"%KEY_MSIMN_IE_FEATURE_OPTIN%\FEATURE_BEHAVIORS","msimn.exe",0x00010003,0x01
HKLM,"%KEY_MSIMN_IE_FEATURE_OPTIN%\FEATURE_MIME_HANDLING","msimn.exe",0x00010003,0x01
HKLM,"%KEY_MSIMN_IE_FEATURE_OPTIN%\FEATURE_MIME_SNIFFING","msimn.exe",0x00010003,0x01
HKLM,"%KEY_MSIMN_IE_FEATURE_OPTIN%\FEATURE_OBJECT_CACHING","msimn.exe",0x00010003,0x01
HKLM,"%KEY_MSIMN_IE_FEATURE_OPTIN%\FEATURE_WEBOC_POPUPMANAGEMENT","msimn.exe",0x00010003,0x01
HKLM,"%KEY_MSIMN_IE_FEATURE_OPTIN%\FEATURE_WINDOW_RESTRICTIONS","msimn.exe",0x00010003,0x01
HKLM,"%KEY_MSIMN_IE_FEATURE_OPTIN%\FEATURE_ZONE_ELEVATION","msimn.exe",0x00010003,0x01
HKLM,"%KEY_MSIMN_IE_FEATURE_OPTIN%\FEATURE_LOCALMACHINE_LOCKDOWN","msimn.exe",0x00010003,0x01
HKLM,"%KEY_MSIMN_IE_FEATURE_OPTIN%\FEATURE_DISABLE_MK_PROTOCOL","msimn.exe",0x00010003,0x01
[OLNews.Reg]
HKLM,"%SYS_EXTRA%"
HKLM,"%SYS_EXTRA%",,,"%MSIMN_OUTLOOK%"
HKLM,"%SYS_EXTRA%\Protocols\news",,,"%STR_MSIMN_NEWSURL%"
HKLM,"%SYS_EXTRA%\Protocols\news","EditFlags",1,02,00,00,00
HKLM,"%SYS_EXTRA%\Protocols\news","%KEY_MSIMN_URLPROTOCOL%",,""
HKLM,"%SYS_EXTRA%\Protocols\news\DefaultIcon",,131072,"%SYS_MOD_PATH%,-3"
HKLM,"%SYS_EXTRA%\Protocols\news\shell\open\command",,131072,"""%SYS_MOD_PATH%"" /outnews /newsurl:""%%1"""
HKLM,"%SYS_EXTRA%\Protocols\snews",,,"%STR_MSIMN_SNEWSURL%"
HKLM,"%SYS_EXTRA%\Protocols\snews","EditFlags",1,02,00,00,00
HKLM,"%SYS_EXTRA%\Protocols\snews","%KEY_MSIMN_URLPROTOCOL%",,""
HKLM,"%SYS_EXTRA%\Protocols\snews\DefaultIcon",,131072,"%SYS_MOD_PATH%,-3"
HKLM,"%SYS_EXTRA%\Protocols\snews\shell\open\command",,131072,"""%SYS_MOD_PATH%"" /outnews /newsurl:""%%1"""
HKLM,"%SYS_EXTRA%\Protocols\nntp",,,"%STR_MSIMN_NNTPURL%"
HKLM,"%SYS_EXTRA%\Protocols\nntp","EditFlags",1,02,00,00,00
HKLM,"%SYS_EXTRA%\Protocols\nntp","%KEY_MSIMN_URLPROTOCOL%",,""
HKLM,"%SYS_EXTRA%\Protocols\nntp\DefaultIcon",,131072,"%SYS_MOD_PATH%,-3"
HKLM,"%SYS_EXTRA%\Protocols\nntp\shell\open\command",,131072,"""%SYS_MOD_PATH%"" /outnews /newsurl:""%%1"""
HKLM,"%SYS_EXTRA%\shell\open\command",,131072,"""%SYS_MOD_PATH%"" /outnews"
[Install.Del.Reg]
HKCR,"CLSID\{dacf95b0-0a3f-11d1-9389-006097d503d9}"
HKLM,"Software\Microsoft\Windows\CurrentVersion\Explorer\Desktop\NameSpace\{dacf95b0-0a3f-11d1-9389-006097d503d9}"
[Strings]
STR_MSIMN_MAILMESSAGE   = "Outlook Express Mail Message"
STR_MSIMN_MAILTOURL     = "URL:MailTo Protocol"
STR_MSIMN_NEWSMESSAGE   = "Outlook Express News Message"
STR_MSIMN_NEWSURL       = "URL:News Protocol"
STR_MSIMN_NNTPURL       = "URL:NNTP Protocol"
STR_MSIMN_SNEWSURL      = "URL:Snews Protocol"
MSIMN_OUTLOOK           = "Microsoft Outlook"
KEY_MSIMN_MAILCLIENT    = "Software\Clients\Mail"
KEY_MSIMN_NEWSCLIENT    = "Software\Clients\News"
KEY_MSIMN_OUTLOOK       = "Outlook Express"
KEY_MSIMN_IE_FEATURE_OPTIN = "Software\Microsoft\Internet Explorer\Main\FeatureControl"
SYS_EXTRA               = "Software\Microsoft\Outlook Express\Outlook NewsReader"
KEY_MSIMN_URLPROTOCOL   = "URL Protocol"
[End]
t@xj}rz
Lwhz
RMa^v
d-ph
_f-a
u;u"
r<8v
.T1#
r.y=
<{qxr
Lym5
	0=	)
wZ_sfv:sP
hAiP[
()Ss
~xmY
NEk0_U
`[T,
.akk
/vM[Ht+
m)wE
tS	8u
^`_rKQ2
g+}|
3e#8Z
?	uA
6hWy
-]M Q;[w
\^0nW
@RKV
CGZdo;
E*{k
+`aP
b;3q
t}73
%9[o
c}!3
%9[o
c}!3
%9[o
c}!3
%9[o
c}!3
%9[o
c}!3
UVYN
U	}7E1jo
[y";
%A[/
8|.>
6Vl|
S7	9
>2Q'
L&:[
LAt7O-'
5^kD
csI*L
nX#:
"9`v"
jE%Z
fAVL
JTLs
}!3@
#MZ3
oHQx8
8Y7r=
qeK+=
3z28
Ir_I
^!jsw
b}!;A)&
RgR6
|Pe	k1
jj&i
a_s]
}/l\H
:q7}
z9WjG
v\SB!
%$Rs
mh a
feO[q
%9[5
Sr>%
;7.+S
8WN44C
.P(W
G ;7
`YA$.
`):M
NQ?Iu
CGPD
>QMav=
n@z4%r
RfL&
C@/2<u
TH{vj
L/#hkmA
(	2}
y#"$
(R	]
Al{E
=Gny
Wg>5
-@\sw\6B
U]e-
w,84
c&9[
Xb_:
g%R];
5+z9W
h\KKC
dJ+q
tM#[\
cyX+K
CGcJ
;+Ff
grZRE
=73-
!s]I
[rdls
9W_KU
 rCv
eO[RN7
[n&e
bKfm
%P<l
AAn?
."}_dX
yn=	
@uT]
FKv4n
{x%*
}BUT
~~S_A
:*Vakk
uv8s
uKQ:R
/D[v
pChT
}a50
ymbeq
qaJ,l
A%eI
^>ln
8T.Fn
n)7#
B1g*
&SjZY~
(eE.
Sn@/
A]ki4
^meK@
VBhT
xafn
%!3l
K-?$/
K<@_
[M&B*v
pObeE
C~1u
`EGmGs=!
/	]	
=-/{
qcc!
D>OQ
qj_^
{S!X
]meK
pR!Hn
tb	,
{F4[
@Zk.k
ms[+
6iO?
]e]W
U91m
]P^h
*X+5~
W	HH 
"{K4
elZ 
+uQB
"cy1
s?dv
/i5^
BEkr
ut[`[-
fO[H
2yM9j
>DRM
dZmu
O6Fm
$-g)=
;B,F
8	<u
Do;>bL
!d~k
g;}%\
mb%P
OWe}
qJ'e
o`yn
leKV
3X+q
cy1q
Mz>Y;
!mb%
3nI$
k1CM
n;9c
 K!6
2n:p
INwa
pc'q
Xy3}
*ts}
AB2>
@NT]
u1H8K
IK<A`
\_mc
?a>2
PWe(
7$cyIx|
";74(5
_d-P
)meKK`
u<t1]
F`yp=	p
OZz/\
KNWe
UmeK
&9[o
c~!3
;&9[p
d~!3
N1M'C
;%9[o
c}!3
;%9[o
d}!3
&9[o
c~!3
&9[o
c~!3
%9[o
c~!3
&9[o
c~!3
`}{KQ
<u+6yn
b;QD_t
[<8y
i:^HZ
P,F[=b
X>MM
V ZT
')a:
=9	h
}`il
+uim
y-wIuB
2	pC
K*ue
Ng>5
-5=!"!
vl;Z?N$
^dO&
\ND-OO`
!myD
&H.88'>
L/WiU
u%; =
u=0jK~S
%m<.^vv
WuxG
sVK_](
npo)
USR_Shohdi_Photo_USR
