!This program cannot be run in DOS mode.
Rich
.text
`.rdata
@.data
.pdata
@.tls
.rsrc
@.reloc
\$0H
L$ SUVWH
l$xH
l$(L
8_^][
D$ H
\$0H
@UVWH
D$XI
\$03
l$ I9h
T$8H
D$PH
L$8H=
L$XH3
`_^]
\$ WH
D$pI
L$0I
D$0H
T$ f
D$ H
D$ H
D$hH
L$PH
L$pH3
\$0H
D$`H
D$0L
D$@H
T$0H
D$XH
L$@H=
L$`H3
\$0H
D$@H
L$pH
D$xL
D$pH
T$xH
L$ H
(D$0f
D$@H
\$PH
D$HH
\$PH
D$0H
\$ H
ATAVAWH
t$0I
D$@L
|$PH
D$@H
|$HH
\$@H+
L$ L
L$@H
D$PH+
t$0I
A_A^A\
USVWH
CxL;
CxH;
81tF
9{xvFH
CxH;
BxH;
E@L;
h_^[]
)D$@H
T$@H
H+1H
t$8H
\$0H
H+1H
t$8H
\$0H
T$ H
)D$ 
\$0H
t$8H
\$0H
t$8H
\$0H
t$8H
\$0H
\$8H
l$@H
|$0J
|$0H
\$8H
l$@H
t$ AVH
|$0H
QH9{
|$0H
\$8H
l$@H
t$HH
A'H;
A'H;
8H9A
JH9y
t$8H
\$0H
|$@H
@SUH
d$`H+
t$(H
A'H;
t$PH
|$XH
l$0L
|$ N
|$ L
l$0H
|$XH
t$PH
d$`L
t$(H
SVWAVH
t$pH
A'H;
|$`L
t$pH
\$hH
t$xL
8A^_^[
\$0H
\$0H
\$0H
\$0H
J'H;
@SWAWH
 A__[
l$@H
t$HH
t$PH;
l$@H
t$PH
t$HH
 A__[
t$ WH
9zxvF
T$8H
\$0H
l$@H
t$HH
t$ H
9zxv6
\$8H
l$@H
t$HH
UVWH
9zxv>H
T$HH
L$@H;
\$PH
 _^]
@SWAWH
 A__[
l$@H
t$HH
t$PH;
l$@H
t$PH
t$HH
 A__[
D$0H
T$ D+
(D$ H
L$ f
L$0H3
D$@L
\$HL
t$PH
D$PH
\$8H
L$XH
D$HH
D$hL
D$HH
T$XH
L$hH
l$HH
|$PH
\$XH
\$pI
\$@H
\$@H
\$@H
\$@H
\$PH
T$0H
\$PH
\$@H
\$@H
l$03
|$8H
l$0H
|$8H
\$@H
\$0H
T$ H
D$0H
T$ H
tJ8Q
u=8Q
T$(H
\$`H
l$hH
t$pH
|$0H
u*ff
T$0H
\$`H
l$hH
t$pH
\$`H
T$(H
\$`H
\$hH
T$(H
T$(H
\$hH
t$pH
\$PH
T$(H
T$(H
\$PH
|$0H
iH9{
|$0H
\$8H
l$@H
\$@H
'w}H
\$0H
t$8H
\$0H
\$0H
D$8H
T$(H
UUUUUUU
fffffff
;uNH
sZH+
'w=H
H;>u
|$0H
\$8H
l$@H
\$0H
D$@E3
L$=D
T$ D
D$=L
D$=I
L$@H3
D$@E3
L$=D
T$ L
D$=L
D$=I
L$@H3
\$@H
\$@H
\$ VWAWH
\$hH
0A__^
gfffffffH
l$PI+
fffffff
d$XI
t$`H
A'H;
t$`L
d$XH
l$PH
\$hH
0A__^
@SVWH
0_^[
t$XI+
UUUUUUU
l$PI
|$`H
|$`H
l$PL
t$XH
0_^[
@SVWAVAWH
UUUUUUU
D$xH
@A_A^_^[
@SVAWH
 A_^[
l$@H
t$PH
|$HM
A'H;
l$@H
|$HL
t$PH
 A_^[
UUUUUUU
A'H;
t$8H
|$@H
\$0H
gfffffffL+
t$8H
|$@H
\$0H
\$PH
\$@H
\$HH
\$PH
T$@H
L$ H
D$(H;
|$ H;
\$@H
t$HH
\$0H
t$8H
sQH+
'w4H
\$0H
t$8H
\$0H
t$8H
sQH+
'w4H
\$0H
t$8H
L$PH
\$0H
L$ SUVWH
T$pH+
L$0H
l$8H
t$0H
t$pH
D$xH
|$xH
L$xL
L$xH
|$pH
H_^][
H_^][
uCH;
t$8I
|$@I
\$0M
t$PH
\$@I
|$HL
|$ A
|$ H
|$HH
\$@L
t$PH
s>fff
u=L;
\$0I
|$@I
t$8I
D$PL
L$PH
\$@H
t$HH
sDfA
|$ AVL
}Ffff
t$ H
|$(H
L$0I
L$6H
L$0I#
D$(H
D$(H
L$0H
T$ H
D$ H;
L$8H3
L$8H3
\$HH
yXH9y
D$XH
\$HH
|$0H
;H;{
|$0H
|$0H
;H;{
|$0H
\$ VAVAWH
l$@A
|$HL
d$PA
|$HH
l$@L
d$PH
\$XH
 A_A^^
\$XH
 A_A^^
D$PI
t$pI
GP9wPu
\$0H
\$HH
t$PM
L$@I
\$HH
t$PH
< w#H
8/uXH;A
8*u}H;A
9*u(H;H
8/u4H;A
"H+A
YwRL
8lupI;A
8luSH
\$ I;A
H;C v
\$ H
8uuuI;A
8euXH
\$ I;A
H;C v
\$ H
8suuI;A
8euXH
\$ I;A
H;C v
\$ H
UVATAUAWH
t$hH
\$ D
|$(H
|$`H
1L+q
8\u+H;A
|$(H
< sF
H;E v
|$(H
H;E v
t$hH
|$`u0A
\$pH
0A_A]A\^]
t$ WH
I;@@v	I
8}u.H;A
\$0H
l$@H
t$HH
UWAVH
I;@@v	I
t$@H
8]u.H;A
8]t?H+A
<]tML
jH;A
t$@H
\$PH
 A^_]
t$ WATAUAVAWH
)t$ L
1M+q
\$`D
80|sH;A
u>H;A
3H;A
80|ZH;A
u5H;A
*H;A
u89u0
80|YH;A
}:H;A
80|dH;A
YH;A
4pA;
I;E@v	I
I;E@v	I
AI;E@v	I
\$`H
l$pH
(t$ H
0A_A^A]A\_
\$`H
l$hH
t$pA
H;A@v	H
L$(H
L$0H
t$@H
\$`H
l$hH
t$pH
H;C v
\$8H
\$8H
H;G v
\$8H
\$8H
\$0I
t$@H
\$0I
t$@H
t$8H
t$0H
|$8H
vNH9{
t$0H
|$8H
t$03
|$8H
H;F 
w&H;F v
w#H;F v
SH;F v
H;F v
H;F v
H;F v
\$0H
I H+
t$8H
\$0H
I H+
t$8H
\$0H
)D$ 
\$HM
\$HH
\$HH
yXH9y
D$PH
\$HH
T$0A+
T$6H
T$0I#
D$(I
D$(H
T$0H
H9\$ 
L$8H3
UVWH
D$0I
T$ D+
D$(H
(D$ f
D$ H
L$0H3
\$pH
@_^]
SUVWH
L$HL
T$@H
D$(H
D$(H
D$ 3
l$8H
D$ H
L$@H
D$ H
L$(r
X_^][
D$PH
\$8H
L$XH
D$HH
D$hL
D$HH
T$XH
L$hH
l$HH
|$PH
\$XH
\$pI
D$PI
t$pI
GP9wPu
L$HH
\$@H
\$@H
\$0I
\$0H
\$0H
t$8H
t$8H
\$0H
\$hH
t$pI
L$`A
L$(f
D$(A
\$hH
t$pH
YwBIc
8uucH
8luXH
8luMH
\$ H
H;C v
\$ H
8ruhH
8uu]H
8euRH
\$ H
H;C v
\$ H
8ausH
8luhH
8su]H
8euRH
\$ H
H;C v
\$ H
UATAUAVAWH
;uu	H
<"tO< s9
u$M+
\$PI
A_A^A]A\]
|$ UAVAWH
I;@@v	I
8}u'H
}t5H+C
A_A^]
l$ WAVAWH
I;@@v	I
D$ H
8]u'H
D$ H
,u=H
D$@H
]t/H+C
\$`I
A_A^_
UVWATAUAVAWH
t5<0
uP<8
<0|O<9
A89Y0
tJ<0
uk<8
<0|X
<0|RI
u)<5
<0|N
8D9W0
G8D9W0
0|FH
<0|A
tR<0
<0|]<9
W8D9W0
H;C@v	H
H;G@v	H
AH;G@v	H
(t$`
(|$PH
pA_A^A]A\_^]
H;C v
t$HH
H;C v
\$8H
\$8H
H;G v
\$8H
\$8H
u8H9
D$83
I H+
\$0H
t$@H
H+1H
t$@H
l$8H
\$0H
|$ AVH
K8H3K
{(H3{
C0H3C
\$0H
l$8H
t$@H
|$HH
 A^I
|$ AVH
K8H3K
{(H3{
C0H3C
\$0H
l$8H
t$@H
|$HH
 A^I
|$ ATAVAWH
)t$@M
{ H3;H
C0H3C
T$ fH
L$0f
(t$@L
\$PI
A_A^A\I
|$ ATAVAWH
)t$@M
{ H3;H
C0H3C
T$ fH
L$0f
(t$@L
\$PI
A_A^A\I
L$ L
UVWATAUAVAWH
N8H3N
n H3.L
s fH
L33L
K8H3K
D$`H
F0H3F
C0H3C
\$`f
t$xI
\$hH
 A_A^A]A\_^]H
UVWATAUAVAWH
k H3+L
N8H3N
~ H3>L
v(L3v
K8H3K
D$`H
F0H3F
C0H3C
\$`f
<)I3
\$hH
 A_A^A]A\_^]H
L$ L
SUVWATAUAVAWH
)t$PL
)|$@A
N8H3N
n H3.L
s fH
K8H3K
L33L3c
F0H3F
C0H3C
T$ fH
L$0f
T$0f
D$ f
(t$P
(|$@H
hA_A^A]A\_^][H
L$ L
SUVWATAUAVAWH
)t$PL
)|$@A
u L3u
k(L3e
L3;L3k
E0H3E
M8H3M
C0fH
K8H3K
T$ fI
L$0f
T$0%
L$ fI
D$ f
<)M3
(t$P
(|$@H
hA_A^A]A\_^][H
D$PH
\$8H
L$XH
D$HH
D$hL
D$HH
T$XH
L$hH
l$HH
|$PH
\$XH
\$pI
)l$@f
)t$0f
)|$ f
oQ`H
oA@fD
(l$@L
(t$0D
(|$ I
oJ f
)l$0D
)t$ f
oZ`H
oJ@f
oRPff
oA f
oA0f
oA@f
r0fA
4$fA
$$fA
oAPH
z fD
z0fE
(l$0L
(t$ D
)l$@f
)t$0f
)|$ f
oQ`H
oA@fD
(l$@L
(t$0D
(|$ I
oJ f
)l$0D
)t$ f
oZ`H
obpA
oJ@f
oRPf
o@ f
o@0f
o@@f
r0fA
4$fA
$$fA
o@PH
z fD
z0fE
(l$0L
(t$ D
L$@D
D$PfD
D$@f
L$@fD
t$@fA
L$@fD
|$@fA
L$@fD
D$`fA
D$@f
L$pfD
L$@f
L$@fD
T$@f
L$@fD
D$@f
L$@f
D$@f
oC`f
oKpf
o{Pf
L$@f
T$ fD
l$ H
L$0f
T$0fD
l$0H
L$ f
|$ f
T$0fD
l$0H
L$ fD
D$ f
T$0fD
l$0H
L$ fD
L$ fD
T$0fD
l$0H
L$ fD
T$ fD
T$0fD
l$0H
L$ fD
\$ fD
T$0fD
l$0H
L$ fD
d$ fD
l$0f
oD$@H
T$0H
L$ f
t$ f
oD$PH
T$0H
L$ f
|$ f
oD$PH
T$0H
L$ f
D$ f
oD$PH
T$0H
L$ f
L$ f
oD$PH
T$0H
L$ f
T$ f
oD$PH
T$0f
D$0H
\$ f
oD$PH
T$0H
L$ f
d$ f
oD$PH
T$0H
L$ f
l$ f
oD$PH
T$0H
L$ f
T$0fD
t$0H
L$ f
t$ fD
T$0fD
t$0H
L$ f
|$ f
T$0fD
t$0H
L$ fD
D$ f
T$0fD
t$0H
L$ fD
L$ fD
T$0fD
t$0H
L$ fD
T$ fD
T$0fD
t$0H
L$ fD
\$ fD
T$0fD
t$0H
L$ fD
d$ fD
T$0fD
t$0H
L$ fD
l$ fD
T$0fD
|$0H
L$ f
t$ fD
|$0H
T$0f
|$ H
T$0fD
|$0H
L$ fD
D$ f
T$0fD
|$0H
L$ fD
L$ fD
T$0fD
|$0H
L$ fD
T$ fD
T$0fD
|$0H
L$ fD
\$ fD
T$0fD
|$0H
L$ fD
d$ fD
T$0fD
|$0H
L$ fD
l$ fD
t$ f
oD$`H
T$0H
L$ f
|$ f
oD$`H
T$0H
L$ f
D$ f
oD$`H
T$0H
L$ f
L$ f
oD$`H
T$0H
L$ f
T$ f
oD$`H
T$0H
L$ f
\$ f
oD$`H
T$0H
L$ f
oD$`H
T$0H
L$ f
D$0fD
l$ f
oD$`H
T$0H
L$ f
t$ f
oD$pH
T$0H
L$ f
|$ f
oD$pH
T$0H
L$ f
D$ f
oD$pH
T$0H
L$ f
L$ f
oD$pH
T$0H
L$ f
T$ f
oD$pH
T$0H
L$ f
\$ f
oD$pH
T$0H
L$ f
d$ f
oD$pH
T$0H
L$ f
l$ f
oD$pH
T$0H
L$ f
t$ f
T$0H
L$ f
|$ f
T$0f
D$0H
D$ f
T$0H
L$ f
L$ f
T$0H
L$ f
T$ f
T$0H
L$ f
\$ f
T$0H
L$ f
d$ f
T$0H
L$ f
l$ f
T$0H
L$ f
t$ f
T$0H
L$ f
|$ f
T$0H
L$ f
D$ f
T$0H
L$ f
L$ f
T$0H
L$ f
T$ f
T$0H
L$ f
T$0f
D$0H
L$ fD
d$ f
T$0H
L$ f
l$ f
T$0H
L$ f
t$ f
T$0H
L$ f
|$ f
T$0H
L$ f
D$ f
T$0H
L$ f
L$ f
T$0H
L$ f
T$ f
T$0H
L$ f
\$ f
T$0H
L$ f
d$ f
T$0H
L$ f
l$ f
T$0H
L$ f
t$ f
T$0f
D$0H
T$0H
L$ f
t$0f
T$0f
t$0H
L$ fD
D$ f
T$0f
t$0H
L$ fD
L$ fD
T$0f
t$0H
L$ fD
T$ fD
T$0f
t$0H
L$ fD
\$ fD
T$0f
t$0H
L$ fD
d$ fD
T$0f
t$0H
L$ fD
l$ fD
D$@H
L$PD
oJ0D
L$Pf
L$PfD
D$Pf
L$PfD
L$Pf
L$PfD
D$Pf
L$PfA
L$Pf
L$PfD
U fA
T$Pf
L$PfD
E0fA
D$Pf
L$Pf
U@fA
T$Pf
o{@f
o[Pf
os`H
oCpf
D$Pf
o\$0fD
ot$ 
oGPH
oo@f
d$pf
D$ H
T$@f
t$pH
L$pfD
D$0H
T$@f
|$pH
L$pfD
T$@H
L$pfD
D$pfD
T$@H
L$pfD
L$pfD
T$@H
L$pfD
T$pfD
T$@fD
L$pf
t$@fD
t$@f
oD$`H
T$@f
D$PH
L$`f
T$`f
L$`f
oD$ H
L$ f
L$ f
oD$0H
T$ H
L$0f
T$0fD
L$0H
L$ fD
|$ fD
T$0H
L$ fD
|$0fD
T$0fD
|$0H
L$ fD
\$ fD
T$0fD
|$0H
L$ fD
d$ fD
T$0fD
|$0H
L$ fD
l$ fD
T$0fD
|$0H
L$ f
t$ fD
T$0H
L$ fD
t$0f
T$0fD
t$0H
L$ fD
D$ f
T$0fD
t$0H
L$ fD
L$ fD
T$0fD
t$0H
L$ fD
T$ fD
T$0fD
t$0H
L$ fD
\$ fD
T$0fD
t$0H
L$ fD
d$ fD
T$0fD
t$0H
L$ fD
l$ fD
T$0fD
t$0H
L$ f
T$0H
L$ fD
t$0f
T$0fD
t$0H
L$ fD
D$ f
T$0fD
t$0H
L$ fD
L$ fD
T$0fD
t$0H
L$ fD
T$ fD
T$0fD
t$0H
L$ fD
\$ fD
T$0fD
t$0H
L$ fD
d$ fD
T$0fD
t$0H
L$ fD
l$ fD
T$0fD
t$0H
L$ f
t$ fD
T$0H
L$ fD
t$0f
T$0fD
t$0H
L$ fD
D$ f
T$0fD
t$0H
L$ fD
L$ fD
T$0fD
t$0H
L$ fD
T$ fD
t$0H
T$0fD
\$ H
T$0fD
t$0H
L$ fD
d$ fD
T$0fD
t$0H
L$ fD
l$ fD
T$0fD
t$0H
L$ f
t$ fD
T$0H
L$ fD
t$0f
T$0fD
t$0H
L$ fD
D$ f
T$0fD
t$0H
L$ fD
L$ fD
T$0fD
t$0H
L$ fD
T$ fD
T$0fD
t$0H
L$ fD
\$ fD
T$0fD
t$0H
L$ fD
d$ fD
T$0fD
t$0H
L$ fD
l$ fD
T$0fD
t$0H
L$ f
t$ fD
ou H
T$0H
L$ fD
t$0f
t$0fD
D$ H
T$0H
T$0fD
t$0H
L$ fD
L$ fD
T$0fD
t$0H
L$ fD
T$ fD
T$0fD
t$0H
L$ fD
\$ fD
T$0fD
t$0H
L$ fD
d$ fD
T$0fD
t$0H
L$ fD
l$ fD
T$0fD
t$0H
L$ f
t$ fD
ou0H
T$0H
L$ fD
t$0f
T$0fD
t$0H
L$ fD
D$ f
T$0fD
t$0H
L$ fD
L$ fD
T$0fD
t$0H
L$ fD
T$ fD
T$0fD
t$0H
L$ fD
\$ fD
T$0fD
t$0H
L$ fD
d$ fD
t$0H
T$0fD
l$ H
T$0fD
t$0H
L$ f
t$ fD
ou@H
T$0H
L$ fD
t$0f
T$0fD
t$0H
L$ fD
D$ f
T$0fD
t$0H
L$ fD
L$ fD
T$0fD
t$0H
L$ fD
T$ fD
T$0fD
t$0H
L$ fD
\$ fD
T$0fD
t$0H
L$ fD
d$ fD
T$0fD
t$0H
L$ fD
l$ fD
T$0fD
t$0H
L$ f
t$ fD
ouPH
T$0H
L$ fD
t$0f
T$0fD
t$0H
L$ fD
D$ fD
T$ f
D$0H
L$`fD
t$ f
D$ H
T$`fD
t$`fD
T$@H
T$`f
L$@fD
t$`fD
T$`f
L$@fD
t$`fD
T$`f
L$@fD
t$`fD
T$`f
L$@fD
t$`fD
D$PH
L$@D
D$PfD
D$@f
L$@fD
t$@fA
L$@fD
|$@fA
L$@fD
D$`fA
D$@f
L$pfD
L$@f
L$@fD
T$@f
L$@fD
D$@f
L$@f
D$@f
oC`f
oKpf
o{Pf
oC@H
L$@H
T$ fD
l$ H
L$0f
T$0fD
l$0H
L$ f
|$ f
T$0fD
l$0H
L$ fD
D$ f
T$0fD
l$0H
L$ fD
L$ fD
T$0fD
l$0H
L$ fD
T$ fD
T$0fD
l$0H
L$ fD
\$ fD
T$0fD
l$0H
L$ fD
d$ fD
l$0f
oD$@H
T$0H
L$ f
t$ f
oD$PH
T$0H
L$ f
|$ f
oD$PH
T$0H
L$ f
D$ f
oD$PH
T$0H
L$ f
L$ f
oD$PH
T$0H
L$ f
T$ f
oD$PH
T$0f
D$0H
\$ f
oD$PH
T$0H
L$ f
d$ f
oD$PH
T$0H
L$ f
l$ f
oD$PH
T$0H
L$ f
T$0fD
t$0H
L$ f
t$ fD
T$0fD
t$0H
L$ f
|$ f
T$0fD
t$0H
L$ fD
D$ f
T$0fD
t$0H
L$ fD
L$ fD
T$0fD
t$0H
L$ fD
T$ fD
T$0fD
t$0H
L$ fD
\$ fD
T$0fD
t$0H
L$ fD
d$ fD
T$0fD
t$0H
L$ fD
l$ fD
T$0fD
|$0H
L$ f
t$ fD
|$0H
T$0f
|$ H
T$0fD
|$0H
L$ fD
D$ f
T$0fD
|$0H
L$ fD
L$ fD
T$0fD
|$0H
L$ fD
T$ fD
T$0fD
|$0H
L$ fD
\$ fD
T$0fD
|$0H
L$ fD
d$ fD
T$0fD
|$0H
L$ fD
l$ fD
t$ f
oD$`H
T$0H
L$ f
|$ f
oD$`H
T$0H
L$ f
D$ f
oD$`H
T$0H
L$ f
L$ f
oD$`H
T$0H
L$ f
T$ f
oD$`H
T$0H
L$ f
\$ f
oD$`H
T$0H
L$ f
oD$`H
T$0H
L$ f
D$0fD
l$ f
oD$`H
T$0H
L$ f
t$ f
oD$pH
T$0H
L$ f
|$ f
oD$pH
T$0H
L$ f
D$ f
oD$pH
T$0H
L$ f
L$ f
oD$pH
T$0H
L$ f
T$ f
oD$pH
T$0H
L$ f
\$ f
oD$pH
T$0H
L$ f
d$ f
oD$pH
T$0H
L$ f
l$ f
oD$pH
T$0H
L$ f
t$ f
T$0H
L$ f
|$ f
T$0f
D$0H
D$ f
T$0H
L$ f
L$ f
T$0H
L$ f
T$ f
T$0H
L$ f
\$ f
T$0H
L$ f
d$ f
T$0H
L$ f
l$ f
T$0H
L$ f
t$ f
T$0H
L$ f
|$ f
T$0H
L$ f
D$ f
T$0H
L$ f
L$ f
T$0H
L$ f
T$ f
T$0H
L$ f
T$0f
D$0H
L$ fD
d$ f
T$0H
L$ f
l$ f
T$0H
L$ f
t$ f
T$0H
L$ f
|$ f
T$0H
L$ f
D$ f
T$0H
L$ f
L$ f
T$0H
L$ f
T$ f
T$0H
L$ f
\$ f
T$0H
L$ f
d$ f
T$0H
L$ f
l$ f
T$0H
L$ f
t$ f
T$0f
D$0H
T$0H
L$ f
t$0f
T$0f
t$0H
L$ fD
D$ f
T$0f
t$0H
L$ fD
L$ fD
T$0f
t$0H
L$ fD
T$ fD
T$0f
t$0H
L$ fD
\$ fD
T$0f
t$0H
L$ fD
d$ fD
T$0f
t$0H
L$ fD
l$ fD
D$@f
p UH
L$PD
oJ0D
L$Pf
L$PfD
D$Pf
L$PfD
L$Pf
L$PfD
D$Pf
L$PfA
L$Pf
L$PfD
U fA
T$Pf
L$PfD
E0fA
D$Pf
L$Pf
U@fA
T$Pf
o{@H
o[Pf
os`f
oCpf
D$Pf
o\$0fD
ot$ 
oFPH
oN H
on@f
d$pf
D$ H
T$@f
t$pH
L$pfD
D$0H
T$@f
|$pH
L$pfD
T$@H
L$pfD
D$pfD
T$@H
L$pfD
L$pfD
T$@H
L$pfD
T$pfD
T$@fD
L$pf
t$@fD
t$@f
oD$`H
T$@f
D$PH
L$`f
T$`f
L$`f
oD$ H
L$ f
L$ f
oD$0H
T$ H
L$0f
L$0fD
|$ H
T$0H
T$0H
L$ fD
|$0fD
T$0fD
|$0H
L$ fD
\$ fD
T$0fD
|$0H
L$ fD
d$ fD
T$0fD
|$0H
L$ fD
l$ fD
T$0fD
|$0H
L$ f
t$ fD
T$0H
L$ fD
t$0f
T$0fD
t$0H
L$ fD
D$ f
T$0fD
t$0H
L$ fD
L$ fD
T$0fD
t$0H
L$ fD
T$ fD
T$0fD
t$0H
L$ fD
\$ fD
T$0fD
t$0H
L$ fD
d$ fD
T$0fD
t$0H
L$ fD
l$ fD
t$0H
T$0f
t$ H
T$0H
L$ fD
t$0f
T$0fD
t$0H
L$ fD
D$ f
T$0fD
t$0H
L$ fD
L$ fD
T$0fD
t$0H
L$ fD
T$ fD
T$0fD
t$0H
L$ fD
\$ fD
T$0fD
t$0H
L$ fD
d$ fD
T$0fD
t$0H
L$ fD
l$ fD
T$0fD
t$0H
L$ f
t$ fD
T$0H
L$ fD
t$0f
T$0fD
t$0H
L$ fD
D$ f
T$0fD
t$0H
L$ fD
L$ fD
T$0fD
t$0H
L$ fD
T$ fD
t$0H
T$0fD
\$ H
T$0fD
t$0H
L$ fD
d$ fD
T$0fD
t$0H
L$ fD
l$ fD
T$0fD
t$0H
L$ f
t$ fD
T$0H
L$ fD
t$0f
T$0fD
t$0H
L$ fD
D$ f
T$0fD
t$0H
L$ fD
L$ fD
T$0fD
t$0H
L$ fD
T$ fD
T$0fD
t$0H
L$ fD
\$ fD
T$0fD
t$0H
L$ fD
d$ fD
T$0fD
t$0H
L$ fD
l$ fD
T$0fD
t$0H
L$ f
t$ fD
ou H
T$0H
L$ fD
t$0f
T$0fD
t$0H
L$ fD
D$ f
T$0fD
t$0H
L$ fD
L$ fD
T$0fD
t$0H
L$ fD
T$ fD
T$0fD
t$0H
L$ fD
\$ fD
T$0fD
t$0H
L$ fD
d$ fD
T$0fD
t$0H
L$ fD
l$ fD
T$0fD
t$0H
L$ f
t$ fD
ou0H
T$0H
L$ fD
t$0f
T$0fD
t$0H
L$ fD
D$ f
T$0fD
t$0H
L$ fD
L$ fD
T$0fD
t$0H
L$ fD
T$ fD
T$0fD
t$0H
L$ fD
\$ fD
T$0fD
t$0H
L$ fD
d$ fD
T$0fD
t$0H
L$ fD
l$ fD
t$0H
T$0f
t$ H
ou@H
T$0H
L$ fD
t$0f
T$0fD
t$0H
L$ fD
D$ f
T$0fD
t$0H
L$ fD
L$ fD
T$0fD
t$0H
L$ fD
T$ fD
T$0fD
t$0H
L$ fD
\$ fD
T$0fD
t$0H
L$ fD
d$ fD
T$0fD
t$0H
L$ fD
l$ fD
T$0fD
t$0H
L$ f
t$ fD
ouPH
T$0H
L$ fD
t$0f
T$0fD
t$0H
L$ fD
D$ fD
T$ f
D$0H
L$`fD
t$ f
T$`f
D$ H
L$@fD
t$`fD
T$`f
L$@fD
t$`fD
T$`f
L$@fD
t$`fD
T$`f
L$@fD
t$`fD
T$`f
L$@fD
t$`fD
D$PH
@SVAWH
 A_^[
l$@H
t$PH
|$HH
A'H;
t$PH
|$HH
l$@H
 A_^[
\$0H
t$8H
|$@H
t$83
|$@H
VWAWH
l$PH
 A__^
t$HA
t$HH
\$@H
l$PH
 A__^
\$0H
\$0H
\$0H
L$ SVWH
t$`H
t$(H
0_^[
X I;
wcH;
t9M+
t9M+
\$0H
\$8H
KXH;
KhH;
L9KpH
BKpH
t$0A
t$03
\$8H
t$0H
\$8H
t$03
\$8H
\$ VH
D$0H
Y8u_H
t$`u,E3
NxL+
|$XL;
L$ L
T$ Hc
NxfB
t$`H
L$0H3
\$hH
\$0H
|$ 3
t9I+
A88@
|$ H
t>M+
tAI+
A88@
\$03
|$ H
T$PH
L$hL
D$0K
L$dLc
T$(H
D$ O
\$0H
\$0H
L$HA
\$ H
L$`H
d$8D
d$4D
	t(H
\$HH
D$XH
|$@L
d$@M
D$8A
t:M+
t>M+
\$Pu1H
L$4H
|$@H
\$0A9[
uaM9{
t@L+
\$PL
|$XL
L$HH
d$HI
D$8H
t$@L
D$0f
t?M+
D$0H
d$HH
	u@H
T$`H
L$`J
L$`H
\$0H
t$8H
\$0H
|$0H
|$0H
|$03
|$03
|$0H
|$0H
tLL;
H9S`H
\$0H
CpH)
\$0H
\$@H
l$HI
t$(L
|$ f
|$PH
D83t
D81u
=ttL
P I;
A8	t#
D80u
@88H
9"u=H
"u H
|$PL
t$(H
l$HL
|$ H
\$@H
\$@3
VWAVH
D$ H
\$XH
l$`H
0A^_^
D$8H
D$PH
D$0H
L$(H
D$ A
l$pH
|$xH
t$HL
|$@E3
s!H+
\$`H;
\$`L
D$8H
D$`H
D$0H
t$(H
D$ A
D$`H;
D$`H
\$hH
|$xH
l$pL
t$HL
|$@H
SpL+
\$0H
\$0H
\$0H
|$03
|$0H
\$0H
\$0H
\$ UH
\$HH
\$HH
\$HH
t$0H
|$8H
|$8H
t$0L
t$@H
\$HH
\$8H
t$@H
l$0M
t?M+
A89@
<	wLH
@88t'H
l$0H
\$8H
t$@H
H9OHu
\$0H
\$0H
GPH9
H+OXH
HPH9
H9APH
l$8H
t$@H
H9w8u
\$0H
t$8H
UVWATAUAVAWH
|$	L
T$xH
t,D8 t'L
D$xH
D8 u
D8#H
L9e8
t9L+
D8 u
D8#H
L9e8
E8L9`
E8L9`P
E8L9`
tAM+
EHE3
t@L+
u	L9
EHE3
D9c u
E8L9`
0A_A^A]A\_^]
\$0I
t9M+
\$0u
l$8H
t$@H
l$83
t$@H
\$ L
\$@H
t$HH
L$ SVWH
t$`H
t$ L
0_^[
\$ H
D$@H
\$8H
l$@H
|$0H
\$8H
l$@H
D$8H
D$ H
D$(H
D$0A
D$$H
\$XH
l$`H
L$ A
l$`H
\$XH
|$hH
L$8H3
\$0H
l$8H
t$@H
@USH
T$0L
|$4I
t$0I;
T$0H
T$@A
L$@H
T$@L
t$0L
|$0L
D$@H
L$@H
D$@H
T$@H
T$@D
T$@H
T$8H
H9s8@
L9{8
t$ L
T$0L
T$<H
A E3
\$ H
\$ UVWAUAWH
\$xH
0A_A]_^]
\$xH
0A_A]_^]
\$xH
0A_A]_^]
\$xH
0A_A]_^]
L9kHu
GPE3
D$`H
D$(L
l$ 3
d$hL
t$pH
\$xH
0A_A]_^]
t(E3
H9kHu
H9kXu
t$@H
l$8H
D$@H
\$0H
D$X3
D$8H
D$@H
D$PH
D$0H
t$xH
L$0L
D$8H
wu3D
t$xH
L$XH3
\$0H
l$8H
t$@H
9n u
l$8H
\$0H
t$@H
APE3
\$0H
\$0H
\$0H
L$ UATAUH
T$hE3
\$PH
t$XH
|$`L
t$(L
|$ H
|$ L
t$(H
|$`H
t$XH
\$PH
0A]A\]
@UWATAVH
|$0D9
L$@D
L$@A;
D$8H
L$@;
D$8H
D$8H
D$8H
D$8H
L$@A
D$HA
L$@M
T$@I
L$@D
L$@M
T$@I
L$@A
|$0H
T$8I
L$8H
\$0L
\$ L
A^A\_]
SUWAUAVAWH
(A_A^A]_][
t$xL
d$ I
|$hH
T$pH
fA	p
t6Hc
T$pE3
HcD$h
t$xL
d$ H
(A_A^A]_][
s WH
D$@3
L$@H3
\$hH
l$pH
t$xH
D$pI
L$ H
WATAUAVAWH
l$ L
l$ H
l$ L
l$(H
L$ H
\$`H
l$hH
t$pH
0A_A^A]A\_
uVE3
\$@H
t$HH
t$HH
\$@H
@UWATAUAVAWH
shE3
usD9
}~,A
D$(L
D$(L
A_A^A]A\_]
\$0H
\$0H
\$0H
\$0H
l$0H
t$8t
t;E3
|$@H9
|$@H
l$0H
t$8H
t=L+
w',W
\$0H
\$0H
tBSH
l$8H
t$@H
r8H;
\$0H
\$0H
l$8H
t$@H
l$83
t$@H
(((((((
((((((((((((
 !"#$%&(((((((((((((((((((
(((((((
(((('
	w^H
9999999
9999999999
 !"#$%&'()9999999999999999999*+,9999999-./012345678]
@UAWH
d$pL
l$hE3
t$`E
d$pL
l$hL
t$`H
xA_]
L$ 3
L$ H
D$@A
t$ WH
?%uH
L$1H
T$8H
D$0A
t$HH
\$@H
WAVAWH
t$`I
\$@H
l$HH
t$PH
 A_A^_
\$8H
|$0t+
|$0H
\$8H
\$8H
|$0H
\$0H
t$8H
\$0H
t$8H
\$03
t$8H
L$ SUVWH
l$xH
l$(L
8_^][
\$0H
UWATAUH
\$P3
t$XD
t$`L
|$ L
t$`H
t$XH
\$PH
(A]A\_]
|$ ATAVAWH
t$@I
t$@I
\$HH
l$PH
|$XH
 A_A^A\
|$ ATAVAWH
\$@3
l$HH
t$PH
|$XI
 A_A^A\
l$0H
|$@H
t$8H
t$8H
l$0H
|$@H
\$0H
H9;H
\$0H
l$8H
t$@H
Px(A
t.A9X
\$0H
l$8H
t$@H
UVWAVAWH
L$@3
D$8L
L$@H
l$(D
D$ L
D$0L
L$@H
A_A^_^]
A91t
W0H92u
W09r
\$0H
t$8H
t.H9w
\$0H
t$8H
UVWATAUAVAWH
L$0H
\$8M
\$0H
D$ L
L$8H
A_A^A]A\_^]
G@A9F@tU
T$ H
T$ H
\$0H
t$8H
\$0H
t$8H
\$0H
t$8H
H9>H
\$0H
t$8H
GhH9>H
\$0H
t$8H
\$0H
\$0H
t$8H
\$0H
t$8H
t$0H
|$8tBH
H9>H
t$0H
|$8H
SUVWH
T$PH
l$XH9
D$`H
t$PH
T$hfff
|$`D
t$PH
T$XH
T$hH
D$PH
(_^][
UVWH
|$@H
D$HH
|$HD
|$@H9
D$@H
\$PH
 _^]
\$PH
 _^]
r0E3
9S v
;S r
\$0H
@UAWH
\$@H
t$HH
|$PL
t$ ff
.t\H
t$ H
|$PH
t$HH
\$@H
(A_]
SUVWH
|$ D
T$pH
t$`3
EhH9+H
t$hH
L$`D
T$xH
|$ H
H;8t
 uYH
8_^][
D$pH
8_^][
8_^][
UVWH
l$@H
H9;H
L$HH
\$PH
 _^]
|$ H
t$0H9>u	3
\$PH
l$HH
t$ H
EhH9+H
t$0t
T$(H
L$8H
\$P3
l$HH
l$pH
{hHc
D$0L
T$ A
t$xH
D$8H
\$PH
l$H@
L$(H;
t$xH
\$PH
L$HH
H9;H
L$HH
L$@H
|$ H
\$PH
l$@H
\$0H
H9;H
\$0H
|$8H
l$@H
\$0H
t$8H
t$8H
\$03
H9{Xu
H9{Xu"H
\$0H
t$8H
P8fff
D9R8uAA
@x9Bxu8
tAE3
D;Gxr
\$0H
t$8H
\$0H
UVWH
|$@H
T$HH
L$@H
\$PH
 _^]
\$PH
 _^]
\$0H
\$0H
@VAVAWE3
\$ H
l$(H
|$0H
|$HL
d$8L
w8D+
d$8H
|$0H
l$(H
\$ A
A_A^^
9Axv
;Axr
t$ H
t$HH
t$HH
\$83
A9Xxv2
;^xr
l$@H
t$HH
AUAVAWH
@A_A^A]
\$`H
t$03
|$(L
d$ E
l$8I
D9Kxv0f
D;Kxr
D9Sxv7f
D;Sxr
D$hL
D$hA
|$(H
t$0H
\$`L
d$ H
@A_A^A]
SVWATAWH
`A_A\_^[
l$XL
l$PD
t$HE
D$(H
l$PH
l$XL
t$HH
`A_A\_^[
|$8u
t$0H9
|$8H
t$0u
WAVAWH
weH9w@t_
@t	H
vTH9w@tN
H92u!
\$@H
l$HH
t$PH
 A_A^_
t$8H
\$0H
t$83
\$0H
\$0H
\$0H
t$8H
9/v#
\$0H
l$8H
t$@H
t$8H
t$8H
\$0H
9_xv1
;_xr
\$0H
t$8H
@SUH
t$XH
|$`L
d$hL
l$0L
t$(L
|$ ;3r.
;3rG
A;<$r
|$ L
t$(L
l$0L
d$hH
t/H+
t%@:
\$0H
l$8H
t$@H
wvHc
SUVWAUAVAWH
tm@:
d$8H
@A_A^A]_^][
,0<	wI
T$(D
L$(D
+,0<	
D$ L
L$ I
@0Hc
\$0H
t$8H
\$0H
t$8H
\$0H
t$8H
\$0H
\$0E
t$8H
t$8H
\$0H
|$8E
|$8H
t$@H
t$@H
D$(I
D$ I
\$0H
\$0H
\$0H
t$8H
@SUVAVAWH
)A9h
 A_A^^][
|$PA
d$XL
l$`Hc
d$XH
|$PL
l$`H
 A_A^^][
l$ VWAWH
t$@H
@8>tEHc
T$HH
8,u(@8x
t$@H
\$PH
l$XH
 A__^
@88u
\$0H
t$8H
|$@E
;9v7
|$0H
\$8H
l$@H
;9v8
l$8H
t$@H
;9v7
|$0H
\$8H
l$@H
|$ D
:ulA
t$A;
t$ D
t&E;
@SAVH
l$XM
t$`H
|$hL
d$0E
|$ L
l$(M
seM;
s[M;
d$PL
l$(;
|$ H
|$hH
t$`H
l$Xu
8A^[
8A^[
@SAVH
l$XM
t$`H
|$hL
d$0E
|$ L
l$(M
seM;
s[M;
d$PL
l$(;
d$0t|;
|$ H
|$hH
t$`H
l$Xt
8A^[
8A^[
@WAVH
\$pM
l$@H
t$8L
d$0E
l$(L
|$ A
d$`L
D$hI
H;L$h
srI;
shI;
s^I;
\$hD
d$`D;
sHL;
s>M;
|$ L
l$(L
d$0H
t$8H
l$@H
\$pt
HA^_
HA^_
t$ WH
t$0L
|$8L
sXI;
sNI;
t$0L
|$8D;
\$@H
t$HA
t$ AW
t.E;
|$ L
t$(A_
o-`*
o5)*
)|$p
)D$`fD
)L$PD
)T$@fD
)\$0D
)d$ D
)4$fD
(4$f
(d$ D
(\$0D
(T$@D
(L$PD
(D$`
(|$p
UUUU
UUUU
3333
3333
|$ AVAW
l$ H
t$(H
|$0A_A^
L$ SUWATAUAVAWH
|$(L
d$ L
t$HI
\$(L
d$ D
D9 t
t%Hc
t$HH
PA_A^A]A\_][
L$ SVWH
t$`H
t$(L
0_^[
l$8H
t$@H
\$0f
\$0H
t$@H
l$8H
|$0f
|$03
\$8H
\$83
USVWAUAVH
{093uSH
hA^A]_^[]
|$`H
EPD;
D$ L
|$8D
T$ H
MPE;
MPD;
EHD;
MHA;
s0D9;
|$ H
|$`H
hA^A]_^[]
D$`H
L$`H3
|$03
|$0H
t$8H
\$0H
\$0H
t$8H
SAWH
\$8H
D$0H
t$PH
D$@L
T$ D
t$ D
t$ D
\$ D
L$H+
\$8L
D$0I
\$8M
t$hL
l$pL
d$xH
L$ L
UVWATAUAVAWH
)t$PH
)|$@I
D$ L
t$ f
T$ H
(t$P
(|$@H
`A_A^A]A\_^]
D$ H
`8E;
uuD;#rVA
D9a8u0H
QXD9B8v
RXD9B8w
D;x<D
Gx<I
E+f8H
d$ E
T$(D
T$(H
T$(D;
d$ L
l$0H
l$0D;
t*Hc
\$0H
|$0H
\$8H
\$0H
X UVWAVAWH
)T$@E
)\$0
)|$pA
t$ fI
(\$0D
(T$@
(|$pL
A_A^_^]
)t$P
)|$@A
zyuw
\$pH
(t$P
(|$@H
t$8H
|$0H
\$(D
t$8H
|$0H
|$(D
L$ L
SUVH
t$`H
D$XH
t$ L
D$pH
l$xH
L$pH
L$XH
t$xH
|$hH
|$hL
|$hL
|$hL
T$TH
T$TH
D$P;
L$XL
L$XD;
l$PH
l$P;
D$0H
@VATAUAWH
D$PL
D$`D
L$PH
D$0H
D$PH
D$(D
t$pH
L$hH3
xA_A]A\^
l$hL
t$HL
v A;
t$ H
D$0H
T$ H
9H r
t$HH
l$hL
|$@H
|$pH
\$`H
\$`H
\$`H
\$ UH
y(95
u+H95
|$8L
t$0H
\$HH
t$ L
9D$`t
D$`H
\$@H
l$HH
t$PH
d$@L
l$8L
t$0H
t$`H
\$hA
l$pH
t$xH
|$HM
t$`H
L$`D
d$ I
t%A+
t$ L
l$8L
d$@H
|$HH
t$xH
l$pH
\$hM
PA_H
|$0H
VWAWH
l$ L
t$PH
L90tCH
t$PH
\$XH
l$`H
0A__^
\$ UH
t$0H
|$8L
t$@H
|$8H
t$0H
\$HH
\$HH
UVWATAVH
 A^A\_^]
 A^A\_^]
\$PH
l$`H
urD;e
'B9t
D9c8
D;7v@A
t$XJ
l$`L
|$hH
\$PH
 A^A\_^]
WAVAWH
\$@H
urD;u
#B9|
D9s8uPH
\$@H
l$HH
t$PH
 A_A^_
\$03
t$8H
\$0H
D$HH
\$03
t$8H
D$0I
T$ H
D$(H
T$ E3
L$0H3
\$PH
\$0H
t$8H
\$0H
l$8H
t$@H
l$8H
D$0H
L$0H3
D$(H
\$PH
|$hH
|$h3
\$PH
L$0H3
\$0H
t$8H
WAVAWH
l$HH
t$PH
 A_A^_
\$0H
\$8H
l$@H
\$8H
\$ H
\$@H
l$HH
t$PH
D$(H
T$ H
@SWH
l$PI
t$XH
t$`M
|$0L
D$(H
T$ H
|$0L
t$`H
l$PH
\$@H
D$ H
T$XH
\$@3
\$ H
\$@H
l$HH
t$PH
\$@H
t$HH
\$@H
t$HH
\$@H
t$HH
\$@H
t$HH
\$(A
D$ @
\$@H
t$HH
t$ WATAUAVAWH
)t$`H
)|$PI
|$$3
D;3v^
(t$`L
\$pI
(|$PI
A_A^A]A\_
@SATAUH
d$0D
\$8I
A]A\[
d$03
L$dH
d$0L
l$8L
D$@H
|$PH;
fA;_
L$(H
T$ H
;;v<
;;v?
D$XE;
|$P3
T$HA
T$HA
D$HH
L$dH
d$0L
L$@L
l$8H
|$PL;
l$8M
A]A\[
L$ SVWH
t$ L
0_^[
UWAVH
D$(L
D$ H
D$8L
D$0L
D$(H
;	t8
;	t8
D$ L
B:D1
\$`I
A^_]
UVWAVAWH
D$PH
T$`H
T$`3
\$PH
D$PH
T$`H
\$XH
 A_A^_^]H
\$XH
 A_A^_^]
UVWAVAWH
D$PH
T$`H
T$`3
L$PD
D$PH
T$`H
t8Ic_ I
\$XH
 A_A^_^]H
\$XH
 A_A^_^]
UVWATAUAVAWH
D$pI
L$8L
D$ H
T$(3
\$(3
L$ D
D$ H
T$(H
D$0H
T$@H
T$03
D$ H
T$(H
T$(L
L$pH3
A_A^A]A\_^]
L$8H
UVWATAUAVAWH
B:L(
B:L(
T$0H
L$0L
T$0A
L$0L
t$ I
L$0H
T$0L
L$0M
t$ I
@A_A^A]A\_^]
@USVWH
T$pL
D$0H
L$PH
T$@I
D$@3
L$0E3
_^[]
L$0H
D$0H
T$@H
|$8H
L$0H
T$XM
D$PH
D$xH
D$`L
D$8H
|$XH
|$0H
D$XH
D$XH
L$hL
D$HH
D$@H
D$8H
|$ H
L$xH
D$`H
D$8H
D$@H
L$0H
L$0H
D$HH
\$H3
T$pL
L$PH
L$pL
L$PL
UVWATAUAVAWH
A_A^A]A\_^]
SVWH
@_^[
t$(L
l$`L
d$8L
l$0L
|$ E
N(E3
D$hH
un;7rR
	9r8u@H
M89H8v	H
@X9H8w
D$pH
sDM;
s.D+
D$hL
|$ L
l$0L
d$8H
l$`3
t$(H
@_^[
T$(H
|$0H
D$0L
D$ H
T$XH
T$ L
L$XH
D$0H
D$0H
95U+
@UVWH
T$PL
T$pD
T$pD
T$pH
D$@H
D$@H
T$pH
D$@H
D$@H
T$pH
D$@H
D$@H
T$pH
D$@H
D$@H
T$pH
T$@H
tp9B
D$@H
T$pH
T$@H
D$@H
T$pH
T$@H
D$@H
T$pH
L$`H
T$pH
T$pH
T$pH
T$pH
L$(H
T$ H
T$pH
L$8H
T$0H
T$(D
T$pH
T$pH
T$pH
T$pH
T$pH
T$pL
T$p3
T$hL
D$H9
D$@t&
T$hL
D$@H
D$H;
\$XH
T$hD
D$HH
L$XH
D$@;
L$Pt
L$`M
;~xr
|$ UH
D$pH
D$pH
T$0D
D$pH
T$0D
D$pH
T$0L
T$0L
D$pH
T$0L
D$pH
T$0L
D$pH
T$0H
T$@H
MpH3
|$ ATAVAWH
L$hL
L9%6|
\$@H
l$HH
t$PH
|$XH
 A_A^A\
WAVAWH
t$PH
 A_A^_
\$@H
l$HI
l$HH
\$@H
t$PH
 A_A^_
\$0H
t$8H
\$0H
t$8H
t$8H
\$0H
;<uK
/u'L
\$0H
\$0H
l$8H
t$@H
\$0H
\$0H
@SUATAUH
D$PD
|$pL
t$hH
|$`H
T$ H
D$&t	
|$`L
t$hH
|$pH
L$PH3
xA]A\][
|$ AVH
\$0H
l$8H
t$@H
|$HH
@SUVWATAUAVAWH
D$`L
t(Ic
D$(H
t$ H
D$ H
T$0H
L$ H
D$(H
T$ H
D$ I
D$(H
T$ H
L$`H3
xA_A^A]A\_^][
t$ WH
\$@H
t$HH
t$8H
l$0H
l$0H
\$@I
t$8H
x&Hc
C(H)C8
t$(H
x&Hc
G(H)G8H
\$@H
t$HH
x&Hc
F(H)F8H
\$@H
l$HH
t$PH
T$(L
C(H)C8H
\$@H
x&Hc
C(H)C8H
x&Hc
C(H)C8H
\$0H
t$8H
UWAVH
x-Hc
x-Hc
x(Hc
9}/t
-9}+t
t$(L
M7H3
A^_]
t$ AWH
|$0H
|$0H
\$8H
t$@L
t$HH
\$0H
l$8H
t$@H
USAVI
x.Hc
x.Hc
x)Hc
x)Hc
.D9u
|$(L
M'H3
A^[]
VAVAWH
|$@L
|$@H
\$HH
l$PH
 A_A^^
|$ AVH
\$0H
l$8H
t$@H
|$HH
t$@H
\$0H
\$0H
l$8H
\$0H
l$8H
t$@H
SUVAVAWH
D$HH
D$0L
D$HL
t$8H
D$`H
D$@H
l$0I
l$xH
A_A^^][
,0<	
T$XE3
T$XD
L$TH
D$XH
T$TH
L$Xf
D$@D
d$@E
l$8E
D$HA
t$`H
t$0M
l$0E
D$HL
L$@L
L$@L
l$0H
l$ VWATAVAWH
l$`H
t"D:
D$`I
D$`I
l$`H
t"D:
D$`I
D$`I
|$`H
D$`I
D$`I
L$`H
D$`u
\$PH
l$hI
 A_A^A\_^
UVWATAUAVAWH
 Icx
\$`H
L$hI
\$pH
 A_A^A]A\_^]
UVATAUAVAWH
l$4D
l$(I
l$8I
>(u)M
\$pH
|$hA
|$8@8.
T$DA
,0<	vqL
L$DH
D$@H
D$PH
L$@H
T$DH
L$PH;
9(u!L
L$PA
|$8A
|$8@8)
uPD;
t6A+
t(A+
T$0u;
T$0A
T$0A
T$0I
\$pH
|$hH
xA_A^A]A\^]
\$0H
L$ D
SUVWH
T$ H
D$pH
T$hH
T$ H
T$xL
\$`L
8_^][H
8_^][
|$ AUAVAWH
l$HH
t$PH
|$XH
 A_A^A]
\$0H
t$8H
\$0H
l$8H
t$@H
A09P
\$0H
t$8H
\$0H
t$8H
UVWATAUAVAWH
mhE;
<`t@
	uZA
D;O<
@A_A^A]A\_^]
@SVWAVAWH
D$8H
d$HL
l$@L
D$ H
T$(E
L$HL
l$ E
L$0H
/fff
L$0H
A8|$UI
\$Ut`
D$(L
L$0D
d$HE
l$@H
7fff
L$0H
L$8H3
PA_A^_^[
SUVATAUAVAWH
l$8D
D$0H
|$XE
L$ D
d$$E
D$@H
t$HD
E9,$
T$H3
l$8L
5A;E
EUHi
uvA;M
t$0A
A9l$
\$8L
t$0A
\$0H
A9l$
\$8L
\$0HcD$(Li
l$HI
t$(A
\$0H
$E9,
t$(A
9L$ w
D$ H
l$HH
\$0A
\$0H
l (B
|$(A
A9l$
E9|$
|$(A
\$8H
|$8A
E9(E
|$@E
t$0A
D$@Hi
L$8A
L$8E3
t.L9
D$(H
HiT$@
t!A9o
HiT$@
L($H
D$(L
L$8L
D$$3
\$0H
|$XH
`A_A^A]A\^][
L$ D
SVWATAUAVAWH
l$@H
\$8A
D$0L
`A_A^A]A\_^[
D$(I
t$0L
l$@H
L$8E3
l$XH
`A_A^A]A\_^[
\$ UVATAUAWH
T$PA
T$hH
D$xH
\$`H
\$`H
D$`L
D$XD
Genuu
ntelu%
ineIu
Authu
cAMDu	
enti
D$TD
D$`I
d$@H
d$PH
D$8H
t$0H
D$(D
L$ E
L$TH
D$XI
t$(H
A_A]A\^]
|$ AVH
l$0H
l$0H
\$8H
t$@H
|$HH
\$0H
\$0H
t$8H
\$0H
t$8H
t$8H
WATAUAVAWH
\$PH
l$XH
t$`H
 A_A^A]A\_
@SUVWATAUAVAWH
D$ L
D$0I
T$0H;
L$0H+
L$0M
0H1T
L$ H
T$0M
A_A^A]A\_^][
t$ WH
D$(H
\$HL
t$P3
KPI3CxA
I3CPI3C(I3
I3CXI3C0I3C
I3C`I3C8I3C
I3ChI3C@I3C
I3CpI3CHI3C H
gfffA
gfffA
L1A L1AHI
KHI#
S(I3
C@L3
ShI#
KpI3
ChL3
t$PH
\$HH
L$(H3
t$XH
|$ AV
|$(@
t$ fA
|$ UATAUAVAWH
j?$D
D3Q03Y0D3i4D3Y4
A(1A
A,1A
A 1A
A$1A
A(1A
A,1A
M'H3
A_A^A]A\]
@SVWH
D$8H
D$ D
D$2A
D$4A
D$5A
D$6D
D$7;
T$(H
T$0A
L$8H3
@_^[
D$ g
D$XH
L$ H
D$PN
D$(r
D$,:
L$ A
UWAVH
t$@H
rJIc
|$HH
|$HHc
t$@H
t4Ic
\$PH
 A^_]
\$PH
 A^_]
UVWATAUAVAWH
D$XH+
l$HL
T(`K
K3D(
l(@L3
t( H
d(`L
M#8H
O3<(I#
<(H#
I38I
UUUUUUUUI
L( H
L(@I
L(`I
L$ H
T(@K
d( H
K3D(
,(H#
|(@M
M#0I
I38L3
33333333M3
L( I
L(@I
D$8L
T( J
K3D(
|( M
M#0L
I38H
D$8H3
L( I
t$0L
T$8H
K3D(
M#0O34
I38L#
t$0M
L$(H
|$ H
O34(L#
4(I3}
T$(M
t$0H
T$8J
L$ J
l$HH
T$ H
D$0M#
L$ M
t$0I
T$8N
T$ O
l$HL
t$ H
D$ L3
\$8M
t$ L3
D$XA
l$HH
`A_A^A]A\_^]
H1A H
H1A(H
H1A0H
H1A8H
H1A@H
H1AHH
H1APH
H1AX
H1C`H
H1ChH
H1CpH
H1CxH
\$8H
\$8H
\$8H
\$8H
WAVAWH
l$@H
t$HK
t$HH
l$@H
\$PH
 A_A^_
UWAVH
EPE3
D$ H;
D$\H;
D$ L
D$ A
D$ H
T$ H
T$ L+
T$pH
T$ H
T$pH
T$ H
T$pH
T$ H
T$pH
T$ H
T$pH
T$pH
T$ H
T$pH
T$ H
T$pH
T$ H
T$pH
T$ H
T$pH
E<H;
MPH3
A^_]
@}$f
C@Hc
CDHc
t$@H
\$0H
l$8H
T$ H
L$ H;
D$ D
D$ H+
D$ L+
MGH3
A(A3
A8A3
D3\2
C-D3
D3L2
C6D3
C?D3
D3\2
C#D3
D3L2
C5E3
C>D3
D3\2
C+D3
C=D3
D3L2
D3\2
C3D3
D3L2
C2D3\2
C;D3
D3L2
2D3\2
D3L2
C'D3
2D3\2
D3L2
C&D3
C/D3
D3\2
D3L2
C%E3
C.D3
3A$5
A,A3
3A45
A<A3
D3\2
C;D3
D3L2
C&D3
C7D3
D3\2
D3L2
C.D3
C?D3
C:D3\2
D3L2
C%E3
C6D3
2D3\2
D3L2
C-E3
C>D3
2D3\2
D3L2
C5E3
D3\2
C#D3
D3L2
C=E3
D3\2
C+D3
D3L2
C'D3
D3\2
C3D3
D3L2
C/D3
O8E3
VATAUAVAWH
@}/3
|$XD+
@|/H
l$PA
l$PH
|$XA
t Hc
\$`H
 A_A^A]A\^
D$ L
L$ H
VATAUAVAWH
)l$@D
)t$0D
)|$ I;
C E3
A_A^A]A\^
3AHSH
D$ H
L$0H
T$(3
x UATAUAVAWH
L$xfH
L$hfH
L$PfH
L$@fH
L$0I3
E@L+
L$pN
D$8H
L$(H
D$XH
t$hH
L$`H
t$PH
|$0H
L$HH
L$@H
D$xL
L$xM
l$HI
D$@I
t$ L
d$PL
T$(L
\$XH
T$(M
L3t$
H3D$
T$(I3
T$(H
T$(M
H3D$
l$HL
H3t$
D$hI3
H3L$HH
T$(H3|$(H
T$`I
|$`H
D$@H
l$@H
t$ H
D$PL
D$ L
T$HI
|$8I3
L$pL
\$XL
L$(L
L$(L
D$ M
l$@L
T$HL
T$PI
L$xH
L$hL
t$XH
l$0L
l$8H
D$ L
L1T$
d$@L3
L1d$@L
l$8L
l$pH
D$ H
D$xL
\$(M
t$8M3
L1t$8L
T$0L
L1T$0H
H1\$
L14$H
	L1d$
T$PL
T$HM
\$(L
\$ H
L1\$ L
\$0L
t$XL
t$PL
t$ H
L1t$ I
T$HH
L$hH
L$(H
L$8H
L$(H
L$@H
\$HI
L3l$hH
T$`J
T$XL
T$XL
T$0H
\$HH
\$@I
\$8L
t$PL
t$(M3
t$(H
|$ I
\$@L
T$`L
D$xH
|$ L
D$hL
T$`H
H3D$XH
H3D$PH
H3D$HH
H3D$(H
H3D$
H3D$xH
E I3
A_A^A]A\]
\$0H
\$0H
l$83
t$@H
VWATAVAWH
CHE3
l$PH
K0H;
l$P3
\$XH
l$`H
 A_A^A\_^
t$ WATAUAVAWH
D$XI
D$ L
D$0fff
M3e0L
l$8I
|$PH
t$@M
|$HL
E0H3
E0L3
u0H3
E0H3
E8H3
E L3
u H3
E0L3
E8L3
u8H3
E8H3
E L3
M8H3
E0L3
*H3D$8I
D$0H
L$XH3
\$`I
A_A^A]A\_
 v|H
\$0H
 v&H
\$0H
l$83
t$@H
VATAUAVAWH
ChE3
|$PH
?fff
[PH;
|$P3
\$XH
l$`H
 A_A^A]A\^
D$`H
3AHSH
L$`H3
t$ WATAUAVAWH
D$PH
y(L3
Y8I3
aHI3
QPI3
iXH3
D$(H3
\$`I3
|$@I
|$pM+
l$HL
\$8I
d$0H
T$hH
l$ L
D$PI
D$hL
T$8M
l$(I3
T$HM
\$(K
l$PH
l$hH
d$0L
|$ I
D$HI3
d$`H
l$ L
47H3
L$(J
D$hH
D$8L
\$hI
L$@I3
t$PH
T$0I
D$ H
D$(M
T$HI
\$ I3
l$PH3
D$hL3
|$@M
|$xI
|$hH
\$pI3
l$xH
l$@H
D$0H
L$8I
D$ H
T$HI
T$(M3
T$ M
\$`I
D$pL3
D$@M3
\$PL
\$8M
D$@H3
D$ I
T$pI3
l$PI
l$8H
L$0I
D$`L3
T$(L
D$HH
T$xI
H1l$
D$`L
H3L$
T$HH
l$xH
l$(H
D$pH
H3L$
D$@L
L$XL
L$0H
D$8H
D$XI3
H1,$L
H1l$
,$H3
L$@H
L$ H
D$XH
	H3T$
D$8H3
l$0H
D$`I
d$HH
H3T$
T$XH
D$(L3
T$XH
D$PL
D$XH
H1D$
L1l$
H1,$H
H1l$
D$XH
d$PH
D$@H
T$(H
T$XH1T$
d$pH
D$8H
D$0L
L1|$
H1,$H
L1<$H
H1l$
d$0H
L1,$H
D$8H
D$HH
	H3L$
l$xH
l$ H
T$XH
T$`H
L$XH
D$(H
H1l$
D$(H3T$
D$8H
l$pH
L$@H
D$ H
T$ I3
T$HI3
l$PH3
l$`H
D$(H
L$pH
t$hH
L$8I3
l$xH3
l$@H
D$ H3
T$`L
D$hH
t$ I3
l$HH
T$(H
L$pL
d$@H
\$`H
D$ I3
L$0H
l$PI3
l$8H
T$HH3
D$pL
T$8H
T$hI3
l$xH
l$(H
D$HH3
D$(I
q(H3
D$0H
D$PH
D$ H
A_A^A]A\_
@v|H
\$0H
@v&H
\$0H
l$83
t$@H
\$0H
T$@H
T$@H
T$@H
\$0H
H	G 3
@SVWH
L$(I
L$ H
\$03
t$8H
H9=*x
\$0H
t$8H
t!eH
\$PH
uyHc
uTL+
D$8H
D$8H
D$@H
D$(H
D$(H
T$0H
\$ WH
T$PH
L$XH
T$PL
L$0L
L$`H
L$(3
\$hH
@SVWH
T$`H
L$hH
T$`L
L$0L
L$pH
L$(3
@_^[
\$@H
t$HH
L$0L
L$(H
L$ 3
L$PH
D$PH
D$@H
D$H3
HcA<H
8csm
\$0H
VWAVH
cAMD
enti
AuthD
ineI
ntelD
Genu
t(=`
t!=p
T$0H
D$0$
\$83
l$@H
A^_^
\$ UH
M H1E
 H3E H3E
\$HH
\$0H
t$8H
\$0H
t$8H
UAVAWH
(D$@
L$XH
L$`H
(D$`
(L$PH
L$pH
L$xH
(L$p
U`Hi
(E`f
t$ L
A_A^]
UWAVH
D$(H
D$03
t$@H
T$0H
D$@L+
D$(H
D$P	
t$XH
D$(H
|$ H
M`H3
A^_]
\$0H
t$8H
\$0H
t$8H
T$@H
T$@H
L$PH
D$HH
D$ D
T$@H
D$HH
\$@H
\$@H
L$ SUVWAVH
H;QP
D$0H
T$0H
L$@L
L$pH
|$pH
t$(H
A^_^][
VWAVH
t$PD
t$XL
t$HD
t$8H
D$0H
D$@D
T$ H
l$xL
\$ H
L$ L
A^_^
UVWATAUAVAWH
L+8I
D$(H
\$ L
EHH;
D$(H
\$ L
t	fA
z-u+
M0L;
D$(H
T$ O
E(H;
gfffffffI
MpL;
w]L;
CEXD
CEXA
CEXD
D$ L
UhH;
CEXH
C]8H
\$xH
|$pH
t$hL
t$`L
|$XL
d$HH
D$@H
D$8L
l$0H
D$(H
D$ L
uxI;
A_A^A]A\_^]
@UVWATAUAVAWH
D$ L
T$@H
T$@H
L$XL
L$0L
D$PH
d$(L
l$ L
gfffffffI
T$8H
T$8H
\$ L
A_A^A]A\_^]
UVWATAUAVAW
D$ L
@`I+
X5nW
Y5NW
D$xH
D$pH
D$hH
D$`H
D$XH
D$PH
D$HH
t$0H
|$(H
L0(L
D$(L
L$ H
A_A^A]A\_^]
@USAVH
D$ L
L$@D
t	fD
t	fD
D$HD
D$0L
D$(H
t	fD
t	fD
t	fD
D$0L
D$HH
D$(L
D$hH
A^[]
\$xH
D$PH
|$0s
|$0H
D$HH
L$0H=
L$PH3
\$xH
@UVWATAUAVAWH
D$8H
:H9p
T$8H
T$8H
L$pL
L$0L
D$hH
L$PI;
gfffffffH
T$@H
T$@H
\$ L
A_A^A]A\_^]
UVWATAUAVAWH
\$@H
;L9`
D$hH
L$PH=
T$@H
D$hH
L$PH=
t$`H
L$pH=
DH9x
L$pH=
D$0H
L$(H
D$ L
T$@H
T$@H
L$pL
L$(H
D$ N
M@H3
A_A^A]A\_^]
D$PH
L$(H
T$ H
L$(H
L$PH3
UVWATAUAVAWH
)\$pD
)d$`H
L$(L
L+(I
:H9x
|$(I
z$u"
A_A^A]A\_^]
T$0I
(D$0
(L$@
(D$P
(L$`
T$pH
WATAWH
D$PH
D$0H
D$HH
L$0H
L$PH3
\$`I
A_A\_
@UVWATAUAVAWH
A_A^A]A\_^]
)D$0
)L$@
)D$P
)L$`H
ChH9
D$ H
l$0I
t$@H
D$8H
|$HH
t$@H
l$0H
@SVWH
D$HH
 _^[
l$@H
t$PL
|$XH
D$HH
|$Xu
l$@H
 _^[
l$@H
 _^[
D$0L
L$0H
D$0L
@WATH
l$XL
\$PL
l$0M
t$(L
|$ L
t$(H;
l$0H
\$PL
|$ H
t$`H
l$Xu
8A\_
8A\_
D$0H
\$8H
@UVWH
t(H9
l$ L
T$@H
UATAUAVAWH
|$ H
T$0Hi
(D$0f
T$XI
L$hH=
|$@I
T$XI
T$XI
)EPH
\$hH
l$pH
t$xI
|$8H
D$`H
D$`H
D$ L
\$hH
l$pH
t$xH
UWATAVAWH
D$ H
D$ H
D$(H
D$ H
D$(H
d$`L
d$hH
|$8H
D$(L
D$8H
T$(H
L$0H
D$(H
T$hH
D$pH
T$hH
T$hH;
D$pH
D$pH
T$hH
T$hH
T$hH
D$ H
\$PH
t$XH
|$HH
\$PH
t$XH
@UVWH
\$@H
\$0H
D$(H
T$0H
CT$0A
L$PL
T$0H
CT$0A
T$0H
CT$0A
T$0H
CT$0A
D$HH
L$0H=
MPH3
\$pH
t$xH
D$hH
|$0H
|$(H
D$ E3
\$pH
t$xH
T$0H
|$HH
l$8H
|7fA
t$@H
l$8H
|$HH
\$HH
D$@H
\$HH
@SVWAVH
D$`3
D$P3
D$XL
D$PH
D$Hf
D$0H
D$PH
\$0H
\$8H
T$@H;
D$0H;
D$0H;
D$0H
\$ L
D$PH
8 rZ
|$pH
L$`H3
xA^_^[
@SE3
|$ 2
@USVWATAVAWH
H;_ t
H;G u
\$ H
L$0H
D$0H
L$ H
)D$@H
T$@H
)D$PH
T$PH
A_A^A\_^[]
@UVWATAUAVAWH
T$ t
L$ f
D$8H
L$@H
A_A^A]A\_^]
@UVWAVAWH
H9n`t7
^`H;^pt
H;Fpu
H;^ t
H;F u
t$8H
l$@L
t$HH
9hPt!
A:D*
PA_A^_^]
@WAVAW
|$0H
D$8H
D$(H
t^H+
A_A^_
|$ H
)D$@H
T$@H
D$ 3
D$@H
D$@A
D$@H
@UAWH
|$PH
t$ f
\$@I
\$@I
t$ H
|$PH
t$H2
(A_]
\$ D
UVWH
D$0L
D$(L
D$@H
D$ L
D$0H
T$@H
\$0f
T$8H
\$8H
\$XH
t$`I
D$0H
|$PH
D$hL
D$PH
T$hH
L$ H
\$XH
t$`H
L$0H
@8=)
D$ L
D$ H
L$ fD
L$ fA
L$ f
D$ f
L$ fD
L$ fA
D$ f
L$ fA
L$ fD
L$ fA
L$ f
T$ fA
L$ fD
(t$p
(|$`D
(L$@f
(T$0f
(D$Pf
D$(f
D$0f
D$8f
D$@f
D$Hf
D$Pf
D$Xf
UATAUAVAWH
D$8H
L$8H
D$XHk
L$`H
L$hH
T$@Hi
(D$@f
l$ M
T$0H
A_A^A]A\]
UATAUAVAWH
D$(H
L$ H
D$(Hk
L$HH
L$PH
T$hH
T$pH
T$xH
T$0Hi
(D$0f
A_A^A]A\]
\$PH
D$HH
\$PH
UVWH
L$ H
l$(H
D$0L
D$(H
T$0H
L$8H
p_^]
l$ VAVAWH
\$HH
|$@;+rG
D$HH
|$@H
\$PH
l$XH
 A_A^^
D$HH
t$ UH
t$XH
|$`L
\$PH
D$0f
D$ A
L$ f
\$@f
WATAUAVAWH
\$PH
l$XH
t$`H
 A_A^A]A\_
l$8H
\$0H
t$@H
D$0H
t$ L
t$ L
@UVWATAUAVAWH
D$@H
D$8L
|$HL
|$@D
|$ L
PA_A^A]A\_^]
D$PH
D$0H
L$8H
T$ +
L$(H
(D$ f
L$PH3
\$xH
u0E3
\$0H
\$0H
L$8H
D$@H
D$8H
T$@I
L$0H
D$0D
L$0L
\$(H
D$0L
D$ 3
\$0H
K E3
\$0H
L$0H
T$0Lc
\$8H
\$0H
UVWH
D$@H
\$ WH
D$@H
D$@H
@UVWATAUAVAWH
L$XH
L$`H
L$hH
L$pH
L$xH
|$\A
D$XH
D$(H
D$@H
|$PH
T$ H
T$ H
D$ H
D$ H
\$8H
|$PL
t$(H
T$0L;
d$HH
T$@H
D$PL+
T$(H
D$8L+
u2I;
t$I+
|$ I
u[I;
|$0M+
A_A^A]A\_^]
D$@H
D$43
D$03
D$(H
D$ 3
L$@H3
L$@H3
\$0H
t$8H
\$0H
t$8H
\$0H
x AVH
\$0H
l$8H
t$@H
|$HH
T`00P
V++}
L&&jl66Z~??A
Oh44\Q
sb11S*
RF##e
&N''i
X,,t4
v;;M
R)){
>^//q
,@  `
r99K
f33U
x<<D%
p88H
uB!!c 
z==G
D""fT**~;
;d22Vt::N
H$$l
Cn77Y
J%%o\..r8
|>>Bq
j55_
P((x
Z--w
P`00
gg}V++
jL&&Zl66A~??
\h44
Sb11?*
eF##^
iN''
tX,,.4
RRMv;;a
{R))>
q^//
`@  
Kr99
MMUf33
PPDx<<
Hp88
cB!!0 
DD9.
~~Gz==
]]+2
fD""~T**
Vd22Nt::
lH$$
Yn77
xxoJ%%r\..$8
tt!>
ppB|>>
aa_j55
UUxP((z
wZ--
0P`0
g+}V+
&jL&6Zl6?A~?
4\h4
1Sb1
#eF#
'iN'
,tX,
R;Mv;
){R)
/q^/
 `@ 
9Kr9J
M3Uf3
P<Dx<
8Hp8
!cB!
~=Gz=d
"fD"*~T*
2Vd2:Nt:
$lH$\
7Yn7m
x%oJ%.r\.
p>B|>
a5_j5W
U(xP(
-wZ-
00P`
++}V
=&&jL66Zl??A~
44\h
11Sb
##eF
''iN
,,tX
-6nn
;;Mv
})){R
//q^
  `@
g99KrJJ
33Uf
<<Dx
!88Hp
!!cB
==Gzdd
+2ss
""fD**~T
22Vd::Nt
$$lH\\
77Ynmm
%%oJ..r\
!>KK
>>B|
55_jWW
3"ii
((xP
)--wZ
!(Ew
2_{6n
)l\^'-
<$;nq
TZFx
E~Dl
0/*g
)5CN
@T z
p_i7
$1J^
5;6Q
kgyA
~	L#'Q&
k<VL
XX&~
0t*Q
N^ee
1p.D
0xGNe
Mf3L
_E`%
\hQV
Sb*kA?AT?*
0Hx(x`(07
$~Z6ZH6$
tX4Fr.rh.46Aw-wl-6
%Ku>
cw/X
cB pP0P@0 
&y_5_L5&
.eK9K\9.
2O}+}d+2
k(lD<DP<(
r\8Tl$lp$8W_
Ws!R
>]c!c|!>
B|q&W
:Si'it':'
+"wU3UD3"
-<Zf"fx"<
m,bN:NX:,
$rgHba
Fxy;*W
0eZ;
InitializeConditionVariable
SleepConditionVariableCS
WakeAllConditionVariable
bad allocation
bad array new length
Unknown exception
generic
false
true
%x:%x.%x
%x:%x:%x.%x
Press any key to exit.
=MSTTScom.dll
Usage %s [CONFIG FILE]
benchmark_mode
-------------------------------------------------------------------
xmr-stak-cpu 1.3.0-1.5.0 mining software, CPU Version.
Based on CPU mining code by wolf9466 (heavily optimized by fireice_uk).
Brought to you by fireice_uk and psychocrypt under GPLv3.
Configurable dev donation level is set to %.1f %%
You can use following keys to display reports:
'h' - hashrate
'r' - results
'c' - connection
-------------------------------------------------------------------
Running a 60 second benchmark...
Thread %u: %.1f H/S
Total: %.1f H/S
[%F %T] : 
Give up limit reached. Exitting.
Pool connection lost. Waiting %lld s before retry (attempt %llu).
SOCKET ERROR - %s
Dev pool logged in. Switching work.
Connected. Logging in...
 H/s
Dev pool connection error. Switching work.
Difficulty changed. Now: %llu.
New block detected.
[NETWORK ERROR]
Result accepted by the pool.
Result rejected by the pool.
Unauthenticated
Error connecting to dev pool. Staying with user pool.
Your miner was unable to find a share in time. Either the pool difficulty is too high, or the pool timeout is too low.
[NETWORK ERROR]
Connecting to pool %s ...
always
Connecting to dev pool...
method
donate.xmr-stak.net:6666
%F %T
method
donate.xmr-stak.net:3333
never
params
Switching back to user pool.
HASHRATE REPORT
error
result
| ID | 2.5s |  60s |  15m |
m@ ID | 2.5s |  60s |  15m |
| %2u |
-----------------------------------------------------
---------------------------
Totals:  
job_id
 H/s
Highest: 
RESULT REPORT
You haven't found any results yet.
 (%.1f %%)
Difficulty       : 
Good results     : 
%.1f sec
Avg result time  : 
Pool-side hashes : 
Top 10 best results found:
| %2llu | %16llu | %2llu | %16llu |
Error details:
| Count | Error text                       | Last seen           |
| %5llu | %-32.32s | %s |
Yay! No errors.
CONNECTION REPORT
Pool address    : 
Connected since : 
Connected since : <not connected>
Pool ping time  : 
Pool ping time  : (n/a)
Network error log:
| %s | %-54.54s |
| Date                | Error text                                             |
Yay! No errors.
Hashrate Report
Hashrate Report
Result Report
Result Report
Connection Report
Connection Report
not connected
/style.css
If-None-Match
ETag
text/css; charset=utf-8
Content-Type
/api.json
application/json; charset=utf-8
Content-Type
/hashrate
text/html; charset=utf-8
Content-Type
/connection
text/html; charset=utf-8
Content-Type
/results
text/html; charset=utf-8
Content-Type
Host
http://%s/h
Location
HTTP Daemon failed to start.
use_slow_memory
cpu_threads_conf
aes_override
nicehash_nonce
tls_secure_algo
use_tls
pool_address
tls_fingerprint
pool_password
wallet_address
retry_time
call_timeout
verbose_level
giveup_limit
daemon_mode
h_print_time
httpd_port
output_file
low_power_mode
prefer_ipv4
affine_to_cpu
no_prefetch
no_mlck
warn
CPU support of SSE2 is required.
Oversized config file - %s.
Failed to open config file %s.
Read error while reading %s.
File is empty or too short - %s.
Invalid config file. No root?
JSON config parse error(offset %llu): %s
Invalid config file. Missing value "%s".
Code error. oConfigValues are not in order.
Thread %llu has invalid config.
Invalid config file. Value "%s" has unexpected type.
Invalid config file. use_slow_memory must be "always", "no_mlck", "warn" or "never"
You need to use less than 32 threads in NiceHash mode.
Invalid config file. verbose_level and h_print_time need to be positive integers.
On Windows large pages need mlock. Please use another option.
PARSE error: Unsupported server method 
Invalid config file. call_timeout, retry_time and giveup_limit need to be positive integers.
Invalid config file. httpd_port has to be in the range 0 to 65535.
RECEIVE error: data overflow
PARSE error: Protocol error 1
message
Your CPU doesn't support hardware AES. Don't expect high hashrates.
PARSE error: Invalid root
PARSE error: Invalid JSON
PARSE error: Protocol error 2
PARSE error: Protocol error 3
PARSE error: Protocol error 7
PARSE error: Protocol error 5
PARSE error: Unexpected call response
PARSE error: Protocol error 6
PARSE error: Job error 1
target
blob
PARSE error: Job error 3
PARSE error: Job error 2
PARSE error: Job error 4
PARSE error: Invalid job legth. Are you sure you are mining the correct coin?
PARSE error: Invalid target
00000000
PARSE error: Invalid target
0000000000000000
CALL error: Timeout while waiting for a reply
PARSE error: Job error 5
PARSE error: Login protocol error 1
{"method":"login","params":{"login":"%s","pass":"%s","agent":"xmr-stak-cpu/1.3.0-1.5.0"},"id":1}
PARSE error: Login protocol error 3
PARSE error: Login protocol error 2
single
{"method":"submit","params":{"id":"%s","job_id":"%s","nonce":"%s","result":"%s"},"id":1}
%x:%x.%x
hwloc: can't bind memory
%x:%x:%x.%x
hwloc: memory pinned
MEMORY ALLOC FAILED: %s
MEMORY ALLOC FAILED: %s
MEMORY ALLOC FAILED: %s
This is a test
MEMORY INIT ERROR: %s
This is a test
The quick brown fox jumps over the lazy dogThe quick brown fox jumps over the lazy log
The quick brown fox jumps over the lazy dogThe quick brown fox jumps over the lazy log
double
}'=|1
double
Cryptonight hash self-test failed. This might be caused by bad compiler optimizations.
Starting %s thread, affinity: %d.
}'=|1
Starting %s thread, no affinity.
single
CONNECT error: Pool address overflow.
CONNECT error: Pool port number not specified, please use format <hostname>:<port>.
sha256
CONNECT error: I found some DNS records but no IPv4 or IPv6 addresses.
CONNECT error: GetAddrInfo: 
CONNECT error: 
CONNECT error: Socket creation failed 
RECEIVE error: 
RECEIVE error: socket closed
HIGH:!aNULL:!kRSA:!PSK:!SRP:!MD5:!RC4:!SHA1
SEND error: 
SHA256:
FINGERPRINT FAILED CHECK: %.*s was given, %s was configured
Server fingerprint: %.*s
RECEIVE error: socket closed
FINGERPRINT FAILED CHECK
<tr><td>%s</td><td>%s</td></tr>
</table></div></div></body></html>
<tr><td colspan='2'>%s</td></tr><tr><td>%llu</td><td>%s</td></tr>
[%s,%s,%s]
{"count":%llu,"last_seen":%llu,"text":"%s"}
<div class=data><table><tr><th>Difficulty</th><td>%u</td></tr><tr><th>Good results</th><td>%u / %u (%.1f %%)</td></tr><tr><th>Avg result time</th><td>%.1f sec</td></tr><tr><th>Pool-side hashes</th><td>%u</td></tr></table><h4>Top 10 best results found</h4><table><tr><th style='width: 2em;'>1</th><td>%llu</td><th style='width: 2em;'>2</th><td>%llu</td></tr><tr><th>3</th><td>%llu</td><th>4</th><td>%llu</td></tr><tr><th>5</th><td>%llu</td><th>6</th><td>%llu</td></tr><tr><th>7</th><td>%llu</td><th>8</th><td>%llu</td></tr><tr><th>9</th><td>%llu</td><th>10</th><td>%llu</td></tr></table><h4>Error details</h4><table><tr><th colspan='2'>Error text</th></tr><tr><th style='width: 5em;'>Count</th><th>Last seen</th></tr>
<!DOCTYPE html><html><head><meta name='viewport' content='width=device-width' /><link rel='stylesheet' href='style.css' /><title>%s</title></head><body><div class='all'><div class='header'><span style='color: rgb(255, 160, 0)'>XMR</span>-Stak-CPU</div><div class='flex-container'><div class='links flex-item'><a href='/h'><div><span class='letter'>H</span>ashrate</div></a></div><div class='links flex-item'><a href='/r'><div><span class='letter'>R</span>esults</div></a></div><div class='links flex-item'><a href='/c'><div><span class='letter'>C</span>onnection</div></a></div></div><h4>%s</h4>
<tr><th>%u</th><td>%s</td><td>%s</td><td>%s</td></tr>
{"hashrate":{"threads":[%s],"total":%s,"highest":%s},"results":{"diff_current":%llu,"shares_good":%llu,"shares_total":%llu,"avg_time":%.1f,"hashes_total":%llu,"best":[%llu,%llu,%llu,%llu,%llu,%llu,%llu,%llu,%llu,%llu],"error_log":[%s]},"connection":{"pool": "%s","uptime":%llu,"ping":%llu,"error_log":[%s]}}
{"last_seen":%llu,"text":"%s"}
</table></div></div></body></html>
<div class=data><table><tr><th>Thread ID</th><th>2.5s</th><th>60s</th><th>15m</th><th rowspan='%u'>H/s</td></tr>
<div class=data><table><tr><th>Pool address</th><td>%s</td></tr><tr><th>Connected since</th><td>%s</td></tr><tr><th>Pool ping time</th><td>%u ms</td></tr></table><h4>Network error log</h4><table><tr><th style='width: 20%; min-width: 10em;'>Date</th><th>Error</th></tr>
<tr><th>Totals:</th><td>%s</td><td>%s</td><td>%s</td></tr><tr><th>Highest:</th><td>%s</td><td colspan='2'></td></tr></table></div></div></body></html>
00000006
SeLockMemoryPrivilege
body {font-family: Tahoma, Arial, sans-serif;font-size: 80%;background-color: rgb(240, 240, 240);}a {color: rgb(44, 55, 66);}a:link {text-decoration: none;}a:visited {color: rgb(44, 55, 66);}a:hover {color: rgb(255, 153, 0);}a:active {color: rgb(204, 122, 0);}.all {max-width:600px;margin: auto;}.header {background-color: rgb(30, 30, 30);color: white;padding: 10px;font-weight: bold;margin: 10px 0px;}.links {padding: 7px;text-align: center;background-color: rgb(215, 215, 215);box-shadow: 0px 1px 3px 0px rgba(0, 0, 0, 0.2), 0px 1px 1px 0px rgba(0, 0, 0, 0.14), 0px 2px 1px -1px rgba(0, 0, 0, 0.12);}.data th, td {padding: 5px 12px;text-align: right;border-bottom: 1px solid #ccc;}.data tr:nth-child(even) {background-color: #ddd;}.data th {background-color: #ccc;}.data table {width: 100%;max-width: 600px;}.letter {font-weight: bold;}h4 {background-color: rgb(0, 130, 130);color: white;padding: 10px;margin: 10px 0px;}.flex-container {display: -webkit-flex;display: flex;}.flex-item {width: 33%;margin: 3px;}
VirtualAlloc failed.
Obtaning SeLockMemoryPrivilege failed.
ABCDEFGHIJKLMNOPQRSTUVWXYZabcdefghijklmnopqrstuvwxyz0123456789+/
The configuration for 'cpu_threads_conf' in your config file is 'null'.
The miner evaluates your system and prints a suggestion for the section `cpu_threads_conf` to the terminal.
The values are not optimal, please try to tweak the values based on notes in config.txt.
Please copy & paste the block within the asterisks to your config.
The CPU doesn't seem to have a cache.
**************** Copy&Paste BEGIN ****************
"cpu_threads_conf" :
    { "low_power_mode" : %s, "no_prefetch" : true, "affine_to_cpu" : %u },
**************** Copy&Paste END ****************
Autoconf FAILED: %s
Printing config for a single thread. Please try to add new ones until the hashrate slows down.
**************** FAILURE Copy&Paste BEGIN ****************
    { "low_power_mode" : false, "no_prefetch" : true, "affine_to_cpu" : false },
**************** FAILURE Copy&Paste END ****************
Inclusive
Cache object hasn't got attributes.
Failed to allocate a PU.
vector<T> too long
invalid vector<T> subscript
string too long
invalid string position
deque<T> too long
broken promise
future already retrieved
promise already satisfied
no state
future
[OK]
 %03.1f
 (na)
%.1f
null
list<T> too long
No error.
The document is empty.
The document root must not be followed by other values.
Invalid value.
Missing a name for object member.
Missing a colon after a name of object member.
Missing a comma or '}' after an object member.
Missing a comma or ']' after an array element.
Incorrect hex digit after \u escape in string.
The surrogate pair in string is invalid.
Invalid escape character in string.
Missing a closing quotation mark in string.
Invalid encoding in string.
Number too big to be stored in double.
Miss fraction part in number.
Miss exponent in number.
Terminate parsing due to Handler error.
Unspecific syntax error.
Unknown error.
vH7B
W4vC
9Y>)F$
raB3G
)c=H
]rHa
O8Mr
bnMG
[*QmU
mr"iR
R$N(
-sSO\
T%L9
hGT.
B}T}
=@[V
!a9X
X5AHx
%4xY
Z~$|7
+\0I
2a\|
\ysK
|M$D
pH_r
(:W"
s\ax}?
pc2g
@BXV
tC7Ddx
EydV
eax~Z
ekhHD
@iZb
k0V(
k*do^
:V!2m
RJqn
bzo=
$qE}
XqkY
quAt
Jugm
~B v
STv/N
_w&2
xg^Jp5|
yMzw
;	Fzo
{zel#|67
P/};
[@JO
nQ:B
****************************************************************************
HWLOC_HIDE_ERRORS
* hwloc %s has encountered what looks like an error from the operating system.
1.11.7
* %s
* The following FAQ entry in the hwloc documentation may help:
* Error occurred in topology.c line %d
* Otherwise please report this error message to the hwloc user's mailing list,
*   What should I do when hwloc reports "operating system" warnings?
* along with any relevant topology information from your platform.
HWLOC_DEBUG_CHECK
%s (P#%u cpuset %s%s%s)
 nodeset 
recursion has gone too deep?!
%s (cpuset %s%s%s)
Cannot merge similar %s objects with different OS indexes %u and %u
Cannot merge similar %s objects with different OS levels %u and %u
%s intersects with %s without inclusion!
Backend
Custom
--- %s level
Backend %s forcing a reconnect of levels
HWLOC_THISSYSTEM_ALLOWED_RESOURCES
Topology became empty, aborting!
ProcessName
hwlocVersion
synthetic
linux
HWLOC_XML_USERDATA_NOT_DECODED
custom
HWLOC_FORCE_XMLFILE
HWLOC_FORCE_FSROOT
HWLOC_XMLFILE
HWLOC_FSROOT
System
Misc
Machine
NUMANode
Group
Cache
Package
Bridge
Core
OSDev
PCIDev
Unknown
PCIBridge
HostBridge
machine
system
numa
node
socket
package
core
bridge
misc
pcibridge
hostbridge
bloc
openfab
copro
cache
co-pro
0123456789
group
CoProc
L%u%s%s
unknown
%s%u
Block
PCI %04x:%04x
OpenFabrics
%04x:%02x:%02x.%01x
%s%s
,0x%08lx
0xf...f
,0x0
0x%08lx
none
Ignoring %s distances from environment variable, range doesn't cover at least 2 indexes
%u-%u:
Ignoring %s distances from environment variable, needs at least 2 indexes
Ignoring %s distances from environment variable, missing colon
Ignoring %s distances from environment variable, invalid grouping (%u*%u*%u=%u instead of %u)
%u*%u*%u
Ignoring invalid %s distances from environment variable
Ignoring %s distances from environment variable, not enough values (%u out of %u)
* hwloc %s has encountered an error when adding a distance matrix to the topology.
HWLOC_%s_DISTANCES
* cpuset %s and nodeset %s
* hwloc_distances__finalize_logical() could not find any object covering
* Please report this error message to the hwloc user's mailing list,
* Please make sure that distances given through the interface or environment
* hwloc %s has encountered what looks like an error from user-given distances.
* variables do not contradict any other topology information.
Distance matrix asymmetric ([%u,%u]=%f != [%u,%u]=%f), aborting
Found transitive graph with %u objects with minimal distance %f accuracy %f
Trying to group %u %s objects according to physical distances with accuracy %f
Distance to self not strictly minimal ([%u,%u]=%f <= [%u,%u]=%f), aborting
HWLOC_IGNORE_DISTANCES
HWLOC_GROUPING
HWLOC_GROUPING_ACCURACY
HWLOC_GROUPING_VERBOSE
global
stop
**unknown**
Cannot register discovery component with name `%s' containing reserved characters `%c,'
Cannot register discovery component with reserved name `stop'
Dropping previously registered discovery component `%s', priority %u lower than new one %u
Cannot register discovery component `%s' with unknown type %u
Ignoring new discovery component `%s', priority %u lower than previously registered one %u
Registered %s discovery component `%s' with priority %u (%s%s)
statically build
Ignoring static component with invalid flags %lx
HWLOC_COMPONENTS_VERBOSE
Excluding %s discovery component `%s', conflicts with excludes 0x%x
Ignoring static component, failed to initialize
HWLOC_COMPONENTS
Failed to instantiate discovery component `%s'
Cannot find discovery component `%s'
libpci
Final list of enabled discovery components: 
Excluding %s discovery component `%s' because of HWLOC_COMPONENTS environment variable
Cannot enable %s discovery component `%s' with unknown flags %lx
Enabling %s discovery component `%s'
Cannot enable %s discovery component `%s' twice
Disabling %s discovery component `%s'
HWLOC_THISSYSTEM
kernel32.dll
GetActiveProcessorCount
GetActiveProcessorGroupCount
GetCurrentProcessorNumber
GetLogicalProcessorInformation
SetThreadGroupAffinity
GetCurrentProcessorNumberEx
GetNumaAvailableMemoryNode
GetThreadGroupAffinity
GetLogicalProcessorInformationEx
GetNumaAvailableMemoryNodeEx
VirtualAllocExNuma
K32QueryWorkingSetEx
psapi.dll
VirtualFreeEx
%s#%u mask %lx
QueryWorkingSetEx
Windows
%s#%u %d: mask %d:%lx
windows
HWLOC_XML_VERBOSE
HWLOC_NO_LIBXML_IMPORT
os_level
type
cpuset
os_index
online_cpuset
complete_cpuset
nodeset
allowed_cpuset
allowed_nodeset
complete_nodeset
cache_size
name
cache_linesize
%s: ignoring cache_size attribute for non-cache object type
cache_associativity
%s: ignoring cache_linesize attribute for non-cache object type
cache_type
%s: ignoring cache_associativity attribute for non-cache object type
%s: ignoring cache_type attribute for non-cache object type
%s: ignoring invalid cache_type attribute %ld
depth
local_memory
pci_busid
%s: ignoring depth attribute for object type without depth
%s: ignoring pci_busid attribute for non-PCI object
%s: ignoring invalid pci_busid format string %s
%04x [%04x:%04x] [%04x:%04x] %02x
pci_type
%s: ignoring pci_type attribute for non-PCI object
%s: ignoring invalid pci_type format string %s
%s: ignoring pci_link_speed attribute for non-PCI object
pci_link_speed
%u-%u
bridge_type
%s: ignoring bridge_type attribute for non-bridge object
%s: ignoring invalid bridge_type format string %s
%04x:[%02x-%02x]
bridge_pci
%s: ignoring bridge_pci attribute for non-bridge object
%s: ignoring invalid bridge_pci format string %s
osdev_type
%s: ignoring osdev_type attribute for non-osdev object
%s: ignoring invalid osdev_type format string %s
subkind
kind
subtype
%s: ignoring %s attribute for non-group object
gp_index
Type
DMIBoardVendor
dmi_board_vendor
DMIBoardName
dmi_board_name
%s: ignoring memory_kB attribute for object type without memory
memory_kB
%s: ignoring huge_page_size_kB attribute for object type without huge pages
huge_page_size_kB
%s: ignoring huge_page_free attribute for object type without huge pages
huge_page_free
value
%s: ignoring unknown object attribute %s
count
size
relative_depth
nbobjs
%s: failed to allocate distance matrix for %lu objects
latency_base
%s: ignoring invalid distance matrix with only 1 object
latency
encoding
length
anon
base64
normal%c%s
base64%c%s
* hwloc has encountered an out-of-order XML topology load.
CoProcType
* was inserted after object %s with %s and %s.
* Object %s cpuset %s complete %s
* The error occured in hwloc %s inside process `%s', while
<unknown>
* the input XML was generated by hwloc %s inside process `%s'.
(unknown version)
* Please check that your input topology XML file is valid.
* the input XML was generated by an unspecified ancient hwloc release.
page_type
object
distances
info
obj_depth
userdata
obj_attr_type
obj_index
obj_attr_name
obj_attr_index
obj_attr_newvalue
obj_attr_oldvalue
%s: missing mandatory obj attr generic attributes
%s: ignoring unknown diff attribute %s
%s: missing mandatory obj attr info name attribute
%s: missing mandatory obj attr value attributes
bad nbobjs
diff
%s: XML component discovery failed.
%s: ignoring invalid distance matrix, there aren't exactly %u objects below root
%llu
xmlbuffer
#10;
abcdefghijklmnopqrstuvwxyz_
#13;
quot;
amp;
<!DOCTYPE 
<?xml 
topology
<topology>
Failed to parse XML input with the minimalistic parser. If it was not
generated by hwloc, try enabling full XML support with libxml2.
/dev/stdin
refname
topologydiff
&#10;
	"<>&
&#9;
&#13;
&lt;
&quot;
&amp;
&gt;
%*s<%s
</%s>
 %s="%s"
%*s</%s>
<?xml version="1.0" encoding="UTF-8"?>
<!DOCTYPE topology SYSTEM "hwloc.dtd">
<?xml version="1.0" encoding="UTF-8"?>
<!DOCTYPE topologydiff SYSTEM "hwloc.dtd">
Failed to allocate synthetic index array of size %lu
Failed to read synthetic index #%lu at '%s'
0123456789,
Failed to allocate synthetic index interleave loop array of size %u
Missing comma after synthetic index #%lu at '%s'
Invalid interleaving loop with step 0 at '%s'
Failed to read synthetic index interleaving loop '%s' without number before '*'
Invalid interleaving loop with number 0 at '%s'
Failed to read synthetic index interleaving loop '%s' without number between '*' and ':'
Misc object type disallowed in synthetic index interleaving loop type '%s'
Failed to read synthetic index interleaving loop type '%s'
Invalid duplicate interleaving loop type in synthetic index '%s'
Failed to find level for synthetic index interleaving loop type '%s' above '%s'
Invalid index interleaving generates out-of-range index %u
Invalid index interleaving total width %lu instead of %lu
Invalid index interleaving generates duplicate index values
size=
Missing attribute closing bracket in synthetic string doesn't have a number of objects at '%s'
indexes=
memory=
Unknown attribute at '%s'
HWLOC_SYNTHETIC_VERBOSE
Missing parameter separator at '%s'
Synthetic string with disallowed object type at '%s'
Synthetic string with unknown object type at '%s'
Synthetic string doesn't have a number of objects at '%s'
Synthetic string doesn't have a `:' after object type at '%s'
Too many synthetic levels, max %d
Synthetic string with disallow 0 number of objects at '%s'
Synthetic string doesn't contain any object
Synthetic string cannot use PU type for non-last level
Synthetic string cannot use non-PU type for last level
Synthetic string can not have several PU levels
Synthetic string missing ending number of PUs
Synthetic string can not have several machine levels
Synthetic string can not have several NUMA node levels
SyntheticDescription
Synthetic
CPUFamilyNumber
CPUVendor
CPUModel
CPUModelNumber
ComputeUnit
CPUStepping
could not bind to CPU%d: %s
Architecture
x86_64
no_os
3333333333333333
L=UUUUUUUUUUUUUUUU
GCTL
.text$mn
.text$mn$00
.text$x
.text$yd
.idata$5
.00cfg
.CRT$XCA
.CRT$XCAA
.CRT$XCL
.CRT$XCZ
.CRT$XIA
.CRT$XIAA
.CRT$XIAC
.CRT$XIC
.CRT$XIZ
.CRT$XLA
.CRT$XLZ
.CRT$XPA
.CRT$XPZ
.CRT$XTA
.CRT$XTZ
.rdata
.rdata$T
.rdata$r
.rdata$zzzdbg
.rtc$IAA
.rtc$IZZ
.rtc$TAA
.rtc$TZZ
.xdata
.xdata$x
.idata$2
.idata$3
.idata$4
.idata$6
.data
.data$r
.bss
.pdata
.tls
.tls$
.tls$ZZZ
.rsrc$01
.rsrc$02
GetStdHandle
SetConsoleMode
ReadConsoleA
GetConsoleMode
FormatMessageA
SetThreadAffinityMask
VirtualFree
GetCurrentProcess
VirtualAlloc
GetLargePageMinimum
GetLastError
CloseHandle
KERNEL32.dll
OpenProcessToken
LookupPrivilegeValueA
AdjustTokenPrivileges
ADVAPI32.dll
freeaddrinfo
getaddrinfo
WSAPoll
WSASocketW
WS2_32.dll
SSLEAY32.dll
LIBEAY32.dll
_Cnd_signal
_Query_perf_frequency
?_Throw_Cpp_error@std@@YAXH@Z
?_Xbad_alloc@std@@YAXXZ
?_Xout_of_range@std@@YAXPEBD@Z
?_Throw_C_error@std@@YAXH@Z
?_Xlength_error@std@@YAXPEBD@Z
?_Syserror_map@std@@YAPEBDH@Z
_Mtx_lock
_Cnd_do_broadcast_at_thread_exit
_Cnd_destroy
_Thrd_sleep
_Cnd_wait
_Mtx_init
_Thrd_start
_Query_perf_counter
_Thrd_detach
_Xtime_get_ticks
_Mtx_destroy
_Cnd_init
_Mtx_unlock
_Mtx_destroy_in_situ
_Mtx_init_in_situ
?__ExceptionPtrAssign@@YAXPEAXPEBX@Z
_Cnd_unregister_at_thread_exit
?__ExceptionPtrCreate@@YAXPEAX@Z
_Cnd_init_in_situ
?__ExceptionPtrCopyException@@YAXPEAXPEBX1@Z
?__ExceptionPtrCopy@@YAXPEAXPEBX@Z
?_Throw_future_error@std@@YAXAEBVerror_code@1@@Z
?_Rethrow_future_exception@std@@YAXVexception_ptr@1@@Z
?__ExceptionPtrToBool@@YA_NPEBX@Z
?__ExceptionPtrDestroy@@YAXPEAX@Z
_Cnd_register_at_thread_exit
_Cnd_broadcast
_Cnd_destroy_in_situ
_Mtx_current_owns
_Cnd_timedwait
_Thrd_id
_Thrd_join
_Thrd_yield
MSVCP140.dll
__CxxFrameHandler3
__std_exception_destroy
memmove
__std_exception_copy
_purecall
__std_terminate
memchr
strstr
strchr
__C_specific_handler
strrchr
memcpy
memset
__vcrt_InitializeCriticalSectionEx
_CxxThrowException
VCRUNTIME140.dll
srand
terminate
__stdio_common_vsprintf
_stricmp
_time64
_invalid_parameter_noinfo_noreturn
fopen
__acrt_iob_func
_localtime64_s
fflush
strftime
fputs
exit
_dtest
_strnicmp
ftell
fclose
realloc
fseek
rewind
free
fread
malloc
rand
strncmp
_aligned_free
_aligned_malloc
_gmtime64_s
abort
_beginthreadex
__stdio_common_vfprintf
_errno
strerror
strtoul
_strdup
qsort
atoi
getenv
tolower
strcspn
strtol
calloc
strspn
atof
__stdio_common_vsscanf
_strtoui64
ferror
_stat64i32
fwrite
isspace
_callnewh
_configure_narrow_argv
_initialize_narrow_environment
_initialize_onexit_table
_register_onexit_function
_crt_atexit
_cexit
_seh_filter_exe
_set_app_type
__setusermatherr
_get_initial_narrow_environment
_initterm
_initterm_e
_exit
_set_fmode
__p___argc
__p___argv
_c_exit
_register_thread_local_exe_atexit_callback
_configthreadlocale
_set_new_mode
__p__commode
api-ms-win-crt-utility-l1-1-0.dll
api-ms-win-crt-runtime-l1-1-0.dll
api-ms-win-crt-stdio-l1-1-0.dll
api-ms-win-crt-string-l1-1-0.dll
api-ms-win-crt-time-l1-1-0.dll
api-ms-win-crt-math-l1-1-0.dll
api-ms-win-crt-heap-l1-1-0.dll
api-ms-win-crt-convert-l1-1-0.dll
api-ms-win-crt-environment-l1-1-0.dll
api-ms-win-crt-filesystem-l1-1-0.dll
api-ms-win-crt-locale-l1-1-0.dll
EnterCriticalSection
InitializeCriticalSectionAndSpinCount
LeaveCriticalSection
DeleteCriticalSection
SetHandleInformation
WaitForSingleObject
Sleep
RaiseException
GetTickCount64
SwitchToThread
SetProcessAffinityMask
GetProcessAffinityMask
GetCurrentThread
LoadLibraryA
GetSystemInfo
GetProcAddress
SetEvent
ResetEvent
WaitForSingleObjectEx
CreateEventW
GetModuleHandleW
RtlCaptureContext
RtlLookupFunctionEntry
RtlVirtualUnwind
UnhandledExceptionFilter
SetUnhandledExceptionFilter
TerminateProcess
IsProcessorFeaturePresent
IsDebuggerPresent
QueryPerformanceCounter
GetCurrentProcessId
GetCurrentThreadId
GetSystemTimeAsFileTime
InitializeSListHead
memcmp
floor
strcmp
c|w{
9JLX
~=d]
100-continue
Closing connection (stream error)
HTTP/1.1
Expect
close
Closing connection (out of memory)
Closing connection (error generating response)
HTTP/1.1
Connection
Keep-Alive
upgrade
HTTP/1.0
Date: %3s, %02u %3s %04u %02u:%02u:%02u GMT
HTTP/1.1
close
Cookie
%s %u %s
HTTP/1.0
close
HTTP/1.0
close
Keep-Alive
Date
close
Connection
HTTP/1.1
Transfer-Encoding
Connection
CONNECT
Content-Length: %llu
identity
0.0.0
Content-Length
Connection: close
Connection: Keep-Alive
Locked
Connection
Not enough memory for write!
%s: %s
Transfer-Encoding: chunked
Connection
Error %u (`%s') processing request, closing connection.
Closing connection (failed to create response header)
C:\Users\MAIN\Downloads\libmicrohttpd-latest.tar\libmicrohttpd-latest\libmicrohttpd-0.9.50\w32\VS2015\..\..\src\microhttpd\connection.c
HTTP/1.0
Not enough memory to allocate header record!
Not enough memory to parse cookies!
<html><head><title>Request too big</title></head><body>Your HTTP header was too big for the memory constraints of this webserver.</body></html>
<html><head><title>Request too big</title></head><body>Your HTTP header was too big for the memory constraints of this webserver.</body></html>
<html><head><title>Internal server error</title></head><body>Some programmer needs to study the manual more carefully.</body></html>
Internal application error, closing connection.
<html><head><title>Request too big</title></head><body>Your HTTP header was too big for the memory constraints of this webserver.</body></html>
<html><head><title>Request too big</title></head><body>Your HTTP header was too big for the memory constraints of this webserver.</body></html>
Received malformed HTTP request (bad chunked encoding), closing connection.
Internal application error, closing connection.
API violation
Host
Received malformed HTTP request (bad chunked encoding), closing connection.
Received malformed line (no colon), closing connection.
<html><head><title>Request too big</title></head><body>Your HTTP header was too big for the memory constraints of this webserver.</body></html>
C:\Users\MAIN\Downloads\libmicrohttpd-latest.tar\libmicrohttpd-latest\libmicrohttpd-0.9.50\w32\VS2015\..\..\src\microhttpd\connection.c
HTTP/1.1
Received `%s' request without `%s' header.
Host
<html><head><title>Request too big</title></head><body>Your HTTP header was too big for the memory constraints of this webserver.</body></html>
<html><head><title>Request malformed</title></head><body>Your HTTP request was syntactically incorrect.</body></html>
Content-Length
Transfer-Encoding
<html><head><title>&quot;Host:&quot; header required</title></head><body>In HTTP 1.1, requests must include a &quot;Host:&quot; header, and your HTTP 1.1 request lacked such a header.</body></html>
HTTP/1.1
Content-Length
chunked
Failed to send data: %s
Data offset exceeds limit
Failed to parse `%s' header `%s', closing connection.
HTTP/1.1 100 Continue
Internal error
Failed to acquire cleanup mutex
C:\Users\MAIN\Downloads\libmicrohttpd-latest.tar\libmicrohttpd-latest\libmicrohttpd-0.9.50\w32\VS2015\..\..\src\microhttpd\connection.c
Failed to send data: %s
Failed to release cleanup mutex
C:\Users\MAIN\Downloads\libmicrohttpd-latest.tar\libmicrohttpd-latest\libmicrohttpd-0.9.50\w32\VS2015\..\..\src\microhttpd\connection.c
Closing connection (failed to create response header)
<html><head><title>Request malformed</title></head><body>Your HTTP request was syntactically incorrect.</body></html>
POST
C:\Users\MAIN\Downloads\libmicrohttpd-latest.tar\libmicrohttpd-latest\libmicrohttpd-0.9.50\w32\VS2015\..\..\src\microhttpd\connection.c
Closing connection (failed to create response header)
<html><head><title>Request malformed</title></head><body>Your HTTP request was syntactically incorrect.</body></html>
Connection
Connection
POST
HEAD
Fatal error in GNU libmicrohttpd %s:%u: %s
Gone
C:\Users\MAIN\Downloads\libmicrohttpd-latest.tar\libmicrohttpd-latest\libmicrohttpd-0.9.50\w32\VS2015\..\..\src\microhttpd\daemon.c
Failed to release IP connection limit mutex
Failed to make socket non-blocking: %s
Failed to acquire IP connection limit mutex
Failed to find previously-added IP address
C:\Users\MAIN\Downloads\libmicrohttpd-latest.tar\libmicrohttpd-latest\libmicrohttpd-0.9.50\w32\VS2015\..\..\src\microhttpd\daemon.c
C:\Users\MAIN\Downloads\libmicrohttpd-latest.tar\libmicrohttpd-latest\libmicrohttpd-0.9.50\w32\VS2015\..\..\src\microhttpd\daemon.c
Failed to add IP connection count node
Can't add FD to fd_set
Error during select (%d): `%s'
Previously-added IP address had 0 count
libmicrohttpd
Failed to release cleanup mutex
C:\Users\MAIN\Downloads\libmicrohttpd-latest.tar\libmicrohttpd-latest\libmicrohttpd-0.9.50\w32\VS2015\..\..\src\microhttpd\daemon.c
close failed
Failed to acquire cleanup mutex
C:\Users\MAIN\Downloads\libmicrohttpd-latest.tar\libmicrohttpd-latest\libmicrohttpd-0.9.50\w32\VS2015\..\..\src\microhttpd\daemon.c
Error during poll: `%s'
Server reached connection limit (closing inbound connection)
close failed
close failed
Failed to create a thread: %s
Failed to release cleanup mutex
C:\Users\MAIN\Downloads\libmicrohttpd-latest.tar\libmicrohttpd-latest\libmicrohttpd-0.9.50\w32\VS2015\..\..\src\microhttpd\daemon.c
Error allocating memory: %s
close failed
Failed to acquire cleanup mutex
C:\Users\MAIN\Downloads\libmicrohttpd-latest.tar\libmicrohttpd-latest\libmicrohttpd-0.9.50\w32\VS2015\..\..\src\microhttpd\daemon.c
Error allocating memory: %s
close failed
Failed to acquire cleanup mutex
C:\Users\MAIN\Downloads\libmicrohttpd-latest.tar\libmicrohttpd-latest\libmicrohttpd-0.9.50\w32\VS2015\..\..\src\microhttpd\daemon.c
close failed
Failed to release cleanup mutex
C:\Users\MAIN\Downloads\libmicrohttpd-latest.tar\libmicrohttpd-latest\libmicrohttpd-0.9.50\w32\VS2015\..\..\src\microhttpd\daemon.c
close failed
Failed to acquire cleanup mutex
C:\Users\MAIN\Downloads\libmicrohttpd-latest.tar\libmicrohttpd-latest\libmicrohttpd-0.9.50\w32\VS2015\..\..\src\microhttpd\daemon.c
Error allocating memory: %s
close failed
Failed to acquire cleanup mutex
C:\Users\MAIN\Downloads\libmicrohttpd-latest.tar\libmicrohttpd-latest\libmicrohttpd-0.9.50\w32\VS2015\..\..\src\microhttpd\daemon.c
failed to signal resume via pipe
C:\Users\MAIN\Downloads\libmicrohttpd-latest.tar\libmicrohttpd-latest\libmicrohttpd-0.9.50\w32\VS2015\..\..\src\microhttpd\daemon.c
Failed to release cleanup mutex
C:\Users\MAIN\Downloads\libmicrohttpd-latest.tar\libmicrohttpd-latest\libmicrohttpd-0.9.50\w32\VS2015\..\..\src\microhttpd\daemon.c
failed to signal new connection via pipe
Failed to make socket non-inheritable: %u
Failed to release cleanup mutex
C:\Users\MAIN\Downloads\libmicrohttpd-latest.tar\libmicrohttpd-latest\libmicrohttpd-0.9.50\w32\VS2015\..\..\src\microhttpd\daemon.c
Error accepting connection: %s
Failed to acquire cleanup mutex
C:\Users\MAIN\Downloads\libmicrohttpd-latest.tar\libmicrohttpd-latest\libmicrohttpd-0.9.50\w32\VS2015\..\..\src\microhttpd\daemon.c
close failed
Failed to release cleanup mutex
C:\Users\MAIN\Downloads\libmicrohttpd-latest.tar\libmicrohttpd-latest\libmicrohttpd-0.9.50\w32\VS2015\..\..\src\microhttpd\daemon.c
close failed
Could not obtain daemon fdsets
Could not add listen socket to fdset
C:\Users\MAIN\Downloads\libmicrohttpd-latest.tar\libmicrohttpd-latest\libmicrohttpd-0.9.50\w32\VS2015\..\..\src\microhttpd\daemon.c
Illegal call to MHD_get_timeout
Cannot suspend connections without enabling MHD_USE_SUSPEND_RESUME!
poll failed: %s
C:\Users\MAIN\Downloads\libmicrohttpd-latest.tar\libmicrohttpd-latest\libmicrohttpd-0.9.50\w32\VS2015\..\..\src\microhttpd\daemon.c
Error allocating memory: %s
Could not add control pipe FD to fdset
Cannot resume connections without enabling MHD_USE_SUSPEND_RESUME!
select failed: %s
C:\Users\MAIN\Downloads\libmicrohttpd-latest.tar\libmicrohttpd-latest\libmicrohttpd-0.9.50\w32\VS2015\..\..\src\microhttpd\daemon.c
failed to signal quiesce via pipe
C:\Users\MAIN\Downloads\libmicrohttpd-latest.tar\libmicrohttpd-latest\libmicrohttpd-0.9.50\w32\VS2015\..\..\src\microhttpd\daemon.c
poll failed: %s
C:\Users\MAIN\Downloads\libmicrohttpd-latest.tar\libmicrohttpd-latest\libmicrohttpd-0.9.50\w32\VS2015\..\..\src\microhttpd\daemon.c
failed to signal quiesce via pipe
C:\Users\MAIN\Downloads\libmicrohttpd-latest.tar\libmicrohttpd-latest\libmicrohttpd-0.9.50\w32\VS2015\..\..\src\microhttpd\daemon.c
Failed to create control pipe: %s
C:\Users\MAIN\Downloads\libmicrohttpd-latest.tar\libmicrohttpd-latest\libmicrohttpd-0.9.50\w32\VS2015\..\..\src\microhttpd\daemon.c
close failed
Failed to allocate memory for nonce-nc map: %s
Specified value for NC_SIZE too large
C:\Users\MAIN\Downloads\libmicrohttpd-latest.tar\libmicrohttpd-latest\libmicrohttpd-0.9.50\w32\VS2015\..\..\src\microhttpd\daemon.c
Failed to make control pipe non-blocking: %s
setsockopt failed: %s
C:\Users\MAIN\Downloads\libmicrohttpd-latest.tar\libmicrohttpd-latest\libmicrohttpd-0.9.50\w32\VS2015\..\..\src\microhttpd\daemon.c
close failed
setsockopt failed: %s
Hit process or system resource limit at FIRST connection. This is really bad as there is no sane way to proceed. Will try busy waiting for system resources to become magically available.
C:\Users\MAIN\Downloads\libmicrohttpd-latest.tar\libmicrohttpd-latest\libmicrohttpd-0.9.50\w32\VS2015\..\..\src\microhttpd\daemon.c
Failed to join a thread
Call to socket failed: %s
MHD thread pooling only works with MHD_USE_SELECT_INTERNALLY
Failed to bind to port %u: %s
setsockopt failed: %s
Hit process or system resource limit at %u connections, temporarily suspending accept(). Consider setting a lower MHD_OPTION_CONNECTION_LIMIT.
C:\Users\MAIN\Downloads\libmicrohttpd-latest.tar\libmicrohttpd-latest\libmicrohttpd-0.9.50\w32\VS2015\..\..\src\microhttpd\daemon.c
setsockopt failed: %s
C:\Users\MAIN\Downloads\libmicrohttpd-latest.tar\libmicrohttpd-latest\libmicrohttpd-0.9.50\w32\VS2015\..\..\src\microhttpd\daemon.c
Failed to listen for connections: %s
C:\Users\MAIN\Downloads\libmicrohttpd-latest.tar\libmicrohttpd-latest\libmicrohttpd-0.9.50\w32\VS2015\..\..\src\microhttpd\daemon.c
close failed
epoll is not supported on this platform by this build.
Using MHD_quiesce_daemon in this mode requires MHD_USE_PIPE_FOR_SHUTDOWN
C:\Users\MAIN\Downloads\libmicrohttpd-latest.tar\libmicrohttpd-latest\libmicrohttpd-0.9.50\w32\VS2015\..\..\src\microhttpd\daemon.c
close failed
MHD failed to initialize IP connection limit mutex
C:\Users\MAIN\Downloads\libmicrohttpd-latest.tar\libmicrohttpd-latest\libmicrohttpd-0.9.50\w32\VS2015\..\..\src\microhttpd\daemon.c
close failed
MHD failed to initialize IP connection limit mutex
Invalid option %d! (Did you terminate the list with MHD_OPTION_END?)
Specified thread pool size (%u) too big
close failed
Failed to create listen thread: %s
MHD HTTPS option %d passed to MHD compiled without HTTPS support
close failed
Failed to make worker control pipe non_blocking: %s
C:\Users\MAIN\Downloads\libmicrohttpd-latest.tar\libmicrohttpd-latest\libmicrohttpd-0.9.50\w32\VS2015\..\..\src\microhttpd\daemon.c
MHD failed to initialize nonce-nc mutex
close failed
Failed to create pool thread: %s
C:\Users\MAIN\Downloads\libmicrohttpd-latest.tar\libmicrohttpd-latest\libmicrohttpd-0.9.50\w32\VS2015\..\..\src\microhttpd\daemon.c
close failed
Failed to acquire cleanup mutex
Combining MHD_USE_THREAD_PER_CONNECTION and MHD_USE_SUSPEND_RESUME is not supported.
MHD_stop_daemon() called while we have suspended connections.
Failed to release cleanup mutex
C:\Users\MAIN\Downloads\libmicrohttpd-latest.tar\libmicrohttpd-latest\libmicrohttpd-0.9.50\w32\VS2015\..\..\src\microhttpd\daemon.c
close failed
Failed to signal shutdown via pipe
C:\Users\MAIN\Downloads\libmicrohttpd-latest.tar\libmicrohttpd-latest\libmicrohttpd-0.9.50\w32\VS2015\..\..\src\microhttpd\daemon.c
close failed
failed to signal shutdown via pipe
C:\Users\MAIN\Downloads\libmicrohttpd-latest.tar\libmicrohttpd-latest\libmicrohttpd-0.9.50\w32\VS2015\..\..\src\microhttpd\daemon.c
failed to signal shutdown via pipe
C:\Users\MAIN\Downloads\libmicrohttpd-latest.tar\libmicrohttpd-latest\libmicrohttpd-0.9.50\w32\VS2015\..\..\src\microhttpd\daemon.c
close failed
Winsock version 2.2 is not available
C:\Users\MAIN\Downloads\libmicrohttpd-latest.tar\libmicrohttpd-latest\libmicrohttpd-0.9.50\w32\VS2015\..\..\src\microhttpd\daemon.c
close failed
Switching Protocols
MHD failed to initialize cleanup connection mutex for thread worker %d
Created
C:\Users\MAIN\Downloads\libmicrohttpd-latest.tar\libmicrohttpd-latest\libmicrohttpd-0.9.50\w32\VS2015\..\..\src\microhttpd\daemon.c
Failed to create worker control pipe: %s
close failed
Partial Content
Moved Temporarily
C:\Users\MAIN\Downloads\libmicrohttpd-latest.tar\libmicrohttpd-latest\libmicrohttpd-0.9.50\w32\VS2015\..\..\src\microhttpd\daemon.c
close failed
Multiple Choices
C:\Users\MAIN\Downloads\libmicrohttpd-latest.tar\libmicrohttpd-latest\libmicrohttpd-0.9.50\w32\VS2015\..\..\src\microhttpd\daemon.c
close failed
Moved Permanently
C:\Users\MAIN\Downloads\libmicrohttpd-latest.tar\libmicrohttpd-latest\libmicrohttpd-0.9.50\w32\VS2015\..\..\src\microhttpd\daemon.c
Failed to initialize winsock
Temporary Redirect
C:\Users\MAIN\Downloads\libmicrohttpd-latest.tar\libmicrohttpd-latest\libmicrohttpd-0.9.50\w32\VS2015\..\..\src\microhttpd\daemon.c
Non-Authoritative Information
Payment Required
C:\Users\MAIN\Downloads\libmicrohttpd-latest.tar\libmicrohttpd-latest\libmicrohttpd-0.9.50\w32\VS2015\..\..\src\microhttpd\daemon.c
Multi Status
Reset Content
Not Acceptable
Method Not Allowed
C:\Users\MAIN\Downloads\libmicrohttpd-latest.tar\libmicrohttpd-latest\libmicrohttpd-0.9.50\w32\VS2015\..\..\src\microhttpd\daemon.c
Switch Proxy
Proxy Authentication Required
Length Required
Request Time-out
C:\Users\MAIN\Downloads\libmicrohttpd-latest.tar\libmicrohttpd-latest\libmicrohttpd-0.9.50\w32\VS2015\..\..\src\microhttpd\daemon.c
Failed to join a thread
Processing
Not Modified
Request-URI Too Large
C:\Users\MAIN\Downloads\libmicrohttpd-latest.tar\libmicrohttpd-latest\libmicrohttpd-0.9.50\w32\VS2015\..\..\src\microhttpd\daemon.c
Failed to join a thread
No Content
Bad Request
Unauthorized
Unsupported Media Type
C:\Users\MAIN\Downloads\libmicrohttpd-latest.tar\libmicrohttpd-latest\libmicrohttpd-0.9.50\w32\VS2015\..\..\src\microhttpd\daemon.c
Precondition Failed
C:\Users\MAIN\Downloads\libmicrohttpd-latest.tar\libmicrohttpd-latest\libmicrohttpd-0.9.50\w32\VS2015\..\..\src\microhttpd\daemon.c
Failed to join a thread
See Other
Unknown
C:\Users\MAIN\Downloads\libmicrohttpd-latest.tar\libmicrohttpd-latest\libmicrohttpd-0.9.50\w32\VS2015\..\..\src\microhttpd\daemon.c
Unknown
C:\Users\MAIN\Downloads\libmicrohttpd-latest.tar\libmicrohttpd-latest\libmicrohttpd-0.9.50\w32\VS2015\..\..\src\microhttpd\daemon.c
Requested Range Not Satisfiable
Expectation Failed
C:\Users\MAIN\Downloads\libmicrohttpd-latest.tar\libmicrohttpd-latest\libmicrohttpd-0.9.50\w32\VS2015\..\..\src\microhttpd\daemon.c
Unprocessable Entity
C:\Users\MAIN\Downloads\libmicrohttpd-latest.tar\libmicrohttpd-latest\libmicrohttpd-0.9.50\w32\VS2015\..\..\src\microhttpd\daemon.c
Unknown
C:\Users\MAIN\Downloads\libmicrohttpd-latest.tar\libmicrohttpd-latest\libmicrohttpd-0.9.50\w32\VS2015\..\..\src\microhttpd\daemon.c
Failed to join a thread
Use Proxy
Unknown
C:\Users\MAIN\Downloads\libmicrohttpd-latest.tar\libmicrohttpd-latest\libmicrohttpd-0.9.50\w32\VS2015\..\..\src\microhttpd\daemon.c
Upgrade Required
C:\Users\MAIN\Downloads\libmicrohttpd-latest.tar\libmicrohttpd-latest\libmicrohttpd-0.9.50\w32\VS2015\..\..\src\microhttpd\daemon.c
Unknown
C:\Users\MAIN\Downloads\libmicrohttpd-latest.tar\libmicrohttpd-latest\libmicrohttpd-0.9.50\w32\VS2015\..\..\src\microhttpd\daemon.c
Failed Dependency
C:\Users\MAIN\Downloads\libmicrohttpd-latest.tar\libmicrohttpd-latest\libmicrohttpd-0.9.50\w32\VS2015\..\..\src\microhttpd\daemon.c
%x.%x.%x
Forbidden
Unordered Collection
C:\Users\MAIN\Downloads\libmicrohttpd-latest.tar\libmicrohttpd-latest\libmicrohttpd-0.9.50\w32\VS2015\..\..\src\microhttpd\daemon.c
Continue
Accepted
Not Found
Conflict
Request Entity Too Large
Unknown
Unknown
Unknown
Unknown
Unknown
Unknown
Unknown
Unknown
Unknown
Unknown
Unknown
Unknown
Unknown
Unknown
Unknown
Unknown
Unknown
Unknown
No Response
Unknown
Blocked by Windows Parental Controls
Unavailable For Legal Reasons
Unknown
Retry With
Bad Gateway
Service Unavailable
Internal Server Error
Not Implemented
Variant Also Negotiates
Insufficient Storage
Gateway Time-out
HTTP Version not supported
Not Extended
Unknown
Unknown
Bandwidth Limit Exceeded
No error
Socket already connected
Socket operation on non-socket
Operation would block
Connection already in progress
Protocol wrong type for socket
Protocol not available
Destination address required
Message too long
Operation not supported on socket
Protocol family not supported
Unknown protocol
Socket type not supported
Cannot assign requested address
Network is down
Address family not supported by protocol family
Address already in use
Software caused connection abort
Connection reset by peer
Network is unreachable
Network dropped connection on reset
Socket is not connected
Can't send after socket shutdown
No system resources available
Socket is already connected
Connection refused
Cannot translate name
Too many references: cannot splice
Connection timed out
Too many processes
Too many users
Host is down
Host is unreachable
Resource is remote
No data available
Disk quota exceeded
Stale file handle reference
Insufficient memory available
One or more parameters are invalid
No error
Specified event object handle is invalid
Overlapped operations will complete later
Interrupted function call
Overlapped operation aborted
Overlapped I/O event object not in signaled state
Bad address
Invalid argument
File handle is not valid
Permission denied
Operation now in progress
Operation already in progress
Too many open files
Resource temporarily unavailable
Message too long
Protocol wrong type for socket
Socket operation on nonsocket
Destination address required
Socket type not supported
Operation not supported
Bad protocol option
Protocol not supported
Address already in use
Cannot assign requested address
Protocol family not supported
Address family not supported by protocol family
Network dropped connection on reset
Software caused connection abort
Network is down
Network is unreachable
Socket is already connected
Socket is not connected
Connection reset by peer
No buffer space available
Connection timed out
Connection refused
Cannot send after socket shutdown
Too many references
Host is down
No route to host
Cannot translate name
Name too long
User quota exceeded
Disk quota exceeded
Directory not empty
Too many processes
Network subsystem is unavailable
Winsock.dll version out of range
Stale file handle reference
Item is remote
No more results
Call has been canceled
Successful WSAStartup not yet performed
Graceful shutdown in progress
Service provider failed to initialize
System call failure
Procedure call table is invalid
Service provider is invalid
No more results
Call was canceled
Service not found
Class type not found
Nonauthoritative host not found
This is a nonrecoverable error
Database query was refused
Host not found
QoS senders
No QoS senders
Valid name, no data record of requested type
QoS receivers
QoS admission error
QoS policy failure
QoS no receivers
QoS request confirmed
QoS traffic control error
QoS generic error
QoS bad style
QoS bad object
Invalid QoS provider buffer
Invalid QoS filter style
QoS service type error
QoS flowspec error
Invalid QoS object length
Incorrect QoS flow count
Invalid QoS filter type
Incorrect QoS filter count
Invalid QoS flow descriptor
Invalid QoS provider-specific flowspec
Unrecognized QoS object
Invalid QoS policy object
Invalid QoS shaping rate object
Reserved policy QoS element type
Invalid QoS provider-specific filterspec
Invalid QoS shape discard mode object
Unknown winsock error
.?AVtype_info@@
.?AVbad_alloc@std@@
.?AVbad_array_new_length@std@@
.?AVruntime_error@std@@
.?AVerror_category@std@@
.?AVsystem_error@std@@
.?AV?$_LaunchPad@V?$unique_ptr@V?$tuple@P8executor@@EAAXXZPEAV1@@std@@U?$default_delete@V?$tuple@P8executor@@EAAXXZPEAV1@@std@@@2@@std@@@std@@
.?AV_Generic_error_category@std@@
.?AV_Pad@std@@
.?AV_System_error@std@@
.?AVexception@std@@
.?AV?$_Associated_state@H@std@@
.?AVlogic_error@std@@
.?AVfuture_error@std@@
.?AV_Future_error_category@std@@
.?AV?$_LaunchPad@V?$unique_ptr@V?$tuple@P8jpsock@@EAAXXZPEAV1@@std@@U?$default_delete@V?$tuple@P8jpsock@@EAAXXZPEAV1@@std@@@2@@std@@@std@@
.?AV?$_LaunchPad@V?$unique_ptr@V?$tuple@P8minethd@@EAAXXZPEAV1@@std@@U?$default_delete@V?$tuple@P8minethd@@EAAXXZPEAV1@@std@@@2@@std@@@std@@
.?AVplain_socket@@
.?AVtls_socket@@
.?AVbase_socket@@
<?xml version='1.0' encoding='UTF-8' standalone='yes'?>
<assembly xmlns='urn:schemas-microsoft-com:asm.v1' manifestVersion='1.0'>
  <trustInfo xmlns="urn:schemas-microsoft-com:asm.v3">
    <security>
      <requestedPrivileges>
        <requestedExecutionLevel level='asInvoker' uiAccess='false' />
      </requestedPrivileges>
    </security>
  </trustInfo>
</assembly>
