!This program cannot be run in DOS mode.
RichK
.text
`.rdata3
.rdata2
.rdata
@.data
.rsrc
Project_Class
jdjZj(
BUTTON
u!h 
Ph(`C
c#TD
q ,2lg.
fap~
	ws.
Wgk1q
uXdt
i)T3
GZxd
[W{H
	W*dI
G-Gb
zNE	
X27"[
60]XU
*L/vRR2
0Pv@5
U1|W
ck"H|)
f;Kb^{!
[b>;!
{1bBLP
W%WPgn
ytkx
eVh|
Rjos
.RbW;
`Cb\
WAM@
g<-QU
^QC~T;
V[~4
&I&x
.wdB
DW4]9
>rwy
VX\bL$
P\n$4
khN#
	6'Q6
OGAF
{=4^
u`pG	
w@5>
4W-a
``/I
Q#jb
d9YF
_6gv
j=	W1j+
~qk8
@5T(
hERB
"e1$$
@5.4
s' 0#
b(++
Rb,KC
U>7n
2n|n
c5KWD
w7dG
N{Ec
18J2
9L&7
@J%	t
;~_h;
vYLr
]^vyPWM
_9>Va
y5<29
5!v0"
LK-6
[;r;D
xCuw
e4R/
h]v'f
E)ph"
}aMC
;N)B
M@E}
j(,7
j),#
n8Qh}
@9s	
h@iE
(UVJk
E1	C
UDV3
s>Pr1=W
QrP=
EU=N
B8lPS
Il]*
@u!X
jC1b
Y>;=
q+mh	
UW:xE
}Cqt
Vb F
0)v@5LC
d1\U"
9y8;"
0Kl[
8mw@E
O10W
s;AG
w@5*
}FLz
ObA1
ti?B
6VjD
 5+4
5	{C
O184
RrLBB
23m"
(|UWs
#t;@
_{|[
PKw@
`p2j
!p;pZ
1.{Z
^_3|[
tN,B
s4{,7;
{-~p
SsiM
uHWxF
M#h;
M([K
Oh|X
uiDOpG
)bUW
zGy[y
GaZa
OJM[
f~k<
+/e\
>vNY
pL:m
35JB
j4s<]Y
w>x#
BG|}
X[S[
/twY
KUWJ
C%LYW4
KYg+
=\,l
J5P($
% YD!N
;"#|
~Rb$J
QJQ]
Kz7G
I6cs
@ jd
F6jdT2
Z?f|f;Z
b7~tN3rxJ/vlvbjprfNd~jBhznF\
6,6"*02&
!.+q%*/
:?5	FC9
JO%yVS)}RW
*)*#
[~l5xAo3
coax\ir
pCx~qs
~J3W
Rbh}EXlyC9x
|`Fu
Wt)|ja:zne8
~qt!
poN 
po. 
S]c}SSe
bfty
~aHP
2cJmz
?Ub{)
XICg(
7nL3Z_
.SWD
TT98
S]3Kl0
H_:}
 )>?
f*9	
`xqK
w&JO
?,1`
S\~R7
C%W6
 8d$M
f3,cR
8	,2
O`{[
!nxi`
;f}/
, ?!
4Xaj9
H&q6F
&!5E
~7Zu{
	&gc
~5pwPl{
F{`$
F4m5
	\5%
2Rb?
){{3
uv[n
s9ZM:
g<;?
U0~|O#
6ntl
D^g|
D8(@
!T'VL
br+6
I6')l,
68'HC
R]e4
lK*9
1	ok#
b~1g
~`uU
e&Bax
4Hd	
>LoG?
*?nw
2i!5
.PTR
=,S]
mS(p
49hf
yK~6
	q+K
arlxx
Od'.
+YY`y
^}n#o
ti61
2%	y
$xeU
_(~|
0Pit
WNr:~gM
'xR[
AGpJ
|lqv
]s2K
(jTc
ZC}~
K5|H
2$f~
-;uQ
VALe
$v,\
;qCR
G)*g
637y
65h=
a>v7
OzfJ
-}U"
Gu z
YoWM
s$XwA
=mf*
ciV[
oB]r
3fr|/
N8QC
!.^m
4&I(
O9ry
ybiv.F
]~+BAn
DnLO
a$W9
P O-!/3a;
>KL8 k,
tE!C
UJ#J
 Ua~&.
Y<v?
sfQI
Opa$
$}cT<
8$au
nSBI
CD^GRZ
!B&c
@)@|
;@c)
[Cc#
P4,-
GpSH
R<]/
#^:}
eGqq
cQHnf
y!2z_
cj5[
[RwbL
h4[=;'
2E*i
'c b3
`/i{
x;	U
QgM_!
@MrXF
nDJ!
H:p=`
45^a
DIBc
tX/v
qLO3w
Bi*m
hVQq
dYU,
( ?Gz
9OY|c1
,1wl/
p+m|
0XMe
U|\@
;}Fk-m 
<PiS
RO"%
D\b!
w80H{
Yb>s&
C<<o
2iYG
NBmQ
T|GQs
ih2BD
}H`T5
LnO4#e
.kDT
V FJ
C9"Gx*
lJl-v
Ow	DQ
iNhu
2I8,b_E;j
n!glk
tZq;
Cpgh
%8Ux*
'OFlw
W6GT
~D>M
o(|nf
V,hl
<JI/
HjErt
 |-q*
/Gl7	
T[Eg
dCJ480e
?y"o
Byze
1IL5
aIKg
~b,Y
.	ew
(sF=
*"}J
IO![
G	{N
){*@
[?xF
p8n/
Mjn,7>~pi
,]Nt7
=Nw]q0
[%'<
oBk\lc
v9`z
(;o^
2Q"b:
+wQx
:5I0y
]!rQq
tEU+;|
iRFP
A0^G
l8&Q
V'=#
aN"'	f
S6+hu
UoBt
j)G0
lQv~
B0;4
\Ov(
Y("A
56'(
[N<%
%"c\
Cg4Rl
R;dT
Ds4}5
_D@"
iid8}
wT/q
e*ih'f
H;GLx
Zg&W.
4rV~
I9Mh
E:f6M
iwhkz
=Key
.H?^
}g^O17u
cEn"H
G}1WO"
35b%
g'ZA0
YK2p
>HaL
GKoMF
(SpU
	c03
wO\]
UMg^
7)9Ie{
E]8+Xj
G`DUR
TAN;
a,"Y
G U'
Ny	V;
UMUP
5T}R
5|Hp
oE>*
c'"'
*u.;
*5`)
zX"RK
I,T;&
ak,m
x?mM7
f_Lg
0\ZQ
cExT
)_lj
:>/VA
9eb]/
~r=R4
D4e9
VnrNq
*A[OJ+o
`sT~
9^P&]xH
"he@~
8rOO
CdZweg
L=::
dEKX:
Cl7m
Mo9X
!RZ5
oZD&
tWy;M
AH?l
\9ZV
[;HR
&.6H
$ZS-
M?If
Gu>u=
<o+;
]n%G5sI
02%|0
c<xV
0(v< 
qJe`
g!E:)#
MU*g
|2h!
\`k|
,`7qC
am25
K[wV
0DfS
$jDuF
W=)'
Z61~
zTke
	K2`
*V1l
;|=}
qquF
-S"]
(iCg
cb<D
l, ?o@
!(z\
:1;{
46fxpJ2%>
r\y$1?
.)lX
8N^A+TE
I9TF
\/+&
Gg7!
soL`
yRaQ
|k"{F@
Gg='
8]S=%
Bx?y
A{J=0N
~EVSC
dYpo4
l==o
U5z>
a_\v
972t
i4<_
pnnr<
DiGV
3125
|PUy
ZOC`
*4O;}
1nz{/
In8lzj$
DVm]
n`/|8
=ETC
,Ps_R
KR~4
;^d^
$pD`
^nxM
(`J1
6y8F
=f^4
gc|Y5a
BnUj
a"W)
kACO
xo>=
]o%b
&~01
688H:Xo
1"IY
/v{ C
m>p$G
Kb:b
pSz~g
"Ux%\
)L*y
O260:
TsBC9(
%h$"
@6>.
((:R
i,\b9$
M!hg
O-7b
-9IW0E
hU&EJ
F["H`r
:}	[
yMWZ
	RTx
R&jJ
:lPW
4/ 1
mmAy
If}L>^Ph]
dC}	
JtO=Qrdh
&2[x(
%jWT
Wlab
"q(O
}eZS
|NN+
$x<E
TZpI
EQe~
xQ129/
E]YMm
-oxPG
rJxw
>I/J
w]^=
=kAe
0`t7
$?-a
e8_YDvS?
_HsS
c Qi
.`a*R
 je%
x2{c
/TKH
NG0	:
(R{}>
:	l<
!_9/
#0(K
=IM&%f
#Kn-
3 >_
_$gS
'Av7 
+q'%G
jfqe
7i MmkHV
[VQ((?j
[y1ui
Z_u'
RPbF/
2{E2
Yvzi
[<4)
X4&5l
2Zxo
D0)t
V@5}[%
nUY`<
=(Bf
Fmh-
@}qA
mLNV
DkW4_
D D_
E4}I
9xS3
-@h[C
'ho} s
axr\
}vz6
dfgpx
zlW\^
|DNW
>ct^
%I0I"
B3Z]
0RN@
+fC~
m:Ph
^cg(C
8uk-RJqH
|Cn"a
i;.%
Ie&m5
4fg-Y
4"fr1
*C0'ZH
]g	H
{='9
|bLf
ywdK
^[2{Q
nVeb
F\W0
N<l%a/
~,<WM
\vC/
pY	y
k;[G
Blz=
	Bn	
wf(:
rA)/;
! #y
k4Nw
H}52u]
F@C%"J
^$b:XB&
>]$(
 d4y
G#{)
SME$
Xl%:c
L@0]
L%/,
dcq}5
hTf<
GzT'
$v]!
BUqr
MLSd
]w\_
;r "
_q8B
r^!Ir
s86G
n>w|
,rWF
g4>*Z,
hqQ5
',9OjE
(FwLm
<!X=
?W[	
!f[1M
/mF"[z
N 50
=FH)q
IU4}
e~Y2N
(}-hrFjD
s3@W
'wfL
k36 
^532
E>@n
<uQtwM.
T:2]F"YI
*?O{
H[jkY
 ^ k
cWfxD
Su9	
^ZW\
f+S%
>(~C*8
Z"2RX
''P5
NY^U
4WD1Y
*b==
7)sx
?zHW
JYy6S
eUO)
Psdj
^/i(9$
 [l.
L}?epj#
K5y6
Lt[~|
|"|m
t`an^{
CVgG
fbbi8_
.\J`
K$a%5
	v]u`}W{>AS-
N?>;
%QNW2
*+;Z{r
dGzRO$
m0yT
%#n	
1JT\
ZFDQ
Vd7I
1,Q%
QP #
^>o6
\^;){
|pAq
jBqC
2	iq
<JIE
^F"O
3CSC
yg8h
)a^j
#H"o.A
	jmv
9H%h
\<^>
cx;@}f
y|ky
m7sr[
=Pw,W
&L_fZY
hbS.
./Lp
B&]^
RQ~i
yVUR
.vTU8
Wf7kR
m6..
lt_6&
a;4Y	
+v@C
A/S8
K5T@?
l.la
Hy0w&V1
L[^ x
2-'w(
:1p:
<P{LN
N7XF
jbE;
6ED-l
G788
p;;[
0s`+
sqp,
)Z*@
92:D
UR,3
&4HS
	R:\
HZ$;
yDbjr
(-Hn
	aH?
mWOV
OJvB]
8uK`
4C0K
2b^L
LzSh
:e]V
iX[a+
Efs*
\4_,7
]1V G6
\=f1
s7no
3V`q`
 R`.#
")33e
gPN)d
l4cs1
a fk
jk$K	
X,nW:{Z}
FWUI
}mjy
>i8px
i^1i6
J*/>`
GH0/_D9
/9ND
Yd=w
$WM*Z^O
{GQ'/0
9FY.
Maa7
Cg&X@
"	%R
4<J<
6G%~x
&DV<
gcl|
v|ne
eKUnP
7<p}
*w}?
]{jBE
53>k
%YTP
kQ4cwD
PPz*)
btv(
r&wI'ge^z
;b{2
EywS
G3o@
D#9x
7&Z	
?B'k
l[z2
N	JC-d
<>0{6
r$&Wp
T9uL
;D0rD
|Nx@
G_|'
5/ah
DG+!
1_%A$
$;>?h\
n-0W
`u	L
>Hxe
:j4{3X
^=NX9
GSAo`
XZ8,f
EA4;c
SSpJ|~
dkwr
)]~|
JbHZ
P8ZK
xIIK|
R~Y\
88Q7Y
6{bE
t{:}}2t3
s[~H
}@"U
a1dz
XCpV
]_o.K
Wn"<
5)?oeO
g,\X+
n~gV
RX3a
j9gr0
'2Rd
?lbs
sGJ?_G
$vS3
>`]27S
Ff+O
fZzi
>u0Y
* e=*
-pPr(W
H.|z
r\'2
n9Ix
fen@rd
C`Nv
=Uw]SD
$$BCh
aNePS
Sen=
/DR&
yBfU
E6 Q
vJz;b
p&<\L
u@[I!,a
UF&#[
ucqO
Al4|a
%If(
2[Fd9
XG<<
2vyf
_W2"
u6>p
{O0_k
/t]S
&Z>5{qy~o
DP0n
R\Odu
;Ydw
@P'+Y@
fPI7
Ckt747<
Y<.c
~%[:yEX
p>Z9
mX]!
U/8`
 ,c4Y
3DBZ
m]Q61
l~m@.0
O>^$
KS1OT^
4&yp
+n(=
 rTL
Nf+r
SGB~
YUGL
P(u9
~%HY
P(-Pt_
oyK)
Y^6k{
;$K'[^
?1,qo
66p{6
BQ hh
I8,T
K5tY
x)2^G
83W9
"@13@
[l[}
jQ7 
pGq1j
ooJD
<J~9
	r"w,K
ddQ,
y<##
%<lX
j$lm
i(GDI
{z4l
|L)Bc
x)/*M
T>W^
-+JR
$$s53c
E0"m
 V!J
;|zE
'bI^
>IGdX'|
1NZ=
s	$n
5.;i
E5+B
$8xU
^dB3
'Vw[
ck23@
Sszg'
i_770
I<-60
Z&87
yh&>Q^
U_8o
|{p+0
>~2*
%?cxc
cr&e#
c?7i-s%
U-C%?-o
.&?b*
:s|a
=_qe
rtfOv
ZSj#
%m*?
NVy}cPb
dQi#
lEvudTv
_Ld"
<X[H~p
czR	
RL2~
{wZGu
~Jzw
nw=:{w
IzwM
2$p	J
~tkM
?{?2?{?
@\u9
@ca=
M|v|b|d
>xzpNx
soNx^
@bd>
~II3
t@&|t,b
tW{+tMi
p/jC
96_	
pWRnpXXipB\ppO]kpY!Rp*%Upb
co"m
7<l<
Te!|:e#
Y.a2Y.a
/8a847a9
%a &%a
GK+^
,0^=
$^ %%^3 
a|])
r#m	
EhJ_
iiuV
VKKpVtPnVnSnVi5oV`8OV
NV:W
^3.J
IR.E
B~bjR
%=R'
EXHS
\67O'
QN'r=NB:
EP=R
6,UK6,UK&,EK&,EK6,5KnN
JT4nJdHoJ
Eh0\
2-G8I$G*?
1,G.3"G%F
%G7L
G->!G#@
RrF"C
+(C"%
^DCSXOC
[_7@
?fKJ?OTK?IZE?>cJ?>cB?Ab}?Dex?3`w?
;YN%;
a#/	
Ehp;
	E8t
8\N08{gG8f|b7
28yzU7>
@B`O
h^ca
?4,K
\H?S
`F?S
Ul{{
Y%>]
%)>"
u"I!V
[Mp}
\W@A
eOXq-
~w~,
3Y\s,
<7G%~q
}(Tc
cw_mC
Nwzj
IYPd
lyYKzxSUOd
 {~gTjtZYzrLO}c
e%Lv
a"rtYNf
URzc
y_yd<
Mz]8d
$^aw}
ay`T
J	yw
~a"s}^
yw:>
ywJr
xTv2
df2p
dLg;_Lw
doW<\
	w5s
ywns
O~L2O~L
2o%`
FD%?W
C%KK
>|s\
~HInr
xcoz
dsbp
K[hQz
@zK`
Fw[Q
w?e}w&,
Jwf|TwuoowD
w!Ckw
AX+=
sAgcs?e}s
usns,s
Q!o9K#o6L
o4~fo
l+F!l Arl
lK~aly
hyk	hqk
>S!G
JKhkG
HhiIPhQRIh
O.h{U)hqR1hnS)h{I
Hduw
(j`;
k`93X`
du(`WA;`ny
*es 
.#c*
_f <xV 9ei
sxr`<xI{
`nff
km$:#m,*bo
tZ0rsi0Pt|04{
yg1Zs
w+4|w14
5@yQ6[x
xm7Bx
k:8nk
06<Q) <`
l0<:lZ<Zlw<>lt<yk
=qlN=Am
=rmo>9q
+wP00q
1Jq@2
=&	5
&V5e
4:4b5&4-%
4E%S4
4-y=5sy[5py
6=wC7"ws7tv
:q,[;
(;5H
Kv0W
s$RZ
OG0W
2xFg
E<Do
}E@+
D3	@
U|BK
91;xYW
ED?B
	[~B
=H@I
E|>?4
E|=B
}Mx=Z
}E0<
=C~B
=\=I
17Yj
!7~M
s6@J
%X@I
%,5C
%(5C
%$5C
% 5C
ExitProcess
GetCommandLineA
GetModuleHandleA
GetTickCount
CreateFileA
GetSystemDirectoryA
lstrcatA
ReadFile
VirtualAlloc
AddAtomW
CloseHandle
CompareStringW
CreateDirectoryW
CreateFileW
CreateProcessW
DeleteAtom
DeleteCriticalSection
DeleteFileW
EnterCriticalSection
ExpandEnvironmentStringsW
FindAtomW
FindClose
FindFirstFileW
FindNextFileW
FindResourceW
FlushInstructionCache
FormatMessageW
FreeLibrary
GetAtomNameW
GetCommandLineW
GetCurrentDirectoryW
GetCurrentProcess
GetCurrentProcessId
GetCurrentThreadId
GetFileAttributesW
GetFileSize
GetFileTime
GetFullPathNameW
GetLastError
GetLocaleInfoW
GetLongPathNameW
GetModuleFileNameW
GetModuleHandleW
GetProcAddress
GetProcessHeap
GetStartupInfoW
GetSystemDirectoryW
GetSystemInfo
GetSystemTimeAsFileTime
GetUserDefaultUILanguage
GetVersion
GetVersionExA
GetVersionExW
GetWindowsDirectoryW
GlobalAlloc
GlobalFree
GlobalLock
GlobalReAlloc
GlobalUnlock
HeapAlloc
HeapCreate
HeapDestroy
HeapFree
HeapReAlloc
InitializeCriticalSection
InterlockedDecrement
InterlockedExchange
InterlockedExchangeAdd
InterlockedIncrement
LeaveCriticalSection
LoadLibraryA
LoadLibraryW
LoadResource
LocalAlloc
LocalFree
LockResource
MulDiv
MultiByteToWideChar
OutputDebugStringA
OutputDebugStringW
QueryPerformanceCounter
RaiseException
SetCurrentDirectoryW
SetLastError
SetProcessWorkingSetSize
SetUnhandledExceptionFilter
SizeofResource
Sleep
TerminateProcess
TlsAlloc
TlsFree
TlsGetValue
TlsSetValue
UnhandledExceptionFilter
VirtualFree
VirtualProtect
VirtualQuery
WriteFile
lstrcmpW
lstrcmpiW
lstrcpyW
lstrcpynW
lstrlenW
KERNEL32.dll
BeginPaint
CreateWindowExA
DefWindowProcA
DispatchMessageA
EndPaint
GetDC
GetMessageA
GetSystemMetrics
LoadBitmapA
LoadCursorA
LoadIconA
LoadMenuA
PostQuitMessage
RegisterClassExA
ReleaseDC
SetMenu
ShowWindow
TranslateMessage
UpdateWindow
LoadIconW
AdjustWindowRectEx
AppendMenuW
BeginDeferWindowPos
BringWindowToTop
CallNextHookEx
CallWindowProcW
ChangeClipboardChain
CharLowerW
CharNextW
CharUpperW
ChildWindowFromPointEx
ClientToScreen
CopyIcon
CopyImage
CopyRect
CreateAcceleratorTableW
CreateIconIndirect
CreatePopupMenu
CreateWindowExW
DefWindowProcW
DeferWindowPos
DeleteMenu
DestroyAcceleratorTable
DestroyIcon
DestroyMenu
DestroyWindow
DrawEdge
DrawFocusRect
DrawFrameControl
DrawIconEx
DrawTextW
EnableMenuItem
EnableWindow
EndDeferWindowPos
EnumChildWindows
EnumThreadWindows
EqualRect
FillRect
FindWindowExW
GetCapture
GetClassInfoExW
GetClassInfoW
GetClassLongW
GetClassNameW
GetClientRect
GetCursorPos
GetDesktopWindow
GetDlgCtrlID
GetDlgItem
GetDoubleClickTime
GetFocus
GetForegroundWindow
GetIconInfo
GetKeyState
GetMenu
GetMenuItemCount
GetMenuItemID
GetMenuItemInfoW
GetMenuState
GetMenuStringW
GetMessagePos
GetMessageTime
GetMonitorInfoW
GetNextDlgTabItem
GetParent
GetSubMenu
GetSysColor
GetSysColorBrush
GetSystemMenu
GetWindow
GetWindowLongA
GetWindowLongW
GetWindowPlacement
GetWindowRect
GetWindowTextLengthW
GetWindowTextW
GetWindowThreadProcessId
GrayStringW
InflateRect
InsertMenuW
IntersectRect
InvalidateRect
InvalidateRgn
IsChild
IsIconic
IsMenu
IsRectEmpty
IsWindow
IsWindowEnabled
IsWindowVisible
IsZoomed
KillTimer
LoadAcceleratorsW
LoadCursorW
LoadImageW
LoadMenuW
LoadStringW
MapWindowPoints
MessageBeep
MessageBoxW
ModifyMenuW
MonitorFromPoint
MoveWindow
NotifyWinEvent
OffsetRect
PeekMessageW
PostMessageA
PostMessageW
PtInRect
RedrawWindow
RegisterClassExW
RegisterWindowMessageW
ReleaseCapture
ScreenToClient
SendMessageA
SendMessageTimeoutW
SendMessageW
SetActiveWindow
SetCapture
SetClipboardViewer
SetCursor
SetFocus
SetForegroundWindow
SetMenuDefaultItem
SetMenuItemInfoW
SetParent
SetRect
SetRectEmpty
SetTimer
SetWindowLongA
SetWindowLongW
SetWindowPlacement
SetWindowPos
SetWindowRgn
SetWindowTextW
SetWindowsHookExW
SystemParametersInfoA
SystemParametersInfoW
TabbedTextOutW
TrackPopupMenuEx
TranslateAcceleratorW
UnhookWindowsHookEx
UnionRect
WinHelpW
wsprintfW
USER32.dll
BitBlt
CreateCompatibleDC
DeleteDC
SelectObject
CreateCompatibleBitmap
CreateDIBPatternBrushPt
CreateDIBSection
CreateFontIndirectW
CreateHalftonePalette
CreatePatternBrush
CreatePolygonRgn
CreateRectRgn
CreateSolidBrush
DeleteEnhMetaFile
DeleteObject
Escape
ExtTextOutA
ExtTextOutW
FillRgn
GetBrushOrgEx
GetDIBits
GetDeviceCaps
GetLayout
GetObjectA
GetObjectW
GetPixel
GetStockObject
GetTextExtentPoint32W
GetTextMetricsW
LPtoDP
OffsetRgn
PatBlt
PlayEnhMetaFile
PtInRegion
PtVisible
RealizePalette
RectVisible
SelectPalette
SetBkColor
SetBkMode
SetBrushOrgEx
SetLayout
SetStretchBltMode
SetTextAlign
SetTextColor
StretchBlt
StretchDIBits
TextOutW
GDI32.dll
RegOpenKeyA
GetTraceEnableFlags
GetTraceEnableLevel
GetTraceLoggerHandle
RegCloseKey
RegCreateKeyExW
RegOpenKeyExA
RegOpenKeyExW
RegQueryValueExA
RegQueryValueExW
RegSetValueExW
RegisterTraceGuidsW
TraceEvent
UnregisterTraceGuids
ADVAPI32.dll
_CxxThrowException
_XcptFilter
__CxxFrameHandler
__RTDynamicCast
__argc
__dllonexit
__p__commode
__p__fmode
__set_app_type
__setusermatherr
__wargv
__wgetmainargs
_adjust_fdiv
_c_exit
_callnewh
_cexit
_controlfp
_except_handler3
_exit
_initterm
_iob
_itow
_ltow
_mbslen
_mbsnbcnt
_onexit
_purecall
_snwprintf
_ultow
_vsnwprintf
_wcmdln
_wcsicmp
_wcsnicmp
_wtoi
atoi
exit
free
fwrite
iswspace
malloc
memmove
qsort
realloc
strtol
swprintf
swscanf
wcschr
wcscmp
wcscpy
wcslen
wcsncmp
wcsncpy
wcsrchr
wcsstr
wcstol
wcstoul
msvcrt.dll
Animate
jjjTWARE\jj111es
jjsid\{0be35204-8f91-11ce-9de3-00aa004bb851}\inprocserver32
4125
SO#j
kz^,]N
_qu<
39Y)$
Vc%z
