!This program cannot be run in DOS mode.
RichiZ
`.rsrc
petite
06gB
pYPkli
df?s
Q'n'
?W@y
eKqA
&BY*
j]&O
Y+	>H
|8iQ
s"&x
?3E7
www^
G|SZ,
S~Q5t
cACC[
I4Jy&
hlE@p
2O*^
GEC:
rz,}@
RKEEE
l	n+#X
_'^]
>}9/
'b.*
6E+inii
IhJd=
!}D`
;+td#
i+B&
jys+
)c,`
,.DEQ
{1+y
hh2hVGi
PopB
o.5n
6=':Z
b@I	
J]	q
&Hplqy
X\2H<
9j4'
',Sis
+y,)5
6			
=5O-
^clS4
hi5g
F,(q
#l:U<5bxQML
I`?v
q<FIw
*OHA
![uIJ
;o_e
8" l
ib~cF
iR~:
,*/9:7
+D@XDB
`aILY^QXM
-jej
K05	)
}nhN
ef{ONsF
 oTxN@IX
y`l|Z
Y\zSnr`
)3(>'
1qZX
wBnaoj|
+"SCY]
oWszt[fv
q-=#
FMT]
VIqzrkh
HIL}
@i}M
?)=zZ
9h{,@
&Z'uv\
V./z
=tC\$
t$G7
u*+$
H4r$
35`y}$v}{
U]\B^c
69j),
AY'N
XXXX]
33333330
{{{{{{{3
{{{{{{{33
{{{{{{{330
{{{{{{{330
{{{{{{{330
3333333
30ww
33333333
wwwwwwwwwww
DDDDDD@
DDDDDDGpw
DDDDDDGpw
DDDDDDDDDDD
wwwwwwwwwww
!This program cannot be run in DOS mode.
*6Oz	vO
*6Oz	/O
*6OZ	*O
*6Oz	
*6ORich
.text
.data
.rsrc
msvcrt.dll
KERNEL32.dll
NB10
nddeapir.pdb
8MZu
>"u:F
XPVSS
Y_^[
_c_exit
_exit
_XcptFilter
_cexit
exit
_acmdln
__getmainargs
_initterm
__setusermatherr
_adjust_fdiv
__p__commode
__p__fmode
__set_app_type
msvcrt.dll
_controlfp
_except_handler3
GetModuleHandleA
GetStartupInfoA
KERNEL32.dll
p+v^0x
1`5e
l,leT
p^V0
do_b
p\:}
+[lq
oFolsM
_+(p
pC^X
pffD
_bA2
`")p
SYfn
s`_-
BbBb
$EA;E
D+S"@
Bg2 
Id~I`}i
QXNcYgS|x
Mqq(
EUHi
[4@X@
QInC
km5:
1AR?
qs@M
<>@|
;Ym.D!
yGO>m
wml#"
p)ha
V}K;
V}K;
V}K;
V}K;
V}K;
)l{!
y/75-
V}K;
AA/6ax
W+La
m$bZ
yu>m
A2m&;
A:o"mW(
5`Yq
x#fyA
O#,t`
<.@|
qC(`
 \V^
cf`]
0fOd
S"lN
)`P%
g/z?Uc&;
e`]ga%
?'-wN
2eHs[f
QUSlM
9w'Q
A\+O
r/im
1UkR!
!#)&
 ev`
?A$H
cWNn
7'g5
F?CQ
NcYgS|
.j;_~
iJcw
j7=m
@~42l~
 oWJ
bzV-
s;*	
=]4a
u4']
}nn0.
>k0*
H#;b
{b2_
/l?<
	?)%
@5(q
OZ+M4~>|
}gTHA
_YnJy
joC;.
 hTF
W_Q 
?)/@
?HH1
VQ{b\
{s=A
C#f?
;Tq^
~m9p
fYl,
S>N|J
}D)w>r
.oCW
}0@P
Weh;
>zqF
V!ls_
XzV@y
.Z(6
D|c0
oz#&
1x/A
]MS{
;67v
}g#8z
YtCJ
R!zV
l8 +8
5>*r[
eEYg
!ZOB
4pz.
:#V#,
<jG#
ex[)
2x/*(
$c)j
;Gt%
F=!}
1te#
Myt19ej
B\	2
SgGBW
!.qp
x#h!S
tm.W
)f?O.
33C'
t4Md@|{
V1@$
I3F_
0)iJ^5_
X\W_
tAwx
.^h&
o*/@
5J-+pe
-7_0
kL%y
.(lg
7Gt%
C(?^5Hw
Fz&&
]![%
)	v>
N)b7
>@w1|
D4b`
H<aj|
F*XCT
3xj7
F"5[y
)\\\
H2/g#c
$D5y
Ft%e
a=h=
"mU G
1x/q
(CVN
tRzi
m.Zw%
kR!	
V}L;
V}K;
kR!	
V}L;
V}K?
V}K;
kR!	
V}L;
V}K;
_>U(
*r?G
u	!	
g+',
'	^j
,0dp
aG03
:s[^P
lQ0zF0
;Two
N3{P
]$K"
yW>L
sd+T
`l&&
:F6N56hp
8l9+
n<,h
tF#v@
j@6:K
yN;g2
'G>U
USR_Shohdi_Photo_USR
	kI3
Df{2<
's.z
LNJW
!MO+
\}SP
5-NL$
7smm
~]rh%
$bUC
Q<'Q
6&+"
b$,C
@USYiLZ]
i[|R[Q
[,eA
u/	m^
J$T 
s*Qs,G
P.ved
j(fg
U%u0
H%#oD
87o$
jx _
-=#n
A}7+
+_)U
97om
bcY!
ow%u
97om
bcY!
ow%u
97om
bcY!
ow%u
97om
bcY!
ow%u
97om
bcY!
ow%u
7Z%%k
bo8e
97om
bcY!
ow%u
MGF}
l3Hg
3M%X
'P^~SJJ
3j*U
B-w4
I3eD&
H<#9
Zfkk
C'c]
+5dL(
h	8+
O12{
czF?
2'@y
< tjg
1UGK
%3A{-
c:Vq
x a>
:Zo<2G7
|N?#-
5)Ph
U~|I
+!1T
@%WYi
j,;f
ecY!
2j(f7
m44C
MdB7]a
t]?n
E-64
 kjz
 vj0
<Z-c
?or#
ZO? 
	Hkcf,
~4<F,
0DdI<
a44T'
=gS;
0C+t.
)O\2
97~$;
5[{'
ZG16:}
s)hF
eKuqH<
E!kV
zA~{
MUt5
AAwK$
Lkc,
A(<q
6\cr
r~P8N
3l`1
ow%u
crS;
yg^}SsHFo
bP+C
<x8@
MU[M
/"8-
=lx[
eWwIu
upwBx4
I^de
Yi?Z
M:b'
bcYtW**I
-u`&
WDOU
q?'Lx
HW^	9o|q
w +j
)r^y
7jkPEpV
E4e}
kM4F;
v/:b-
F8pb
~.g7r^
n6?)/
#k86
5l-:
6o4q
u	s%
57C,Qm
o}:q
UNPe
2Zrz
G'8&
U?iQ
f %._<
i.2'
:mAK
>zvA:
UXDlYii 
=1\o
1wh''
#?y%
|!;]
6:9o
xXh_4
9!nl)e
syIb:k
#Ei#
09c	9r
P't@#
gsg-
@IGi
Sw-#
BM`i
Yque
\cyv8X|j
WL"t
QK;%x)
O"8y
L-nlbsK;
)oC*
]:7o
gsch
-uX)
%aWEU
+NZm-
MkcNf
|vG{
q!m?
v9.,[
~Y:7o
v/-j
dnIp
V57#
03$[
5.nl
eSk$
;9om
)@T.
$?y&
<L,=
rJ%]
XS%C
nvX>
,Lu_
v[$V
:*Bc
?ox 
owP>
oxMG>
EW)/
3},J4
e{ZV/8
G'u^k
beY!
ow%u
'?^}S
97pm
bdY!
ox%u
'?]}S
97pm
bdY!
'?]}S
97om
ow%w
97om
bcZ!
ow%u
97on
bcZ!
ow&u
97on
bcZ!
ow&u
97on
bcZ!
ow%u
q?'i&
j nR-
Kxz[G1
mmcc
,,"L
'sMMeJ9
Anzp
Z\@$
{_|1k
,'PZ
@)D;.
?TKW
)(r-[
?"	_E
6'd]
97om
bcY!
ow%u
ss]'
5hcil
hky2
M+q 
MessageBoxA
wsprintfA
ExitProcess
GetModuleHandleA
GetProcAddress
VirtualProtect
VirtualAlloc
VirtualFree
LoadLibraryA
??1ios@@UAE@XZ
exit
user32.dll
kernel32.dll
MSVCIRT.dll
MSVCRT.dll
!This program cannot be run in DOS mode.
Rich
.text
.data
.rsrc
CheckTokenMembership
advapi32.dll
SeShutdownPrivilege
DelNodeRunDLL32
advpack.dll
wininit.ini
Software\Microsoft\Windows\CurrentVersion\App Paths
.BAT
setupapi.dll
setupx.dll
Version
AdvancedINF
Reboot
.INF
UPDFILE%lu
CABINET
IXP%03d.TMP
RegServer
LoadString() Error.  Could not load string resource.
PACKINSTSPACE
FILESIZES
<None>
UPROMPT
TMP4351$.TMP
LICENSE
FINISHMSG
i386
mips
alpha
VERCHECK
INSTANCECHECK
EXTRACTOPT
TITLE
POSTRUNPROGRAM
RUNPROGRAM
USRQCMD
ADMQCMD
SHOWWINDOW
REBOOT
msdownld.tmp
Control Panel\Desktop\ResourceLocale
NB10
wextract.pdb
e\setup\iexpress\wextract\obj\i386\wextract.pdb
t\Wh,
PSSSSSSh 
PSSj
PSSSSSSh 
t'Ht
@_^[]
Pj@PhT
j@Y3
VVVh
PVVVW
PPj@
u5Pj
@PSj
Wj@Y
>\u	<\u
tLVh
PWWW
PVVV
u'VVVV
PVVVVVV
>#ulV
<Du/
PWVh
@_^[
0SV3
<;G|
<:t	
>\u	<\u
t6SWWW
SWWW
,SVW
WWPQW
wD9}
_^[]
@_^]
tZSV
\u6:
tDIug
F _f
tH9-
u@9-
u8hD
@_^[
SVW3
< tQ<	tM<
<"u#
"ACC
t!HHt
tAj[W
t)j]W
VWhD
Vtp-
t2Ht
dPj@
dPj@
@Pj@
@Pj@
u Sj
@_^[
SUVWt
WSPP
t$,U
PWSPP
t$,U
_^][
$VWj
Vj$h
SUVW3
|WVS
u#Uj
j UVh
_^][
gWSV
_^][
u!Sj
PSSSS
@_^[
t5PV
t'9]
tYHt	
f95d
ElPh
j0Sh
9Ep_
SVW3
}VPW
u(Sj
t8SSh
@_^[
VVj VVV
tL9u
SUVW3
?WVS
Uj@UVh
_^][
4SVWh<
u5Vh
Ht#-2
Ht	HtwHt
Hu h
SWWS
SVhK
j SVh$
SSh 
u'h>
j WVhJ
@_^[]
Ht0-
t?Sh
v!Sj
]lWj
EhPhd
G9}hu
}$9]l
}`9]`
u6Sj
G9}lu@h
9]\u
f9=d
9]pu
SVWj
u!Pj
u#Pj
t;<\u
ugVj
u+95
tyhD
XPVj
f;\$
SUVW
t	VW
8:u	V
f91^u
EpPh
EhPj
MSCFu
NpWf
NrP3
YYt79^(t@
@_^[
FHf9P
G9V(tU
_^[]
@_^[]
F8Wj
@_^[
tBHt-Ht Ht
tBWj
HtiHt<Ht
oWWWW3
F WWWWWW
SWWR
F@u	
HteHt3H
F4PS
YYWS
@_^[
tBHt-Ht Ht
t4Wj
HtrHtJHt
@_^[]
MSCFu
CLtp
9{Du
9{Hu
t-SV
t&SV
twSV
C,Wt
ClSf
F,Wj
QSUV
YYt_S
_^][Y
wjN9
^x;^0
F|PV
+F0+
_^[]
E SV
F|f%
WuKj
YYuhSj
F|f%
G"f;Fjr
r*Wj
LDIC
_^[]
9LDICt
;A v
8LDICt
>LDICt
j>Y3
j>Y3
98t3j
_^][Y
_^[]
=SVWj
j Y+
j Y+
t6j#Y+
j Y+
j#Y+
j Y+
9ulv
A;Mlr
t19uHu%
*]t;
uPr"
:Etw;
ML*Et
f92u
ET@;El
@[_^
PSVWj
@@Ju
I@@Jf
0@@Ju
j Y3
wHf;
@_^[
FreeSid
AllocateAndInitializeSid
EqualSid
GetTokenInformation
OpenProcessToken
AdjustTokenPrivileges
LookupPrivilegeValueA
RegCloseKey
RegDeleteValueA
RegOpenKeyExA
RegSetValueExA
RegQueryValueExA
RegCreateKeyExA
RegQueryInfoKeyA
ADVAPI32.dll
FreeLibrary
GetProcAddress
LoadLibraryA
CloseHandle
LocalFree
LocalAlloc
GetLastError
GetCurrentProcess
GetModuleFileNameA
lstrlenA
GetSystemDirectoryA
RemoveDirectoryA
FindClose
FindNextFileA
DeleteFileA
SetFileAttributesA
lstrcmpA
FindFirstFileA
lstrcatA
lstrcpyA
_lclose
_llseek
_lopen
WritePrivateProfileStringA
GetWindowsDirectoryA
CreateDirectoryA
GetFileAttributesA
ExpandEnvironmentStringsA
IsDBCSLeadByte
GetShortPathNameA
GetPrivateProfileStringA
GetPrivateProfileIntA
lstrcmpiA
GlobalFree
GlobalUnlock
GlobalLock
GlobalAlloc
FreeResource
LockResource
LoadResource
SizeofResource
FindResourceA
ReadFile
WriteFile
SetFilePointer
SetFileTime
LocalFileTimeToFileTime
DosDateTimeToFileTime
SetCurrentDirectoryA
GetTempFileNameA
ExitProcess
CreateFileA
LoadLibraryExA
lstrcpynA
GetVolumeInformationA
FormatMessageA
GetCurrentDirectoryA
GetVersionExA
GetExitCodeProcess
WaitForSingleObject
CreateProcessA
GetTempPathA
GetSystemInfo
CreateMutexA
SetEvent
CreateEventA
CreateThread
ResetEvent
TerminateThread
GetDriveTypeA
GetModuleHandleA
GetStartupInfoA
GetCommandLineA
KERNEL32.dll
GetDeviceCaps
GDI32.dll
MessageBeep
SetDlgItemTextA
LoadStringA
GetDesktopWindow
EndDialog
ExitWindowsEx
wsprintfA
CharNextA
CharUpperA
CharPrevA
SetWindowLongA
GetWindowLongA
CallWindowProcA
DispatchMessageA
MsgWaitForMultipleObjects
PeekMessageA
SendMessageA
SetWindowPos
ReleaseDC
GetDC
GetWindowRect
SendDlgItemMessageA
GetDlgItem
SetForegroundWindow
SetWindowTextA
MessageBoxA
DialogBoxIndirectParamA
ShowWindow
EnableWindow
GetDlgItemTextA
USER32.dll
COMCTL32.dll
VerQueryValueA
GetFileVersionInfoA
GetFileVersionInfoSizeA
VERSION.dll
EnumResourceLanguagesA
MulDiv
GetDiskFreeSpaceA
GetSystemMetrics
WEXTRACT
*MEMCAB
rundll32.exe %s,InstallHinfSection %s 128 %s
SHELL32.DLL
SHGetSpecialFolderLocation
SHBrowseForFolder
SHGetPathFromIDList
DefaultInstall
DefaultInstall
DoInfInstall
Software\Microsoft\Windows\CurrentVersion\RunOnce
System\CurrentControlSet\Control\Session Manager
PendingFileRenameOperations
System\CurrentControlSet\Control\Session Manager\FileRenameOperations
wextract_cleanup%d
%s /D:%s
rundll32.exe %sadvpack.dll,DelNodeRunDLL32 "%s"
Command.com /c %s
WEXTRACT
*MEMCAB
rundll32.exe %s,InstallHinfSection %s 128 %s
SHELL32.DLL
SHGetSpecialFolderLocation
SHBrowseForFolder
SHGetPathFromIDList
DefaultInstall
DefaultInstall
DoInfInstall
RIFF
AVI LIST
hdrlavih8
G\AN
LIST
strlstrh8
vidsRLE 
strfh
vedt
JUNK
LISTv$
movi00dc(
00dc
00dc
00dcR
00dc
00dc\
00dc$
00dc&
00dc$
00dc 
00dc$
00dc
00dc
00dc
00dc<
00dcX
00dc
00dc
00dcz
00dcr
00dcb
00dc8
00dc
00dc
00dc
00dc
idx1
00dc
00dc
00dc
00dc
00dc
00dc
00dc
00dc
00dc
00dc
00dc
00dc
00dc
00dc
00dc
00dc
00dc
00dc
00dc
00dc
00dc
00dc
00dc
00dc
00dc
00dc
33333330
{{{{{{{3
{{{{{{{33
{{{{{{{330
{{{{{{{330
{{{{{{{330
3333333
30ww
33333333
wwwwwwwwwww
DDDDDD@
DDDDDDGpw
DDDDDDGpw
DDDDDDDDDDD
wwwwwwwwwww
3330
{{{3
{{{3
3333
DDDpp
PA<None>
PMSCF
hnetwiz.dll
icsdclt.dll
ncxp16.dll
ncxp32.dll
ncxpnt.dll
WinXPChk.exe
HasUPnP.inf
NoUPnP.inf
ssdpapi.dll
upnp.dll
SSDPSRV.EXE
vlGt
N-"e
+Me2
(2q,=
he_("
elTH
|J!%
IwZV
|7g-S
Nf<yZ
pa:,&
-vL5
XTL[
%A%~
GB<kU
C;	2
RLrtb
jU#e
A5zcO
]/4E
U|/^
n"M6
|F%c
W>WZa
r@xh
8w~Li
}{(y
?"'Fb
cPX(
Q4+@
Srj9.
{8Fy)
GS6Y
`{c~
4rZ(
jAyWE
~ow;
uU&A
Xe}&
-#jW
3^le
-*j.'
T-?UAG{
;WzU
^sQZD^
Th-5)%
+'tB#%
\;wB
KX;d
N}e7-
0~zFva}
Z]Yv
6"d[
5ga7
-bm"
<KVTL
g"Am
H=#`
^)fk
eCcm0Y
bz'>
VWJ,h
S}19
\iY#
3AS>M
0tu.k
#j4*
nw]<N
'8Vm
0VP5p
T3o'
GOK{
'*&f
tJn>g
 %oo6
Qyy]
ECI:xb
ijXGH
$5F3
E	#g
)'ERs
ThOS3
64n=
a~hyV
4'ao
hZ=X
EOJ<
qKv[
(k&5
sKpEK.
Q4wQ
Y<igC
-wQ@:
{s#0
Ubi@
Ke|dz'
l	l7Y$
{ESA&
\o%U 
Ppc[
!3\k
n$X#s
MG:Rx]
lblD
nCr2oR
'z\0
gMVk
l1<u
#zC=
IIf>
	W):
k.PO
$j<H.
	*!MzR
99nk
 .bBbg5
&@QT
wH}wZ
=F>q
O,-x<
 NQZ
YjI5
bfGdf
{0v/
e"(t
)&O8]3'
xgC-&
KK2'>w
{:5f.
&8%	
>?`{
#\1I
*N}L
fd2a
e]Mt<
M_!a
*YFgQ,]'~
`>T5
mpP/jT@
5RxKf
bo-4
$7}q
?1v'
MjgB
{*ft
78Vm
 w"A9
SUPeQ
])Wn
 *#Q.P
,cw=Vf
-Mk7Q
p8EA5Q
%aF`%
N-TXu
8Q+h
Q{{s
[{t}
{50G
gAFK
d%5[,
F{P8T
6u+6
8lpY
)cr]
2.~O%\-:
'a#Ht
.}6<
#%;z
l2*$"
@Y7dMpJz
_B]v
9{s3
>9[{
xrB\
';J)
BLtj
j1H	
I8Lo
c*[2
5O|?
j7KX
;$a(
I!bwXSH
kmwvO[
cl1)\
'Vbbr)
"c9|
Qr}h2-
!_,'
@B3eR
:>es
\Kf,
tzK&	P
fWDv
g)4@|a
v3xM<|%
 &cB
!P`&?
,&jj
6|"7
&kR(TmE
)yY0
OOe^
S^<i4
%w*6
ni$o:
)ax%w0
S&&?
wU6@
\jxz
fv7c
["XT
:2	6
),T:
LLvC-
\j$Xh
sKoUw
4QY^s
V,&r
p$NrW
9gWC
SU=>P
1--i\
Q'7h
fqw^
i8:9
_S9xUp+
3cCm
i3*o[^
X9rp
(xC7
(N@b
t)_[M
G_L\
oF7p
'3 F	';
rMC]
<>+w
OJ2<
nbr.iq
&{o=
S,j]U63K
n31U
W*'DvwX;
eSD/
F%=a:q
\.ENW
kc/[
(U7M.?
t5)B
mG"]
?U,8
cbAZ
;/;o
B.W5?K
D."k
U`hc
k5q:
eiui
IOv:
E1xM
YX[_
4O)}
igUJ
M#@C
Q +G
bH=b
Ke}tc
M=NMX
YI;ji
N=l/
|-520
O[3K
VcvB
p]u&
l>7	
ZV5e
AXU_g
^RQq
l9gJ
KR]/8K|=
+@x~e
~~@[H7
zd`%
57 3
8$}O
Lb	5
>49&
3x0MDOBd
w1.o
XjVb
qGWz
}B]>
+MSF
.)<-
|c*/L
EhE=
dJ$=
t%+-oK	r
tL*[Kx
~iJe
R?[*
gk{h
m)LMuZ
&Y@W
T:xuG
#q)?y
2s)H
x<\u
eL#1
/2t<
_7 p
|+GO=
ka!^1+
e@BrO
>!^A
&5 ~
="mf
tffC
.16!L
4H?T
9p|C
W!Pa
VN"3/
rk2_6
v@yK
!d<Fy
'Q;7DV
.zZv
OOlc%
WUH)\
+2,t'=Fe
'bOl
0}HD
s6OZ
<ap-#
6/sZ
@n)Su
*@U!,C
q V(
ChMC
CWCW
8P6o+,
H%AU!
8I y>
JOuJBQ
a?mV
29ScQ5
e[M[
cAO%#.
:v')y
w.Ol
rrmK
FT6c
)w'k
*4nV_
Mu=1
lcR1cV
os_0o
jf6 G/
X<7{'
S^8RF
",+4Z
_~-ai
N}0bM
v;Qny
xr):
PGu fX
DK@cn5
Gi|h
{-?ae
&u*>)
%V>>
#{Sz
eHQJ
 ~ 2
dy3C
[Na)io6)
'cAd
ZGo`E
|,%f
f#.Kn
9QTu
C2}Z
L_*9
=scU;
^Byd
78o:
ISOf
wMm'
K0A%
698E"x<
dHpBR
dc[Y
6yz1
%_Kn
,y-%
X]hZ2
z2mL
aC@:.
#?[&
bh{,{
iaJn
WkkS
i:=d
/uHAXY
~'Y*P#
&DN"B
a@"QGH
9PE0]Q
9 i937
cDG-
n{	c
VIM=
WFub
=~v+
4RTo&
kBcr
 &Lj
Bl=|11
=xc7|$
<NyB
Bz+ry2N
AD0?
j_zWt 
ls5i/
jV)g
?.-f
#y|N
-/PS
tj?0
?+Ho;u
zSq)
k&d,
qq7w
FUEd2
v\6:
=i\A+
b^2c
/66P4M
:{	_m
u@blH5$C
@glL7&
uQm:6
Pk!R
 ^~&
+ou`M
P/W:
gN~2
\G]@
Q8noT
oDUk
)9G~
;wHd
^}Pg)_[
`SPG
<6pl
Xmcm
6pNp
WU"U
@"%!
k}=_
&4@b
H8ow
qheuc
T9MS
o\[O
`=zi
vkN$
gs>R
qrVfb
"P#Q
fHol)
2?bK4s
^;mp
J^zGH
7~7tY
o|U	
({k%'K
v"sv
!Z=v
|4kH
i?<>
9K/mnU
JU:A:
&[Ag
i`Bs
?z^;
^)\`
*	S2W
+4+h*WV
n*iS
*PVvU
JJ|r
p`q`r
809Z9
5%e+
U9^x
&tpv
7]qH
v%x>
5Cwv
r<7W
J8+<
8I;#
u`K<
O4@B
@pxvz{
 4=v
lndsS
[tn=
=A}I
}Pxs
&'HB
d=:<
 DJE
OD:[s
(kmor
wnk9
k4@g
[Myg\
q3q'
URun6fS}z
@D?X
eGfj
O@s&]x
Z7w7
4`AF(7
]m3_
5yWO
/55`
slcj5<
cu"w
C.!tbyD5
nL\)v
Cgb9
*.*/
!r`x
n\E>
K@B>
gS7\
e>2A
nSch6
(:,'
U3vE] 
)!>f?'
Xh#SF
oN%UX
1&9"
;}>8
k~HVX
QU&pAAu
jX5sL
@.Cud0
|XF'
>-?"
JP{@@
ZdTY
HG=q
QxDt\S7
!G #4}^
9L@j
0v0v
Ax#b
_ ,`t,[
/P6 
0v0v
C(Gx
a-cF
Fx]_|@
\8%}
apLe>	
CmjzN6
7k&-'
e8:cT
J:go
%iMv
5Z(_
9%v'O
tFD]
Oyh^
={	3
0BgV
.vLh
"b{M
7gk'H
C1[p'
gI.9<
v']r
Zc6y;Y
r5!#
udgP
8I6lsAc
#`pap
_0Gcq
SqLi}
X]<Z$
YgNq
uAlRm
r|~.
(.sN
yA[P/
Xry){
@Y$B
h+]a
J^a!
 ty!iyv
	&q;
q<2>jl
(0b`
!O0Jx
,Ex&,H=
NX*X*
"gj&
=@+@+
 GM*
5-.y
RBBD
YJg7g
?e]6
~IFT
/=&z
4UhP
i>V)
2"@.
A]A]C]
!]	]
p\bA
&?tqg
Hyl/l
6d^jN
[xLS!
T.C3
CjP@
H6[h
vDl[
f<95
p=I]
qh,8
UD,r>
E3X{
l<::
'sh8
]P)en
qluM
w%o-
sp+(KA~
WI&	n
W)xs
PnS=t
hT^u
sT~!
=S>M
V}"w
kIUY
J~_)O
jR^c
%`L\
EiKe
i<vf
Qc`#
O]q(A
}(CgBi
)pu[5
9g-O
<'Lw
eVwh
2JVZ9
@UU<4
w'SH
-I|V
^!NP
T(z8E
`FG|
<gB{
7],J
_*=A5
EVeoI.}
1|if
k<Ef>F
rg1#s
WJnW
X-y%
x[|K02
YaV?y
@15H
z*hg
Q3qL5
:7ut
1]e~
}//e
VFcS
W]7v
oRW^i
MU}Y,
>MX/
x*^_
d*7n
E7=\
9Mf:
uue=
[SA'V
NCEk
@ /N
*GxoF
9 p4
5@!A"PJ
s[uU
SedA
z47HN
vlMd`>3MF
f=p1
!?+Y
Wrfx
(&[;.{+
*`3R
z() 
Id6(
AyUp
_@RZj
1(2t
U1;QQ;
O"o_
I1_Q%
5]n2
;at"f~
<{,/
 #z,2
_8q#
'R]*
.7mQ
[~Fm
&<=N
>	}	
7Lg~
Ks'(
*RUl!
E#'ku
NM[v
K~Ry1q
)GL?
lHW&[
1"ba
,{TH
e[7p-
(x9s
Q&Q~
,cKMO&
"T:IP
:b4"
B@-Z
jDQ[gBQYR
Z$ cf
o{l2{
_b=L/
I'TI
U&}Pw
]T.0I
IwMYk7z
:94G
*;3n
blon
~"&:
AR6`B
=[b<
zWsX(
Pr6\
&5jm
`#n-`
7XS+
fA6N]AAT?T<
qHgD
)(pf
I!I1r9I
P`hJ
EJ/Q
E(v v
hGBMDM
7#&w
PTC=
pPT=9
_y_Eq5#M
X+Fs~&
XTxn
F8#5l
Nh%?_d
L$2f
F;PD
5_Xi
N<E8
8PVZE
*Z3-
ZPBMcGMW/
EX;^
L(IJl
2^0~
9sN_
8or+
z~HQ
irM4q`g
h}JX+
vsuJ_
4ja<
$+-_
b=zl)
/7]o
j~U+
t4Rf!
Wqu 
_BND
JWTtX
zjz"M?
IExKE
N1k.T
!d`E
[V7=
OX	~
)_Q*
)0fT
 YI;
^|BL
$,:U1
']Pul
pCX\
l"0 
42lH
9!Qm/l
VbB	R
[Hma
G{=h{
;{Wv!6
#[x7
NG[gS
n$6eo
z(.zc
B-0<
l.sc?}
ue,W
oFr72^
F[!<
p@oG
KQJI8
~-|]
+/4,
YUNR
.D5!"
+j`ce
HRG[p
"%XN
xo{B
!71!1
H!G~
dGNR
3/h.
{lr{
fifsp
n|n6
QruSY
	\In"
6_"$^-
Db#2
KsZf
J1QA
g57Gv+lM
#,"#
OQNOFJ
UgUUG;
ytIuE
v#cs%
Ito[O1b
Ga;n
SI7,IT~
<GTi
\_z,
6r.$
7KQB
-aln
IYh>G
C{iK9
A" P
1/:2V
@|Br
M!3}KS
!9/oj
W1I9
6r$,9C
+%KV
{n**
zHD)
~y4Z~
M	bZ
R*4z%i
xINa
Aa?=:
k2ib
h}UZ
N[!I
aJNT@
s/uUl
U&Oit
B}K 
:'Dm
+ge	k'
|_l'pa2
_F%bYxDD`8
=F#%
uOi>
|dFp
KUd'
S!'9
uwV?;nr^
c|WO
_ahX
RzjDKmz
z6GuA0
Oj3]
JRBR
$J1>
K-`W
7MNg "N
+)uV
l8_QA
l(e%
aFN"
;Nf'
YAnDio8
k?,7
i}l3
Z$Ny
3&7/
;m6SD
\Hxo
E1= 
*OKS
-xpg
azi%
(=&z)
d{FO
::(L4
UQ,[
GA*o
|>$G
hIT!c
pS?W
<eM+
<.e3
17|	
Zzn%
gYTo
kZ@uvx
X_DH
={+8neG
qffYF
y1#"
C	DU
F/G>
7`sA
hSe"&
p]H!
3SGa
"u(w
A/i^
OA`3
x],s
 X#L
:YJPS
'M1."
koSV
.nS,<"
]j"Z
GcJb*{
z*W#
<*YoB
%:LL
F"XU<
\=H\j?
k)X:g
%42T
nAt64
@RZ6[duV*O
^OGE
H@R*
CP?I
I7Yj
-/#q
U[91
FU,T
X{K]
&r5$
+ZJu
z W;,
3Lu0
*<A_
Gihf
E%%H
)Py&;
qCl6",v+1
5l)_
9*c^
>xnO
lRmC
}F n
(Z!\>
[\	Q
'oOE
uL!X'
oudID
'	0j
Jc/>Cb
2zxT
8u adA
%X KjL6|
'V"r
$FZO9
%q+J
Io*Z^c
G~#sHjW
QGNcj
y8(F9
G*20
Lvar
bW<B
d;KS
p3(Z8,
1q(6
(}3R W-
I!Vbw
\I&?
-UJv
+:N&P
q#jj&W
A-a!
"_~Bww
z\,hY
G%{95
	hVb
\CX`IOBs`
)L.B
rIz6k
JcD(_
Z'C,
MNYW]
DfJ&y
0ct0
bz!]
QaL#
`~+7k
arlS
_x0x08
+gk_
.KiK$
A.X:
eT?`
#{aB
hq1L
aBlY
3t8p
qM2v[
7lyNa
@yLo
I(|y
E3C<.
l[KZ
;BI|=>
j;FK
z_M/Y
^o0N
RU O0K
[dh1qh
m"o6
pjSlt
JKMI
1L5i
23,~b
U1mD
ULuI
-_l=
.l	2;|
[WuXJ
EDsX`
l H@_
c"/ 
rw@H
$1_f
dy@@
Im~x
9u<\
N5X$
Ec 81!L
j/^F
yz,w
y9W~Y
wGc;
N<<;fJ{
&B+`
mJC7
iVJ4
\-Zp
^yu2
w$2]
&JQE
H#)a
S0P8
/,wam
,z-zf
\	"5
x\\'
{;<5
6\G|P
Y"7G
c/);
wLrz
b]/b
N(Gf
xxPPi.
[K*S q
s'0iu
IN><
5R)F
:dmb
/Zet
f2xV
:}=U,2h
obw_
|_9T
!apf
2* 9s
tmi'W
e`Sj
^3Pz
 #$'
jtf;
6LsF
oM;Q:~z
]pam
~:#'qV
INY}z4{^
EdNU]/
I[|p
@@n][o
j#WE;
wm)&
fM3k
uRP9
fUJ$
mAgu
[0=t
3!^@
3|<^
vBS4
8k~b
yiZ@+?
UwRU`5
RZV%
q3q-X`R7Y]
UZyv
w+s*
$!>Xor
T*U7w
F b5
B<%W
OhS(
[:R_I
qUMv
t#7E&h2E
4U$D}
vBR)
+X,f
nR}@
LT2v{_V
0#xa
U*]*S
Mg-M
&r~]
g}Vb|]
~RWNP~
n^{[3
Y,|6S!)
lj}V
+jnc
K}k:Y+
,+n>q
utv1
t<[)
gg<<
O	__F
6k$O=
f3V>kh
3=i?8
ch[U
[Zvv{
I+E=
Kd 2
&^Bj<O
D(G2
]bXn}
HPK,
wqp?
&]hKD
!ua%
<(4}
4JE`
Q/[T
	yh?
cGJFh
fH0O
Rf&P|l
)J9K
f>og
z0%Ew
C\Apt
%HnA
#:#t"
	d	0*
=d}r
w"xDn	
J.)^
4u3bs
\HQ0
	&0S
'f%2F
A{I|
w"yB
O(&tTJ
*dXV
*0Va
ERW@k
#8#s#
/3/>
tVt8(.
[ A{pm
%~-4^i
Ngqf{f/
L6Fhi
iPK 
'$	P
;PwA
&%%m
rkm,
,lL,-
3dfA
<97Ax
\rM^E
5Mz6
Po((
B>vS
4#UEwPeep7iB
E9-*
fmKH0v
uAxK
 S@y
BB..
BB..
BB..
)9){H^Z7
SzFu
Yw[p
B"CZPU[z
T{)p
WPw=
vk%J
h.oM
X7$\2
H7u\~`
qy{I
e*PNM
!KZkz
@H-C
]uE7JcJ*
cpQT
"GS_
s+rR{?
b=9Wx
[E7f^
G:yz
w"y;Q
je m
H*p.
[x6i
;uHki
D8UOQ
({!t
7vpVa
)V'w
c_'7
UI[J
nxe$
W$@T
a270
jt,{u
z~Vi
Q&<Og
%d5Rb
skCuayX7b4
.:+l
cEeG
|7U	
n/u_
Jq-BC
)q>D
4)Gz
wUf*%
mTi$
(O	7
 a%	y5Rp	
qdGm
s,&sHy
X+|RX
Q\rYZ
&UVB9.2x
HO&\
A1 b
1L>e_}
f(tf
X@B~
')"<
	8Aq$
Jlff
*<; 
*r;n
[_fh
@]DS
LSj}
uyeI
\u{`
MIMru
"*Et
W&>X
GS-[
u~DC
:A~ed8
Np`0
)Vs>
9p^w
.Q@6
&A7I
TKjU
Y;'Fr
5(u f
)i'D
W0)1
~oy	S
QW6d
9>tb
X:oq
PQK)YZ
Wc^jG/jiy
.&'L
A+@C+
9|	]
[{{^!F&
i4'9
T>7}
fXNH
3r	e
\0}z
Gn>H
js}vp
ye0II
&	Tp
n#gJ
kaJB
NRJ#
6ir}c
cl'XP
4P|J
6#8m
dm	^0k
7}d6
W=E0x
"g()
63)|RN	
FIF!
/cC86
Q7Jm
@a9#q3
JQ'L$_W)
?,i 
}V%A
?sXmN\b
<Y8q
e0WL
MkHr4dY4V
!y%1
k)-Sq
^=RP
a/P^y
z<H 
I;f]
?j00%
hAwVp
M2Tt
K<4j
rh`L
*w1M
~]65
'u`s4
6ms1
v~di
pd~9I
J<o8mZ}
uo"P
-b5+
]	Z;e
. QY
;Lu_
;)q*
EoigryZ70
sCBK
^kCf*
cw8c
FCO{
){%1M
!1ZJ
*Ui~
V\.M
V}%,Oj
O" ]
U37,
am&Z
k:YA
bF&EtR
v_S/
\&\@
@	Hf
_OvB
p@P>
Z]Tpv
uWRm"
.r%[|
|x<w~?
,tZ:o$
!-e}
W-E<t
iYv!L
5y?J1
xzI)B.8LqH
Ig;-
}XWV
,+&_
$JLV
=|vX
#YS~
NHiu
~v8	
b8Hx
PucZ!
y99.
q[ki
L0hO2
M="|
Ie%Q
c}3b
vA*	
;\ >
XhJH
4$p]|
_j_B
Q}2N
cOdF
G`jTA
.//UpZ
_|uZ
j0'v
;P|j
yQ5N'P
m]4A
jil,
[7C/l
	.!KZ
3>b8
F){9
v>Ym
+%%U_
<k7=	
qZ;r9
3/%$
LU-Cu
gr@P
)#Ik"A,
4}beT
plfb
Yl{]y
t[A.Z$
R,n_Z5
mw,	
=}pdi
K#MU
=Cne
lW`y6K
Y['&
{OTl
J+Q7
DuQa
Zedd
[8f	^
mmqR
2xT9
>.wj
3[[~
-(HZ:
/g5G
HSC=
0,&1
@U&b
?%!o
a+Cdt;B
CaKhB'
)$r@
!E%Xk
vXoDr>
=D8^kiMG4
z]BU
@%45j
iGPd
*y$	
jr	b
fQRzLJ
9aVu-HW&
nF-FJ
^AhWW
yY"<{
\lxuwz
S)[*+
pXX;uI
5I*8
QJh!Qw
Zy-m
Z@mr
9ykAQ
!1\b
)C:oPJ
;4>m
YO*#
('<u
^CxC
<m	}
fgyb;;2r
fce,
[E{0
*Ysb
* g}u
=|/t
45&S
	.)r
",ZZNgQs
 ^_kT
UXWA9
mXR4E
h6K#$
Oh::
[=GBV
|fw4
ZL[x
]P}V
y9&=
W"/f
5*\D\~*E
X:-P
44+@
rA~dre
r5ji%
~ F@P
\y,H
##(l
}qS7
vB2'$3
OTn'
?Rwp	{
WQP=
p_Rw
{8U{
h{=Kja
MC={
?^'}b
U"@G
~(m(
zt@; ]dv
FBj@a
1.p|^
R[)B
[d7f
O3|g#s`
(+%'
YbrQ
	/L:
\0Xo
ArR}
<M8 _&
KoGI
>!GN
@PZJ
Ic6E$
* gf
|`xDx
fv=>,
Zu~Ph
-Z%\1I"
X?oK}
:vyi
7X12
>F%9
-K%oz
Xk"eE
XVt[
&i#q
DIi	
'_(B
-;kBh
TB6N|T+
ZZ1x
yd7b7
UgLM
-fI'/
E[agQ
wF@#
5(\h
b,q;q
oCN_
)I34
_&uM
/jh:u
#kn>
-D~F6
 6aS$
B=r6?
cjlDg
c##"1
z 3@4ahb
rSIa
Z7vv]U
jZabg
>#1l
Aofs9
j:-c
jzqb
P{w$
iV}g
74X6
k;)7
| M/0u
so-_
\i7g
C0kd
B<YGVwyHf
6!6a6
'O>r
h^'5I
nHt:8Qr
#.*$
zr;z
}U^o
foG?>F
J26~5
	BV1
3NU`i
Sa	a
`CP.
`CP\
`CP~
7A(!
Ch,5=
G~8d
lH@x
&x<:%
rV;Q
CcVl
.}m-M,}
	,U@]t
7!3>
iLn7F6
QK#$
=13sj
t9~|
JlaI
@tnO
I;'|S
\RRv
h$	`Bb[
-1]A
RV#iG
)	jNv
!]\X$+
4)P#
yj!L2y+
pFXz
lXNoZaPc
XQ0Z
te1d
v}.u
_WR\r,
{ZyP
tT; 
x=q0,9
Lw~m
uaE_
cLHRZ
~-olV@
!!%MQb/s}2
K&1r
kv,o
 S`W
j>Se
Z]o]
_u4m
bQ/0H(!m
_"dA5
.f8l
=Itd
JShiJ
Mlk@u
Vz)!6!
V:dep
QP~7=s
	-;S
sq{Vck
K]'/
]{43
GN{<1
GNfT;
,?wpI
3;=lX
3M_f
C=6c
Gx5<o#
C&;kZn
; 5n
74vd
Z00d
u?y2
WC	$js2
\ri9
V2%m
CpZ+
~kuN
z:):+7
Zf9<
OL!S
Lf4,
FLT>-7)
hIhRZz
|W~c1j+
Vro*
>Xb[
m?LM-+
m=(2
bGgb
'bHlwd
|#)S
SQzc
`RQ}
#7C[L|?vk
jej8
Sogq
EOw5
t8R,
]z;#|5
[LIy
fvTy
y*"k
63{Sw0v
i/XaY
|v':r
P>ax
BWerJ
(]Cx
(7Tnc
h:*p
.P^ 
M`6a
<@yC
$.P\
}nA:
$6Pl
T3bC
w*wTvn
N$Lx
7,62hH
f.L^
.$X4^
\>ui
/6_@_\_
pw|u1
54rx
G91E
:'QL
g4g9fT
5p{1
b{2{
\Cvq=i
F1S{&3
P-[]v
bSl&V
DGJGfGICr5&D8
!&C[
;Tdr
dxhD
$yQ`#
*''@
:A:?-
 >m>s?
#T#	F
lG\N
;(i!
|vAo
ESnb
1LpG
D#.V)
"CSBq
?.<`
9jW"
)K\/|^
SMV4r]
3lN3say
lVisD>]
f3(T
fr:k4
w}PBcf
IL2(
fw=W_
LvhVw
%7y2
l[em/IwA0
JBNn
xqvu
w})U-I>
]Jo)
|za>
nF%*
f_ i{
K4Yn
%T_s
L$%p
^B/{
2:1 
?`U/\=
;ZKn*
2 *j
E5l]|
Np#o`K62
h]vV
j!##
Mh=Y
N{G+
,&tIz
X^h}
$588
l")R5
O`]T
z0Xiv
UdS@
rk7p
)}<U
@_9mx
_kx_x^m
igWW
'GEut
#D43fE
r$,5Rk
I,Z4
?O	5,e
8!4G
'PRt
eM+6
68+%&+
xLF+
RumB3ZV
XF(%
%5|P
1Hc_
=(T3<
ivD,i
5OIo
I/$=
{D	]yX
*Ic3
=p&.
EWWttEEWWttEEWWt
`d4^
;fmDU
%]D;
bl1F
lj+J!
orZO
DhBDsk
9Fs3vJ
LZ@!
w"-ri
Q7T}
=u@(
79ym
3FLq
+\W6-
Bde6
1*vI\ks
l1-[-
/4Clp&x
~L0O
Iu}`
&];g
T<^I
sw";e
$mF1=*
0CJI
fc3T
 	dL
wq7sk
Pwj:
hfBO
wE;\
JB7l)
.&*6
&aj(BO1
/	{H`y
2U'T	P
&~&sA4
7K_R
'1>3j,
bWMd
'\PO{7
rK43
07G;0
Gv-&
imr^xB
F4xMMS
(&CS
gLEL
	@sI
a+>u
H:2%K6
!:')
uz0e
@i$3I
8xk&KB~MOM
Si*w
6\Q 
Cdd2
/!e^
y9^X
e^Jcq
cJj-
mGnZ
#t<{O
IS;6
NrtJv
ou3N
	 OqJ
ML-s
RJU9X
bDB*a
Gq#'T
@],.Y
 *Y`
h#(1T
d1@S
62r{
}{Uv
zWpY2
_p,U
$~JH
I+<7
!+hd
s|Dr}
<mlnO%
TaHhp
zZ$8
Lp*	
"nGU:
HS6r-
2;%B!
Nh5Y
bZx]
T3Koo$
mtV+
pVNY
lQWL
ctn$T
YD6_
!b^P
+ZpRQa
G!O%
8^?Q
dqOF
V3yd
eq4.
H~t{.e/
8]Js
=azU
&+xC
o{Tb[(D
;VnRh
Q>pZ
	, W
]nVB
]:)7b
#G!f L$
tgny
T+v]
(N1J~
|1,i
l8TwF
-1iI
dUqi
F~B]V
S[;,
^2!)
O<A8/
Jv7|	
|ps/
r+WeD
L E6
S!!bZ
0+-8
erG(
4?4stN
c~lBJ
I6Lr
Snq0
,=]l
xnu<>
iA:xl
5	8e
2KG~
hnRd
iLf$r3
(;j6
Tfzd
t &Pz
v3{#
Wwq6
d1I6
U	8a
r`l?
(<6O
L	Zm	
B[_r
;|8/
.eN:
b7-#w
W@UQ
'>%!
e@`cnr<
i#d7
t<3a-
}Rv4
	?uRB|y
n$/L
^yH>
x,D4~
j)0e?
ol_"
sGy8{
'hBhD
)76:0B
`G%u
PdVR
iZ=u
$,0\
e-Mlm
9l9C
\oG7
#Uy)
YmcD
1UtB
>/Sj
7Wg6
#!W\7^
c(.o:
fJXP
RG	w&o
nG|)
z	sDlv
}T>&
&DL.L^
K!5@
H]gP
+9d(S
\w3w"s
O_<_n9
E7<KB
yIb}!z1
d3e,Y
]\s	
h$d(
aH~O
FRB4
ZMll
< jr
hccN
4aS^
p@9=[
<Gf5
}6Ab
Le?{
$m(V
(^S=A
Q"l[g_
&{tx
jHyw
rtIRL
FxwFd%jj
ZN>Q
rbmek
T"!6
:-n'
l6BP
l$cQ
kD<\S
*BmB_
ZFh.ds
,D5>
:MF,
op?*
.V;t
HO	i.[
X	='
ucU?
zBv\
i!\c
hC}O
0iyP
!rk,wc
[6g9
6|F)
*x8U
r@Dq
:	*i{&
t,5c
Dfec	<
:(-un
Jt?V
R]?W
&Hxj
_U{X
8^AH
	1S'
D?	P
)SZ;
A?%D
[7X]Q3
V'	U
0w#p
68v3
/iHXt
@=T;
xMS!M
9<?a
y8Xc
XqN2s6
r"wvc
7 8)`
K8L2
<P:f
MxBk
YwP;
\}qB
%p%l
X\,`
pv:#
yak	#
TitA-
+ <<
aY_q
|?sv
zG{5
<]b?ng
{:Jk
([21T*P[
bJwb-
5~]	
/'KVP
?^5.
(<CS
UG?7Y
iHFEf
(oRxqw4
A:0q-
~OV>
U:N+!S
A^ t
#?o=H*=
hX#!
	pcp=
|Y`$
dif6C
3|"y
VD!9
yZA{j8
4lco
bH!z
|Wv_b$
*yCf
I0dJ
eaou
e&b\
do91
Q{E<
/_ZG`
J!?j
#*#o
>6EO
pp;J
+ETk
7KG+
^sd9j
4X4[
h~9c
\D<[
"h(B_2
ev C@
*lY@
"Fd&e
{@vP
29g9[
:BvJvLuG
pZpR!
`JxI
	rQy:
:9?B
w$;"
g0f$
$.hwo-7<
{]L.
(.!)
URV9\
PbE2
sCk3
.L$T:
%0%A$JK
1SqC9
/P/&/(
3n5#4(
Sc[C
:pv|v
PJQJT
k,6v
fVpV
p+@(T
r&B7rw
6!iC
P=l=
zpe-r8
N[R-
	q	y/
7F)&
f`''
[9)A?1;[
n.;,j
1+t+y+
K8;NxA
1K0+
Rb e0
/3]5\
DGs:
 oSv
H!zg
iup`Gb
%c Q
=FXg
<),f?
%`Np!zqL
"P{O"
wTeN?
ObM 
n*+x;
m3^h
Q?Z]
2/S(
\|l(kx
Q0Ugsoz
9X>[^
[y;|Bk9r
}Gs+d
p%4O
w"*t'
'	km>s
V+:*f^
NA(O
\[RK
+&V+K
b(*&Y
PSs)A]
.5.C
oo*W
t,z6
][sNo
?=h%4Yj
M3mFq,
OdaQ
Eo#>(
_Ha1
#z'l3
nN'~-
Y9cL
QS]W
$?+i
L:K9,
.oa>31Y
f**AD
9;SN
Tt)8
xz/J# =
,&_)
Nkuu/
-]Q^
zRjR
?U:s
AT[g(u
f2+2
>[cL
'q7pSl
 nt7ff
X4UMAk!
+d{$
p`Sk<
vor4
CWB!
Vl"9N
MS` 
q.zp
y"|~_
n,@f
y;~&
esK 
dY#p
"h}i-G
W_cg
~j~&3
![2k
>a.)
7wro
WX/:
c;JAl`
lqlh
-5wcEnZ
r,S=
zeCr	-
Kp	E
{~&p
0$J-
$iR[
MQZ=
Fi6"
;P\A,S
SE.*p
WS@k
`,pt
P7<R
DA,"aT2
QH%	$fR
;/];T
DCbM
ho!D!_
LQ W
%GwA
-O"a
vZ+s
regk
e5V{,~
+~Vf!
]QP:
.H=9
mi4X7'
v|0"a
k'so
Xv'xN
|;S/m
~>}w
3<,dpk
%qRh^
s2n9k
YHS>
R2	S\
Dd_g
6OLk
|c>AGw
OKi>
wRJF<
4W<L?
h-$TJ4i
Yv$q
eF/T
5G*d
@Y0r
os(e
~@$D^+
7C;s
+{ZGk
gfFf
TOQT$
TtV%g
dBYe
]awlyF
v?,I
k9CJ
h/qA
U,w4
UC@=6
5)pM
5Jvw
XD><8
NR)s
,X.z
2M"*
!}ZF
*nOS
O<J:W
SEp;
:,C`
p*Ww
ky,7
,K[!X
4h*C
b	@"9
r|%g2C
v!^;
YL`_
Shf/
Cv\`v
'5g1
fJR"
lX>0
e=}H
tH_]NvB
HBT%(
#+[3
ud&b
'tKcX
'[4`
$FFs
g2V)j
emx1u
,k=OA
zY+xQ
{s6"
ds	BpE
%)tJt
k}}	
xi^B
2>2&#
0	l 
&cfV
/HRS
xRq7 
1&n-V
X?U)Bz
,Uaa
0}'ujP/
xuO	
fyYX
@^%	
= +b 
LcP{K
ofBu
,T%)
D$=C
fO+c
A|~Bk
?{4 
,nuy
2DoD
?uku
! 8t
a,B6}[
Xw!w
+CrT?
5!,\
CjzJ^u8
9bIn
Y!]0
.`Z~&
O^kHU,
_^`4@
j?zT
yzRth
dgo?
p6CT
/x1o
6/&G]K#u~_
)r<MD
*BFQ
l(tR
PEp"
A)) f
u"RX
[E!z
;#;1{/
1zY^y
iQsM
U3 QN
(sI7g
XsE{
,m[(
H\:_
QD+S
wETl
5$,p
VpYN
Jo!X
]uf$
S5Y/
dPO%
#yZ9
K5D\
_Xxh*
=5b<1
-#Fd
$I]A
8 "~
w~16
({n:q
G^UD
mySi
R9D[
<}GjA
zkfN
0>.-!
BR\?
6L:NFN
TUw2
/.ZB
$5)1jN
,i$B
:}"<a6#
1C$rT
?f?I+
HwDw4x
-hSP
AkA9AM~npEhm
b+a-
0s($
K!K&K5K
%CDR
5B%DM
?;-Cd
\gVj
6t5 n
-CIC
X+$q
;9>8
<Xya
V5	C
~8}:
-X^\_
QPJ_K
4RZin
*R*z*b+].
Ftvp
?4=F{
g/;z	
%rlbPb
ohnB
	i.4
)'Za!N
5T6t6
:=~F
a^*,
Z1 >P
Dv	k
nVi%)h
}h76
A8q,
-t!D
okWzt
"qvK.t
`$0d}
}%cI
rH!S
!+rS
X[|I
7j766E
r>rXr|r
k`{Ag
$]IX
H4$m
[e+&
3Nm,
dpu}
Tq&	W[
xUHg%
;J>+
[a[8
w=W6
xy^R
caK'=
{d1w
$97}
TWdL
C2<S={
v4rY
x9z:}
Tv^Z
%PeR
[Kjf
4AbV
TzU6
bsN=^+W0
JS/=
hbwb
[EB8`
?I85
z|N_4U
42RN
iCg9q
V-0>
|%Ed
.@cN
^=L:u7I
]wY0
LOrw
(ZG&6
?cnq
H,Og~]
U-)}P
w@:(
jH'3|
TGC;
\aW	B4~
*kjDy
k([c(x)
FdA/
F(4k#QD
]E.!
~dwNY
z a_W[
|QZJ
SZcC
7hj 
!RJ(
woSJJ
*iBr
H'ew
T#6l
rwO6
fMut#
gA7F7
u3EpF
4H#)B
.xl0
Dr,k
7	[3
%aqU
xv$t
I%Zh
_):H-
w!Nus
,dE{
	^OP/,
|:4H+
#q(n
{A0]
cq\\
F$Dj
+F$y
,\gFT|
"% 3
wd/	,
KnQt
;F	d;\>{
"3dV
0^uV
dI62
MZ#J'2
}&},7g
[ewO
Np8=
yh5/
nEwkW%
%^\W
3K^9H
cPCx
8{M8
cRnTm
nc%>
1x	/
}BjE
AOH9
>Ul]
E l?
0P=8
z4:<
c;jl6
zD}b
ZikKrb
z8;z^
h}45
2_n[
Tx|Z
|N1%
"Sr3
1xh*
V-CS
^)C"
$nTo
	HbG
U4Vsa
"wWP
LVUQd
s5,[
GkjM
W@v~X
(NW	EH
Nd4ygB
@-DOn
9M)P
4f-uT}'
x>JMv
vS]q
v7Eg
m$qI
^,PD
%\rWb
<^R\
jkVJ^
7g^$
NM|h
EM~;
_rFP
'#T47
N~.}
	$R/g
GdeS7
C[/t
)9,F
ZsDxyV
}3'1
UjR-
3hbU
$r}'
\FB;
)@u<
b^<b
UNy=`
J{_P
O6H-
Hz?j
Y#7_
qe|m(+
e`WOl
=/d~,d1&
!}Ne
:p{Q
ky6U
,V$O
z522
b_O~J~
G$g?vSi
IJe;
5;Y[
nv#*8b^G
n'!IpM
H' $o
3<KZ
HZUi
<MI{m
"W1n
 'O/
DzAZ	
^7#Fy(
Kd		I
6"WI
^nr8
^s!T8m
yV9*6
7=L?F
O//<-F
xJwg
_R		
d%jq=
(`<s2rW
%'OPu
q|Tw
,`%DJ
BLE;
[aYn
A,`d
V~17C
KUdCz
AOG7a
kRzY
=(.i
~xH=
3N$9
Z;d;'/
zVGf{(:'ba
#6FO
S:Ri
d2{J
 fJ&
)<mUn
&C?G
$Cp5
c!^x@
R!9U
~)oc
^77L%
6g|H
0p[=
E4"#(Q
_@A$
 xj\
:Hr"
r]gT
8$Nq
O9sP
9]-$i
7KJ+
p C9
"] +w
{X#QX
ny=E
N2e2
u=9`
pJem
tSZ(
g/}9
|uw	4
	XJZ=
[j'ry
Oy1I
<`0m'
Y^_{
u ^R
E<)%
O$F-
^;\[
u45H=
fvY_
{gQE
`U&q
O3X2
M6ag
	TdBiT
)OC7h
G,`z7
vey&hy
4&`G9zU,gV
C<3y
\k'|]
g.'O
j $uO:
2EdB
$s~@
ie!z0
?{W^h
\ HNN
}WRsD
{MeT]
SZNr
pI	a
1ucP1&}~
dj>S
/]g/h
dm\m
e!$.
xAy]
oj{a
_&ezw
tZ#g
v\MB
)Q};|f
0uEZU*"
0's.
R%,;)d
%7))^
8yzP
ycTlD
>CmW5
$!pc
m<E\
(i${
utg~u
S/y7ZQ
T+m}
;.[.
hh.t
/1Mm
0YDg
#LQ@
_Z`5bp
Ux$.
kjL{
d\Mi
C2!a|z
SFEL
j,A+
$oC6@
m-S=k30
Fnl%H
-5qS
z^#zq
r=y*
u3Fy
DMc{
*vY$
ifAJ4	"
uX7"
{V#1CG
F3jB^
a!ya
L `l
~Q<P
d@%'
!!F!
kNJg
CzRqs
I3"k
A|W&(rDj
'o6!
	[L!
NxhmG
\ig!y
5<Fr
G/YF
(+FW
H{Zl
N5j,
9!Mq
UFk'
H^2$FP}
R2HG
{8zK
S~kp
fl{H
mXtQ
>E=5$
CU 2
pA3El
*BT^
	-[wys
OQv(
5c7y
TGq=X[7y
vCxR
p7j 
9m`-
X!2b13N
uE'7
7fcQW
.yru
\FJ=
1\DvY
zvMH
`<t%
2PfVfXf@e(
m$D'
Bc`Gm
<,mE
# Oo
e\R^
K.dy
K{+H
.Y}\
!k[!J
y&ZA
AKm0
R~.qV
hMBpc-
i^~-
bg.J":s
4}/G
~QZHL&F
^wbjL
Ul.@-
)9h_WpS
H9F}IB)
^.>!
hXg9
HnP+
5xpe1k
J"+L
+V7v
1@B4
QV%Svz
Y?G{
1IxF5Nzk
Vk<?,*8
zHAyc
opgf
I33Pm
2xIR
xYfr
l:~R
5zeU
)"Yb~
P?M~
m@t;
Y4ip
DJ^Yt
kVkp
Kdpe
DWkg
PC9n?
84Q@
gv<czV
|GkV
iuMl
3[x\P
Z~Zju(
;g?H
ZRtV
kHdn
+<x+!
;n&O
&2e;jIg
QWt?
mYTO
|bcCP
X,P4
@|2>
Ae`2h(x
a!>)
ofeU
)T	3}
NdJ 
td2I
whO}{
^[,9R~
'9VjBzL Sv
%6%_
w;>'
_VNI
I-	D$[
m']M
my\M2m%
$Q:6(T
9llR
ndE;
#$PS
k/~U
d]_:
eVOl
AAACC5
Tfit
ib[3
(9h{
+8<o/\
\C\M
vVjB
Qs)^
 ~"1
O@q KTD9
oRQr
AY1l
H#9c
b*wm
/-xOH
QaaL
Z%.(V
}OA?
;6ex
Q;N&r
EYdjE
-U%H
uC`$S
A+-}
"k U
gqUe|y
J4+]W
0N?V
{uC8
9o{k
}sV]Y
\Oe25
"5U.
fPf~
,^4e
#W 	
;V"0U
.a!GN0
{-u&
3#IP;
{QL'
F|$$g
zs=^
46%}
89eO
Jy9!
ixPd
3s^o
7m)x
YqX)J8
)g{:
&Q=i\
2&{G0!~`
c(s{
ad\:
zT[c
OYwxR
?w?l=n
-G^h
aC07o
^?_?
H}5U<
~2(Az
4P6a
A"qB
	^%y
7dn)
)pU1
H_1@
-OY]
FUqZ
KM6>
rudc
K*.e\f
q9FX
vCbMW5_
=S:I
bN6y
bfrM
8) S
-0'D
nBqbr
>J6}
67:7
)7rAd
4QtB'T
=\=\=h=x=
].v+
-2p$q
Tu<O2	
02+E\
o(9=
02-cb[.
&/(+e
Y9*6tud
ieIf
@4`4p
z>TC
.</Rx
uW]i-
k()k
l4glE
T6v<
x"3k`
u$^H_
	U"Wh 
H-mm
@5@xPs
"tBtrxJY
xYX[
Apt+
'{I#
3f2~d
'y-at
5KfT
CHq'x
A-R0
DF	`
@N$I9
EWwT
:^wb:
h@RH
akal
,&@]TMdM
'vTJ
Zjtyo
OK(e
rDj"
]	xA
E4{v
;6T/
	D% 
2s?o
F|*wz
oM[{
||;D
hSV{j
q<{B
2r_~
2[4E
KV"4z
	7bA6
12f+@
t1Mi
;	K+k
]u=J@
\'`T
pImhGO
=sZdc
QG3&4
QFi4
&g Y
}*abrh3
8M%>Y
oQY_
MABC|
K+v-
Xd>E
\	Zv
!@hV
;Cmp
R0cE
AACc
#B90
wT5En
ab}1
ndbV
3|ky|x
3aZa
AD|Y
<x3>iR6
F0Ru
I0k.
U`KM
x<K%4
jK2/0
i<V~
 EpI^T
Bn;	}
HgP*>
KoqO	
&7:E[q
{ ^wd
|w7	
(CPew
F;gK
2`K^E
QQy"
fi3Ca
6|_# zg|
\h=)o
d2Oc
.BL	
dv$R
Kc<f
l/m'Y
5{?];
I\TU9*
'"p{
t;jm
g5*i
dAwX
_x=>/\f(r
"m	E
UIT	
J{Ax
	j7!
V	E(
S8d >
|o;L
Yh3O@
byV\)
EvK>
^i[1
#+7P5
 /B;
g8"g$
)Z6@
%iqA*'
2Xv()
S!t-#
KK+)'
:"0zg
<qK|"
Z ,{
^!2t0
H}Ws
`mli
&7W{
 Vzb
XW|i
&!wMk
tD~,
cI(&
?B/A
k"Is
gaT,(
uLe-
]]6>
%sM)#!"
miba
%E}Ab
@lN}
GU'mA
W\3c
fG$7k
gc3O
E r$
e=d']
Ce,?
8ya6
d0-W
p%&a
|4uHR
(2-6
PSabY
t@NS
K5rg
eo%X
`	<NJ
!;FyEOxO
y%ma=TJ
+ga>
-+EC	e
Yb)y
m:63-d
j@AI
	M: Sp
Zd	(d
X;x&e
w|+wL
ZeGtN
#65C
w=n	=
m`}/
%Y@G
5-G4
E+s/
lw\?9
`Izg[
;3>$
u++1
u=])
7;1`
@A"#
O6'>w+&
]-`F
(Zfsq
oyB/
0h+]
d	<k
2xK;y^
~asp
$sF97:j
l6a@
FoX6x
`\k/^?
xa8Z
t.7G
U=1#
OZmXl
T77_
410SU
fy`A%-r
egQY\
D"s1
%D&E+n	
g%`t(F%
elve
]vp'
Ni|>
Kf!qHu<;|
]	O$<
sDgf
&D2Q
@v-g!
,'7Z
HN`w
sfO6u
h`$Aj
t|E!
fx}_ 
yycEel
A#]ZF
vGAD
V`Rl
;'|<aG
IHz)
LBgg&go
N5n<l
&kmu
Nvtx
P/Gv
tw7(
tmok
`CAp
F	d%
P9mo%
<None>
P<None>
<None>
WinXPChk.exe
Network Setup Wizard
PADWelcome to the Network Setup Wizard. Before continuing, Windows must install some network support files on your computer and possibly restart your computer. If you are running Windows XP, the wizard will start immediately. Do you want to continue?
<None>
The Network Setup Wizard is supported only on Windows 98, Windows 98 SE, Windows Millennium Edition, and Windows XP.  Instructions for configuring a network for other operating systems can be found in the help files in those systems.
PADDINGXXPADDINGPADDINGXXPADDINGPADDINGXXPADDINGPADDINGXXPADDINGPADDINGXXPADDINGPADDINGXXPADDINGPADDINGXXPADDINGPADDINGXXPADDINGPADDINGXXPADDINGPADDINGXXPADDINGPADDINGXXPADDINGPADDINGXXPADDINGPADDINGXXPADDINGPADDINGXXPADDINGPADDINGXXPADDINGPADDINGXXPADDINGPADDINGXXPADDINGPADDINGXXPADDINGPADDINGXXPADDINGPADDINGXXPADDINGPADDINGXXPADDINGPADDINGXXPADDINGPADDINGXXPADDINGPADDINGXXPADDINGPADDINGXXPADDINGPADDINGXXPADDINGPADDINGXXPAD
\-Px
gE@jGG'C@
-rz2nKJ
K(dEv
Uyv'0"
JI&|
+CEwj
2Ihe
J2}i
;c'[
g}|s
4XIR
t'y$
4g9d
@{k`
0cb7`
f<>g	PX
!k=)S^ 
VbEg
7XZf
"(h^
m?-vX
%(b^
H3~i
H3~i
H3~i
H3~i
H3~i
=IsCJ
.AdqZ%P
;ztp6&
W{Ma@
p]&E
JyA"
.IfmZIR
46oQ,;
l{tW2
>tSZo
{_nL
4z>-
m.!R
BfJi
KwE@y
Cl^q
V;$ZV/
xE!B
<rQ 
{+eX
"Al3 
4)FA9
JNR%
5Z&R
b5B#
V}%}b
EK@o
TGJjM
KI&H
Ylgj9
h8%0o
fn2R
iC@4	
NOgbG
v+3nh
rloH
qt'j
@@am
RS:E
%fP$s
Hz_)
Z-Pk]
s%7W
VCRr
1)Fb
lNl$9A
;]/t
8GZ}
<qb"
eP"j
L0AGE
= ~n
\~M@
BU|p
or $
YD0I
k)F?>N0
#8cD
s]7W
;6h__
+	o_
Nxw;
Z-4w
](@1
;m1,
sH|1
Ts=>
	P@3
>n1-
_rU?
Hhea
The8
4~i7
N\?s'
1h@l
37rn
iOZr
SaQw
/y$-
-#WU
DR$7
P=av
DA0)
HQFI
_H`B5
NHC'\
&i2|
4g*0
;6DQA
 <U?
YI]j
BWmS
*/P_
<qg%g'[
3yBz
2S=*d)
9#U:N
6L(>
Y1@!n
we@ GR
&?3l
fXhL	
1p)F
sEIeJqT
6RQ,
XWil
tU(P
P=;g
1p)F
oL3<
Hp=K
i*Q8
x2s{hVw
B{jD,
bsQ{:5$
32Zud$
\+$IL
E+2#Z
o1M7
B\Cc
xu{S
B{3v
*| ;.6"4S^
l:"%
F.:+:U%
#gD{
\h~"
JNk4
3wH,_G
lz`<
0w;B
Sp|1#%
3f^	
8Pwb
AC8BDM,
'0pa
j~unK
)/Rj
?Y*Um@(
SaW"UW
vwr-
('%T
p|[ty
%(Ei 
jvunK-
(ShR	
p]1-)F
cIwW
lL88
UQ-D
sDv*
'?kC@4
,%k%
o4 =
AnnWj
}bv2nK_
I3~j
5	s>
I3~k
Fa<_rU
uH3~i
H3~j
H3~j
I3~i
6	s>
)4g*
U(S^
I3~j
5	s>
I3~i
5	s>
_rU\
Z-PHp
,2e-W
4g*l
Z~MC
CS}}
NVDh
V>o0
xae-
$$I2
+|$,
+D$0
PIshqq
l$$1
USR_Shohdi_Photo_USR
