!This program cannot be run in DOS mode.
Rich1
.text
`.data
.rsrc
MSVBVM60.DLL
jzr1hzrbrzr
yr'kxr
uzr.
yr*ayr
vr$Fxrx
uzrk
vr];wr
5jrtLxr
mzrpuzr
yrtjxr
lxr-
xr0jxr
hLiS
Unintimidated
cleanlegged1
PUSTULATE
<<QQ
xb8h4)
1qqnn
s|+u
##%%
  ..
77!a
''_O
c=hi
qqrr
""__
**GG4dlm
//66ee
ll&|
Y\yl
DdWW
T5&&
5AADD6<Uu
??LL##
11uu
JJ,,
<<QQ
NN^^
FFww]]
YY==
11qqnn
//zzUU
TTNN
55""[[
bb%%SS
??HH
LLff
##%%
  ..
WWFF
F04Z!
"&__
GGI<
Q8};
s3w1
IAPD
E{~6
X8<U]
51u5o)
@;6@
-9		.$
j~UU
U:DR
-1""
4xB?
abR(1p
;6iurr(
6CG4
M@?+66
Q^-9
kf< WW
IFXD
Jm+3
ccUXui
BFw7
Qvay
!!(%
2&[[&)
$]9>
_F}w
we[_W
tp,X
EE|k
.GGji6
(k#rhB
Q91x
33.kz
k+Lk
VJ^^-
)uqn
}}R(
bg%%!W
>%O"
oouz
+3aa
8:em
^SAA
G/54V
MH#+66^
]4&P
E<<Z
g']WV>
4Zv{
f S;
-;hh
Aj~e
'o'KK
C4;>
XOLJ
1"".
fHC+
E+;6
/U:i
BYg}t%v
M@D<
JJ,,
S+b''iG
31UHyi
gyzU
fMN e)#
5_"['
'SSC
XHff
Ltd%
hP8\!2w6
+/6\d6
H,ZX{>
azz5
"}CV
pp6H
,M50#
y-%M
'-+_
'0)"K
\ZFF
K\)d
YCWCF
	-&	};h
X8H'
;%Uf
XDZ]
(`X 
pt%%d
fMw,Q
J--+R
aG 	
slxb
pp2j
ruQ+
/*G;1
R/6J`
Q=L817d
$#e}
T@<<
#;LLV:
p[xg
gs]]
(/D 
p15"
l&DC
`Gmo
~I/20
`h",
KKJ,,T
:=QQZ
//zz
"'[[,v
>zTh
*/w1
^skm
j`8l
iM>(
y9t0
ab&||
$$Wv
_==``
1V`=
D537C[
ur;H
L9mH	
Jr$!
Lgb%
c/U/N
FJ1c
tt{It~6:)y
?pihD
HvQ]
xfzz
97RRJ
_sUS
ivv2
mmSm
--+Yq
tBB0
,rr/
}OM{
	uip
uu|N
eeL:
0Ewyy
b#"#
&X9\Z
m8EY3I
QT>J
q.fu	=P
|Ze*_s
TTe2P
KA2g
V+eN
j1V`=
[#|e
mn]K
Q,{&s
qAf0
zL13
Ye!Sx1
41Xl
7jk}
-G?W
^Zmm
kN7~
U01""
1(SS
K(vy
GJF!!
us#Q
\tts
Qwh>*I
V+vl
UIf%`g
V"ne
[NNww]
??7Q
Ja^"A
4J/x
uu%V
NP2	
!3rp
-4^m
&&	t
RRiw
lT.`
PQQF
c]]x~&x
^" .}SR
$`$1V
DVFF
~_ee
/v|~
Xwnrr
91tUuu
lZ44
>UPP
==&)
H(YT
3m)5&
J>lzy
*!2a
QGGp
y.t1
B2#n!
ZON2
o>0b
Kd#P
e#F^
)eF&q 
DgOV6
_y==
cD=H4z
99#d
sKu 
f;\2]gd76`
OdQ"3
9TT	S
,s-#
9//i
NJ^^
C--_$
j-Pw
tqX<
@d;)
hs#_*
Y,W#
VI-1
h3YII
GP9fd
f$%S
M4PQ
Q`u0
qqsrs9
xv>'O4*
--PI
m]]x
PP{<n?
R``/
GF4Z
d!%WWT
%1&&
Rm3xS
33&a
J<<n_
V17X
GftH
 ()OOB[
[g K
<y/k
"HXsm
5RM"
oJhCe
XH{qr!s
@q:)
gKn_
==[Zk
Im^^
_>LL
HrMMK
F<C'
kr)s
Qk.N9
[@0H*
Gc\<
K@7g;_
fx|$
^!BC
^Y7{
ktSV
h{A$&
)):A
	\"E
$PM=
jjB9
3@<<
?LLzz
,,+P
:;B>
;S8~Nivv
3=W	a
]T)\s
Ne\WW
!lvp
3VU3
;/tX
n11DA
hPHII
/j&2
Ai5j
eF3&
sqn7
K-``
??HK
b	D0&
|r=2
MM;@(
O'Jv}S@5
]R|,c
a>9/Xk<
2S(}T
**cL
""?Lv
)9bH*
p:{w
f^e*
agR'D
xn#fYqt
(b''WG
~J\u
aQF4S
cb%r
3#Dn
G,,_
__5_
rtaN
%lln
|BBp
;@vr]
IeL8
0)' nbU#
;zxxg
$=%4
>E2=
PyI_
		{{
*dv@
.S"/6
ZZqw
(*@o
(W6)+3
BBBJ
)rr!f
># %C?
w77Q
@44-V
~1`Kqh
)VV7
KKGl
N3p_
!!(?
  }x
?#?~
Cb/%Oq
ii	N
(m_C
ll{6{
cxo&&
=%XJ
/Xi(C
rpD(TSh
acXoON
n8R_
PTj+
!$$u4\/
f*i0
KKg w
R_nhD0
H;*[ 
Y*Mj
H#jT
;dgkl
AR3i
ih<<b
G/^s6WE
"{w=
VF*5p
LMO3
}1W%l
o36'
2b55&
JFCt
k-8E
;Nw!
t11qq
PE;0
8N.kL
L:Tj
FFU.n
I&ONW
GHXc"
vfn/
`AAN
v]Cu
BBD?^
[f)?UQ
..f#
77%^ff
cX:RN
jp7R
:GsS
Cee8C
)'C^bU
MM;@
[x^KKW
 $W=
ii[\
224Y
\l4h<<
JJMM6
^\%W
WWtN
qiIu2
@@t"
2XXO
TTTW
aaj-
VD]+
F>?9|ok<
B8Q^T\
+N:&
`'9I;0
KKxx
#	vY
]4:2
C4sMg
ObU)E
V.R1
\"5GAu
'H%[
8!/I
{)&"#
]B)F
/B|69
^A\F}}
A=x7
Cu2M,('
4c:>
b.fn/
&b\%L
@GXc
(RV$
)Z#{t5}
aHxy
\19,??&LI#
<2ZZ
PPY$
ONNB?
wi{ee
Fabb
VZl#
+/6o<
II*`
"m4H
dLi=
4g1LU	
`O)Z
TWsp,
Gfo$e
ll[^
d#~#
ss?=
Y'20uu
_44F
|y=<
"nnn
g:-7
G	dw;yy
177a
ggGG
~""{
Nv::
//(v
BB<j
J#CC
|OY5c
w;o%
UhqV4Y
AkWKo
#}$R
4bbY
zGEh
.vFb/
bL+5%
@A1=
;[632
<44F
N$^6
Y==^
)h--
FFU&
3T^5;
i.DD
j.e@
$11NH
d+jv}
~w1v
ZZY*W
J$B0L
Yf4Do.
hA	P
'UK%
dl7l
B(GG
>>M>
p>-8E4
EIIe"
^4Y	
/@8RE
oJ({
sdd "
``%`
Z]4A
7@@d
'hh0K		Q"
$PVZm
n.g~
ot"H[
.+ON
$m)&x9
E6\d6&
,PX}U
E=?L
nnKI
TSln
OO2u'
+Y@gf7
;tu7]
@y$u
c\y	
y<2X
'#+s
S'0C
Qt&p~
x4T>
H3v\\9
i yym
e|G-
=vME
	8q%%
;<M{
@yx	
yp1&#@
,z}R
QQ~2
~\6`Wxi
On["H
zm+s
$$lc
Vfv1
a<<nn
@U*NN
@:M5
f&	s#
At6m
	ttk
n.s1
bDDP
!e>|
;~	KK
I)Pmm
A$kk<
i0IIc
%gwV
:7@@
wwo'
_77o
uu#;e
aDDYP
Z??I@
!cI;
RRyv
.l]3
haK:x
e'kk
xx,,
3II&&
J1+KKo
l.57
%g[U
vCI\
VFF6t
<s~<
mLLf
,o{9
KK8,[
]=y1g%
P#ssW
e<~Z%
?v 4
b Je
THc<<
RA__
$'ii
a]])k?
x44&_bW8z
3{;wv4c
V]!M
		n,
rQQF
6JOO
9z>?}
@7uW
P`zz5{
Lxxxq
HJ,iA
b nj44V
m<<!7
O__L
ZZQ*
Z%%8
y44a#(
{{4}TD1sk
J=dUU
N_[_
u|AA
s~II
jj'{	
\'s1O
__![
H2QQ
zo-F0
_1YY
u#		
	C!!
JYgUU1
+ipFpp
u7`J
b4H}?cmDD
K	$&
ggzL
C/m$
BB:xQ
^mmO
>II0&
\9A[
Y&KK
Zl.M:
%g3X
v9@@
SC"`
uR77
WL``
{9{t,,
0g%x
(ssW
I5'e
ED<<
ww b
 l3vg%
pr0h
b r.++D3
A00X[
``!c
V1q]]
xh$f
b"==h*0
SAUbR
pT55d
OOO9
1to-
__H<
ufjQ
1Mo-
X1ZZ
i0aa
=/m;nnn
::;+
i+aD
7.rr
!id&2'CC
<5QQ7J
~z1s
cUAG
``)a
'		v
cUUA
@f$}
p\AV
Yq3h^
UNhvv.
I[--
J%#KK
ONN4
VV	r&'
%n8z
KWWs
5jG!
83Z d
<m;Q
vK	F%
sKJ`
$ueJ
hLkH
$Ch&'O
_ga}I
BEG4e
0wRP
kWW=:!
<UUZ
ueUGgnn
L@vB
jj_^
v--=
&9_pi
]t"t
`	``
T+!!n
vbsw
Y)@x
'MQ_|v%%@F0
~j`h
% +^
^^	~
ZN,,
A~wO
AG[)`k
==4GWW
5m||
3G.!
wKWi
Tq/41
hw;x 
++3E`
\%%?|
^WW5"
}}I_
!!f!
'ScE8
66e21
AVL'
F.ks?
-OLL
Fy/r
	Z-Q
L\<O
T>Bc
!qK+v%C
65_"r
6<{>
S%1C
=Ug9
Czz5
*%[o
U.44
N$_6
~;-^m
PTZZ
7p#r
 ''$
6w;ML
o^c}
.p\)
j@G=@
\uuw
zIU~6
zH	9c
wEPP
}O]vQ
.)dV{3
h>%h
p&]G
jjZ\r
kk-'4I
GFrK
BB2A
7Dg8
z3WW
|\72
~a''j
.	fV<
a`!k
M^^OQn
=ka1
J{SX
;7 L
Y^)*
#u<^
[ZmU
@pqB
DUT>
&wx9S
FV55`Pt|==6*
{.oW
/OONB
j&&	H
*3^o
M+."
H5nw
qBas
45"q
0{IdC
DB[o
=- tu
DM89
&Dhh
>6]A
$$k_B@
#@A1
6~xx
ocw3
u7RR
5EAc[mm
ts$(
$II_
2aa.
mmRaAN
QFFGt
sA}k
DD:P
;BB{
dII_
=&".
whh\
j<=@
[sgb
H\ee
J3t}
^^+.
=uz0
IwjjZ
xIWC
wEjP
=^ZkR
dV43
MIra
3TdcU
e\5c
7A+g
mWWa
OOML
^g-4^l
W\ZZ
#dL2U
Rm(x@
&LI"
8S@E8
ylBJJ
Q=Z#Ld;F
Zggx?E
KK|E{,
l8j_
M\\Y
ysJu
6_`a
p5^A/
Bum;)
tO%FG0)V
>==&
ggzz
N& )
^	Ccn
LI" .
"B[m
ZZZQ
'>a`
J,N\\
rRdS
l\Mff
p[Us
"#%O
'rliX&&
=uqqr
;hpS
W5I)
IOva
iaEE
:sX"
iz~f
lnn'
?UH 
Zi6u
w0'k
D-		
iZJ	j
yE1h3
Y1Y	
_76Z4
fOH)
8}dV
dLqg
?H{)j
 J/D
xR?&9
	N<dY
pCy:
-Xl?
	f	Wl
r>iH
0,,r
BuuL
Dvj+
&&,4
rGhh
Q@q##
y;"3
:BBHH
mnnv2G
pqn&z8
1""=0
(NNN7
8z?}
{AxxoP
u7|N
**EE
k<<7
I__L
m)kW
dd=]
'HO*
//f\e21
UH	M
r];+&
LL61
p7~!
bMFF
xGw6eE
'|e,j
a*9::5r
778}
0'PI
^@*t
M7SG
RRi9F
A+E,
?a"%
qV|y
WFv7t
RYY=
h+dqm
,F8/
uug 
pD?z
'jj[
_5L&
9-]T
*QQS
00V-7p
UjnHM
0L\,,
 ``C)
i:bk
{|pI
`%_c
M4G8
qL=!
{8^^
L',r
rr!f
WdFF
X3]qr
g shs
}OsvQ
*Ycp
M+."
?xma
$-8.
}wnP
vDqc	
Wu	 
99E/\6
M+2"
)w~O
3f&!
6\_5
}Oq{
sA#k
ZhcgK
5g&-?
RNK~C
p4n[
NrG,t&
LN|Ca
|O'5A
ABSg
?X+D
[q\A
fdaa
GyE&
)p,Qm[
-1K 
A\Z}}
+nK|
J yx
>M'D
tjR<
mc6)
'QvD
)~fW
^II_
IrY 
x{IV~wAP
vDkc	
uLLd
Qtr##
TTTW
\XmmH
d..k
II--d
iiv"
0"P9
OOKC
HC9c
+@G/
+,mL
{8WH
!i]c
7{mm
aJx+\\
eU5p
~7cR	
s#_*
G4@.
^%%"
LL#K
jjZZ
m_qD
s1DVuu
Toq%O`r7
1%0HTT^
?LLpt
pqYuE
nnxR"J
TY -
0"VL
I#O%J
WWA:n)
vyrr
.gGB{
M`;<
u**-Ggb:
/Hh$
2+VC
!Jvv
>F@Gk
==	G
cnn6M
0h.zz
k{3r
eLL>
q!"$
@{gg
c33Z
d;s!!4
.>Q8
GD'"
~~4Hb
M	#M
4`X4OO
Up&<y
5YOO
nn-U
FFG@
Q3Jw6e@
<e"!
KH`X'FfeL
+9Hsp,
L)+s
~DD<
@UKI
zww]
XqIK
SQF~
		n,
LOO*qrr?}
KK#a
EE2p
T6ee
M$WW
~xx6
0l,A
j<<-
JJBx
`.ii
ZZa!
G]%%
TV55
l&o.
<wi)M
2r}q3
0`/o
KWW5z
&&zXL
EhhqS
s##l
*k:q
<yj-
5j|y
%OS;
9@TkU5
uMuh
|}="
h}xR
xs54
QRi6
l55&S
HA1&e
.}}e
Ltax1
V(O;
(3WW
z35p
{A<1k
Tjji
o+^S
miD8
j%Kii
'n8}
K77Qi
E76t
HIa{9
p,,D
*_w5-
IipY
Diw$
[:jkH3nn
dh~!!
S99c&[
 ![P
l"IJ
44%bH
TTok
%`a)
R{mn
q8hiv
\-HIu
+d5(
+QK.q=
w$e@
d J.F
dep7f
ILLd
5iih
X%zfw
1;9?
k<Hr'G
f1(H
P*"b_$
w0?|
xp))NNuu
99XX
>>oo
""  
**GG44mm
//66
tt%%
$$WW
55&&
+B_^q$
AALD<
MR,-
ML #
)JH,
FFwwy
qqnn
z0Ui
TTNN
=\X5
bV%SS
c?mH
LLCf
P#y%8
 ]. 
GWWW
xq;3
wr=:
e"<_
Gc4	m
a/W6Qe
Nt%%( 
FZ@R
&A!D<<UUe
I-S? L##
r~LM
YQql
Bo-.
NH$0
]IyX+#1,
_eOj/2
+ ==		
UU("
 =,"
I`fk
)/PGLC6>
%%<!
`J:$
P#y%8
A Z.d
B'-O;
W"3_
i*(GY4
s/r6
H$2W^
55&&
(A1DQ<UU
}?>LL#
8JC,
O<4Q
)F+w
6YY=
z	UD
3TnN
B5Q">[
 bW%<S
Z?:H
LL%f
O#L%s
I Z.w
W'*O
-q=r
G"-_
5G]4
A/U69e
r$>Wg
i5u&
-A!DO<	UH
X-R?
w8+XI
bv-5
YS=}	
&T/N
:\\5N">[
| g.k
'W*F
k75a
me%)
^W;*
_qrr
""$s
XD&*Q4mm
V_BS
$$W^
F5O&
DD<<&Ub
?8L[#
,JE,
+N?^
?YT=e	
11Tq
z9Uf
&T!N
\Y5M"8[
W%<S
Z?:H
O#@%n
f B.j
T'aOr
L*.GX4
ty%Y
E$0Wm
55&&
A6DS<3U
^-??iLP#
)JG,
U<4Q
J/	z{Un
\\55
b@%0S
K?=H
%L	f
Z#G%x
F G.i
rW5F
''OO
M"0_
C*GG
@/Y6
ty%@
H$2Wq
\5J&
 A	D]<<Ug
D-S?)LP#
:JI,
}<hQ
/N^^
	Y\=}	
{/2zUU
8TNN
\\e~
WK2?
SP<H
}}9 
W#%%MV
  ~e44
MQ?2%-
N';O~
PRtq
QV:/
u$(XA
[/EG	
O#b}?4
tW%u
V$$Wk
9ArD
<UU.
`-^?%LM#
]1Uu
%Ji,
N<5Q
p=h	
f10q<n
z7Uh
\s5N"4[
bb%%
L#F%v
6W+F
C"/_
Z*+GA4
\/j6
P5J&
<:Uf
B-J?<L
_1)u
JJ,,
'N1^
YY==Z	
qT=N
5\Y5G"
LbV%SS
L#_%t
O @.n
A' Oc
aP:>
EI"4G4
_/B6Ve
tI%|
2vRsn
F5z&
OS,=
-%O^~t}7
|^mk
%J^,
6Y~=f	
z9Uf
2T/N
5F"9[
oh,%2!
??,!
LLff
##VQot
S Z.d
e7$a
''OO
G"&_
**GG
_/F6	e
tI%>
$/Wo
N-P?9LM#
11Pu
?JB,
NN^^
*YN=		
_/)z0Uu
\T5Q"([
bA%SS
K?8H
##%%N
  }.h
C'*Ou
Bq!r
P")_
//e6(e
t@%b
t$wWW
`5U&
2A!DN<uUE
}-p?
e1%u
JJb,
+N^^
F'w}]
YYu=]	
y1%q
z0Uu
8TnN
\e5o":[
Bbv%6S
s#J%o
O \.q
#WFF
w'oOK
qqrr
Gd4^m
N/E6
tV%g
"A6DS<&Ud
C-[?#LT#
=J_,
<N1^
2F+w
<Ya=8	
z9Ub
2T:N
(\i5m"=[
L#N%A
dWtF
A';OG
D*"GL4Cm
t%%C
E$%Wg
Y5O&
oA D]<!U
K-K?
;LB#
>JE,
O<QQ
+N,^
FFww
6YO=m	
z4Uu
c"8[
bK%'S
??;-
#KDpx66
| m.|
"W5F
##hj
O*4G
K/D6
S$6Wp
a5v&
DP< Ul
y-o?
&JI,
NN^^
5Y\=U	
P1_q
/	z	UA
1T4N
\\5N">[
bI%2S
Z?+H
U#@%
S r.C
$W/F
F';O
C"2_
N/E6
J$0W^
s5T&
H<%UX
~-r?
I1)u
9Jp,
H<%Q
6N3^
7Y[=f	
//_z&U[
1T<N
t ~.%
yW>F
	',Ot
f":_
*?GY4
//66
tV%>
n$6WQ
A5I&
+A7DX<UU
=N*^
?YI=~	
7q:n
zuUJ
:\A5R"u[
b%%SS
8L"f
F#y%S
N G.
j'6O;
C"+_
**bGG41m
W/C6
tR%q
55&&
A'DS<;Um
]-y?
N<4Q
	Y==		
H17q
z8Un
.\P5~"b[
F#V%n
s A.c
8W(F
''#Oh
WF{l
""3_
L*3Gh4.m
K/S6
ty%F
O$2W^
F5O&
%OO":yo
Y?8LS#
11_u
%JH,
Q<4Q
/	z	UT
1T=N
i5@"4[
bD%!S
8Lff
#v%h
  }.`
1W2F
r"-_
$G[4
V/66ee
\5&&
3A!D`<
q-k?#LW#
<<QQ
+YI=`	
]1qqKn
p/<z
TTkN
y\F5~"
bL%'S
???H
s O.w
*&W)
J_8Xb
.tbWj
-ZkQ
v*bGG41m
%%Ve
$$WW
*55&&
	s]Nr
,p"+
SSrTX
n+JMaa+<~d
wh?4
'#bc
oh_V
  >t
s8dh
QV55""[[
%%SS
??HH
LLff
##%%
"]h'
wXC7
MA6C
ySVeC
<HQN
dxAQ
*(R>
?:8U
**rv
RBb!^/
@ADD<<UU
R,-??LL##
SR_C
JJ,,
ih7^
NN^^.
vtly""
8=YO`g
//	~
fwww
\bfJ
SV2-
 L%	
JBILgx66
}zANMK
EF*.
! y3**
77aa
''OO
qqrr
""__
**GG44mm
//66ee
tt%%
$$WW
AADD<<UU
--??LL##
11uu
JJ,,
$Jhh
<<QQ
NN^^
FFww]]
==		
11qqnn
//zzUU
TTNN
\\55""[[
bb%%SS
??HH
LLff
##%%
  ..
WWFF
77aa
qqrr
""__
**GG44mm
//66ee
o+sS
iiKK
..^^
&&vvZF
Of~J
11uu
JJ,,
<<QQ
NN^^
FFww]]
YY==		
11qqnn
//zz
TTNN
\\55""
bb%%SS
??HH
LLff
##%%
  ..
WWFF
77aa
''OO
qqrr
""__
**GG44
//66ee
tt%%
$$WW
55&&
AADD<<UU
--??LL##
11uu
JJ,,
<<QQ
NN^^
FFww]]
YY==		
11qqnn
//zzUU
TTNN
\\55""[[
bb%%SS
??HH
LLff
##%%
  ..
WWFF
77aa
''OO
qqrr
""__
**GG44mm
//66ee
tt%%
$$WW
55&&
AADD<<
--??LL##
11uu
JJ,,
<<QQ
NN^^
ww]]
YY==		
11qqnn
//zzUU
TTNN
\\55""[[
bb%%SS
??HH
LLff
##%%
  ..
WWFF
77aa
''OO
qqrr
""__
**GG44mm
//66ee
tt%%
$$WW
55&&
AADD<<UU
--??LL##
11uu
JJ,,
<<QQ
NN^^
FFww]]
YY==		
11qq
//zzUU
TTNN
\\55""[[
bb%%SS
LLff
##%%
  ..
WWFF
77aa
''OO
qqrr
""__
**GG44mm
//66ee
tt%%
$$WW
55&&
AADD<<UU
--??LL##
11uu
JJ,,
<<QQ
NN^^
FFww]]
YY==		
11qqnn
//zzUU
TTNN
\\55""[[
bb%%SS
??HH
##%%
WWFF
77aa
''OO
""__
**GG44mm
//66ee
tt%%
$$WW
55&&
AADD<<UU
--??
LL##
11uu
JJ,,
<<QQ
NN^^
FFww]]
YY==		
11qqnn
zzUU
\\55
""[[
bb%%SS
??HH
LLff
##%%
  ..
WWFF
77aa
''OO
qqrr
**GG
44mm
//66ee
tt%%
$$WW
55&&
AADD<<UU
--??LL##
11uu
JJ,,
<<QQ
NN^^
FFww]]
YY==		
11qqnn
//zzUU
TTNN
\\55""[[
bb%%SS
??HH
LLff
##%%
  ..
WWFF
77aa
''OO
qqrr
""__
**GG44mm
//66ee
tt%%
$$WW
55&&
AADD
<<UU
--??LL##
11uu
JJ,,
<<QQ
NN^^
FFww]]
YY==		
11qqnn
//zzUU
TTNN
\\55""[[
bb%%
??HH
LLff
##%%
  ..
WWFF
77aa
''OO
qqrr
""__
**GG44mm
//66
tt%%
$$WW
55&&
AADD<<UU
--??LL##
11uu
JJ,,
<<QQ
NN^^
FFww]]
YY==		
qqnn
//zzUU
TTNN
\\55""[[
bb%%SS
??HH
LLff
##%%
  ..
77aa
''OO
qqrr
""__
**GG44mm
//66ee
tt%%
55&&
AADD<<UU
--??LL##
11uu
<<QQ
NN^^
FFww]]
YY==		
11qqnn
//zzUU
TTNN
\\55""[[
bb%%SS
??HH
LLff
##%%
  ..
WWFF
77aa
''OO
qqrr
""__
**GG44mm
//66ee
tt%%
$$WW
55&&
AADD<<UU
??LL##
11uu
JJ,,
<<QQ
NN^^
FFww]]
YY==
11qqnn
//zzUU
TTNN
55""[[
bb%%SS
??HH
LLff
##%%
  ..
WWFF
''OO
qqrr
""__
GG44mm
//66ee
tt%%
$$WW
55&&
AADD<<UU
--??LL##
NC5&
-ndUE6
q^_N>-!
{iWE3$
CA,^
UTC1
jeR?-)
{iYG5#b
=cWD5
|hUE5e
q^L:'
PwiYE4
"OD=
ZUF4")
kgVC~
=I6#^
K?-#
=8's
lfUC\
o]J9'_
[UD3".
xtaO>e[L
OL:)
zwl[K
weUCN
NE6$
fq`P?
ugWF
ziWE3!
s`P@-5
~l^L9(
qbRA0$PJQ
xgUD4
|kZH9{
xhWD5$
tqkZH7%
di[|
veTD4`
LI91
|xgU
.qraQ@
Uk]K:(
'I9'
4h]I8&
ziWE>
o\[K;+
ym^s
H`P@8
4f[K>+e
en`MZ
OFpfTB/
p_N<
!UH7
saO>
s`O?
}jXH8&
m[I8(
tdR@n
QNA0"
raO=)
ygVJ9'
1pZ_4
saPy
An`M>-
r_M:)
\XG4!
#OF2
$I8leVF6Q
PbP=@
s_L{
{lZO
nxfv
|zg}
Ltf\
HD1F
~ygYHk
wmZIT
97$f
#L@,
SS?-
9h[J7'
n\Krx
`L:^
\hWD5"
,c]Nd
yjZn
OH4$
f`LC4e
|jYF{
_n]I~
;'w6
MK?3"
_\M=*
}jZG4"ZSA
|xhVD5#
<J8&
xeUD9%
tfUCVvhWF
r`M<)
yg\J8&
Y]K;)
^WE5"
xfUE6&
=:2#
WbeG
CQB2
#`\K;*E
$`YG
{kZK:*,
ssfVF
P?-f`P
CP>.
$YN;+
2RC3"
@D3 J
]mZM;*
pzjWF3\
 WN=F
&\O<*
8qgVC
ZI7&j
cRAo
+YK|
RhXG7&
n^N=.
"PC1
8j]Pa
WTC4"
+RE5%
7i_N<,H
BgXG5A
KE3 
4K<+
O~vcQ@.
zhXG6,
o^N<+
n\HU
pbR@0 {
id`P
weRAmdR?-
=3"k
!pk\L:a
0kaP=5ogWJ<
o_N;
p`M=+
zjXGDuyh
xfVC
~n\L:)
/iaN>,
MC3#
*SD2
/I:*
fpcP=*
+zzkx*
PL=-
(xsb
<WL<
Rn\M<a
*hcQA
&ddP
{pbPK9)
KeXG:)
-^Xi
QN=0"{
|k\K^
s`O=,
wcP>-
ziYH6$
ucQA
BodQ@.
~kZr
UO>-
oaQS
g`O>-
tfTC43
ucRE
~mdT
GVD3;
oxhXJ8-
5g[J:)%
ZhWG5#}
weR@
wdQ>-
n^K<)
evgVH8%@
wfVH6$G
c_L:.
yfUC
-jcR?+
|iUD1S
o^PA/
-RF5#
mZG8
um^J8&
'bfSA/
tdRA]
UR@/
#zteT
dqaO
 tm_L
zhZJ
TM9qyhZH8%]
{jYI
|m]L<
WhTC0
^jXF
4tp\L9m
~po_PD\
xgVU
zhUC
G~tdTB1
a\I`
 vqaP@0
hqaR?g
Cxp`RBhaN
Xe[M
FfXHc
ys`L9(J
}m\J8)e
*}{ob
n^M=
xfUBs
{k]K
WH9*
~m[H6$
UK7$
mxfTC1
&da`M
ucTC1
fVE5)
qaSD|
*\O?,
&7\QA1 
XUE4!3
tcWG5#
udSB8b
4J7'
fTC3f`N;'
k|o_L=,
{o^L:)
ucRA
udR@.
^YJ8&PD7|
]m_M
=braND6%
}lZI8%
4L=,
{kZH5"w
s`NK;a
qbP?
{kYI9'
KI8+
%J;*
udR>+
vbQ?-
lZKb
PC4!
JTD4"
:D3#
[I9'
raO>+
;eVA/
|l[I7$
taOa
0}xgWF
ccR@.
weUZp
]VB1
q`P=J
(i`P
9unlaM=+
|jWE2 
wfTO=H
:TG4!
p]US
@ymX
H77ZL9'I
n]Kj
sbNw
fbO;)
^XE3
p`N<
IraUC
^YI9_m[I8-
n]I7'}
^gXE3
=peQ@2"
n_N=nr
6`R>-
|lYH<*
o_N=,
ZR@0
ME2!
P\L=8
}jXFS
9B6%
Rzn]I6(
1YL<
AE:*
RJ8%
lZI7%,
RO?-
an]L9;
JufSA1o
]dTCx
xhVF4e^
weUD9(
?8(ZQ?
<UFm
|jZTD4z
-I:)
@rh`
@UF4#
5h_M
TXGU
CI7'
2C5K
"a\L<+b
ZYK8(
|ueRT
!`VE4r
pbO=-
{gVD3
>bUB0
1ocQ@,
B_OA0)#
saO=+@
boaQ
DZH8&
vfTC1 
'up_Nf
XwhXH7$1
ve]J8&
Usj0
T^L;)
9~zsbVF2
 >.`
1[OD
G@2%
@PA/
yiVD2"
ucQ@lq^NB0
m[H8
|jYF3$
WQ=*
US?=
2I9)
6=,c
D}udUCi
veVD3S
]M=7%
\hWE7%
QK=+
 XbN>t
xjZJ
(L@.
zlbQt
zubQ?1
;l^VE1!
?3qjW
QK7'
zjXG
+h_M>+
31!q
}vdR@.<
|l[J
#aXH8&
vs`L;,
;f]Lr
r`N=*
GA3 ME0
Ck`OK
][K<,
WSB5$ LD4$
d~qaP@0
AM<u
whXG9.]W^
yjYJ
{kaQ@0
saO<)
TP@-
pl\I
o^L<,
eaN<9
TVE3!
SI7&
OG7(,
wh[J9
zucP=z
txea
IC2 (
kjYGP
dR?.
}kYF5"z
k[I7&
wfXF3"
tcO<(
X`UE~
[q`N;'
S{m[L9&]
wfS@/
yiWEW
"rkv
yfSA0
}iWC
[[N:
/tl[U
|j[J8)`hj
K:VeQ@,
}n\K
{zjWE7
ZaSAu
r`OH
~m]J8x
-YL8
6YK@-
7oiWF4"
GA1#
EC5&
E=. 
BtfUA.YL;/SE;Ic
vdTB/
A|weSAb
c_O=+
ZWF6&
/Q?1!<
{jYRv
fVF8V
zweTA/
d`RA
xgVD6e
ueVCX
WR@.
fiXI9(
'c]J8&
^XE3!
BYH5"
`YG>-
vdTC1
"D3"
zxe[J7(
G{o\K:)
o^M=
[Q@0
dm]M:*
ME3 
_t`Q?-
BYK;+
r`R@
#c_M;n
#\Q>.
=pfRA/
WP>-
[jcP>,o
xeTx
ysaP?/
:]M;)
!5$R
aP>2
l\L?.
SN>6
7eVG
^XH@/
AA6"
p_M;*`
udQ?
g?Cw$
tcUC0
dSD3!
IF3#
n_N:)Ob
{kYKa
~m\L;h
fVh|
xfTCL
o\K8
[VE7
~kZHA
/C/ 
o]K8%
KC0a
wfVM
r`N;3#
"PC2 
>RCv
EC2$
saP?.
zk]O<
}m`RG7(
ZJ9(
)efWGW
PgVK:)
yiXG6%
wgVV
[hXI:)
VN@0 
MdP@-
xjZI:*
GB3!
scQ@..
9G8(
Mo_Q?-
r_N<*i
0XI:(
8O?7&
NH<*
p`O>+
|laP=IbYMC
<SA0!
saQH8&
|kYI7%
taO;(
}k[G6$LD7
xeUD2!
taN=+W
p]K8%
xlZH{
r_N>0
\[I;+
bSF7Q
\XJ9%
vdR@0]
vdQ>qrc
zgUB?
>bS>]
wfTA
^hVH
eTG6%
{iVE
+,~ 
5ngTx
_bVGs
'XYG
LJ:wo^M;'
SRC1 
K9Wpb
._VF3#
/]R?-%
3VH6#
qn^O?{
?UC3!
xiVD3#
WQA.
|jYI:Q
JD4#
=K8(U
vdTD2 
xeSC2 
q_O=,
o]I7m
q_O=-r
o\J8&
&`]N?/ 
sbP>.
GwlZJ9+
HP@l
5I8)
4daO>,
xfXF
udTC
@J9'
yjZH7
HD6$
!K<2 
~lZLM
~zhVC2}
vfWF
q^L:x
scSB1!
nbRB
ueSB2#l
weVD2x
`aQD4:^RA
ZWG7(
?eTB0Q
qaQL
HiZI7%
xfXE3+
xeXF6$;
igXH8`
sbPA0e`O@v
ziWU
&\O>/
/bWV
po_YH8'
vhUEG
sdSB0
E]S*
_P?-G
1L?3"
~kYF4[
l_O=+
9WI9
p^K9)
{lZG
NM=+{
n]Nu
Ewl[Q
em]K;)
wgWD1
{hWD1
xfUE3"
iraP
Ewq^M<x
3cUD4#s
1I9':
OJ8(
ZWD3b
scP?/f
JE3!
n\L9&
o\J8|
m\K:
T]N;(
WcWD
iwjXE3R
zdTD1P
s|m]dRA
ON?-
\}ni
Kk\s
vdR@.
'SDo
yhVD3
}kWD1P
4rjYF4S
djZHg
VQ?-
:5g`M:
!~{l
}jYH8#
tbO<*
{iZJ9'
aN<)
q_M>/i
HD2!
ufUD4#|
LG5&
yiZJ:r
ESC6%
weUO
QK<-
tbQ@/
PM:*
vpaR
/QE2 H
niVE
2QAF
BYG{
leTTD1
G}vdP?*
CR@.
b\I7%
ID3"
yj\I8&C
e`M<*
s`N;K
VTN=+
DE5&
raQ?.+
xo^L
rbQ@/
tdUE5$
EQE7m
|l\K
>rhZI9(
VQ>-`m\N=,
+bZF
[RF7)
EP@phZG5#
(aWC3$
xn_N=,
}jZH8&
AeUC1 
yiYFi
6O>_
MxjXH6(
n[K:(
TH6$
|hWM@
9\M<*
tbP=}
 LA-
sbQh
1lcb
{hVE5#
|l\J8&
]L<~
_m[J8(h
wdR?z
vdP}zjW
r`Q?-
xeR>-
o{hVCP
nmXE1
a\I8&
ZtfP
rqbRA0$
ueUE
YVE3$
0`ZI:,
}kZH7-
1[N=)|
~n]M
weSBtlZI
FC2d
xfTC2"
sk[r
W_PA{udUC2 
gfUB
o]Mh
~m]L<
'd_N>.
saO>.i
IG7'
=QB2$
"\WI7&
{j[J8)"K>
g|jYI7)N
)C5#@
tbP>U
ofTH
5I<z
zvdUC1 
paQ>,
{kYI7&
'B4$
fXJ9&
9,Wz
|keTB2-N?z
m_O=gkW
-kdTB1 
@ujZI7#RK9'o
~n]M<qiW
\UF5+
WQA0!
xtd[K
)|wfWw
~l]L
|hWG5#
wjY[
NI8'
veTBr
EE6$
BC2!
gbOD2!h
|l[KE{
l]M<*B
,C3 
|m\L<)
~n[H9*
gdTB/$I>.
\VE5%
1SE6#R
'VQ>-
1@1&
wgUD~vgUF4%
xgVG7-
Jym\H
-ZQ?/
|{iY
ZUD3\
+A/+
sbR?
TO=,
"A3!
vbQ@0!G
o^N<*
CwkY
0ofTD
@I7&
Gsi[J5
V]J7
AhXG6#
xrjWD3"
2cYE3!
AQ@0
:}yfSA1
YH6]
lYm{n`
:H&?
b]K=,
pn\L
|i[I
q_M>,
Hm\K:'^
gcTC3l
{hWD4h
=O>t
JbN?l
yiYI9)
$H8*
4]c 
K8/F
xiXH7'
fUD3$
G|uc
veTC
Uxku
^O?0w
?|s_O
?eTD4#
vfTB0
BE4$
~k[Hn
qaPQ
AND2!
r`O=,
8pks
n^MW
\WC3 
PD3+
~|o\J8
XZIK
6ZK<(w
yjYGw
{kYH5
r_N;*
R}n^K~
0c[J:(
<qhWC1 
UQ>-
}j[L<
86`UD3%`
PbP=
'ogXF4U
9M>)
to`N>,
"TGR
>SD2
HUD2
E^K8&
@i\K:'d
=zr]L9f
ItfVW
2dVG6$t
wfXFQ
aO=-
wgVx
~xhUB/l
,VH5#
RK:*
xhVG5%U
taNj
Eoa^
	URB8`
s`M=.h
sdSE2 
~saN=]
.|udSB1
FzmYG4"
^VB0
eTC0
}j[I7'j
YRA2!
;5%^
	tr_N<+
MH8(
;E@%
Cxm]
n]N@/
Tl`O@x
ucT}
RthS
C?nfWE8$
7jgU
zhVC25
rcTF6"
xxfWF5$
}jVB
.\O?-
4J6%
CztaO
mZF2
Ol[N<-
RL@,b
TO<+
ihVC0!
vdSA1
KL=1!
wfWE4"
io_N:,!{
HYH6
/L<*
q_N<
:]M=,
LK:(
taP>U
OJ:)
teUE4Q
Fd[J8(
eaO<*
yA70*
OCIl
?SlK
kkZN>,
AiZG5$
&a[H5#
weR?-
o^K8'
KE4"
1H9*
yyhVB/
vdUC1
QK9&
{iXE3
ucR@-
5l_M
wfUD
AVG}
~n\y
EvkYG7&
7O?u
@xlYI8&~
>ypaP?~
|m[I9)
{iYF5%
xkZG5#
TZH6%6
pn]L<*
JL=,
RI4#
{jYS
8C3!
GqhXH?1 
n]K9(
}l\^
kyi_N>+
xjWF4!w
Euf]O<*
WTCd
{lYH
H6#,
HYK;(
q^L9&
saO=+
ygW_
ccTD
9oeUC3Z
2N^Q?
KB4$
LI7$
weR@.
(C1N
vgUCl
N}op
QocT
kZI7&
m^L9h_M;'<RC4#
}kYGb
!b~	
p~n]L\
WTEC1 
raN=g
saN<
}kZH
6G54
 WNB
dTH5#
YaM>+
 QC4!
K=+$
\WH8&-
KbT@=
SL;)
3QA1 
!VP?/ 
_k\L:(
JfW`
tcP@]
n\JG
4i`a
{kYHC
;bVE2!
/sn_SC2 
|kYJB
xfVD2 
tcQ?-
r`TD3%
~l_M<)
|m\J
RL9(
SiYI\
)K>.&
kl[J
{kZH8X
9VG6#
PL:*
FD1 
n^N<W
.meV
zj^L;
xweTB1 :
cRA/
wxhWE5#
ucTB3#
/`XH
rcRAb
fcTD1!
*}}k[
_o[J8%o
I{qcSD4g
Ag_M<
PTA0
m[G8'Y
B}raP@
q_QB1!q
~o\Ly
~cL"
gqdRAzra
weTC
cWHS
p_N=,X
KD3N
rxdTB0
VP?.
<dVG4
xfTA2O
Bwl[J6%
|lZH6%
Yl[H7$
)SD0
}kYF;
+|%e
}mZJ8}
saOK
e^QA/
ptcRA0!
paQ?
xeTl
?G7(
OqeSA1u
rwdTB0
~p^m
}m[J;
	A<-
*RB:
n^Kx
ibQ@
PL=x
IG8(
QL>+
zgTA
]p`P>0
=po]I
(|xhWD3*
XXG3
/bVE1g
!NB1m
[tcQ?-
yiX{
aZK;/
#UHH9
WSC2b]J9(
tbPytcO=+Q
ME2!
\N<*
?[I;+
raP<.
XE7&
;cYJ;*
[T{raQA.
rbP>-
ubP>+
vdR?>+w
tbSA0
TdQA/
XG6(
sbQB3"\UF8&
3eWC2"
J;'i
|kYJR
	RO>`
&ZN<+
p]L:s
vgXG
yvfVAy
AfUF5#
K}raP?.
RRB1!>
Q]kgz=~~
<<QQ
NN^^
FFww]]
YY==		
11qqnn
//zzUU
TTNN
\\55""[[
bb%%SS
??HH
LLff
##%%
  ..
WWFF
77aa
''OO
qqrr
""__
**GG44mm
//66ee
tt%%
$$WW
55&&
AADD<<UU
--??LL##
11uu
JJ,,
kgz= 
|:cj
&C0ix
vP=v
=@8P
bJME]
.*yGU,
^_R4
&C0ix
vP=v
=@8P
bJME]
.*yGU,
^_R4
&C0ix
vP=v
=@8P
bJME]
.*yGU,
^_R4
8dg_w.
OaoF
e 45lN
Gz%$
OaoF
Gz%$
8dg_w./
OaoF
g:L&:a.
Gz%$
8dg_w./
OaoF
Gz%$
8dg_w./
OaoF
Gz%$
8dg_w./
OaoF
Gz%$
8dg_w./
OaoF
Gz%$
8dg_w./
OaoF
S=RV
Gz%$
8dg_w./
OaoF
f@-f
	d1l
b.Ir
e`)]
dtC]
dtC]
Gb,M
Xb/Y
d&(n#
Zb.e
yb-I
d1-Y
]b)u6d/)`
]X	(
]-WY
Yd1l
dhh%
dhh!
l[hj
lIjj
``,)
]dV{\
]dV{\
]dV{\
eR",
lRb._
cb/M
e`)]
e`)]
e`)]
e`)]
&lIk
(w"l
xb._
]s}2
]-WY
]sT9
]s&	
 #.:
xxxxxxxx
hhhhhhhhhp
UUUUUUU
hhhhhhhhhp
eeeeeeeeP
VVVVVVVVP
eeeeeeeeP
eePQ
UUVVP
hhhhhh
eeeeP
hhhhhh
eeee
VVVP
33DDDC4
3333334
3333334
DDDDD@
0p`Y
0p`?
0p`?
0p`?
xxxxx
hhhhhhp
UUUUP
ZZZZU
hhxx
hhhp
3334
TTPE
EE@T
TTTT
EEEP
_;X}E&
866URRRRRR>>>>G
X4COCCCXDD;<<FF>=
}vw{
I@MMNDD;<<<JJJFG8
}vwq
@MN?AAJVV9JJJEh
SWBOX
XJFEh
rwul
\WWOQ
PI<:h
rxum
\_ZOQ
PI;9hX
rlqq
`aZM7
PA;9h
rlum
`ab\H
L?D4h
orqr
L?D4h
L?CAh
L?CAh
iU3G8
iXFFFKMC?Y
swwxttmmmmml
^M[]Y
gdg_W@@@?Y
svvxzuqqqqqm
d_`]8
gfg_B555;=
nppvwxuuuuuz}
bce\=
baZTTCF
yyzuuu{{{o
rsy|k
gba`i
jde_`\NK
,(---
X-'&
$0'$,$
+2&$$
).-))
1.11 
1(1111
-.11--''#
,&!*
P95>BD771
P6:4433;=<1
C2@NLLLG<8W
f]UJ4?R
ginkkkkk{
f`ZE:,3
|mvvvv~f
b][YO0
)&**
&98<;:
25430P>
&'-.
"***
THHA
JWEC?
ZYXMLGI
]NQR
rT~ig
[(}U%sN'aDg
\ lJOqg
oHRym
xIR}n
}.z`
bP	E%R
PUSTULATE
bixin
DREADS1
JEDLICKA
haylages1
Totaled4
RAVAGLI
$$![
CLOCKSMITH
wellerism8
VAMPIRIZE6
Babua
Pickle9
Scissorwise9
xxxxxxxx
hhhhhhhhhp
UUUUUUU
hhhhhhhhhp
eeeeeeeeP
VVVVVVVVP
eeeeeeeeP
eePQ
UUVVP
hhhhhh
eeeeP
hhhhhh
eeee
VVVP
33DDDC4
3333334
3333334
DDDDD@
0p`Y
0p`?
0p`?
0p`?
xxxxx
hhhhhhp
UUUUP
ZZZZU
hhxx
hhhp
3334
TTPE
EE@T
TTTT
EEEP
_;X}E&
866URRRRRR>>>>G
X4COCCCXDD;<<FF>=
}vw{
I@MMNDD;<<<JJJFG8
}vwq
@MN?AAJVV9JJJEh
SWBOX
XJFEh
rwul
\WWOQ
PI<:h
rxum
\_ZOQ
PI;9hX
rlqq
`aZM7
PA;9h
rlum
`ab\H
L?D4h
orqr
L?D4h
L?CAh
L?CAh
iU3G8
iXFFFKMC?Y
swwxttmmmmml
^M[]Y
gdg_W@@@?Y
svvxzuqqqqqm
d_`]8
gfg_B555;=
nppvwxuuuuuz}
bce\=
baZTTCF
yyzuuu{{{o
rsy|k
gba`i
jde_`\NK
,(---
X-'&
$0'$,$
+2&$$
).-))
1.11 
1(1111
-.11--''#
,&!*
P95>BD771
P6:4433;=<1
C2@NLLLG<8W
f]UJ4?R
ginkkkkk{
f`ZE:,3
|mvvvv~f
b][YO0
)&**
&98<;:
25430P>
&'-.
"***
THHA
JWEC?
ZYXMLGI
]NQR
rT~ig
[(}U%sN'aDg
\ lJOqg
oHRym
xIR}n
}.z`
bP	E%R
ALKYDS1
VB5!6&*
mountetna4
INEXHAUSTED
Unintimidated
Cd]JJO
Unintimidated
cleanlegged1
Form
C:\Program Files\Microsoft Visual Studio\VB98\VB6.OLB
Totaled4
bixin
CLOCKSMITH
DREADS1
VAMPIRIZE6
Pickle9
JEDLICKA
user32
CallWindowProcA
h4sS
GetMenuItemCount
GetSystemMenu
RemoveMenu
DrawMenuBar
hPtS
msvbvm60
GetMem4
shell32.dll
ExtractAssociatedIconA
DestroyIcon
hXuS
DrawIconEx
Dessous
IsValidURL
deleted0
deleted32
__vbaFPFix
__vbaFpI4
VBA6.DLL
__vbaErrorOverflow
__vbaFreeObj
__vbaObjSetAddref
__vbaVarDup
__vbaVarTstEq
__vbaFpR8
__vbaFreeVarList
__vbaVarForNext
__vbaVarForInit
__vbaVarSub
__vbaI4Var
__vbaStrMove
__vbaR8Str
__vbaVarTstGt
__vbaAryDestruct
__vbaFreeVar
__vbaFileOpen
__vbaFreeStr
__vbaStrToUnicode
__vbaSetSystemError
__vbaStrToAnsi
__vbaHresultCheckObj
__vbaNew2
__vbaVarMove
__vbaAryConstruct2
__vbaStrCopy
sURL
Intput
|SVW
hhvS
h|vS
?uAh
|:cj
F<t=
RpmPV
MSVBVM60.DLL
__vbaVarTstGt
__vbaVarSub
_CIcos
_adj_fptan
__vbaVarMove
__vbaFreeVar
__vbaFreeVarList
_adj_fdiv_m64
_adj_fprem1
__vbaSetSystemError
__vbaHresultCheckObj
_adj_fdiv_m32
__vbaAryDestruct
__vbaVarForInit
_adj_fdiv_m16i
__vbaObjSetAddref
_adj_fdivr_m16i
__vbaFPFix
__vbaFpR8
_CIsin
__vbaChkstk
EVENT_SINK_AddRef
__vbaAryConstruct2
__vbaVarTstEq
DllFunctionCall
_adj_fpatan
EVENT_SINK_Release
_CIsqrt
EVENT_SINK_QueryInterface
__vbaExceptHandler
__vbaStrToUnicode
_adj_fprem
_adj_fdivr_m64
__vbaFPException
_CIlog
__vbaErrorOverflow
__vbaFileOpen
__vbaNew2
__vbaR8Str
_adj_fdiv_m32i
_adj_fdivr_m32i
__vbaStrCopy
_adj_fdivr_m32
_adj_fdiv_r
__vbaI4Var
__vbaStrToAnsi
__vbaVarDup
__vbaFpI4
_CIatan
__vbaStrMove
_allmul
_CItan
__vbaVarForNext
_CIexp
__vbaFreeStr
__vbaFreeObj
IHDR
	pHYs
IDATx
pCEEAI
{`0?
eLYX
k2&o
'S4D
0}c"
`J)	
zPM+
U6+G
bL?]
^<?^rG
u%A8
s |W
)IWC<
k	l'`
]SQ$
!A^A
xpmb$|
8iPX
za'q
IkQ4
a;[B
bLqY
/%y6
f?n\
,_2P
OznF
c);y
skaBK
 LHz
$At)
^YyH
i6ab
5k%Ax
qkb$z
lz\B
lD+X
	(1k
UN3M
%Axh
YN3-I-$
=J9	
=MG<q
I.3c
c=I&\-`
ugO<%
cI-z6
'_J?
"L&N
|U*}3
czJE
=)~1
I-zM
{[lH+
7K8fx
Ia&#
Y={T
Hygf
{3/h@U
'yvb
.`SH
!zxwf
ratDV
]X12
I|SJ~
c6nn
KZA8:
 :aFA
fVUOl	b;
7>v+
?tQV
zosU
I|52h^I
c:x9	~nbd
oDFGz
)Iz+
bFD<
IDAT^
7k1Y
-Y8:Dv7j
{gPT'z
qLS"
4]mT
<bUC
X]y:
grI?
uLSN
<iU-
{o~Njz
Y.re
npY_
D$u6
mLSv
2"DH
3E`u
bdlP
6Z!p
!'$]
}w8n
w	S!
vZ)z
kN'+
H4psa
FJcN
* Q?
j13'
i<S^
q(M]_
k0nU
l2`n(|
jH?rP
U A7
3	B:
n	pg
,kC(
%xF+
fcI/r%A
V.:jk>
})6E
p&6z:$]>s63F
U,Sr
Ch3x
L?n\
te^s
8$<f
}.k2NL
!'	|
Nas-
0kPNf
:Z7<
&ngV
mkVV
(.wK3
Pm6>
>fz2
3_o.
h3BG
oTFG*
;;Dnh
yPQG
OfGJ
Yw'9
\fvQ4%tg
	J/JjQm
isy]
;$n)
iI-:|
L_[tw]W
(~Q\
%tia+
%{24
H.?p
UO_H
N0}k
Itz=w~
S^	`U
afNN
 z"+
[[At
~\?'
k	|/	
>S(%o
/_2	
IDAT
mHoq
tQK5n\
Sm2c
4=zx
qc"M
~.h?
xffD
EAEPTP
PD'vH
$3y"
U<whpD
eqVq
4(z;h_%
KD~4
udD_
]^X^
lEw	
@W^9T
ys	YwuT
jG-Dm
0J^!pU
^&oL
y)JSL
(	p}f
ZD[6
^He&C
]0xO
RIo 
Y$^(Kv
4/$R)
T#%^0
z%k'
ZtK^
'rH2
a?X#
2T}N
Tr?a/gB
T	l,
zjV1
nE~SH
|XDz)p
1[YG5
(?D2m
"FR9o
2K0+J
@SNSO
MW'u
T[gKd
^HOv
r,p`
t_A6
t+|9
A6c[
v1rv
fEIo
]G:An-zZ
n\]Zv!
<b+zb%
u?X?
4/v=pl
t'Tj
%v;S>
/"''^
0An\
Px&m
VN)n
0Sw&
P=[P;
y]I)"rV2
oKn\
^]v-f2
iBu?
'~{r
GUOA
Rv-f
aXao
w;:H
kP=.
A>Uv
\D80
;%0K
EyK%
`/A~N
SWWz
.V8M
L^}n
ZD8!
qT6uk
_.Wq>
lU|v
%p."{
	%^8
IDAT
[GvY7
BtCT^&
rv;z
/|EQ9
	<\TNA
u/x[Q9
irbk
DO-z
;aIo
hQn\}
han-
=	N_
>WT>
dO-ZZP>
YF~U=
4}_O\m
/[:7
J)@y
Ed~Y5(
eE%M
`}An
We/7
hsn<
3Yu/
%*zp
V-dk
DEOpR
kTe6
^]v!
*w6TN
[[D>
bLkJz
5U=S
%hzt
=M%p
=fuIc7
>^vQ
VEbQ
]riyxZ
l	L+
URxF
^^v=M@UY"
pA^Sv=-$
Zy{]
=QvA
7A/H
Fwhp
oQqv
IEND
IHDR
	pHYs
IDATx
"{M("
()))))))))))))))))))))))))))))))))))))))))))))))))))))))))))))))))))))))))))))))))))))))))))))))
[@I>
/x*b
_$xs
1O/H
cUZa
K:>H
UcI#
O]YH
AF,Q
 i| WqC
K&YE
 i|~
E@75
xIGt
kimb
-gPX
W?r:
W5i\U
 I=c
-8ge
kEl*8w:
)@f'
}<'Q
>tNB
I|)8
cUxS+
tRk|xR
*XVn
E{dm
Vnze
_mWcR
],}{:
C x^.
4n.T
gi+Q
O*OA|d
,X^m:
Jr6'
5>AG
{36_
3S[o\
U>ZtF$
a}/I
 i\f8/K[
ym}1h
'+}3
6{Kl
`9C@
0CXw
([j(
4^\M
Zz~/$-D
e)7e
4rMk5
0a;S-
VMxc
B"=5
|b)#
Z3`d
4n* 
?9[K}
PRqX#
{%?z
!H&G+
Oo|v
-aNn
>(Kr
o.@R
 ?4S3(
0Z#-w5
u.16]
j2yA
wp_c
'zV4
8Q,|
aF*J4
0zR5
a_=JAb
uZiG7
\/^3jU
=.Q>
Z\t0
^ke9*\
)x0p
F5kp
NkQi
:6M s2
7J&G
-hr@
yRpa
I|'8
^!4o
20	~S
Xoe)
C1=K-
-duz
!HF7
M/)R
fcQ%
fIDAT
|u1s
G#4<
a4T%
JIg	mb
HJ4{
H==qI
MmX:
f|Y/
eF//\PnxY
Qqf$
*ZO;zn
26?,
Ut^{I
(1=C
ppy 
?#x[
a{E_6
*X'CKk5
A K.
kgjj
a}w)[
l\ag\
Ol,e~
M5F#
`E]3P
I|ka
4:*O>
eF_${
HMy2
x`}4
%N/PR
o-9c
|pu6
	DVe
[GFV
I=V%
[MQL
b==H
l:J3-
:luz
j3>h
$^	z
^1=^
e	q_Tm
3~I05|
t-Z{
7ga$
o~XB+
X><h
8^Z|
cI|y
p>p^
>vlj
-A[Kl
X/'J
Iz4K
qPOO
;Ilkk[
zf|C05Y>
KJJJJJJJJJJJJJJJJJJJJJJJJJJJJJJJJJJJJJJJJJJJJJJJJJJJJJJJJJJJJJJJJJJJJJJJJJJJJJJJJJJJJJJJJJJJJJJJJJJJ
IEND
a( }
z	I;
f(!~	
( {	L=
;)!~
@	F8
)!~*N>
I	M>
( {0
F	N>
x!M>
q+N>
C( }F2(
tG' zL3)
l0N>
[#M>
a*L=
b8M>
( ~.5+
a%M>
[.M>
j2K<
k,M>
c%H:
xK7,
a7+#
[ 4*
aD)!
g( |c
V7-$
' {P
V-E7
xPM>
( |N
' {^!
)!~a
kRM>
kL/&
y[D7
rR.%
>0<0
0!0	
Western Cape1
Durbanville1
Thawte1
Thawte Certification1
Thawte Timestamping CA0
121221000000Z
201230235959Z0^1
Symantec Corporation100.
'Symantec Time Stamping Services CA - G20
"W*o
]jxdE
`F~T
&0$0"
http://ocsp.thawte.com0
80604
.http://crl.thawte.com/ThawteTimestampingCA.crl0
TimeStamp-2048-10
y@b%
thawte, Inc.1(0&
Certification Services Division1806
/(c) 2006 thawte, Inc. - For authorized use only1
thawte Primary Root CA0
131210000000Z
231209235959Z0L1
thawte, Inc.1&0$
thawte SHA256 Code Signing CA0
#0!0
http://t2.symcb.com0
+0)0'
!http://t1.symcb.com/ThawtePCA.crl0
SymantecPKI-1-5680
WHP0
UwM^6)
EArWu
md B
^B (
G n0
Symantec Corporation100.
'Symantec Time Stamping Services CA - G20
121018000000Z
201229235959Z0b1
Symantec Corporation1402
+Symantec Time Stamping Services Signer - G40
2oNW
a;EQ
g0e0*
http://ts-ocsp.ws.symantec.com07
+http://ts-aia.ws.symantec.com/tss-ca-g2.cer0<
50301
+http://ts-crl.ws.symantec.com/tss-ca-g2.crl0(
TimeStamp-2048-20
b07x
,&c3
\vnO^
EFAn
y3+.{
>"hcS
thawte, Inc.1&0$
thawte SHA256 Code Signing CA0
170620000000Z
190811235959Z0u1
AU1%0#
Australian Capital Territory1
Canberra1
NCH Software1
NCH Software0
4Avef>
DN*G
[bc4E
?1T+
$0"0 
http://tl.symcb.com/tl.crl0
g0e0c
0Y0&
https://www.thawte.com/cps0/
!https://www.thawte.com/repository0W
K0I0
http://tl.symcd.com0&
http://tl.symcb.com/tl.crt0
YpR9
\vQN
E^Y`
0`0L1
thawte, Inc.1&0$
thawte SHA256 Code Signing CA
H40L
1>0<
~ItQ
0r0^1
Symantec Corporation100.
'Symantec Time Stamping Services CA - G2
181023185253Z0#
6|7|	
?|M%
-M|'
N0L0
Symantec Corporation1
Symantec Trust Network100.
'Symantec Class 3 SHA256 Code Signing CA0
170908000000Z
201008235959Z0u1
AU1%0#
Australian Capital Territory1
Canberra1
NCH Software1
NCH Software0
n//I
wdUR
$0"0 
http://sv.symcb.com/sv.crl0a
Z0X0V
0L0#
https://d.symcb.com/cps0%
https://d.symcb.com/rpa0
K0I0
http://sv.symcd.com0&
http://sv.symcb.com/sv.crt0
Jd^^
PM9e
G9'*Y/
K{u 
~wG,'4
VeriSign, Inc.1
VeriSign Trust Network1:08
1(c) 2006 VeriSign, Inc. - For authorized use only1E0C
<VeriSign Class 3 Public Primary Certification Authority - G50
131210000000Z
231209235959Z0
Symantec Corporation1
Symantec Trust Network100.
'Symantec Class 3 SHA256 Code Signing CA0
XM#bj
1-=n
+ojr\`
#0!0
http://s2.symcb.com0
e0c0a
0R0&
http://www.symauth.com/cps0(
http://www.symauth.com/rpa00
)0'0%
http://s1.symcb.com/pca3-g5.crl0
SymantecPKI-1-5670
3130
5/3X
Symantec Corporation1
Symantec Trust Network100.
'Symantec Class 3 SHA256 Code Signing CA
Krh%
2D$SaY
]]50L
1>0<
YN-V
d=$JNr
*D*,
",He
sy5x
20181023185254.695Z0
t0r1
Ontario1
Ottawa1
Entrust, Inc.1(0&
Entrust Time Stamping Authority
Entrust, Inc.1(0&
See www.entrust.net/legal-terms1907
0(c) 2015 Entrust, Inc. - for authorized use only1&0$
Entrust Timestamping CA - TS10
180529182627Z
290829185627Z0r1
Ontario1
Ottawa1
Entrust, Inc.1(0&
Entrust Time Stamping Authority0
&"i7"
cg%!
:0806
0(0&
http://www.entrust.net/rpa0	
'0%0#
http://ocsp.entrust.net01
*0(0&
 http://crl.entrust.net/ts1ca.crl0
h.-U
ne-U
w{=R
&GHN
PQid
Entrust.net1@0>
7www.entrust.net/CPS_2048 incorp. by ref. (limits liab.)1%0#
(c) 1999 Entrust.net Limited1301
*Entrust.net Certification Authority (2048)0
150722190254Z
290622193254Z0
Entrust, Inc.1(0&
See www.entrust.net/legal-terms1907
0(c) 2015 Entrust, Inc. - for authorized use only1&0$
Entrust Timestamping CA - TS10
T=A^C_(F
bE'1
/_P0
Q`"k
40200
0(0&
http://www.entrust.net/rpa03
'0%0#
http://ocsp.entrust.net02
+0)0'
!http://crl.entrust.net/2048ca.crl0
Gfv`
X}a.
xKCN
Entrust, Inc.1(0&
See www.entrust.net/legal-terms1907
0(c) 2015 Entrust, Inc. - for authorized use only1&0$
Entrust Timestamping CA - TS1
 UL-
Entrust, Inc.1(0&
See www.entrust.net/legal-terms1907
0(c) 2015 Entrust, Inc. - for authorized use only1&0$
Entrust Timestamping CA - TS1
}..t
8hF}
aQ@<R
$LZ#*Br1
