!This program cannot be run in DOS mode.
Richi
.text
PEC2NO
.rsrc
.reloc
fL#l
E_I+z~
U2&H
S?,<
zf;h1
b!B2/
((E%
zx4M;
Js;S
&@	0
F79[
0RQJ~
WxR3
mnR:+f
|D.f!
 _&*
`dg7
 mtQ
I.pK0i
hSq.
5O<"
68u!
);#u	W/^4
0QY_
q zI
OWN|
{o9V
c(OI
;w~H
w5F>B
(yXU
Q4oxnF
<{*&
3JIM
(j?	
o(AV
bM,k`
B1Z#
b-^n
fQB 
[hwl
R:*t
?LgO$/Fc
oX<+ 
QtGX
=*S|
a.Z@
xs,%PW"
2:S1T:%Vp
+do?,!]T;
S#lYp
ea$w2
J?%:
6:*!
+.s9p
\&@-
dTFP
t$D$
 1 &
Tbup
h_*GQ*
q1MH<
LkhE|
~Wdel<z)
fJZz-
+bS)
N#`4
XyTF
f0rN
C!{>xG
Q)#	
0bF/C
/@*5[
Km[Z]
8-+S
cvIK0
[kN$a.
	R*,
7YYW9)
Hpj%s
^\)(
ym!+
`8W%|
=9Zi
}mGF$
1[D,
8i^0
63<"6
&Kg^
$X0UoM
'gr3
4_dS=,
|aTd@
-C%y
tN-lOeo
}e$}
V,l0
<%jt
 C,v
Ic!u
g}U}
wKnZr+
g4B>
&B?y
Lpr{!
V?'pQ
%MP	xh
>4v#
'r8mx
nM&F
xlGxVuT
'o<|x
q(3]?
"M=|
y|Bc
dz>I
 ce@
Tj5Y
d [I
Xc(Oy
P'+3n
bj9"
\ILs.dt
o2T1
:Jqt^
(e[g
s^^Epm
LM05
onm}
VC7]
($y}X
U{A@
|t.@
0BER
5[0+
;q*m
+)X3o!
5lGPQ
4+z|
#QC6
E'ZD
w}4Q
e;[b?
lp7\
 jbQC?
9n>%x
	L0z
[&x_
f;$Ro
?e@X4
N-k 
spUS;$
:{QJ--
2M>:
($~U
<@t"'
!/`1
g*B@;
*R$=
/l;0
ZDb;
u13]
f%K	
TV`C<;l
:{0vWPf
RqH}
29hB
Cpm	$
Zh6|
jMB5 h
9W8j9
_`G(\
C5s,
ud^w
B'-8
pJu)o
EU!`YK
28/j
(3kL
Kh4{
x&YUP
i&9e
|UX)T
vL&|
dccJ
U'uG
bB_3S
~+&o
IIg%b
=DCz
jQv:jg
7bB]J
D/M\z
P)3_dQC
s+`?
(IM-x
g]86wH
`$qk
uT'b
e&3]
mA= 
35)*
RSWTs
1R5`
M5|[
3_95
Hp^6=*d
$<rn
V]RI
H :/*
*'Gi
K@|Y
@RDf2
:Xt1L
1KLP}Mk
f?E(0X
.-'	\
1~Nv
q2T$
1neX
CYgv
1eIm
2AGT
G&}d
YOm+D5
m+0^S
6~vd;
3+0NJ
 9W`
L]?&]T
lSk!Y
IQcW
y(D-'
_`C253
o3)s]
U\'m
P\/	k
3`D!
!/~?q"
~doq
x0f0o
\[oS
Q\_ $
8]lO
T'L(
N7uh
'-	q
(|3X
mu-D9V<
Q$qY
Km"2
5_Nc
5[e8u
chrO
y[bb
2LySW[
j[Ov
Q"p?]
wawE|e$
 ~Y$H
/ZFZK
I'Zmje0
d=q"X
f,vgp
b3>Y
,64{
8LB1
4\[u$
%Q/1v6
. &W
S5LQ
teA8
PLXG:
	Hg@
:)? r 
AeP	4
ol8T
~0_	
OFD-]
z=7P
CjK?
/=c[
b:YG}
nmxU\wc
J",J54d
jG^)`
<<RF
X~\AH
7-=:
`nK@
*}Pb
 wlk*
mZ:dR
OAO4
Z>.9
"bVG
~V?0
1 QX
<\9%
PuP~
oyqb
IOqM
yp!0
N&UM~
"t>u*
=$WP
JqJk
H+o]
pn; 
;v?m
{_x;o
OxG>I
\sQZ
/ic(^
GE"Q
(_vR8
PWp 
%p-w*fb
ZZ=`<
_cuq'G
HJC-B
owox3}q3
9dh&;a
]lAt
2t|M
REXQ
WEu1
.m=lEE
$XMW
{*<+
vC7#
}F&X
!$<%&
;XzS
vLf/v
e5il
"H8[
aD4 
<AD!v
i?]j
?;C2
q3|-6
SHd#!
:@kT
@.0p
|"L,p>
ps 3
Cx_.s
|hFG*
aQR/
0AWJt
~Q#A
5aX	
)v5U+
\uIl
)gc\
_Xb34
vs#w
lN"-6
@?UE
JL*b
LnV>
p5&.j
-+`4
rDBv
3wg'
h;}}F2
~{f**P
!Wc<R` 
A3=x
)_jp
~-%+v
Bskt
03@?
[/Xbx
e&ec	
^LIl|S
|fcOV
(L5@!
vM[;
>,+\
$MEW~x
M%I)m	
*zV'
SK'I
?XS)z*u
"I!V
VLt9
6e<E
zP&-
[f~@[jM
3Z77
|PXG
*?zx
e2oI
^N}n=k
Bl5Y
-_sk
z#;0
C|}Sfy[
CM2R
2dI6/
{wwBi
M+L8C
haSiT
*D'T
ofFIl
6B2J
RNyi
`RvX
m#0m
ws18*
\s2m
;9UD
Q2!8
	(8Y
}SB:
yhPi	K
lsey
tQRf
k$rG
}^n#>
b3dV7
teLW
>JY -_
nk^M,\
:fK^
whPFd
tt%O"
U");<
r[~`
:k[@
~KBJC
"uza
"^m)'
2%]~
n2S"
S/4"tV
8Ify4
P_/%p
'm)]Qa
Hty=
l'Hw
)!`	
l/9PG
K2vB
CzsO
5m++
^"X 
1"~Q
$B3R
_#Ap
y}q>
qUJ{
6Y1*
5+WT	
4xW'
Tydt^
%eo!,l
V#mQ
Yw	4
ZI<n\<
D&'(
w%Pi84^Dw
Rw:M
x"|9
k\D`
KbtZ
dgL	v(
Mnv	
&VJW
py)wN
{;2f
pz`r
Y~tXq
%4w\\E
Hbn:@
~LZd~
&$+#
+I".J
ZDTl
OAMc%
S!_2
nqI8Y!
fv| 
p1<i
erwn/
`I~N
k) ;
D527
+p7!
O22d
VnpbmmR
'.\h
*1-%
v%JN
S\g-+
\yKn
{'.iUQ
U6 :
fT<"[
M$."
lj"I[
bXO6ES
j*-&
T:Xi
Y(b(6
	sD\C&
:Zp!
l_"g
XE=N(
>1WQ
-<Ee4
%gW"
|w9*
*Ack
F:|B*
@&52!g
f+bP(
Uf1U
3b)y
nd>If
5]/B
BhnT,
g0NL
}lT.
Pi)^;
'prIQ
V@Dd
u<eS
x,'0/
S}Ohi
'u"c
eIpy
vibN
FZt{
4CT\k
6Mac
7w5u
'qq@C
7BBK
;m0G
vX5$
\fPY
%\BT
dH`\
O<13
h9z[
?BEL
S9P]c
1M9q(
uiL;V
w2Ga
iZrQ(O
Gw"z
R:^b
TjY.ub
C$8]6
%E~l1
jBnh+b)T
v;~'
6TCS
GJV$
QV}yudQT
;nKBUS
zRxl
p~Sxg+o
[--f
`hP>
p|	Q
N93t
]MPSe
\\YJa
 *Db
_*O	+H
k$=~
#=ch
xp>"
E&=f
CW3m
s&kV|
!ssG
j)UE
WuN>
OIn`
fhft
'`Mp\kb
X_H\
,f!auW
4^2L
<pak
H8{]
f(>J
/NGJ^
 1da%
&#,~
Zls&
lOXR
Rm95
A!J#
K7u/
RFN\n
{6N]
}-"q
PECompact2
zG9)
1W$]
0!G6]9
 y+E
0_@S@U
r&F3Z
H08c
0F#md
]kg+
5'gh:
	B!wk
[D@OQZ
!w0p
p}*uU'
cz_*
3q+|
M^~S
/DQ}
IGwB
{_a<
Fw2C
dD[}
|CTG
\L$zJr
u4'b9
{^Q8K
+\(D
sr5/
~<1(
>;a&
6B_#
g!A;
~`	"
-78c
k_g`
DI[K
4a;L
enH.
6vkLe@
6(}M*e'
Xy{"
	f\L
5Gwx
Y1jBm
nfyM_
^lwv
e:Y\
?Wh"
Z~6N
R"9"W
|$3L
w0:VR
?st+
~i&@
>Pvx
[qO8qx
T`ZQ
zM{z
pL]Kz
WP+	
z'0	
ztpVe'
KoBpy>/
1$YG
|IF.
EVZf
VfoB
~u64
2ajP+
k[4[
J$^}|
\fyn5*
]Y8=
jrxF
w7%,`
MTY@
bQ:|V
=r6!p
p"d\Y
9"P40
Uv`{
vSJ%
Qb#QU
f&P2
R]{d:6.
xPsJ=
wUe}
aQ|a"E}
!>>>!
	k#q
<`V&
lbGx
WIFBc>Ap
(ykq
y"73;#F
pf1Q
3\azu
Jph8
tJ[b
yk\O
Hy%o
I`Ow
7v-<
EyE:
3ef~V{ 
iLY^N?U8
&Chm;
|x]A
L&PS,
Iqx	
@:Ew
bh#D
*e,?
YcNs.
f8/h
d<\Vv`P
N;2l
XKv6
-hhK5v
fwyK
2&Ga/
QuQ5
Qr1D5q
IJEM
g	5w9
]5tH
2Z~l
M7!v
xI?ka
;~m'
<|wA
R'}R
M:7ry
P0qA
{(|W
(E\6
<`qY
	7,8
q@Ve;
mo Uz
~Ck}
>f!W$
g3w#x
Gwo#
~"T}~(3
n#^o
FBBo
6!N9
0c\|[F
xQ}B
J BoQ
'xqU0
MAJs
_FI/n
`"^.
%0m\
K&m5
D>DHc
?6|[
!&:G
j-D.
3PWp
eYcj
%sOO
<W,Pv
'~<q
?~yt
yG0`
@urX
1g&&G
U0lH\
1vDx8
nWsA
Nr@M
=>u=!
tGJ<
TO+>
7Lts
xdy#p8Z
&j>N
Jx47
)s{3}
$!x,-
3xOs9$
1M)&
bATV
S7fh t
uy7L7
9#>Hb
wbIr#"
&HZ?V1e
IR3Q
tjUi
?(b8
D07m
Q)Jy
B55qW
0Ux.
H>"~
)'U{
a/)1
sC{3K
!zG?
5)#U
S1	Ec
-J	#
bG~L
|e%r\
grs9
i,-|<
jNs&
Qh2o
a_;P
]7}n
	Eb$gzz
sLMC
:t"2
S9G<
fELQg9
XcDl
hYM_
}1+Q
=eFVI
W()y
B\`q
C'G4]
wnJAd
1w0(-~
 $9#6
R4@|D!llH
+325
{` }
M;|/#
-9{.
77JA[
x!W"OEr
<:Oc
YzWu0
|9$a7
cU=I'
kSq!.
p"E*
3$45L
LJRr
H)sbg
'O|U
odXp
7z'a!?
 IG$
fY>3&
;Z	'
$zB*Le
qkSZl
#7h'
Nz1A
qo2Yv)
:!8E
jf-N
/1AE,
lr9XI
MMEz
WQnq#
$mRa
t-}u
6$=&E
9_w(
8 /(
3DeBx
)(zc
B#c3
F{m1
@]Kh
@0Lr
Qgm*
wkuh+
r~1<
4c3	
|Se9
;>X.
\TX3
m7 Pi
bzRro>F
CWsW
m5bj_
N'F~
om90
~<YmX
[>LK
XQ{y
<NCY
WcW9
1iL`N^
}eP@Y
\+fh
yw3u}
I5gv
E':y g
;b*y
rS!?
I!@kDZY
ee4_
 7	Y
\mCj]A
KMI"IY|
d"^3
]\CM&
s_3R.
5#XR
b5JG
3asX
-ca8.
\}aw
dI})
I|\|
7Wo9
q%zq
8&>e
~_'n50
h2wg
OQ #
 o~d
;93s
;4dI
WEn|
kk&v
-lN1
zit(
dJD!
[q`2
mow9
MQcD
	RN?
xGFPV
=EV9u
`$'7
uS^RS
{D`{
51Hi
KfQD
-^a4
-_OY
PONt
82y>
0xq0
rpv#
rr !
gg`)
}"4v
ZwYf,
FqMx
{gv^
U^"1
V#2$
SF/$
5_fV
 U$)
|TZh
Wa-#
O~7se
,q5*v
F!$0
Mj(L
l?s,W
yH	-]
T8 )b
[HJv
SHqx
&kl,
s]4C
MHR~
c^Qa
L)nD
^>Db
W7~}
9`sA
n\lA
gDSr
a@[{
#R`t
;o9' W|
srm	f
k`fz
^{hay-"
t|VJ 
dco&
V<vH
	S#Mxr
y3R8
&ZP*
+ 1}k
Taf	
WxIA.
'e#@
QGZ9
ikg*
32o}g8
$cq@L
Rz3>
s}"y
Uecs
MS60/
\Qb\R
Qit<?
scsL<
.\`7j
m3`H-
pZ>)
5gbd
R\/t~uw
~c q*ue9
+~)?
>[5w
t:%	g
Fnc8S
!H1yxS]
WMKU
,]7c-
Y4!/
RQa1
V<"3
C9-y
rkkj
Q1]Bj
I5o%
x"N_rP$
 rr1!
*Y|Z
R`[A
NPB\9
>BX?
VW6x<
)obk:M
u8kZ3
W|[WE:M
#9RG
BC9X
UtFF
!,S&c
E~/C#^
Ky>AG4
"dU~
@:rb
ncxy
].MN
9jDk<
LA~bP
f@l7
Xom3
@VB@
z=wQ
{XR$
`PYv
6 ))n
>W b
5:Bh0
b3)Wp
Csx	~
3s$A
#k*f(*
{-@e
C8^9y
E>O5
MOr5
7qH#
zLxS
ofIS
`!!&
 rbu
s:PN
4h2<
2iz5
V?r`
e"r	s
k/LCsgU
{{\O"o
w'7L
+UH_c
h_^EL
4/5{
a"H_
.?+_q
+y2^2E)~
[it	!
V>=%s
mS,t
\xM-
<:gp
:c18
;E.g
<&#U
2Fjq
*? q0
@g	!
J2gg`#
~<I>
wY%b
,Mm^
&TJW
e	6)
|WH<
\IW;'
bbCA]:
-<+'
 n"18
@(1g
:gFgDE4
[#"m
Ng7ne
OHJ+
	ICsQuf
A-dE
p:bPa
>_;hO;
<&:+
Oq.=b
?^tL
E2B)c
CrE;
DEjoj
[k:VF
B5(R
:{?5
G5W[3
eLqX%y
"p-L
~\cyo"
:"p9
T;jMs
ECs2
Zyo.
FARc
e%]9a
n'56
^V\ 9--}
iHl'
;GIv:
	_=+
O ["
	@ce
E4D#kr2
y<Qr
ci1t
<@<q
Lz)i
 bIj
M~9H
5^\g
Rp}+
#-fh
Wj5:
^+>~
T'QR
DGOD
NXvN
4lmL8
D8$#$
vn=A
UoDq
cq{Hq
)xs&
w}Bfw
6"j~
,6>i
v2!c
9ue}S	/
f-Y+
>tPw
3NTb7h
G*I	
SGE1
M%I+
jq=r
9P1T
8{/%
$*&;'=Z
$;)w?
:wIK
LGTz8
cA_7&
i]%sAy;"
3*o)
X2S@*
RO-P8Z
tunE
|kW(1"
+\MU
TH^g
s89N
_4O5}p
*C|<
hZ[N
O>Zjl
	U=M
	MNn
W,&A
%#E<
j$q9
jlHH xr
P{9!
Rs6\
<2<\
>#v._
1:x~
l$I2s
IJ.N
t_vtL
3?-~
&E;]
m(.SC9
qhb)-
pUW}`
6@DSt
Tnnf
]{[W
UQyEU
>NgM
 6|)mC
hf"Y
*Lg2
aJ65
A:jz
KXqO
W5b&
g+Xa
pPij-
X*)%7
il_TR
LeAX
lGG_
^OlJ
@asn
{`Z/
yOtjGy7u
%@Og
VR(	"9
{se!L
aGy>
bV*Y	
ph/y
<21O
qKq^
Am[,[W
[!D]h
J~^ 
!ig-^
9FCJ7
hA:qz
:Y6Zl
V&+1]
[O[+F-
[z0G}
aMyB
j67u
tRnP
="DK
RL3	G3^
<xcw
/on;
"qtw
@Lb%l"
Vu;j
a"'%
;\!2
gSLL
zt<]
dhnw
?:X~
U!8]]#
Q5 v,
bw-$
T@J:
Y	w`
f[Fw
uR;3=
1sNqbv;
+&`lA
v\[i
8buoz
#.gm
c;a	
GjJLM
Mm{6
j{Zll
&U~)
F%EU
6kXjA
	hOT
.2]&5G
O!R-
8TFO
*#LK
&ix~
FKQ<
x^P^f0v
@yq%
l:x:
)Z.h
Hm;\v
f90;
T=h}]\
%r/uG
T>YX
=#~m
&%d$
)U}0{
LW:u
&~.Z
@FYx
?x3'
I;F6}
Z}+B
T%]6_1
6ku!
MWF W
n;WB;
1B<;
K	P8
J{-)
r_[ox3-d
&0qi
b!_g
+.)I
s;\B}o4
$lBX
fTP\Y
+dZE
N|RK
4wL&l
I!.$TUm
lVdw
]U$h
WSZv
4g:(
O"eE
dA;!
t/uArC
Hw|&
MwpV
EiE<
$g$&a,_
TK P
|I1f
la.J
W0d1=
)fiT
<B=O
T1ds+C
<H]Q
Mt;yx
+k$=7
}wAO>
gTB/
HP9;F
b<1	&
\R$F$
Y1qya
"YRf
1H#4H
7xfts
o92j
[R(k
UMsO
a@TC
A|_`_
2Nu(*
y&Yt
FU^,{:
\jGv
|)nS
{-Mr`
)pok|
"/Ur
 (X2&l
g77LC
`Yg"
\{*{
AkXN
xrVJ
1m-lV
X,GW
xmg\
]ezPJp
ODq<U
~kas.
iP%x
[s+xv
omZ:
)^H~J;)
Vp@U
gZ>C6.
iPcUra
\f!p
El(&
DkNg
H_GZz
+>b	
#0Nq
" Nb
QWqJ1
OYe=
&g 8
Wq\D
\	3@pXb
fzQl
miWd
Ta	nm6
W{g7
0l@b
1*sN
p\U2
EYM`.
/n#F
#OSz~'H
aD$b
4W|6
f~r1
woZR]
o{mu
^Mo1b
*TSe
e4\K
kF^l
G1PN
+Y)to
1n}ZY
%D#<c
G1Z-
yC,B
i:xh
)F-H
cyaQ0
zu07	
"a;}
.w}<
@,N 
ug?d
SlC5
D>ms
5DHXW
0(fG
,.|p
Q,8U
y>\aE
X53y
@ NF)
xb	%
Z%jW
Mg\>
XIM4
Sw*V
>N4=
>/EN
@4b#t
V	tl
IMpp{
Zu-k,
u6'!
=j`2~
rdkn
/o	:
_c9g
RiUEW
-F1))
?SUrY
`RUQc
+2Hh
FofT]
Gy}i
{?fY U
o	We
?A*T-a
eB"[
+lP|
1M*F
t d2
mGVR
{`-9
0F*d
T~A1
,mf6l
S2^A
*DT>Br1
R[gu
dzt1
:ppz?
VrsBin
4)Gc
%k~S
/b'E-
V>0Yg
>a-Ru
D2m_
/!A%
59>*q
apoR{
/vn5p
$,[*G
U^b)
HAW)-'	
kLz<F
	 X_
bZ%0
mRi+
=jn"R
:rD{
4GO~n
8^N!
p!0c
K3`a
`d+g	w
 Om-{
h	 A
{JsQp
p3$z[
zT=!\
&aX|
`"5Y5
-pG2
WI9\
PAdF
"#F-
/FeD
In9J
"t$a
J:t{g
$=`Uo
(l~}
npJo
qEi2h
4<][
s1u4)
IE	^
,j#/
1gu$
zl2h
+3.9G#
%b8e
=}I'
y7WD
>l+7B
cIPV
+V*?
]$&76
RTX"
}49>
:4m3
ja~^
JSj$
vxL 
}_is5
9#uX
QT6NV
1J:\
&b}%np
ZfsCW
fs7O]z
RV<a
Q@"/
j"XJ
6Ta1
<}%{
myK[,
qsx)?
W:s^WS
tC9\
^3M*h
TxFx
a08!
RxWb
>P t
*>m5x
=.Ij
J	/}
rh:I
1S&}
dBCP
`9N5
iWhe
\Ju,
gN$)O
+m@OUI6s
Dnp*
?UXk
Qv_:
{"$6
rc7q
mROr<
V!cbuL
'>J'xb
>2=&Nz
QG[[D4NS?
viqC~
'Q!H:
O-'i
SWHw
Cal"
L`=)!Z
EH5r
zv[[
cT/nig
Ey5Rqt
PH$YIb
@{d*
eLy,
;q#U
LbM,
tv1xU
j\*Z#O
i/miJBawF
WbGO
IYw%N
{Te1
by]O|
m.U{a
rhG	
C~d%
2R3y!Q
tK\C
	.X7
r/)\
Eb'%
 ;	Q
XGFr
yza$
d=@S
BPxJ;X
1(yP
?sH=w
f-Hw
)]s>
	Vyq
$!Iop
Jsa6
w 0y
N1?)@
O wW
r;]s
\/RG
BF2O
#hA>
B>tiX
zHJJ
k,q(
k6&|
-eui
<u{z
;XLj 
ZL0TW:0(
F"{T
-kyI
G"~s
AWqW
~62'
q9R+
+B;H
.+@C
-m%G
E![oN
p+/[
:egaojJ
V#$r
#AXr
.A_%T
v33G
7"Gf-jgsK
cQ|^
\A+NY
u5Q9
h$O,
 	ZJ
N	.(r
ARK`
V}gO
#.P~/l
w$E 
+g:K;
vQ/6
%)tV=
5ZqR
n]-@*
U;aG
Z^zs)#!Z
oLn/
VzviM
hPC}o
R_"!
9J2J
44# 
]*/)#
NoQ|
$X3O
%bJhli
~$/G
(o'B
3JIjA
	fCLfN2
meet
{hGu
A9l;
.Ak	{m
L>O 
GUC"
B Qy
k/)0
Gjua
k H:
S]N I
=QjA
?~H3+0
!oP'
&YPD
AAm+
PTFKU?
2nG[
sC VN
CZ v0
:M$#
Z~Q*,
'5auI3>
rm"1`
n!do
++>$
 /'a
t@-P
]D-KW
4y	2 M 
nDxBii
6 JaS
TzQr
#.iw
Nt*f 
<	cp
{fOJ
Ojj[
!<aF_
SVF-n
\jxS
`L*)
~Kp7
WVUorz
bII<
|Eb"
~Eq^
DA@1
pR^u9+
AltZ
B7Vh[r
QP4H,%
'j@[
w2mQB
X}b2
	] G
:6mL
HUN\
:)I^
E,[J
&^}s
As{H7+
FQQy.[
&L4N3
V=q%_
ohk,
nXYz8
/qubp
5nG;
W'nO
MJ@m
2F-p
ktAf
Nl`j}
e 9cw
["&'
iJ*K
nd8y
H_^>
yz}Rrk
?\SQ
G #zx
iUYO
Y'db
k={[
JSryO
HOx?
wg3j_
PRa>w?
c0uLg
Z4,vL
6P"M
dA6I
LC7x
I`x0w
`"n 
yD8MP
TQsx
`?rIC
7C:3
6 ~}
ZTSn
.g,&
9&va
g%\/d)
=u*N~
4LgB
I$+-
XcS[RH
eF	Mf
+_I,Gst
Curu
Kl_d
(}_1p
)Xe|
!+iGn
wm.v
#l6C
&LQ@#
7d[z
^F.5
F^d% q+
uWg,
N'Q$
7oY`WNl
&pl$n
]L%{
Ac"U
HW.P
~L_5
ydwc>
%uj0Pv
+0yf]v3`
M-pJoc
on&4
Vb	@q2
{r/:
hWzJ
D'Ve9
vSw 
\/XFg
kt4{9
ZLl)
Xp]^
V]F_
&.'W
hfw=
@<8Q
(]E@
toF}
#R\Q
j2ku\
3#KD
,I?4mF}
8mS\o
C4DZ
	OY:(
4YV_
dSka
irXj
77	n
Sg8\
~EE5N
mi0G
F% i
3:*D
OyFI
'T_B
m.TWK/q
JR)X
]k.4
eS}+
3x7m
$JpF6
1W;p
uDWOe
qqNl
bjZz
zD/-
?#*wG
[CS1{
r%$^
:;Uq
	G_m
hIooP	
.N#R#-
-Q7m
-b.xU
CU"dX
cl_MZ
*.$B
7/E/H
'NN	
S"y)
/gk{
? 4b
|DoP
ckHO
E1MA
}_@j
93x	
Y=n.
k~ @
4^ g
t!o.&
`C2mi
I@%alj
{t"@
=F;g
IYh-F
KI==
#Hk4@
X%c]
k`MP
sz=W
j0]<
O\7[/v
Ktmm
C8^R
mGLI
,pzN
g~3U__
qC?zN#
`4sl'
kh'ZH
lV$d
,[)U`
>UHv
yqS}GYj
o'Qg
W4~b
aOg#wd
C"m*-,
~Fsc
n4j.t
GZFh
!W8.S
N>{zM
Ny$E
`T(B:[
86y]
Da E
~/+}
&/MB=
jRbH8
WSXw
EQg\Y
^`v9
M?*l
:"Mr
"A*#
_^Zj
lCq|)kP
8ACF
`^2x
6+z+
)>\"R
O%	e
&99IF
rwHZu
_~Ct
a5yT
{"p`
?ma*m
w<x&
,(,o^
(	t4
Ew~Qk
8Q<<
>W^,
y+1x-
 S77g3b
)0e:
2$[}
vdY;
$b[$
mYL~
5Z'Gc[%
1wZ7
D$Hm
Ls&7:W
Rn~a
X	^b
XETYs
+r8$
QVPw\
HW@WM7!
d;6 
p)cc
\^{AL
3(A@
#Z'M
^Hn"
onL3
gMX$
y%.g
+#$P),
+41VR8
Q&)L
HUDD
ahq?gG
=p0X~
ANIq~-
oq{|5
;l"o
N=6:
.!Q7
^0Xb3[Yg
;''V}
!d|zt
?lh<
eHI^
?}1g
'.eI
h>D_<
/O-o2
x8&W{
Va4x
DDS"
0+8%`
}KOJ
,`0g
{h{#
 S0m@
K %`
56mI?
qJ";
l1-v
I>viMp
>kJaY
'rj&
]+0B
Z(]=(
T>L:t
isn,l
	~Tw]c
T.U<
i}/}WMi
H@H&e
g&V>
}S<V
{=HS
c<6w
M'mutJ|
xT7k
xs}V
xH2	
_3"<
|_yyB
.6nH
^3ni
2WCB
:ePC
<;G:
jTK;)T
fLmd
_9qPo0E
P4d!
*"zP
c@	cxo
>WNl^
jwIF<
bjM!
Hl=L=
c,C*
ZB"A
cWF<
?"=aH
Yrn3S
DN}F
EY*#
g.=kLh|O
,z5R
<<{*
%50h9jOOG
JPtp
`@(b
Vox#k
jA|4
9@$ 
Gm&: Av
QXGO
X&}* 8
D<;s
c`x(^
4i} Vcw
72jx
!F<9
3}z5i
5{]"
jB4lkc
fNH}F
~Wx;q<W
U ?$
>mP:
HU1]WY
S1/NJ
n)]O
<q1s?
r6F=R
1,l^
r]C/#
"|a|Q
"R6m
Qn\1
VE63[
xg8w
"w,(m
"PPL
,Usp
hs>.
7x#^
TV+zj
","P
c{S]y2
.g,Co
VyrEN
$2' =s
w^iq81}
ILpJ	
rTo"
phHn
1?+~E
^5@z
$q\,D
>J*k
bJqSIi*Bd
mr04
ycgsKbQ=
J#Ug
W'P:[
^;:3\
EU'g:
>Z2T
1+d	>
;agg`(
6#qg
h{e#W%
;7"xd
"<}^
R>8p
^+1L
0r+Ce
G-' 
z6y,%2
W+CD
|<$DP4dv
Y+Ja)G
QzZ_
KJ74
T$Ga
85<z
<;iX1
iGz-<
j=#H%
M@W{
6^SY
8/*&
cVkG
h  O
gmbd8
<|k,
dhW3
XJ4s
_}`k
rt3Wr
W1-)
N[.+
\g1F
	~xX
1(Aly
03Ah
%0k9
h2G}S
D(U8
-9CR
|9tA
F@Ey^>
3%TO
iw)R
=/LB
SzVE&
4	g1
,H>cBx
.^!ia/W!
:}Qe
5fKc	
f4YG
bb2X`
x"pc
(zj*
G(-+
}b}f
hOIR&Dr
&p_M
?=XP
7: a
^Cz.
%_0!
"qPsO
N7g=
S6W[l
Eh`SH
l_~U
xt~v#
]ZUk
&!dZ
M*A~e!
dZ6+h	P
K,0*g*
_wR_H
 	f,C
(tFV
bU_:
wMZN
cx,k
h*Xj~
Ft9P
bNH;
c?x%
*)j!n
{Bg5
G+A1
"_g5
X)Rd
VbQO
^(-y
-DezB@
9IQyn
.&iC
1IOz|
IO~Z
Fd':=Y
01v%6
@:Cg
F%.*`
4nnJ
zK;t
(LboA9
E!cnV
Jsmu:
#;9T
4V%u	
7+x	9
3_"o
eh^7
)|F!
gm2!!C
Y0g2
Z*>?
ewZE
Z/	A
	M{M
9rp8
]gw=
~V'N4L
pG9wb
	>x]M^$
a]CV
af;~
5Egm1G'K%6a
t"r{:
h=[p
CC!G<a
`	(I
^)3i
lXOu~'?
Z'T9
FW	*@
hVX4
pCsh
dA=S/
!|^..
9H	-
;[F-
1CME
toaq
%3r!
l[y1j
_o%^
["-w
2w7ds
t7~O
y		oO
|J(h'
O*dH
!.;|
,<zQp
X=%7d}
4Z+M2
Gz^%D
XKZ0
xKU<
Ulu{
|KiAuFH
BDMD@i'Y
hfkL
M$e%
N#plJ
iy}?Pb
a3B~u3
E cUH
BUJv
um5&
HE&P
L2G	
%&d%
20hv
P/7^
9MxAr4
p;&.
?~f\
:t-G
)3,y
RqeE
]qM 
\|8Y]
t(h3J
_]k0
I!ps
4H$/^
_N]G
,<w(wao
zZj_
$4=`:
b%qv
xMr%w
SToD
:#zl,F
)RAY
=:Ky
%>3m$
8,pi
dG0&
]k$3
TUcg
A$;)e
{((\
?}zl
z,lA
nU$]}
1?K%
ByF0
4E,x
:#|p
iIV{
jv#&
_5hSR
VTR$
'Vgh
mxJC
T{fAT
32@P
Wv,v$3
GVd'
MZ^@
w3!QP1
}quy6
pajX
W !>
\;/&]&xo
K+#C<
h9$p
=JFK
Gl+F
!j88
c4I'
=ph6
Rb?5
@CjA
.YbV
UJ:t
lL(!
YM)8
<R^S~
s1sJ
G2K6
$KW+
|B]o$
LB |
{2Xp
>.;}
x%IW|
 %f?
0eb*4
'P'`
N4y2
K/6hi
.:HP
)dGZ
)G|c
T6_y
G<Ac
WtC^
8#qy
\zO&()<
{kN(
2g^K
<Pmv
+xs~
]3qm
4mwM
EK;@
 MHf
J8V95
P;kp,
/d%;
nlNL
Ad	*
C;Ba
Os?{
"y]G
YNWfr
"CYRqo
mfm,
:_XP[*
j)@i
>slQ~
?u5}
ZX+p
B\]?
pe(l
!w#G
 nca
HS:%@=
bB4o
5H8_u9
.,:Q
L0Vb
I!/k
*>ep
@~)5
n|Rv
~8Uh8
Z-8Vf
k	=5e
BQcr;
sJr(
ZhxD
M/8?
LHKv
p._d
voN^@
j\:PV
i	bP
I?@5
cl	:Up
$M@M
"(e8
x,\T-
zV^+/RJ2]
22^V
O9yf
hPL=
11[}=
:*|E
!pl]-
It\O
aa|O
H=z,@+
`7g	F
{*OxA
 ]>{
5-`D
o,Tc
r&[&
|qSI
k!!Vq
 <Dd
I*Xf*
W[5IRI
w	PxEk
!z-.
x76Y
n	|OA
qeS1J,O]
j67L
~Ed%N
nsN(
5OD^<
${>B
%-m\
8yHJ]
EDD@h
c6h=
TbFz/
'E2d
:OckZ
fi6A
Z$kLn8F
tgIh
Gh.h
ss8_
 75'
AC15
l9#]
!+cB
B>:?~
Tgp-g
@7	p
KOHI
6pt'
AS*b
J(v<
2nL'
Lk3q
]PPc
)m=rDgkrX
/'2w
,x=IaWN
i|BN
Y4&@
R8Gf
x+B8
sq--
czV]
)%DOd
|SDx
3vi0Uy
:w+L
.7;hK
LOPp
:B%<
~-wB
 o(D
31!mI
/Wqe
xo^X/T
Y.{9l
?^4(
syVF
=cW,
)&BA
+Tg-P6
QR%)
'MyX
c|YfX
b\$<
02\-r
K6(2
Df;!
B4bo
0A\J
 .\wh
Zurq
.+)C
RN+4
jZT7
2<oI
*ObI
&`,G
F*,x
n2U&(
>M&|u(
24=P
E}WOz6`
 PB_
~}Ww
 bxux
t*dA
7p9[v
]^~h
G;u+cu
T5MGx
%NNNQ
ewx#h
aFKA
5id<
(@2{
]+g&
)G$%O
"]3a
O!QHw
gv:P
HBW:
@q4y
?7BiI/EV
v>xA
	%eh
]4A4e@Y
1|;mkEb
B	kw
	ZF[
ek+@
scs	
{!0D
oAzYGL[
;Z9]
!&.1U
#N~ 
rjntH
G~E3Y
s![{
rAgh
]nB\C
)>	r
HW#D
a Wt
kyDmq
/[dr7:
44QH\
t`@c
tYOS
7ED	*v
LHq|^A
V^ml	5k
"7lZE;
`$h%\?|
!*`4|
`XlWeW
6}D>W
ddQ+
euwD#/[
I#l-#
mrUHTX
4z@Z
vCcs
(5R4"
y~ C
stJ_
i_n/
zk?QI)|>o
\PEBx
Rs3z
VoFq
'bkx2
	*`Um
_;+X
w@B0
1</sT[
zR!z
U=E&
hi(|
4C:V
JS s
;4yQt
bOe{
k09s,
{w=J
lB\G
RwM@
/j-w
o2xS
Bdp_
4#ZN
-?[C
jE^u
@i_q
+p7n
JRu:
zu\~
|)@]H
-kVL~R
poU.
O+*)
!|V=
&pRc"|
b#|	]
Z1bF
Yp^2
OwSi
pSMf
Ar6)
fZVX;k
<xb2
B28B
M /r
``HY
.0= n
UZ<q
eM^j
HHwd
9Vl7z
s">$X
	uCY
#p(Y
4!_",
lUU/
Te*iQ
0L|H
*!t 
DyM&
-}Hk3$:
/ohpA38
BOFt
r;n@
\Vr2
4^O[
V;%f
)S;K
xzFy"
v:j#
O8B"B
(r7M
9s}q
l$aAxk
'J,]
J={A
4pt.
ca?A'
 A]4
NrZ.
`j=BQ
-(V@
;D+QPM
%ICCl
uywnvu8
qX,Q
A"/h
O;w8
w!qzE
hHkD>*
?ZNa
A?*Zyd
kJZd
X-P#
C=~\
3tr|}C\YA:
YXbs^f
TJ0C
Q6Jo[
lmg%{X	?#
qZx{Z
7._!c
tbH9&o
fyD7
kE02!
H\	q
3E5	
$ ?c
l_j0
0"?>
Qvf<rk
Y^wat
}8gW
t4Z!
Flfa,
<;WZ
L/\H
ux?a
!ut^
#(V!
ID^}}
*~WU
SAnt
?>N.
"c!cx
LS+p
t8H:5Y
I9p$
YaGEZ
1}Y)`
	gF7
-p;9~1?
:hmL
f\z&
:*F1-
)/l(
{qe%9mM\
A9	_
j>hE
KZ9D'X
U*\C
 e9u0
=_3lD=z
i@oVJH
RbCh
:a}[
@e<aQ
(Hr^
,4qXD
&hG! 
G97|
GIzE
!A|g
#w8(gaFzb',
N%n"&
#GD<
1V'~
"_T(
Z	t 
lS@"
J,alr
3?g(
8J\"X
O{wi
lTSj.
9I5x
Q^9r?
;v"8
\jT~e
hCr~
vvpG0
X~#+e
V+=z
6>XS
i2oG
.q@K
]}/e
&gU;
h cy
C`Q	o
YKsA
-TD	
'/K.
 Aa?0
@b@f
z/'3
N\L7
dDM@
C1TV
|by@
5 wI
w?aWb
6:.L`
m?@|n
/FTq
fPj'
6[^-(Bac
7S)B~ki
|j!c>W 
kRKI2c4
?sJ 
MJ^}I
:)	7
8Jlc
=J8s
d+)M
Rr]O}
kj;HzU
/U#xY
{Ld!
A\+|dfD
'*q7
W#4m
m),	
lNh:
#QZuy_
/&Ma
oaIM
X>0p:
pyWPmD&]
P[>&
,_!f
 &F_tj
mx\$
IbxV\
;LR:
!hGo
xpGm
H3nd
Nm&Q
s[jp
drj'-rv
!)g6
!<Y(
U$&2
0^INl
2yX\:
cCR*
]`]1
xx<pQ
PqHq
qr;S)
-;r7
K2_"G
]	tQ
k<\}>
!b(N{
-7_F
x@.Ez
n[Zo
R7[;
G]~\n
*rai
b(pG
47$5
T9RD
2+az;N
qrbm
&+*4
oB~N
@eqVD
tRO+
A}pA
[Iwh
5+a'
U:{-
rNQe
.*#F
_4Tr
zq>~
<"k%
;qk]N-
a4"@{
Mvy|
jU%4
E*S>7c
f=$a
C7AOmA
$:ZM
FX+y$(D
221M$
H-Ov
 TV?
$wNy
NWPm
@n]i
w,Ls`D
y@|nF
vzxU2;
FW{O5
^!oV
Z7l/
WM\Q
49VHB
>,-u#
x%SoGS
nU6L
t/xl
N}}l
A74?
$]$^
4YaYr
{- C
c; p
|0hm\
@EB4c??E
O`zG
<Rmd
]83p
>VJb
gP%H
8JU9
STP.
jkUE
,?$T
f{|L
ZwA+
KRQg
")6jd
ci28
dDuZ
^'7#
gf}n
[	}O
+3bYw
u9`; l
9gR%/&
mA{I
%5z$
+x+W
2z!P
fpDr*
PXzD
HA'$
te)3
F*m&
q?H i
<qyi
?r	V
^0egs
'Ao"
;PYf
~g"6
+YOCI
}]7KI
m_$Ky
Ae	%
WaH>S
T8y_
hPI`
/`rtZ
0f}XH
&;(g
 "k=
O\(A
ioA	|
V7?2&
T7Ya 
N6W]
+iut
\4`g
rE~$"	
Cbio
<#82i
EqOA{/&
EjE#
F/UYJ"
>1B[n
fHG*
[T6.
=kGN)"
:kr}n
06i;
0!H{0
F@K:
k!P;-
LamZ^
2dNo
wwwwwwwwwwwwwwwpx
pxwwwwwwwwwwwwwxpx
pxDDDDDDDDD@
pxDDDDDDDDDH
pxDDDDDDDDDH
pxDDDDDDDDDDDDDDpx
pwwwwwwwwwwwwwwwp
wwwwwwwpx
pxwwwwwwpxDDD
pxDDDDDDpx
pwwwwwwww
63[4]5mm]5\]m]mm5\mm5555555\\\5\\\5m\55\\5ed:
cOXY/P.Z0.0.QR00/ZPP0000000/0PPZR.BI@/DE0,
WkV21TSav^8{
}>qooggggggg1`_fhsnHK
{JLp
Nw~ytMMMMMMUbbrrrrrxxxxxxxxrriUMMMMMMMMMUuzt
I3')+*+)))*))()*+++,6J!54 CBA
jYPQTVTSkllZTTXRTUiHceWda/
_<bm
}zy|yx~
{|yvrrwsqpon
PPPPPPPPPPPPPPPPPKMNNNNNNNNNNOLO
JHHGGGGGGGGHI
JEEEEEEEEEEFC
JEEEEEEEEEEFC
JEEEEEEEEEEFD
JEFEEEEEEEEEB
O%JEEEEEEEEEFFB
JJIIIIJIIIIJJ
O(@>=77A779?<8;$O' 
)O6530./21+*-,4#4PPPPPPPPPPPPPPPPPPPPPPPPPPPPPPPPP
<assembly xmlns="urn:schemas-microsoft-com:asm.v1" manifestVersion="1.0">
</assembly>
kernel32.dll
LoadLibraryA
GetProcAddress
VirtualAlloc
VirtualFree
xW=x
9-Dt
T#`{+<
*\.y
=r\'
QVrR
54)_2$N
g!A`j
t`ssD;
MK4S
`nt{
qAgR?
]^_[
tYIw8!
vHs 
yfQM
j>9&
FkB,
XI?&W
S'rP
}(KY
`;2F=2
Q$RV
TL^ 
@tls
b2M/ss
C`QN
PW	QS
8sms9vbu
,NH@9
!%	%9#8j
loXM
v[Pds
licatt
on er
d,anl 
8*$W
c/6H(us
832;Mx
BoxA
cxtf7
ll?E
xitP
hHanxd
|Virt
<%H20ziq
+|$(
USQWVR
Z^_Y[]
