!This program cannot be run in DOS mode.
Rich!4O
.text
.rsrc
ka{W
f9#&
s$|+
mks#
6+,b
a=5C
x{N$.
DS_*
`^m6
rc8Z
0Ld`
Lvb`
t^0{
exZd
B"(R
B"(R
B"(R
B"(R
B"(R
B"(R
k"nR
57D#
,+B8
"$>E
Y(ij
as{Z
dZvJ
kMr$
zwor
wMjL
~(~rg6
*wmp
BO?n
]e-o
&;e-
q,'?
U,'?
5,fw
xbp	
\moc\
+0TB
luc\
UiEe
(~f'
)"0E
>k0+
"> {	Q!
!> ] C
r,]i
n}c\
nbqU
Pi3e
yb*X
bsUnb
UnbqU
bqUnb
UnbqU
^bk^T6
sWnb
CqUnbqUnbqUnbqUnbc>
bqUnbc
UnbqU
	qUob
G$bqUnt
n`qUnt
o^nbqUh
bsUnb
|zUobqS
"ncqU	
pTob
paCUh
n$v?
bk^h
7d">
+>=N
LySO
Pi[e
uk(Z
b^Xd
P~*A
tk(|j
Ui_d
xb,@
@/5(
b\1uz\
`\US
xb:-
)L>?
\}/)ZB
\}/AZB
U}.w
b\1ur\
1*Lw
xb:-
oJ4	q
uzJ4
/)cY
1*Lw
p+JtC
ujJ4
xb:-
b\1uz\
.{Z2
urJ4
.{Z2
|){^
 y7U
bJtC
ybZD
rrZN
yb\U
.uZN
yb\W
xbZN
xbZN
PU_u
}k\o)e\
KbN4
bJtC
b\U e
KbN4	
yb.5
LoYb\
Loyb\
bJtC
M.;*
xb,@
r`=Q/E>
,5QI/
J/m.J
4	k\
U[|=]
_XX>
n%c\
xb*t~
65GG/
.c,@
./[2
b\9+a]
xH/E
*k P
P.'[l
mLRKc#_Iw7
<k/0
-!jSX
x7=z
T]GH
n*pji
+R(m
g..Q
ukJ4
G+3]
tkZl
.]ZL
J*,:
Wb%'
Zj5#
b#&jj#
orE:
@uX2
kk%'$t
g{![
e{%+
]oqc\
9'B.
'%f.
#!F4
n5B%n
~g#=
8&%J
	qnW
(n\o
/cb&
n-b\
tk*x
B.'+
xd]1
lc^X
mh]}m
*N_o[
mf]}mx&
\}mn)|mn]{
(|mn]
^}mn[
v]}m
C}8/[^
n5c\
bJb^Xx<wC
r%<@
.} Db
_b(V
sf@i
b\1yz\
gF4)
C4j\@
JbZN
/qJ4
:tGf
b\i6
wvdc
3qj\*c
iy(~c
Jf,^
NgL.
:O'L
'M"!
1-3)
[<#!
U?#w
;-)+
Rswm<
vQQ]
@:;F
yb*&
)r*n
}=zH
b^Z<\
	xb*Zv
4?Gwi
RJ%N.
Dpi9t(
i<4'Kjl
G6(%_
NIq2.
<Iq:
B`E+jP
:+9|$
_6<'9P>/C
zXA%XNYS
:+9|$
<%9t
KJ\A
v|M?ZX]%Z
Q~@C
+k(j
*k(r
xb^G
?BFw
+BFw
.U?"
R&D)
<?D!
n1DY
txxb2
_XxN
I.'[L
-ee~
)fa@
t+Xn
!r{F+|
b^Zj%
P+?]
\iwd
tkZl
_X|$
b\3+w]
E.I[l
5.yZl
DWx-
,(z/
,(z/3
m"KR
, TgO/z
8/UK
Tm0/{C
n-b\
@+Y]
:)[\
Ui	d
[yb*
j/MK/I!
7E.])
l1qA
DYxb\((cB
wiDYxb\((c(
x+o]
b*Xf
Wyb(
	/YK
	/YK
@(u"@
lo)e\
Tyb"d
#Qxb
t)q\
?.}*
h@qe
Mk=P
/JCS
b^Z8
M.WZL
.1[L
"=-P.
b\ir
b(lB
Myb(`
	W~/
i(	q
clvX
g~ap
g~}p
eWitM
g~}p
W~]M7
~_$_
g~wZ
	qi~
g~Yq
T-oT
f\q3~Yq
	q7XE
	q7"i
?Wf~Y
g~Y]
q7Bi
	q7Ri
>j~YM
g~Y]
q7Bi
	q?`
	qk`
	q#`
	q7Ri
av~YM
TcM7
	q7{m
	q}`
	q=`
	qe~
	qw~
	qO~
	qU~
	q]~
q7Ji
g~Y-
	q7(
~r^9
@TrO
@Tr9
`R)l
h@Tr
CGcb
^Vx"
^Bh6
a+{x
Wx"m
.Bh6
kCh6
dn& T
xqmy
dRJ4
+}e6
V\9d
bThD
!gmd
r<p0
C\er
\uRJ
lgVX
	j4r
8m(h
4[>f
!6sD
#*iF4@
z7*.
#ZAP
vp+~
Lvp+~
vp+~
vp+~
vp+~
vp+~
vp+~
vp+~
vp+~
vp+~
vp+~
vp+~
vp+~
vp+~
vp+~
vp+~
vp+~
vp+~
vp+~
vp+~
vp+~
vp+~
vp+~
vp+~
vp+~
vp+~
vp+~
vp+~
Lvp+~
vp+~
vp+~
vp+~
vp+~
vp+~
vp+~
vp+~
vp+~
vp+~
vp+~
vp+~
vp+~
vp+~
cn9w
vbn8e?
Qx!w
vPx e?
KTi%
\r}fDc=
qYsF
2~d@e?
qYsD
2~d@e?
qYuB
2~d@e?
qYwB
2~d@e?
<``<e!
a`=_
:``<e!
a`=]
:``<e!
a`=]
8``<e!
a`=]
8`n:e!
an;]
vRj0s9
Bjf<}O
#K+%t
{wmp
[~#[
"Z~"yG
Yp#C
{wmp
d,rz
Yp%]
"Xp$yI
kf?w
Y~#A
ywmr
Yp%]
$Xp$yI
[~!A
ywkr
\Z~"}O
Yr']
$Xr&yI
o`5c
Uv+K
ywkr
Tv*yI
o`7_
d$+0
qc	h
` +&
Yp#w
>Rj0}M
Sj1Q
>Rj0}O
Sj1S
lF8	
G8	%
0Rl2}O
Sl3S
I&	#
>Pl2}O
Ql3S
jH&	
I&	#
0Pn4}1
Qn5S
	<bs
BRn(
+:r!
Sn(i
tRn(
	<rm
	<fC
/@+p
/w&5
&aCfS
"sGp#*
r#.2
*s;l),
oAla
Ec$+
?o85d
('pBaA
}Gx)
q ;!
$O{ri
H2kWh
m*1!
"&Kq
m*#?
Od:q3
#u<!z
p	tN
BgGd
,+FZ
O25u
"@iWB.
-'v2
d"Ft2
g+{T
(!t<
R>9f
Ur6w
.-FM
(Lr6	
:Yo4
X"s9
{pN]
 Eu0
sCVU
g!1m
KyN	J
64Ge
J'l|
g!?k
,&-|
GF#,$
2	X\
_;kf
BJ	2
v'*"
7y$	X
/w4L
+Y}(
T eU
$*M{
dys2
'z}<
cSx+
j#.>
,p! 
iUt=
9iJa
J$*Ni
#&'t
P$Mw
90)l
"'~2+
c01#
PLkY
/}L'
u._-
;m&9
1f>yI
%F\q;
H$)j
<m]F
wW4Q
"Xxp
z	4H
WWbS
V&,(
kL/v8{E6
5j"s3
I-3g
DgKj
'y*!
6#k*M
B6US
Z&gE
,s1x
d)*L
>+p"[a
j)(:
oa:w
;uze
wKH{
)f?fU
_eRd
cSV}
#v%fS
[a*F
]etv
yQ,U
e[F^
]aBo
{Y.k
aYxv
_ezs
mm4M
Gt/h:*
=g(i
;gT?d
}Q2M
aUVW
c_||
io^_
mov{
"q{8'^
mmNh
]d-r<
^8Gi
{[6H
U{Fm
7^=(8
{[V{
.sLL
2H*\
9,-B
9zeT
&%	"
{IDn
Sgxw
Sitn
H""N
}U*c
J9nB
9i*a
gK@u
u!Vi
o]Ll
z..@
NB0D
1q m
a|/v
#	RSB
5}Zg
!Fyd
sMji
z	Rn
gEF~
Wkz|
	f1H
uC&s
?]z5
7w0c
%x{x 
x+v7(
yG@s
Kz}B
v"8@I
~yJ~
[7+s
Z=l`
Su8~
>MsB
4.mW
KD%v
$.-~
	{,	
ooBs
=fup
e	+k.
9qxA
gWJ}
Ma2g
=sFQ
1wlU
Yu"o
}U(k
7l#h_
=ulI
-X?h
	2Of
#R'~
)D%z
wA&]
z	^w
	@%jAH
t	"k
9h;r
H9n[2
`-n8.
`!~A&
9e@i
=d;f"(
	6=vW>
yE(I
]u4=
GVMn
w'rt
	YJY
e]0A
?l?n
WeDo
}ANw
_gHw
?l!b
=B3`]"
!~#d
3k4Y
!X]j
s]8G
oS(2
w5By
g[<E
qQH}
g]vy
sOD~
b7f[
3t!f?
p+t3&
1k8]
e]F}
1k.e
mmNw
c^;`
_{8U
{eRY
?T+f
sQBt
skPg
e,!+
{i"=
qmv}
so~q
sSD_
qkr~
qmlz
'F'd
m{~o
1h/nj
=^#fp
ky W
KZ#d
uoLY
kwrw
{gZO
9P)b
yeBc
woFo
UqJW
uQ^E
muRq
!P)b
iu*=
qoPI
wS*E
kqLc
uS<)
cHfU
c} s
[\dw
ea$?
uo:i
V(qX
wS$G
geHc
bP'	
g)<5
so&t
gXHo
|By49
l&wHR
	q:U
}i|i
so,?
c}ZM
PP{J^
U4*i
o}Z[
`([.L
}eTe
84fZ
qkVe
m{Vc
B,]h
KV)f
~V=t
URfy
{iPW
vzm\
wU*M
_k|S
}iLc
iuxu
gc\U
ecJ_
kw@i
wS&W
{k~y
yg\S
m{Bm
'j/`
c{*A
wStu
o{Du
ky^O
qo$A
wSNc
eazi
{gD_
qkVo
kwh}
gc@c
umBy
a{|{
;	C"
'	e2
v<ft
SZ#f
	(`h
oy$m
ua6Z
siZp
	urK
sa&c
B!dp
wm,M
9T+b
	,Pz
{eX}
l/l~
~	@x
g{ }
l/l}
	T/l
!T+n
^'dy
	Z%d
l/jr
T-ni
	^/n
T+`r
)V+b{
~	Ll
	,Zx
	,lp
P+`e
P+`u
p	Nu
^)d}
R+ny
R-l{
	 BJ
P)`}
	.l~
|	Jw
Z'by
Ij/n
G4se
ct|e
/Zag
sQ;v
z*S]
1{tv
Tegj
Btkf
X*|D
mb/c
whz[
'OqY
.}ip
wtry
{l~w
I4ga
+pXeg
==Opd
!Ce@
qUz^
8>${
NbR6
~2;U
-pTSq
iRee
WTac
'urpe
'vJc{
Y	sW
wvv#{
cf~U
L8q2y
yj|S
qCm|
IzTspn9q2
}j~u
un~5
vtrI
gI|P
Em|	
kF;?
=OY~B
7+qZ
b~!}
E^oc
ab~i
ab~s
ALKw^ 
xh|E
nJwj
6V~\an~q
dD)n
EhruD^E
d:#;
vvxe
Mvhe
nH!~
r43 Bu
sb~[-
GVqU
{l~u
xNr`i
-Ea<
{j~S
S:-c
cl~o
y~n[
qAqd
cl~_
qOsb
91I{T
5q~j5
AIL-
nHb\
apn_
%MEkp
qb~?
ujrO%
{j~}
cd~%y
+t@WO
wI9-
o(?/
qd~g
DwY\
;Ngkd
/Xae
5PJ1K
"g]d/
f\7_
s=Ou
36F;I
.YSD
28{y<
Ib&Y
:(Ew
X8@WD
0onN
f)..
@fMr
ch~=
)O ;kd
ej~w	
VU1&
}n~U
w7Ui
}=sq
{j~q
+4M`
"$Q}b_R	
wl~3
9E.g
g,(C
2K{jK
un~'
sEud
;(iq
i\		e
OAVY
y-Wk
{`~G
cf~-c
KUxr
HJEA
 akw
7,_Eb
-F+u
)#sy|=
L<w)&
c3Ny
D=z0%_
o{Ei
J2)w
xO-y
{n~e
Onp;St
s;d=
>95'
6[UbC
&(09;
1"5U
1r$O
FMuh0
\p%?k
P,9k
eEkm
{l~g
01k9
yMig
~F}1D
}]ci
g5Pj
a1"a
CT#v
ywqu
!$mQ
~UZH
6C+f` Hqc
3o@p
q!'8
vn%7
+&m}
{l~i
ISxp
g^R-
+U.i
c~B!G
rG1j
Lvj{n~
r6c#f
O'(G%
eOp	
tY3>
oh4+#
MG0]]
QCfZ
xJOq
$Eu\+x
rXMe
whzg
9N5j
ffa`
0/mTY
	&7(
c(]%
Qdp8
)^/D
U7|;.
T	0P
7w~l
w#7R
		"Wy
Zd?!
YIzd
P9Ak
QSbR
?iFn
MI	5
C]&A
32Gf
Y]8Y
llQp
a-)C
YA(W
iL~%1k
U!5g
yd~s
}'3! _n
Fw].
e'3I
T	2^
	2go
8'5.Ixr8
DqQXk
BwWH
P0W1
0KY8
}?N`
	:pz
&i]oc
{U9#
R4AU
CTD!af
)z6]G
	t[5
(7+*o
ad~I
Z"o5
.3av
uz|s
c	1G0A`
8>MA
*;CZ
!{bM
# \-od
QI|t
Q%Um
n_5h
($w8
RDKE
R@5A
i+={
?I(u
}l~s
g%2%
GAp}
cl~1
Z&cI
!c|k
7M"S
C]PM
}n~s
3(iGv
$JQ3
(Am*e
WW$P
}n~}
KWDl
#{j~
E=!S
,6%b
Ij"[
+'ip
nKCl
T99z
u\ U
]m-K
{j~1
gqN	
l`[~	
%)mn
OrZ{%
%J)s
qS|\
sjza
*?_y{
ef~9y:
9@!w
6;wx
}`~Q
,sA>
spl3
az-	
#F<q1
$(n[Z
gnhe
wrr[
{n~s
C{ve
 +s,
 ianab	
u]K{
aGm~
{yn|
u0w	
ehB#'
"& =X
7-kr
utr+g
+Z<3u
qc}u
}`~k
:8CG
/=Tu-
wvxu
yj~_
7$(o
0({#
p9s#
iCrb
QHR/
*Gsp
{;nO
uOSm
iB\o
MQn8
9"Sq
-"Uu
MmbE
%uBFS
V$c,m
So"!
o: Q
	gAN
-p,3[
wV w
cV,w
U<.7
yzV}
cM|Rwl~Y
SY0+
|Ntnyj~
";cf\
rpul
h8OV
=yl~
'OIzPel~
@f[|
j4Sl
 3aB
qEJr
a0qE
3X-nd
UVaU
W*}a
:LYo
H4wQ
+{B7
jX;}
!$uY<
_ cy
=Bc+
|TB)
gWA'
;DLQs`
+H_9
/~XK
lPcQ
OPuW
)feA
]4egN
@oep+
FUUB
y4gK
-uL2o
+z"=
yr^w
u.QI
(u.Q
(s.C
(s.C
(s.C
uL3w
:w~y
(s.C
(t.Q
8r.C
r.C3
5w~y
N[~]7+
<on<]
BRY%
{@^o
vxr^w
aL3!
{@^o
yr^o
{"=K
=}@L
u.Q[
yr^q
0W$X
%N[~f
~YZ5
i`	a
u`	a
ttCJ
H6)Ax
2F+I|
W(c9
?#$3/
++&5
0S-k
N$/=
;M$EcB
 k-k
|-e{
FD/G
C  =
2//=
,u+i0
*'-->
*S/q
x|QB
@U/w
t	@q
	$ff
	$bv
^/x#<
f)n}
H)vy
x/nh
R!d!>
P%l+ 
s[PA
B=dC
~	@j
N7dU
61fg
%p	p
'>'b
St/n
zVu<
v	Hy
xuD:
paB<
|aB0
py|(
`sJ8
Wl>e
-i>9
Qv:o
ob>%
	m>m
?x4'
5p>1
'v>7
%p8'
3h:+
uq>}
ws<s
ss6x
u{2m
qs>}
ws2}
uq0z
wq8{
u{Xm
uw<~
X~vq2
|t	k
{{r}
ww>v
sg8n
w{X`
wy<q
wu4y
s}:|
qw4z
s}.r
s}&{
wwXq
wwXa
D%xB
[dRp
[dLD
d5xB
D%z>J
]d<L
_dHD
UfVp
z)z\
]d$J
[d.T
[dLD
g~Y0
"'q7
g~wZ[a:q
vf6hN
/OJv
F$xHwi
,M.c
Z.2c}V8T
b(nl
b\il
*k rx
-.cZL
"b^XjaSJ
Q%>{m
3f0_.
\!GP
Q%?;
b\oJ
\N+a]
1Hb(:
&)Hp
Db.l
vO*W
/C.1
Fb^X
G.KZL
b*H/^
uk(x
*k*8
b\i=e
s9+7]
6wiH*Ib
7<LU 2
F+[]
,+W]
=}b:
/E+,
%Hb,@
ps\mT
3.h[
Q$P`
_fyj\
lKc\
b(P6
#!Ib*D0
 |\o
'2R3
l8C2
(&$2
o5-9
/o8C3
8C2"
_fyj\
)l2J
b^Z~
*kZL
b\i\
iwL.sZL
OcGE
OcGE
mOEE
mOEE
mOE_
qHEo
	Dd[B
3MXf
\i,a'
+h>	
+k(rf
G+g]
L9.c(
_X<0cP
tT8rw
BLse
SCLs
Fs3`|";
BxwALsw
1jBLs
xkBLs
w]&7
CLsw
SCLs
|suI
\3Xs
8q7K
G)1]
*&7h
+k(^
.KZ2
Hb,@
^"zS,
CKtC
hRM}V
|L/E<
.{ZL
.cZl
G{Ib
) `,
CKtC
wIb^U
|C\m
|C\i9d
~:?/
|C\i
n*lr
fk1A+o]
b\i9e
Iwi*tIb
0gs	
'='p
''!p
%'N'Q=
'='p
'D';5
+/h'3
3%lgQ=
';1p
'='p
''!p
'+10
%'h'53
'1p7
h'%'
3%lgU?
';1p
'1l'Y/
;50g
;50g
;?3*s
$3}5
!%h'
$3a'
T'u3
h'a'
$g{E
Yy*s
n975
*sQ=
']%h'a3
3/D'}E
bac3
3	p7
baW?
'1p7
'1p7
''1p
l'eC*s
'7*s+1
B'm/
Qw*s
!5h'u3
Qw*sY'
Qwp=
h'_'
Z'=3
Qwp=
R'}3
'7*s+1
Qwp=
}*sc3
^'}3
h'c3
h'U/
%'D'
'7*s?3
'7*s
j'}?
h'U/
j'}?
*sQ=
|'s/
R'i/
5l'c'
1/*s)
+'p=
+'*s
'7n}
R'{E
'!/p
\'_}
Ugh'_}
{eh'cip
}*s}?
sI*sUo
uE*s_G
']e*s{q
'eC*sS1
;?/*s+1
R'o	
;?/*sq
'1h'eip
;?/n}
;5*s
j'U?
+/h'}kh'
1/*s
*s+1
'7*si/
'+1p
h'eKp
#'*s
P'i3
1/*s
%'D'
*ss7
^'g	
*sU/
h'S1
3'D'
'7*s
*sQ	
'7*s
*si3
3	*s
'7*s
Qk*s
'7*s
'*s?3
'7*s
'7*s
*sa/
'7*s
'7*s
?;*s=?
*ski
*s}?
+1*s=?
*s}?
'7*s
+1*s
;)*s
T'_=
'7*sY=
*s?3
+/*s=
+5D')'
*sw'
+1*s}?
*sc'
*si/
*s!3
D'=5
%l'c/
;%b;
?;p)_'
+1*s)3
p'=?
m0ay
q'L=
F4MV
m0e{
m0e}
m0eu
m0ewx2g
'm0g
0g/D0
&m0}
80}r
80}r
m0a}X&
80}r
m0e}
m0eu
m0ew
m0e{b3g
m0e}
m0eu
m0ew
m(0~
m0a{
m0av
80}r
m0e}
m0au
m0e{
m0e}
m0eu
m0ewx2g
+\0g
M&|E
m0e}
m0eu
m0ew
m0e{
m0e}h3g
m0eu
m0ew
m0e{b3g
m0e}
m0eu
m0ew
m0e{
m0e}B5g
m0eu
m0ew
m0e{B5g
m0e}
m0eu
m0ew
M&|E
m0e}<7g
m0eu 1g
m0ew
m0e{
m0e}
m0au
m0e}
m0au
a,,6
hQuS
80}r
6m-2
^0!G3
*l'	
^0ur
m+01g
mYfz,!
mYfz,!
?U9j
e+]0
mYfz,!
mYhz,!
mYfz,!
mYfz,!
0gO9
Q.ok
O=pga
O=pga
0g_M
mYfz,!
mYfz,!
mYfz,!
m&]0
9/M[
\0%m>
=&VI
mYfz,!
^0ur
^0ur
9/%[
u#]0
s%]0
0gO9>
m%,!
gz,!s
mYfz,!
0gO9|
=7]0
0gO9
0gO9
0gO9l
mYfz,!
mYfz,!
^0ur
0g)k%
mYfz,!
mYfz,!
=hGI
g+P1g
mYfz,!
mYfz,!
mYfz,!
?U=zf
s*l7
^0ur
?U9(
mYfz,!
^0ur
s*l7
^0ur
mYfz,!
mYfz,!
?U=2f
0g){
mYfz,!
mYfz,!
0g)C0
mYfz,!
mYfz,!
?U=0f
z=.nI
mYfz,!
0g)3>
mYfz,!
?U=4f
)'1g
=$vI
mYfz,!
mYfz,!
?U=2f
mYfz,!
?U=,a
mYfz,!
?U=2f
g+62g
mYfz,!
?U9d
mYfz,!
^0ur
mYfz,!
^0ur
?U9>
Rm=!
y]b(
xV\oAc\
$b^X
kHb,@
M/1*
n(V(,
NDVd4
H)i^
D+}]
n(t:*
D*jH
uk(>JO
b\mR
N.7_X
V:UU
~+i]
:k'!:
1M:E
piJ:
piJ:
\VANpiJ:
VA^piJ:
VA*JiJ:
VAFpiJ:
0s}M:
YJ:I
piJ8
VAfLiJ:
piJ>
	@n#
~iJX
	(lHb
8lIb\U
$9lIb
?)b<
uk(H>
C]Z3}]
3	]L3}]z3
3;vB.v]
].3#
VHbF
Nc*pR?
@.O B
VHbF
_J.7Z2
.[[L
Y=H~
N/{>
.[[2
gMG.
+k*^
D]?+
O{9@
(K$q
+k*6
]iqe
Co@vi
,c**p
C}|-b
DLIbZB
Pc^X^
@.5Zl
\mec\
.=ZL
tk*R
b(JN
b*Nv,
g,{b.2
LHb*
*k($.
c^Z0YgK
@+I]
tkZl
FHbL
/k|5:b*
0};|V
*k*.
tkZl
FHbL
ob(4
_7,}
2b:q
8`'5
Q)M]
_ZVs
B.c(l
59+{]
YG.)[2
\i_e
.N6H
g9x7S
b\1uz\
b\1uZ\
nYb\
b\in
6kA.
UiNa
l,nKd\m
a(nl,n
b^ZXp
_Xvt
I/C(
.#ZL
@.' 
@.%,@
uk*R
lIb^U
nYb\
.yZl
b\m;c\
^!CE
C}|9
\oWe\
_XL{
	rc^ZN2
')w3
mgQ.
C.cZl
.k[l
C}|tipPHb
.{ZN
pPIb
F)']
Kb*$
JbRbbb(
_f9f\
zg^L
K-@)
C+o]
Jc^Z
(H(V
lWc\
]i	d
kK.wZ2
0Z'V
2<%0
lIb^
lHbF
@5d-
qJ)-\
b\i@
	I.c
)^B	]
OF_s
#^/W)
G^i2
[eV@
8O^s
Zu:B
&G/B
0|V(
.;ZL
uk(8nA
@)/\
 NM.y[L
pk:+
rE-aw`;
Das3
_;+TK/+
!d];+~}5
_fIg\
q`c(
n%c\
?+k]
6K)E\
*kZL
A@@vY
kAwE_
jOmy
w&pEw&tAw
w2uo
kAwo
k"w|
w{s$Z]q
 nqBr
&uA8
v[w>
wo|f
 w|}
v{Q&w
ayn1
vEw"v
Eq"w
Ew"v
Eq"w
Y@@v1
kAw!
j"wB
kAvGF&v
j"wB
Q@@v1
Gb:h
q{>Q
"N#w:
:u{c
\UjAv
j"w&
Gb:h
|:Z#wZ
}FZ#w
Y#w"
Z@w=^
@+#]
Q)U\
,vRx
uo\3<
K)M]
b\ib
uk*42
+k(:
+k(z
tkZl
O0G/c 4
@/m*
6hrW
nt!=
k!]X
3K%=Pa
 MXe
tHHQq
;vA,
#c1"
5b19
CZ5\
IG4d
/AJv
/k^Y
c^X 
@.c*
*kZL
+k(t
/K 0
K-.7
P/k?
Tk._
g</GA
Kb@,
Hc^X
n-c\
b\9+-]
(+E*9
+k(>"
iY\e
_jf+
c^X(
Jb,@
KbPP
*k*t
m]P*
NQI<
C(Qg
C(Q9
B(Qc
B(Qc7:
[	A(Q
LB(Qgj
b2gq|V
l_c\
tkZl
*Cwi
'X+K
e,77
<}Q67
=ES67
=oR67(
KsjK
1*Lw
h]w4
uk*Z
$iD/
b\m2
d]gL(5
xmbj
:%p	r]
'{O:.
HIl?*I
HIl?*I
 IIh
0I6:
(I60
1~AH
0Il?*I
IIh(
*kZL
b\iO
\	js]
hJ.c
8.Y[L
jp\i
Kb(D"
kvs"a
nJtC
Kb"M
c^XX
H\oOb\
PiUd
EM.9!J
,&zUE
,&zUE
(Ebi
KIzlZ% ~
,&zUE>?
fUE6>
lZ/$`
(=jC4
.2@'0
*2@o2
P~jU
P~jU
,&"k
iA>2
yz~k}#2
qz~kU
UFD+
wi"9Kb
!b* v
98Kb
@.1[L
)x@.s[L
|/XP
wiR4Jbr
;@._ 
.3	I.
P3.c
G.KZl
2h^Y
f$Kb
wif$Kb\
f$Kb
`'5i
\{7L\
M)Y]
?,/]*X
*88F
Q1tz,
&6G&
z- c
bBz-
z- a
z- a
-&>+
0e0{
0e0{
" 0e0>
z-0a
z-0e
7;]t
w<ph
z-0a
7{,f
7;]t
7;]t
w<ph
"-&>m
b^XTG
.+ZL
o_b\
K.KZ2
O^{w
~xV^
=Fr<
=F`=
:O}V
e9.G[l
C.c*
_XDl`D
674C
b\1s
H)1\
tkZl
Kb(\j
.cZL
9.c(
H*<]
tkZl
c&@*
xt_NYt_NYt_NYt_NYf4V
Yt_NYf
_NYt_
2t_OY
Yt_NO
q-NQt_
pWNY
ZGYt
N[t_NO
jTNYt_H
Yv_NY
_OYtY
Yr$n
t=tjtA,;~!
./Z2
CsnalC
tkZl
* 2P*
uk(0F
F<![<
[<*|
b96l
Bb^Z
nMb\
_Z8[
+R5:
E.;)~
H/{ 
fM<a/]
gM*~r
f$Lo
e	?2
8""o
*[%z9
,[%b
b*$h
bE.)(Vr
/7:b
),y[
_ZI1
/&,:
)e.2
.&~:
.2J7
IuKb
*k*"V	
+k*V*7
CKtC
tkZl
tk(\
(Xl%
gpnn
gtN\
bp0h
`']"
U-pC]
dJb*
HZhH.%-@
Jn9L
se!X
UinO
O{B*R6i
x=es
OUi.O
_Z^x
tk(4P
Uioa
}SZ4
}SZ4
1(}y5
Vi-O}
?VXi
z,4p
1(sSZ4
VA-O|};&
1(|y1(|y1(|y1(}SZ4
CKtB
 a'M
_Z_{
TJb,@
w\o~
.{[L
E.+[2
+kr<
/kbL
b^XJl
b^Zf
L.I[L
G/O D
tk*J
+Vt#
NKbv
nYc\
KKb(4
>jzB~
b(fRj
z\mz
L=hC:
rr:-^
|oZ:{
xb^Z6
yGJb*$
tkZl
nQb\
:YjG.
\@.YZL
M.;[l
wiHIJb
TcWfN
n_!5
g9"q
(c^Z
E+q]
Jb*N 
E.o[L
*k*N
*k <
9+']
h#;.v
b\i/d
XB%`x5?
XB%dD
XB$p8
/k:F
c^ZZAPA
@+q]
8/O*0]
=@/O*
_X2E4M
q|jo
Vf!4
l}c\
UWx	
tkZl
)ZTK
n*vj
b(nXI]i
)>tn
{^F}*\F
X\F56]F;
|F!J]F
]F7$\F
$\FC
XF_bZFQ	]FeaZF
j[Fo
+\FW
_F3M\F
^Fc@PF
;^FA
d~F-
b\=8
b\=4
b\=*
b\=x
b\=t
b\=j
4p}I
4pkI
4p+I
4piI
4p)I
4pqI
4pcI
4p#I
b\A^
b\A\
b\AV
KbJ4
b\}kd
b\o/C
\o_C
Poaa\
b\o7b\
Lo/C
 k:	
/3ZD
/{ZD
JbZ2
>tb!I
cz,#
cB^D
tiJ.
to^i
!{J4
[D	c
JbZ2
>tb!I
cr,#
[D	c
G.i:
./Z2
!kNT
ti:?y
E|0"
P+q]
b(@`
H;Y@.
b\iCd
<3Ad`t
^3AN
3@^o1@
3A`i4
usW5
d#[5
XLZ3
eVpl
/[3Z
3Apes
eVpT
/[3Z
1qe[
eVpT
/[3Z
3@^}7@
uKGt
"=3Wu
3A`i"lp
esWu
8#^hv
qqTL
\o$b
nWc\
YWs}VX@
Hjc*
wh^(
h\al
61jP
6QjP
r_/E
6qjP
$JyS
Cwl-
6YjP
@}{\
@/C\
_X>r
u8Jb,@
.cZl
zUmQ*
E4fK
=xC|:fK
=xC,:fK
=xC$8fK
=|@|
=t@L
u,mB
7`?fK
1|`<
BMn<
fUw^la
1*Lw
;KbJ
4;Kb^
m'c\
rO.W
qxK+i]
PiSe
n(dr
,Jb*Pf
+Jb*
@+m]
*kZL
fff_
U w=,
a'-a
 gvOf
mJ(f
 OvOfjj
 GvOfs
]OvOfk
pi1fsd
q~kf
qNkf
OvOf
wvOf
gvOf
D=>wJ9C
Kb(`2
2+G]
N.7)
_ZnN
@.Y(>
b\if
Jb,@
tkZl
b(h.
Jb,@
n*z@
!#^p
;z0g
RX_o
ND[s
V@W{
ZPCo
FLWK
>tS{
NXCo
VXGo
RPKc
FHWs
fTKc
Z(sc
^\Ko
V@[s
JX[w
NDWs
fPsc
JD_s
NDCw
^P_w
N@[s
VD_s
:tS{
JXGc
fXWC
>tS{
>tS{
N@_w
R\Kc
nZq(q
0-z44
<1U,
)6[z
0-z44
14-u
65l?
Vm_\
n0qh
g=q90,
 1:X_Q
 qx8 1
`1x8
 1^:
j!t6
nH`%^
$nei
hZy~
}Fp8
/.aJ
YO:0?9
;]SB\
53tu
&svH_~
Hkwu7
 uoe
(5`UGr
$A(G
5NSoK
5MG7
ed0I
a;15x
6WyW
"@~_
w_fK
}kOM
?q'vJ
,`j+*
<17E
*H{!
xulV
+GQ7
T=[}r
q90,
 1:X_Q
 qx8 1
@1x8
n'^$h
=dK6
1m|w
W5*f 
tPKN
r,FgO
Ull+_
B`'R
r]4;
oqYv
o02%
~0LM-
#NRF
CS4@'D*@
j^*C
u82v
J.C#
]wmgV
LQ{h
{&__
7UPSm_/
mn=R
ybi9
Pq$^
xY	M7z7;
,g^M
{S-M
,U G_
q& -
M"'&
JSyP
oHu;f
g-@q
1:he
Ju8CxU
6+c=
Wka;TeUj
Ncbn
mWBt-
rZ0'I
Ei (?z
pB	-`
>Lmk
'a92*:
:r:	
Jpg7
tp6K>ymN
,J@>
gH>g
N~mV
26.m
Vq=7
k2{m
 tj"
E.u<
zNoi
n NW}
njK]
(	~[=
K6&^
E	<'~J
c.Iw
QwV}
MCtDG6
,L"v)
@*eU{
=tm[
nX\u
yBz0
8\@m
C{rV
+qju
+I?~
moTu
KFUS
(6-N
7&49-~
MC.^
M7:?
8mUw0%*E
;7kf-
<oEX
@*(}
f#JImK8
R^	6Qv
]nyJ
_| 5U
0fNy
s e&
Z_2Fg
hIPv
kv9W:
d#BA
d9/&
I{=7
o9`U
js<V
YgQP=
I	XFh
Mc-6X
2WFDy]V
Trvz
W09Y#
+8VD
^YG\
%>OJ
s}x1
ZDA'
MG,F
<B'_
Eo|'t
T*v\
24jEi
y}&}
Q3?KzA
q*PA
9V~iV
tH9F
;h>l
z_/U.
4KGEd
M}oA
!qR;
z^r	
|js_
B;|^
A+V<
DWH3mU*O
~==	[
;%&N
b;m\
r$ku>
CO3"
/.*e
h<SY
QVhOc
Dy*n
VBX |
&GtPged
T0v ~
8ZWz$
U>Wh7
'W+~
:B#zZ
c?6[
Oz@s
 up8
LiX@s
Eo*e
W(|z]
g;C0<^\iQ=4(
]Wq<
ZBu2
~w'1
QF@P
,]u3`]
MqZ)<
Y{bc
.vF.\
H$Tz
+G8@
IRzq
V{4H-V}
Vzpn
d}q8
Ay/HX
O[md
|oDP
h_S0
o|{v
Psz6rv
 	T6\
3!oU
V6uuX
ZuFv
t.$:
RTa=
e?!i#
_];"
hENE
P2GZ
rL]*
"":R
+Bdp
P06K
m~1C
'~r&
x_x?#
%6</
ReBx
"Vg2d
.\5Gc
E>FN
CU;7
u?o<
[N)B:J
DiVM
oC?d
PG	"
ycRE
$:{K
I-tjy'-=
/f@p
9VF\
Db,BA
jk"4K
F[6uY.
qeId
miX:
CO&34&
u+#(
5QqI"k
yu"/
<j8I
^z.IC
(]MQ
PF`a
uVzX
CS$>
.,5d
Y><v
D]6N+
.{=e
Yv:A
U"rw
17,*
zL:K@\
H-yc
%U;o
AeGM
3T_$
,wB8:	
\Ay5u
H74S9
6#>L
r1#@
HuSUPI
#/;i
?q!C
(p.6
06@v
GoC0
\.V`I
E@PJ
BwsIk
nG8p
<\YP
$6cc
y_Xz
+Ikji:
(11Vv48y
tV(r
.cy[h
S1+,
pp+G}
!,,o
NRIQ
B|sT@x
)H:&i
c"*2
X>(&Q
}pWp
&!FjS
J#e7
S86	[
I6k*
wzzO23
6/F0
aR&*
\J^U
/:,|
}dvZ
vXvZ
OsD.
T$o?
M3*r
YXsY
jEfT
0]d1
,R|I
7hS$
<Qfn
{qyU
m{SB
fX~K
3E+Vc#'
)>^}!M@
UmS/
L7fY
k8;+
6+Ct
H"tY{b
+CS8#
gHW&l
}D,3
DRyP
N;50
a"f{
Mhu%
0?V*
*Uw6
/yY|
2:fQi-
"\Q*e
)X~0p8
@NMl
;xFT
C{3U77
A"e	
{){v
L GJ
UQW31I
{^>d
jx;3
:ZPv
zA/I#
_18a>-O
5Rc2
,(3u
D%p)
o12|
8=\z`
.Jkc
OlrkN
)R9|
%P*Sb*w[
2Rq!
gKZf
u.E)
G>V\T)
h0H|
)hu"
:ce~Hw
Ke!EN
{qLK~
 s@#V{p
8J$w
E]rv
19ii)8
i~1J1
{ogi7'
o[3[
'5pu
Zrg^
3g.R
c~>_
1x-a
q_c4
Jug$]S
Ut-vU
dG1x
	[-&Y
06&X
L|%{
OiA 2i
"z|'
h5I	
{M7S
0nQ1
xFqO
Yk4>K|
Nk`c
vX[k
BV.l
__ul:1
Z3|@
">t*n
Hm6d
J4iBB 
1{_#
]"`/
)9b30
15rhS
y_v 
y](Yu(O)
 H"XL
:6/n
SA7Tz
*V2v[
h*fhW
xfmH4#
bI&\
yl(#
Fo:Q
+_&a 
d#od\u
dNAp
pmIX
	ByB
)>vc
xmrKZ.F\
&*h^*
[u!{
bpSy?!
1%yJ
s6.c
vk-b-Z$
ItOG
?LO:N
WaOz
ro2/i
;gGt
]q`_
U)A=j
iQ,M
,Q4&a
f,zH
iw#+
 =~ 
]aqr
eP.5
M:?S
M:d9
U*sQ
gecm
rgn&
n^.:
Yzu6J 
T d!TY	
M2b)
 F}uE	
8KZv
aDGGZ
}zWZ
qJCs
L$8J^e
%.DdGYF
MN#H
lfNUY
$VF{,/
mBjq/
z`F4>i@
	-jhXZ
,,Bw
-kC6qG%
lwSo4l
-Oud,)
$lih
@)oo
/bm:D
Q>kp
1EBVf
oR;5
jsB{z
aMf=
s xom=
ZT0*
z.ug
 'C*
R2	I
#O,x
Qi]7
*Cdeb
dH;h
),ka
>xq!
W^\Q
hB&D
\n'>
NMV]
CS$@e
)VyC
buZM$
aI5\
:Ovk
g)J'
PGmLH
zoAN
Jk`v
C"1O
xE~s
PEgQq
`w'a
}F8TF
zdrC"9
<_F}
>p#DD6
	@EdN
&,^=
t4&WN
QU@;
	L9wa
	:{H1
Cb?"
B~Kb3
- he	
Ha2?\
Nv?Kn
d;uJo
PeBV
!v65
npjf=
~_vr
R-}fx\
#|-i)|
9j~H
Z<#|
^*1\G
o"=5
8BF'
LlyV
<F41
y/cG.
Ftw_]
OsemW
+1E3
t3m@
]i}=
AOj:
f;~i
|"va
>R\H2
u*^`
dD)E
%9>e
,Ie\
*rJ|P
jE[f
R[s~
F^]8wV!
8}M:
~&dJ
4.nZ
v	ul
-1'sL
,t>6
n=TwA
]+kC1?
s)HP
`}]xO
;3b'
^gig
i_gXjM
\yX:
iU;y
evr8_E
w+ak
B=aZ
\$p/
`u{]
.K$Edu;
*r29
4?^KG
QF?Q
swl3
EHvm
7XD(R
?-N*
qW=f
RJDV}
rOD-N*
{E9}
\Dm}
%[2n*
y#K*B
lWBn
_Ne*o
^to[
;C]l
7=1|@
)6oH?
lejo
	OB2
8X~0
G)SP&
c27>
j;uf
 +Hp
B7r/r
j!R/P#
4rO`
CeM>
n{Wn,
A'G0
umS}!
thsG
X9=e
+o%q
.F&D	VL
HO}Q
<nS9
-]J~
Odr\
l*a8
f39"
=>KTn
48dn
A/ZyD#S
[Z<p
`!xW
,m;60t4l
XhT2E
fslV
\V`U
C??H}
+~vQ
iEjv
12WL
?j[q*
YIs>
Q=uD
$JLDif
"t""
G9|~s
(X5_I]
m/*_
5_`tR
6ViX5
wR{@=
s%r<Z
^.6U
EoR"
bA;d4
;,=I
8~EY	NN
6k+<
_R[h
5qYh
"{w A
L^1@>V
:8yi
rk(k9
afu$
EI,fu
zqu#
c]z?
VSFu
E4U^
.hW7
vr_q
aw2c
8F<i
tu]j
P.iW
IH2I
&FHN4
?eiA9
$vah
	IykZ
_!]><
y/9x
WIa-
j>MZ
kbm8
`_k+1v
Vxx=h
eV9X
MO+R,
?A[u-
IIjX:I
fudr
$Zr@
FKYRS
ZMJP
|7yU
QUJ`'&
dRkM
r}&l
X"ti
yrB.F
[q(Q
x6M_y|X?
IH[8
8P7_
LJHi
3	%@
f`1(
m{`W
M4TY
TI	@
[%j0NByN7
G=D(
]9Wl
)lYg
[$J\[
3v}^-
;QS!
O[Z[
J8Ke
	GCi.@]i
vvaG
!p^D
R,(z"\L4jQe
rIt-V
eu?_
W7t@
xK)3
<M2Hy
91e?c1
\Yyi
Um:a
2y*+
8/$+
n(jH
">S-*
#_	>
`A}e
E/=` <
%Y>U+
5	2R
~>LC}zu
0*mr
+-vQ.$P
U	3k
+hLV`
[!,se
ML+H
pp>:
Ual-f>J
d~W+
Ld-J
}^#/\
9<r.
yiN8
`tDz
+C= 
 +6_
f)/0
Ad3$HB
`\|7
z"?b
-BmC
w>oy
/7[T
.+17
,G?..
0bWC
ip)?
?i4d
`#;a
WV{j
1".YiO6
Y2E$>|
Y/mcz
2\DK
J.[L
Yf6i
o~7wc
^)ep
*8t+
#KB|
`)nt[L52P
x\-J
<`^_
tG;~p
#30,9x
dI']}
AxbwB
Wy?%
:DQP
 cEi
|fo.
+$1%
@=y$
c52w^`h
5'%v
ooH 
C6y1
xups!
~>Al
1I	F
H H#
to+(o
JJo\DC|d
>$DW
KJdkB
ocau
<.@R
cE/U
L{)#
@CjcWaTtFr
X:N&
/'(Q
`S-6;
+R;a
EUB0
89@*
BhT6
%z'8O
c8wD
DVH_	C
Av7.
(<_>
oC;j1s(SKYIQ1
1}}(J#l
!&T]
C1h%
V[#C
[\jKi|s
'frC
mb(d
H1-8
 (OT
L 7A
i5hWz
[yAs
pLYk
RA.	
V>"t:	7
q"gq
Dd]8"z
oqbW
W/%}_
jdJ3
gP?*L
874,3
8'Xh
:/xg
:7ui
;G6$
;7u.I
;''1
;7q5
cF5?
;WOS
;/<T
;?fW
;?,[
'lN#
<_-@
<W1ON
FFN3
=?} 
=gr#
=wI%+
=7\E
=/3F
Cw9$
C_~p#
C_Yw
DG4'3
DW.R
DOhX
Dw!u
G'~@
HW.#
Hw`/N
H7?J
HWZpN
J'#;F
Jg.H
L?,(
L/{0
LotDF
Lw*j
M_<O#
MwD[+
MG%y
J0#bK7*'FF*	
R9,<_F9
U9-@]?5
S;,BYF3
R9-R^E5
PADDINGXXPADDINGPADDINGXXPADDINGPADDINGXXPADDINGPADDINGXXPADDINGPADDINGXXPADDINGPADDINGXXPADDINGPADDINGXXPADDINGPADDINGXXPADDINGPADDINGXXPADDINGPADDINGXXPADDINGPADD
