!This program cannot be run in DOS mode.
Q,Rich
.text
`.data
.rsrc
query.dll
msvcrt.dll
ADVAPI32.dll
KERNEL32.dll
RSDS
cisvc.pdb
 SVW
PWR)
K3E2
TVWR
JJ@@@JJ
Y_^[
8csm
?SystemExceptionTranslator@@YAXIPAU_EXCEPTION_POINTERS@@@Z
CiSvcMain
??0CException@@QAE@XZ
query.dll
?_set_se_translator@@YAP6AXIPAU_EXCEPTION_POINTERS@@@ZP6AXI0@Z@Z
__CxxFrameHandler
_CxxThrowException
_c_exit
_exit
_XcptFilter
_cexit
exit
__winitenv
__wgetmainargs
_initterm
__setusermatherr
_adjust_fdiv
__p__commode
__p__fmode
__set_app_type
_except_handler3
msvcrt.dll
??3@YAXPAX@Z
??1type_info@@UAE@XZ
_controlfp
?terminate@@YAXXZ
StartServiceCtrlDispatcherW
ADVAPI32.dll
SetErrorMode
GetModuleHandleA
KERNEL32.dll
.?AVCException@@
8MZu
9=0 
t%Vh"
V,GY|)
M___w___^f
)7[N
#QPC
CP!)
)^Pz)
)C3H)
)"P:)
P;m,P
PN)2P
)AP]r
aL)/PG)
P;lWY
ER]y
X;lWU
@ul[
Pw$K
,p -
P;lwV
w|wS
C[ulG
BVt%
@ewTS
lS"?A
uls9
PuTW
iyyW
wTKS
) ]4x
 lF*
PwdK
 D}*
@wlw
<d E$x
T_B=
@w\G
Z_J=
CRulS
) ETx
w\WS
89 e
Pwl_
o\wlWS
PwlW
9Te|h
o@w\W
89 %
o@w\_
PwlW
Ri;&/{
@hwTk
PwdW
[wl_
pwlW
l[_xR
wTw_K
) - &
Ri;&/
PwdW
 - &
@!wlWU
Pw|w_K{
i,&.
\wlw
Pwlw_Ji
iyeR
xu|oi,_
SiEV
w|ci,_
PwdW
CVw<?
wlw_Ki
>(.$
CVul3
CSul
T_yb
w|S{
wlw_Ki
QymR
|w|_S
CSul
@w|_
T_J6
(\_J
e mTx
TSiaR
@w|K
1 EXy
PwdW
d[Q6({
XwlS
(lkA
SiEV
) % 
SyEV
-T[d
Pw$k
( E`y
Pwd_
PwdW
nwl?S
Rwl?
RwlW
RwlW
RwlW
DSw\W
. %`
#Nwl_
ASwd7
PwlC{y
@wdK_J 
t9@HwlCS
T_Je
CZul
Pwl'
 ]`x
wTG_J5
Pwd_
PwdW
wTG_J5
T_Ki
Tw/"
- Vu
M{(u
Pwd_
,#_S
) ]Xx
wTWS
TSIIR
PwdW
PwdW
Pw$;
 E`x
 mlx
wTWS
:wlWS
[fQyQV
T_J-
lg":
@wlw
A_uy
o@w\w
@@wl
wl_S
@wl_
P;lW\
Pqls
P;lS[
 m@y
CZulW
@w$w
SVulW:
@ulw
89 % 
oXD)
@ql/
P;lWT
{	ulS
8!@\v-
Pql[
~ m\x
T8F_
{	ulS
CSuls
\ul[
CVulS
C[ul_
\["9
@w|S
0yT%
CWw|
 &UL
Pwdg
_Jlx
 ]Xy
~T%(
w|wQ>
yT%(
TE(b
@wls
<i Elx
9T%8
P;lWZ
@wlW
Ui;]
PwdW
 @X]
cul[
;l_Z
:drQ
D_w\_
@wT[
9 mlx
I"dA
Bxst=
9"dA
zL{Au
"dA	
"dA9
"ly	
) ]4y
@wT_S
@wT[
"dA	
D\w\_
\/(u
l"dAI
+ e<y
2""dA9
@wTS
"dA	
9 m8x
@wTW
EUw|[
@>8i,8"lI
D[D)
"TAI
"dA)
PwdS
ZdAu
9"dAI
9"dA
9 mxx
@wlW
) ]Py
DRw\W
kWulS
Pi:T
PwdS
Pwd_
;lWY
T_J#"
9C2P)
TQ-x
~TE@m
@q!(
TE(b
wlSQ$
T_J9"
TE(b
\W"Zv
T_x)
Ti,&..
i,&.2
(\iA
P;lSQ
9TE,
wlSa.
AUu|[
P;l_W
CHulS
`tlq_J|q
i"&)
CYw|
Pw$O
@ul_
Bwl[
{	ul_
@BwT
PwdW
P;lG[
XulO
wl_U
R_J%
cwlW
P;l[R
) m`y
PwlK
% ]Ly
Pw$#
!TE$
@wlSQ
CRulC
PwlG
Pwl_Sy
Pwd[
TE(b
@wlC
{	ul[8=Z
XulW8
\ul_
TA	"
TulS
 -@n
%Tdk
%TdkzT%
i:&-
y&-7~CY
C\ul
Pwlo
a<i ]Lx
}q,&
CRulG
T_J}
SAIU
(|_J}
%TdK
m7{ -
@ulS
<(.0
Xw\WQ
) ]Ly
;lW@
P;lSR
qi>]
oXD#
89 E|x
Pw$'
T8 F
a<i ]
o@w<
Pw$/
) ](x
PulS
9C(i
9Cpi
!TE@m
PwdS
PutG_K* E
_J|Pa,
culC
C^w|_
;l[S
PqlW
CBulW
;@|wl
P;l[[
P;lSW
@ulW
a<i@JD+
.M%F\
lC"F
wlSU
Pwd[a.
TW"m
ai,\
Pw$w
(\_J>&
lW_~
LWPD
;lS\
TE(b
yTE0
m_y;
yTEDm
 Ehx
o@w<3
) ]dy
YwlW
PwdW
89 ETy
89 E
89 EPx
Ri;]
o@w<G
PwdW
Vw<3
89 E
o@w|WQ&
) ]`x
o@w|W
CXulS8
Ta<i2
 m x
o@w|W
ulS8
o@w<
i,&.
CXulS8
PwdW
C\ulS8)C
Ta<i2
89 E
89 E
PwdW
89 E
) ]4x
o@w|WQ&
YwlW
89 E
BhQulS8ZC
ulS8lC
89 E\x
@ulS8~C
89 E
;?("
o@w<
Ui?\
{	ulS
8! -
Pw$k
T_J|
T_J,
CSw|
Ti4\
(R_B
Ti4&/
yTEDm
Ti,]
9C,#
P;l[T
Pw$/
TE(b
iyUT
iyAT
TETh
~TE@m
~TE@m
l8I@
(x_J
-@Au
i:[v
P;lSV
9 Ely
 -H&
S@ul
Pw$_
yC0(
{	ul
ul3u
ul?u
t|f;:%
li#\
_Jte
_Jtf
!TE@m
9C()
T_Jtz
_Jt{
_JtJ
P;lS\
P;lKZ
;lSP
#@|wl
P;l[]
P;lW[
@VwT
Pw$_
m"`v
wlSS
yTE\
i:&.
[_y2
%(j_J
Ti>&/
i>&.:
;lW_
9C,0
;l_Q
P;lOV
XulW
T	ulS
X;lWY
{	ul[
twlS
(x_J-
wlW9
@ulG
(|_K
 ](y
TQ+&
zQ+&
9 E|x
yTE@
Ti,_
ulK8
E]]M
@ZwT
UQ*j
P;l_[
;lW\
6uT[_KT[
L6uTY_KTY
T6uTY_KT[
T6uTu_Kl[
gwl{_K|YQ,*
wd_Q
BGudc
P;lW^
Dv|X
ulwS
yC:9
9C<C
~TE@m
CWulw8
)kPe
9C0B
yC?!
 @CDi
Pw$_
yTe,y
yTEDm
{	ul[a<
{	ulG
;lCZ
LwlGS
ii;\
cwlG
cw|W
CwdW
(lQ#~T%
@wlW
LWP;lO\
lW_xk
9\u\h
P;lK^
\wdSS
A@wdG_K=
9C<O
PwlG
	ul_
;lSQ
i,&%"
Pwd[
 E4x
Pwd_
yTEDm
(yTdI
-"lI
$yTEd
ii;U
~ mHx
~TE$b
i:&-
yTEDm
(rq3
Lw|W
P;l[W
oXulS
Pwl[S
 @twl
(YQ&
\W"+
VwlW
nwlW
{	ul_
i"[D
{	ulS
/&eL
9 m y
C_ulW
RiyMT
k]w<
 k_x
8!Bs
L6w=
i:[K
~TE@m
! Etx
Q,yTE
LWPq
9C4]
yTEP
Pw$C
P;lW\
P;lGZ
: ]_x
PwdG
CU_y
: ]$
: ]_xS
Pul[
{	ul[
8! -
9CDf
opwl[
lG_x
zC&`
zCb`
zC>g
) ]Xy
^w|W
% Pw)"
k6ulk:
yTEDm
CFul
(-@)
TE,b
@ulO
ii;&.
@w$#
ji>&.
) ]Dx
wdSQ
R_J=
~T% 
iy=P
~T% 
~T% 
~T% 
wlWQ$
9TE(b
@wlW
T;A=P
i+&.
nwT_
m(-@)
kyAP
CLul[
PwlS
 k_y
) ]xx
) ]@y
i4&.
P_J=
PwlC
c_yO
Q_pW
l_yK
A]t=
A\t=
C]ulC
C\_i
@wl_
yTEDm
kkw<
i,&.P
T_J-
AYt=
yTE@
9C$x
TE,b
@ulO
T_Jo
@wl_S
) ]Hx
@wlW
;lWW
LWPC,
P;l_Y
9C$~
9TE,
9TE,
9Cl~
9TE,
9Cp~
9TE,
9CT~
9TE,
9TE,
9TE,
9TE,
9TE,
9C(}
CUulS
 ]tx
@[wlSS
;lK\
y mDx
wT#_K
PwdK
;$ %<
yC2;
~ - 
(\6uT=
% - 
Pw$o
PwdG
wl{S
T6uT
Pw$O
F({S
wlcS
@ulS
+@Gwl_Q$
$(c_J%
^wTK
Pw<C
wTgS
P;lS^
,@Iw
 e(y
TY<&'r
CWw|
;~T%
Pw$;
Ri;\
i,&.W
@ulW
CZul
DSw<
PwdS
)",y
gw$[
) E$x
ZQ=&
Ti-\
ZQ=&
Ti+\
P E<x
(z_J=
ZQ=&
Ti-\
PwdS
lSDu
$,IP
 ]Px
wTSQ#
AWwd
D\w|
D\w|
l__~FT
l\;-
9"lyY
9lU\m
 m8x
2"lyY
"lyY
 mDy
L3"lyY
i:[L
! Pu
9 ]<y
T"}B
{_yw
85B"
Dw<?
lW_J-
C_w|g_J-
8 -0&
"@]]
wTWS
=(i_J=
_Jdxa6
(Q_J=
_Jdxa6
jQ>&
Zw|W
\_"d
wlWU
LWP;lSQ
Pw$k
@wlWQ
P;lGS
;lSP
(x_J-
_J|_
CUv-
 Ely
Pwd_
Pw$o
ASu|S
wT[i+\
P))8
k\w9(
<&/u
i`w; J}
tP#) 
Pw>&j
(tQ;
Pq,Q
&Jw1.
u6&H
(rS3
:!B7
S*j J
9@Ywz
)%P*)OP
)(P7)FP
)hP;)[PX)*P
)yP )6PR)]P#)EP\)IP-)HP+)XP
)kP8)OP
)/P0)AP
)oP<)\P_)-P
)~P')1PU)ZP$)BP[)NP*)IP$)_P
)dP;)IP
Pi)XPG)6P
PK)+P()ZP|)	PP)FP")-PS)5P,)9P])9PU)6Po)~Pv)
Pf)xPv)
Pm)dPf)
PY)/P
j#?)
EJ5Z
<Ps[d
)>Q%
-Mj|
zmFS&
qL)	
mZIJ-"
)"-:I
p]L=0%
%0=v
s`O@3(?
P9tr
~(3@p
0dTy
yfVG:/&
&/:GVgz
}jYJ=2)"
")2=JYj}
m\M@5,% 
?M\m=
2z_+
4g?8i
q-$G^
*&#k
320>}{
o)k<7
l\?OS6&^
'8)P(2
fXB92-q
}l]P
bELY<+"
x?SZ
:tq.q
xO["
yKO@
w|&#
|t{A
IE9:=B
C?h7
>ENH5
}[-R
hA	p
[FO"
GJOV
tW7V
^ppPMLM
z`7f=
92Wd
En-"&u
!_%9
tAf4
f}KH8
f1GN
73If
	YE&E
d-K)7
D\]`
m8NU
~_ac`
I>\}
&IYO
1#"$53
7/~gfg
o<t[
e?3.]GXd
rA8lG3K
yl{=
RI3c
7t|>y
~tw|
b@4M+
KEE\
A/B{
hJws
\1[o^
yY<t
iViL@X9#
Trx]
Fph3
~e@m
|vkp
uzn]
s	a,
}Vd,
e")$l.
xC\j
4*M1x
tazvis
WJ@y3
9	9m
N|h'1
'Y2%
t/4l
Es p
h)qX
2706
V#:J`
D'u)
=0$M%
QHEvYt
[$.]
],RP'
2"A]iN7l
bT<c
*3vd
K}nj
1;1E#@J
A$._G2r
)^=*
Ji+"
H	h	
A3&h
B'oB
+P^d9
@/"&{
h;A9l
rSa/u
j?96
P"Pf
8@K{
kV[,7
*B1U273
8rC%H
z&]?J
;u>(G
u0AT
aMBP~
um1.}X
uU_AN5E2E?{
K<3^<IU
a<e~mm
]%F0
9`j0d
NyqS
VF5p
MZ$P
mL7M'
\<o_
\L;~
Wa+$:
r32O
iT4g
9QB3y
rC (
pe0%
xS0W{f3
f,Tkat
j{N&
Rk}NRrO,^xqk
!]O@
uc#!
=<Cb
-%dRC
wc^$
tZIOud
}RI<qw
?q'r
d+GQ
g.EF{k
3+&v
]f	t
z6vxr;
m4PZ
$T=n]P
&/al
,B_o
&0/x
PV]s
p 5<
?jA+
ybJ	
t5A>
4 lS
	z6[
)D>B>
9QW=@EL
5&Wz
mJ*G+
AeMH
GD?<<
VBHU
ls{x
qsc&
T_Vy
69sjt
_9yfEu
,9$C
IckSX_h
*R9[||o
!)nz
T_+g
'&v}
z	$A
+\`2i
p;QX
6Sfcc
t4|QT
@`]e
0+3BL]|
urqej
HQ7dPdK
PI-]
v~1{
Vfrj
@r8]
%\B!
}N=~
4s;:
wvwz
a[1.
]W?jO
')M}
lY}^
BfX#wB
\<!R
p0Ba
E,~6
e]ICmXzURJX
8zlA`xO
m^Vg
PR8]
\&2i
~V;"
 3|x
1$Eqqq
d"3a&
2\n<
%QX:
Tg@*P%
5.::
#X^tkU/
%Nx5
>`#e
#mS.W
LeoT
mR9"
BFFb
<XG'lN5p
zoj,
gL%4u
iBf{
bq#e
7t:w
RH,c
eJ5k
jEUI$
	T@Bmc
%W(j
zK@;
o$#+
]@!0
s\FE
\waK
.6vl%
q:dK
{14,o
]()e
[kd;s
qVC{
vF3"
TB/r
l1@L
),	1Q0
nU=:Dj
O/x*
nV_/7
Y(LXCgO,	7
xj}Wi-
cUC}
QEO~t|y>
"@9]eR?t .*
z9*i
OaZ:
l<Ug8<\9
Hb[U
XU~5
ZRB~
w)	6X
5	vs
ob^-
O ?M
$#gVH9
;54Oa
4im%
6+"g
=;VVRn
L:1u`\
"dWy
90(FV
yc>qH%
=5?X}
|fAmK(
3}to;
do{Z
1 T3
q'|:h/
GK,FT
oSqM
m5HN
5SH6
K+8C
3w:MX
M@Ph
"#"v
aQtC$
?n4f9
C\x+g
-,,w
KJqG
xS!5
qBhvc1sR2^
1)P$
765F
_ENY
q-25
p27W
aA	pp
91qZ
~Ol5
Ub&	:`
VPIwUl#
?}V)Qg
:UK-[z
\XLMPU
ra@:
]6.6
/L6p
7E_2
H:uf_Z
e"#y
RMZ^
tTxK/'
jAiC
f9Yq`
vU6l
~.fa
{Mj.i!
4l i
iS-d
0+[QP
BB `
h)3._IXd
rS@X:g3PN
2q=?v
uT|R
wL!K5N
fI,[
xP?y
SD1*F9
{4:8
|O$E
Og5|
q?`v
Z2.p
'Wxz
]N;4P@
\1Ro
_4^Ha
y\?n
bYLKui(
$!iM~
sce6
(yuw
DZK7hL1]
pjF"
#Lw+V
21-te[
#_^q
a#Qd
N>HY
)rguz
*&Wje
b&.8
l&yNDt
fLj*
A)KH
U,);$
fF)N5
7){f
m) X
b%9yAM
Y}TB
m{qF
\4,)
}5Ni
la{=
uT^,
dyG9
HsQL
@mE\
y^Er
J`0y
qEM,
:.iA
J.X>)
T$GP*
tM~S.=
1(~N;&^
V";R
E8=0
D{O#
ht{U.
vK,M
Z%C$d{;
?(G}
^7]{h
;/H_
jwCH
f1M 
|iIw
,bgm
&a-"
|Ig{
G>G#Hd
lGY"
AJ&Mg
r[F|
d>;}
o:V)
U%AU(
-~#,Z!
YI8t
'KF^q_L
djpk
c%~`
?OFrX_
OB3tI
j>Sf
.EVU
XK<zb
w=L]
UM3l
~4K	(
xS*#
&1=^
 M.<J+
 j29
h;%/
0d6UePVZ?
 # r
KJoj
lI)Ut
/+&v
wcb$
a6	1G
 	;_|
TCw`SH
PFpOZ
64bV
xId|
Q763w3Q]IR]j
UFTL-
=Wfu
cXOH
WOMa
CHOG
zx6#!
!I0z
-@BC
{%2;
V3#7
]0Ms
xy]@
5w?:
1[7o"&}l
{T#<
g>fA3
h1D`
Z1]s
3X:h
!RVY
*%VDK
ZM,(<
+=)"M8Y:.d"
ccdg
LPE5zp|
$y8uI\
eF)Z
{zAE
hT3!?
DwAJ
!5qm
u}P%H`
X(L0`
q3}>FA
^P3gNL
:6a~
`NaA
]yybO
_WBQfQpFK
%vvu
p}v1
)I.(
8K]T
GWsVJbAU"
A1c<
rbs=
b>(7
P^,*
XA I
Td3j
"p%"l
}veL
Y:gi
xC[f
N,U;>0
I<Lp
TgV@)g
sWo2
gQA]
xR9"
D;8iOe
 [\	
g FX%
o|I0
"oG Awj)
J;(r
E:$a9UX
N=2[=G
@uSAQ
II7w
k[Bq
(`Wu
NB'dE,G
DwoO
s/Ni
sH-8	
y\Ex
-cXX
(]G2
)	8V3
nXA{
)(\N]
]I#H1
yX\}
Z>kN9&^
0H_d
>R)w
xEhx
D Ha
vJy}
c(7O
f+6@!
Hb\s
~Wyz#u
f,b?-,
ijjA
kWB~
2lqO
a'%7
q]7d
',ip
byF<.
/N;r/7q3x
p:Mb
Uv;J
wsl@L
;e5Q^
/@BLR
)9_nfn
|9@D
E?2#i
<EJ[
@!-<
07-E
wQcx
s+"^
3(3B
z.5\
7\L%
<+uX
kS)R|
NF,e
8/$m
UJ@	1
O][$^ 
]3L&
W)GV
=J(I
#f*V
.Y*1
bS+]z
iFd_((
	f|n
q8IS
6k=[j
DLYi
=zBC
U5a~
W=	Dj
dOge
_<Cv
IQC=<=@
iCf? 
E%~p
n.:e
fZR3
r(wt
R]a/
~u] 
lZ~P"J2I-_?
pUB+$
Qik}
9.nim
B{aa
$%_uv
_ZWV
< Pq
kwm>
4rFfw
X]`-
IA*kUI
/n$i
wN}U7d 4K
iJ-^
nQz*
"Mzk
{orL!=
GoVx
+bhi
{49:K{{F
~Gem
D>nchnS)Q*
F?Xj[=qV9l
^!X;
8<vf
{||ly
OF`%
C C`n
VT\#
\F+e_
z\]`
oD0@
q<Q_
s	^ry
hJ"9
KhP0
T 39:
fK2f
o2Ic
m{IFx%
E|6@
-BUD
;<C~m
@XEo
YG&]='\
~RE?O
v'pHh
u6~e
fEB	
?)2=
qElC
msa,
~U.	mHZ
ed_m
e2OV
_%7h
{UfZ4E
b]JTraYa4
Kcd]
XSxK
!!tEi
4`.{Icn
P_FDbIgA7+Md@j
+^3i
5IQf
W!9BJ
+J3"
dLT%-
h&11
oVrED8
g3a}y
rewQd+
uN)U
{~h1s
;=Pe
E@MM
p(WC2v
swj8	+C
\GXDQdy
}S?O
YIx&64
o%BS
2&ZC
V"R}
D:!`G6<bSOB
\L{)97
hQ6'B
9&<F/M)"
OgWrg
R#BV=MP,
?[Nj
8BDSdw
jX G
gmi$(
XSA}3
c+>D
p\M@5u
`qdZ!
pU<ST
RbPT}k
s3vd
oP,Y=
h(53
ugHf
s))h&FTBMZi
~td9
w)A_
R:[l
<50l
"R_U
C3X0?;
RS`z
}pKKA
jPy[:t&#
SI?:76~
x2Oh
`? Ks
KJFG
<;/n=>
>0u[UP
s\=[
Akdb[
Z`lw
!Zz	3`
w5b*
FnmU
Fb\ZY
k$+!
eI4S/.&
9p0g%Z
NcqMt
YKf)
xATp
q@Lz
/vvO
k9Z@
1/Xpx
YQ:sae
0R}9
ecY&
A%1K
h}?%X|{
  9V
`ZB}
%n""
\I<<
C$=Z
mC["
G678
znP}i"d
RH s
R{P7
mF,^	
~?UY
8U;$q
rwht
U&4H
1f$Y-I
j7TUN6
pV;ad5=
'#JKu{
|q)x
99,C`Szb]e
M%I^
o}zN%Bg
c}J.u
XJ%%)
W/Sh
,{'%
}']b
~vI-s
Y}S*
d<_u
pU<l
0u^Zk
dwB2&
p+34
RRLM!V
&r	4y.F
(iR{-\
P9'DP7	B
F3L~v
nvt}
X%>R
Y1ep|
H?6n-
RI0L 
l9Td
rYB-a
(FR{
VI#%
nDg`
N9&^
^M&_
b_&&
]CO`Fb<4(CaWXJ*
5q.b5a%d
rb)%
;lE_
CvEm
S-R:
EOYp
(E(d
f#..i
rK&J_
1:Dt
U%AP
]3?0
		 hEW
+	5QH
r[Fx".(
2pm5
63f{x
b9'5
L9(^
#:2:[
qwU^AM5D;q
{%Wh
|,[EG
00i=
9;@i
jQ4t
{\I98&
l<Ug
Q, a
6e_Z
m!T"Q
ZdV'
]g[e
O-Xtk
EQK%
yWPv
Z"2;
\f^6+"
6D2=JY
f~Q)s
$*o{g
pqnw
?BNL)
O`YN
b^#P}"|
6##$o
N7/(v
+"(/
$P%G
aW>veW
(5yq
-#&#u
&*;F
rE'9
>~5C 
h9Vo
?FN =
?47<
&L1Awo`
RWz&I
yO#D$C
r1EA
+<N*Q
:$2:X
nQX#
r?K:'}
|Z\3F
x"/8
HT)f
tW7Vc
DXT/
!e74
J/BJh
h?"+
J^ _
rSu@V
dDc8
Qea<
uX&G
jApH*W
{Mr>
]6A`
lX*i
~,-#=p
.l2G
t|EE
KVtE
_3B"I
qts~
P%D\3
]F)a
);Mm
h)?=
[N|ps
@pX=)
t6DC
^T82PCr
zU*Kh
y0#y.
iVmLHX9#
[&;M
zc8:4
vDg;%3
<OkyfP5g<
$&If
vO]4
gH%_
Vae(v*
{*Q-
+f~F
TwK5C&E
+-`]
xa`}
g"+*{
[G9En`
.J%;XD+g
k?2,@qk
:@^5
dG.j
pU<%X
+%<Upt
{z}v
{#Hzkf
KY.8
PJg}/
Yr|a
y^E.a
Jm>w
dM2t
OH4v"
FH8#
hLTL
cFE3
WX1TpL
TP:w
+Ml7
#k:"JE
\!0r<c
|kO~
hZ.b
:MX/3,
'rLd
i~$Q
n-sB\e
a>a~V
Q=.]
"ww]=
^qW6
rzhP
*Zpyd^
rc."
It2a
|Gj6
v\[z`
>x	C
+?+'
flNWGw
bsO,
nYf$Z
*G'J+z4
QdywQ
sG<,
CTga
;2;0L\h
!'Jo
="Qq
LVSl
9+`G
"0=L
qZ6(E
r]9+B,
6+mR
/,7D
GE-+ND
BO`ba
apx?
tr1'
sU[6N
U^ct
[-KZ
SC8/t
A"(z
K|hd
?!+r
~w5%
-0[|{
C8/{
("x5
d?F8
J)-}
j|Ev
az;<iJ_<y
:H@@ELU
JZ	A
[$7S
N*Mc
-se\U
tjXSPO
e_Ss
"	x?@]%
j(Jf
D8qb[V
]\cl
[@+J
<<Mc
>Z_f
<#63
~M#H
zhc`_
17f*.
. K/26
cSv{rk
obl)
I@*b
q:O`
{zLh
X^NE
k,AF
JbjECK$
yZ=j
w#frJ
YG};>
_5Wj
)	0J
1gXf
RHuaf
	z^,*	
ZIVe.
{|,l
@ZqPd\;O
^)BP
[8:4
?xdHdaEa-
=2Mj
 9Tq
y(9F
;~Ql'BnY
ZDn}
hd]Y
sHR@
%(s^
9nKhv0
k&/-~
@/Wm
rs9T
j%5-
`&Xi
5i`l
spUz
w27p
~:.aU
|#iN
~>n-
8QXa}
b;@0
+%}]\cL5h
/;nQ
.{d5#}
_e\L
B9Oh
|GTt
_KFz
/$7L
Morl
3k:^#[jR
Wf~b7
e<<`
b"Ed
'#5lv
D|Ge
a{>v
d0^zv
~7s.
|T$JY
u~u^^
h;Lv
zp[|
	UA/ ^
*m88
B5	b
+`?L`
)@f>gr:
aWjp
\J0#
'3@Qdy
BVF][
#1H-"6V
i>5C
0pL)Qq 
O<&O
{El<0
aL!!
m5@EN
uT&F
R#5$
|aoUfRfVmk
[Ep2
lRY/X"r
X)DNl
u5LYj}
tk/FU=
W@5,q
Qfj*=
e6Qu
JF?u
!HNq
OD;y/GN47<C
?jJ*L
tQ#8
-!/L
N7d7
`t(`m
~}p]
7dbY
JVLJMRY
5:Z#
YLMP
nM\^
ckFSX
}b:Y
rjZWVW
>~K,
rib]
]#Sir
[H*Gc
d^e`
'Jx.:
`2KW
n'(e
*%D|
i2%d
H/l3
h_=]
72zgfg
xBhu
EEmXj
g^ij
XUNL
4_Es
T)U|to
#87T
p9S$
LDEk
:_a<@
qS("$w
;xGSh
Qssv
L=`3
c~bF+^
!ufIy
A-#d6
9_$J
NcTP
4-"t
<;$&
P1T8
)fbV
hhG[)
"5B"
(eUi
rTA+
<+	~
"}5<2
("Fgams
:+Lk
4]E,
e[RK
xCXv
|OzN(
lz?+N
	bN/&^
Zp3DJ
26=s
&"=6
~/%s
x`<D@
I4Ea
{8^Ey
f[w'
|Z@e
[OFj
9,Ns
bO/]
sD<8
C"eb
(.a&
mRx%
""!U:S
}))\
l#~W
#2zY^n
l_bK
|Icn
(0;u
	u%x[
+W;^
+~"Yp
qQ8a
k>;n
7/*Ut
Sqyb
BV[	
|+#G=c
eP=t
'1>{
5@vK
 ~/=
r|:%D
ROZ4
84#IS
8	'8~
rf|[
!+-<M`
rI=E
}KN@G
".=|
-zpi
_M3&
*7FW
HD3?c
r&U{
jW7Z
X3<P
o-AW]p
+U%2
B0!BV
CLl>
SVgz
R`V`
xm90
g':;
~u4)
 p'3-z
k61L
J6e3
'&r'E
)	b!03f
zbYziZ
0G_F
Rm2@
rCl9
d34D3
$HS2^{
YbVK
47z<`rds
xIrD
H?}3KQ7:?F
#z&m/P
#&]Fhx$
;"t%+
u4?F]
nVTw_}VOG
>HC@
HEha
S&?W
-X@=
.%OJ
h:_+
OF$B
WU\e
tM"X
5T>)
E"]?
VU{J
C>l"
S'>J
}d@pKh>
t7-bi
hyA8&_
}k$*!ihj
D6e`
*r+.d#.
bC&S
'x!s
LUy5
-n	^ohjg
QC&a@%>	
Yt=Wc/
h8mp
lP9P
s3|hIq
xc9=
2nP$
aCDG
)I}z
[=cy
v9rP
uq[%
<pqc
cKR[
|);unx
!9+yNq
omY%
AH&w
[Cl,
n|Qs
}WjO
"y)b
8HQP
845|
v0umn,~
4>Q!
|zf2
{%fD2
w&$V
H!3]
\w];b
T6s?+
<E?H
?H_qX!
[+]}}
XWRY
YQ4t
cWmH!F
&L	y
`IQ@
DLSg
;X1Wn
hY4D
1.=D
u}Q^5G<0
,+;H`m
{}m=*
lEh|
8+G?^d
Hj;C
\3N&
M/F3
-h<)
ziPNq[
A5?t1+
J_^TB
M:)Yf
)>:v
.l{_
RG?z
F6^g
n$3w8
|Wh:
vVC2#]
r|=*
9+>5
_-}Z5eVu9
>j0w
|F]r
!A0#k
c.'R
HTN(
gv'9
tp8SX
a~dDwh/Q
Q"HVC
msk"
U&L\
%s9awm
un2IX
 %q5[oct
x{~	
SGrQ
k\SW
F;2z
tqs7
}4@:
UDY)
L?83{
*uF\u
`:hS
'm<W 
C=<=
Yz,K>
$yWl0-
T~K`
q1[w"
j_VO
$bXJX
8+ Q
36sex
squbBv
}{a&
:NUN
]6(6
J%?K
+MF@yyl
Rs1P
<B28ca
*VAS||o
?A9o
MOWZ
Qdcy
k2x 
I8&g
k4GW
)Sw?
3ApCct
[okF
ejnA1'
.-FP
mJkJ-
!718FVc
H{7I
H1*I/H!
J+Nv
sstw
N3Qy
F+#u;
kGo?7#p
\CHI
WyZ{<JI
Z&Pd
$Y*B
p_qK0
5SDedF+a
-,TX
mgRava
Q[S&
66):]PyWab
rq\|
kc[e]l
&?Zw
?cV~\c
cUuK!Bc
`F!2u
{JV'
f1t=
$tK%t
>?KxC[d
 1Jz
C"l!
73Lg
u&nU
_HrMR
8#2Gy
n(2g
lQ7b
?D01Y
Gdl7
[?BQ
4"9P
mZ`,
g;U+
'<Sl
UH.b
F%QmX
"TU7
b+=K
X9#q
YB-b
!YP*
N}m.R{
!Uh$
%#/k
[A,_6
-3I`
ZF E]
bZ<&
I:k0\
>|Icn
LY4F$;
86::
gR)$%
30axu
rgM:)e
m^uby
u`7i
GCV%
-FK/
Q%HZf
/H/M
y)XbM
[6^y
n2;~
w xo
_p4)
9	x`
^9UN
y'Wo
lF?H
l<Tg
KQb{
D?69_[*
 q?_
m%0M
+'#,7D
8v&_
;Biz
j!$#.\`7	
aL.E
p$Io^
e##e
m9w`
2eGj
N:Oh
 is3l
V$ySn
l+84
qLYu l
L	/CY
^;$6
.s0q
[RD;
zW[47<C
u{="
v|sx
vr`S
*3/0
uFl|'M
~Z'E
@?~<\jXcp
?W^DGLS
99vZ
|_vsVE88(
X!4D
B#Uy
{O.2
3vrB
g$;A
=`Jv
e;]6,6
>(!&!
c6Ug
f^VSST
uSW^
sF_a@
ynJf
`Z]b
EWO9
G)*;
HKWa
D8ohc`
r;NZ
2lsu
 {j|
P3tO]
7V|q
Q0g|
x144
$EL!
tr?	
nW=ZF
	B=Wo0;?
xqpo
J4rS~
L5Ts
xaGd
LB[x9DH
S@|]
atv@
+|8h
](DW
h3HZ
#<WY
nLkuCH
nRJACl
(aeu
2ZU9
L<l#
t?Tg
,E`e
xCXj
$i5<T
ej,-[
yUhM
L2Lg
Y~I^l>i^5
13lb>
|s:j
h:UnV
;]v)
S 7K
P=%D
s5CM
tutA{
F=+YVP
MFY&
@bE!Ir
dL5h
X3wO(Kk
QB*RJ>q
{Z!u
c?*z
[L4\SC
\5Xr
%|D0
h!_)
06Lc|
yc<c
F|I`pD
!ae:
?}:_
'G+0nXCx
t2_p
SjzNkqK&Km
sM'P
btU3PR
i&-1|
Y(AQ
TqVCz
+f5N`6
!Wv>z
Y@$?
a<a~
RLC~
%G-Dt`M
xcP?0#
HnBJ F
6F7*g
l[Fw
Q9-"
J]nO
KD4d
t<0%d
oV4R?)R
guR,E
RKAn
R#>R*
Y6]{
">m:G
y`>\I3\
%I1Z|jY
d+<J
f7!Z
Rfj*K
((hw
m-,E
eR6ZM=m
V{23-
RSF;z
)>c$'t
B.*'%o
`C7f
q8IW
MB9z
-Ec-2
j-,u
gK>m
o/88x
rC^v
S2[{
	rVd
?FOZgv
M { 
aD$:!
V\J=BI
#a_=\
|M h
PH@=<=
pcXOHC@?@CHOXcp
sf[RKFCCDGLS\gt
fE&	
wj_VOJGFGJOV_jw
L8I(N
l])e
Zo2X
MJHqRUpa
whpT(MV=\5b5x=
~~Xd8Z P
6s_1
W\b~z
y]f=[
_q?_']
rx`hJ^:d2j2
}h-&
e`s\neys
jcs_
i'q_
}Bn/
Ky+g
/4ed
M*%h6
O}/k
>Gpw
nXf8k
Rr:p*n
$5Mw
nDz$
Ur=k
s_pOu'}W
		?1ua
t35k
uxgy
0zHv
r=Zx
 *PT
	 9Tq
sV;"
#<Wt
vY>%
&?Zw
z]B)
)B]z
}`E,
,E`}
!0Id
$3Lg
'6Oj
Hg/i
kZ9"
*9Rm
n]<%
-<Up
q`?(
1@Yt
tcB+
4C\w
y^E.
/F_z
{jI2
:Ib}
~mL5 
pO8#
="APi
kR;&
&Mvp
#x+'
#8Oh
8$%)xto
TQS=*
bWj+
r[F3"
#4G\s
@FK"
\9.H
WF^m
7C}c
 8Lo~
+LUh{x
rmC6
hxXk
1UxK
g!)+
1:Lh
+2^Ss
)Ve=
LR^4T|__v
-M<|
?;U%
~X6c+
}fWG
7GWg
vP0!
{4e-E
9Qa0y
i&a9@
E_U}q
%DOw
#+^+
{VH8
)83T
06;|
{9u<
5),MD
S1;8
[*5$5
2"dNS
aB52
1&0-
KH7Ms
Gh	A
5!O;
}RtE7
'Z.c
qy]5
2p@ {
t`40
yj]RIB=:T:=B
R,j0
$Ft2
@?@NH
<[3s~
/`Yv#8
IGDFmn
"!TP
gr[f
kg3	
}hb7
#FgF%+1Ri*<
5itLR
k\.SA
LfT5
-g|l
oxGI
i"DdDob
*ADn
jr#<;
i.ot
}NvJ
=3$7q,
gggO^eN
QwU{
mV-{
|xpMCGP
7>~Y[
1}|j
apEI@>lZ$
I(L)
"C[Te
(w	e
djFo.Xc]pNO
3SEY
od43
@OGf
m-^+
fOOE
%?[TH
QC;9vpV{
BF]Pa
S4Ij
kzfvZ>
%B?-]1_l
?]wW_
W|?mU=Y
pg`+
#lj~
)Y}#=]
*QW}
7V3k
Oqn+
sRf(
F[i=
yFZ+
a;&5d^
AX0@
c.4d
lgG]
"9Rm
X@29
1Uf0
(Q_S
XS^4
4C\w
}xfE.
/F_z
zq\U;@,
#+! -'@@
Lp_K0
$>7,*
C.6 )+#'/
CB^tt
#Ek)
+JL,
>MOF</ +
36FThbu'
9fo!
.kI7
upiQBD
&1*.6
1Maj
)Kq/
k'lj5
	@`L<
BGIY
c&\6
u\E0
)>\u
x_H3 
2Q`y
{bK6#
$7Lc|
~eN9&
':Of
iR=*
*=Ri
lU@-
-@Ul
oXC0
 1DYp
r[F3"
#4G\s
u^I6&
&7J_v
xQ,	
ybM:)
N=AM
nD1V
S@O^
(O2Y</
K+sv3
"VC{
Dh]J
D]r*
^;b1
4J@f9
6a)?
P"0E
]Ci_
9G(C
*G9d
D#w,
eS^t$
7]%4
3eEl
0Z~j
LrWV
dl.=
auOvhj
61Mo
i+R0
h;r`-
2(#^
9DU3t
yfVG:/&
&/:GVgz
}jYJ=2)"
")2=JYj}
m\M@5,% 
 %,5@M\m
p_PC8/(# 
 #(/8CP`q
sbSF;2+&##$',3<GTct
vfWJ?6/*'&'*/6?JWfw
ziZMB92-*)*-2YBMZiz
}l]PE<50-,-05<EP]l}
o`SH?830/038?HS`p
rcVKB;63347<CLWds
vgZOF?:76
~b>.
\W8/
sf[RKFCCDGL
fE&	
wj_VOJGFGJOV_jw
zmbYRMJIJMRYbmz
}pe\UPMLMPU\ep}
sh_XSPw
QX_hs
`#tkb[VS?
U\clw
~xhI:
}rib]ZYZ]bir}
}\= 
