!This program cannot be run in DOS mode.
.text
.data
.rdata
.bss
.CRT
.idata
.rsrc
U0%^
F?,u
F?,u
U0%^d
^UmM
XEE(
XEqM
<ZE}M
^Eq(j
^Eu(b
^EE(z
^EA(r
U0%^d
U0%^d
^ME(
F?^Ei
XME(
^Ei(V
U0%^d
^ME(R
F?^Ei
XME(
^Ei(&
U0%^d
0^EUz
XEUE
8;8G?,
,^EM(
^UyI#
4^EM(
XUAK
O?,PQ
^Ey(V
^E}(
^EA(
^EM(
^EUz
U0%^d
ZEEK
XEM(
^EI(
F?832
^EA(
XEAE
U0%^d
^Ei(f
F?^Ei(.
ZJeK
$ZJ]K
,ZJUK
4ZJMK
<ZJE
XHdI
!XH\I
)XHTI
1XHLI
9XHEI
eHFH
"ZJ[K
*ZJSK
2ZJKK
:ZJC
XHfI
#XH^I
+XHVI
3XHNI
?[JF
n3w_
)r(J
:!#)r
:"#)h
:|A?,S0
;\A?,
:<A?,
:T@?,~
9@S!G
1wMm
G>-1N7
9@S!G
U0%^d
4Z}AI
8X]M	
U0%^d
8Z}AI
JdX}AK
U0%^d
0Z]AI
:"/G
,uRMg&
U0%^d
Z}AI
J?,9a
;tJ?,9a
U0%^d
U0%^d
8ZMEK
;$F?,
i(*?
U0%^d
4XEE
4XEAM
X}IK
XUIK
YUMK
F?YUAK
U0%^d
ZUqK
ZEuE
a?ZUaI
^EeI
ZuaI
U0%^d
0	aH
U0%^d
X}EJ
U0%^d
U0%^d
8XEA	
iC9 R
U0%^d
U0%^
0:;TL?,_
U0%^
M?,_
U0%^
GFu/
02;LM?,_
U0%^
;`C?,
GFu/
J?,_
j"XD
U0%^d
XE	K
ZmEI
(ZEmI
ZUqI
ZmEI
(ZEMI
 ZmEK
ZmEK
XU]K
X]ax
XEqz
X}yx
X}AK
XEAI
U0%^d
lUiI
4rcT
^}QMc
^uay
4P#V
^EQq
X}uMc
Je:k
3PcW
U0%^
IV(F?,f0U
F?8*
An(F?,
^,F?,)q
IF0F?,
F?XE
IVLF?,f2
^}IMf`F?,
MVtF?,P
02;t
?f0F?,j
?f,F?,
FKf$F?,
EM?,
IV(F?,
XEIK
^UIM
 ^uIy
C?,f8
 ^uIy
^UqM
lMUI
iC*@
XMUM
F?XU
ZE}+
ZE}?
XM}MFtF?,
VDF?,
dZE%M
lXu%K
K?,f8
dE}J
tF?,
s!iI
F?^P
F?:r
dE}HG
VLF?,
F?XE
IVDF?,
tF?,
VDF?,
F?^P
7VDF?,
F?,u/7VDF?,
F?,t
uF?,
V8F?,~
?f8F?,j
An4F?,
V<F?,)i
^M}MFtF?,
FK^ F?,
U0%^
ZU9I
C: j"Z
PXU5K
XEuC*@
KVxF?,
,,uU?
|$e%
4$e	
p$ea
|ZEYK
$,uYI
(,ue(^
ZEAI
8$e	
p$ee
lE1I	
C: j+Z
p$e%
XE9I
U0%^d
lEUC
XEM(B
8YEQ
;8f?,f
;f<?
XEMH
U0%^d
XE	I!
pXEEI
e?,f
pXEEI
I%f8
0XE	H
U0%^d
l?,V
lEyM
lXEEI
I%f0
lEyq
lXEEI
YE	D
<ZUiJ
U0%^d
ZEUK
?%F?
Cf8.
Cf8)
XEIJ
XUI@
XUI@
U0%^d
YEQD
XUYK
U0%^d
U0%^d
0:$EY?,
XUQI++
ZEa+
XEYI
F?,t
XU](
N;^B
$00^d
F?XT
F?XD
q?,_
U0%^d
,Z]MI
1k7 
U0%^d
,Z]MI
1kI#
4XuUK
U0%^d
0Z]MI
:X]MK
F?Z3
U0%^d
<ZMA
^MQ(F%
^U}K
XEME
I	f01XEM?
U0%^d
F?,u
X]A+
F?,u
X]A+
0XEMK
$EE?,
0XUM(&
F?:P
XUIK
0XEME
0XEEE
XMIK
E?,W4
U0%^d
pXUyC
pXMyK
pXUyC
pXEyK
XMqK
F?XEME
pXEyK
tZ]y
pX}yK
pXUyK
X@EI
02XEE(
^Eq(~
^EM(v
U0%^d
^UmM
X@EI
?,f0
I)f2
?,f0
f0:b
gI!f
U0%^d
ZMAJ
?,f0
ZpM)O
X@EC
XxEI+
01;0
U0%^d
30:V
F?,t
F?XEEM
<ZpE
XWMK
X@EI
$Qni
;,T?,
U0%^
G?,f2
U0%^d
XEE(~
XMEK
U0%^d
ZUuC
?,f0
XEqK
^EEz
/P08V
F?XEi
-08V
^MEK
wI#f
XREK
U0%^d
F?XUmI#
I(f08
U0%;
U0%^d
F?ZEEE
F?800
U0%^d
F?XEAE
I)f2
U0%^d
XEEE
F?862
h(^H
h#ZXE+
U0%;X
Y(."
U0%^d
F?XEAE
XMEK
U0%^d
XEEE
XEE(
oE%t
$F?,
F?:%
X@EI
h"XL
U0%^d
<ZEiE
00;0N?,f0
ZEiK
X]iM
0 ;|
X@EC
XREC
08;DB?,
U0%S=i
U0%^d
XEEC
XUEK
00P=
X]EK
?,[p
U0%^d
ZM]K
XEeC
XEYI!
4^EA(
X]AK
XEAM
F?^CFI
XEEC
4^EE(
XEEK
?XEQ
<ZEA
XUeM
U0%XE
U0%^d
<ZEEE
U0%^d
hZEAI
ZEAC
l^M}(
XEAz,
F?XMAK
oE%~
	02Z
F?XT
FIW$
F?,t
;P[?,
U0%^d
XEUI
0.8=4
8^UMM
mXUII
U0%X
;TG?,
;LD?,
^AFI
0:XL
F?8;
F?8+
;DM?,
D?,^
F?89
F?8)
;$I?,
;(D?,
~E,~
;|G?,9g
S	{I
S	{I
N1iI
;pG?,
U0%^d
ZEA(
0;P}A
,uA?
cI#_
F?Z;0
-P=	
0"rp
F?P=
U0%^
.?,[p
;DF?,_
F?^d
09;4F?,_
U0%^d
8^EE(.
F?XEAc
XEEc
U0%^
^Me(
XEEK
8ZEUM
??,;
U0%P=9
(6yF?
^BeC
00;8F?,
U0%^d
ZUII
P'GK
XEEC{
08;`E?,
U0%^d
<XEEC
$EI?,
XEUIc
F?,t
ZEE+
<8/2
XUUMQ
8XEEK
$EI?,
4X}M
,XUIK
XMMK
PXEUCS
XEUKC
4XEEC;$: #
8908;
^C]I
F?XP
;pG?,
:!#9`
}F?X
NE,u[
;X\?,
I(zxF?P
;XF?,
;TE?,VQN
U0%P=
dF?V
U0%^d
ZEAK
;HS?,
8,UM
U0%^d
ZEAK
U0%^d
<^UE
U0%V
U0%^d
8[MEK
X@EE
^?,[p
U0%,0Q
U0%,0Q
("aF?V
U0%^d
\F?V
ZuEK
U0%^d
(R[F?P
U0%^d
gF?XEAK
U0%^d
FaCS
XUUI
@8 2
XUUK
XUUK
Y?,_
FaCS
lF?r
8 4C
F?^{
U0%^d
4;Lr?,
F?^Em(
;8F?,
02b Qz
U0%^d
	?,f0
F?XEEE
<XEi(Z
F?8S0:V
U0%^
;xD?,_
U0%^
D?,_
F?XF
("bF?r
F?^{
U0%^d
0:X]EK
U0%^d
^MA(6
F?XEAI
U0%^d
0:X]EK
U0%^d
^MA(6
F?XEAI
U0%XE
U0%XE
U0%^
W~E?
HF?p
XpEM
ZBEK
01;(
U0%P=
V?,[z
U0%P=
jO(nDF?p
;tF?,
;tM?,
;LM?,
;$M?,
U0%^d
<,uEI
'PQn
U0%^d
ZUAI
<,uEI
FE%~
XUMK
?,[p
?,[p
U0%^d
ZUMI
ZUA?
,uA?
U0%S=y
F?S=y
U0%^d
U0%^d
[EUH
GEQ+
eEUE
YEQD
F?YE]
U0%^d
8XUEK
U0%^d
F?8&
YEEHQ
FI+_
U0%k
;F?Z
(r:F?S=y
;F?p
F?; b?,
?,[p
(f<F?
U0%XE
U0%^d
X@EI
<ZEQ
<X22
8X]IJ
F?^EA(nPF?
U0%^d
7F?Z
U0%^d
^EE(
F?XEEE
XEEE
?,X<
U0%^d
08;xG?,
08;LG?,
F?ZC
F?ZC
U0%^d
U0%^d
ZMmK
Zua?
ZUYI
(XEQ
?ZUA{
XEiK
(XEiI
U0%^d
ZUEC
ZEQ?
ZEM7
,uQK
4XEUC
XE]K
XUUK
ZEY+
0XUIM
ZEYK
U0%^d
?ZE)
|XU=
hXE}I
,u	?
hXu1?
U0%^d
000,
F?,j
;x@?,
;LC?,
;PF?,^
U0%^d
^Myz
;d1?,
U0%^d
^Myz
U0%^d
^UaM
XEE(
F?XEi(
U0%^d
^UaM
XEE(
F?XEi(r7
U0%^d
<ZUA
XEE(
F?XEqI	
;X(?,
;P(?,X<
;h??,^
U0%^d
XEEI
F?8j2
XEEI
?,X<
U0%^
8ZMMK
F?XE
(rxF?XEEE
0XUU
yF?XEI
G?,<
XEAK
G?,f
F?^Ea(
vF?^uap
$XDi
JF?^
XUaE
^M%K
\XMaM
XEmC
$XDi
F(VHF?^
8XE]K
R4UO
(.|F?X
F?XEiI
ZUiK
F?XU%K
00;8
8XU]K
XU%M
$XD{
,0Fu_
F?^E%
XUuy
XUAK
00;<
8XE]K
\^Ea(*rF?:
,0Fu_
F?^E%
XUuy
XUAK
XU%M
$XD{
\^Ea(.qF?:
8XE]K
\^Ea(
qF?:0
,0Fu_
F?^E%
XMuz
XEAK
8XE]J
$XDi
(VyF?:L
8XU]
;P:?,
XUAK
8XU]K
;T??,
\^Ee(
oF?830.c
XUAK
X@EI
ZEmM
8XE]K
P4UO
\^Ea(RnF?:d
00;8
8XE]K
F?;l
<XEi
?F?^
^Ea(jmF?8<
XUaE
)iMF
F?^M%
tF?XM%K
,XEI
,?,_
XpQI
Xp]C
XpAK
XPEx
;`H?,
XPEK
U0%^d
^UaM
F?XEEK
<X@I@
XXmK
XEEK
XEEK
XEEK
8XUEK
XEEK
8XDa
XUEK
XEEK
?)xK
XPUK
X@E("sF?XUuM
uF?XUEI
XPEx
U0%^
F?ZUEI^
	:}o
$2E{
1F?,
F?,p
\F?^
F?,p
F?^P
a("rF?8
tcKV
/;,d-
F?[D
%:Eg
.F?Z
F?X02Eg
-F?Z
G?,)cC9
F?YT
a("kF?:
pF?P
(~oF?P
oF?X
	:}o
G?,j
F?^P
mF?:
F?,p
VF?^
F?,p
F?^P
lF?8
tcKV
F?;4
cEQ^
G?,P2Ec
fF?X
 2Ug
F?^BGI
F?S|
'F?,
\F?c
'F?,
F?[L
G?,j
c(BhF?:
$2E{
(FbF?X
a(:kF?8H2E
F?,02E{
F?;@
hF?X
%F?Z
#F?,
F?,p
(JNF?^
F?,p
F?,t
F?;@
F?; 
^U}KV
ZE}KV
^U}KV
ZE}x
ZEqKV
^U}KV
ZEqK
^U}KV
ZE}K
^U}KV
^UyKV
^UyKV
ZEyx
ZE}x
ZEqKF
ZEyx
ZE}x
ZEqK
^UyKV
ZEyx
ZE}KF
UF?XEEC+
X@EC+
U0%^d
<PxE
XE	K
^Ua(
XE	y
P?,^
Q?,^
rF?P
U0%^d
dZEMI
ZEMC
pF?XEMC
(JwF?;
yF?;P
U0%^d
`ZEMI
^MQ(~tF?;H>?,P<
XEMz
("wF?P}M
XEMK
(vvF?
4X	F
U0%^d
dZEMI
ZEMC
(nnF?XEMC
MF?P}M
XEMK
4X	F
U0%^d
`ZEMI
^MQ(NrF?;8<?,P<
XEMz
XEEK
`XEMC
tF?^E
tF?;
vF?;
U0%^
^MM(ZqF?;$=?,P<
ZEmM
U0%^
F?XE
{F?^
mF?^
F?;x
F?;l
d2]'
zF?Z
F(&yF?8(2]'
\2E#
F?^PFI
F?j`&
U0%^d
ZEM)
F?ZEM)
;$@?,
48'0
0:XEM(
U0%^d
^UeM
F(:~F?
00;h
U0%^d
^MI(
kF?;
?,P<
(rMF?P}i
^EE(
EF?8
MF?XUiM
XE	I
tZEu
fF?r
U0%V
U0%V
U0%V
O>,	y
U0%^
F?,Q
U0%^d
YEE+
U0%^d
(JKF?XUmM
|s(:jF?^Em(B
U0%^d
(*JF?XEmz
;\~?,
?,X<
U0%^d
JF?XEqz
;|O>,
U0%^
?F?P
_`F?,
08;(E?,
G?,f
F?[B
D?,P
GF?X
F?^A
(~>F?^
G?,f
08i%
F?,f
F?,f
D?,P
EF?X
F?^A
<F?^
;${?,
G?,f
F?[B
;8@?,
08b.
G?,f
F?[B
{?,t
F?S=e%
U0%^d
^EE(
TF?Z
U0%^
MVlF?,PQ
FKV|F?,
F?p@_
^E9yS
;pR>,
,5Y'
U0%k
(RCF?
U0%^d
XEAE
XEEE
`F?^EE(
F?^EA(
U0%^d
,Z]I?
+Q*;
FC+x
F?ZEM(
;$H?,
U0%^d
I+P2
;`T>,
; T>,
U0%Z
U0%Z
U0%^d
XMEE
U0%^d
Fxc*
F?;X@?,
FxcZ
;XG>,
_F?iT
Fx#Z
_F?i\
U0%^
V|L?,
F(&bF?Z
2F?C
bF?X]A~
(~:F?X
 wkC
F?;t
E>,X<
U0%^
8XEE(
1F?XEA(
1F?k
XUEMV
VpL?,
X@EI
XEAK^pL?,
	^EM
aF?;
B>,X<
U0%^d
U0%^d
ZUEK
^UaM
ZEiM
(JMF?X32
FXUE(V/F?;
C>,X<
U0%^d
(2^F?X
:(zWF?^E
?,X<
U0%^d
xXEE(
.F?XEA(
XEEE
XUEM
4XEA(
:F?Z
ZEqM
X@EI
VF?^E}(:
G?^EM(2
G?^EE(
G?^EA(
U0%^d
ZMEK
^MI(
SF?;
?,P<
XEuK
I(9g
XU}M
?^Mi
5F?XMiK
XEq(J-F?XEu(
N>,X<
U0%^d
(^4F?XMmK
,F?Z
4F?XMmK
,F?;
O>,X<
[F?Z
U0%^
^MM(
QF?;
?,P<
(bZF?V
U0%^d
?,[p
U0%^d
,F?;
M>,X<
U0%^d
ZUEI
^UaM
F(vaF?
F?X]iM
U0%^
^UeM
`(R(F?;
U0%^
x8",
?,[p
U0%^
x8",
?,[p
U0%^
XEE(
^UaM
F(:^F?
00XME(
&F?;h
H>,X<
U0%^
XEE(
^UaM
00XME(
&F?;
;PI>,
<;HI>,X<
U0%^
x8",
?,[p
U0%^
G?,P
(>+F?
U0%^
x8",
?,[p
U0%^
x8",
?,[p
U0%^d
XEuz
;`K?,
F?^MiH	
XEuK
^Em(2
F?X]m?
XEuK
F?XMiK
XEu(
!F?:
F?XMiK
XEu(v!F?:
F?^MiH	
F?^MiH	
U0%^d
XUyK
X@EC
XEEK
^Eu(
F?XMqz
^Eu(
F?XMuK
;LH?,
S>,9f
U0%^
^MI(
DF?;
?,P<
F?XEEE
FF?^Eu(
G?^Ei(
G?ip
?,X<
D?,^
U0%^d
^UaM
YUyJ
;4N?,
^EE(:
F?^MuJ
F?XEE(R9F?Z
XXEqK
XEqK
?,9g
U0%^d
^Euz
^EAI
h^EA(
F?[E%M
;xI?,
^EE(
F?^U}K
F?X]}M
XE	(
F?X]}M
<;lS?,
F?X]}M
<;DS?,
^EE(
F?^UyJ
^EE("
IF?^Uy(
F?XMyK
AF?^Ey(
G?^E}(
G?^Euz
U0%^d
^MU(
>F?;
?,P<
XEq(
F?XS
XEq(
XEqK
02;TS?,
XEq(
F?X@
XEqI
XEqK
?F?^Eu(R
G?^EA(
G?^EE(
U0%^d
^UeM
F(zOF?
(BFF?P
?F?^Em(
U0%^d
^UaM
F(*NF?
ZE}K
;LD?,
XEy(
XEy(.
XEy(*
,u}M
XM}(
F?XEy(N
;xE?,
XUEE
XUE(j
;LY>,
;DY>,
<;<Y>,X<
U0%P=
U0%XE
;PF?,
A=>e
\SYUX^_]
m5k1
0123456789ABCDEF
^p8G
P~uu\T
]~rh
-:,@
FPC 3.0.4 [2018/02/25] for i386 - Win32
0ZGPz
g'!0n
{x2u
a55_
gBr6
#Zsn
'kdi
kf/by
 '"6u
,tO9f
|VVq
]1Yn
3Y@C
Z3aOu
=N-f
3?~F
'{f3"
MSmE
;wu'
NDe(
*{Vu\
8}v]
y6%Ey
/Je.l
]%8Z
/[8b
,jP+P
`(|tQ#
"7r~
m9.<
$X'u
>zb`
s&z`XF
C*,$Z
a*"N
0}t|
dve\7
 EUq30
AS+zuM
#Zsn
7	jc
0&"k
3;(8
suu4y
sY	K+u
'qh	0
I'shh
i`XV
0cMi
H=>0f
Pc*$
JY=/
pVg,II
.C)1N
8d!T
u6p0]k
6k-k
?P37
Opvi
|Evf
62<s
@Xr|
CA3;,
b#<:
b ;y
<']S
'qh	0
uUKJ
%YhO|
qiyi
&rt	
uYY.?
}5Yn
2Ev^
Pv^y1
au$3
q6.r
^hJtE
Eah r{
qM9*
Etj vy
6-t=
9xg(
#s:gC+
:tT6Q
c)gAD
(sw^
aH9P
#QFGj
H\6&
,7] 
e^mz
1fo2<
Y&$	lV
g5	_'E
DrIKL
f55v
v(Gd
q	(#GJ
f)G%D
+a3(
t P8
JH$cd
m,"	YJ
gTvbw
q]"*v
 wqo*
&bT=
U@SoM
)7FkP
=~o&f
#wW%
_kr{
2zj~k
2}4;
"j=f5
?p+(
BU%zT
Ho.^
10Z#
Vp^+lf
.I|-X
&<5	
VxWp
Mr<>
O,(|
sVFi
|6}pkr/
+[.^O
3NFa
kg3+
vklhA$]
yb#Ey
'Ui<V
$qKC
;%9y
2PIL
JI6\
K3`{
'uF|
(@k5
eVm8Y
1fo2<
Pf(\@
;`,2
-145&#<
Lo{d-
<Su<d
hbjm
=p3~
6ms]
!M$b&
6VwH
je44
mGX$&<
F`d>
&rB8
$wiL4
{`}/C4
'PIlA
,jP+P
	,}<
^wI?_
/(Er2
<|qF
o{B=
@L9,
&%zq
[XP{
Jnp 
`RF&S
'Z[n
V*to
:SCn(
#M8[
qM9*
u"&=
ro$5x
?`+(
4X`:"-
-ZwOS
tUU4
36Iz
1z=`
PxkO
.981o
*i$q|
y%iI
B@5%.
f,,p
?tR.
2Intr
U4uG+'sEP
@L9,
]8Q1
|PGO
hJ(h
Pr{v=
k~iI
i]=.
0^TF
5E?5L
0cMi
Wx[o
Mz{X
UN:F
hh]o
_3 >!
Y(*	8
7p=|Y
UfT$F
m~(JvZnZx
gW	,
{t0!2
bWG,
gH]2D
?ps*
%TR7
YGj%
>^pT
d7dp
g}qs
`6MT:
^^V*
7u?S:
t[{g
K>zuD
y(}v
4Xa*
za*S
!rB;
^]S-
-5)HE
^3lfhy
3ZZhB
j3H#
Zj0.
<F k
5R`"
M8gW/
,t,,x
)a9pK
<%!:
,LbU
jgV^
^@17
k.Fz
5+X8
.o$q|
M^6Xw
ss@J
"u#MD
u@W1	
hF@>
BkscG
X#7e{
hp<I
WK;nN'
eN{X
*jFJ
?!v\
,UW6
P-CL
aYeB
) v.w
)/-S	
SV]L
D#'ay
.3N^
	D@xJ
/f;s
6d,#
n#4'
yoH.,
fK &9
WL<@
W,<4
!	P=8
mp(N
hl# 
; ;,{X
@}Vt
O4=GO,
l#t&
AvkC
$Fjhm
XyzC
5mq^
U!,=
<4g!}fC 
[$yvkl
XVWQ
99W#
BPB^
FHBP	
5eqV
h Rb
-yC-
`5r7
$78<
#b6!
d1}<
26Ej
I/a?/
ywgY
.<09
9;[I
:UZ|^o$=
Z0Ye
js,q
l8@i
<ta*(
@C`HV
#sv2
$&wEu3
#O[e
2'<3M
!r7o
,46wEu
#|VxS
//%0zTh
|AID
zaCndi
,	aS
6+oU^
 ,Lb
D|0"Z
N6>jA
/as,Z
&WD<x
'v=s
4>wEuT
ZfQh
4:wEu3\
"H70
s|Lq
;3z50&
:ZddG
"! 	R{
YzQEu
Ch~^
a%e<
2px<
{Ulx
bLtL
"$Ey
>vBk
Sih9
j=je|
~!2u
UF*z
{+TlX
zUu7
nh0jy
t[o9
u~\Q
 ~L%
WZYG
6>^?
6O5l
h$=!
Tg	ZW
-tGrh
/gFu
VxWi
BVNq
L@j7O
'qh	0
MlCVv>zu;Z
._om
s.EK#g
r4>^p
@L9,
/uk6
rBQg
zExjv+u
w3|d
9jK'-
i"4	
i=h/*
N_9L
/3}#rm
4Vuc
=Qmp"N
Z!<#
kcB\
F#c#
XFUS
-Wh0
Q@w=
s.< Y
ii[Ox
oriIS
fh-.
#wGk
FzKk
l3p%
3[$u
u?p'&kB
,4,9
yJ*Ey;n
uf*	
2:P>
e9;-
-q/.
7(	qF
EdYu
0V"H
g*.N
JI6\
,:)<
Q3NF
ha RymW
@O__
[o+fBBd
ZOhj]M
Rf_*k
,nY`
QqcVTYpYn
-b(m
n0_ymk
z^	`
MQ2/
t[yS
Ufovn
!'u@
3Mj0B
ivwL)
~$&9m;
`clb
r{[7
2{4Iv
it|"
uB]o
3N**
fb%k
MF~@e~B
SR&g
p5mL
0b)#M
8.Da
qVs^
|4r7$
rq^	
4fr:
kB_o
60R6u
HQza
<W/q
1K,zW
'wW?
!,ij="
L2A{
Mi6e
.#MPm
Bdai_f
avTmR
bZn*
YJj~
,UW6
"HQSa
ptX:
B-[zT
LiJa
pvXlf
~/ZN
cv42
)VIr
a$$2
IfYBsJ
w/ZO@$
zzWj
#<R0nf
m	9f
}Cq*I
RZAXx
ry^U
ye;r
j+oU
~3lf
osw-V
l=\PD
r`we
h,d.
&rpX
=pEv!
Zj	!
s}h`
)w'g
rEKriD
+vOqis
Eshr
CZkL
hr|u
'Ui<V
92Yn
|t)oA
4ym~D
qBQ_a
'+?V
Cu/Pd
'9nO
}6.zs
~m$1
nr5B
waM4
vo$9
7r',
Hzw	'
DCej
ZP9=
	c5!\
m$!~
0Ta~`
S b|
+:Dyl
73CJ
Ysq`
+jFJ
?0Z6
Bcd\
WOVn4]
yaAkLb
Edj8n{
D/kQ
[2rUN8
a2"-
,CsW
lHRP:
t9J]Z
$`lfZ
+$XA
yFld6z
t?L{Q
u?XuG
j\L,t.
=p# 
$Pm@
a=%<
Iqa)C3
@Fw"
tPoq
,msQ
#MPz
r)Ey
+[Ou
$wEIU
Ea]u
If$H
%SEH
ecno
ofWD
x5=G
wO@C
Gtj<6
3{!q
Yhb,m
U^lb
hyt^f
:tT0 
L'f	nV%
e(}P\Hq
0 	X
S}rk"
a=Iw"s
;khB)R
aZH.
i`X2+P}
`IPG
ip)*^k-{T
.@y<
,UW6
<trD `
[%EPfro
}	,B
Gth8
yU@2
vmu1Y/
M9.`6
JzRqp\z
PhKe
}onD
,tL`W
nIJ\
GtDv
S)<Jeq
+]Ou
0ca<
!f?8j
j=Zey
'yF`\
g'afV
b[#Zs
qMgL
PoBE>
Ufe&F
kqg Y
Gt{8
R|Yd~
yUm2Z
dfy6E
zaCo
4"HE:
Jo2,
#Zsn
,UW6
T2}`
awO6
]f{Kn4
g0%UkD
U^s17
L'f	nVU
dZH.
RBo+
Bq:6P
4u:f&3	
^Dsf
!?[F
56@0
7"rq
w[pN,i
,jP+P
x3In
Mi@X*
('Pj]S]'-
	4=R
#gFF
	hBj
X	3y
l2+X
t43L
Q$,2
-BmLe[
exJ]
5r{0J=
tlfovB
v.#5
i^?#Y
r{EV
nTq=V
aqU{A,
GtX8
wZ5j
3Mhsu
7,Y.
W+v{Kl
(PPZs
K@9d
H"cB~
UBEot
RwhaPo
BE1zT
Vn.X
+WNVz
MpD&
]SB:"
qs(m
8SDnd-y
3{  
jmN|
/ZI.
3U?[.
?|YH
wy|7
JI6\
rjF/;
H{U?iI
`RFT
yy1RD
3)#{
,z^U
7ZM.
iLLi
3ckm
(6wV
~|X9
%TR7
?]3`*
l#x%
IqZ7
|#`T
h f{
 Tg)
!`F?~
tY2)
,z48@
&Tt1&
ave*rB
yU7N
fh_wm
!{@5S
861\q
Er*z-
7ZSO
yssk
raohtX
}+kj
I0W@lE
'?F%
<3]/
Zp8qo
'{f3
Q{i~>
1lf8
ho&[
f}ss
mii&
ave*rB
wpn@
cP0x
Iqp\
-B8|M
DRvv
L'f	nV
1F<7
SBfy
HZW0
Dihq
<tr0 
6`vL
`RF&S
-tA}
LP+f
iv>{K
'8e-
,t,<
xwvDMK
h 6{
I"&}m
5k!dx`
pTg.VV
}6_	
 wqo*
|ZlO
0z&,
\rB0M
'``?p
'Ui:w
4b c
-BHL}
sWwi
w!gk
txo|
<J_1
t]*O
%]sx
yian
7v^k
QQaV>
Zp'5
ZRbn
=Ik6=
#Zs`E
:SCn(
PDMp
%Y6G?J
(S"w_
$&]I
lL%|{
jvB1BzT
hOtE
	IE>#k
T*u~AN^
5myu
m49|L
|i.j
K@#\
fA'{f
a0!fR
6`<l
n84Ik
tpw@	
Li~	O
\N2G]
m3BV
MxaBWK
@X3UU
lPgl
oBND
g'eC
8}{S\[o&=
Q\NuDhE
R7Eu
0Lh<ta
-	kj
uu"NC1
y#`PbD
l[nu	
#Er2
I'cD
q[F'
 wqo*
'{f3"
xk8"
EBZw
H}b8
>F_U
}{E0
)En(|QU
+-$-
yssk
&bP=
oSa$
ci~/
+o''
t]3N,*
YZ>?J
w?J 
&]L>
x)s~V
R^k%{T
,UW6
%Yh	!mO4
&3Mh0Z
Us'ojg
p,(P
wa*&Nj9
c)p~i
Yy=nWK
 4yo$
UgTv
-C01V
[""H1 
N]G!'%y
-vwA
_^rg
u#$F
kAug
o	(yB
ANA!
"`N7
Qj[j
<g#+
Uqsf
BW[o
,LuU
ha a
W*4(Z
XCu@
[s|c=y~i
F 7#0r
wm#v
-q#M
'{f3"
,"H3
Ep[q
EN(`Zd
$Tz{]
Cayu
,ih=
cf3#M0"
Yy{1rS
xX&<
pUv3
k@jg
}rlo
b02$}9
'DPx
i.:r*qTu7
Nu4>
v[Wj
rdsN
7g=x
emf[/
qepa
wSkS
m;qP
ue(7
,t*<@
020A
;O{i
*:a<
ykt/
XVeg
+7 2@
5Yxy
w[7b
cHk:Di
lko#
PE\Su0
{LYN
vXT;c
$Eo4
xVL4
N@n=
gt9b
,"sB
N0",
7*kgy4X
gJYk
 G`9
,	$9
B)>zT
IqH\
!r6o
P0x|
M*ov
l>T%
zoaD
Ke!3
a/&N"
:w.4
,ij-"
bmLV
4YnZ
`X65
jwx w
ip	o
k?`4Xg
?Je8
PG7_
MU~V
}+kaG
#HEda-L
}{8C
op*6
pTu3
vZWj
@Y\@
GOc),hs4
"HQog
X^qC
s|2p
.5ll
^Za?
gw}G
udpW
4Xg?
op<k
Zkuq
x`ZX
Yj$(
emPD
w$\@+
$n@G
wj vB
kf{i
#e]9
0z&+
Lr(.
YA#9
<S0(
aFp/
xD}2
4d8+
N@x=
(FVY
rjDi
fPW,
V]'.
%Y[L
y+[ N
tu60
,i[y
yjt/
{HZ0
~:0F}
c^8#MP/w}G
0zTYv
<S0(
WHh4
>zQl
(PD)
5V.{
{XCW
YA3!
W?^H
`tjX
<pEgl
+[x.
=K02
3lq'
PZ3<
$S^R
I.3B
?\bI
z?7R
j0NH
mvC/
4.NA
/q+.
B<Sl
9;wS"[
qMK;
XEp[
af@d
6`vL
Ayh	Ro{St
Wye;
g Ru
if?L
~"6u
z6V?
LH-i
9jK'-
4{:E
wXivOL
~"6=
i	 /G
,nUJ0*
cP][
\.l#tF
S!r6>Jt
JI6\
A+3dg
ja%5<
4:$/
wgmc
}g	#
^QZE*<$
<`/qR
8(Pf
'Ui<V
L/DC
e4A9
IbH<
bEPi
no4%M>k
Fj=6LUi
uU7t
Jmbz
HO-jS
U$'Y
_-)o
pXb{
^6V7
.VeRo
*b70
FBos
wHzq
qj]%
MfYA
#Zsn
tX)Yr
^ACB
zaCn
+[o;
haFd
4*uEu
C.tX
%/S%
;>v{
a#_r
0z=3,
x`3n/"F
Tc?e
,UW6
P}"wC
o>&x2
pCbd{
0+&S
$\"r<w
=SDh
*C}Y
a*&-
,'xO
|A|w
ASB}
KA6%
%Tzz
vS+_
Q})e
6-tGs
!sN2
Aqi9
kI%y`
q6+rr
JY;Y
	R	5
&kru!|
 NvXi
zKSa
wEMU
C-K{X
)[oO_
F]6G
rfp#v
)}v7^
t-t;
j0*{
! &UC
<,LbU
L@1H
h/10zTh
4X,*"Y%	u
n["TQ
,,@?
u9`1O
N`(|
o4mx
0zBt
,Bw{A5
0``>
sh=z
]p'i
x,t:
]R!'!K
h0v{
W8?0c
H0;g
MQei.
vZ'`
H40q
o;NK}
bIl:V
^_{2/
0}pk
h="e0i
	\]Ek
a5!7
?DZ9
16.r
,qk-
JOs7
*[oN_
/#;G	wi
zT9xD
:#g<
fmf?J7
 [dm
cqsa(P
9jK'-
?tG.
y}>RD
3Tb{l
)#F'H0z ,9
QEcYm
qM9*
Q+-$;
Sm~{-G
?_ x
q?@#P
# xb:tT6Q
S,MY:
<Sej
>XqAJ
MuZ3S,
q3vas
hHl5
WJQ 
mvs-
m$5v
zT1xD
N0p8|YH
R30.I
,ih;
!UOYJ\Xd
l4U|{
MD<?
5%yK@T
CyS,i -Wh0
r,vwE
b3NI
.I|U
Tg&VV
X01s
+LA~+o
&[os
ka3=
~4Qq
FGf0z
Qc5)>
lf7J7
"&5?
ntaIk
#|6[T
J+qOM
q?'$
Xx)En
81#q
%0&N
Zd;}U
zT9xD
m$9v
|Evfw
'Cdb
*B}w
{LM0
N@j_R}
C#M6
#'I0zT
ByXUb
2@u35Yye
V3N^
Y"*?J
	t v
D,vX
mwQ 
$.&7wO@
@#M2
)E?`w
<SD-|
\?Jr
;DrN
[iU{
b" vSt
l#tF
fBn&
F;o0z
k&Zz
vu+[x
oU2X2
oti6x
FIIEjn8Z
F3MB
5#Q=
 wqa
JZBBb5c
-zTi
WfIm
'``9Q
k"rt9
~f55v
PBzA`
7,tX(
%TR7
}+ka
/Il<S
JYdd0
-tO1
Jg0M
W/:"
{\Zo+fp
n=2e
 ;*{,
#9.?
 "HE
yE'RD
{P{0
q\/4
jjwj{
,wO2r+G
F	A6yu
.XyV
`!'0
9no`V
s79.
N4S<S
'~Lb
U#P>
R{5n
53u\
jB(}A
ha a
uwlXk
Xf^i
#/I0zT
%aY5Yn/y
N`7[d
*JVK
}{!G
qsc/
HzW3\H
S8y|t
*[o(n
nut2
F,jP
^|9 k
!QU=
HU"Z
6N6fg
;*4X
s {7
gwO**
c241
x6'e
|Cv7V=
x]aY
"3r~
HL}]
~$&=m
"R+^
$*8q
Hj6H`
jtB8
F4oz
j%V6
B?yg
`5yg
G"s2
L"M8
JI6\
xFudS
(:ix
/WKN
L^QX
8haF
}g	#
{+ef
V_B?m
&Tt30
+LUl+o
n#P#
F)cG
!ofwL
;OCi%Y
qvWA
56.r
",5	
	7J:
2BPg
+[L#5y
Z\.(
(GbF
xi{e
d?^s
,jP+P
5|{-
,c~|#M6"
DXj3Q}
!"!K
l3|.
"AL'
z9s$*h
rW(ps
T>lx
g[#Ev
N.-e
D%rB
qS#Y
RY rtXZ
g*"N
	$\s
0QF}&
equl\J|{~
sE9jK'-
[j"H
8d=C
Mh0Z}
,jP+P
mA,$\
;6+,^
[nvGL
,SZ(
r7L9Q
)`!/
0cMi=
<b_I
Bu#$
Hk~I
ylxC|{
H`8@z
$*nSdh	
VvZ0b
3crk
@L9,
9?p'KN
vO4r
"svw
4Xa:
=S0}x
Sq_4
5g5)_
8B|W
R{5Ro
0cMi=
LWkMQ|
0mRn
h%Yn
?w"HR
RD`	C
2p4<
M$.%m
\oP5
jh=*7
l-gQD
Xd*}M
Q}*wC
	,} {
%TR7
&bX;
J;hU
	8GI#
Q#N2Mf
ivsL
~$&9
u1/8
%\TBH=
U?lL
xw'L
l["6
r{jV
,[@\4y
6A)A	R
r{[x
EuTZ
V^?*
r]^Bg
&+lf
d/28W@
agIAba
oKC2
3[oC
bVgq
f(9rB
HeP&
lh+F
kQ3W
x~uePE
Jn/q<
u1EB
HWfV
4yg$
$\ rp
0}xD
,\T7
>`4_f~&
<~Q"
N'LE
#1{fu
}	9@
ABEe
bZn*
zX*a
2{4It
30{\
)PS9
j~"lE
<r#K
#VoQ
u[oI
:CbCv'-
?X6;
#M0(
cmtv
+o#'
2N^`K
P|B#9%
gw7#*
\5yG!
J&K!k
OKZo
Qp~.mf
u} *wX
ihl?z
Xd)1N
Q|*YL
:SCn
Ty1 
Nu<v
v"$<
(*{-
0cMi=
qaJ 2M
osw'PLly
(vw^
t@ay
?'!x
3	K 
0QFmh}
c)[F
4y]a
)PSY
k~"lE
CcWN@ozo
nx<PU
u6;O^?xq
vXof7)
?z	8f[
,(xh
70F%
jpe>_k
)=$f
Ig,1I
%\CG|N@gzo
U(Emz
724>
?ex8
rh+	
'``9Q
:KYl
3Ql<
+XAd
+pF0lfo
_lA}
$nX5
Zdc8
c:AL
q=jf
cn[X
uq4{
lwsp
,jPNl
{`Ip
2iKD
$3	K
6.zr
 <t@
N>#j
]pBv
GUpB
i]=.
_c"&-
s52Q[a:.-
bC_/
ikQ1y`
bh-&e
tzYv
` nv6
bE)PG
mws!w
"svw
aGluX
dfRWHUr
PEtj
jvNp
hWO^
{O8-FO
j24-
ASa{u
[cuT
_]|x
S=Mk~
bmj|v
yUjS
!m!G
,	 9
rzW[
%"#8
LD?y8
zwj^
LQDa
vABv
[#Zs
-Wh0
/jv/
"M6"(
1fo6
/MP|+
FQ9t
d;Yg
pe{r
!0!#w
b3Qsbu
HkK	ee
fY$6
`S=x+(
lZwz
l!y"a
!rd4
1fo2<
\W+s
Vwl-
@WGg
ZsRG
Bh0f{
)DjIlPJtU
rgvC
\`E\^
A55/
r_cU
Mt]t
1UFx
Oa*6
c%5>
0p ]
 &m=
mY_KY
z\M	]Tg
_s4F
Z&QW
no$!
e4>b
!|xY
@r}a3
pTM3
]HUw
|x=y
cR`"
fFCm
 <1	
lB2Z
1F47
Gvnt
baa|vi
oZC_y
;(ex
.H}1
U	{VJ+b
u$'[b
'-;n
cH}b
-q_M
G$	(l
Aahp
f]s?|
VsU(/i
a%!<
b[#Zsn
jb/y
0p<]
6V]b
z+cv
@$HE
,!P:
h`h}
<g#+
tf B
m3H=
r+c3"
-VdYR
J>yC
Pib{[VB7X
ymiRDcE@
1T1u
JS(6
0>Zt
r{r{(
{|q1
3^6Z
JI6\
,qIE
gtiS
f	vp&0lf
'xOly
hx)]4(
ulY+PD
j3H'@
w-Zo
6.rr
uY	,
JThL
xUTN'
9H+,
qzEx
T5(4
*oB*d
:p4o
$>F%k^
"^Ye
!')y
o49~
#}w{
'Ui<V
OuGLD
%ynA
'G3~
3ckm
qUc^
[|z_
kq+0
o$5x
 zGA
y6.Ey
j]HBN
otIS
MfyA
Rbn0-Ik
vdB7
_b?h
0~ek
3lr~
fTv~
	^Ed
:jm#
wVj]Y
C3~}
$ /`
	 'G
JQRp
h?hy|
=SPl
pNAh
,jP+
$\Cg
1(}v
'{f3
q<SD
\.l+|
3lqC
wywia
PCTy
0iW>-	
@qZ\
D$wX
?l6l
'qh	0
9jK'-
0cMi=
r|t!
(Yi7T
2N^?
MRXn
"Tws
OMJu[
@K`L
]Ug&VV
&sj?
2kos
a5!_
(".a
%\	W]T
)}`1
;~4X
'Ko.N
}0~vX
-q'/
$jwEu
*`qs
"^5e
s|cma
y*op$
?Jrt^
h.Ik
pnYh
wOW[xQ|
{OhgFO
1v@IJ
$TIE
F,C>zuD
Yla-PD
K%.N
=Z92
X.BA.
02E~
g,I*
!?p'(
g*1#9
*	PP
P	'&
xb e
aGP<
(QoJ
<YRyXd
f!_bf
ps`8Ty
7 Z@
35a`x
u1Wx
fX!rB
_rNi6e
}g	#
qsM	A
Zpu]zy
yj\N
@L9,
&x?yCF7)
=S6}Lk
n V}
i]=.
uf*=
3k~"
#r0.2
0^J6=
by]-QD`	C
YhH|I
rqdlX
bZn*
1Mn0N
6XuS(2
0>Rt
aR_.)}a
<ta*(
lX>qp
uF,]
r`l\
yU[S
%TR1h.
YrfP
W]Mxr
NqPJ\
"ZpZ
-q#,
1fo4U
LiQX
kVM*4
QgvL
-F(]_#
0f;j
-Hk+
	q=z3
,L}6*oAtV
M,"=N
1fo2<
4+<1Q=
ZnRx6
DFthY6
F}Cq
	m3P
i."x
@L9,
 2wL
]b!'i
n#<'O
Mihq
N]yB
<K/s
LEjn v
1wXo~w-b
6.6r
|jeg
mJ^0}8k
EC**IY
fs"&um
PXn|
-qW.
<`88z
= <Q
a:b-
NXu<S
]b!'i
5yi$
JI6\
\iA]T
#4ae
")}3;
Jztu
ySI?
'PLfC*
BVi,
-in=
GtL8
UjSW
0z+R
jJ'}A
 wqo*
7ZSOq
dRH~
3N**=8
j0N{
`cjJ
g)%/"
q\/4
%+*{V~9
 rt5
x%.&
=E^Q66
"HEjo
pR1CT
Aq9,
Y&XGu
1ojh)
!r~k
e^y0O6
 	!yN+Ey
,tA|5
 Tym`
(@lhZ
DbBPS
REQX
wlrw
T%&W
gsp{m
q\/4
Y!(v
2gA4
/WN4
6B<'
f Hxc
wY}7
y}}X
h#?!
pIi~Q
bg#4
Jh Fy]
f1z $5
8PEH
ca*&N
6qJ{P
o,1x
h=&r
quES
|=S6}DkrZ
j2VK
5VB_
M,"1N
K~QseG
qP\J
.WN4
zwjn
0mpk
(*	Z
n#t'
#Zsn
M&<1l
5~uMyi
&edXp
aZH.
/[Lg5y
4.zp
ai2(
#S=P
a*&Y
PDmt
F%{V
DBk~e
`xc[
QCL3MY
`OA}u[
c$l|1
T(kE!
O!Rj/
}G1$
fvX^
y4pIK
i%k~
X9xi
6@yI
>P_P
.v`U
qKm,
{EUq@
x&/oU
O!wN
x4,A
;PgQ
n+b.
\M'\T
Oe+MD
gh0n
OvpF
\}Dm^
D3hE
!rVg
}Z	#
{[3"
C7~}
QC`x
ewmqo
0Dvd
]VAJ
3lrk
qI/4
OHHKH
wO63
q4TG
!rdw
kr4sN
#slv
,t.}
qk?M
( HE
3N*c
JJdh
N&p},
WN6h
6e*O
g"14X
L>qov
%Y<p
"HeY
s|TM
k085L
ro}%
_`IP
{1Gr
c:Wx
z|te
U1^Az
en:.
qs4A
%Ko?
d?uc
ZH,z
vN&Ey
0#rB
O	 MD
3lD{
w1;ha
<U8N
Q M=
'qh	0
kmvwc
GO>s_P
({hi;
B}gC6
Yu}t
c!{EY?xK
<w@5DFe
HhYX
vIqR
a[-vX
kv'-
b3.,
o'AC
SxF|t
D[p)
wmqF
oSaj
EEp+
l	+PD
f\V4
-$VN
/gcmqZ
ZMNI
^Ea`
PEuj
DZ&|[h
T$t:
"c)/q
w-/ha
m%#JY
W wqo*
OtBY
Oz#HR
gu Qd
>S0mX
\f8T
97'r
8*"@
	}mp
+Eoc
#sZ(
i]=.
${E7
#QFF
qeQi
91z <)
tiSU
	DRf
LE!*o!7	{E
EiIc@LD
5;(<I
(5o.
uOV^
+kzJ2
2zBL
sjeq
3[Mu
Y	;G
@q\(MP{
N0p8h
$?F$
P}ry
]r|.	
>z	9'
P0}x9
E*:	:
.ih=*D
!J{6Z
l=Wu4
!'!y
[ b|:
H8E|
I0	6mt
!'uq
2fI6
#Tt9
o,q~
10V#
Dz|pO
R}*wC
1c5)>
82a[G
l#t%
5Yn6
3Nf*9ND
|p0#
mU'~
 [d}8
:bFA
q6"vp
"Vc}D
y?|/(
zv@)I
IE=oh
}(PD
TsbX
q|`$
J+oU
I@Do
,0 ]4y
VEiIk
kqW M;
O!oOD
"</	
,ij:
8PE^
#-@M
z$N)Ey
+o! 
p?hn
X6`0)
npTPU
itmOL
j+h%
ov+-
#r6.rr
Tlt@
)7*j<
&$Yh
3Mi0Rte3
Z[u=
!M6* s
yspG
a*"-
0x8<
h0r{
~o!5~
\,!O
A.[n
~t)oA
2p<r
w26VK
t:^"
E'%*k
>oU:X2
S$KB
,UW6
*`Vv	
<T2F
I0p,6"
z?`#*
g:v+
,< Z~
0Lhi
y!hRD
"m$9|
}p}:\k
`(tz
ZxWuTP
wJM~k
aZH.
TiJXRRR}
#H10>%
efsA
+R;&/I
gv];
i{{q7
I] H
,jP+
ET*:
?<$2'7
 Z1b
RszA
Jd1%c
IFlC
:SCn
<g6c
5RJC
]M@Qt
?[KM
1fo2<
{{5Y44jo
_o,t7
v;PA
!7Xs
 wqo*
l3l%
(iLQs
nj		
)oBV1
Er<K
n(aHk
`RF b
c*.%
l!')H
0^J6=
RBaCxT
yf*9
ovw-
n:[w
zqE(
Bzwjr
LU}%
Uf~v
*PD/
2;qk
M0p4]k
cR`"
<ta*(
l#t%
mi[QU
yTm3
0<?$
#M0d
nphSU
q6Xg*
V3N^
UfO,G3
 wqo*
ss`8|z
w5T4
g%u:
]!f3
Zk'U
h_%U
qZNhk!
@L9,
&b@=
v	+b
&4Xc*6
E0`0>
6yo4U~
sW>hg
iR/xKn
H}rl7
XF)w
ZA$T
1fo2
5P{:
'{f3"
c*./
1Mh ~y
cu^|i
4F4U~q
ej\#
pTu?
=ANe
]|*N
FqY?[
@L9,
vG9r
!rVu
DX0qT_{
Eg(c
nlle
xu'M
!Z5b
>j=&
t`8xz
1N**
Mf[ 
&-Sg
?z0W
fz4Fq
zx	4
QD[k
@`eg
Eth6
Cfs 
q}"Y
cWCs
}UCS
c5%4
~os2
}g	#
 H1 
;/{4d1k
I0`8>
gffs
@L9,
Sg.IS
q\/4
ky*z`
Fhj!
HH!$
-$VUe)
vq\7
(Aw@
tQYS
34{h
pnpB4
e^i2
Z@,<
h"qe\
e-<f]
UM:!t
Xb^R}
<A`0-tAt
jhrS
'qh	0
	,\'h
o|1UVg
^Z87;1Y
m	3(V
QlXk
NJt0+s
VEr(
H\6n
#Zsn
RD	uU
o %w"?7
G,p##?g
M $5
wJE:
JI6\
tI0"?
B~on2d'm
-Wh0
Waj/
	 7"K
c9B|i
M0p8]
4F4=
tjO/
g	':
^|YAi
Liy;
#Zsn
qNldQ
#;c<5;
<ta*(
#v[[o
[ F6y
-Wh0
4:ise.	f
(LM\)o
ub/I
(.Uv5d3
UoIk
'qh	0
Rn@CSU
{5O466o
5oRI
U|V3DE
a?p'(
`7`1
_N,s
%Ki.
x*vmU9
?`'(
jj		
gvjFGy
WU6`qh
_R|,
ErgvC
?jo!
0nymq`
bZn*
|h,ZI
Cc**M
c51<
 bt=
x`(d
tqJqi?
o$12
I/p>
wDi\6;@H
fR`/
p~qU>T
XjtU
LT}E4
86rB
@q\h
GtBY
Z}r5FG
!M|!
G6Xa)
+4MK
.	v)vv
mdXW
6=F6
IBVaz
Lx]v
qa)C3 
Phjt#
atC2
EkfrG
vm,!3
"r|[
XEC(
UfO'F
$UO8
!{@5
h#7!qgW
uO<J
JI6\
"/s9)
fn8f
o!Yo
?2k?
Tprzk
n</-
u	Lk
!s8q
1r0.vE
'Yn	=m
{'i<
c!\}i
2p4<
LYzt[d
?0A<
gx5j|V
-Wh0
y\	}^T
uEb}r
vgVK
`8|x
v8UI
lynRD
ifLxK
&CTK
}g	#
dBv@c
33# ]
W\vZD]
&i,u
xwYMja
#M1"
P#'!{
%_ m
6.zr
vbaX
>S8Ex
?|YH
$\ 1`
v.t,< ;
0z",-C
1O[n
3lZg
JfY"p>
@L9,
=p'(
3Zq.
3Mhvbb
Xn|E
{[5M4
6ckm
wmvwc
7y\`
+8&En
HKk={k
bZn*
*m$1
()[1
5+\7
lg)ac"
K&\"
#r6>.r
[d*}M
R}*wC
	,} o
JKV^
$>F$
+	(3
Sg.IS
	)+V
HXD|5ETg
G6^l|
W_AP|
7fI<#
KyuI>
qbG6
ecSm
q\/4
y[QOp
N@@\
9RQ I
%TR1 
DkWt
FRSn
5GF/
'qh	0
,:U<
~jm-'
[thY
TToR5
,TX}
NECISOND
}r6F
a\%0oL
QDPk
	8dir
0^J6=
uE^Ab+Zz.
zJ	7
"~xa
JjEND
?|XL
~fD r
 wqo
t`<(
.<$Y
D za*"
8d53
.3u,
4frB3
%ssqK
i]=.
Y	;$
0cMi=
)o#'%J
,:5<
.ih=2el7s
 Le&)o
<ta*(
]q|c
j|i'V6
`R?p'(
p`-|tQ"
Rp6llf
v"$F
,<09
$R7-,I
 'GF
a{BvX
sgr1
(j(a.t
wRs/*}
J<BO
RD	uU
e01r
CV+I
Im#I
qk?]
hg	da
ucQlix
N]yB
?Ivt
t1fu
r*PPqym;
Yp~qu>
?}Qp
nf7J7
vo$5~
EEM)P
m1o&\
6Xg**N
^2l#
v`phqo
]Ut2
8	za
@ H?
oOC_@
Jt0#s
]SB&%
lp	WI
q\/4
Ji,)
yl,-
PEZYt
	Dee
.nTn
W5@H-"'V
}g	#
pT^R
8*"@
-mi&IY
'Ui<V
JI6\
!')y
E8H4
h0~J
8^!>
,t,4(9
C~+I
"rp;
~&7#rU
z)fu
1?p'K:
uO4rK&Y
kGX5XP
%K	ze
~"&1m
<ta*
Ek^<
!x>P
'd3M
G0^J6=
qch~o
9tw|p<
Dg85
cR`lrt
<g'+
VEAI
QsDA
&z4X
qNbzf
1"dk
u66v
-(PD	
rqdlP
1(>#
Fh0~s
_$&E
4V\X
#sYb
6k?I=
D`(t
Ca*.N
10:#
Fh|ua
ovs'
h=6eL
I**	:
e"&	m'
6pqj
JE5oh
3YL)
'i|Z<z
kqB3
}yC2r
)%TR7
0p8>
ovw/
Zx]vT
z[qp\z
M.f}s
UO:q
A'{f3"
IqA\
?n1h
'>b:
8d%e
:tT6Q
i,\<zb
m	)yz(Ey
W}Uw
4f}s
1 V%
Fm{2l#
7$Xo
E!MS
/x$[
xt}b
t.ih
%\"rl5
^'&"k
p#'-
3N**
huEb-
vgVK
&Yh	-
3ufyu
L.Ikf
(Gbb
?JZS
Jy!RTK
Lyw'
S,^}t
!'!y
M0g8>
F55v
qM9*
y]PDg
t|O4
'Rq=V
VEX(
f	Vp
kqmp
_bnt
#1 z@!
4Yx1
~c7	
H\6&
`}?*$
,	p1J
%**mY
>Jsl
rg@Lv
3z@:t|O
g2Sp
Y55UI
`^+5
M(*	F
.$}Q
}?`/*
HZW0
o:t5
K: H
k)oB
n%S0
q	(#Gvw
xKe^c
#Zr,,
i.&r
M)o!7	{e
FRSn4
'``9Q
T!MS
m		yN7Ey
C}~|
NlS>S0}\
!k"c)V
l3|+J
vn(OJk
z!fu
~uEb=
vgVK
ryBUB
\)[{
3N*:
0^J6
bR`lrt
JvDk
~"&=
[!M?
AcJm
\7^b
@L9,
a5)<
#qMp
yM;r
uUT:!
,in5
J-a?.
H"cB
vZEi
##Ct9
`cY,z
sLhy.r
.<$9
0`8<b
y%)?l
F}Cy
wS^YH
NC^+_
g-[o
%y&EFy4fn
fT$T
h8"\U
wLiU6:4H
##Ct#
kqep
Yyei
2vVs
7Z{O
TTo1v
z.J\S
7+,r
A7.xu
<ev@q
EU f
Wo-t7
:c2g!M0*
Sa}%
70B%
*=Jrt
+W&E
!=p/*
Sa:.-
y}Qp
nf?J7
8{!q
|eaf@
"bd;
HuEb
vgVK
iFZn
:tT6Q
j f{
4u;`'
%TR7
}QpV
nf7J7
pB0G:
$UJ9
{*	4PM
0cMi=
F/V2
&pju
5R[C
$dT6
dZH$
Pihy
af%7gL
?`'(
JI6\
d!'%y
3;<8
Q+`1M
6.vr
?,<$9
!'%y
0'?'
`.ih=&
W]Tx
,jP/
'{f3"
jh5"
V[?v
OtX`
"&Ar
6.rr
|A q
'Ki.
!'1x
U"$G
g')m
?fqu
~"&5
7V45
}{Gv
M>S;
vXov
H=f6
~3lf
 r|;
#7{hx
:\qs
-jRB
T.Ik
sk(ig
ZpQ	
|W "HE
[Y)`
+o!7%
3?v5u
x6os
s,< Z>
4#*`^
6.vzEbn8
lYbE
L%Kf
1 j_
!']{
^|Q;h
#a-5Yn
<6=?Je.o
6.zr
eZ:[
+o#2
.2Tb{
f|!rB
&[pu
Ov H1 
+$yA3
l#|FQ
,LvA
$VwEu
a:"-
"wO#
?JeI>
#9FK\;
,{n/+[o
MDmEu
t Hs
~ ?'
zzK5
Uc5)>
YSq?Ie
ro49~
E0`4J
_PV{
L^?xq
,i$=
+a3(
$\"q
H}b<
yj\N
5T1Z
3{<r2
`B_>V
+E<i
,zh 
JI6\
^X.+
t@&|
O"B`5IH
m	3P
f	v"v
Iqa)C3
 [d|
yUB0jH
8hb'U
Q3N@
00=N
-S+fV
}cKF
EL`:s
0lrlF/Vz
Jn/F
4O'a
q0Fy
>@tK
u{&f
T:X[
,	h,
(]gC
2K|{
3h|v
P;Eja
34UoM
50o@
o*P8b
D-:m
,jP+P
w'%ssq
I8Wh
jI6;$
.db^
2"@s
 &yl
",EmzA
EI=+P
 rl9
pK_3@
`(Xx
.	XQ
?Je=
HFw;Yd
16.2
-q+,
8B|o
6r'$
bEk(
n#8Ge
'Kqj?
Z`0f
!/1M
2ide
BPA &}r
b(<rqI[*
sDCl~d
c*fOgL
`v*8C
(wB'
a59>
o~owrD
i*&-
'Yh	
a5=>
|\.n
7+D\
[mv[O
4rCnkw_l
8lK.<`9
a*:/
Ut)"`
rzLp
7+8^
 =oRT
`(dx
1 2!
YP/!u
4u;Rd
t\O0
DO,K
bZn*
CvZ@
Q{i.
fo$%~
Upgs
0p,>
D=Ls
=p#(
W,<$
a*.%
3Mh0F7
F$"(
[1mP
LG2:
C	zJ
H!75{
+3>zu
itE.
E7"~A
Ga*2/
O0p,<
5+$>
-q;.
mfC/
ZW4zs
H!75y
o$!~
6.br
E=J}
m"&)
6r'$
`8`z
cX:'
ovGc
^hE0
ZM,<09
u`(lx
,	83
|!Re
hDtP
$\ r
#s:w
iU7C
IGD"
zn8r
ZddG
.;wO@Q~
7 .!%
<%>,s|t
^+oU
3:<{
6[LVq
T,Lb
7t*w
<PGjy
<[FG%
n|!rB
jg`t
1!$\T3
E(}vE
r3N^
`4II
!$>b#sN
mbh3
5&6r
i=@+
u6T}
U<SD
P;g,	
*}jz
Qgys
$W>zu"
&\ rpX
bZn*
RE4T
D@0J
6PMh
r31Y
0MJ]
$E]6E
fj52
wYt6
7$616
sZ$q{
m0_J
z	[`
b*QD
l(]`
m/qX
Zdts
E"jH
-y/.
=x7(
i>&y
i0oLp
]`(xz
.l.	<3
\nJA
b(|z
i.:z
loir
?5+<<
Jj0}H
*:1:
7VvER
q4.Br
gCq1
gyJJn
gW>2
>"z/
'Ui:w
Wxjp
Ec= 
$O-*n]
%lu@
+L`Y
2Y63V
wbO8d
>SA7*
D#=%
[pSb
2qp4
(PDY
5Yn	Q
Laoj
z;fld82
W44$
!5T:
Vx5M
Lde!
\>3o#3
+l\+DS(
+GhS
aS;n
L6!]
t[oN
wO@y
3N^`
,Lb^
.Iks
	R{n
5Ynp
!rBi
#sN:
(}v2
s|tP
,Lb\
.Ikg
(PDP
#sN5
wEu]
$\T>
5Ynu
$Eyl
"HEd
s|tt
>zuA
(PDZ
wO@4
(}v4
>zuA
(PD_
wEuR
>zuB
!rBl
,tXq
)Eyh
,tX}
5Ync
(PDF
(}v;
wO@5
!rBh
$\T	
+[oz/
s|tz
3N^e
	R{h
#sN9
(}v'
5YnC
+oUr
$Ey]
(PDH
<SD5
3N^y
wO@.
#MDw
"HEu
+oU{
"HEl
>zuS
6VK[
#sN'
5YnW
.Ik|
#sN<
,tXo
+[oY
wO@'
(}v.
+oUu
,Lbp
,tXl
"HEs
$\T:
)Eyv
+oUB
wO@.
s|tk
(}v(
5Yno
3lfL
!rBz
	R{Y
$EyH
#MD}
s|t`
?JeE
$EyK
$\T#
(}v$
3N^r
$EyC
s|tk
!rBs
+[o^
3lfs
6VKh
)Ey{
+[on
(}v-
3N^O
0zTu
	R{r
)Eyx
NDaD
	R{1S
"HE1n
.Ik9z
NDaD
<SD9
+[oO
3lfd
t[oN
$EyS
!rBi
	R{d
$\T4
wEuW
)Eyn
"HEg
s|ty
3N^v
$\T;
)Eym
<SD!
s|tS
,LbN
+[oV
(PD|
,tXc
.IkN
+[oY
,LbJ
wO@-
#MDp
5Yn\
#sN'
,tXl
+oUw
0zTM
<SD"
>zuX
wO@-
#MDy
s|th
>zuR
(PDA
0zTM
>zuQ
#sN6
wEuT
)Eym
!rBv
P|V-
wEuS
<SD-
?Je`
,Lb@
(PDL
0zTN
!rB^
<SD.
?Jeb
,Lb@
(PDJ
t[oR
)Eym
"HEQ
s|tr
+oUd
t[oH
6VKI
(}v5
0zTh
5YnM
+[oM
>zu@
6VKI
(}v3
0zTl
"HEL
	R{t
,tXh
0zTe
!rBg
6VKX
#sN&
?Jey
F?,,
F?,	
F?,(5
F?,(5
F?,p7
F?,p7
F?,p7
F?,p7
F?,(5
F?,((
F?,((
F?,(5
F?,(5
F?,(5
F?,(5
F?,	
F?,	
F?,#
F?,	
F?,%
F?, 
F?,<
F?,M
F?, 
F?, 
GetLastError
SetLastError
GetTickCount
ExitProcess
GetStartupInfoA
GetStdHandle
GetCommandLineA
GetCurrentProcessId
GetCurrentThreadId
GetCurrentProcess
ReadProcessMemory
GetModuleFileNameA
GetModuleHandleA
WriteFile
ReadFile
CloseHandle
SetFilePointer
FreeLibrary
LoadLibraryA
GetProcAddress
DeleteFileW
MoveFileW
CreateFileW
GetFileAttributesW
GetConsoleMode
GetConsoleOutputCP
GetOEMCP
GetProcessHeap
HeapAlloc
HeapFree
TlsAlloc
TlsGetValue
TlsSetValue
CreateThread
ExitThread
LocalAlloc
LocalFree
Sleep
SuspendThread
ResumeThread
TerminateThread
WaitForSingleObject
SetThreadPriority
GetThreadPriority
CreateEventA
ResetEvent
SetEvent
InitializeCriticalSection
DeleteCriticalSection
EnterCriticalSection
LeaveCriticalSection
TryEnterCriticalSection
MultiByteToWideChar
WideCharToMultiByte
GetACP
GetConsoleCP
SetUnhandledExceptionFilter
EnumResourceTypesA
EnumResourceNamesA
EnumResourceLanguagesA
FindResourceA
FindResourceExA
LoadResource
SizeofResource
LockResource
FreeResource
GetWindowsDirectoryA
CopyFileA
CreateProcessA
GetVersionExA
CompareStringA
GetLocaleInfoA
EnumCalendarInfoA
FormatMessageW
CompareStringW
TerminateProcess
GetThreadLocale
SetThreadLocale
GetUserDefaultLCID
SysAllocStringLen
SysFreeString
SysReAllocStringLen
MessageBoxA
CharUpperBuffW
CharLowerBuffW
CharUpperA
CharUpperBuffA
CharLowerA
CharLowerBuffA
GetSystemMetrics
MessageBeep
kernel32.dll
oleaut32.dll
user32.dll
PADDINGXXPADDING
