This program must be run under Win32
CODE
DATA
.idata
.tls
.rdata
.rsrc
-t{J
xT{5
B)DHV
5)VB
jj+i
(c|I
zKnO
[t'~
O%)W
,"V:
!*QqM
i[m.
2JLF
=dxjp
K'p 
	E\3t|
'a%=x
Nzv@U
@1w!K]@
DkZ$
~6Ys
}u$a
sc~%
)Ek|u
Y &p
dTL!
Ii{J
kUk_
:-Tv
xt`$
X\Ik
QZ_c
OL)>>
BR7J
~qp0
 ?o/
Vd9=
cBsP
3ZOc
F{!fR
70eJ
5X~{O-4
] >g2j	
_p's;
Y9TN:
/W4m?+
M<V"z
8heVA
2/!B
+Ook
`8_/
A`o 
,U\/
K>j`g
0t$DB
5k){
?u1>
>|X`
h,.9
P38*
vwHT
l (_\C
Akf,
mT0W
u2; 
vHi{
mZRj
WD^4
h<F}W
AcTv
HiA<
t>GP
e k)
)}/w
&zaZ
6+$K`
gDvM\
[~i;g
OHY^n
N'T*NR
vog|
!5{y
FEg[
KW7%
e19IN
^@|?7
IQl_N4
,&Y '`E
\-&z
lp5G
$=Nv
yJ5t
*qpQ
6,K@|[
M^Uc
qHSW
0Tw\
c	*X%
rltC
+M S
"A'>
.+_:k
07i%
xnQJ
1MX"b%
)-,,
6nI{
vfuU
=p)&
S1%%a
)vbM
;gB7
oc]b
#,-Z
ZC[r
]NO|j&
Tjms_'
l.5yX}Vz
eE-Ibf
!,\k
/x7}y
fO_:
NN6N<
|C2%
E o`
?+r}d
8$2	E
4f.XO
*=k#
L1!(E	S
Fp66
|f8\|5
CWye
c {B
gWS=O
n ve
5vY}&85
rKi)6
UD?'
3sNZ2@,a}S
xNqz1e
s(0?
o@0nt
6|	S
9Yt;W
'-U:
npL:
d62Y
hiIYo
D}`;i-
o.6Q
% cZlZ
<D?]
Qk44
{F8V/d
x8L 
rm8u
@7oY
9P[`
.UM;
m-qLa6
v"8 *
,,Ro
%yU|
W59CB
5A4m
 , l
;+]z~
C**c
s_:[
KcV@=
,/z/
	FAc$t
{)0Y{"
{|b]"d
<qal
1rV$
*^vIs4}
KUdj
P&-'_z
ItN=\s
'yaJEO
FhFH
7Cfw
U&Rd
7k (,
{Yhs
k6U6n
"nH^|-
Tl71
lz XM
 )7R'+!
~=ADZ
{DIQ
gSQQ_
 AO!}
yJ:=bH
0;:F
X[+@
jpn>
gD|?
<he[M
llz 0f
?vR{
G?KD
%W	k/zv
;cis
%{CZ:Gl
ej{<
Sz46
OV]VM
?FmL
G`MvBIS
=d:G
=58&
v#C{}nD
&\XJ$
eEY#
2r{Hx
6E"2
 Y=:
AnZ~
l&{_~
F_9P4
_<ui 
89M;
2@a@
V^*R
h;uVR(
|E7TG
y7B@'
VD%#
'	iU
\uyu
N`{%~
iq`61
E`>]
BwtT
v^^&
f.K+
+?c]
FB^f
2C]5
;1)jV
'LE%r
:mZ@
/M]Y
;o[+
bqyt;t
ipdl^d
R4=A?
al7K
%y\b
yR=@
%.%5
,EZJ
,zZ+\M
9()m
qGs%
eE{sZ
ts	V
O<75
&	BPZ
Ac+{
<`u@
{Nf@@
5laF
C d)3E
nGJc
fu&X-
rqai
=HP,
->Srl
#'-@
1uaH
:TI1
+p4M
$]SGk
d/E5Y
2T|g
uEPo[
S/hWD
<SAW
7B5L
.Mqi
.).p
xa2J
6MSt
fyN+T\
@@@a
7;'9
Z XS,
^Nz>v
'Zv*75"
ArX,tr
UYD?
iQ$P/
z[vR
S*Q<Q
uE9"
u6cs
(HD0
EEx:
Fu'm5
h@xn/
(0Sc
gH6T
C`#v
sEx<
tQRp^
33gxG
N$Z51sa
%GwPVw
[v8c
,gE6
(T`a
	0)M
QtLo
rB{6gHK
J-;+
.Zdn
d]O!oT|
X'[s
@'$2
F!O}a
Lvu	I
p!rL
'gqz
{<:y&q
I>nip
dow:
UTypK
m?%8
C*Sh
Fu3nc
MyD>
xBIO$
c=?&<W
V+7;
b|2zUi
jP7]
es#Lzy
YdeQN
8je9
r,&$l
t08iP
?HrTr
UouM
o/vj
VSh8
(#MnX
RG1`
0KrFT
tM2u
.:lj
za N
91e	
RdVC
"YmVVk
fLn5
6dXA
WZqr
9 Ff
.f!	m
b_Ge
@7xX
8>0?vHf
v^/Zl
;L	%a
a&<n
w`&h
>nos
+%H^
#qVE
[%G4d~Q
q-JW
s?'/
-jZq
`v|Fx
:BF#&
.jLX
vf~{
MMlT
A+W~|)G
*rg,K~
#$h\
3&%.
?	}<
2c<1
sm	F
a2(Y
>Cs7
_Vwt8
5#tL
_2ugrW-
[NUm
rAW 
*2l<e
D;E-J
U})v
`KPS
G?NrFXhOr
U,H	ubdb
K	6:`
ROt;{
4OzK
J/P 
dke!
 QxY
O$=!&
vPR;0:
!mG9	
LaUKz
N$AM
N]\ G
Sg	0
EAL1
Q:{m
rL8$
<Nz`=
{3eu
J;=L
N-gS
kernel32.dll
user32.dll
GetModuleHandleA
MessageBoxA
wpY}
E+P^
bj2ZO
tj7x
R"7y
I{7<#v(
ens\~
p*d[0
!hl~T
w~sC~
tbjxNZ
jm6O~
$NZb~
bqdrRZ
kx7.
fos@~
hcdxXU
fbho
s`-oI
CxZ;
u|-~T
ho6F?
d`c=Q
!ubnO
33331
3333
33333
33331
FvvD
Gggfv@
&vvggd
wwgbvt
1wwwr"gf@
1wwwr"vv@
wr""gf@
wr""&f@
ww"w""@
wr'""@
w""$
1rwr"
'w"/
"ww$
3333;
33333
sp`x`la
rYVK\
vy_j
Sb*6
^.~_
@\|p
-i7g~jw
" wB
^v[Q
r@q"-
';+FV
	_i0o
#vocUd
:--K
C^qB3
cc6]
Xw76
oH^,_
4ja7
Lf:h
.9t"
1@T[
ZMJ:
}2`.
	^ih
)	+BI
?)6sU
Pfh/3Au
]8s.`
WWNg
?}>F
4e('3
Du)uli
n+8?J`S
"W5Xz
ZoqM
,	kZX
X7M+
=^9FE
K,'}
fP&[P
5Nya
r~(M
MO92m
`#IW,
Jvn`
tHRU+%
/N%o
D~:=
+QyD8+!
(A5I0E$
WCev
zHK+X
"XO[vs1
jI|e
WB]!
Sg:?
e|H\*5
8bJZ
cbOv
`Y{.|
_XNf
y+m[kh
g	?P
LRC-
!oS/
jt(uQDSc'2
9Ph:
hB2{5
n sRP
mN_W
9ueh"S
K,v>
5y4Q#mP
R-a9
fF_M
]%jJ
pk?_
@EgG+
jOl>
!i \
Y`.e
mOE	
?(4T
UB#t4
h	+j
ey"G
Ph{v
-=RKN
YC}9
Mo<k
&g'%G=0$
l-7Vf
TO2nJfL-
9y;%=
GBi!
$|eO
qo:V
(qk#
18]w
q2zV
WVeI
L!-\
w&TGv
G_9k\v
gJ,R
QTHl
KUG{
![)P
t`XL
is?`
iI=5
,7>kt=E
Tg:]
7N_(c
8W:2T
PV9\
l#kG
z{5Z
$pit1
'^!-v
Ab Y
o-%m"
M8	#
L_!l
B'''
L(DG$
YlGakV
:2mu[
Sbm4
!9jA`
VKnl@(
X&TaW
G/NA>
+f,wf<
$(1^^
"PK8
F76WS,
d'	h=2
a_	^
2N[A
dUfu
dXxBo
:A5Cp
J5Zn
9j3`T
chpj#
9V!:
7B|9^E
ce,k
^6'G
`'kd
#Qze+
P`^	
gPbUT4
8j[0C}
[CXW
|cih
~d=-
8yIeY
UiN4
'v M5
5|vb
4}c<xz
>)|4
RMr<
y2P*[
nN<)2
fC<(c
%c'>2.
WX 6
st[0
jR	(|
4m;[
V@eS
0CS~
>ei,
ROOx
0;{t
9b7f`b
	#4qKQ
UU-}
}W,c
BD})
3,Bp
3EW~/b'
/{:|
3e/6
47S#
)B:l
Mui9\
iOax
Le/!
Q|2.3`
JB,i}m
udrg
2PXWn
PSv/
@zXs
W}#z+
M&;N
mu_V9
S<=8
f	5:1
68cF
U+%6
mrWk+
U:Pd
@d*}
|.x y>ZU
O]&Z
3xf=<
>c[;
FY22
~T^pF
?A<"
Q?qI/
dSA2%%'
d@O;?
}fk?
w:,)Z
qH@=_i
hYL3
]oXK
N+Og"
on=r
0nk 
hcTQ
ox~jb
&wfa
y`?~
1QN`
a_X<
{cx>
0no9`M
!)ZDz
$%%$
Ur"4>i%
fRI|
/+XP
(if(\
=^Hfc
-Qi$
Ft|gi
O]mx\n
nDN}
[,8t
 VF^P|
s)g-
f!uOu
rzL;fgz&
/#!	6
dg[$\z
J-a,)
,:"`
W>0=
61ex2>
3&sr~
T.OB
o#DBuf
"qmD
']c.
Qf	]z
D5$M
OuSL
&8[#
b~&f$
FuYw
1Ce>"
l*u'C<o
l)l	
%:4} 
T pE
6pZ"n
V6tO
fMU'
n?5k
UP+f
c%fIK&
S-;DlZT
t0/U
JfD_
'Bi-
CwlD=[
_>DV
)4K4
}_XP{
ukQpx
f%=!<
{r7-
g`-K
3q0QC
DN;X
Cqv;Q
2 *M
^NBJ
R|(!{
:fmV
AwNJ
	{v	
"l?"|F
.[s4
@SHoZ*W
+(ul
nL"3t
@nP_
9aYk
NcAj
zVK	b
}8o|
n<|i
OgUdNA)ZN
S&S:
uv&A*
^m&v
L?~!
|Cumj)xkt
3eWi
XZs*
$HDgX
[iwf;
yx4*
PC0/
eATo
?]ZK
)5)S,;
&9}:
'||7y
&MpU
R.h8
U%wa5
Aa&x
zd5,B(
*TX=
|B6Z
Z.{l
4=>^
[J,=
T~S+
1oE9yn0
`laW5 S
d[;vu'Y
PjHC
\Rg-
Yb%`G
SJKy
Q#0z&
Z;m2NcDA
7\a*
l/41
8z]`
:Of<y
Kzon9
GnV}T
PK7D
RIkN
?8p)
.o}2
K,;O
7<]T
wrB^
L=C@
{.L{
8^gL
P1^ d
b#/s\
2B?v@q=
^H:sm
& /vG
"O="PN
gyr'PP
7)]Kd
c_+[
4Fz<
\;M!V
OzNO	
Hy0Z
qRgj
\xaZ
ks?}(*
\/"<
 (a)w
D,<fl
]}|d
cnIO
1T/gz
]5 D
FuQ1
Wc2pa
+]r=
Y	"E
z[/~
jgy-
J\N`
2U,S
\q5b
 T@a
l=&%
(X?2
RSx~
Kyk	S
IW'm
=(me
}lM%
K7;Q"
e>>?q'!:
I%<w
lyg3
MO!u
yX~n8
((".
0!^q
(v"b
`Bj`
iX$Y
'~G<
)a-x
2}2g#
&#r/
Njtt]
C{yp
hyQo
0QxHW
gQR"
'uQl
fs{G
`Hp~U/`r
	m|w
].:)k
C4z3h
6Rm|
6zLK
Vozp
|EC"
t)Bnd
