!This program cannot be run in DOS mode.
Rich!4O
.text
.rsrc
i`8H
J'BY5
k`]<7/0C
?8o<>
]=%M
^BCW,
=wCe
{Hp|3
OFr,
\_V"
6 4p
<1B{
fWrz6Z
,.>b
$-DD
)u3T
i~S!>
&gf\
;xSq
cxe>
n7Cy
~<JV%,H
N-HYW
aOBq]
i~=,
Qtw,
?x71va
{c,3
Cwc,
[s b
|Kzp8m
Qc{b}WS
#iK5
"tsb
nvk,
~Ow/`9
YU?o
m"?o
^>jFC|
ajK?[c/
{X<wpC
n9&@
"ivW
xTz`
|wq<
R1#wt
Z>jyP
|cRI
xTzi
RgRV
uf"q
{H`0
o[ ;
|P(?o
^>jk
WRvE
dWR-
/Y /?
y3{2M
]"TE`
^>jv
KR_	i
.QGU
Oix*
xTzK
^>jsFQK
bmlbF
d6VV
hP!sh$
!IR%ep)
qQRUe0)
N*x"
h$<O
Gd1}
<d)t
hPG(
ch?o
zpKm
KzHjj
~k{b
CO@W<
Du b
1<O_~
Cw%X
07\/%
 i<O
Du b
u<O_
e'u/X
Ru[X
Fu b
0* <OB
#y9e
COCh<
sWq[
/O_X
66Y~
=O@W<
-l~S
i-@}
Zi.B>
i-@}
,/`q
KcEk
M>jq
R?aj
Z>jz
`T>zq
R{;mq
xT{0
sbbW
=[ck
bzCg
{b]WJ
(@}o
.kIe
h/`5
cWH`xP
<pk>
&/`K
>`r%
ZB.u
xT{9
x<&c
`*"m
5"G,A
b]WR
}(lb(
Z>j"
][1o
:[Jl
][@l
W``x
O=}(
/#,=
K8XS
>ze|
i1%<f
>p(qi
7&	`
`-dTS
:C[cH
I=}(k
{bzW
C|yl
vYyy
#3DLj
-;/[3
CLYnC
LY6C
LY	C
uiHY
C.[3
p(Wi
#:xT
>bW0
f`]7
h%>"
 2]G(
scl`
s`xQ
-j{S
6xT{+
WM`x
i+E"
0BBJq
:SALpY
'#'h
	fr,
{bYW
`[WR?A
=}(f`
`EWn=E
%oRQ
A`[*
5p%%
-i=)PK
WRiA
^i@=[
Vq^^PqW
DHjZIN`KD
VNdEIE
Vq^^PqW
THjZIN`KD
VNdEIN
Q{eY
}YSk
g/|iL
Nip/|ip/|iI/kiI
Lip/|ip/|ig/|iD/A
p/Dip/|ip/|ip
}ip/|i
p/|ip/|ip/|ip/|ip/|i
up/|ip/|ip/|i
E+|@
6HD/IIp
dip/<i
|\p/|qq/H)
P|\:
\ih/Hi0.|]E/|i
FIp7\]Do|ip
}izB
~6HP
SD/IIp
dip/<h
0/|]
i]i.
p/<ip
 )o8|
i|iJ
55W|
E+|B
LMi@
p/xip
|\p/<i
pO|i
E/|AJ
P6H:
(`x|
hJ+`
F:p/H)
i|\o
.|Ap/Hi
P|B:
j|io
FIp/|h
L\p/<i
pO|i
E/\iJ
Sp.T]
FID/Iit
P\i:
P|\:
p\FI
ilbH
BWW`xT
Y"OA`
_`[b
=}()
ipxd
tE"H
ktXS&
	Jm~
tJf5
tJ\5
~8Lz
?~E_
p(xi
7w/`
#iK`
\?C_
KzGHiU
j?o8
otp	
[e|m
s=vP 
Ghf/
F)vBf
F)qBf/
+vEq.s
KAw3l
\KJx
{CJw
Y#q	
e'xT{&
aB"V
)w6.
4'1w
`3PQ1,G(
#/`J
;("G
Kz`ZkEp"
mS"	
Z=}(
]i"N
}U[F
S5;5:j
8(?7
S\Gm"
_Gm"
fie$WA
feX&
fie$WA
gne$|H
+D@L
Yzv%D@
!)G@L
Yzv%D@
Z{v%~
+D@L
Yzv%D@
%D@L
Yzv%D@
Z{v%~
+D@L
Yzv%D@
Yzv%D@
Z{v%~
+D@L
Yzv%D@
Yzv%DBL
Yzv%
Yzv%D@
Z{v%~
+D@L
Yzv%D@
Yzv%
Yzv%D@
v%D@
Yzv%D@
Z{v%~
,D@L
Yzv%D@
Yzv%D@
v%D@
Y~di
Yzw%D@
Yzv%D@
Z{v%
v%D@
Yzv%D@
)SG|~dS
v%D@
v%D@
Yzv%D@
Yzv%D@
ws1 
Yzv%D@
Yzv%
Yzv%D@
<Z{,%D@L
Yzv%D@
v%D@
Yzv%
A[y6&D@
Yzv%D@
:Ofr
Yzv%
%HhJ
z^-v
5/Yzv%D@
Yzv%
q[z.
?BVq
R[=V}
(NEy
<*n@V
s5*_h
=O@J
zjR<wKw
!\ma
{m%]V
6l:&y
Yzv%D@
&D@L
Yzv%D@
Yzv%
Yzv%
Yzv%D@
bdG0
v%D@
Yzv%D@
m~{L
m~{v
QL~dj
Yzv%D@
Hs-!@
10Xv"D
L#~F
69Sn
A+a@
bAPc
{@L#
Yzv%
_wv#
)z?$9m
YS[8
Yzv%D@
Yzv%D@
}a^&
"E@L
Yzv%D@
Yzv%
[}n5
X@G<
Yzv%D@
Yzv%D@
{Js-
Yzv%D@
Yzv%D@
Yzv%D@
Yzv%D
%D@L
nYfk
1v($G^
$~df
v$VW
VMF:
X;Kfj:
7B=an;
9|kj
YX}jg
R+B*
%}eh
{}%D
f)yZ{x
Yzv%D@
Yzv%
f"CY
&DYz
Yzv%
r^r#/^
Yzv%D@
%D@L
Yzv%D@
Yzv%D@
Yzv%D@
Yzv%D@L
Yzv%D@
Yzv%D@
Yzv%DGL
Yzv%D@
Yzv%D@
+D@L
Yzv%D@
Yzv%D@
Yzv%
Yzv%D@
Yzv%D@
Z{v%
+D@L
Yzv%D@
Yzv%
}@9<D
Yzv%D@
Z{v%~
+D@L
Yzv%D@
Yzv%DC
Yzv%D@
Z{v%~
+D@L
Yzv%D@
Yzv%D@
Z{v%~
+D@L
Yzv%D@
hd2[S
Yzv%D@
Z{v%~
+D@L
Yzv%D@
^C,:s
Yzv%D@
Z{v%~
1Wns
K_)"x
Y$fi
_tNp
g_TR
%YMG$
ma[Q]
td7W
$0mCH
cbI(
FZyJ
h@p,"x
C4XG
6DxA
=8R'
'%Nq
h=!L`G5
@hXs
qFC#
qFC#
qGC"
C}qF
qxC"
qGC"
qGC"
qGC"
qGC"
C}qx
qGC"
qxC"
}qyC
}qxC
}qxC
qFC"
qxC"
}qxC
qGC"
qxC"
}qxC"
qxC"
qGC"
qFC#
}qyC
C}qFC
qGC"
}qxC
qxC"
qFC#
qxC"
qGC#
qxC#
}qGC
qGC"
qGC"
qGC"
}qxC
qGC"
qGC"
}qxC
qGC"
qFC"
qGC"
}qxC
qxC"
qFC"
qGC#
	be[
qGC#
qxC"
}qxC"
qGC"
	bdZ
qFC}
qGC#
qFC"
qFC"
	bdZ
qxC"
qxC"
}qGC"
}czC
qGC"
qGC"
C}qG
}ryC
qxC"
qGC"
qGC"
qGC"
}qyC
qFC#
xB /
}qxC
'Am<
k9tB
pxC"
qGC"
qGC#
qGC#.
}qxC
qxC"
qFC#/
GC#/
}qFC#/
}qxC
tAO 
;>b(
qCmlJ
 LyO
4eF1)tAF6!
g=;D
i8?g/
N1)D
zIJF
qM{sD
qNM1>8
Ib(k
QH=;
	.od
~[MCH
JM2>8
qNC4
qAC$
M+>8
YvCO
f=;Y
gq}A
\zyED!
gq}AO$
gq}AO$
gq}AO$
gq}AO$
gq}AO$
gq}AOH
]H7+vk
_FHD
ram[^
];7+
];7+
6+vk
];7+
];7+
_?3(
i!ZCJ3
16}P\
'YCO
ieh![D
ieh!
H1yW
di"ZA
odi$Y=O
A^s:
$	CM(
BQs;
A^r09%
K$Tng
pvkL
B7+v
rFHD
iF;D
DFHD
73(<
'TBG?9
87+0
_FHD
6.hd
\FHD
L7.i
Awcm_FHD
]H7+
j\_F
dm#	
@Y>O
6+'!
em &
`FHD
,A:<
iem!&
M)^l
~FHD
DFHD
%j|<
MFHD
*5	[
l_FHD
t_^B
p`B]FHD
^FHD
em 	
6jC<
dkk-
l_F8D
<7+1
V;'i
rFHD
LFHD
]H7+vk
xiH?
p`o]
F(Vra
_FHD
_83(<
m#[E
:7+v
eh [D
Uvk7
Mk^<
hFHD
Vi]<3
Mk^<
n`h"i$
U^<4
hFHD
Mk^<
-v[^
hFHD
Mk^<
hFHD
Mk^<
hFHD
Mk^<
Fv[2,<
hFHD
Mk^<
hFHD
ZEJ3|
}LiQ:
OjR<
iFHD
.\:9i
/`p"
/`t"
/`n"
=}(E
z=mhN
= Kx
PiiX"~
/":1
he-ZX
o{.C
`[WR;A
#'{bsW
z.Ei
T"WD
1|ty
fTSL&
wNuG
	N&5
Lb5{
d'5}
-dH{
-d~{
VQ;:
v[z|AZ
TD7iN
1|uy
1|ty
YLV5{&
%Qwy
S2xT
	c/`
$WRZA
+=M>
=~+V
~Qw/`
it`wbR
|K{ .i
9.xC
h0/`
aj:D
-DX0/@
`jE*@j2/
B-2C
:V[14
NrGe
`xbR
KRiw
Wz AJF
t#p`V
ZLy^&
L.aZY
Tol;^
L.aZY
8 [l.rvm
^ol/^
~Qw/`
)1`7
io`U
)rn=
)1`7
^>j&
KR$'k
}c/`
KRdU
irB#
Iz)^C
^6-C
g`a5]
B#g%
gb^I%
")^CS
Iz)^C
Gbs\gb
!<gbfK&
C,S]B
{QpU
zkcm
Eiz%
TNv|i
4Fv}
	 V,
N4Bv}
	 W,
,?vEz
4C:6
0L46
	Ec+
)&xTz
UiTg?o
WO`xT
zpqi
^>jG
/`PP
BhG%
BhG%
F'XQ
w,L@a%5
|&bT
YUflS
[DOW
MQTD
XDKTPD
PDMQ
[DL_r
RbJTre
UQuD
dETP
cHZX
nPT[
nLR[
dNZr
RTbD
ZPDl
HQu~
[DL_r
DSUD@
fKYV
VcFB
`HQrnNSr
VblY
fKRU
Rg@T[
PcPT{
XmGW
dL_r
OW[DlS
WXD]
`L_r
WQDO
PDlW
[DDSXD
RTbH
RmFTPDKY
JT[D
MQTDHS
OWtD
UmFTZDl_
dESu~OQ
PUnN
Pf@TU
`L_r
PmKZ
lZUnF
cLZr
EQUD
KUCJ
~CZu
{zOTEzD
cbTH
cbTH
VcHS
ETru
PDDS
fMTP
PDlX
VblZ
tDJQ
ZVDM
MWXtMWXMMTX
fU_X
lT[nTWQDlJXnZSX
EWru
Vclu
nEWru
ffur
fKZr
PDKW
TW[DlJXnZSX
lSTblEUfI
srMD
CuZQgA
f_T{Dl
n]YtD
KnE_Un]St
sXfKV
dZQtD
EWru
Vclu
fHQg~
PD]WSDKW
PnyB
Uc^{U
FrOG
ESUn
c]WTDKW
lJTbNQX
XTXD
EUBN
QPDZTtD
chbv
EQUn
ddwr
[nh{[DW
ewr@
VclW
[HuDG
RbFR
tNUr
PmKY
[Vnk_
d_TtDlE[n
che[
UTUDN
yrOM
[VnkW
RmlE
lKTBX
fF_r
CDdJI
[VnkW
^DKW
EQUn
xOHQ
{NKYr
flZ[f
UXCE
nleUn
Yg`ktZ
RPyg
EQUn
{NKYr
flJ[f
fZTt
EQUn
VQTb
~XnG
FQTbK
lKTBl
~LGQ
}WStDKY
fkBruy{
R`xr@
dexO
Yg`ktZ
n]W[DKW
fuyLg
PnKR
~XnG
tDKW
RlH~O
mKSC
WStDKY
tDKW
fder
Yg`ktZ
n^Sq
dlDKfLXX
fder
Yg`ktZ
Vclu
hJTD
TY^D
VTUDH
ehF_DE
lKPBX
dQatXlK
sGOe
Yg`ktZ
VclJ
d{gM
EvWA
Yg`ktZ
dLRJ
Gr}]
Yg`at
dQ[I
ygMe
fu{Leu
zM[HXD
BbLe[
VclW
r]SU
Rce{
OETruG
VcFRBeJ
RDKW
sToOW
JTXw
~XnG
VclEXB
UclAEu
HQg~
uKuZ
[VnkX
t[TtD
s[n@e
lJyNNW
dQatXlG
IUfJ
l@zM
WWtD
tKRr
^D@pT
nHQg~LUr
RKXT
^D@pT
zOEP
Yg`at
VmMT^
dQKW
~LGQ
dQKY
MWXtKW
HTg|
lRTIF
QrrL
LkyyOkx
RfEX
XQzD
d[ztD
dQVBXuH
dQFRXeKU
^nLR
dQFS
UeKcGX
ZUmKU
s{cKTA
x{OE
VcMTK
`kRUm
PeKU
Xl\Q[nEQ^lM
dQFW
YDF_r
ucJeV
VnKU
kRUi
dQNQ
ESSnLY
ZBeN
lH{M
UmDY
NeDn
UblJ
mNQX
XmXBr
M\Yz
[nLe
VcMT[
RFRgeE
FRgeE
dKRC
RmMV
VckRQnk
RKRg
RbKW
RWWgT
[DKW
PDKW
RcHS
[DMV
WUDM
FTXDNPr
ETru
JTre
RbkA
[UfE
UmLV
DS[DG
lZ[f
^BOQ
d_TuDKXT
HQrnFQ
UclX
[Ufl
FTUDKY
]W[DKW
JTre
s[nF
W[DD
EWrlFQ
gJSX
]W[DKW
MSUDKR
PDNRQ
VnyE
QDKW
DSUD
lRXIMV
lEUfN
HQrn
HQrn
TSPD
`KXg
cbT<}bT
FebT
j|dcT
|c!tl
BT|&bT
|&bTU&
!t9m
59eb
!t*c`F;Ab
|%>aT
TzjgP&
bT?m
bT=i
|dBT
cBT	Ib
YBTbY
|?!t
|c!t|
cbU~H
!t*c`F;Ab
|%>aT
czUX
cbT^
b`F;Ab
!t2$`F
hCzA
cbTfA
!t|$`F
^9eC
!t|$`F
^9eC
"59yb
"79}b
ccT^
b`F;Ab
!t2$`F
hCzA
|b!t|
!t*c`F;Ab
|%>aT
b`F;Ab
!t2$`F
c!t9
"59yb
"79}b
|YBTb
|c!tw
49ib
"59yb
|&)u
cbT^
b`F;Ab
!t2$`F
cbUE
|YBT>
|YBT>
|YBT>
|YBT>
|YBT>
|YBTzA
"59yb
|YBTb
c!t9
49ib
"59yb
"79}b
8F`b
|&cT
|YBT>0e
V|&B
|YBTbH
!t9}
 F`b
}YBT~
!tW 
J}YBT
|#)u|
\R{!b
v|"bT
#!8I
j=]X
`jCt
|"bT
cBT9Ab
|2)u
|p!t
#VfG
!t!N`F
Vbaf9
!t/N`F
Vbaf7
!t6c`
^	OC
N`FHn
!t|$`F
):Q|
|dBT
c`F;Ab
b`F;Ab
!tjc`F;Ab
!tYc`F;Ab
4${8N
^8AC
#VfG
!tyN`F
^:aC
|')uT
|z)uI
|z)u
|%)u#
Igb|
^=}B
cbTfA
!tmc`F;Ab
!t>b`F;Ab
!te$`F
N)u|
!t|$`F
^=}C
|"bT
.{!b
h	fA
O`FX
^8AC
#VfG
!tZc`
^8AC
#VfG
!teN`FHX
O`FX
#VfG
!tQN`FH
|p!t
#VfG
!tKN`FH	WF|
#VfG
#VfG
#VfG
b`F;Ab
c`F;Ab
c`F;Ab
+:YW
|p!t
OcTX
y7CV
c'UfG
!t~c`F
#VfG
!tMc`
ObTX
y7CV
!tv$`F
"V|$bT
!tXb`
^:aC
]BT9i&
^L"C
|dBT
jcb`
jcb`
!tmc`F;Ab
b`F;Ab
c`F;Ab
!tDc`F;Ab
!tmc`
!tKc`
!tmc`F;Ab
b`F;Ab
c`F;Ab
!t c`
!t\c`F;Ab
!tSc`F;Ab
!t!c`F;Ab
b`F;Ab
!t\c`
!tRc`
F,KBT
h	bL
!t=}X
"V|NbTHX
"V|NbT
^:aC
|')uT
|z)uA
|z)u
|")u
c.T^
"V|NbTH"WE|J
!tjc`FP
y5CV0T
!tjc`FP
y5CV
!t~c`F
cp:In
y5CV
:*i`
^8AC
y5CV
|c!t^
|')uT
|z)uI
|z)u
b`F;Ab
!ts$`F
V!CV/
8{!b
|dBT
^8AC
^=}C
!t4c`F;Ab
+:YW
!t4c`F;Ab
+:YW
!t|dbT
!ty$`F
-G9b`
"V|$cT
VWg|
!t\c`F;Ab
!te$`F
c5T'C
 <}b
XbT|
c"U&
&bT|
c"U&
H0bT|
cBT{!b
!t\c`F;Ab
!te$`F
"V|$cT
|")u
h	fA
!ty$`F
"V|$cT
|%)u1
|YBT~
^8AC
^	EC
h	fA
!t_$`F
nH$WR|
|8!t|YbTt
^	GC
zYBTt
^	qC
cBTFob
^=}C
|')uT
|z)uI
|z)u
|")u
!te$`F
!te$`F
^8AC
|")u
^8AC
^	EC
h	L&
|S)uv
\#XY
T{!~
h	blb
"V|$bT
!t4c`F;Ab
+:YW
!t4c`F;Ab
+:YW
<}bT
"V|$bT
"V|$cT
!t4c`F;Ab
+:YW
"V|$bT
>V7b
#`T$
!t4c`F;Ab
+:YW
dblb
"V|$bT
"6b`
!t4c`F;Ab
+:YW
*CVJ
<}bT
cI`H]bT|
c`F;Ab
c`F;Ab
!ty$`F
#cT$
!t4c`F;Ab
+:YW
Bblb
"V|$bT
BTfA
c`F;Ab
c`F;Ab
!ty$`F
!t4c`F;Ab
+:YW
:blb
"V|$bT
^	UC
c`F;Ab
c`F;Ab
!ty$`F
|#aT
!tjc`F;Ab
!ty$`F
c`F;Ab
b`F;Ab
!ty$`F
"T,CV
!ty$`F
"V|$bT
"V|$bT
~HIa
t%ba
|"`T
&{!b
h	fA
!ty$`F
t%ba
"V|$bT
c)T$
c8T 
c`F;Ab
b`F;Ab
c`F;Ab
!t4c`F;Ab
h	fA
!ty$`F
t%ba
"V|$bT
h	fA
!ty$`F
t%ba
|%)u1
!t4c`F;Ab
+:YW
!t4c`F;Ab
h	t%ba
h	fA
!t|$`F
PIq:T
|YBTfA
!tob`
b`F;Ab
!t4c`F;Ab
!t*c`F;Ab
c8T:Y
^=}C
!t4c`F;Ab
!t*c`F;Ab
^8AC
^IqCT
|c!t
:Q|%cT1
0CV?
|"cT
8{!b
h	n%b
 6fA
c`F;Ab
b`F;Ab
!t4c`F;Ab
!t*c`F;Ab
^8AC
^IqCT
nH;WR|
"V|$cT
|%)u1
^:AC
|z)u
^8AC
N$pP
bT;ag
cbTn
)@b 
BTp(:i-
~=]M
gxTz
=}()
{bwW
pE!L
NnM/S
l0l/
'"O8E2.
&:M/<
_+c#O
#0y6
7%0N
r=Mr
cG`k{
Sksb
WH`x
iIF}
^>jT
`OWR
D"K	C
4+?oO
%cxTz
RFgw
m/36
+Sn3
oRiqh
]s*?o
}WRLA9
mky8q
P8pkJ8m
|8Ckq8.ad
eE8C
9DkP0Kld
gd8C
'[g^
[`Ys
Qk-EX`
'`-JX
}&.`E
MX%j
iIB}
%Qwy
E2-?
Z>jd
zBNi
^>jg
i.`*
;+g#
aJL`
!WRQA
^>j <1
c+jO
x;"W
^>jab
SC"R
EYPF
%Qwy
{b}WRS
yI{}
h.`:
%Qwy
tit=
Kz5Vh
R0oG
cO[3
ir=p
ip=9
8{I*
,MJj
OWR%
"~sb
,kVj
A*jp<
@*jp<
@*jp<0
HL*jp<"
r.=)
h*w>
f#s"
WzRAH
^>jW
EUW 
:]&w?
A}xf
fj&`
Kp`12
1i{H
>C"[
^>jB
j{b)Wz'
.klY
t`A}
,{biW
SnGl
#~HlT
y5{=
yN{3
yN{_
Eml@
5m"6
OhRZ
2Qwg
^>ja
#i b
K{&?h
lkp=
f?oR
hT`[bR
txfcR
mLsb7W
ZsY"L
ZZ7 
p(Zin
<b{?
aMM"j
8k.`
]`S,
"VK`
]g"4:
{b	W
 `{=
;h}e1\
+}}e
OPpI
SI._RpP
i	`>
\`ox
KR5w
e{"Y
k0t"
Vp=F-`
2\FC?o}
ZH8A{H)
e{H*
OH2`
-{HI
R"q_
^>jN`Wb
kt>":
C.`:
-\:D2	
O:Sg
%p(Mi
"uN`
D:@F
g'\g
?&\9
^>j]`Yb
}.`d
zAbm
sxJ"y
xxI"xxA"yxJ
qC,c
c(<x
.dp'"I
c(<x
c(<x
B"Qeq
#bK'"
|CPr"
=QK"c0
APy"
V(<x
tA8j
&Qx?[
qDQ:Q
c(<x
/Qx?[
coQ8
/Qx?[
#iW`
}W]`xPR
=Oct
g^Dc{
-otY
u\NR
PID[R
AZm:
PV\Y
PS@Y
~xZ~
~xZz
~(smdS
~MZP
?xZWh
ZT\M
VxZj
PW\Y
za(|
HWdx
?3{(x
Z'~MZ:
P&XYZ
~MZS`M
LWlY
PfEY
r`[D
xTzd
\KzB*k
c.`O
=}(1
%9Kn
R?=?o
0`#,
)\eY
z]<l
U*o^
Rs`?
*?o{
b[`PJ
hB[=<
I8z=
I8z=
h8z=
Gz=1
[=*;
s;[=I
Gz=1
5k>_?
M[=j
-q=W
v:S:
[=*9
I8Y<
M8<c>[
#s>z=1
Gz=1
w<%Oj
Gz=1
}[=*
r;[=I
+*z=
h8z=
%	hnd
*mr=_
[WR@A
"-H`
iR24wp=
ID2J
s~Xr
uYDa
AVxa
N-Vx
w"3"</`
W~A"
^>j&
3WRf
g9 6
0A:xTzm
!?oR
K{!\j
Wl`x
*U"}@`
p]R2
u3hX
FH*Gox
@r}`
?wG7
WiB5
="O@
?v@w
`.`c
z~Tib`
Z>jV
VKzu8k:
,;A}
Bi'w"
{&8e@
{&8eL
Z&8eF
zdQ"
Z&8ev
">M`
`rWRs
xPn=
,|_A
^#%e
<`YZ
$'t'n
;`rk
ziRx
9U8A}
i[["
Q6h,c
c,cx=
]M);
c,cx=
l-=Q
UV,Ss
=QX2
mnD+K[
<T+,
^>jW
O)Kn
qiox
LI ;
K(*L`
Ld(9^`
	v72
`n2m
xx[c
WR6\w
Twhg
|;]+
`|]+
N]+e
w]+e
~]+k
N]++
`|]+
~g+7_
`|]+
O+1:
`|]+
`|]+
~g+7^
A-xTzm
2A}J
>n.`|
Vkn=
Z>j_CX
|c.`
w}~6
uG[8
u2#T
a2G(
D%Y]"
:/Z[
"#DPdX
]Q=&
}WzK
vj;V
^>\~
X@N:
X@N:
+B|B5
zOQk
#i2_
Kz:1mL
Z>jz.
ELnU
u._DL
zOf2
klbh
Z>jE
Bhr5"
r2IT
% "	? 
	(("	>
(("	>(
	;2"
	= "
OI"<
P'9G
Qp3D
 'hDA
$`; 
a_xTzO
0`~.
R!Y^
Kiu7Q&
SmJH
EN1&5
/8-Q
H%nzH
AU(y
YPFE
YU(Y
]^NU
E>9&5
]7b:"KS[
.&}H
.&}H
yr_H
.&~H
u{HQ
k4_H
f(R&
U](_
Y\.;
3\8#
3YDU
3ADUX
A"QX
U]F=
$_iW
.&Sg<
_]ZC
PQ^4
i.`3
SZxT
bXi.`3
YWzR
p?oO
e1Y#
|3T~
ao1f
UpKL_ 
U%9e5(
U68iu6
p20x
0gq2
C =G(
R4Jj
SMtC
{bKW
iu`UB
K{O4m
"yv#
:p[{
#xjp
#``p#E
}C#E
fEM7
\Y~1
;pf{
\r	h^
2hnf
b{i.
s6"2
oLcEh
]J9?
^>j,
$	d@
z)q5
#"$``b
!A?oRJdk
@arMX1
{brW
#il(
Kz`ek
i~X^hjX^ijX
R^i~X
7i&k/K_
a/$mC
{_,G(
J2==
?v"k
~gt!>
RW]`x
2I5}
{bRW
'xi7
\xiG
#;[s
#;[w
#?[w
#?[{
#?_w
#C[{
'?_w
#C[{
'?_{
#C[{
'?_{
#C_{
'C_{
'Cc{
#;[s
#;[w
#?[w
#?[{
#?_w
H"Gq}
/vbW
4?XHs}
#|k+
];Mc
3cA1
2$mS
_>]n
7/{2%
1/NS
!48IQ
/[*Q
K%|tg
[6cb
,/zk
L5hm
3/^=[
-ne2
>ln;
PmuU
r/^';
_kx&
uIr^
<o3k
-F0	
PADDINGXXPADDINGPADDINGXXPADDINGPADDINGXXPADDINGPADDINGXXPADDINGPADDINGXXPADDINGPADDINGXXPADDINGPADDINGXXPADDINGPADDINGXXPADDINGPADDINGXXPADDINGPADDINGXXPADDINGPADD
