{
    "hash": "000008e2ff1b8d64e3f81cbc456d4d51b6e967af0267d5486d4a562df291d0a6",
    "section": [
        {
            "Name": ".MPRESS1",
            "VirtualAddress": "0x1000",
            "Misc_VirtualSize": "0x8d000",
            "SizeOfRawData": 525312
        },
        {
            "Name": ".MPRESS2",
            "VirtualAddress": "0x8e000",
            "Misc_VirtualSize": "0x1000",
            "SizeOfRawData": 3584
        },
        {
            "Name": ".imports",
            "VirtualAddress": "0x8f000",
            "Misc_VirtualSize": "0x1000",
            "SizeOfRawData": 4096
        }
    ],
    "import": {
        "KERNEL32.DLL": [
            "MultiByteToWideChar",
            "WideCharToMultiByte",
            "MulDiv",
            "GlobalUnlock",
            "RtlMoveMemory",
            "GlobalFree",
            "GlobalLock",
            "GlobalAlloc",
            "CancelWaitableTimer",
            "SetWaitableTimer",
            "CreateWaitableTimerA",
            "TerminateProcess",
            "OpenProcess",
            "Module32First",
            "CloseHandle",
            "Process32Next",
            "Process32First",
            "CreateToolhelp32Snapshot",
            "GetModuleFileNameA",
            "GetModuleHandleA",
            "HeapFree",
            "GetWindowsDirectoryA",
            "LCMapStringA",
            "LoadLibraryA",
            "GetProcAddress",
            "FreeLibrary",
            "Sleep",
            "WritePrivateProfileStringA",
            "GetTickCount",
            "WriteFile",
            "GetEnvironmentVariableA",
            "CreateFileA",
            "GetFileSize",
            "ReadFile",
            "IsBadReadPtr",
            "HeapReAlloc",
            "ExitProcess",
            "LocalSize",
            "HeapAlloc",
            "GetCurrentProcessId",
            "GetProcessHeap",
            "lstrlenW",
            "GetTempPathA"
        ],
        "ATL.DLL": [],
        "GDI32.dll": [
            "DeleteDC",
            "Rectangle",
            "BitBlt",
            "StretchBlt",
            "GetPixel",
            "GetStockObject",
            "GetObjectA",
            "CreateCompatibleDC",
            "CreateDIBSection",
            "DeleteObject",
            "CombineRgn",
            "CreateRoundRectRgn",
            "CreateSolidBrush",
            "CreatePatternBrush",
            "CreateCompatibleBitmap",
            "FillRgn",
            "SetTextColor",
            "SetBkMode",
            "FrameRgn",
            "SelectObject",
            "ExtCreateRegion",
            "CreateFontA",
            "SetBkColor",
            "GetDeviceCaps"
        ],
        "gdiplus.dll": [
            "GdipDrawRectangle",
            "GdipDrawRectangleI",
            "GdipSaveImageToStream",
            "GdipGetTextRenderingHint",
            "GdipGetImageEncodersSize",
            "GdipCreateBitmapFromStream",
            "GdipCreateBitmapFromStreamICM",
            "GdiplusStartup",
            "GdipGetImageRawFormat",
            "GdipSetTextRenderingHint",
            "GdipGetSmoothingMode",
            "GdipSetSmoothingMode",
            "GdipSetWorldTransform",
            "GdipDeleteBrush",
            "GdipCreateSolidFill",
            "GdipGetImageGraphicsContext",
            "GdipGetImageEncoders"
        ],
        "MSIMG32.dll": [
            "TransparentBlt",
            "AlphaBlend"
        ],
        "MSVCRT.dll": [
            "strncmp",
            "sprintf",
            "tolower",
            "strncpy",
            "??3@YAXPAX@Z",
            "atoi",
            "_ftol",
            "floor",
            "_CIfmod",
            "srand",
            "rand",
            "??2@YAPAXI@Z",
            "strchr",
            "memmove",
            "modf",
            "free",
            "malloc",
            "_strnicmp"
        ],
        "ole32.dll": [
            "CreateStreamOnHGlobal",
            "CLSIDFromString",
            "StringFromGUID2",
            "GetHGlobalFromStream",
            "CoInitialize",
            "CoUninitialize"
        ],
        "OLEAUT32.dll": [
            "SysAllocString",
            "OleLoadPicture",
            "SafeArrayDestroy",
            "VarR8FromCy",
            "VarR8FromBool",
            "SafeArrayCreate",
            "VariantClear"
        ],
        "SHELL32.dll": [
            "DragAcceptFiles",
            "DragQueryFileA",
            "DragFinish",
            "ShellExecuteA",
            "Shell_NotifyIconA"
        ],
        "SHLWAPI.dll": [
            "PathFileExistsA",
            "StrToIntExA"
        ],
        "USER32.dll": [
            "AppendMenuA",
            "DestroyMenu",
            "LoadMenuA",
            "GetSystemMenu",
            "CreatePopupMenu",
            "CreateMenu",
            "DrawTextA",
            "GetIconInfo",
            "DrawIconEx",
            "DrawIcon",
            "wvsprintfA",
            "RegisterClassExA",
            "SetActiveWindow",
            "UnregisterHotKey",
            "RegisterHotKey",
            "RegisterWindowMessageA",
            "DrawMenuBar",
            "SetMenu",
            "GetMenu",
            "GetSystemMetrics",
            "IsZoomed",
            "IsIconic",
            "GetSysColor",
            "FillRect",
            "SetClassLongA",
            "GetClassLongA",
            "SetRect",
            "SetWindowRgn",
            "RemovePropA",
            "GetPropA",
            "SetPropA",
            "MessageBoxA",
            "GetMenuItemCount",
            "InsertMenuA",
            "SetMenuInfo",
            "GetSubMenu",
            "GetMenuItemID",
            "CheckMenuRadioItem",
            "CopyImage",
            "SetForegroundWindow",
            "GetDC",
            "ReleaseDC",
            "GetMessageA",
            "GetParent",
            "TranslateAcceleratorA",
            "IsDialogMessageA",
            "TranslateMessage",
            "DispatchMessageA",
            "IsWindow",
            "GetClassNameA",
            "BeginPaint",
            "EndPaint",
            "CallWindowProcA",
            "GetAsyncKeyState",
            "GetClientRect",
            "DestroyWindow",
            "TrackPopupMenu",
            "GetMenuStringA",
            "GetMenuItemInfoA",
            "MenuItemFromPoint",
            "GetMenuItemRect",
            "GetMenuState",
            "GetMenuInfo",
            "GetMenuDefaultItem",
            "PeekMessageA",
            "wsprintfA",
            "SetMenuDefaultItem",
            "SetMenuItemBitmaps",
            "SetMenuItemInfoA",
            "SetWindowTextA",
            "GetWindowTextA",
            "GetWindowTextLengthA",
            "EnableWindow",
            "IsWindowEnabled",
            "ShowWindow",
            "IsWindowVisible",
            "SetParent",
            "PostMessageA",
            "SetWindowPos",
            "MoveWindow",
            "UpdateWindow",
            "ValidateRect",
            "InvalidateRect",
            "ScreenToClient",
            "GetWindowRect",
            "GetFocus",
            "SetFocus",
            "GetDlgItem",
            "GetWindowLongA",
            "CreateWindowExA",
            "DestroyCursor",
            "SetWindowLongA",
            "PostQuitMessage",
            "DestroyIcon",
            "TrackMouseEvent",
            "SetCursor",
            "LoadCursorA",
            "CheckMenuItem",
            "RemoveMenu",
            "CopyIcon",
            "DefWindowProcA",
            "SendMessageA",
            "DefMDIChildProcA",
            "MsgWaitForMultipleObjects"
        ],
        "WININET.dll": [
            "HttpQueryInfoA",
            "InternetReadFile",
            "HttpSendRequestA",
            "HttpOpenRequestA",
            "InternetConnectA",
            "InternetCloseHandle",
            "InternetOpenA"
        ]
    }
}