{
    "hash": "0000dfb6256443a5a21ec3d9f0fd34552a0b115220890fbc96027a2ee6b4c616",
    "section": [
        {
            "Name": ".text\u0000\u0000\u0000",
            "VirtualAddress": "0x1000",
            "Misc_VirtualSize": "0x7a000",
            "SizeOfRawData": 497664
        },
        {
            "Name": ".rdata\u0000\u0000",
            "VirtualAddress": "0x7b000",
            "Misc_VirtualSize": "0x1000",
            "SizeOfRawData": 512
        },
        {
            "Name": ".data\u0000\u0000\u0000",
            "VirtualAddress": "0x7c000",
            "Misc_VirtualSize": "0xac",
            "SizeOfRawData": 512
        },
        {
            "Name": ".rsrc\u0000\u0000\u0000",
            "VirtualAddress": "0x7d000",
            "Misc_VirtualSize": "0x115c",
            "SizeOfRawData": 4608
        }
    ],
    "import": {
        "ntdll.dll": [
            "RtlInitString",
            "LdrUnlockLoaderLock"
        ],
        "user32.dll": [
            "GetDoubleClickTime",
            "GetClipboardViewer"
        ]
    }
}