{
    "hash": "0000922bd1cc45b760da87eb2aa2605e1bfaedd349549560e8a4b0a9ec8c399f",
    "section": [
        {
            "Name": ".text\u0000\u0000\u0000",
            "VirtualAddress": "0x1000",
            "Misc_VirtualSize": "0x12d170",
            "SizeOfRawData": 1233408
        },
        {
            "Name": ".itext\u0000\u0000",
            "VirtualAddress": "0x12f000",
            "Misc_VirtualSize": "0x11bc",
            "SizeOfRawData": 4608
        },
        {
            "Name": ".data\u0000\u0000\u0000",
            "VirtualAddress": "0x131000",
            "Misc_VirtualSize": "0x4be8",
            "SizeOfRawData": 19456
        },
        {
            "Name": ".bss\u0000\u0000\u0000\u0000",
            "VirtualAddress": "0x136000",
            "Misc_VirtualSize": "0x5330",
            "SizeOfRawData": 0
        },
        {
            "Name": ".idata\u0000\u0000",
            "VirtualAddress": "0x13c000",
            "Misc_VirtualSize": "0x35e8",
            "SizeOfRawData": 13824
        },
        {
            "Name": ".didata\u0000",
            "VirtualAddress": "0x140000",
            "Misc_VirtualSize": "0x85e",
            "SizeOfRawData": 2560
        },
        {
            "Name": ".tls\u0000\u0000\u0000\u0000",
            "VirtualAddress": "0x141000",
            "Misc_VirtualSize": "0x40",
            "SizeOfRawData": 0
        },
        {
            "Name": ".rdata\u0000\u0000",
            "VirtualAddress": "0x142000",
            "Misc_VirtualSize": "0x18",
            "SizeOfRawData": 512
        },
        {
            "Name": ".reloc\u0000\u0000",
            "VirtualAddress": "0x143000",
            "Misc_VirtualSize": "0x1853c",
            "SizeOfRawData": 99840
        },
        {
            "Name": ".rsrc\u0000\u0000\u0000",
            "VirtualAddress": "0x15c000",
            "Misc_VirtualSize": "0x7e00",
            "SizeOfRawData": 32256
        }
    ],
    "import": {
        "oleaut32.dll": [
            "SafeArrayPtrOfIndex",
            "SafeArrayGetUBound",
            "SafeArrayGetLBound",
            "SafeArrayCreate",
            "VariantChangeType",
            "VariantCopy",
            "VariantClear",
            "VariantInit"
        ],
        "advapi32.dll": [
            "RegUnLoadKeyW",
            "RegSetValueExW",
            "RegSaveKeyW",
            "RegRestoreKeyW",
            "RegReplaceKeyW",
            "RegQueryValueExW",
            "RegQueryInfoKeyW",
            "RegOpenKeyExW",
            "RegLoadKeyW",
            "RegFlushKey",
            "RegEnumValueW",
            "RegEnumKeyExW",
            "RegDeleteValueW",
            "RegDeleteKeyW",
            "RegCreateKeyExW",
            "RegConnectRegistryW",
            "RegCloseKey"
        ],
        "user32.dll": [
            "EnumDisplayMonitors",
            "GetMonitorInfoW",
            "MonitorFromPoint",
            "MonitorFromRect",
            "MonitorFromWindow"
        ],
        "kernel32.dll": [
            "Sleep"
        ],
        "msimg32.dll": [
            "GradientFill",
            "AlphaBlend"
        ],
        "gdi32.dll": [
            "UnrealizeObject",
            "StretchDIBits",
            "StretchBlt",
            "StartPage",
            "StartDocW",
            "SetWindowOrgEx",
            "SetWinMetaFileBits",
            "SetViewportOrgEx",
            "SetTextColor",
            "SetStretchBltMode",
            "SetROP2",
            "SetPixel",
            "SetEnhMetaFileBits",
            "SetDIBits",
            "SetDIBColorTable",
            "SetBrushOrgEx",
            "SetBkMode",
            "SetBkColor",
            "SetAbortProc",
            "SelectPalette",
            "SelectObject",
            "SaveDC",
            "RoundRect",
            "RestoreDC",
            "Rectangle",
            "RectVisible",
            "RealizePalette",
            "Polyline",
            "Polygon",
            "PolyBezierTo",
            "PolyBezier",
            "PlayEnhMetaFile",
            "Pie",
            "PatBlt",
            "MoveToEx",
            "MaskBlt",
            "LineTo",
            "IntersectClipRect",
            "GetWindowOrgEx",
            "GetWinMetaFileBits",
            "GetTextMetricsW",
            "GetTextExtentPointW",
            "GetTextExtentPoint32W",
            "GetSystemPaletteEntries",
            "GetStockObject",
            "GetRgnBox",
            "GetPixel",
            "GetPaletteEntries",
            "GetObjectW",
            "GetEnhMetaFilePaletteEntries",
            "GetEnhMetaFileHeader",
            "GetEnhMetaFileDescriptionW",
            "GetEnhMetaFileBits",
            "GetDeviceCaps",
            "GetDIBits",
            "GetDIBColorTable",
            "GetCurrentPositionEx",
            "GetClipBox",
            "GetBrushOrgEx",
            "GetBitmapBits",
            "GdiFlush",
            "FrameRgn",
            "ExtTextOutW",
            "ExtFloodFill",
            "ExcludeClipRect",
            "EnumFontsW",
            "EnumFontFamiliesExW",
            "EndPage",
            "EndDoc",
            "Ellipse",
            "DeleteObject",
            "DeleteEnhMetaFile",
            "DeleteDC",
            "CreateSolidBrush",
            "CreateRectRgn",
            "CreatePenIndirect",
            "CreatePalette",
            "CreateICW",
            "CreateHalftonePalette",
            "CreateFontIndirectW",
            "CreateDIBitmap",
            "CreateDIBSection",
            "CreateDCW",
            "CreateCompatibleDC",
            "CreateCompatibleBitmap",
            "CreateBrushIndirect",
            "CreateBitmap",
            "CopyEnhMetaFileW",
            "Chord",
            "BitBlt",
            "ArcTo",
            "Arc",
            "AngleArc",
            "AbortDoc"
        ],
        "version.dll": [
            "VerQueryValueW",
            "GetFileVersionInfoSizeW",
            "GetFileVersionInfoW"
        ],
        "ole32.dll": [
            "OleUninitialize",
            "OleInitialize",
            "CoTaskMemFree",
            "CoTaskMemAlloc",
            "CoCreateInstance",
            "CoUninitialize",
            "CoInitialize",
            "IsEqualGUID"
        ],
        "comctl32.dll": [
            "InitializeFlatSB",
            "FlatSB_SetScrollProp",
            "FlatSB_SetScrollPos",
            "FlatSB_SetScrollInfo",
            "FlatSB_GetScrollPos",
            "FlatSB_GetScrollInfo",
            "_TrackMouseEvent",
            "ImageList_GetImageInfo",
            "ImageList_SetIconSize",
            "ImageList_GetIconSize",
            "ImageList_Write",
            "ImageList_Read",
            "ImageList_GetDragImage",
            "ImageList_DragShowNolock",
            "ImageList_DragMove",
            "ImageList_DragLeave",
            "ImageList_DragEnter",
            "ImageList_EndDrag",
            "ImageList_BeginDrag",
            "ImageList_Copy",
            "ImageList_LoadImageW",
            "ImageList_GetIcon",
            "ImageList_Remove",
            "ImageList_DrawEx",
            "ImageList_Replace",
            "ImageList_Draw",
            "ImageList_SetOverlayImage",
            "ImageList_GetBkColor",
            "ImageList_SetBkColor",
            "ImageList_ReplaceIcon",
            "ImageList_Add",
            "ImageList_SetImageCount",
            "ImageList_GetImageCount",
            "ImageList_Destroy",
            "ImageList_Create"
        ],
        "shell32.dll": [
            "Shell_NotifyIconW"
        ],
        "winspool.drv": [
            "GetDefaultPrinterW"
        ]
    }
}