{
    "hash": "0000361f90000ceca0b05e840fca7b7cc535a0e7867207bc76fbf71a45a3788f",
    "section": [
        {
            "Name": ".text\u0000\u0000\u0000",
            "VirtualAddress": "0x2000",
            "Misc_VirtualSize": "0xa5d24",
            "SizeOfRawData": 679424
        },
        {
            "Name": ".rsrc\u0000\u0000\u0000",
            "VirtualAddress": "0xa8000",
            "Misc_VirtualSize": "0x628",
            "SizeOfRawData": 2048
        },
        {
            "Name": ".reloc\u0000\u0000",
            "VirtualAddress": "0xaa000",
            "Misc_VirtualSize": "0xc",
            "SizeOfRawData": 512
        }
    ],
    "import": {
        "mscoree.dll": [
            "_CorExeMain"
        ]
    }
}