{
    "hash": "000030237803a3c38051375d0a9f9231c248f443ab8c7f0f059ee1ebb2397e11",
    "section": [
        {
            "Name": ".code\u0000\u0000\u0000",
            "VirtualAddress": "0x1000",
            "Misc_VirtualSize": "0x5200",
            "SizeOfRawData": 5632
        },
        {
            "Name": ".DATA\u0000\u0000\u0000",
            "VirtualAddress": "0x7000",
            "Misc_VirtualSize": "0x14200",
            "SizeOfRawData": 9728
        },
        {
            "Name": "RSRC\u0000\u0000\u0000\u0000",
            "VirtualAddress": "0x1c000",
            "Misc_VirtualSize": "0x4000",
            "SizeOfRawData": 14336
        },
        {
            "Name": ".r1\u0000\u0000\u0000\u0000\u0000",
            "VirtualAddress": "0x20000",
            "Misc_VirtualSize": "0x11f0",
            "SizeOfRawData": 4608
        }
    ],
    "import": {
        "msi.dll": [
            "MsiCloseHandle"
        ],
        "dbghelp.dll": [
            "SymEnumerateModules",
            "SymEnumerateModules64",
            "SymEnumerateSymbols",
            "SymEnumerateSymbols64",
            "SymEnumerateSymbolsW",
            "SymEnumerateSymbolsW64",
            "SymFindFileInPath",
            "SymFromAddr",
            "SymFromName",
            "SymFunctionTableAccess",
            "SymGetFileLineOffsets64",
            "SymGetLineFromAddr",
            "SymGetLineFromAddr64",
            "SymGetLineFromName",
            "SymGetLineFromName64",
            "SymGetLineNext",
            "SymGetLineNext64",
            "SymGetLinePrev",
            "SymGetLinePrev64",
            "SymGetModuleBase",
            "SymGetModuleBase64",
            "SymGetModuleInfo",
            "SymGetModuleInfo64",
            "SymGetModuleInfoW",
            "SymGetModuleInfoW64",
            "SymGetOptions",
            "SymGetSearchPath",
            "SymGetSymFromAddr",
            "SymGetSymFromAddr64",
            "SymGetSymFromName",
            "SymGetSymFromName64"
        ],
        "kernel32.dll": [
            "MapViewOfFileEx",
            "GetTickCount",
            "GetSystemDirectoryA",
            "LocalAlloc",
            "SetConsoleTitleW",
            "EnumCalendarInfoA",
            "CallNamedPipeA",
            "ReadFile",
            "CreateFileA"
        ],
        "oleaut32.dll": [
            "OleLoadPictureEx",
            "OleIconToCursor",
            "SafeArrayCopy",
            "SafeArrayCreate"
        ]
    }
}