{
    "hash": "0000f999d53dbf5121a1fd2cd81e3b39825950571886ad6b769e791f18d4fccb",
    "section": [
        {
            "Name": ".text\u0000\u0000\u0000",
            "VirtualAddress": "0x1000",
            "Misc_VirtualSize": "0x36cfd",
            "SizeOfRawData": 224768
        },
        {
            "Name": ".rsrc\u0000\u0000\u0000",
            "VirtualAddress": "0x38000",
            "Misc_VirtualSize": "0x115c",
            "SizeOfRawData": 4608
        }
    ],
    "import": {}
}