{
    "hash": "00001c0f197573f3ee1dc9455f6dfcfc47b2bfafc0d571c9d5c17ff323633c55",
    "section": [
        {
            "Name": ".text\u0000\u0000\u0000",
            "VirtualAddress": "0x1000",
            "Misc_VirtualSize": "0x8a6",
            "SizeOfRawData": 2560
        },
        {
            "Name": ".rdata\u0000\u0000",
            "VirtualAddress": "0x2000",
            "Misc_VirtualSize": "0x66a",
            "SizeOfRawData": 2048
        },
        {
            "Name": ".data\u0000\u0000\u0000",
            "VirtualAddress": "0x3000",
            "Misc_VirtualSize": "0x384",
            "SizeOfRawData": 512
        },
        {
            "Name": ".rsrc\u0000\u0000\u0000",
            "VirtualAddress": "0x4000",
            "Misc_VirtualSize": "0x814",
            "SizeOfRawData": 2560
        }
    ],
    "import": {
        "KERNEL32.dll": [
            "LoadLibraryA",
            "FreeLibrary",
            "GetProcAddress",
            "SetUnhandledExceptionFilter",
            "UnhandledExceptionFilter",
            "GetCurrentProcess",
            "TerminateProcess",
            "GetSystemTimeAsFileTime",
            "GetCurrentProcessId",
            "GetCurrentThreadId",
            "GetTickCount",
            "QueryPerformanceCounter",
            "GetStartupInfoA",
            "InterlockedCompareExchange",
            "Sleep",
            "InterlockedExchange",
            "IsDebuggerPresent"
        ],
        "MSVCR80.dll": [
            "_adjust_fdiv",
            "__p__commode",
            "__p__fmode",
            "_encode_pointer",
            "__set_app_type",
            "__setusermatherr",
            "_unlock",
            "__dllonexit",
            "_lock",
            "_onexit",
            "_decode_pointer",
            "_except_handler4_common",
            "_invoke_watson",
            "_controlfp_s",
            "_crt_debugger_hook",
            "_configthreadlocale",
            "_initterm_e",
            "_initterm",
            "_acmdln",
            "exit",
            "_ismbblead",
            "_XcptFilter",
            "_exit",
            "_cexit",
            "__getmainargs",
            "_amsg_exit",
            "strstr"
        ]
    }
}