{
    "hash": "0000f42254b247aac2d11dc7edc21975bb2f5166a23f876b5fa67cc52f98e0c1",
    "section": [
        {
            "Name": ".text\u0000\u0000\u0000",
            "VirtualAddress": "0x1000",
            "Misc_VirtualSize": "0xbaa",
            "SizeOfRawData": 3072
        },
        {
            "Name": ".text\u0000\u0000\u0000",
            "VirtualAddress": "0x2000",
            "Misc_VirtualSize": "0x7660",
            "SizeOfRawData": 30720
        },
        {
            "Name": ".rdata\u0000\u0000",
            "VirtualAddress": "0xa000",
            "Misc_VirtualSize": "0x2f80",
            "SizeOfRawData": 12288
        },
        {
            "Name": ".data\u0000\u0000\u0000",
            "VirtualAddress": "0xd000",
            "Misc_VirtualSize": "0x33d58",
            "SizeOfRawData": 212480
        },
        {
            "Name": ".rdata4\u0000",
            "VirtualAddress": "0x41000",
            "Misc_VirtualSize": "0x3e8",
            "SizeOfRawData": 1024
        },
        {
            "Name": ".rdata3\u0000",
            "VirtualAddress": "0x42000",
            "Misc_VirtualSize": "0x3e8",
            "SizeOfRawData": 1024
        },
        {
            "Name": ".rdata2\u0000",
            "VirtualAddress": "0x43000",
            "Misc_VirtualSize": "0x3e8",
            "SizeOfRawData": 1024
        },
        {
            "Name": ".rsrc\u0000\u0000\u0000",
            "VirtualAddress": "0x44000",
            "Misc_VirtualSize": "0x16238",
            "SizeOfRawData": 1024
        }
    ],
    "import": {
        "KERNEL32.dll": [
            "GetCurrentProcess",
            "GetCurrentProcessId",
            "GetCurrentThreadId",
            "GetEnvironmentVariableA",
            "GetFileAttributesA",
            "GetLastError",
            "GetModuleFileNameA",
            "GetModuleHandleA",
            "GetProcAddress",
            "GetStartupInfoA",
            "GetSystemTimeAsFileTime",
            "GetTickCount",
            "GetCommandLineW",
            "LoadLibraryA",
            "QueryPerformanceCounter",
            "ReleaseMutex",
            "SetErrorMode",
            "SetUnhandledExceptionFilter",
            "TerminateProcess",
            "UnhandledExceptionFilter",
            "WaitForSingleObject",
            "lstrcpynA",
            "lstrlenA",
            "lstrlenW",
            "FreeLibrary",
            "ExitProcess",
            "CreateMutexA",
            "CloseHandle",
            "GetSystemDirectoryA",
            "lstrcatA",
            "CreateFileA",
            "VirtualAlloc",
            "GetCPInfo",
            "ReadFile",
            "GetVersionExA"
        ],
        "USER32.dll": [
            "LoadIconW",
            "LoadIconA"
        ],
        "ADVAPI32.dll": [
            "OpenProcessToken",
            "RegCloseKey",
            "LookupPrivilegeValueW",
            "LookupAccountSidW",
            "GetTokenInformation",
            "AdjustTokenPrivileges",
            "RegOpenKeyExW",
            "RegQueryValueExW",
            "RegSetValueExW",
            "RegConnectRegistryW"
        ],
        "msvcrt.dll": [
            "_XcptFilter",
            "__CxxFrameHandler",
            "__p__commode",
            "__p__fmode",
            "__set_app_type",
            "__setusermatherr",
            "__wgetmainargs",
            "__winitenv",
            "_adjust_fdiv",
            "_c_exit",
            "_cexit",
            "_controlfp",
            "_except_handler3",
            "_exit",
            "_initterm",
            "_iob",
            "_wcsicmp",
            "_wcsnicmp",
            "_wgetcwd",
            "_wtol",
            "calloc",
            "exit",
            "fflush",
            "fprintf",
            "free",
            "malloc",
            "realloc",
            "sprintf",
            "strtok",
            "wcschr",
            "wcslen",
            "wcsncmp",
            "wcsncpy",
            "wcsstr",
            "wcstod",
            "wcstok",
            "wcstol"
        ]
    }
}