{
    "hash": "0000f983330947f8d56fa2596889095467c2bf31624133370c35796f0752fd1d",
    "section": [
        {
            "Name": ".text\u0000\u0000\u0000",
            "VirtualAddress": "0x1000",
            "Misc_VirtualSize": "0x80000",
            "SizeOfRawData": 523264
        },
        {
            "Name": ".rdata\u0000\u0000",
            "VirtualAddress": "0x81000",
            "Misc_VirtualSize": "0x1000",
            "SizeOfRawData": 512
        },
        {
            "Name": ".data\u0000\u0000\u0000",
            "VirtualAddress": "0x82000",
            "Misc_VirtualSize": "0xcf000",
            "SizeOfRawData": 847872
        },
        {
            "Name": ".rsrc\u0000\u0000\u0000",
            "VirtualAddress": "0x151000",
            "Misc_VirtualSize": "0x115c",
            "SizeOfRawData": 4608
        }
    ],
    "import": {
        "kernel32.dll": [
            "VirtualAlloc"
        ],
        "user32.dll": [
            "GetCaretBlinkTime"
        ]
    }
}