{
    "hash": "0000a075682c64bc7c0a350d5d76cbd4229bd02f0aa0f7eb902310e111e95b3b",
    "section": [
        {
            "Name": ".text\u0000\u0000\u0000",
            "VirtualAddress": "0x1000",
            "Misc_VirtualSize": "0x55a94",
            "SizeOfRawData": 352256
        },
        {
            "Name": ".data\u0000\u0000\u0000",
            "VirtualAddress": "0x57000",
            "Misc_VirtualSize": "0x3058",
            "SizeOfRawData": 4096
        },
        {
            "Name": ".rsrc\u0000\u0000\u0000",
            "VirtualAddress": "0x5b000",
            "Misc_VirtualSize": "0x13000",
            "SizeOfRawData": 4096
        }
    ],
    "import": {
        "MSVBVM60.DLL": [
            "EVENT_SINK_GetIDsOfNames",
            "__vbaVarSub",
            "__vbaStrI2",
            "__vbaNextEachAry",
            "_CIcos",
            "_adj_fptan",
            "__vbaVarMove",
            "__vbaStrI4",
            "__vbaVarVargNofree",
            "__vbaFreeVar",
            "__vbaLateIdCall",
            "__vbaStrVarMove",
            "__vbaLenBstr",
            "__vbaEnd",
            "__vbaFreeVarList",
            "_adj_fdiv_m64",
            "EVENT_SINK_Invoke"
        ]
    }
}