{
    "hash": "0000ba8ecc3a9adb3ec4046ee7e92203b944b2e798dbe28b0ebfdb26a6505652",
    "section": [
        {
            "Name": ".text\u0000\u0000\u0000",
            "VirtualAddress": "0x1000",
            "Misc_VirtualSize": "0x5a30",
            "SizeOfRawData": 23552
        },
        {
            "Name": ".rdata\u0000\u0000",
            "VirtualAddress": "0x7000",
            "Misc_VirtualSize": "0x2e914",
            "SizeOfRawData": 190976
        },
        {
            "Name": ".data\u0000\u0000\u0000",
            "VirtualAddress": "0x36000",
            "Misc_VirtualSize": "0x51c",
            "SizeOfRawData": 1536
        },
        {
            "Name": ".rdata3\u0000",
            "VirtualAddress": "0x37000",
            "Misc_VirtualSize": "0x64",
            "SizeOfRawData": 512
        },
        {
            "Name": ".rdata2\u0000",
            "VirtualAddress": "0x38000",
            "Misc_VirtualSize": "0x64",
            "SizeOfRawData": 512
        },
        {
            "Name": ".rdata1\u0000",
            "VirtualAddress": "0x39000",
            "Misc_VirtualSize": "0x64",
            "SizeOfRawData": 512
        },
        {
            "Name": ".rsrc\u0000\u0000\u0000",
            "VirtualAddress": "0x3a000",
            "Misc_VirtualSize": "0x3c0",
            "SizeOfRawData": 1024
        },
        {
            "Name": ".rsrc\u0000\u0000\u0000",
            "VirtualAddress": "0x3b000",
            "Misc_VirtualSize": "0x1f378",
            "SizeOfRawData": 1024
        }
    ],
    "import": {
        "KERNEL32.dll": [
            "GetStartupInfoW",
            "VirtualAlloc",
            "ReadFile"
        ],
        "USER32.dll": [
            "LoadIconW",
            "LoadCursorA"
        ],
        "ADVAPI32.dll": [
            "RegOpenKeyExW"
        ],
        "msvcrt.dll": [
            "_XcptFilter",
            "__p__commode",
            "__p__fmode",
            "__setusermatherr",
            "__wgetmainargs",
            "__winitenv",
            "_adjust_fdiv",
            "_c_exit",
            "_cexit",
            "_exit",
            "_initterm",
            "_snprintf",
            "_strnicmp",
            "_wcslwr",
            "_wcsnicmp",
            "_wtoi",
            "atoi",
            "calloc",
            "exit",
            "isalpha",
            "memchr",
            "setlocale",
            "sprintf",
            "strchr",
            "strncmp",
            "strncpy",
            "strtoul",
            "tolower",
            "toupper",
            "towlower",
            "towupper",
            "wcscat",
            "wcscpy",
            "wcsncat",
            "wcsstr",
            "wcstok"
        ]
    }
}