{
    "hash": "00001fcdd69d767b43b5e62c308e0c6e9301899d65899eaa1905f5817b80cdf0",
    "section": [
        {
            "Name": ".\u0000\u0000\u0000\u0000\u0000\u0000\u0000",
            "VirtualAddress": "0x1000",
            "Misc_VirtualSize": "0x7000",
            "SizeOfRawData": 0
        },
        {
            "Name": ".\u0000\u0000\u0000\u0000\u0000\u0000\u0000",
            "VirtualAddress": "0x8000",
            "Misc_VirtualSize": "0x432",
            "SizeOfRawData": 0
        },
        {
            "Name": ".lol\n\t\t0",
            "VirtualAddress": "0x9000",
            "Misc_VirtualSize": "0x310c",
            "SizeOfRawData": 0
        },
        {
            "Name": ".lol\n\t\t1",
            "VirtualAddress": "0xd000",
            "Misc_VirtualSize": "0xf9cb",
            "SizeOfRawData": 64000
        },
        {
            "Name": ".\u0000\u0000\u0000\u0000\u0000\u0000\u0000",
            "VirtualAddress": "0x1d000",
            "Misc_VirtualSize": "0x2bb",
            "SizeOfRawData": 1024
        }
    ],
    "import": {
        "KERNEL32.DLL": [
            "GetModuleHandleA",
            "LoadLibraryA",
            "LocalAlloc",
            "LocalFree",
            "GetModuleFileNameA",
            "ExitProcess"
        ],
        "MSVCRT.dll": [
            "memset"
        ],
        "COMCTL32.DLL": [
            "InitCommonControls"
        ],
        "USER32.DLL": [
            "MessageBoxA"
        ],
        "SHELL32.DLL": [
            "ShellExecuteExA"
        ],
        "OLE32.DLL": [
            "CoInitialize"
        ]
    }
}