{
    "hash": "00007e0bcdab45d77410a5e27dcc8e4f68529fb483990fdc35de6683a5c1a591",
    "section": [
        {
            "Name": ".text\u0000\u0000\u0000",
            "VirtualAddress": "0x1000",
            "Misc_VirtualSize": "0x2ab8",
            "SizeOfRawData": 11264
        },
        {
            "Name": ".data\u0000\u0000\u0000",
            "VirtualAddress": "0x4000",
            "Misc_VirtualSize": "0x210",
            "SizeOfRawData": 512
        },
        {
            "Name": ".rsrc\u0000\u0000\u0000",
            "VirtualAddress": "0x5000",
            "Misc_VirtualSize": "0x880",
            "SizeOfRawData": 2560
        }
    ],
    "import": {}
}