{
    "hash": "0000ae2c77d1a34dca2a0739a908d2be1d32ff9f6da70c8b4980fcf320bdfdad",
    "section": [
        {
            "Name": ".text\u0000\u0000\u0000",
            "VirtualAddress": "0x1000",
            "Misc_VirtualSize": "0x1ab2",
            "SizeOfRawData": 7168
        },
        {
            "Name": ".rdata\u0000\u0000",
            "VirtualAddress": "0x3000",
            "Misc_VirtualSize": "0x846",
            "SizeOfRawData": 2560
        },
        {
            "Name": ".data\u0000\u0000\u0000",
            "VirtualAddress": "0x4000",
            "Misc_VirtualSize": "0x900",
            "SizeOfRawData": 1024
        }
    ],
    "import": {
        "KERNEL32.dll": [
            "GetLocalTime",
            "lstrlenA",
            "lstrcatA",
            "lstrcmpiA",
            "LoadLibraryExA",
            "GetModuleHandleA",
            "CreateEventA",
            "OpenEventA",
            "MoveFileExA",
            "SetFilePointer",
            "CopyFileA",
            "DeleteFileA",
            "GetTempPathA",
            "GetFileSize",
            "lstrcpynA",
            "ReadFile",
            "GetWindowsDirectoryA",
            "GlobalFree",
            "GetLastError",
            "WideCharToMultiByte",
            "CreateFileA",
            "SetEndOfFile",
            "WriteFile",
            "CloseHandle",
            "SleepEx",
            "WaitForMultipleObjects",
            "CreateThread",
            "GetModuleFileNameA",
            "WaitForSingleObject",
            "GetStartupInfoA"
        ],
        "USER32.dll": [
            "wsprintfA"
        ],
        "MSVCRT.dll": [
            "memcpy",
            "rand",
            "srand",
            "time",
            "strcat",
            "atoi",
            "strstr",
            "strcpy",
            "strchr",
            "strncpy",
            "isdigit",
            "fopen",
            "strlen",
            "strcmp",
            "__dllonexit",
            "_onexit",
            "_exit",
            "_XcptFilter",
            "exit",
            "_acmdln",
            "__getmainargs",
            "_initterm",
            "__setusermatherr",
            "_adjust_fdiv",
            "__p__commode",
            "__p__fmode",
            "__set_app_type",
            "_except_handler3",
            "_controlfp",
            "isalpha",
            "_snprintf",
            "sprintf",
            "__CxxFrameHandler",
            "??2@YAPAXI@Z",
            "memset",
            "??3@YAXPAX@Z",
            "fclose"
        ],
        "WS2_32.dll": [
            "connect",
            "inet_ntoa",
            "WSAGetLastError",
            "inet_addr",
            "bind",
            "listen",
            "closesocket",
            "WSAStartup",
            "WSACleanup",
            "send",
            "accept",
            "recv",
            "htons",
            "socket",
            "gethostbyname"
        ],
        "SHLWAPI.dll": [
            "wvnsprintfA"
        ],
        "WINHTTP.dll": [
            "WinHttpGetProxyForUrl",
            "WinHttpCloseHandle",
            "WinHttpGetIEProxyConfigForCurrentUser",
            "WinHttpOpen"
        ]
    }
}