{
    "hash": "00013c64529d262ecd19504d64d071e4dfa3cb1b4e156260839f6c9f3b9ba77a",
    "section": [
        {
            "Name": ".text\u0000\u0000\u0000",
            "VirtualAddress": "0x1000",
            "Misc_VirtualSize": "0x3bce60",
            "SizeOfRawData": 0
        },
        {
            "Name": ".itext\u0000\u0000",
            "VirtualAddress": "0x3be000",
            "Misc_VirtualSize": "0x3874",
            "SizeOfRawData": 0
        },
        {
            "Name": ".data\u0000\u0000\u0000",
            "VirtualAddress": "0x3c2000",
            "Misc_VirtualSize": "0xfcd4",
            "SizeOfRawData": 0
        },
        {
            "Name": ".bss\u0000\u0000\u0000\u0000",
            "VirtualAddress": "0x3d2000",
            "Misc_VirtualSize": "0x684c",
            "SizeOfRawData": 0
        },
        {
            "Name": ".idata\u0000\u0000",
            "VirtualAddress": "0x3d9000",
            "Misc_VirtualSize": "0x3e50",
            "SizeOfRawData": 0
        },
        {
            "Name": ".didata\u0000",
            "VirtualAddress": "0x3dd000",
            "Misc_VirtualSize": "0x9a6",
            "SizeOfRawData": 0
        },
        {
            "Name": ".edata\u0000\u0000",
            "VirtualAddress": "0x3de000",
            "Misc_VirtualSize": "0x5e",
            "SizeOfRawData": 0
        },
        {
            "Name": ".tls\u0000\u0000\u0000\u0000",
            "VirtualAddress": "0x3df000",
            "Misc_VirtualSize": "0x4c",
            "SizeOfRawData": 0
        },
        {
            "Name": ".rdata\u0000\u0000",
            "VirtualAddress": "0x3e0000",
            "Misc_VirtualSize": "0x18",
            "SizeOfRawData": 0
        },
        {
            "Name": ".vmp0\u0000\u0000\u0000",
            "VirtualAddress": "0x3e1000",
            "Misc_VirtualSize": "0x2c63f0",
            "SizeOfRawData": 0
        },
        {
            "Name": ".vmp1\u0000\u0000\u0000",
            "VirtualAddress": "0x6a8000",
            "Misc_VirtualSize": "0x3dcfff",
            "SizeOfRawData": 4050944
        },
        {
            "Name": ".reloc\u0000\u0000",
            "VirtualAddress": "0xa85000",
            "Misc_VirtualSize": "0x128",
            "SizeOfRawData": 512
        },
        {
            "Name": ".rsrc\u0000\u0000\u0000",
            "VirtualAddress": "0xa86000",
            "Misc_VirtualSize": "0x8ca",
            "SizeOfRawData": 2560
        }
    ],
    "import": {
        "oleaut32.dll": [
            "VariantInit"
        ],
        "advapi32.dll": [
            "RegConnectRegistryW"
        ],
        "user32.dll": [
            "MonitorFromPoint"
        ],
        "kernel32.dll": [
            "GetModuleHandleA",
            "LoadLibraryA",
            "LocalAlloc",
            "LocalFree",
            "GetModuleFileNameA",
            "ExitProcess"
        ],
        "gdi32.dll": [
            "EndPage"
        ],
        "version.dll": [
            "GetFileVersionInfoSizeW"
        ],
        "ole32.dll": [
            "OleUninitialize"
        ],
        "comctl32.dll": [
            "ImageList_GetImageCount"
        ],
        "msvcrt.dll": [
            "memset"
        ],
        "shell32.dll": [
            "SHGetFileInfoW"
        ],
        "comdlg32.dll": [
            "GetOpenFileNameW"
        ],
        "winspool.drv": [
            "GetDefaultPrinterW"
        ]
    }
}