{
    "hash": "00011ebeabb6036439a0619e1fae2b394a9231c6cea83877fc9739d54960e33c",
    "section": [
        {
            "Name": ".text\u0000\u0000\u0000",
            "VirtualAddress": "0x1000",
            "Misc_VirtualSize": "0x1b1ea",
            "SizeOfRawData": 114688
        },
        {
            "Name": ".rdata\u0000\u0000",
            "VirtualAddress": "0x1d000",
            "Misc_VirtualSize": "0x4e2a",
            "SizeOfRawData": 20480
        },
        {
            "Name": ".data\u0000\u0000\u0000",
            "VirtualAddress": "0x22000",
            "Misc_VirtualSize": "0x47311e",
            "SizeOfRawData": 4513792
        },
        {
            "Name": ".rsrc\u0000\u0000\u0000",
            "VirtualAddress": "0x496000",
            "Misc_VirtualSize": "0x46690",
            "SizeOfRawData": 290816
        }
    ],
    "import": {
        "KERNEL32.dll": [
            "LocalAlloc",
            "InitializeCriticalSection",
            "TlsAlloc",
            "DeleteCriticalSection",
            "GlobalHandle",
            "TlsFree",
            "LeaveCriticalSection",
            "GlobalReAlloc",
            "EnterCriticalSection",
            "TlsSetValue",
            "LocalReAlloc",
            "TlsGetValue",
            "GlobalFlags",
            "WritePrivateProfileStringA",
            "GlobalFindAtomA",
            "GlobalAddAtomA",
            "GlobalGetAtomNameA",
            "GetProcessVersion",
            "lstrcpynA",
            "SetErrorMode",
            "GetCPInfo",
            "GetOEMCP",
            "RtlUnwind",
            "RaiseException",
            "HeapSize",
            "GetACP",
            "UnhandledExceptionFilter",
            "FreeEnvironmentStringsA",
            "FreeEnvironmentStringsW",
            "GetEnvironmentStrings",
            "GetEnvironmentStringsW",
            "SetHandleCount",
            "GetStdHandle",
            "GetFileType",
            "GetEnvironmentVariableA",
            "HeapDestroy",
            "HeapCreate",
            "VirtualFree",
            "LCMapStringA",
            "LCMapStringW",
            "VirtualAlloc",
            "IsBadWritePtr",
            "SetUnhandledExceptionFilter",
            "GetStringTypeA",
            "GetStringTypeW",
            "IsBadCodePtr",
            "SetStdHandle",
            "InterlockedExchange",
            "FlushFileBuffers",
            "LocalFree",
            "InterlockedDecrement",
            "InterlockedIncrement",
            "GlobalDeleteAtom",
            "lstrcmpA",
            "lstrcmpiA",
            "GetCurrentThread",
            "GetCurrentThreadId",
            "GetVersion",
            "lstrcatA",
            "SetLastError",
            "GlobalAlloc",
            "lstrcpyA",
            "Sleep",
            "OpenProcess",
            "TerminateProcess",
            "SetFilePointer",
            "GlobalLock",
            "GlobalUnlock",
            "GlobalFree",
            "WideCharToMultiByte",
            "MultiByteToWideChar",
            "GetCurrentProcess",
            "GetLastError",
            "GetVersionExA",
            "GetWindowsDirectoryA",
            "GetSystemDirectoryA",
            "lstrlenA",
            "LoadLibraryA",
            "GetProcAddress",
            "FreeLibrary",
            "GetCommandLineA",
            "DeleteFileA",
            "MoveFileA",
            "CopyFileA",
            "GetModuleFileNameA",
            "GetStartupInfoA",
            "CreateProcessA",
            "WaitForSingleObject",
            "CreateFileA",
            "WriteFile",
            "IsBadReadPtr",
            "HeapFree",
            "HeapReAlloc",
            "HeapAlloc",
            "ExitProcess",
            "GetModuleHandleA",
            "GetProcessHeap",
            "Process32Next",
            "CloseHandle",
            "Process32First",
            "CreateToolhelp32Snapshot",
            "MoveFileExA",
            "GetTempFileNameA",
            "GetTempPathA",
            "EndUpdateResourceA",
            "UpdateResourceA",
            "BeginUpdateResourceA"
        ],
        "USER32.dll": [
            "CopyRect",
            "GetClientRect",
            "AdjustWindowRectEx",
            "GetSysColor",
            "MapWindowPoints",
            "LoadIconA",
            "LoadCursorA",
            "GetSysColorBrush",
            "LoadStringA",
            "DestroyMenu",
            "IsIconic",
            "GetWindowPlacement",
            "SetFocus",
            "SetWindowPos",
            "GetMenuItemCount",
            "SetWindowTextA",
            "GetDlgCtrlID",
            "DestroyWindow",
            "UnhookWindowsHookEx",
            "GrayStringA",
            "DrawTextA",
            "GetTopWindow",
            "GetCapture",
            "WinHelpA",
            "GetClassInfoA",
            "RegisterClassA",
            "GetMenu",
            "GetSubMenu",
            "GetMenuItemID",
            "CreateWindowExA",
            "TabbedTextOutA",
            "GetClassLongA",
            "SetPropA",
            "GetPropA",
            "CallWindowProcA",
            "RemovePropA",
            "DefWindowProcA",
            "GetMessageTime",
            "GetMessagePos",
            "RegisterWindowMessageA",
            "ClientToScreen",
            "GetMenuCheckMarkDimensions",
            "LoadBitmapA",
            "GetMenuState",
            "ModifyMenuA",
            "SetMenuItemBitmaps",
            "CheckMenuItem",
            "EnableMenuItem",
            "GetFocus",
            "GetNextDlgTabItem",
            "GetKeyState",
            "CallNextHookEx",
            "ValidateRect",
            "SetWindowsHookExA",
            "GetLastActivePopup",
            "SetCursor",
            "PostMessageA",
            "PostQuitMessage",
            "GetWindow",
            "PtInRect",
            "IsWindowVisible",
            "GetWindowLongA",
            "GetWindowTextA",
            "GetCursorPos",
            "SetWindowLongA",
            "GetDlgItem",
            "ShowWindow",
            "SystemParametersInfoA",
            "GetDC",
            "ReleaseDC",
            "FindWindowA",
            "GetWindowThreadProcessId",
            "GetClassNameA",
            "SendMessageA",
            "GetWindowRect",
            "GetSystemMetrics",
            "SetForegroundWindow",
            "GetActiveWindow",
            "GetForegroundWindow",
            "IsWindowEnabled",
            "GetParent",
            "EnableWindow",
            "PeekMessageA",
            "GetMessageA",
            "TranslateMessage",
            "DispatchMessageA",
            "wsprintfA",
            "MessageBoxA",
            "UnregisterClassA"
        ],
        "GDI32.dll": [
            "GetObjectA",
            "GetStockObject",
            "Escape",
            "ExtTextOutA",
            "TextOutA",
            "RectVisible",
            "PtVisible",
            "DeleteObject",
            "DeleteDC",
            "SelectObject",
            "GetDeviceCaps",
            "CreateBitmap",
            "SaveDC",
            "RestoreDC",
            "SetBkColor",
            "SetTextColor",
            "SetMapMode",
            "SetViewportOrgEx",
            "OffsetViewportOrgEx",
            "SetViewportExtEx",
            "ScaleViewportExtEx",
            "SetWindowExtEx",
            "ScaleWindowExtEx",
            "GetClipBox"
        ],
        "ADVAPI32.dll": [
            "RegCloseKey",
            "RegOpenKeyExA",
            "RegSetValueExA",
            "RegCreateKeyExA"
        ],
        "SHELL32.dll": [
            "SHGetSpecialFolderPathA"
        ],
        "WINSPOOL.DRV": [
            "OpenPrinterA",
            "ClosePrinter",
            "DocumentPropertiesA"
        ],
        "COMCTL32.dll": []
    }
}