{
    "hash": "0001fb02a98fc82fc991c9310e43058c58a4882a8809c000fb214152dcfdb037",
    "section": [
        {
            "Name": ".text\u0000\u0000\u0000",
            "VirtualAddress": "0x1000",
            "Misc_VirtualSize": "0xad000",
            "SizeOfRawData": 708608
        },
        {
            "Name": ".data\u0000\u0000\u0000",
            "VirtualAddress": "0xae000",
            "Misc_VirtualSize": "0x13820",
            "SizeOfRawData": 69632
        },
        {
            "Name": ".rsrc\u0000\u0000\u0000",
            "VirtualAddress": "0xc2000",
            "Misc_VirtualSize": "0x6000",
            "SizeOfRawData": 24576
        }
    ],
    "import": {
        "msvcrt.dll": [
            "_c_exit",
            "__CxxFrameHandler",
            "iswcntrl",
            "isxdigit",
            "towlower",
            "towupper",
            "wcsncmp",
            "wcslen",
            "??2@YAPAXI@Z",
            "memmove",
            "wcsrchr",
            "wcsspn",
            "iswspace",
            "iswascii",
            "wcspbrk",
            "wcschr",
            "wcsstr",
            "_wcsnicmp",
            "_wtol",
            "_vsnwprintf",
            "_wcsicmp",
            "_CIpow",
            "_purecall",
            "swscanf",
            "_ftol",
            "iswdigit",
            "_wtoi",
            "iswalnum",
            "_wtoi64",
            "_controlfp",
            "wcstoul",
            "floor",
            "memcmp",
            "atoi",
            "memset",
            "_snwprintf",
            "wcsncpy",
            "wcscpy",
            "memcpy",
            "free",
            "strchr",
            "_exit",
            "_XcptFilter",
            "_cexit",
            "exit",
            "_wcmdln",
            "__wgetmainargs",
            "_initterm",
            "__setusermatherr",
            "_adjust_fdiv",
            "isdigit",
            "ceil",
            "_vsnprintf",
            "_strnicmp",
            "malloc",
            "wcscat",
            "rand",
            "realloc",
            "toupper",
            "isspace",
            "atol",
            "swprintf",
            "_stricmp",
            "strncpy",
            "wcscspn",
            "_wcsupr",
            "wcstombs",
            "bsearch",
            "_ultow",
            "_onexit",
            "__dllonexit",
            "_except_handler3",
            "__set_app_type",
            "__p__fmode",
            "__p__commode",
            "abs",
            "qsort",
            "wcscmp",
            "srand",
            "_beginthreadex",
            "??3@YAXPAX@Z"
        ],
        "ADVAPI32.dll": [
            "SetFileSecurityW",
            "GetFileSecurityW",
            "RegCloseKey",
            "RegQueryValueExW",
            "RegQueryValueExA",
            "RegSetValueExW",
            "RegSetValueExA",
            "RegQueryInfoKeyW",
            "RegQueryInfoKeyA",
            "RegOpenKeyExW",
            "RegOpenKeyExA",
            "RegEnumValueW",
            "RegEnumValueA",
            "RegEnumKeyA",
            "RegCreateKeyExW",
            "RegCreateKeyExA",
            "GetUserNameA"
        ],
        "KERNEL32.dll": [
            "ExitProcess",
            "GetSystemTime",
            "CreateThread",
            "WaitForMultipleObjects",
            "SetEvent",
            "GetProcessHeap",
            "HeapFree",
            "GetUserDefaultLCID",
            "RaiseException",
            "InterlockedDecrement",
            "InterlockedIncrement",
            "CloseHandle",
            "LoadResource",
            "LockResource",
            "GetThreadLocale",
            "FreeLibrary",
            "GetSystemInfo",
            "QueryDosDeviceW",
            "QueryDosDeviceA",
            "lstrlenA",
            "GetSystemDirectoryW",
            "GetSystemDirectoryA",
            "UnmapViewOfFile",
            "GetDriveTypeA",
            "GetDateFormatW",
            "CreateMutexW",
            "CreateMutexA",
            "CompareStringW",
            "GetShortPathNameA",
            "GetWindowsDirectoryW",
            "GlobalLock",
            "GlobalSize",
            "GlobalAlloc",
            "GlobalUnlock",
            "GlobalFree",
            "GetLocaleInfoA",
            "CreateFileMappingW",
            "CreateFileMappingA",
            "GetVersionExW",
            "SetFileAttributesW",
            "SetFileAttributesA",
            "IsBadWritePtr",
            "lstrcmpiW",
            "lstrcmpiA",
            "LoadLibraryExW",
            "LoadLibraryExA",
            "LoadLibraryW",
            "LoadLibraryA",
            "LCMapStringW",
            "LCMapStringA",
            "GetVolumeInformationW",
            "GetTempPathA",
            "GetTempFileNameW",
            "GetTempFileNameA",
            "GetPrivateProfileStringW",
            "GetPrivateProfileStringA",
            "lstrcpynW",
            "GetModuleHandleW",
            "GetModuleFileNameW",
            "GetModuleFileNameA",
            "SystemTimeToFileTime",
            "GetLocalTime",
            "MapViewOfFile",
            "GetFileType",
            "SetFilePointer",
            "SetEndOfFile",
            "GetFileSize",
            "ReadFile",
            "WriteFile",
            "FlushFileBuffers",
            "WaitForSingleObject",
            "CompareFileTime",
            "SetThreadPriority",
            "Sleep",
            "GetLongPathNameA",
            "GetLongPathNameW",
            "ReleaseMutex",
            "InterlockedExchange",
            "GetStartupInfoW",
            "GetModuleHandleA",
            "SetUnhandledExceptionFilter",
            "UnhandledExceptionFilter",
            "GetCurrentProcess",
            "TerminateProcess",
            "GetSystemTimeAsFileTime",
            "GetCurrentProcessId",
            "GetCurrentThreadId",
            "GetTickCount",
            "QueryPerformanceCounter",
            "FindClose",
            "IsValidLocale",
            "SetErrorMode",
            "FileTimeToSystemTime",
            "lstrcatA",
            "lstrcpyA",
            "GetACP",
            "DebugBreak",
            "InterlockedCompareExchange",
            "GetExitCodeThread",
            "DeviceIoControl",
            "GetVersion",
            "HeapAlloc",
            "GetDriveTypeW",
            "GetDateFormatA",
            "InitializeCriticalSection",
            "DeleteCriticalSection",
            "EnterCriticalSection",
            "LeaveCriticalSection",
            "WideCharToMultiByte",
            "MultiByteToWideChar",
            "GetVersionExA",
            "lstrlenW",
            "GetLastError",
            "GetWindowsDirectoryA",
            "GetProcAddress",
            "SetLastError",
            "CopyFileA",
            "CopyFileW",
            "CompareStringA",
            "CreateDirectoryA",
            "CreateDirectoryW",
            "CreateEventA",
            "CreateEventW",
            "CreateFileA",
            "CreateFileW",
            "DeleteFileA",
            "DeleteFileW",
            "FindFirstFileA",
            "FindFirstFileW",
            "FindNextFileA",
            "FindNextFileW",
            "FindResourceA",
            "FindResourceW",
            "LocalFree",
            "LocalAlloc",
            "GetFileAttributesA",
            "GetFileAttributesW",
            "GetFileAttributesExA",
            "GetFileAttributesExW",
            "GetFullPathNameA",
            "GetFullPathNameW"
        ],
        "SHELL32.dll": [
            "SHGetMalloc",
            "SHFileOperationA",
            "SHGetSpecialFolderLocation",
            "SHGetPathFromIDListA"
        ],
        "SHLWAPI.dll": [
            "PathGetCharTypeA",
            "PathRemoveBackslashW",
            "PathRemoveFileSpecW",
            "UrlCombineW",
            "PathGetCharTypeW",
            "PathUndecorateW"
        ],
        "ole32.dll": [
            "PropVariantCopy",
            "GetHGlobalFromStream",
            "StringFromGUID2",
            "OleLoadFromStream",
            "CoCreateInstance",
            "StringFromIID",
            "StringFromCLSID",
            "CoTaskMemFree",
            "CLSIDFromString",
            "CoReleaseMarshalData",
            "CoUnmarshalInterface",
            "CreateStreamOnHGlobal",
            "CoMarshalInterface",
            "CoCreateGuid",
            "CoMarshalInterThreadInterfaceInStream",
            "CoGetInterfaceAndReleaseStream",
            "CoGetMalloc",
            "CoCreateFreeThreadedMarshaler",
            "CoTaskMemAlloc",
            "CoUninitialize",
            "CoInitializeEx",
            "PropVariantClear",
            "OleSaveToStream"
        ],
        "OLEAUT32.dll": [
            "GetErrorInfo",
            "SystemTimeToVariantTime",
            "VariantTimeToSystemTime",
            "VariantChangeType",
            "VariantCopy",
            "VariantInit",
            "SysAllocStringByteLen",
            "SysStringByteLen",
            "SysStringLen",
            "SysAllocString",
            "SysAllocStringLen",
            "VariantClear",
            "SysFreeString"
        ],
        "MPR.dll": [
            "WNetCancelConnection2W",
            "WNetAddConnection2W",
            "WNetGetConnectionA",
            "WNetGetConnectionW"
        ],
        "WINMM.dll": [
            "mmioOpenW",
            "mmioOpenA",
            "timeGetTime",
            "mmioSeek",
            "mmioDescend",
            "mmioAscend",
            "mmioRead",
            "mmioClose",
            "timeBeginPeriod",
            "timeEndPeriod"
        ],
        "AVIFIL32.dll": [
            "AVIFileGetStream",
            "AVIStreamLength",
            "AVIStreamSampleToTime",
            "AVIStreamRelease",
            "AVIFileAddRef",
            "AVIFileExit",
            "AVIFileOpenA",
            "AVIFileOpenW",
            "AVIFileInfoA",
            "AVIFileInfoW",
            "AVIFileRelease",
            "AVIFileInit",
            "AVIStreamInfoW",
            "AVIStreamInfoA",
            "AVIStreamReadFormat"
        ],
        "VERSION.dll": [
            "VerQueryValueW",
            "VerQueryValueA",
            "GetFileVersionInfoSizeW",
            "GetFileVersionInfoSizeA",
            "GetFileVersionInfoW",
            "GetFileVersionInfoA"
        ],
        "WININET.dll": [
            "RetrieveUrlCacheEntryFileW",
            "RetrieveUrlCacheEntryFileA",
            "InternetQueryOptionA",
            "InternetSetOptionA",
            "InternetCrackUrlA",
            "InternetCrackUrlW"
        ],
        "USER32.dll": [
            "CharNextW",
            "RegisterWindowMessageA",
            "PostThreadMessageA",
            "PeekMessageW",
            "PeekMessageA",
            "MessageBoxW",
            "MessageBoxA",
            "LoadStringW",
            "LoadStringA",
            "GetMessageA",
            "GetDesktopWindow",
            "MsgWaitForMultipleObjects",
            "KillTimer",
            "TranslateMessage",
            "SetTimer",
            "wsprintfA",
            "CharNextA",
            "SendMessageA",
            "DispatchMessageA",
            "DispatchMessageW"
        ],
        "urlmon.dll": [
            "CoGetClassObjectFromURL",
            "CreateURLMoniker",
            "CreateAsyncBindCtx"
        ]
    }
}