{
    "hash": "0001910b189b5a1d629ec8d99c684cf3c0bd7f7ec99b79b0c363787cf66060d1",
    "section": [
        {
            "Name": ".text\u0000\u0000\u0000",
            "VirtualAddress": "0x1000",
            "Misc_VirtualSize": "0x63a3f",
            "SizeOfRawData": 408576
        },
        {
            "Name": ".rdata\u0000\u0000",
            "VirtualAddress": "0x65000",
            "Misc_VirtualSize": "0xe180",
            "SizeOfRawData": 57856
        },
        {
            "Name": ".data\u0000\u0000\u0000",
            "VirtualAddress": "0x74000",
            "Misc_VirtualSize": "0x18f78",
            "SizeOfRawData": 11264
        },
        {
            "Name": ".rsrc\u0000\u0000\u0000",
            "VirtualAddress": "0x8d000",
            "Misc_VirtualSize": "0x9000",
            "SizeOfRawData": 35840
        }
    ],
    "import": {
        "KERNEL32.DLL": [
            "WaitForSingleObject",
            "SetSystemPowerState",
            "SetFileTime",
            "FindResourceW",
            "GetFileAttributesW",
            "LoadResource",
            "FindFirstFileW",
            "LockResource",
            "FindClose",
            "SizeofResource",
            "EnumResourceNamesW",
            "DeleteFileW",
            "FindNextFileW",
            "lstrcmpiW",
            "MoveFileW",
            "OutputDebugStringW",
            "CopyFileW",
            "GetLastError",
            "CreateDirectoryW",
            "RemoveDirectoryW",
            "TerminateProcess",
            "WideCharToMultiByte",
            "GetLocalTime",
            "MultiByteToWideChar",
            "CompareStringW",
            "InterlockedIncrement",
            "InterlockedDecrement",
            "GetTempPathW",
            "GetTempFileNameW",
            "FormatMessageW",
            "GetExitCodeProcess",
            "DeviceIoControl",
            "GetPrivateProfileStringW",
            "WritePrivateProfileStringW",
            "GetPrivateProfileSectionW",
            "WritePrivateProfileSectionW",
            "SetFileAttributesW",
            "GetPrivateProfileSectionNamesW",
            "GetShortPathNameW",
            "FileTimeToLocalFileTime",
            "FileTimeToSystemTime",
            "SystemTimeToFileTime",
            "LocalFileTimeToFileTime",
            "GetDriveTypeW",
            "SetErrorMode",
            "GetDiskFreeSpaceW",
            "GetVolumeInformationW",
            "SetVolumeLabelW",
            "SetFilePointer",
            "GlobalLock",
            "GlobalUnlock",
            "GlobalAlloc",
            "SetProcessWorkingSetSize",
            "GlobalMemoryStatus",
            "Beep",
            "GetFileSize",
            "GetEnvironmentVariableW",
            "SetEnvironmentVariableW",
            "GetWindowsDirectoryW",
            "GetSystemDirectoryW",
            "GetCurrentProcessId",
            "GetComputerNameW",
            "CreatePipe",
            "DuplicateHandle",
            "GetStdHandle",
            "CreateProcessW",
            "SetPriorityClass",
            "LoadLibraryW",
            "WriteFile",
            "GetFileType",
            "PeekNamedPipe",
            "SetLastError",
            "LoadLibraryExW",
            "GlobalFindAtomW",
            "GetModuleHandleA",
            "ResumeThread",
            "GetSystemTimeAsFileTime",
            "CreateThread",
            "ExitThread",
            "HeapFree",
            "HeapAlloc",
            "ExitProcess",
            "GetACP",
            "GetOEMCP",
            "IsValidCodePage",
            "TlsGetValue",
            "TlsAlloc",
            "TlsSetValue",
            "TlsFree",
            "UnhandledExceptionFilter",
            "SetUnhandledExceptionFilter",
            "RaiseException",
            "GetModuleFileNameA",
            "DeleteCriticalSection",
            "InitializeCriticalSection",
            "HeapSize",
            "VirtualFree",
            "VirtualAlloc",
            "HeapReAlloc",
            "HeapDestroy",
            "HeapCreate",
            "ReadFile",
            "CreateFileW",
            "ReadProcessMemory",
            "WriteProcessMemory",
            "MapViewOfFile",
            "CreateFileMappingW",
            "OpenProcess",
            "UnmapViewOfFile",
            "CloseHandle",
            "QueryPerformanceFrequency",
            "QueryPerformanceCounter",
            "GetModuleHandleW",
            "GetSystemInfo",
            "GetCurrentProcess",
            "GetVersionExW",
            "GetCurrentThreadId",
            "Sleep",
            "GetProcAddress",
            "LoadLibraryA",
            "RtlUnwind",
            "GetConsoleCP",
            "GetConsoleMode",
            "FreeLibrary",
            "GetModuleFileNameW",
            "GetFullPathNameW",
            "SetCurrentDirectoryW",
            "GetCurrentDirectoryW",
            "EnterCriticalSection",
            "LeaveCriticalSection",
            "GetVersionExA",
            "GetProcessHeap",
            "GetStartupInfoW",
            "SetHandleCount",
            "GetStartupInfoA",
            "SetStdHandle",
            "FlushFileBuffers",
            "GetCPInfo",
            "LCMapStringA",
            "LCMapStringW",
            "GetTimeZoneInformation",
            "FreeEnvironmentStringsA",
            "GetEnvironmentStrings",
            "FreeEnvironmentStringsW",
            "GetEnvironmentStringsW",
            "GetCommandLineA",
            "GetCommandLineW",
            "GetTickCount",
            "GetStringTypeA",
            "GetStringTypeW",
            "GetLocaleInfoA",
            "WriteConsoleA",
            "GetConsoleOutputCP",
            "WriteConsoleW",
            "CreateFileA",
            "SetEndOfFile",
            "CompareStringA",
            "GlobalFree",
            "SetEnvironmentVariableA"
        ],
        "ADVAPI32.dll": [
            "RegEnumValueW",
            "RegDeleteValueW",
            "RegDeleteKeyW",
            "RegSetValueExW",
            "RegCreateKeyExW",
            "GetUserNameW",
            "RegConnectRegistryW",
            "RegEnumKeyExW",
            "CloseServiceHandle",
            "UnlockServiceDatabase",
            "LockServiceDatabase",
            "OpenSCManagerW",
            "AdjustTokenPrivileges",
            "LookupPrivilegeValueW",
            "OpenProcessToken",
            "RegCloseKey",
            "RegQueryValueExW",
            "RegOpenKeyExW"
        ],
        "COMCTL32.dll": [
            "ImageList_EndDrag",
            "ImageList_DragLeave",
            "ImageList_DragMove",
            "ImageList_DragEnter",
            "ImageList_BeginDrag",
            "ImageList_SetDragCursorImage",
            "ImageList_Remove",
            "ImageList_Destroy",
            "ImageList_ReplaceIcon",
            "ImageList_Create",
            "InitCommonControlsEx"
        ],
        "comdlg32.dll": [
            "GetSaveFileNameW",
            "GetOpenFileNameW"
        ],
        "GDI32.dll": [
            "AngleArc",
            "MoveToEx",
            "Ellipse",
            "PolyDraw",
            "BeginPath",
            "Rectangle",
            "RoundRect",
            "SetBkColor",
            "CreatePen",
            "CreateSolidBrush",
            "SetTextColor",
            "LineTo",
            "CloseFigure",
            "SetPixel",
            "EndPath",
            "StrokePath",
            "StrokeAndFillPath",
            "ExtCreatePen",
            "PolyBezierTo",
            "SetViewportOrgEx",
            "GetObjectW",
            "SetBkMode",
            "CreateCompatibleBitmap",
            "GetPixel",
            "DeleteDC",
            "GetDIBits",
            "BitBlt",
            "SelectObject",
            "CreateDIBSection",
            "CreateCompatibleDC",
            "CreateFontW",
            "GetDeviceCaps",
            "GetTextFaceW",
            "GetStockObject",
            "CreateDCW",
            "GetTextExtentPoint32W",
            "DeleteObject"
        ],
        "MPR.dll": [
            "WNetUseConnectionW",
            "WNetGetConnectionW",
            "WNetAddConnection2W",
            "WNetCancelConnection2W"
        ],
        "ole32.dll": [
            "OleSetMenuDescriptor",
            "MkParseDisplayName",
            "OleSetContainedObject",
            "CoCreateInstance",
            "CoInitialize",
            "CoUninitialize",
            "CreateStreamOnHGlobal",
            "CoInitializeSecurity",
            "CoCreateInstanceEx",
            "CoSetProxyBlanket",
            "StringFromCLSID",
            "OleUninitialize",
            "CoTaskMemAlloc",
            "CoTaskMemFree",
            "IIDFromString",
            "StringFromIID",
            "CLSIDFromString",
            "OleInitialize",
            "CreateBindCtx",
            "CLSIDFromProgID"
        ],
        "OLEAUT32.dll": [
            "LoadRegTypeLib",
            "SafeArrayDestroyDescriptor",
            "SafeArrayDestroyData",
            "SafeArrayAllocData",
            "SafeArrayAllocDescriptorEx",
            "SysAllocString",
            "OleLoadPicture",
            "SafeArrayUnaccessData",
            "SafeArrayAccessData",
            "VarR4FromDec",
            "VariantTimeToSystemTime",
            "VariantClear",
            "VariantCopy",
            "VariantInit",
            "GetActiveObject"
        ],
        "SHELL32.dll": [
            "DragQueryPoint",
            "ShellExecuteExW",
            "DragQueryFileW",
            "SHBrowseForFolderW",
            "SHFileOperationW",
            "SHGetPathFromIDListW",
            "SHGetDesktopFolder",
            "SHGetMalloc",
            "Shell_NotifyIconW",
            "ExtractIconExW",
            "ShellExecuteW",
            "DragFinish"
        ],
        "USER32.dll": [
            "wsprintfW",
            "DrawFocusRect",
            "RedrawWindow",
            "DrawTextW",
            "FrameRect",
            "DrawFrameControl",
            "FillRect",
            "DrawMenuBar",
            "PtInRect",
            "DestroyMenu",
            "CreateMenu",
            "SetMenu",
            "SetCursor",
            "GetWindowDC",
            "GetWindowTextLengthW",
            "GetClassWord",
            "GetNextDlgTabItem",
            "GetWindow",
            "IsChild",
            "ReleaseCapture",
            "SetCapture",
            "SubtractRect",
            "OffsetRect",
            "OpenClipboard",
            "CharLowerBuffW",
            "GetMessageW",
            "LockWindowUpdate",
            "DispatchMessageW",
            "TranslateMessage",
            "PeekMessageW",
            "UnregisterHotKey",
            "LoadImageW",
            "CreateIconFromResourceEx",
            "mouse_event",
            "ExitWindowsEx",
            "SetActiveWindow",
            "FindWindowExW",
            "EnumThreadWindows",
            "GetMenuItemInfoW",
            "SetMenuDefaultItem",
            "InsertMenuItemW",
            "IsMenu",
            "CharNextW",
            "GetCursorPos",
            "DeleteMenu",
            "CreateIcon",
            "CheckMenuRadioItem",
            "GetMenuItemID",
            "GetMenuItemCount",
            "SetMenuItemInfoW",
            "IsIconic",
            "FindWindowW",
            "SystemParametersInfoW",
            "IsCharUpperW",
            "keybd_event",
            "VkKeyScanA",
            "GetKeyboardLayoutNameA",
            "SetWindowPos",
            "SetKeyboardState",
            "GetKeyboardState",
            "CharUpperW",
            "LoadStringW",
            "SendDlgItemMessageW",
            "GetDlgItem",
            "SetWindowTextW",
            "DialogBoxParamW",
            "MessageBeep",
            "EndDialog",
            "DestroyWindow",
            "GetMenu",
            "GetClientRect",
            "CopyRect",
            "EndPaint",
            "BeginPaint",
            "EnumWindows",
            "GetDesktopWindow",
            "IsWindow",
            "IsWindowEnabled",
            "IsWindowVisible",
            "EnableWindow",
            "ScreenToClient",
            "InvalidateRect",
            "GetWindowLongW",
            "GetWindowThreadProcessId",
            "AttachThreadInput",
            "InflateRect",
            "GetActiveWindow",
            "GetSysColor",
            "SetClassLongW",
            "IsDialogMessageW",
            "GetSystemMetrics",
            "FlashWindow",
            "SetWindowLongW",
            "IsZoomed",
            "GetCaretPos",
            "GetSubMenu",
            "TrackPopupMenuEx",
            "GetMenuStringW",
            "SendMessageTimeoutW",
            "GetFocus",
            "GetWindowTextW",
            "EnumChildWindows",
            "CharUpperBuffW",
            "GetParent",
            "GetDlgCtrlID",
            "SendMessageW",
            "MapVirtualKeyW",
            "PostMessageW",
            "GetWindowRect",
            "GetClassNameW",
            "MessageBoxW",
            "ShowWindow",
            "CreateWindowExW",
            "RegisterClassExW",
            "LoadIconW",
            "LoadCursorW",
            "GetSysColorBrush",
            "GetForegroundWindow",
            "DefWindowProcW",
            "MoveWindow",
            "IsCharLowerW",
            "IsCharAlphaNumericW",
            "IsCharAlphaW",
            "GetKeyboardLayoutNameW",
            "AdjustWindowRectEx",
            "SetRect",
            "ClientToScreen",
            "RegisterHotKey",
            "ReleaseDC",
            "GetCursor",
            "GetDC",
            "WindowFromPoint",
            "SetClipboardData",
            "EmptyClipboard",
            "GetKeyState",
            "CountClipboardFormats",
            "SetFocus",
            "PostQuitMessage",
            "KillTimer",
            "CreatePopupMenu",
            "MessageBoxA",
            "RegisterWindowMessageW",
            "SetTimer",
            "DestroyIcon",
            "CloseClipboard",
            "CopyImage",
            "GetClipboardData",
            "GetAsyncKeyState",
            "IsClipboardFormatAvailable",
            "SetForegroundWindow"
        ],
        "VERSION.dll": [
            "GetFileVersionInfoSizeW",
            "GetFileVersionInfoW",
            "VerQueryValueW"
        ],
        "WINMM.dll": [
            "waveOutSetVolume",
            "mciSendStringW",
            "timeGetTime"
        ],
        "WSOCK32.dll": [
            "recvfrom",
            "ntohs",
            "ioctlsocket",
            "WSAGetLastError",
            "select",
            "__WSAFDIsSet",
            "recv",
            "sendto",
            "socket",
            "connect",
            "closesocket",
            "bind",
            "listen",
            "htons",
            "accept",
            "inet_addr",
            "gethostbyname",
            "gethostname",
            "WSACleanup",
            "WSAStartup",
            "send"
        ]
    }
}