{
    "hash": "000199f4c7586cd982c3cc7cd1b669eb33795a081f544cec7dcf6677b0581d8d",
    "section": [],
    "import": {
        "kernel32.dll": [
            "WriteFile",
            "WinExec",
            "TerminateThread",
            "Sleep",
            "SetFilePointer",
            "ReadFile",
            "GetVersionExA",
            "GetProcAddress",
            "GetModuleHandleA",
            "GetModuleFileNameA",
            "GetLogicalDrives",
            "GetLastError",
            "GetDriveTypeA",
            "GetDiskFreeSpaceA",
            "FindNextFileA",
            "FindFirstFileA",
            "FindClose",
            "FileTimeToLocalFileTime",
            "FileTimeToDosDateTime",
            "ExitThread",
            "ExitProcess",
            "DeleteFileA",
            "CreateThread",
            "CreateMutexA",
            "CreateFileA",
            "CopyFileA",
            "CloseHandle"
        ],
        "user32.dll": [
            "GetKeyboardType",
            "MessageBoxA",
            "CharNextA"
        ],
        "advapi32.dll": [
            "RegSetValueExA",
            "RegCreateKeyExA",
            "RegCloseKey"
        ],
        "oleaut32.dll": [
            "SysFreeString"
        ],
        "wininet.dll": [
            "InternetGetConnectedState"
        ],
        "wsock32.dll": [
            "WSAStartup",
            "gethostname",
            "gethostbyname",
            "socket",
            "sendto",
            "send",
            "select",
            "recvfrom",
            "ioctlsocket",
            "inet_ntoa",
            "inet_addr",
            "htons",
            "getsockname",
            "getpeername",
            "connect",
            "closesocket",
            "bind"
        ]
    }
}