{
    "hash": "0001076a4f5415cc207277e899f46f46cbe76810483ee0a3695a58c82a3f9b62",
    "section": [
        {
            "Name": ".text\u0000\u0000\u0000",
            "VirtualAddress": "0x2000",
            "Misc_VirtualSize": "0x1584",
            "SizeOfRawData": 5632
        },
        {
            "Name": ".rsrc\u0000\u0000\u0000",
            "VirtualAddress": "0x4000",
            "Misc_VirtualSize": "0xa300",
            "SizeOfRawData": 41984
        },
        {
            "Name": ".reloc\u0000\u0000",
            "VirtualAddress": "0x10000",
            "Misc_VirtualSize": "0xacb2",
            "SizeOfRawData": 36530
        }
    ],
    "import": {
        "mscoree.dll": [
            "_CorExeMain"
        ]
    }
}