{
    "hash": "0001e998ec96b8dd190c7e6c70311515e1735fd01803a4238691f4793513f270",
    "section": [
        {
            "Name": ".text\u0000\u0000\u0000",
            "VirtualAddress": "0x1000",
            "Misc_VirtualSize": "0x148d6",
            "SizeOfRawData": 84480
        },
        {
            "Name": ".rdata\u0000\u0000",
            "VirtualAddress": "0x16000",
            "Misc_VirtualSize": "0x6e4b",
            "SizeOfRawData": 28672
        },
        {
            "Name": ".data\u0000\u0000\u0000",
            "VirtualAddress": "0x1d000",
            "Misc_VirtualSize": "0x97758",
            "SizeOfRawData": 616960
        },
        {
            "Name": ".reloc\u0000\u0000",
            "VirtualAddress": "0xb5000",
            "Misc_VirtualSize": "0x13c0",
            "SizeOfRawData": 5120
        }
    ],
    "import": {
        "KERNEL32.dll": [
            "DuplicateHandle",
            "GetTickCount",
            "GetModuleHandleA",
            "WriteConsoleW",
            "FlushFileBuffers",
            "CloseHandle",
            "GetConsoleMode",
            "GetConsoleCP",
            "HeapReAlloc",
            "HeapSize",
            "SetStdHandle",
            "Sleep",
            "GetLastError",
            "GetCurrentProcess",
            "GetProcAddress",
            "GetCommandLineA",
            "SetFilePointerEx",
            "VirtualProtect",
            "UnhandledExceptionFilter",
            "SetUnhandledExceptionFilter",
            "TerminateProcess",
            "IsProcessorFeaturePresent",
            "IsDebuggerPresent",
            "GetStartupInfoW",
            "GetModuleHandleW",
            "QueryPerformanceCounter",
            "GetCurrentProcessId",
            "GetCurrentThreadId",
            "GetSystemTimeAsFileTime",
            "InitializeSListHead",
            "RaiseException",
            "RtlUnwind",
            "SetLastError",
            "EnterCriticalSection",
            "LeaveCriticalSection",
            "DeleteCriticalSection",
            "InitializeCriticalSectionAndSpinCount",
            "TlsAlloc",
            "TlsGetValue",
            "TlsSetValue",
            "TlsFree",
            "FreeLibrary",
            "LoadLibraryExW",
            "ExitProcess",
            "GetModuleHandleExW",
            "GetModuleFileNameA",
            "MultiByteToWideChar",
            "WideCharToMultiByte",
            "GetStdHandle",
            "WriteFile",
            "GetACP",
            "HeapFree",
            "HeapAlloc",
            "GetStringTypeW",
            "LCMapStringW",
            "GetFileType",
            "FindClose",
            "FindFirstFileExA",
            "FindNextFileA",
            "IsValidCodePage",
            "GetOEMCP",
            "GetCPInfo",
            "GetCommandLineW",
            "GetEnvironmentStringsW",
            "FreeEnvironmentStringsW",
            "GetProcessHeap",
            "CreateFileW"
        ],
        "SHELL32.dll": [
            "SHGetFolderPathW"
        ],
        "ole32.dll": [
            "CoCreateGuid"
        ],
        "USER32.dll": [
            "DispatchMessageW",
            "PeekMessageW",
            "MessageBoxW"
        ],
        "ADVAPI32.dll": [
            "RegQueryValueExW",
            "RegOpenKeyExW",
            "RegCreateKeyExW",
            "RegCloseKey",
            "GetCurrentHwProfileA",
            "RegSetValueExW"
        ]
    }
}