{
    "hash": "0001d848e7e32fee590a94fa4ebe7110f6fa9a6601b064c1883311e761a5c7b9",
    "section": [
        {
            "Name": ".text\u0000\u0000\u0000",
            "VirtualAddress": "0x1000",
            "Misc_VirtualSize": "0x18225",
            "SizeOfRawData": 99328
        },
        {
            "Name": ".rdata\u0000\u0000",
            "VirtualAddress": "0x1a000",
            "Misc_VirtualSize": "0x6062",
            "SizeOfRawData": 25088
        },
        {
            "Name": ".data\u0000\u0000\u0000",
            "VirtualAddress": "0x21000",
            "Misc_VirtualSize": "0x35e4",
            "SizeOfRawData": 5632
        },
        {
            "Name": ".rsrc\u0000\u0000\u0000",
            "VirtualAddress": "0x25000",
            "Misc_VirtualSize": "0xcda0",
            "SizeOfRawData": 52736
        },
        {
            "Name": ".reloc\u0000\u0000",
            "VirtualAddress": "0x32000",
            "Misc_VirtualSize": "0x27fa",
            "SizeOfRawData": 10240
        }
    ],
    "import": {
        "WININET.dll": [
            "InternetOpenUrlW",
            "InternetCloseHandle",
            "InternetSetStatusCallbackW",
            "HttpQueryInfoW",
            "InternetOpenW",
            "InternetReadFileExA"
        ],
        "KERNEL32.dll": [
            "CloseHandle",
            "GetProcAddress",
            "GetModuleHandleW",
            "GetCurrentProcess",
            "LoadLibraryW",
            "WideCharToMultiByte",
            "GetFileAttributesW",
            "CreateFileW",
            "ReadFile",
            "WriteFile",
            "SetFilePointer",
            "Sleep",
            "InitializeCriticalSection",
            "DeleteCriticalSection",
            "GetModuleFileNameW",
            "DeleteFileW",
            "FormatMessageW",
            "LocalFree",
            "WriteConsoleW",
            "GetConsoleOutputCP",
            "WriteConsoleA",
            "SetStdHandle",
            "CreateFileA",
            "LCMapStringW",
            "LoadLibraryA",
            "GetStringTypeW",
            "GetStringTypeA",
            "GetLocaleInfoA",
            "HeapReAlloc",
            "VirtualAlloc",
            "FlushFileBuffers",
            "GetConsoleMode",
            "GetConsoleCP",
            "GetSystemTimeAsFileTime",
            "GetCurrentProcessId",
            "GetTickCount",
            "QueryPerformanceCounter",
            "VirtualFree",
            "HeapCreate",
            "GetCommandLineW",
            "GetEnvironmentStringsW",
            "FreeEnvironmentStringsW",
            "GetStartupInfoA",
            "GetFileType",
            "GetStdHandle",
            "SetHandleCount",
            "IsValidCodePage",
            "GetOEMCP",
            "GetACP",
            "GetLastError",
            "GetModuleFileNameA",
            "LeaveCriticalSection",
            "EnterCriticalSection",
            "MultiByteToWideChar",
            "LCMapStringA",
            "GetModuleHandleA",
            "InitializeCriticalSectionAndSpinCount",
            "GetCPInfo",
            "ExitProcess",
            "HeapSize",
            "GetCurrentThreadId",
            "SetLastError",
            "TlsFree",
            "TlsSetValue",
            "TlsAlloc",
            "TlsGetValue",
            "HeapAlloc",
            "HeapFree",
            "RtlUnwind",
            "RaiseException",
            "GetStartupInfoW",
            "InterlockedIncrement",
            "InterlockedDecrement",
            "TerminateProcess",
            "UnhandledExceptionFilter",
            "SetUnhandledExceptionFilter",
            "IsDebuggerPresent"
        ],
        "USER32.dll": [
            "IsWindowVisible",
            "IsWindowEnabled",
            "SendMessageW",
            "IsDialogMessageW",
            "GetWindowLongW",
            "SendDlgItemMessageW",
            "GetCursor",
            "IsDlgButtonChecked",
            "EnableWindow",
            "SetFocus",
            "SetDlgItemTextW",
            "KillTimer",
            "SetTimer",
            "LoadBitmapW",
            "GetDlgItem",
            "FillRect",
            "GetAncestor",
            "ShowWindow",
            "MessageBoxW",
            "DispatchMessageW",
            "TranslateMessage",
            "GetWindowTextW",
            "PostMessageW",
            "GetMessageW",
            "SetWindowPos",
            "DestroyWindow",
            "LoadIconW",
            "CreateDialogParamW",
            "GetDlgItemTextW",
            "DrawTextW",
            "GetClientRect",
            "GetDC",
            "SetPropW",
            "GetParent",
            "SetCursor",
            "LoadCursorW",
            "RemovePropW",
            "SetWindowLongW",
            "CallWindowProcW",
            "GetPropW",
            "SetWindowTextW",
            "EnumChildWindows"
        ],
        "GDI32.dll": [
            "GetStockObject",
            "SetBkMode",
            "SelectObject",
            "SetTextColor",
            "CreateFontIndirectW",
            "GetObjectW",
            "CreatePatternBrush"
        ],
        "ADVAPI32.dll": [
            "RegOpenKeyExW",
            "RegCloseKey",
            "RegSetValueExW",
            "RegCreateKeyExW",
            "RegQueryValueExW"
        ],
        "SHELL32.dll": [
            "SHBrowseForFolderW",
            "ShellExecuteW"
        ],
        "ole32.dll": [
            "CoCreateInstance",
            "CoTaskMemFree",
            "CoInitializeEx"
        ]
    }
}