{
    "hash": "000148b941e114aa3fa33e71e3bcf620862c71af5d5a3b60c2e0739427355a43",
    "section": [
        {
            "Name": ".text\u0000\u0000\u0000",
            "VirtualAddress": "0x1000",
            "Misc_VirtualSize": "0x1321f",
            "SizeOfRawData": 81920
        },
        {
            "Name": ".rdata\u0000\u0000",
            "VirtualAddress": "0x15000",
            "Misc_VirtualSize": "0x3e1a",
            "SizeOfRawData": 16384
        },
        {
            "Name": ".data\u0000\u0000\u0000",
            "VirtualAddress": "0x19000",
            "Misc_VirtualSize": "0x4b50",
            "SizeOfRawData": 4096
        }
    ],
    "import": {}
}