{
    "hash": "0001ede48efb488f7b1e92fa2f6937c32afafb4e5b7f1818b6243af694221b56",
    "section": [
        {
            "Name": "CODE\u0000\u0000\u0000\u0000",
            "VirtualAddress": "0x1000",
            "Misc_VirtualSize": "0x4ae8",
            "SizeOfRawData": 19176
        },
        {
            "Name": ".data\u0000\u0000\u0000",
            "VirtualAddress": "0x6000",
            "Misc_VirtualSize": "0x29994",
            "SizeOfRawData": 170388
        },
        {
            "Name": ".rsrc\u0000\u0000\u0000",
            "VirtualAddress": "0x30000",
            "Misc_VirtualSize": "0x798",
            "SizeOfRawData": 1944
        },
        {
            "Name": ".idata2\u0000",
            "VirtualAddress": "0x31000",
            "Misc_VirtualSize": "0x1000",
            "SizeOfRawData": 2048
        }
    ],
    "import": {
        "kernel32.dll": [
            "Sleep",
            "RaiseException",
            "InterlockedExchange",
            "LocalAlloc",
            "FreeLibrary",
            "IsBadWritePtr",
            "GetModuleFileNameA",
            "GetCurrentThreadId",
            "GetCommandLineA",
            "CopyFileA",
            "GetStartupInfoA",
            "CreateProcessA",
            "SetUnhandledExceptionFilter",
            "CreateThread",
            "GetExitCodeThread",
            "GetTickCount",
            "ExitThread",
            "IsBadReadPtr",
            "SleepEx",
            "SetEnvironmentVariableA",
            "ExpandEnvironmentStringsA",
            "CreateEventA",
            "WaitForSingleObject",
            "CreateFileA",
            "SetFilePointer",
            "WriteFile",
            "GetTempPathA",
            "GetCurrentDirectoryA",
            "LoadLibraryA",
            "ExitProcess",
            "GetCurrentProcess",
            "CloseHandle",
            "Process32Next",
            "lstrcmpi",
            "Process32First",
            "CreateToolhelp32Snapshot",
            "GetLastError",
            "CreateDirectoryA",
            "DeleteFileA",
            "SetFileAttributesA",
            "GetFileAttributesA",
            "GetSystemDirectoryA",
            "GetModuleHandleA",
            "GetProcAddress"
        ],
        "MSVCRT.dll": [
            "_controlfp",
            "__set_app_type",
            "__p__fmode",
            "__p__commode",
            "_adjust_fdiv",
            "__setusermatherr",
            "_initterm",
            "__getmainargs",
            "_acmdln",
            "exit",
            "_XcptFilter",
            "_exit",
            "??1type_info@@UAE@XZ",
            "srand",
            "memset",
            "_except_handler3",
            "strncmp",
            "malloc",
            "tolower",
            "_ftol",
            "rand",
            "__CxxFrameHandler",
            "memmove",
            "_itoa"
        ],
        "SHLWAPI.dll": [
            "SHCopyKeyA",
            "SHGetValueA",
            "PathFileExistsA",
            "SHDeleteKeyA"
        ],
        "USER32.dll": [
            "FlashWindow",
            "GetActiveWindow",
            "wsprintfA"
        ],
        "WS2_32.dll": [
            "closesocket",
            "getprotobynumber"
        ]
    }
}