{
    "hash": "00018944883fc3bc9b63a9b5d18e4ef80d1bf7283724887eb4bccc1e7b6fc37a",
    "section": [
        {
            "Name": ".text\u0000\u0000\u0000",
            "VirtualAddress": "0x1000",
            "Misc_VirtualSize": "0x80000",
            "SizeOfRawData": 523264
        },
        {
            "Name": ".rdata\u0000\u0000",
            "VirtualAddress": "0x81000",
            "Misc_VirtualSize": "0x1000",
            "SizeOfRawData": 512
        },
        {
            "Name": ".data\u0000\u0000\u0000",
            "VirtualAddress": "0x82000",
            "Misc_VirtualSize": "0xd3000",
            "SizeOfRawData": 864256
        },
        {
            "Name": ".rsrc\u0000\u0000\u0000",
            "VirtualAddress": "0x155000",
            "Misc_VirtualSize": "0x115c",
            "SizeOfRawData": 4608
        }
    ],
    "import": {
        "kernel32.dll": [
            "VirtualAlloc"
        ],
        "user32.dll": [
            "GetInputState"
        ]
    }
}