{
    "hash": "0001a86d9fe5f4274e7f798172f85385b042089fd6898a27bfc29b63dfff8a86",
    "section": [
        {
            "Name": ".text\u0000\u0000\u0000",
            "VirtualAddress": "0x1000",
            "Misc_VirtualSize": "0x63d12",
            "SizeOfRawData": 409088
        },
        {
            "Name": ".rdata\u0000\u0000",
            "VirtualAddress": "0x65000",
            "Misc_VirtualSize": "0x1e447",
            "SizeOfRawData": 124416
        },
        {
            "Name": ".data\u0000\u0000\u0000",
            "VirtualAddress": "0x84000",
            "Misc_VirtualSize": "0x7dc0",
            "SizeOfRawData": 23040
        },
        {
            "Name": ".rsrc\u0000\u0000\u0000",
            "VirtualAddress": "0x8c000",
            "Misc_VirtualSize": "0x490",
            "SizeOfRawData": 1536
        },
        {
            "Name": ".reloc\u0000\u0000",
            "VirtualAddress": "0x8d000",
            "Misc_VirtualSize": "0x913a",
            "SizeOfRawData": 37376
        },
        {
            "Name": ".text\u0000\u0000\u0000",
            "VirtualAddress": "0x97000",
            "Misc_VirtualSize": "0x10000",
            "SizeOfRawData": 65024
        }
    ],
    "import": {
        "KERNEL32.dll": [
            "GetProcAddress",
            "GetModuleHandleA",
            "InitializeCriticalSection",
            "DeleteCriticalSection",
            "EnterCriticalSection",
            "LeaveCriticalSection",
            "RtlUnwind",
            "RaiseException",
            "GetCurrentThreadId",
            "GetCommandLineA",
            "HeapFree",
            "GetVersionExA",
            "HeapAlloc",
            "GetProcessHeap",
            "GetSystemTimeAsFileTime",
            "InterlockedIncrement",
            "InterlockedDecrement",
            "GetLastError",
            "HeapReAlloc",
            "TlsGetValue",
            "TlsAlloc",
            "TlsSetValue",
            "TlsFree",
            "SetLastError",
            "TerminateProcess",
            "GetCurrentProcess",
            "UnhandledExceptionFilter",
            "SetUnhandledExceptionFilter",
            "IsDebuggerPresent",
            "Sleep",
            "HeapSize",
            "ExitProcess",
            "WriteFile",
            "GetStdHandle",
            "GetModuleFileNameA",
            "SetHandleCount",
            "GetFileType",
            "GetStartupInfoA",
            "FreeEnvironmentStringsA",
            "GetEnvironmentStrings",
            "FreeEnvironmentStringsW",
            "WideCharToMultiByte",
            "GetEnvironmentStringsW",
            "HeapDestroy",
            "HeapCreate",
            "VirtualFree",
            "QueryPerformanceCounter",
            "GetTickCount",
            "GetCurrentProcessId",
            "GetCPInfo",
            "GetACP",
            "GetOEMCP",
            "LCMapStringA",
            "MultiByteToWideChar",
            "LCMapStringW",
            "GetUserDefaultLCID",
            "GetLocaleInfoA",
            "EnumSystemLocalesA",
            "IsValidLocale",
            "IsValidCodePage",
            "GetStringTypeA",
            "GetStringTypeW",
            "VirtualAlloc",
            "LoadLibraryA",
            "SetFilePointer",
            "GetConsoleCP",
            "GetConsoleMode",
            "GetLocaleInfoW",
            "SetStdHandle",
            "WriteConsoleA",
            "GetConsoleOutputCP",
            "WriteConsoleW",
            "FlushFileBuffers",
            "CreateFileA",
            "CloseHandle"
        ]
    }
}