{
    "hash": "0001d6972db450a84438c5b9755f7e8038558171bcf45df3931a0b9ead384468",
    "section": [
        {
            "Name": ".text\u0000\u0000\u0000",
            "VirtualAddress": "0x1000",
            "Misc_VirtualSize": "0x2b980",
            "SizeOfRawData": 180224
        },
        {
            "Name": ".rdata\u0000\u0000",
            "VirtualAddress": "0x2d000",
            "Misc_VirtualSize": "0x28fc",
            "SizeOfRawData": 12288
        },
        {
            "Name": ".data\u0000\u0000\u0000",
            "VirtualAddress": "0x30000",
            "Misc_VirtualSize": "0x27164",
            "SizeOfRawData": 4096
        },
        {
            "Name": ".rsrc\u0000\u0000\u0000",
            "VirtualAddress": "0x58000",
            "Misc_VirtualSize": "0x1228",
            "SizeOfRawData": 8192
        }
    ],
    "import": {
        "KERNEL32.dll": [
            "GlobalGetAtomNameW",
            "CreateDirectoryW",
            "GetDiskFreeSpaceExW",
            "CreateEventW",
            "EnumResourceNamesA",
            "GetNumberFormatW",
            "FindResourceA",
            "FoldStringW",
            "FlushViewOfFile",
            "ClearCommError",
            "GetModuleHandleA",
            "GetStartupInfoA"
        ],
        "Msi.dll": [],
        "MPR.dll": [
            "WNetOpenEnumW",
            "WNetCloseEnum",
            "WNetDisconnectDialog",
            "WNetEnumResourceA",
            "WNetCancelConnectionA",
            "WNetGetConnectionW",
            "WNetGetProviderNameA",
            "WNetGetUniversalNameA",
            "WNetGetNetworkInformationA",
            "WNetGetUniversalNameW",
            "WNetAddConnectionA",
            "WNetGetUserW",
            "WNetAddConnectionW",
            "WNetEnumResourceW",
            "MultinetGetConnectionPerformanceA",
            "WNetOpenEnumA",
            "WNetAddConnection3A",
            "WNetConnectionDialog1W",
            "WNetCancelConnectionW",
            "WNetAddConnection3W",
            "MultinetGetConnectionPerformanceW",
            "WNetCancelConnection2A",
            "WNetAddConnection2W",
            "WNetAddConnection2A",
            "WNetGetLastErrorW",
            "WNetGetConnectionA"
        ],
        "NDdeApi.dll": [],
        "USER32.dll": [
            "IsClipboardFormatAvailable",
            "GetAsyncKeyState",
            "GetUserObjectInformationA",
            "CreateDialogIndirectParamA",
            "GetKeyState",
            "DdeCreateStringHandleA"
        ],
        "msvcrt.dll": [
            "_exit",
            "_XcptFilter",
            "_cexit",
            "exit",
            "_acmdln",
            "_except_handler3",
            "_initterm",
            "__setusermatherr",
            "_adjust_fdiv",
            "__p__commode",
            "__p__fmode",
            "__set_app_type",
            "_controlfp",
            "__getmainargs",
            "_c_exit"
        ]
    }
}