{
    "hash": "00013ad43a454b13ccd3d7ebcc511b363f1819803301e6f79d73dfc86b946a55",
    "section": [
        {
            "Name": ".text\u0000\u0000\u0000",
            "VirtualAddress": "0x1000",
            "Misc_VirtualSize": "0x199ea",
            "SizeOfRawData": 104960
        },
        {
            "Name": ".rdata\u0000\u0000",
            "VirtualAddress": "0x1b000",
            "Misc_VirtualSize": "0x4494",
            "SizeOfRawData": 17920
        },
        {
            "Name": ".data\u0000\u0000\u0000",
            "VirtualAddress": "0x20000",
            "Misc_VirtualSize": "0x5a48",
            "SizeOfRawData": 12800
        },
        {
            "Name": ".sxdata\u0000",
            "VirtualAddress": "0x26000",
            "Misc_VirtualSize": "0x4",
            "SizeOfRawData": 512
        },
        {
            "Name": ".rsrc\u0000\u0000\u0000",
            "VirtualAddress": "0x27000",
            "Misc_VirtualSize": "0xea0",
            "SizeOfRawData": 4096
        }
    ],
    "import": {
        "OLEAUT32.dll": [
            "VariantClear",
            "SysAllocString"
        ],
        "USER32.dll": [
            "SendMessageA",
            "SetTimer",
            "DialogBoxParamW",
            "DialogBoxParamA",
            "SetWindowLongA",
            "GetWindowLongA",
            "SetWindowTextW",
            "LoadIconA",
            "LoadStringW",
            "LoadStringA",
            "CharUpperW",
            "CharUpperA",
            "DestroyWindow",
            "EndDialog",
            "PostMessageA",
            "ShowWindow",
            "MessageBoxW",
            "GetDlgItem",
            "KillTimer",
            "SetWindowTextA"
        ],
        "SHELL32.dll": [
            "ShellExecuteExA"
        ],
        "KERNEL32.dll": [
            "GetStringTypeW",
            "GetStringTypeA",
            "LCMapStringW",
            "LCMapStringA",
            "InterlockedIncrement",
            "InterlockedDecrement",
            "GetProcAddress",
            "GetOEMCP",
            "GetACP",
            "GetCPInfo",
            "IsBadCodePtr",
            "IsBadReadPtr",
            "GetFileType",
            "SetHandleCount",
            "GetEnvironmentStringsW",
            "GetEnvironmentStrings",
            "FreeEnvironmentStringsW",
            "FreeEnvironmentStringsA",
            "UnhandledExceptionFilter",
            "HeapSize",
            "GetCurrentProcess",
            "TerminateProcess",
            "IsBadWritePtr",
            "HeapCreate",
            "HeapDestroy",
            "GetEnvironmentVariableA",
            "SetUnhandledExceptionFilter",
            "TlsAlloc",
            "ExitProcess",
            "GetVersion",
            "GetCommandLineA",
            "GetStartupInfoA",
            "GetModuleHandleA",
            "WaitForSingleObject",
            "CloseHandle",
            "CreateProcessA",
            "SetCurrentDirectoryA",
            "GetCommandLineW",
            "GetVersionExA",
            "LeaveCriticalSection",
            "EnterCriticalSection",
            "DeleteCriticalSection",
            "MultiByteToWideChar",
            "WideCharToMultiByte",
            "GetLastError",
            "LoadLibraryA",
            "AreFileApisANSI",
            "GetModuleFileNameA",
            "GetModuleFileNameW",
            "LocalFree",
            "FormatMessageA",
            "FormatMessageW",
            "GetWindowsDirectoryA",
            "SetFileTime",
            "CreateFileW",
            "SetLastError",
            "SetFileAttributesA",
            "RemoveDirectoryA",
            "SetFileAttributesW",
            "RemoveDirectoryW",
            "CreateDirectoryA",
            "CreateDirectoryW",
            "DeleteFileA",
            "DeleteFileW",
            "lstrlenA",
            "GetFullPathNameA",
            "GetFullPathNameW",
            "GetCurrentDirectoryA",
            "GetTempPathA",
            "GetTempFileNameA",
            "FindClose",
            "FindFirstFileA",
            "FindFirstFileW",
            "FindNextFileA",
            "CreateFileA",
            "GetFileSize",
            "SetFilePointer",
            "ReadFile",
            "WriteFile",
            "SetEndOfFile",
            "GetStdHandle",
            "WaitForMultipleObjects",
            "Sleep",
            "VirtualAlloc",
            "VirtualFree",
            "CreateEventA",
            "SetEvent",
            "ResetEvent",
            "InitializeCriticalSection",
            "RtlUnwind",
            "RaiseException",
            "HeapAlloc",
            "HeapFree",
            "HeapReAlloc",
            "CreateThread",
            "GetCurrentThreadId",
            "TlsSetValue",
            "TlsGetValue",
            "ExitThread"
        ]
    }
}