{
    "hash": "0002ff8260a7bdcbad5162e9a74ef89990e70c07b9f3b58aaed3afec547aa3d3",
    "section": [
        {
            "Name": ".text\u0000\u0000\u0000",
            "VirtualAddress": "0x1000",
            "Misc_VirtualSize": "0x2e5e8",
            "SizeOfRawData": 192512
        },
        {
            "Name": ".data\u0000\u0000\u0000",
            "VirtualAddress": "0x30000",
            "Misc_VirtualSize": "0x23dc",
            "SizeOfRawData": 0
        },
        {
            "Name": ".rsrc\u0000\u0000\u0000",
            "VirtualAddress": "0x33000",
            "Misc_VirtualSize": "0x10",
            "SizeOfRawData": 4096
        }
    ],
    "import": {
        "MSVBVM60.DLL": [
            "EVENT_SINK_GetIDsOfNames",
            "MethCallEngine",
            "EVENT_SINK_Invoke"
        ]
    }
}