{
    "hash": "00022e42dfe231b2fe4eaee5af7fb98b3d5ac8d6aea2f3cae5614bec5006f453",
    "section": [
        {
            "Name": ".text\u0000\u0000\u0000",
            "VirtualAddress": "0x1000",
            "Misc_VirtualSize": "0x17962",
            "SizeOfRawData": 96768
        },
        {
            "Name": ".rdata\u0000\u0000",
            "VirtualAddress": "0x19000",
            "Misc_VirtualSize": "0x9d8a",
            "SizeOfRawData": 40448
        },
        {
            "Name": ".data\u0000\u0000\u0000",
            "VirtualAddress": "0x23000",
            "Misc_VirtualSize": "0xee880",
            "SizeOfRawData": 973312
        },
        {
            "Name": ".reloc\u0000\u0000",
            "VirtualAddress": "0x112000",
            "Misc_VirtualSize": "0x1540",
            "SizeOfRawData": 5632
        }
    ],
    "import": {
        "KERNEL32.dll": [
            "GetProcessHeap",
            "SetStdHandle",
            "HeapSize",
            "HeapReAlloc",
            "GetConsoleCP",
            "GetConsoleMode",
            "SetFilePointerEx",
            "FlushFileBuffers",
            "WriteConsoleW",
            "GetFileAttributesExW",
            "CreateProcessW",
            "GetModuleHandleA",
            "LoadLibraryA",
            "GetTickCount",
            "DuplicateHandle",
            "FreeEnvironmentStringsW",
            "GetEnvironmentStringsW",
            "GetCommandLineW",
            "GetCommandLineA",
            "GetCPInfo",
            "GetOEMCP",
            "IsValidCodePage",
            "FindNextFileA",
            "FindFirstFileExA",
            "FindClose",
            "GetFileType",
            "LCMapStringW",
            "GetStringTypeW",
            "HeapAlloc",
            "HeapFree",
            "GetACP",
            "WriteFile",
            "GetStdHandle",
            "WideCharToMultiByte",
            "MultiByteToWideChar",
            "GetModuleFileNameA",
            "GetModuleHandleExW",
            "ExitProcess",
            "LoadLibraryExW",
            "FreeLibrary",
            "TlsFree",
            "TlsSetValue",
            "TlsGetValue",
            "TlsAlloc",
            "InitializeCriticalSectionAndSpinCount",
            "DeleteCriticalSection",
            "LeaveCriticalSection",
            "EnterCriticalSection",
            "SetLastError",
            "CreateFileW",
            "RtlUnwind",
            "RaiseException",
            "InitializeSListHead",
            "GetSystemTimeAsFileTime",
            "GetCurrentThreadId",
            "GetCurrentProcessId",
            "QueryPerformanceCounter",
            "GetModuleHandleW",
            "GetStartupInfoW",
            "IsDebuggerPresent",
            "IsProcessorFeaturePresent",
            "TerminateProcess",
            "SetUnhandledExceptionFilter",
            "UnhandledExceptionFilter",
            "CloseHandle",
            "GetLastError",
            "GetCurrentProcess",
            "OpenProcess",
            "GetProcAddress",
            "VirtualProtect"
        ],
        "SHELL32.dll": [
            "ShellExecuteW",
            "SHGetFolderPathW",
            "SHGetFileInfoA",
            "SHGetDesktopFolder",
            "SHGetPathFromIDListA",
            "DuplicateIcon",
            "ExtractIconExA",
            "DragQueryFileA",
            "DragAcceptFiles"
        ],
        "ole32.dll": [
            "CoCreateGuid",
            "OleGetClipboard",
            "ReleaseStgMedium",
            "RevokeDragDrop"
        ],
        "GDI32.dll": [
            "GetPixelFormat",
            "GetOutlineTextMetricsA",
            "GetGlyphOutlineA",
            "CreateEllipticRgnIndirect",
            "CreateHatchBrush",
            "GetGlyphOutlineW",
            "GetGlyphIndicesW",
            "GetPath",
            "DeleteObject",
            "CreatePolygonRgn",
            "Chord",
            "CreateDiscardableBitmap",
            "CreatePatternBrush",
            "AddFontResourceA",
            "GetDIBits",
            "GetGlyphIndicesA",
            "CreateDIBPatternBrushPt",
            "GetDIBColorTable",
            "CreateCompatibleDC",
            "CreateColorSpaceA",
            "GetBitmapBits",
            "GetBitmapDimensionEx",
            "CreatePalette",
            "CreateBitmapIndirect",
            "GetPixel",
            "CancelDC",
            "GetDeviceGammaRamp",
            "GetDeviceCaps",
            "DeleteDC",
            "CreateFontIndirectA",
            "CreateDCA",
            "AddFontResourceExW",
            "CreateFontW",
            "CreateColorSpaceW",
            "GetClipBox",
            "AnimatePalette",
            "CreatePen",
            "CreateDCW",
            "GetBoundsRect",
            "CreateBitmap",
            "AddFontMemResourceEx",
            "CreateFontA",
            "AddFontResourceW"
        ],
        "USER32.dll": [
            "GetDlgItemTextA",
            "wsprintfA",
            "MessageBoxA",
            "TranslateMessage",
            "SendDlgItemMessageA",
            "LoadMenuA",
            "GetFocus",
            "MonitorFromRect",
            "PostMessageA",
            "GetCursor",
            "GetWindowTextLengthA",
            "EqualRect",
            "EnableWindow",
            "ShowCaret",
            "LoadBitmapA",
            "GetWindowPlacement",
            "SendMessageW",
            "LoadIconA",
            "SetWindowPos",
            "SendMessageA",
            "IsWindowEnabled",
            "DrawEdge",
            "DrawFrameControl",
            "ReleaseCapture",
            "DefDlgProcA",
            "InsertMenuItemA",
            "GetForegroundWindow",
            "MessageBeep",
            "ReleaseDC",
            "DrawTextExA",
            "SetRect",
            "CreatePopupMenu",
            "ClientToScreen",
            "DestroyWindow",
            "SetTimer",
            "DeferWindowPos",
            "CreateWindowExW",
            "IsDlgButtonChecked",
            "PostMessageW",
            "GetSubMenu",
            "GetMessageW",
            "SendDlgItemMessageW",
            "BeginDeferWindowPos",
            "GetWindowLongA",
            "MoveWindow",
            "LoadImageA",
            "MonitorFromWindow",
            "SetRectEmpty",
            "GetKeyNameTextA",
            "LoadStringA",
            "IsWindowVisible",
            "GetNextDlgTabItem",
            "EnableMenuItem",
            "GetMenuDefaultItem",
            "SetWindowTextA",
            "EndDialog",
            "ReplyMessage",
            "CharUpperA",
            "CallWindowProcA",
            "DrawTextA",
            "TrackPopupMenuEx",
            "RegisterClassExA",
            "CharLowerA",
            "DrawFocusRect",
            "IsIconic",
            "GetDlgItem",
            "CreateDialogIndirectParamW",
            "DispatchMessageA",
            "SetFocus",
            "SetClipboardData",
            "PeekMessageA",
            "GetSysColor",
            "SetPropA",
            "DrawIconEx",
            "DialogBoxIndirectParamW",
            "InSendMessage",
            "GetClassInfoW",
            "CloseWindow"
        ],
        "ADVAPI32.dll": [
            "RegCreateKeyExW",
            "RegOpenKeyExW",
            "RegQueryValueExW",
            "RegSetValueExW",
            "RegCloseKey"
        ]
    }
}