{
    "hash": "00025b5606396d5cb6495caf64eff9c6253974286ef03328d9f355ea9e1f9425",
    "section": [
        {
            "Name": ".text\u0000\u0000\u0000",
            "VirtualAddress": "0x1000",
            "Misc_VirtualSize": "0x6c4",
            "SizeOfRawData": 2048
        },
        {
            "Name": ".rdata\u0000\u0000",
            "VirtualAddress": "0x2000",
            "Misc_VirtualSize": "0x59c",
            "SizeOfRawData": 1536
        },
        {
            "Name": ".data\u0000\u0000\u0000",
            "VirtualAddress": "0x3000",
            "Misc_VirtualSize": "0x258",
            "SizeOfRawData": 512
        }
    ],
    "import": {
        "KERNEL32.dll": [
            "CloseHandle",
            "CreateToolhelp32Snapshot",
            "Process32NextW",
            "WaitForSingleObject",
            "Process32FirstW",
            "SetLastError",
            "GetLastError",
            "SetThreadPriority",
            "lstrcmpW",
            "GetModuleFileNameW",
            "Sleep",
            "OpenProcess",
            "GetCurrentThread",
            "ExitProcess",
            "lstrcpyA",
            "HeapAlloc",
            "GetProcessHeap",
            "lstrlenA",
            "GetCommandLineA",
            "IsProcessorFeaturePresent"
        ],
        "ADVAPI32.dll": [
            "OpenServiceW",
            "RegCloseKey",
            "RegisterServiceCtrlHandlerW",
            "SetServiceStatus",
            "ChangeServiceConfigW",
            "DuplicateTokenEx",
            "ChangeServiceConfig2W",
            "RegOpenKeyW",
            "CreateProcessAsUserW",
            "RegQueryValueExW",
            "StartServiceCtrlDispatcherW",
            "OpenSCManagerW",
            "OpenProcessToken",
            "CloseServiceHandle",
            "CreateServiceW"
        ]
    }
}