{
    "hash": "0002537f4abc1a90872835de0ba6899b234f0199f0de9ab94a595612ad1588ca",
    "section": [
        {
            "Name": ".text\u0000\u0000\u0000",
            "VirtualAddress": "0x1000",
            "Misc_VirtualSize": "0xa566",
            "SizeOfRawData": 42496
        },
        {
            "Name": ".rdata\u0000\u0000",
            "VirtualAddress": "0xc000",
            "Misc_VirtualSize": "0x6504",
            "SizeOfRawData": 26112
        },
        {
            "Name": ".data\u0000\u0000\u0000",
            "VirtualAddress": "0x13000",
            "Misc_VirtualSize": "0x41c0",
            "SizeOfRawData": 16384
        }
    ],
    "import": {
        "KERNEL32.DLL": [
            "GetDriveTypeA",
            "GetWindowsDirectoryA",
            "GetComputerNameA",
            "GetLastError",
            "Sleep",
            "GetModuleFileNameA",
            "GetLocalTime",
            "CreateThread",
            "OpenMutexA",
            "ReleaseMutex",
            "CreateMutexA",
            "CloseHandle",
            "GetVersionExA",
            "CreateFileA",
            "CreateFileMappingA",
            "MapViewOfFile",
            "WriteFile",
            "SetFilePointer",
            "FindFirstFileA",
            "FindNextFileA",
            "FindClose",
            "OpenProcess",
            "TerminateProcess",
            "CreateToolhelp32Snapshot",
            "Process32First",
            "Process32Next",
            "LoadLibraryA",
            "GetProcAddress",
            "FreeLibrary",
            "GetSystemTimeAsFileTime",
            "SetConsoleCtrlHandler",
            "GetStartupInfoA",
            "GetModuleHandleA",
            "VirtualAlloc",
            "VirtualQuery",
            "HeapCreate",
            "HeapDestroy",
            "HeapAlloc",
            "HeapReAlloc",
            "HeapFree",
            "HeapSize",
            "HeapValidate",
            "ExitProcess",
            "RtlUnwind",
            "GetFileType",
            "GetStdHandle",
            "GetCurrentProcess",
            "DuplicateHandle",
            "SetHandleCount",
            "GetCommandLineA",
            "GetEnvironmentStrings",
            "FreeEnvironmentStringsA",
            "UnhandledExceptionFilter",
            "GetTimeZoneInformation",
            "SetStdHandle",
            "DeleteFileA",
            "ReadFile",
            "SetEndOfFile"
        ],
        "ADVAPI32.dll": [
            "RegOpenKeyExA",
            "RegQueryValueExA",
            "RegCloseKey",
            "RegSetValueExA",
            "RegConnectRegistryA",
            "OpenSCManagerA",
            "LockServiceDatabase",
            "OpenServiceA",
            "ChangeServiceConfigA",
            "StartServiceA",
            "CloseServiceHandle",
            "UnlockServiceDatabase",
            "EnumServicesStatusA",
            "ControlService",
            "DeleteService"
        ],
        "MPR.dll": [
            "WNetAddConnection2A",
            "WNetCancelConnection2A",
            "WNetOpenEnumA",
            "WNetEnumResourceA",
            "WNetCloseEnum",
            "WNetGetConnectionA"
        ],
        "SHELL32.dll": [
            "FindExecutableA",
            "ShellExecuteA"
        ],
        "USER32.dll": [
            "GetWindowTextA",
            "GetWindowThreadProcessId",
            "EnumWindows"
        ],
        "WS2_32.dll": [
            "socket",
            "htonl",
            "htons",
            "bind",
            "recvfrom",
            "sendto",
            "WSAStartup",
            "WSACleanup",
            "inet_addr",
            "gethostbyname",
            "gethostbyaddr"
        ]
    }
}