{
    "hash": "00029f638a20517b853050b1c38fcdc410a0a5110914bb9f31f3c52d7f734257",
    "section": [
        {
            "Name": ".text\u0000\u0000\u0000",
            "VirtualAddress": "0x1000",
            "Misc_VirtualSize": "0xa9000",
            "SizeOfRawData": 692224
        },
        {
            "Name": ".rdata\u0000\u0000",
            "VirtualAddress": "0xaa000",
            "Misc_VirtualSize": "0x2000",
            "SizeOfRawData": 10240
        },
        {
            "Name": ".data\u0000\u0000\u0000",
            "VirtualAddress": "0xac000",
            "Misc_VirtualSize": "0x14f000",
            "SizeOfRawData": 1372160
        },
        {
            "Name": ".rsrc\u0000\u0000\u0000",
            "VirtualAddress": "0x1fb000",
            "Misc_VirtualSize": "0x1200",
            "SizeOfRawData": 4608
        }
    ],
    "import": {
        "kernel32.dll": [
            "GetCurrentProcessId",
            "VirtualAlloc"
        ],
        "user32.dll": [
            "GetClipboardOwner"
        ]
    }
}