{
    "hash": "0002841ad807c6409d18ca8e5cf228e024b80a09c2eec901ce232cd5a4258475",
    "section": [
        {
            "Name": ".code\u0000\u0000\u0000",
            "VirtualAddress": "0x1000",
            "Misc_VirtualSize": "0x731",
            "SizeOfRawData": 1841
        },
        {
            "Name": ".text\u0000\u0000\u0000",
            "VirtualAddress": "0x2000",
            "Misc_VirtualSize": "0x1998",
            "SizeOfRawData": 6552
        },
        {
            "Name": ".rdata\u0000\u0000",
            "VirtualAddress": "0x4000",
            "Misc_VirtualSize": "0x1c",
            "SizeOfRawData": 28
        },
        {
            "Name": ".data\u0000\u0000\u0000",
            "VirtualAddress": "0x5000",
            "Misc_VirtualSize": "0x7a8",
            "SizeOfRawData": 1960
        },
        {
            "Name": ".rsrc\u0000\u0000\u0000",
            "VirtualAddress": "0x6000",
            "Misc_VirtualSize": "0x2bc",
            "SizeOfRawData": 700
        },
        {
            "Name": ".NewSec\u0000",
            "VirtualAddress": "0x7000",
            "Misc_VirtualSize": "0x1000",
            "SizeOfRawData": 4096
        }
    ],
    "import": {
        "MSVCRT.dll": [
            "memset",
            "memcpy",
            "_stricmp",
            "strncmp",
            "_strnicmp",
            "strcmp",
            "memmove",
            "strlen",
            "strcpy",
            "strcat",
            "strncpy"
        ],
        "KERNEL32.dll": [
            "GetModuleHandleA",
            "HeapCreate",
            "HeapDestroy",
            "ExitProcess",
            "GetCurrentThreadId",
            "GetTickCount",
            "HeapAlloc",
            "HeapFree",
            "WriteFile",
            "CloseHandle",
            "CreateFileA",
            "GetFileSize",
            "ReadFile",
            "SetFilePointer",
            "InitializeCriticalSection",
            "GetModuleFileNameA",
            "GetCurrentProcess",
            "DuplicateHandle",
            "CreatePipe",
            "GetStdHandle",
            "CreateProcessA",
            "WaitForSingleObject",
            "EnterCriticalSection",
            "LeaveCriticalSection",
            "GetCurrentProcessId",
            "GetDriveTypeA",
            "FindFirstFileA",
            "FindClose",
            "GetFileAttributesA",
            "CreateDirectoryA",
            "GetLastError",
            "FindNextFileA",
            "SetFileAttributesA",
            "HeapReAlloc"
        ],
        "COMCTL32.DLL": [
            "InitCommonControls"
        ],
        "USER32.DLL": [
            "MessageBoxA",
            "GetWindowThreadProcessId",
            "IsWindowVisible",
            "IsWindowEnabled",
            "GetForegroundWindow",
            "EnableWindow",
            "EnumWindows"
        ],
        "SHELL32.DLL": [
            "ShellExecuteExA"
        ],
        "OLE32.DLL": [
            "CoInitialize"
        ]
    }
}