{
    "hash": "00021a567f89407d584fff21572bcda3e949a7ae58ab6120ab7f0aa36264a69a",
    "section": [
        {
            "Name": ".text\u0000\u0000\u0000",
            "VirtualAddress": "0x1000",
            "Misc_VirtualSize": "0x234eee",
            "SizeOfRawData": 2314240
        },
        {
            "Name": ".rsrc\u0000\u0000\u0000",
            "VirtualAddress": "0x236000",
            "Misc_VirtualSize": "0x115c",
            "SizeOfRawData": 4608
        }
    ],
    "import": {}
}