{
    "hash": "00029c23ae3c7b4b51bca0d0dad26d7d5a18464de0419412bc56031e75f49619",
    "section": [
        {
            "Name": ".text\u0000\u0000\u0000",
            "VirtualAddress": "0x1000",
            "Misc_VirtualSize": "0x1ce30",
            "SizeOfRawData": 118784
        },
        {
            "Name": ".data\u0000\u0000\u0000",
            "VirtualAddress": "0x1e000",
            "Misc_VirtualSize": "0x40",
            "SizeOfRawData": 512
        },
        {
            "Name": ".rdata\u0000\u0000",
            "VirtualAddress": "0x1f000",
            "Misc_VirtualSize": "0x3154",
            "SizeOfRawData": 12800
        },
        {
            "Name": ".bss\u0000\u0000\u0000\u0000",
            "VirtualAddress": "0x23000",
            "Misc_VirtualSize": "0x138",
            "SizeOfRawData": 0
        },
        {
            "Name": ".edata\u0000\u0000",
            "VirtualAddress": "0x24000",
            "Misc_VirtualSize": "0x634",
            "SizeOfRawData": 2048
        },
        {
            "Name": ".idata\u0000\u0000",
            "VirtualAddress": "0x25000",
            "Misc_VirtualSize": "0xb88",
            "SizeOfRawData": 3072
        },
        {
            "Name": ".reloc\u0000\u0000",
            "VirtualAddress": "0x26000",
            "Misc_VirtualSize": "0x1000",
            "SizeOfRawData": 4096
        }
    ],
    "import": {
        "ADVAPI32.DLL": [
            "CryptAcquireContextA",
            "CryptCreateHash",
            "CryptDestroyHash",
            "CryptGetHashParam",
            "CryptHashData",
            "CryptReleaseContext"
        ],
        "KERNEL32.dll": [
            "ExitProcess",
            "ExpandEnvironmentStringsA",
            "FormatMessageA",
            "GetLastError",
            "GetModuleFileNameA",
            "GetModuleHandleA",
            "GetProcAddress",
            "GetTickCount",
            "GetVersionExA",
            "SetLastError",
            "SetUnhandledExceptionFilter",
            "Sleep",
            "SleepEx"
        ],
        "msvcrt.dll": [
            "__getmainargs",
            "__mb_cur_max",
            "__p__environ",
            "__p__fmode",
            "__set_app_type",
            "_cexit",
            "_errno",
            "_iob",
            "_isctype",
            "_onexit",
            "_pctype",
            "_setmode",
            "_stati64",
            "_stricmp",
            "_strnicmp",
            "_sys_nerr",
            "atexit",
            "calloc",
            "fclose",
            "fflush",
            "fgets",
            "fopen",
            "fprintf",
            "fputc",
            "fputs",
            "fread",
            "free",
            "fseek",
            "ftell",
            "fwrite",
            "getenv",
            "gmtime",
            "malloc",
            "mbstowcs",
            "memchr",
            "memcmp",
            "memcpy",
            "memmove",
            "memset",
            "printf",
            "puts",
            "qsort",
            "rand",
            "realloc",
            "setlocale",
            "signal",
            "sprintf",
            "srand",
            "sscanf",
            "strchr",
            "strcmp",
            "strcpy",
            "strerror",
            "strncmp",
            "strncpy",
            "strrchr",
            "strstr",
            "strtol",
            "strtoul",
            "time",
            "tolower",
            "wcstombs"
        ],
        "WS2_32.DLL": [
            "WSACleanup",
            "WSAGetLastError",
            "WSAIoctl",
            "WSASetLastError",
            "WSAStartup",
            "__WSAFDIsSet",
            "bind",
            "closesocket",
            "connect",
            "gethostbyname",
            "getpeername",
            "getsockname",
            "getsockopt",
            "htons",
            "ioctlsocket",
            "ntohs",
            "recv",
            "select",
            "send",
            "setsockopt",
            "socket"
        ]
    }
}