{
    "hash": "00036eb9b640645899779f7f852a5d87be9c4fb8f8fc1c1284576bbf9c910120",
    "section": [
        {
            "Name": ".text\u0000\u0000\u0000",
            "VirtualAddress": "0x1000",
            "Misc_VirtualSize": "0x3428",
            "SizeOfRawData": 13824
        },
        {
            "Name": ".rdata\u0000p",
            "VirtualAddress": "0x5000",
            "Misc_VirtualSize": "0x10000",
            "SizeOfRawData": 0
        },
        {
            "Name": ".data\u0000\u0000\u0000",
            "VirtualAddress": "0x15000",
            "Misc_VirtualSize": "0xa65a",
            "SizeOfRawData": 43008
        },
        {
            "Name": ".brdata\u0000",
            "VirtualAddress": "0x20000",
            "Misc_VirtualSize": "0x1c000",
            "SizeOfRawData": 113664
        },
        {
            "Name": "qxejodg\u0000",
            "VirtualAddress": "0x3c000",
            "Misc_VirtualSize": "0x8000",
            "SizeOfRawData": 31744
        },
        {
            "Name": "rqvmxkb\u0000",
            "VirtualAddress": "0x44000",
            "Misc_VirtualSize": "0x8000",
            "SizeOfRawData": 31744
        },
        {
            "Name": "gumrkvc\u0000",
            "VirtualAddress": "0x4c000",
            "Misc_VirtualSize": "0x8000",
            "SizeOfRawData": 31744
        },
        {
            "Name": "kakxcjb\u0000",
            "VirtualAddress": "0x54000",
            "Misc_VirtualSize": "0x1000",
            "SizeOfRawData": 4096
        }
    ],
    "import": {
        "KERNEL32.dll": [
            "GlobalFindAtomA",
            "GetConsoleScreenBufferInfo",
            "CreateProcessA",
            "DelayLoadFailureHook",
            "ReadConsoleW",
            "GlobalUnWire",
            "IsDBCSLeadByteEx",
            "ReadConsoleOutputCharacterA",
            "FatalExit",
            "GetConsoleInputExeNameW",
            "LocalSize"
        ]
    }
}