{
    "hash": "00039ee5a1f44ad3a0297fbd91cde747b302438c243ddb33e6550c404bb1b1f8",
    "section": [
        {
            "Name": "CODE\u0000\u0000\u0000\u0000",
            "VirtualAddress": "0x1000",
            "Misc_VirtualSize": "0x29ca8",
            "SizeOfRawData": 171520
        },
        {
            "Name": "DATA\u0000\u0000\u0000\u0000",
            "VirtualAddress": "0x2b000",
            "Misc_VirtualSize": "0x269c",
            "SizeOfRawData": 10240
        },
        {
            "Name": ".BSS\u0000\u0000\u0012\u0000",
            "VirtualAddress": "0x2e000",
            "Misc_VirtualSize": "0x145",
            "SizeOfRawData": 0
        },
        {
            "Name": ".idata\u0000\u0000",
            "VirtualAddress": "0x2f000",
            "Misc_VirtualSize": "0x6b6",
            "SizeOfRawData": 2048
        },
        {
            "Name": ".tls\u0000\u0000\u0000\u0000",
            "VirtualAddress": "0x30000",
            "Misc_VirtualSize": "0x20",
            "SizeOfRawData": 0
        },
        {
            "Name": ".rdata\u0000\u0000",
            "VirtualAddress": "0x31000",
            "Misc_VirtualSize": "0x18",
            "SizeOfRawData": 512
        },
        {
            "Name": ".reloc\u0000\u0000",
            "VirtualAddress": "0x32000",
            "Misc_VirtualSize": "0x106c",
            "SizeOfRawData": 4608
        },
        {
            "Name": ".rsrc\u0000\u0000\u0000",
            "VirtualAddress": "0x34000",
            "Misc_VirtualSize": "0x1c00",
            "SizeOfRawData": 7168
        }
    ],
    "import": {
        "user32.dll": [
            "CopyRect",
            "EndPaint",
            "BroadcastSystemMessageExW",
            "SetMenuItemInfoA",
            "CharNextW",
            "CharLowerW",
            "wsprintfW",
            "GetAsyncKeyState",
            "GetWindowInfo",
            "AdjustWindowRectEx",
            "SetScrollRange",
            "SetDoubleClickTime",
            "wsprintfA",
            "SetMenuInfo",
            "SetDlgItemTextA",
            "SetMenu",
            "GetShellWindow"
        ],
        "kernel32.dll": [
            "AddAtomW",
            "LoadLibraryExA",
            "GetModuleHandleA",
            "GetProcAddress",
            "QueryActCtxW",
            "GetWindowsDirectoryA",
            "LocalFileTimeToFileTime",
            "GetNativeSystemInfo",
            "GetCommProperties",
            "GetConsoleProcessList",
            "HeapSize",
            "EnumCalendarInfoExA",
            "GetLongPathNameA",
            "ReadDirectoryChangesW",
            "GetVolumePathNameW",
            "CreateThread",
            "GetThreadLocale",
            "SetUserGeoID",
            "LeaveCriticalSection",
            "SetConsoleDisplayMode"
        ],
        "comdlg32.dll": [
            "GetSaveFileNameW",
            "ReplaceTextW",
            "ChooseFontA",
            "PrintDlgW",
            "ChooseColorW",
            "GetFileTitleA",
            "WantArrows",
            "FindTextA",
            "FindTextW",
            "dwLBSubclass",
            "PageSetupDlgA",
            "PrintDlgExA",
            "ChooseColorA"
        ],
        "advapi32.dll": [
            "GetFileSecurityW",
            "GetTraceLoggerHandle",
            "RegEnumKeyExA",
            "RegOpenKeyExW",
            "PrivilegeCheck",
            "OpenBackupEventLogA",
            "GetTrusteeNameA",
            "GetInformationCodeAuthzPolicyW",
            "ImpersonateNamedPipeClient",
            "AccessCheckByTypeAndAuditAlarmW",
            "AddAuditAccessAce"
        ],
        "wtsapi32.dll": [
            "WTSVirtualChannelClose",
            "WTSLogoffSession",
            "WTSSetSessionInformationW",
            "WTSTerminateProcess",
            "WTSEnumerateProcessesA"
        ]
    }
}