{
    "hash": "0003ae9a51f7265ca88a931eaa607702d41893273488f242cf45d6b46c31a6fe",
    "section": [
        {
            "Name": ".text\u0000\u0000\u0000",
            "VirtualAddress": "0x1000",
            "Misc_VirtualSize": "0x27af3",
            "SizeOfRawData": 162816
        },
        {
            "Name": ".rdata\u0000\u0000",
            "VirtualAddress": "0x29000",
            "Misc_VirtualSize": "0x831d0",
            "SizeOfRawData": 537088
        },
        {
            "Name": ".data\u0000\u0000\u0000",
            "VirtualAddress": "0xad000",
            "Misc_VirtualSize": "0x5b37",
            "SizeOfRawData": 3584
        },
        {
            "Name": ".reloc0\u0000",
            "VirtualAddress": "0xb3000",
            "Misc_VirtualSize": "0x8fc",
            "SizeOfRawData": 2560
        }
    ],
    "import": {
        "KERNEL32.dll": [
            "GetCurrentProcessId",
            "QueryPerformanceCounter",
            "RtlUnwind",
            "OutputDebugStringA",
            "InterlockedCompareExchange",
            "Sleep",
            "InterlockedExchange",
            "GetSystemDirectoryA",
            "WinExec",
            "GetFileAttributesW",
            "GetFileAttributesA",
            "CreateFileW",
            "CreateFileA",
            "GetFileSize",
            "lstrlenA",
            "GetModuleFileNameA",
            "LoadLibraryA",
            "GetProcAddress",
            "WritePrivateProfileStringW",
            "WritePrivateProfileStringA",
            "GetSystemTimeAsFileTime",
            "GetPrivateProfileStringA",
            "lstrcmpiW",
            "GetStringTypeExW",
            "GetStringTypeExA",
            "WideCharToMultiByte",
            "IsValidCodePage",
            "MultiByteToWideChar",
            "GetCurrentThreadId",
            "UnmapViewOfFile",
            "CloseHandle",
            "OpenFileMappingA",
            "OpenMutexA",
            "GetVersionExA",
            "GetLastError",
            "MapViewOfFile",
            "CreateMutexA",
            "WaitForSingleObject",
            "ReleaseMutex",
            "lstrcmpiA",
            "GetCurrentProcess",
            "GlobalFree",
            "GlobalUnlock",
            "GlobalLock",
            "GlobalAlloc",
            "GetPrivateProfileStringW",
            "CreateFileMappingA",
            "InterlockedDecrement",
            "GetTickCount",
            "VirtualAlloc",
            "GetModuleHandleA",
            "CreateEventA",
            "PulseEvent"
        ],
        "USER32.dll": [
            "GetCursorPos",
            "GetMessageTime",
            "IsWindowVisible",
            "ChildWindowFromPoint",
            "CreateWindowExW",
            "DestroyIcon",
            "ScreenToClient",
            "RegisterDeviceNotificationW",
            "IsWindow",
            "LoadImageW",
            "MapWindowPoints",
            "InvalidateRect",
            "SetRect",
            "EnableWindow",
            "RedrawWindow",
            "GetWindowRect",
            "GetSystemMetrics",
            "MessageBoxW",
            "UnregisterClassW",
            "DestroyWindow",
            "SendMessageW",
            "GetWindowDC",
            "GetDlgCtrlID",
            "SetTimer",
            "GetClientRect",
            "LoadStringW",
            "GetParent",
            "PostMessageW",
            "GetDC",
            "ReleaseDC",
            "UnregisterDeviceNotification",
            "KillTimer",
            "SendDlgItemMessageW",
            "SetWindowPos",
            "SetWindowLongW",
            "RegisterClassExW",
            "DefWindowProcW",
            "GetWindowLongW",
            "DrawIconEx",
            "GetSysColor",
            "GetWindowTextW",
            "DrawTextW",
            "EndPaint",
            "BeginPaint"
        ],
        "cmutil.dll": [
            "IsLogonAsSystem"
        ],
        "wmiprop.dll": [
            "WmiPropCoInstaller"
        ],
        "mciwave.dll": [
            "DriverProc"
        ]
    }
}