{
    "hash": "0003e6098a64ec35a871f2d62431f2b9918c7887421192ccb4468800c9041c4f",
    "section": [
        {
            "Name": "UPX0\u0000\u0000\u0000\u0000",
            "VirtualAddress": "0x1000",
            "Misc_VirtualSize": "0x39000",
            "SizeOfRawData": 0
        },
        {
            "Name": "UPX1\u0000\u0000\u0000\u0000",
            "VirtualAddress": "0x3a000",
            "Misc_VirtualSize": "0x12000",
            "SizeOfRawData": 73728
        },
        {
            "Name": ".rsrc\u0000\u0000\u0000",
            "VirtualAddress": "0x4c000",
            "Misc_VirtualSize": "0x15000",
            "SizeOfRawData": 84992
        }
    ],
    "import": {
        "KERNEL32.DLL": [
            "LoadLibraryA",
            "GetProcAddress",
            "VirtualProtect",
            "VirtualAlloc",
            "VirtualFree",
            "ExitProcess"
        ]
    }
}