{
    "hash": "00036cab2af77f364f45b1a5a994489a70608ffe4d38ec6c862bdff02c1ff925",
    "section": [
        {
            "Name": "UPX0\u0000\u0000\u0000\u0000",
            "VirtualAddress": "0x1000",
            "Misc_VirtualSize": "0x38000",
            "SizeOfRawData": 199680
        },
        {
            "Name": "UPX1\u0000\u0000\u0000\u0000",
            "VirtualAddress": "0x39000",
            "Misc_VirtualSize": "0x12000",
            "SizeOfRawData": 72704
        },
        {
            "Name": ".rsrc\u0000\u0000\u0000",
            "VirtualAddress": "0x4b000",
            "Misc_VirtualSize": "0x2000",
            "SizeOfRawData": 6144
        },
        {
            "Name": ".imports",
            "VirtualAddress": "0x4d000",
            "Misc_VirtualSize": "0x2000",
            "SizeOfRawData": 4608
        }
    ],
    "import": {
        "KERNEL32.DLL": [
            "DeleteCriticalSection",
            "LeaveCriticalSection",
            "EnterCriticalSection",
            "InitializeCriticalSection",
            "VirtualFree",
            "VirtualAlloc",
            "LocalFree",
            "LocalAlloc",
            "GetTickCount",
            "QueryPerformanceCounter",
            "GetVersion",
            "GetCurrentThreadId",
            "InterlockedDecrement",
            "InterlockedIncrement",
            "VirtualQuery",
            "WideCharToMultiByte",
            "MultiByteToWideChar",
            "lstrlenA",
            "lstrcpynA",
            "LoadLibraryExA",
            "GetThreadLocale",
            "GetStartupInfoA",
            "GetProcAddress",
            "GetModuleHandleA",
            "GetModuleFileNameA",
            "GetLocaleInfoA",
            "GetLastError",
            "GetCommandLineA",
            "FreeLibrary",
            "FindFirstFileA",
            "FindClose",
            "ExitProcess",
            "CreateThread",
            "WriteFile",
            "UnhandledExceptionFilter",
            "SetFilePointer",
            "SetEndOfFile",
            "RtlUnwind",
            "ReadFile",
            "RaiseException",
            "GetStdHandle",
            "GetFileSize",
            "GetFileType",
            "CreateFileA",
            "CloseHandle"
        ],
        "advapi32.dll": [
            "OpenServiceA",
            "OpenSCManagerA",
            "DeleteService",
            "ControlService",
            "CloseServiceHandle"
        ],
        "gdi32.dll": [
            "UnrealizeObject",
            "StretchBlt",
            "SetTextColor",
            "SetROP2",
            "SetBkMode",
            "SetBkColor",
            "SelectPalette",
            "SelectObject",
            "RealizePalette",
            "MoveToEx",
            "GetTextMetricsA",
            "GetSystemPaletteEntries",
            "GetStockObject",
            "GetObjectA",
            "GetDeviceCaps",
            "GetDIBits",
            "GetCurrentPositionEx",
            "GetBitmapBits",
            "DeleteObject",
            "DeleteDC",
            "CreatePenIndirect",
            "CreatePalette",
            "CreateFontIndirectA",
            "CreateDIBitmap",
            "CreateCompatibleDC",
            "CreateCompatibleBitmap",
            "CreateBrushIndirect",
            "CreateBitmap"
        ],
        "mpr.dll": [
            "WNetCancelConnectionA",
            "WNetAddConnection2A"
        ],
        "netapi32.dll": [
            "NetRemoteTOD",
            "NetScheduleJobAdd"
        ],
        "ole32.dll": [
            "CoUninitialize",
            "CoInitialize"
        ],
        "oleaut32.dll": [
            "SysFreeString",
            "SysReAllocStringLen",
            "SysAllocStringLen"
        ],
        "shell32.dll": [
            "ShellExecuteExA",
            "SHFileOperationA",
            "ExtractIconA"
        ],
        "URLMON.DLL": [
            "URLDownloadToFileA"
        ],
        "user32.dll": [
            "GetKeyboardType",
            "LoadStringA",
            "MessageBoxA",
            "CharNextA"
        ],
        "wininet.dll": [
            "InternetGetConnectedState",
            "InternetReadFile",
            "InternetOpenUrlA",
            "InternetOpenA",
            "InternetCloseHandle"
        ],
        "wsock32.dll": [
            "WSACleanup",
            "WSAStartup",
            "gethostname",
            "gethostbyname",
            "socket",
            "inet_ntoa",
            "inet_addr",
            "htons",
            "connect",
            "closesocket"
        ]
    }
}