{
    "hash": "0003c126c247d60f909c576a7ba881a328e853ca4ecd3ebf145d8d52b2b34c6b",
    "section": [
        {
            "Name": ".text\u0000\u0000\u0000",
            "VirtualAddress": "0x1000",
            "Misc_VirtualSize": "0x93000",
            "SizeOfRawData": 600576
        },
        {
            "Name": ".rdata\u0000\u0000",
            "VirtualAddress": "0x94000",
            "Misc_VirtualSize": "0x1000",
            "SizeOfRawData": 512
        },
        {
            "Name": ".data\u0000\u0000\u0000",
            "VirtualAddress": "0x95000",
            "Misc_VirtualSize": "0xd4000",
            "SizeOfRawData": 868352
        },
        {
            "Name": ".rsrc\u0000\u0000\u0000",
            "VirtualAddress": "0x169000",
            "Misc_VirtualSize": "0x1200",
            "SizeOfRawData": 4608
        }
    ],
    "import": {
        "kernel32.dll": [
            "GetSystemDefaultLCID",
            "VirtualAlloc"
        ],
        "user32.dll": [
            "GetMessageTime"
        ]
    }
}