{
    "hash": "0003ebc5b35af002678a592705dc439f6f6a29d3dd8e7d2d60292726e94de855",
    "section": [
        {
            "Name": ".text\u0000\u0000\u0000",
            "VirtualAddress": "0x1000",
            "Misc_VirtualSize": "0xa8011",
            "SizeOfRawData": 0
        },
        {
            "Name": ".rdata\u0000\u0000",
            "VirtualAddress": "0xaa000",
            "Misc_VirtualSize": "0x2fb90",
            "SizeOfRawData": 0
        },
        {
            "Name": ".data\u0000\u0000\u0000",
            "VirtualAddress": "0xda000",
            "Misc_VirtualSize": "0xb230",
            "SizeOfRawData": 0
        },
        {
            "Name": ".pdata\u0000\u0000",
            "VirtualAddress": "0xe6000",
            "Misc_VirtualSize": "0x699c",
            "SizeOfRawData": 0
        },
        {
            "Name": ".vmp0\u0000\u0000\u0000",
            "VirtualAddress": "0xed000",
            "Misc_VirtualSize": "0xba89",
            "SizeOfRawData": 0
        },
        {
            "Name": ".vmp1\u0000\u0000\u0000",
            "VirtualAddress": "0xf9000",
            "Misc_VirtualSize": "0xb32ec",
            "SizeOfRawData": 734208
        },
        {
            "Name": ".reloc\u0000\u0000",
            "VirtualAddress": "0x1ad000",
            "Misc_VirtualSize": "0x18",
            "SizeOfRawData": 512
        },
        {
            "Name": ".rsrc\u0000\u0000\u0000",
            "VirtualAddress": "0x1ae000",
            "Misc_VirtualSize": "0x26140",
            "SizeOfRawData": 512
        }
    ],
    "import": {
        "WSOCK32.dll": [
            "WSACleanup",
            "socket",
            "inet_ntoa",
            "setsockopt",
            "ntohs",
            "recvfrom",
            "ioctlsocket",
            "htons",
            "WSAStartup",
            "__WSAFDIsSet",
            "select",
            "accept",
            "listen",
            "bind",
            "closesocket",
            "WSAGetLastError",
            "recv",
            "sendto",
            "send",
            "inet_addr",
            "gethostbyname",
            "gethostname",
            "connect"
        ],
        "VERSION.dll": [
            "GetFileVersionInfoW",
            "GetFileVersionInfoSizeW",
            "VerQueryValueW"
        ],
        "WINMM.dll": [
            "timeGetTime",
            "waveOutSetVolume",
            "mciSendStringW"
        ],
        "COMCTL32.dll": [
            "ImageList_ReplaceIcon",
            "ImageList_Destroy",
            "ImageList_Remove",
            "ImageList_SetDragCursorImage",
            "ImageList_BeginDrag",
            "ImageList_DragEnter",
            "ImageList_DragLeave",
            "ImageList_EndDrag",
            "ImageList_DragMove",
            "InitCommonControlsEx",
            "ImageList_Create"
        ],
        "MPR.dll": [
            "WNetUseConnectionW",
            "WNetCancelConnection2W",
            "WNetGetConnectionW",
            "WNetAddConnection2W"
        ],
        "WININET.dll": [
            "InternetQueryDataAvailable",
            "InternetCloseHandle",
            "InternetOpenW",
            "InternetSetOptionW",
            "InternetCrackUrlW",
            "HttpQueryInfoW",
            "InternetQueryOptionW",
            "HttpOpenRequestW",
            "HttpSendRequestW",
            "FtpOpenFileW",
            "FtpGetFileSize",
            "InternetOpenUrlW",
            "InternetReadFile",
            "InternetConnectW"
        ],
        "PSAPI.DLL": [
            "GetProcessMemoryInfo"
        ],
        "IPHLPAPI.DLL": [
            "IcmpCreateFile",
            "IcmpCloseHandle",
            "IcmpSendEcho"
        ],
        "USERENV.dll": [
            "DestroyEnvironmentBlock",
            "UnloadUserProfile",
            "CreateEnvironmentBlock",
            "LoadUserProfileW"
        ],
        "UxTheme.dll": [
            "IsThemeActive"
        ],
        "KERNEL32.dll": [
            "GetModuleHandleA",
            "LoadLibraryA",
            "LocalAlloc",
            "LocalFree",
            "GetModuleFileNameA",
            "ExitProcess"
        ],
        "USER32.dll": [
            "RegisterHotKey",
            "ClientToScreen",
            "GetKeyboardLayoutNameW",
            "IsCharAlphaW",
            "IsCharAlphaNumericW",
            "IsCharLowerW",
            "IsCharUpperW",
            "GetMenuStringW",
            "GetSubMenu",
            "GetCaretPos",
            "IsZoomed",
            "GetWindowLongW",
            "MonitorFromPoint",
            "GetMonitorInfoW",
            "SetWindowLongW",
            "SetLayeredWindowAttributes",
            "FlashWindow",
            "GetClassLongPtrW",
            "TranslateAcceleratorW",
            "IsDialogMessageW",
            "GetSysColor",
            "InflateRect",
            "DrawFocusRect",
            "DrawTextW",
            "FrameRect",
            "DrawFrameControl",
            "FillRect",
            "PtInRect",
            "DestroyAcceleratorTable",
            "CreateAcceleratorTableW",
            "SetCursor",
            "GetWindowDC",
            "GetSystemMetrics",
            "SetWindowLongPtrW",
            "GetActiveWindow",
            "CharNextW",
            "wsprintfW",
            "RedrawWindow",
            "DrawMenuBar",
            "DestroyMenu",
            "SetMenu",
            "GetWindowTextLengthW",
            "CreateMenu",
            "IsDlgButtonChecked",
            "DefDlgProcW",
            "CallWindowProcW",
            "ReleaseCapture",
            "SetCapture",
            "UnregisterHotKey",
            "CharLowerBuffW",
            "MonitorFromRect",
            "LoadImageW",
            "CreateIconFromResourceEx",
            "mouse_event",
            "ExitWindowsEx",
            "SetActiveWindow",
            "FindWindowExW",
            "EnumThreadWindows",
            "SetMenuDefaultItem",
            "InsertMenuItemW",
            "IsMenu",
            "GetCursorInfo",
            "GetCursorPos",
            "DeleteMenu",
            "CheckMenuRadioItem",
            "GetMenuItemID",
            "GetMenuItemCount",
            "SetMenuItemInfoW",
            "GetMenuItemInfoW",
            "SetForegroundWindow",
            "IsIconic",
            "TranslateMessage",
            "SystemParametersInfoW",
            "keybd_event",
            "SendInput",
            "GetAsyncKeyState",
            "SetKeyboardState",
            "GetKeyboardState",
            "GetKeyState",
            "VkKeyScanW",
            "LoadStringW",
            "DialogBoxParamW",
            "MessageBeep",
            "EndDialog",
            "SendDlgItemMessageW",
            "GetDlgItem",
            "SetWindowTextW",
            "CopyRect",
            "ReleaseDC",
            "GetDC",
            "EndPaint",
            "BeginPaint",
            "GetClientRect",
            "GetMenu",
            "DestroyWindow",
            "EnumWindows",
            "GetDesktopWindow",
            "IsWindow",
            "IsWindowEnabled",
            "IsWindowVisible",
            "EnableWindow",
            "InvalidateRect",
            "GetWindowLongPtrW",
            "GetWindowThreadProcessId",
            "AttachThreadInput",
            "GetFocus",
            "GetWindowTextW",
            "SendMessageTimeoutW",
            "EnumChildWindows",
            "CharUpperBuffW",
            "GetClassNameW",
            "GetParent",
            "GetDlgCtrlID",
            "SendMessageW",
            "MapVirtualKeyW",
            "PostMessageW",
            "GetWindowRect",
            "SetUserObjectSecurity",
            "CloseDesktop",
            "CloseWindowStation",
            "OpenDesktopW",
            "SetProcessWindowStation",
            "GetProcessWindowStation",
            "SetWindowPos",
            "CopyImage",
            "AdjustWindowRectEx",
            "SetRect",
            "SetClipboardData",
            "EmptyClipboard",
            "CountClipboardFormats",
            "CloseClipboard",
            "GetClipboardData",
            "IsClipboardFormatAvailable",
            "OpenClipboard",
            "BlockInput",
            "GetMessageW",
            "LockWindowUpdate",
            "TrackPopupMenuEx",
            "DispatchMessageW",
            "OpenWindowStationW",
            "GetUserObjectSecurity",
            "MessageBoxW",
            "DefWindowProcW",
            "MoveWindow",
            "SetFocus",
            "PostQuitMessage",
            "KillTimer",
            "CreatePopupMenu",
            "RegisterWindowMessageW",
            "SetTimer",
            "ShowWindow",
            "CreateWindowExW",
            "RegisterClassExW",
            "LoadIconW",
            "LoadCursorW",
            "GetSysColorBrush",
            "GetForegroundWindow",
            "MessageBoxA",
            "DestroyIcon",
            "FindWindowW",
            "PeekMessageW",
            "ScreenToClient"
        ],
        "GDI32.dll": [
            "StrokePath",
            "DeleteObject",
            "GetTextExtentPoint32W",
            "ExtCreatePen",
            "GetDeviceCaps",
            "EndPath",
            "SetPixel",
            "CloseFigure",
            "LineTo",
            "AngleArc",
            "MoveToEx",
            "CreateCompatibleBitmap",
            "CreateCompatibleDC",
            "Ellipse",
            "PolyDraw",
            "BeginPath",
            "Rectangle",
            "SetViewportOrgEx",
            "SelectObject",
            "StretchBlt",
            "GetDIBits",
            "DeleteDC",
            "GetPixel",
            "CreateDCW",
            "GetObjectW",
            "SetBkMode",
            "RoundRect",
            "SetBkColor",
            "CreatePen",
            "CreateSolidBrush",
            "SetTextColor",
            "CreateFontW",
            "GetTextFaceW",
            "GetStockObject",
            "StrokeAndFillPath"
        ],
        "COMDLG32.dll": [
            "GetOpenFileNameW",
            "GetSaveFileNameW"
        ],
        "ADVAPI32.dll": [
            "GetAce",
            "RegEnumValueW",
            "RegDeleteValueW",
            "RegDeleteKeyW",
            "RegEnumKeyExW",
            "RegSetValueExW",
            "RegOpenKeyExW",
            "RegCloseKey",
            "RegQueryValueExW",
            "RegConnectRegistryW",
            "InitializeSecurityDescriptor",
            "InitializeAcl",
            "AdjustTokenPrivileges",
            "OpenThreadToken",
            "OpenProcessToken",
            "LookupPrivilegeValueW",
            "DuplicateTokenEx",
            "CreateProcessAsUserW",
            "CreateProcessWithLogonW",
            "GetLengthSid",
            "CopySid",
            "LogonUserW",
            "AllocateAndInitializeSid",
            "CheckTokenMembership",
            "RegCreateKeyExW",
            "FreeSid",
            "GetTokenInformation",
            "GetSecurityDescriptorDacl",
            "GetAclInformation",
            "AddAce",
            "SetSecurityDescriptorDacl",
            "GetUserNameW",
            "InitiateSystemShutdownExW"
        ],
        "SHELL32.dll": [
            "DragQueryPoint",
            "ShellExecuteExW",
            "DragQueryFileW",
            "SHEmptyRecycleBinW",
            "SHGetPathFromIDListW",
            "SHBrowseForFolderW",
            "SHCreateShellItem",
            "SHGetDesktopFolder",
            "SHGetSpecialFolderLocation",
            "SHGetFolderPathW",
            "SHFileOperationW",
            "ExtractIconExW",
            "Shell_NotifyIconW",
            "ShellExecuteW",
            "DragFinish"
        ],
        "ole32.dll": [
            "CoTaskMemAlloc",
            "CoTaskMemFree",
            "CLSIDFromString",
            "ProgIDFromCLSID",
            "CLSIDFromProgID",
            "OleSetMenuDescriptor",
            "MkParseDisplayName",
            "OleSetContainedObject",
            "CoCreateInstance",
            "IIDFromString",
            "StringFromGUID2",
            "CreateStreamOnHGlobal",
            "OleInitialize",
            "OleUninitialize",
            "CoInitialize",
            "CoUninitialize",
            "GetRunningObjectTable",
            "CoGetInstanceFromFile",
            "CoGetObject",
            "CoInitializeSecurity",
            "CoCreateInstanceEx",
            "CoSetProxyBlanket"
        ],
        "OLEAUT32.dll": [
            "UnRegisterTypeLib",
            "UnRegisterTypeLibForUser",
            "RegisterTypeLibForUser",
            "RegisterTypeLib",
            "LoadTypeLibEx",
            "VariantCopyInd",
            "SysReAllocString",
            "SysFreeString",
            "SafeArrayDestroyDescriptor",
            "SafeArrayDestroyData",
            "SafeArrayUnaccessData",
            "CreateDispTypeInfo",
            "SafeArrayAllocData",
            "SafeArrayAllocDescriptorEx",
            "SafeArrayCreateVector",
            "SysAllocString",
            "VariantTimeToSystemTime",
            "VarR8FromDec",
            "SafeArrayGetVartype",
            "OleLoadPicture",
            "QueryPathOfRegTypeLib",
            "VariantCopy",
            "VariantClear",
            "CreateStdDispatch",
            "DispCallFunc",
            "VariantChangeType",
            "SysStringLen",
            "SafeArrayAccessData",
            "VariantInit"
        ]
    }
}