{
    "hash": "000335c234279a228abf74304e7b780296b58c3c09e68cb513a4f3ecb3b44b0a",
    "section": [
        {
            "Name": ".text\u0000\u0000\u0000",
            "VirtualAddress": "0x1000",
            "Misc_VirtualSize": "0x513c36",
            "SizeOfRawData": 5324288
        },
        {
            "Name": ".rsrc\u0000\u0000\u0000",
            "VirtualAddress": "0x515000",
            "Misc_VirtualSize": "0x115c",
            "SizeOfRawData": 4608
        }
    ],
    "import": {}
}