{
    "hash": "0003d5ff28ff6f012411ff92e377bf3d4cd9110e21d016cba828f060fc8837ae",
    "section": [
        {
            "Name": ".text\u0000\u0000\u0000",
            "VirtualAddress": "0x2000",
            "Misc_VirtualSize": "0xe304",
            "SizeOfRawData": 58368
        },
        {
            "Name": ".rsrc\u0000\u0000\u0000",
            "VirtualAddress": "0x12000",
            "Misc_VirtualSize": "0x1",
            "SizeOfRawData": 512
        },
        {
            "Name": ".reloc\u0000\u0000",
            "VirtualAddress": "0x14000",
            "Misc_VirtualSize": "0xc",
            "SizeOfRawData": 512
        }
    ],
    "import": {
        "mscoree.dll": [
            "_CorExeMain"
        ]
    }
}