{
    "hash": "0003a134f826f1f0e0f650f0690f9093217d56f522bd9c8772f562aaad512c74",
    "section": [
        {
            "Name": "   \u0000    ",
            "VirtualAddress": "0x1000",
            "Misc_VirtualSize": "0x2d000",
            "SizeOfRawData": 61440
        },
        {
            "Name": ".rsrc\u0000\u0000\u0000",
            "VirtualAddress": "0x2e000",
            "Misc_VirtualSize": "0x5e0",
            "SizeOfRawData": 4096
        },
        {
            "Name": ".idata  ",
            "VirtualAddress": "0x2f000",
            "Misc_VirtualSize": "0x1000",
            "SizeOfRawData": 4096
        },
        {
            "Name": "        ",
            "VirtualAddress": "0x30000",
            "Misc_VirtualSize": "0x2af000",
            "SizeOfRawData": 4096
        },
        {
            "Name": "brgjpura",
            "VirtualAddress": "0x2df000",
            "Misc_VirtualSize": "0x1af000",
            "SizeOfRawData": 1765376
        },
        {
            "Name": "kmxanpzk",
            "VirtualAddress": "0x48e000",
            "Misc_VirtualSize": "0x1000",
            "SizeOfRawData": 4096
        }
    ],
    "import": {
        "kernel32.dll": [
            "lstrcpy"
        ],
        "comctl32.dll": [
            "InitCommonControls"
        ]
    }
}