{
    "hash": "0003f07e31a99a3ac94679c6db9e5a409ab719a6049321577e067ced050f6e03",
    "section": [
        {
            "Name": ".text\u0000\u0000\u0000",
            "VirtualAddress": "0x1000",
            "Misc_VirtualSize": "0x3090",
            "SizeOfRawData": 12800
        },
        {
            "Name": ".data\u0000\u0000\u0000",
            "VirtualAddress": "0x5000",
            "Misc_VirtualSize": "0x5c0",
            "SizeOfRawData": 0
        }
    ],
    "import": {
        "KERNEL32.dll": [
            "GetLastError",
            "GetCommandLineA",
            "GlobalAlloc"
        ],
        "USER32.dll": [
            "MessageBoxA",
            "SetTimer"
        ]
    }
}