{
    "hash": "0003a9b239cbea774a04783aded7506bc5873dc27ad7d0b71d8e24b2e10b4a20",
    "section": [
        {
            "Name": "UPX0\u0000\u0000\u0000\u0000",
            "VirtualAddress": "0x1000",
            "Misc_VirtualSize": "0x47c000",
            "SizeOfRawData": 0
        },
        {
            "Name": "UPX1\u0000\u0000\u0000\u0000",
            "VirtualAddress": "0x47d000",
            "Misc_VirtualSize": "0x4c0000",
            "SizeOfRawData": 4979712
        },
        {
            "Name": ".rsrc\u0000\u0000\u0000",
            "VirtualAddress": "0x93d000",
            "Misc_VirtualSize": "0x1000",
            "SizeOfRawData": 2048
        }
    ],
    "import": {
        "KERNEL32.DLL": [
            "LoadLibraryA",
            "GetProcAddress",
            "VirtualProtect",
            "VirtualAlloc",
            "VirtualFree",
            "ExitProcess"
        ],
        "advapi32.dll": [
            "CopySid"
        ],
        "comctl32.dll": [
            "ImageList_Add"
        ],
        "gdi32.dll": [
            "Pie"
        ],
        "netapi32.dll": [
            "NetWkstaGetInfo"
        ],
        "ole32.dll": [
            "IsEqualGUID"
        ],
        "oleaut32.dll": [
            "VariantInit"
        ],
        "shell32.dll": [
            "Shell_NotifyIconW"
        ],
        "user32.dll": [
            "GetDC"
        ],
        "version.dll": [
            "VerQueryValueW"
        ],
        "winspool.drv": [
            "ClosePrinter"
        ]
    }
}