{
    "hash": "000452fb05ff3a61bae957788653b83022295f5aedf0293c624348f0f82dbf2b",
    "section": [
        {
            "Name": ".text\u0000\u0000\u0000",
            "VirtualAddress": "0x1000",
            "Misc_VirtualSize": "0x526",
            "SizeOfRawData": 1536
        },
        {
            "Name": ".data\u0000\u0000\u0000",
            "VirtualAddress": "0x2000",
            "Misc_VirtualSize": "0x20",
            "SizeOfRawData": 512
        },
        {
            "Name": ".rsrc\u0000\u0000\u0000",
            "VirtualAddress": "0x3000",
            "Misc_VirtualSize": "0x6140",
            "SizeOfRawData": 25088
        }
    ],
    "import": {
        "msvcrt.dll": [
            "__getmainargs",
            "_initterm",
            "__setusermatherr",
            "_adjust_fdiv",
            "__p__commode",
            "_acmdln",
            "__set_app_type",
            "_controlfp",
            "_except_handler3",
            "exit",
            "_XcptFilter",
            "_cexit",
            "_exit",
            "__p__fmode",
            "_c_exit"
        ],
        "KERNEL32.dll": [
            "GetModuleHandleA",
            "GetStartupInfoA"
        ],
        "HYPERTRM.dll": [
            "MessageLoop",
            "InitInstance"
        ]
    }
}