{
    "hash": "0004aa3b911f7efdf4830a45366e8321a0d712b3591757a45989fe0bcfc72bb4",
    "section": [
        {
            "Name": "UPX0\u0000\u0000\u0000\u0000",
            "VirtualAddress": "0x1000",
            "Misc_VirtualSize": "0x56000",
            "SizeOfRawData": 352256
        },
        {
            "Name": "UPX1\u0000\u0000\u0000\u0000",
            "VirtualAddress": "0x57000",
            "Misc_VirtualSize": "0xf000",
            "SizeOfRawData": 60416
        },
        {
            "Name": ".rsrc\u0000\u0000\u0000",
            "VirtualAddress": "0x66000",
            "Misc_VirtualSize": "0x1000",
            "SizeOfRawData": 1024
        },
        {
            "Name": ".imports",
            "VirtualAddress": "0x67000",
            "Misc_VirtualSize": "0x1000",
            "SizeOfRawData": 2048
        }
    ],
    "import": {}
}