{
    "hash": "00048d446be3f2a901b0070325f4b935c13097616c42a892d95b34d1ca695bd7",
    "section": [
        {
            "Name": "\u0000\u0000\u0000\u0000\u0000\u0000\u0000\u0000",
            "VirtualAddress": "0x1000",
            "Misc_VirtualSize": "0x4000",
            "SizeOfRawData": 6656
        },
        {
            "Name": ".rsrc\u0000\u0000\u0000",
            "VirtualAddress": "0x5000",
            "Misc_VirtualSize": "0x19000",
            "SizeOfRawData": 102400
        },
        {
            "Name": "petite\u0000\u0000",
            "VirtualAddress": "0x1e000",
            "Misc_VirtualSize": "0x17b",
            "SizeOfRawData": 379
        }
    ],
    "import": {
        "user32.dll": [
            "MessageBoxA",
            "wsprintfA"
        ],
        "kernel32.dll": [
            "ExitProcess",
            "GetModuleHandleA",
            "GetProcAddress",
            "VirtualProtect",
            "VirtualAlloc",
            "VirtualFree",
            "LoadLibraryA"
        ],
        "MSVCIRT.dll": [
            "??1ios@@UAE@XZ"
        ],
        "MSVCRT.dll": [
            "exit"
        ]
    }
}