{
    "hash": "0004e53640de4dbea9e0635c11e06f49692266f0b78765eafe59ecd06f060482",
    "section": [
        {
            "Name": ".text\u0000\u0000\u0000",
            "VirtualAddress": "0x1000",
            "Misc_VirtualSize": "0x210a",
            "SizeOfRawData": 8704
        },
        {
            "Name": ".rdata\u0000\u0000",
            "VirtualAddress": "0x4000",
            "Misc_VirtualSize": "0x708",
            "SizeOfRawData": 2048
        },
        {
            "Name": ".data\u0000\u0000\u0000",
            "VirtualAddress": "0x5000",
            "Misc_VirtualSize": "0xd43",
            "SizeOfRawData": 3584
        },
        {
            "Name": ".rsrc\u0000\u0000\u0000",
            "VirtualAddress": "0x6000",
            "Misc_VirtualSize": "0x2cae",
            "SizeOfRawData": 11776
        }
    ],
    "import": {
        "cryptdll.dll": [
            "CDBuildVect",
            "MD5Update",
            "CDLocateRng",
            "MD5Init"
        ],
        "shell32.dll": [
            "DragAcceptFiles",
            "SHCreateShellItem",
            "ShellAboutA",
            "SHGetFileInfoA",
            "StrChrA",
            "SHFileOperationA",
            "DragQueryFileA",
            "FreeIconList",
            "SHGetDataFromIDListA",
            "SHGetDiskFreeSpaceA",
            "FindExecutableA",
            "SHGetDesktopFolder",
            "ShellMessageBoxW",
            "SHGetFolderPathA",
            "SHGetMalloc",
            "DragFinish"
        ],
        "dbnmpntw.dll": [
            "ConnectionClose",
            "ConnectionWrite",
            "ConnectionError"
        ],
        "kernel32.dll": [
            "FileTimeToSystemTime",
            "SearchPathA",
            "OpenMutexA",
            "GetPrivateProfileIntW",
            "GetModuleHandleW",
            "GetLocalTime",
            "ReadConsoleW",
            "FindFirstFileA",
            "GetEnvironmentVariableA",
            "DeviceIoControl",
            "SetEnvironmentVariableW",
            "CompareStringW",
            "GetStringTypeW",
            "IsValidCodePage",
            "lstrcmpiA",
            "lstrcmpA",
            "TlsGetValue",
            "GetProcAddress",
            "GetTickCount",
            "WriteConsoleA",
            "lstrcpynW",
            "GetLastError",
            "CreateDirectoryA",
            "GetCurrentDirectoryW",
            "SetErrorMode",
            "SleepEx",
            "InterlockedDecrement",
            "GetFullPathNameW",
            "GetPrivateProfileIntW",
            "IsBadStringPtrA"
        ]
    }
}