{
    "hash": "0004d7dedcbe375b7871de4a0d39e496c952266ac60b9946df371616faa864fe",
    "section": [
        {
            "Name": ".text\u0000\u0000\u0000",
            "VirtualAddress": "0x1000",
            "Misc_VirtualSize": "0x6dae",
            "SizeOfRawData": 28160
        },
        {
            "Name": ".rdata\u0000\u0000",
            "VirtualAddress": "0x8000",
            "Misc_VirtualSize": "0x2a62",
            "SizeOfRawData": 11264
        },
        {
            "Name": ".data\u0000\u0000\u0000",
            "VirtualAddress": "0xb000",
            "Misc_VirtualSize": "0x67ebc",
            "SizeOfRawData": 512
        },
        {
            "Name": ".ndata\u0000\u0000",
            "VirtualAddress": "0x73000",
            "Misc_VirtualSize": "0xf9000",
            "SizeOfRawData": 0
        },
        {
            "Name": ".rsrc\u0000\u0000\u0000",
            "VirtualAddress": "0x16c000",
            "Misc_VirtualSize": "0xad8",
            "SizeOfRawData": 3072
        },
        {
            "Name": ".reloc\u0000\u0000",
            "VirtualAddress": "0x16d000",
            "Misc_VirtualSize": "0xf32",
            "SizeOfRawData": 4096
        }
    ],
    "import": {
        "KERNEL32.dll": [
            "SetFileTime",
            "CompareFileTime",
            "SearchPathW",
            "GetShortPathNameW",
            "GetFullPathNameW",
            "MoveFileW",
            "SetCurrentDirectoryW",
            "GetFileAttributesW",
            "GetLastError",
            "CreateDirectoryW",
            "SetFileAttributesW",
            "Sleep",
            "GetTickCount",
            "GetFileSize",
            "GetModuleFileNameW",
            "GetCurrentProcess",
            "CopyFileW",
            "ExitProcess",
            "GetWindowsDirectoryW",
            "GetTempPathW",
            "GetCommandLineW",
            "SetErrorMode",
            "lstrcpynA",
            "CloseHandle",
            "lstrcpynW",
            "GetDiskFreeSpaceW",
            "GlobalUnlock",
            "GlobalLock",
            "CreateThread",
            "LoadLibraryW",
            "CreateProcessW",
            "lstrcmpiA",
            "CreateFileW",
            "GetTempFileNameW",
            "lstrcatW",
            "GetProcAddress",
            "LoadLibraryA",
            "GetModuleHandleA",
            "OpenProcess",
            "lstrcpyW",
            "GetVersionExW",
            "GetSystemDirectoryW",
            "GetVersion",
            "lstrcpyA",
            "RemoveDirectoryW",
            "lstrcmpA",
            "lstrcmpiW",
            "lstrcmpW",
            "ExpandEnvironmentStringsW",
            "GlobalAlloc",
            "WaitForSingleObject",
            "GetExitCodeProcess",
            "GlobalFree",
            "GetModuleHandleW",
            "LoadLibraryExW",
            "FreeLibrary",
            "WritePrivateProfileStringW",
            "GetPrivateProfileStringW",
            "WideCharToMultiByte",
            "lstrlenA",
            "MulDiv",
            "WriteFile",
            "ReadFile",
            "MultiByteToWideChar",
            "SetFilePointer",
            "FindClose",
            "FindNextFileW",
            "FindFirstFileW",
            "DeleteFileW",
            "lstrlenW"
        ],
        "USER32.dll": [
            "GetAsyncKeyState",
            "IsDlgButtonChecked",
            "ScreenToClient",
            "GetMessagePos",
            "CallWindowProcW",
            "IsWindowVisible",
            "LoadBitmapW",
            "CloseClipboard",
            "SetClipboardData",
            "EmptyClipboard",
            "OpenClipboard",
            "TrackPopupMenu",
            "GetWindowRect",
            "AppendMenuW",
            "CreatePopupMenu",
            "GetSystemMetrics",
            "EndDialog",
            "EnableMenuItem",
            "GetSystemMenu",
            "SetClassLongW",
            "IsWindowEnabled",
            "SetWindowPos",
            "DialogBoxParamW",
            "CheckDlgButton",
            "CreateWindowExW",
            "SystemParametersInfoW",
            "RegisterClassW",
            "SetDlgItemTextW",
            "GetDlgItemTextW",
            "MessageBoxIndirectW",
            "CharNextA",
            "CharUpperW",
            "CharPrevW",
            "wvsprintfW",
            "DispatchMessageW",
            "PeekMessageW",
            "wsprintfA",
            "DestroyWindow",
            "CreateDialogParamW",
            "SetTimer",
            "SetWindowTextW",
            "PostQuitMessage",
            "SetForegroundWindow",
            "ShowWindow",
            "wsprintfW",
            "SendMessageTimeoutW",
            "LoadCursorW",
            "SetCursor",
            "GetWindowLongW",
            "GetSysColor",
            "CharNextW",
            "GetClassInfoW",
            "ExitWindowsEx",
            "IsWindow",
            "GetDlgItem",
            "SetWindowLongW",
            "LoadImageW",
            "GetDC",
            "EnableWindow",
            "InvalidateRect",
            "SendMessageW",
            "DefWindowProcW",
            "BeginPaint",
            "GetClientRect",
            "FillRect",
            "DrawTextW",
            "EndPaint",
            "FindWindowExW"
        ],
        "GDI32.dll": [
            "SetBkColor",
            "GetDeviceCaps",
            "DeleteObject",
            "CreateBrushIndirect",
            "CreateFontIndirectW",
            "SetBkMode",
            "SetTextColor",
            "SelectObject"
        ],
        "SHELL32.dll": [
            "SHBrowseForFolderW",
            "SHGetPathFromIDListW",
            "SHGetFileInfoW",
            "ShellExecuteW",
            "SHFileOperationW",
            "SHGetSpecialFolderLocation"
        ],
        "ADVAPI32.dll": [
            "RegEnumKeyW",
            "RegOpenKeyExW",
            "RegCloseKey",
            "RegDeleteKeyW",
            "RegDeleteValueW",
            "RegCreateKeyExW",
            "RegSetValueExW",
            "RegQueryValueExW",
            "RegEnumValueW"
        ],
        "COMCTL32.dll": [
            "ImageList_AddMasked",
            "ImageList_Destroy"
        ],
        "ole32.dll": [
            "CoTaskMemFree",
            "OleInitialize",
            "OleUninitialize",
            "CoCreateInstance"
        ],
        "VERSION.dll": [
            "GetFileVersionInfoSizeW",
            "GetFileVersionInfoW",
            "VerQueryValueW"
        ]
    }
}