{
    "hash": "00043431cf18498cb612e3c58514bcb273727aa349ae25c000f762a0984d6430",
    "section": [
        {
            "Name": ".text\u0000\u0000\u0000",
            "VirtualAddress": "0x1000",
            "Misc_VirtualSize": "0x1989a",
            "SizeOfRawData": 104960
        },
        {
            "Name": ".udata\u0000\u0000",
            "VirtualAddress": "0x1b000",
            "Misc_VirtualSize": "0x1888",
            "SizeOfRawData": 6656
        },
        {
            "Name": ".ydata\u0000\u0000",
            "VirtualAddress": "0x1d000",
            "Misc_VirtualSize": "0x8c2",
            "SizeOfRawData": 2560
        },
        {
            "Name": ".rsrc\u0000\u0000\u0000",
            "VirtualAddress": "0x1e000",
            "Misc_VirtualSize": "0x460",
            "SizeOfRawData": 14208000
        }
    ],
    "import": {
        "dbnmpntw.dll": [
            "ConnectionVer",
            "ConnectionClose",
            "ConnectionWrite",
            "ConnectionRead",
            "ConnectionError"
        ],
        "shell32.dll": [
            "SHGetFileInfoA",
            "SHGetDesktopFolder",
            "ExtractIconA",
            "StrChrA",
            "DragQueryFileA",
            "SHFileOperationA",
            "SHGetMalloc",
            "DragQueryPoint",
            "ShellMessageBoxA",
            "SHCreateShellItem",
            "DuplicateIcon",
            "SHChangeNotify"
        ],
        "kernel32.dll": [
            "GetModuleHandleA",
            "GetStartupInfoA",
            "GetSystemDirectoryA",
            "LoadLibraryA",
            "GetStringTypeW",
            "GetCurrentProcess",
            "lstrcmpi",
            "CreateFileA",
            "CreateFileMappingA",
            "lstrcmpi",
            "HeapFree",
            "OpenFileMappingW",
            "FindFirstFileW",
            "OpenMutexW",
            "OpenJobObjectW",
            "GetTickCount",
            "CreateMutexA",
            "GetProcAddress",
            "SearchPathW",
            "lstrcmpi",
            "LoadLibraryExA"
        ],
        "advapi32.dll": [
            "RegCreateKeyExW",
            "LogonUserA",
            "RegEnumKeyW",
            "RegDeleteValueW",
            "RegRestoreKeyW",
            "RegLoadKeyW",
            "RegReplaceKeyA",
            "ReadEventLogW",
            "CryptSignHashA",
            "RegOpenKeyW",
            "RegUnLoadKeyA",
            "InitializeAcl",
            "OpenEventLogA",
            "RegSaveKeyA"
        ]
    }
}