{
    "hash": "00042aae4c47abc2b1b7a42477937b7fbb76f859bb7d7e2e3083752b5d0b909b",
    "section": [
        {
            "Name": "CODE\u0000\u0000\u0000\u0000",
            "VirtualAddress": "0x1000",
            "Misc_VirtualSize": "0xa000",
            "SizeOfRawData": 22016
        },
        {
            "Name": "DATA\u0000\u0000\u0000\u0000",
            "VirtualAddress": "0xb000",
            "Misc_VirtualSize": "0x1000",
            "SizeOfRawData": 512
        },
        {
            "Name": "BSS\u0000\u0000\u0000\u0000\u0000",
            "VirtualAddress": "0xc000",
            "Misc_VirtualSize": "0x2000",
            "SizeOfRawData": 0
        },
        {
            "Name": ".idata\u0000\u0000",
            "VirtualAddress": "0xe000",
            "Misc_VirtualSize": "0x1000",
            "SizeOfRawData": 1536
        },
        {
            "Name": ".tls\u0000\u0000\u0000\u0000",
            "VirtualAddress": "0xf000",
            "Misc_VirtualSize": "0x1000",
            "SizeOfRawData": 0
        },
        {
            "Name": ".rdata\u0000\u0000",
            "VirtualAddress": "0x10000",
            "Misc_VirtualSize": "0x2000",
            "SizeOfRawData": 512
        },
        {
            "Name": ".rsrc\u0000\u0000\u0000",
            "VirtualAddress": "0x12000",
            "Misc_VirtualSize": "0x1000",
            "SizeOfRawData": 1024
        },
        {
            "Name": "\u0000\u0000\u0000\u0000\u0000\u0000\u0000\u0000",
            "VirtualAddress": "0x13000",
            "Misc_VirtualSize": "0x3000",
            "SizeOfRawData": 9216
        }
    ],
    "import": {
        "kernel32.dll": [
            "GetModuleHandleA"
        ],
        "user32.dll": [
            "MessageBoxA"
        ]
    }
}