{
    "hash": "0004dc758d439ce615071fc0d7aae3405392949b8bb116cc169c5ba11d094368",
    "section": [
        {
            "Name": ".text\u0000\u0000\u0000",
            "VirtualAddress": "0x1000",
            "Misc_VirtualSize": "0x35094",
            "SizeOfRawData": 217600
        },
        {
            "Name": ".rdata\u0000\u0000",
            "VirtualAddress": "0x37000",
            "Misc_VirtualSize": "0x125a6",
            "SizeOfRawData": 75264
        },
        {
            "Name": ".data\u0000\u0000\u0000",
            "VirtualAddress": "0x4a000",
            "Misc_VirtualSize": "0x27b0",
            "SizeOfRawData": 5120
        },
        {
            "Name": ".gfids\u0000\u0000",
            "VirtualAddress": "0x4d000",
            "Misc_VirtualSize": "0x350",
            "SizeOfRawData": 1024
        },
        {
            "Name": ".tls\u0000\u0000\u0000\u0000",
            "VirtualAddress": "0x4e000",
            "Misc_VirtualSize": "0x9",
            "SizeOfRawData": 512
        },
        {
            "Name": ".rsrc\u0000\u0000\u0000",
            "VirtualAddress": "0x4f000",
            "Misc_VirtualSize": "0x12000",
            "SizeOfRawData": 4608
        }
    ],
    "import": {
        "PSAPI.DLL": [
            "GetModuleFileNameExW"
        ],
        "KERNEL32.dll": [
            "GetFileInformationByHandle",
            "CreateFileMappingW",
            "MapViewOfFile",
            "CloseHandle",
            "GetProcAddress",
            "GetModuleHandleW",
            "OpenProcess",
            "GetCurrentProcessId",
            "FreeLibrary",
            "lstrcmpiW",
            "LeaveCriticalSection",
            "RaiseException",
            "EnterCriticalSection",
            "GetLastError",
            "SizeofResource",
            "LoadResource",
            "FindResourceW",
            "LoadLibraryExW",
            "InitializeCriticalSectionAndSpinCount",
            "DeleteCriticalSection",
            "CreateFileW",
            "GetCurrentProcess",
            "GetTickCount",
            "CreateSemaphoreW",
            "SignalObjectAndWait",
            "WaitForSingleObject",
            "ReleaseSemaphore",
            "DecodePointer",
            "OutputDebugStringW",
            "ReadConsoleW",
            "SetStdHandle",
            "FreeEnvironmentStringsW",
            "GetEnvironmentStringsW",
            "GetCommandLineW",
            "UnmapViewOfFile",
            "GetModuleFileNameW",
            "SetCurrentDirectoryW",
            "GetCurrentDirectoryW",
            "GetFullPathNameW",
            "GetFileAttributesW",
            "GetACP",
            "MultiByteToWideChar",
            "FlushFileBuffers",
            "GetProcessId",
            "WriteConsoleW",
            "GetCommandLineA",
            "GetOEMCP",
            "IsValidCodePage",
            "FindNextFileW",
            "FindFirstFileExW",
            "FindClose",
            "GetProcessHeap",
            "EnumSystemLocalesW",
            "GetUserDefaultLCID",
            "IsValidLocale",
            "SetFilePointerEx",
            "ReadFile",
            "GetConsoleMode",
            "IsDebuggerPresent",
            "WideCharToMultiByte",
            "GetStringTypeW",
            "EncodePointer",
            "SetLastError",
            "CreateEventW",
            "TlsAlloc",
            "TlsGetValue",
            "TlsSetValue",
            "TlsFree",
            "GetSystemTimeAsFileTime",
            "LCMapStringW",
            "GetLocaleInfoW",
            "GetCPInfo",
            "SetEvent",
            "ResetEvent",
            "WaitForSingleObjectEx",
            "UnhandledExceptionFilter",
            "SetUnhandledExceptionFilter",
            "TerminateProcess",
            "IsProcessorFeaturePresent",
            "GetStartupInfoW",
            "QueryPerformanceCounter",
            "GetCurrentThreadId",
            "InitializeSListHead",
            "RtlUnwind",
            "HeapAlloc",
            "HeapReAlloc",
            "HeapFree",
            "ExitProcess",
            "GetModuleHandleExW",
            "GetStdHandle",
            "WriteFile",
            "HeapSize",
            "GetFileType",
            "GetConsoleCP"
        ],
        "USER32.dll": [
            "MessageBoxW",
            "GetSystemMetrics",
            "CharNextW",
            "DestroyIcon",
            "LoadImageW",
            "LoadIconW",
            "wsprintfW"
        ],
        "ADVAPI32.dll": [
            "RegOpenKeyW",
            "RegDeleteValueW",
            "RegCreateKeyExW",
            "RegSetValueExW",
            "RegOpenKeyExW",
            "RegEnumKeyExW",
            "RegQueryInfoKeyW",
            "RegCloseKey",
            "RegDeleteKeyW",
            "RegQueryValueExW"
        ],
        "SHELL32.dll": [
            "ExtractIconExW",
            "SHGetFileInfoW"
        ],
        "ole32.dll": [
            "CoTaskMemAlloc",
            "CoCreateInstance",
            "CoInitialize",
            "CoUninitialize",
            "CoTaskMemRealloc",
            "CoTaskMemFree"
        ],
        "OLEAUT32.dll": [
            "VarUI4FromStr"
        ],
        "VERSION.dll": [
            "VerQueryValueW",
            "GetFileVersionInfoW",
            "GetFileVersionInfoSizeW"
        ]
    }
}