{
    "hash": "00042dbed9d7c2bdcd1d0a403e2e4d5872690693ca64e9083e2f72f7a2fcc030",
    "section": [
        {
            "Name": "UPX0\u0000\u0000\u0000\u0000",
            "VirtualAddress": "0x1000",
            "Misc_VirtualSize": "0x3b000",
            "SizeOfRawData": 0
        },
        {
            "Name": "UPX1\u0000\u0000\u0000\u0000",
            "VirtualAddress": "0x3c000",
            "Misc_VirtualSize": "0x14000",
            "SizeOfRawData": 81920
        },
        {
            "Name": ".rsrc\u0000\u0000\u0000",
            "VirtualAddress": "0x50000",
            "Misc_VirtualSize": "0x5000",
            "SizeOfRawData": 19968
        }
    ],
    "import": {
        "ADVAPI32.dll": [
            "RegOpenKeyA"
        ],
        "COMCTL32.dll": [],
        "GDI32.dll": [
            "Escape"
        ],
        "KERNEL32.DLL": [
            "LoadLibraryA",
            "ExitProcess",
            "GetProcAddress",
            "VirtualProtect"
        ],
        "ole32.dll": [
            "CoCreateInstance"
        ],
        "SHELL32.dll": [
            "ShellExecuteA"
        ],
        "USER32.dll": [
            "GetDC"
        ],
        "WINSPOOL.DRV": [
            "OpenPrinterA"
        ]
    }
}