{
    "hash": "00049d7e7d78ead3fd6e4318a5b0bd8af8de79b9f7a9f3d21491cb094dbb9366",
    "section": [
        {
            "Name": "CODE\u0000\u0000\u0000\u0000",
            "VirtualAddress": "0x1000",
            "Misc_VirtualSize": "0x9364",
            "SizeOfRawData": 37888
        },
        {
            "Name": "DATA\u0000\u0000\u0000\u0000",
            "VirtualAddress": "0xb000",
            "Misc_VirtualSize": "0x24c",
            "SizeOfRawData": 1024
        },
        {
            "Name": "BSS\u0000\u0000\u0000\u0000\u0000",
            "VirtualAddress": "0xc000",
            "Misc_VirtualSize": "0xe88",
            "SizeOfRawData": 0
        },
        {
            "Name": ".idata\u0000\u0000",
            "VirtualAddress": "0xd000",
            "Misc_VirtualSize": "0x950",
            "SizeOfRawData": 2560
        },
        {
            "Name": ".tls\u0000\u0000\u0000\u0000",
            "VirtualAddress": "0xe000",
            "Misc_VirtualSize": "0x8",
            "SizeOfRawData": 0
        },
        {
            "Name": ".rdata\u0000\u0000",
            "VirtualAddress": "0xf000",
            "Misc_VirtualSize": "0x18",
            "SizeOfRawData": 512
        },
        {
            "Name": ".reloc\u0000\u0000",
            "VirtualAddress": "0x10000",
            "Misc_VirtualSize": "0x8b4",
            "SizeOfRawData": 0
        },
        {
            "Name": ".rsrc\u0000\u0000\u0000",
            "VirtualAddress": "0x11000",
            "Misc_VirtualSize": "0x2c00",
            "SizeOfRawData": 11264
        }
    ],
    "import": {
        "kernel32.dll": [
            "WriteFile",
            "VirtualQuery",
            "VirtualProtect",
            "VirtualFree",
            "VirtualAlloc",
            "Sleep",
            "SizeofResource",
            "SetLastError",
            "SetFilePointer",
            "SetErrorMode",
            "SetEndOfFile",
            "RemoveDirectoryA",
            "ReadFile",
            "LockResource",
            "LoadResource",
            "LoadLibraryA",
            "IsDBCSLeadByte",
            "GetWindowsDirectoryA",
            "GetVersionExA",
            "GetUserDefaultLangID",
            "GetSystemInfo",
            "GetSystemDefaultLCID",
            "GetProcAddress",
            "GetModuleHandleA",
            "GetModuleFileNameA",
            "GetLocaleInfoA",
            "GetLastError",
            "GetFullPathNameA",
            "GetFileSize",
            "GetFileAttributesA",
            "GetExitCodeProcess",
            "GetEnvironmentVariableA",
            "GetCurrentProcess",
            "GetCommandLineA",
            "GetACP",
            "InterlockedExchange",
            "FormatMessageA",
            "FindResourceA",
            "DeleteFileA",
            "CreateProcessA",
            "CreateFileA",
            "CreateDirectoryA",
            "CloseHandle"
        ],
        "user32.dll": [
            "TranslateMessage",
            "SetWindowLongA",
            "PeekMessageA",
            "MsgWaitForMultipleObjects",
            "MessageBoxA",
            "LoadStringA",
            "ExitWindowsEx",
            "DispatchMessageA",
            "DestroyWindow",
            "CreateWindowExA",
            "CallWindowProcA",
            "CharPrevA"
        ],
        "oleaut32.dll": [
            "VariantChangeTypeEx",
            "VariantCopyInd",
            "VariantClear",
            "SysStringLen",
            "SysAllocStringLen"
        ],
        "advapi32.dll": [
            "AdjustTokenPrivileges"
        ],
        "comctl32.dll": [
            "InitCommonControls"
        ]
    }
}