{
    "hash": "0004871c8fa3c02ffac4026c7b2c222b94063144ae034b9d9fea38b6cd535365",
    "section": [
        {
            "Name": "UPX0\u0000\u0000\u0000\u0000",
            "VirtualAddress": "0x1000",
            "Misc_VirtualSize": "0x6000",
            "SizeOfRawData": 0
        },
        {
            "Name": "UPX1\u0000\u0000\u0000\u0000",
            "VirtualAddress": "0x7000",
            "Misc_VirtualSize": "0x5000",
            "SizeOfRawData": 17920
        },
        {
            "Name": ".rsrc\u0000\u0000\u0000",
            "VirtualAddress": "0xc000",
            "Misc_VirtualSize": "0x1000",
            "SizeOfRawData": 2048
        }
    ],
    "import": {
        "KERNEL32.DLL": [
            "LoadLibraryA",
            "GetProcAddress",
            "ExitProcess"
        ],
        "ADVAPI32.dll": [
            "RegCloseKey"
        ],
        "MSVCRT.dll": [
            "time"
        ],
        "USER32.dll": [
            "wsprintfA"
        ],
        "WS2_32.dll": [
            "gethostname"
        ]
    }
}