{
    "hash": "00055abae50cf4bb913007cf3bac02361bd652c70c4cb5c534a896bdf04c66fb",
    "section": [
        {
            "Name": ".text\u0000\u0000\u0000",
            "VirtualAddress": "0x1000",
            "Misc_VirtualSize": "0x6df7a",
            "SizeOfRawData": 450560
        },
        {
            "Name": ".rdata\u0000\u0000",
            "VirtualAddress": "0x6f000",
            "Misc_VirtualSize": "0x526c4",
            "SizeOfRawData": 339968
        },
        {
            "Name": ".data\u0000\u0000\u0000",
            "VirtualAddress": "0xc2000",
            "Misc_VirtualSize": "0x32d2a",
            "SizeOfRawData": 69632
        },
        {
            "Name": ".rsrc\u0000\u0000\u0000",
            "VirtualAddress": "0xf5000",
            "Misc_VirtualSize": "0x5940",
            "SizeOfRawData": 24576
        }
    ],
    "import": {
        "WINMM.dll": [
            "midiStreamOut",
            "midiOutPrepareHeader",
            "waveOutUnprepareHeader",
            "waveOutPrepareHeader",
            "waveOutWrite",
            "waveOutPause",
            "waveOutReset",
            "waveOutClose",
            "waveOutGetNumDevs",
            "waveOutOpen",
            "midiOutUnprepareHeader",
            "midiStreamOpen",
            "midiStreamStop",
            "midiOutReset",
            "midiStreamClose",
            "midiStreamRestart",
            "midiStreamProperty"
        ],
        "WS2_32.dll": [
            "WSAAsyncSelect",
            "closesocket",
            "recvfrom",
            "ioctlsocket",
            "inet_ntoa",
            "recv",
            "WSACleanup",
            "accept",
            "getpeername"
        ],
        "KERNEL32.dll": [
            "SetLastError",
            "GetTimeZoneInformation",
            "GetVersion",
            "GetACP",
            "HeapSize",
            "RaiseException",
            "GetLocalTime",
            "GetSystemTime",
            "GetStartupInfoA",
            "GetOEMCP",
            "GetCPInfo",
            "GetProcessVersion",
            "SetErrorMode",
            "GlobalFlags",
            "GetCurrentThread",
            "GetFileTime",
            "TlsGetValue",
            "LocalReAlloc",
            "TlsSetValue",
            "TlsFree",
            "GlobalHandle",
            "TlsAlloc",
            "LocalAlloc",
            "lstrcmpA",
            "GlobalGetAtomNameA",
            "GlobalAddAtomA",
            "GlobalFindAtomA",
            "GlobalDeleteAtom",
            "lstrcmpiA",
            "SetEndOfFile",
            "UnlockFile",
            "LockFile",
            "FlushFileBuffers",
            "DuplicateHandle",
            "lstrcpynA",
            "FileTimeToLocalFileTime",
            "FileTimeToSystemTime",
            "LocalFree",
            "InterlockedDecrement",
            "InterlockedIncrement",
            "OpenProcess",
            "TerminateProcess",
            "GetFileSize",
            "SetFilePointer",
            "CreateToolhelp32Snapshot",
            "Process32First",
            "Process32Next",
            "WideCharToMultiByte",
            "MultiByteToWideChar",
            "GetCurrentProcess",
            "GetWindowsDirectoryA",
            "GetSystemDirectoryA",
            "CreateSemaphoreA",
            "ResumeThread",
            "ReleaseSemaphore",
            "EnterCriticalSection",
            "LeaveCriticalSection",
            "GetProfileStringA",
            "WriteFile",
            "ReadFile",
            "GetLastError",
            "WaitForMultipleObjects",
            "CreateFileA",
            "SetEvent",
            "FindResourceA",
            "LoadResource",
            "LockResource",
            "GetModuleFileNameA",
            "GetCurrentThreadId",
            "ExitProcess",
            "GlobalSize",
            "GlobalFree",
            "DeleteCriticalSection",
            "InitializeCriticalSection",
            "lstrcatA",
            "WinExec",
            "lstrcpyA",
            "FindNextFileA",
            "GetDriveTypeA",
            "GlobalReAlloc",
            "InterlockedExchange",
            "HeapFree",
            "HeapReAlloc",
            "GetProcessHeap",
            "HeapAlloc",
            "GetFullPathNameA",
            "FreeLibrary",
            "LoadLibraryA",
            "lstrlenA",
            "GetVersionExA",
            "WritePrivateProfileStringA",
            "CreateThread",
            "CreateEventA",
            "Sleep",
            "GlobalAlloc",
            "GlobalLock",
            "GlobalUnlock",
            "GetTempPathA",
            "FindFirstFileA",
            "FindClose",
            "GetFileAttributesA",
            "DeleteFileA",
            "CopyFileA",
            "GetCurrentDirectoryA",
            "SetCurrentDirectoryA",
            "GetVolumeInformationA",
            "GetModuleHandleA",
            "GetProcAddress",
            "MulDiv",
            "GetCommandLineA",
            "GetTickCount",
            "WaitForSingleObject",
            "CloseHandle",
            "UnhandledExceptionFilter",
            "FreeEnvironmentStringsA",
            "FreeEnvironmentStringsW",
            "GetEnvironmentStrings",
            "GetEnvironmentStringsW",
            "SetHandleCount",
            "GetStdHandle",
            "GetFileType",
            "GetEnvironmentVariableA",
            "HeapDestroy",
            "HeapCreate",
            "VirtualFree",
            "SetEnvironmentVariableA",
            "LCMapStringA",
            "LCMapStringW",
            "VirtualAlloc",
            "IsBadWritePtr",
            "SetUnhandledExceptionFilter",
            "GetStringTypeA",
            "GetStringTypeW",
            "CompareStringA",
            "CompareStringW",
            "IsBadReadPtr",
            "IsBadCodePtr",
            "SetStdHandle",
            "RtlUnwind"
        ],
        "USER32.dll": [
            "GetMenu",
            "SetMenu",
            "PeekMessageA",
            "IsIconic",
            "SetFocus",
            "GetActiveWindow",
            "GetWindow",
            "DestroyAcceleratorTable",
            "SetWindowRgn",
            "GetKeyState",
            "LoadImageA",
            "EnumDisplaySettingsA",
            "ClientToScreen",
            "EnableMenuItem",
            "GetSubMenu",
            "GetDlgCtrlID",
            "DefWindowProcA",
            "GetClassInfoA",
            "IsZoomed",
            "PostQuitMessage",
            "CopyAcceleratorTableA",
            "TranslateAcceleratorA",
            "IsWindowEnabled",
            "ShowWindow",
            "CreateAcceleratorTableA",
            "CreateMenu",
            "ModifyMenuA",
            "AppendMenuA",
            "CreatePopupMenu",
            "GetMessagePos",
            "DrawIconEx",
            "ChildWindowFromPointEx",
            "CopyRect",
            "LoadBitmapA",
            "WinHelpA",
            "KillTimer",
            "SetTimer",
            "ReleaseCapture",
            "GetCapture",
            "SetCapture",
            "GetScrollRange",
            "SetScrollRange",
            "SetScrollPos",
            "InflateRect",
            "SetRect",
            "IntersectRect",
            "GetSysColorBrush",
            "DestroyIcon",
            "PtInRect",
            "OffsetRect",
            "IsWindowVisible",
            "EnableWindow",
            "RedrawWindow",
            "GetWindowLongA",
            "SetWindowLongA",
            "GetSysColor",
            "SetActiveWindow",
            "SetCursorPos",
            "LoadCursorA",
            "SetCursor",
            "GetDC",
            "FillRect",
            "IsRectEmpty",
            "ReleaseDC",
            "IsChild",
            "DestroyMenu",
            "SetForegroundWindow",
            "GetWindowRect",
            "EqualRect",
            "UpdateWindow",
            "ValidateRect",
            "InvalidateRect",
            "GetClientRect",
            "GetFocus",
            "GetParent",
            "GetTopWindow",
            "PostMessageA",
            "IsWindow",
            "SetParent",
            "DestroyCursor",
            "SendMessageA",
            "SetWindowPos",
            "MessageBoxA",
            "GetCursorPos",
            "GetSystemMetrics",
            "EmptyClipboard",
            "SetClipboardData",
            "OpenClipboard",
            "GetClipboardData",
            "CloseClipboard",
            "wsprintfA",
            "CreateIconFromResource",
            "CreateIconFromResourceEx",
            "RegisterClipboardFormatA",
            "SetRectEmpty",
            "DispatchMessageA",
            "GetMessageA",
            "WindowFromPoint",
            "DrawEdge",
            "DrawFrameControl",
            "LoadIconA",
            "TranslateMessage",
            "SystemParametersInfoA",
            "GetForegroundWindow",
            "GetDesktopWindow",
            "GetClassNameA",
            "GetWindowThreadProcessId",
            "FindWindowA",
            "GetDlgItem",
            "GetWindowTextA",
            "ScreenToClient",
            "UnregisterClassA",
            "DrawFocusRect",
            "GetWindowTextLengthA",
            "CharUpperA",
            "GetWindowDC",
            "BeginPaint",
            "EndPaint",
            "TabbedTextOutA",
            "DrawTextA",
            "GrayStringA",
            "DestroyWindow",
            "CreateDialogIndirectParamA",
            "EndDialog",
            "GetNextDlgTabItem",
            "GetWindowPlacement",
            "RegisterWindowMessageA",
            "GetLastActivePopup",
            "GetMessageTime",
            "RemovePropA",
            "CallWindowProcA",
            "GetPropA",
            "UnhookWindowsHookEx",
            "SetPropA",
            "GetClassLongA",
            "CallNextHookEx",
            "SetWindowsHookExA",
            "CreateWindowExA",
            "GetMenuItemID",
            "GetMenuItemCount",
            "RegisterClassA",
            "GetScrollPos",
            "AdjustWindowRectEx",
            "MapWindowPoints",
            "SendDlgItemMessageA",
            "ScrollWindowEx",
            "IsDialogMessageA",
            "SetWindowTextA",
            "MoveWindow",
            "CheckMenuItem",
            "SetMenuItemBitmaps",
            "GetMenuState",
            "GetMenuCheckMarkDimensions",
            "LoadStringA"
        ],
        "GDI32.dll": [
            "Escape",
            "ExtTextOutA",
            "TextOutA",
            "RectVisible",
            "PtVisible",
            "GetViewportExtEx",
            "ExtSelectClipRgn",
            "CreateSolidBrush",
            "GetStockObject",
            "CreateFontIndirectA",
            "EndPage",
            "EndDoc",
            "DeleteDC",
            "StartDocA",
            "StartPage",
            "BitBlt",
            "CreateCompatibleDC",
            "Ellipse",
            "Rectangle",
            "LPtoDP",
            "DPtoLP",
            "GetTextMetricsA",
            "RoundRect",
            "GetTextExtentPoint32A",
            "GetDeviceCaps",
            "CreateRectRgnIndirect",
            "SetBkColor",
            "LineTo",
            "MoveToEx",
            "ExcludeClipRect",
            "GetClipBox",
            "ScaleWindowExtEx",
            "SetWindowExtEx",
            "CombineRgn",
            "CreateRectRgn",
            "FillRgn",
            "PatBlt",
            "CreatePen",
            "GetObjectA",
            "SelectObject",
            "CreateBitmap",
            "CreateDCA",
            "CreateCompatibleBitmap",
            "GetPolyFillMode",
            "GetStretchBltMode",
            "GetROP2",
            "GetBkColor",
            "GetBkMode",
            "GetTextColor",
            "GetWindowOrgEx",
            "GetViewportOrgEx",
            "GetWindowExtEx",
            "CreateRoundRectRgn",
            "CreateEllipticRgn",
            "PathToRegion",
            "EndPath",
            "BeginPath",
            "GetDIBits",
            "SetWindowOrgEx",
            "ScaleViewportExtEx",
            "SetViewportExtEx",
            "OffsetViewportOrgEx",
            "SetViewportOrgEx",
            "SetMapMode",
            "SetTextColor",
            "RealizePalette",
            "SelectPalette",
            "StretchBlt",
            "CreatePalette",
            "GetSystemPaletteEntries",
            "CreateDIBitmap",
            "DeleteObject",
            "SelectClipRgn",
            "CreatePolygonRgn",
            "GetCurrentObject",
            "GetClipRgn",
            "SetROP2",
            "SetPolyFillMode",
            "SetBkMode",
            "RestoreDC",
            "SaveDC",
            "SetStretchBltMode"
        ],
        "WINSPOOL.DRV": [
            "OpenPrinterA",
            "DocumentPropertiesA",
            "ClosePrinter"
        ],
        "ADVAPI32.dll": [
            "RegOpenKeyExA",
            "RegSetValueExA",
            "RegQueryValueA",
            "RegCreateKeyExA",
            "RegOpenKeyA",
            "RegCloseKey"
        ],
        "SHELL32.dll": [
            "SHChangeNotify",
            "SHGetSpecialFolderPathA",
            "ShellExecuteA",
            "Shell_NotifyIconA"
        ],
        "ole32.dll": [
            "CLSIDFromString",
            "OleUninitialize",
            "CoCreateInstance",
            "OleInitialize"
        ],
        "OLEAUT32.dll": [
            "LoadTypeLib",
            "RegisterTypeLib",
            "UnRegisterTypeLib"
        ],
        "COMCTL32.dll": [],
        "comdlg32.dll": [
            "ChooseColorA",
            "GetFileTitleA",
            "GetSaveFileNameA",
            "GetOpenFileNameA"
        ]
    }
}