{
    "hash": "0005091cd313f1fb9c75d818c66309ecefa8027d6528a7839d9fbe209145ea95",
    "section": [
        {
            "Name": ".text\u0000\u0000\u0000",
            "VirtualAddress": "0x1000",
            "Misc_VirtualSize": "0xa637",
            "SizeOfRawData": 43008
        },
        {
            "Name": ".rdata\u0000\u0000",
            "VirtualAddress": "0xc000",
            "Misc_VirtualSize": "0x5864",
            "SizeOfRawData": 23040
        },
        {
            "Name": ".data\u0000\u0000\u0000",
            "VirtualAddress": "0x12000",
            "Misc_VirtualSize": "0x12b4",
            "SizeOfRawData": 2048
        },
        {
            "Name": ".gfids\u0000\u0000",
            "VirtualAddress": "0x14000",
            "Misc_VirtualSize": "0xac",
            "SizeOfRawData": 512
        },
        {
            "Name": ".rsrc\u0000\u0000\u0000",
            "VirtualAddress": "0x15000",
            "Misc_VirtualSize": "0xec1c0",
            "SizeOfRawData": 967168
        },
        {
            "Name": ".reloc\u0000\u0000",
            "VirtualAddress": "0x102000",
            "Misc_VirtualSize": "0x980e0",
            "SizeOfRawData": 623104
        }
    ],
    "import": {
        "KERNEL32.dll": [
            "CreateFileW",
            "DecodePointer",
            "WriteConsoleW",
            "SetFilePointerEx",
            "GetModuleHandleW",
            "GetConsoleCP",
            "FlushFileBuffers",
            "HeapReAlloc",
            "HeapSize",
            "GetProcessHeap",
            "GetStringTypeW",
            "GetConsoleMode",
            "VirtualProtect",
            "GetFileType",
            "SetStdHandle",
            "UnhandledExceptionFilter",
            "SetUnhandledExceptionFilter",
            "GetCurrentProcess",
            "TerminateProcess",
            "IsProcessorFeaturePresent",
            "QueryPerformanceCounter",
            "GetCurrentProcessId",
            "GetCurrentThreadId",
            "GetSystemTimeAsFileTime",
            "InitializeSListHead",
            "IsDebuggerPresent",
            "GetStartupInfoW",
            "RtlUnwind",
            "GetLastError",
            "SetLastError",
            "EnterCriticalSection",
            "LeaveCriticalSection",
            "DeleteCriticalSection",
            "InitializeCriticalSectionAndSpinCount",
            "TlsAlloc",
            "TlsGetValue",
            "TlsSetValue",
            "TlsFree",
            "FreeLibrary",
            "GetProcAddress",
            "LoadLibraryExW",
            "GetStdHandle",
            "WriteFile",
            "GetModuleFileNameW",
            "MultiByteToWideChar",
            "WideCharToMultiByte",
            "ExitProcess",
            "GetModuleHandleExW",
            "GetACP",
            "HeapFree",
            "HeapAlloc",
            "CloseHandle",
            "FindClose",
            "FindFirstFileExW",
            "FindNextFileW",
            "IsValidCodePage",
            "GetOEMCP",
            "GetCPInfo",
            "GetCommandLineA",
            "GetCommandLineW",
            "GetEnvironmentStringsW",
            "FreeEnvironmentStringsW",
            "LCMapStringW",
            "RaiseException"
        ],
        "USER32.dll": [
            "DispatchMessageW",
            "TranslateMessage",
            "GetMessageW",
            "CreateWindowExW",
            "LoadCursorW",
            "DefWindowProcW",
            "PostQuitMessage",
            "EndPaint",
            "PostMessageW",
            "BeginPaint",
            "SendMessageW",
            "RegisterClassW"
        ],
        "GDI32.dll": [
            "CreateSolidBrush"
        ],
        "SHELL32.dll": []
    }
}