{
    "hash": "00057e70ae53649ad633068790456340cf909203f6056715014dda379a860183",
    "section": [
        {
            "Name": ".text\u0000\u0000\u0000",
            "VirtualAddress": "0x1000",
            "Misc_VirtualSize": "0xf000",
            "SizeOfRawData": 61440
        },
        {
            "Name": ".data\u0000\u0000\u0000",
            "VirtualAddress": "0x10000",
            "Misc_VirtualSize": "0x1e64",
            "SizeOfRawData": 4096
        },
        {
            "Name": ".rsrc\u0000\u0000\u0000",
            "VirtualAddress": "0x12000",
            "Misc_VirtualSize": "0x7000",
            "SizeOfRawData": 28672
        }
    ],
    "import": {
        "KERNEL32.dll": [
            "ResetEvent",
            "ReadFile",
            "EnterCriticalSection",
            "GetFileSize",
            "WriteFile",
            "UnmapViewOfFile",
            "MapViewOfFile",
            "GetVersionExA",
            "SetEvent",
            "LeaveCriticalSection",
            "GetSystemTime",
            "InterlockedIncrement",
            "InterlockedDecrement",
            "SystemTimeToFileTime",
            "CreateDirectoryW",
            "CreateEventA",
            "CreateEventW",
            "CreateFileA",
            "CreateFileW",
            "DeleteFileA",
            "DeleteFileW",
            "CompareFileTime",
            "CreateDirectoryA",
            "FindResourceA",
            "GetFileAttributesA",
            "FindFirstFileA",
            "GetModuleFileNameA",
            "GetModuleFileNameW",
            "GetModuleHandleA",
            "GetModuleHandleW",
            "SetFileAttributesA",
            "SetFileAttributesW",
            "FindNextFileA",
            "FindNextFileW",
            "FindFirstFileW",
            "GetFileAttributesW",
            "ReleaseMutex",
            "GetPrivateProfileIntA",
            "GetPrivateProfileIntW",
            "GetLastError",
            "CreateThread",
            "QueryPerformanceFrequency",
            "MultiByteToWideChar",
            "LoadResource",
            "QueryPerformanceCounter",
            "MoveFileA",
            "MoveFileW",
            "RemoveDirectoryA",
            "RemoveDirectoryW",
            "CreateMutexA",
            "CreateMutexW",
            "LoadLibraryA",
            "WritePrivateProfileStringA",
            "WritePrivateProfileStringW",
            "GetPrivateProfileStringA",
            "GetPrivateProfileStringW",
            "CreateProcessA",
            "CreateProcessW",
            "lstrcpynA",
            "GetProcAddress",
            "FreeLibrary",
            "SetFilePointer",
            "IsBadReadPtr",
            "GetCurrentThreadId",
            "IsDBCSLeadByte",
            "GetSystemTimeAsFileTime",
            "GetCurrentProcessId",
            "GetProcessTimes",
            "GetCurrentProcess",
            "GetLocalTime",
            "FlushFileBuffers",
            "GetAtomNameA",
            "lstrcmpA",
            "IsBadWritePtr",
            "CreateFileMappingA",
            "CreateFileMappingW",
            "GetVersionExW",
            "DeleteCriticalSection",
            "InitializeCriticalSection",
            "GetACP",
            "GlobalFree",
            "GlobalAlloc",
            "LocalAlloc",
            "LocalReAlloc",
            "LocalFree",
            "OpenProcess",
            "CloseHandle",
            "WaitForSingleObject",
            "lstrlenA",
            "ExitProcess",
            "GetCommandLineA",
            "GetTickCount",
            "lstrlenW",
            "FindClose",
            "lstrcmpiA",
            "WideCharToMultiByte",
            "TerminateProcess",
            "RtlUnwind"
        ],
        "USER32.dll": [
            "GetWindowLongA",
            "GetWindowLongW",
            "GetWindowTextLengthA",
            "LoadCursorA",
            "LoadCursorW",
            "LoadIconA",
            "LoadIconW",
            "LoadStringW",
            "PeekMessageA",
            "PeekMessageW",
            "PostMessageA",
            "PostMessageW",
            "CharNextA",
            "SendMessageTimeoutA",
            "SendMessageA",
            "SendMessageW",
            "SetWindowLongA",
            "SetWindowLongW",
            "RegisterClassExA",
            "RegisterClassExW",
            "PostQuitMessage",
            "FindWindowExW",
            "FindWindowExA",
            "FindWindowW",
            "DispatchMessageA",
            "DispatchMessageW",
            "DefWindowProcA",
            "DefWindowProcW",
            "CreateDialogParamW",
            "CreateWindowExW",
            "CreateWindowExA",
            "CreateDialogParamA",
            "GetSystemMetrics",
            "TranslateMessage",
            "MsgWaitForMultipleObjects",
            "DestroyWindow",
            "GetWindowTextA",
            "IsWindow",
            "GetWindowThreadProcessId",
            "GetDesktopWindow",
            "DestroyIcon",
            "GetDlgItem"
        ],
        "SHLWAPI.dll": [
            "SHSetValueW",
            "PathAddExtensionW",
            "StrCatBuffW",
            "StrStrIW",
            "StrToIntExW",
            "StrChrW",
            "PathRemoveBackslashW",
            "PathCombineW",
            "PathFindExtensionW",
            "SHGetValueW",
            "StrCpyNW",
            "PathRemoveFileSpecW",
            "PathFindFileNameW",
            "PathAppendW",
            "PathFileExistsW",
            "StrCmpIW",
            "PathFindFileNameA",
            "PathAddBackslashW",
            "wvnsprintfA",
            "SHStrDupW",
            "PathRemoveFileSpecA",
            "PathAddBackslashA",
            "SHRegGetUSValueW",
            "StrCatBuffA",
            "wnsprintfA",
            "StrCmpNIW",
            "StrToIntW",
            "StrCmpNW",
            "wnsprintfW"
        ],
        "SHFOLDER.dll": [
            "SHGetFolderPathW"
        ],
        "OLEAUT32.dll": [
            "SysAllocString",
            "SysFreeString"
        ],
        "ole32.dll": [
            "CreateBindCtx",
            "StringFromGUID2",
            "CoUninitialize",
            "CoCreateInstance",
            "CoInitialize"
        ],
        "ADVAPI32.dll": [
            "RegCloseKey",
            "AllocateAndInitializeSid",
            "FreeSid",
            "RegQueryValueExW",
            "RegQueryValueExA",
            "RegOpenKeyExW",
            "RegOpenKeyExA"
        ],
        "SHELL32.dll": [
            "SHFileOperationA"
        ],
        "VERSION.dll": [
            "GetFileVersionInfoSizeA",
            "GetFileVersionInfoW",
            "GetFileVersionInfoA",
            "VerQueryValueW",
            "GetFileVersionInfoSizeW",
            "VerQueryValueA"
        ],
        "urlmon.dll": [
            "CreateURLMoniker",
            "RegisterBindStatusCallback"
        ]
    }
}