{
    "hash": "0005213d0dc6cb0b2e468c6ab4a45dd9bfbad2a426e945000c141c9b58bff696",
    "section": [
        {
            "Name": ".text\u0000\u0000\u0000",
            "VirtualAddress": "0x1000",
            "Misc_VirtualSize": "0x4fbc",
            "SizeOfRawData": 20480
        },
        {
            "Name": ".rdata\u0000\u0000",
            "VirtualAddress": "0x6000",
            "Misc_VirtualSize": "0xb48",
            "SizeOfRawData": 4096
        },
        {
            "Name": ".data\u0000\u0000\u0000",
            "VirtualAddress": "0x7000",
            "Misc_VirtualSize": "0x14c8",
            "SizeOfRawData": 4096
        },
        {
            "Name": ".rsrc\u0000\u0000\u0000",
            "VirtualAddress": "0x9000",
            "Misc_VirtualSize": "0x8230",
            "SizeOfRawData": 36864
        }
    ],
    "import": {
        "MFC42.DLL": [],
        "MSVCRT.dll": [
            "_controlfp",
            "__set_app_type",
            "__p__fmode",
            "__p__commode",
            "_adjust_fdiv",
            "__setusermatherr",
            "_initterm",
            "__getmainargs",
            "_acmdln",
            "exit",
            "_XcptFilter",
            "_exit",
            "strncmp",
            "_except_handler3",
            "strstr",
            "strcspn",
            "strncpy",
            "atoi",
            "time",
            "srand",
            "rand",
            "realloc",
            "free",
            "malloc",
            "sprintf"
        ],
        "KERNEL32.dll": [
            "ExitProcess",
            "Sleep",
            "lstrcpyA",
            "CreateProcessA",
            "TerminateProcess",
            "ExitThread",
            "GetStartupInfoA",
            "GetModuleHandleA",
            "WaitForSingleObject",
            "CreateFileA",
            "SetFilePointer",
            "WriteFile",
            "lstrcpynA",
            "lstrlenA",
            "OpenMutexA",
            "ReleaseMutex",
            "GetComputerNameA",
            "GetCurrentProcess",
            "GetCurrentThread",
            "CloseHandle",
            "CreateThread",
            "LoadLibraryA",
            "GetProcAddress",
            "GetSystemDefaultUILanguage",
            "GetTickCount"
        ],
        "USER32.dll": [
            "GetDesktopWindow",
            "wsprintfA"
        ],
        "SHELL32.dll": [
            "SHChangeNotify",
            "ShellExecuteExA",
            "ShellExecuteA"
        ],
        "SHLWAPI.dll": [
            "SHDeleteKeyA"
        ],
        "WS2_32.dll": [
            "setsockopt",
            "recv",
            "__WSAFDIsSet",
            "select",
            "WSAIoctl",
            "closesocket",
            "WSAStartup",
            "inet_ntoa",
            "htonl",
            "WSACleanup",
            "socket",
            "connect",
            "send",
            "inet_addr",
            "sendto",
            "htons"
        ],
        "iphlpapi.dll": [
            "GetIfTable",
            "GetAdaptersInfo"
        ]
    }
}