{
    "hash": "00051de2940f7a9ec1c14ab7a85baf71a1970516b1649c2c5f778b91b1701df5",
    "section": [
        {
            "Name": ".text\u0000\u0000\u0000",
            "VirtualAddress": "0x1000",
            "Misc_VirtualSize": "0x7254",
            "SizeOfRawData": 29696
        },
        {
            "Name": ".rdata\u0000\u0000",
            "VirtualAddress": "0x9000",
            "Misc_VirtualSize": "0x1afa",
            "SizeOfRawData": 7168
        },
        {
            "Name": ".data\u0000\u0000\u0000",
            "VirtualAddress": "0xb000",
            "Misc_VirtualSize": "0x1940",
            "SizeOfRawData": 3584
        },
        {
            "Name": ".rsrc\u0000\u0000\u0000",
            "VirtualAddress": "0xd000",
            "Misc_VirtualSize": "0x21d04",
            "SizeOfRawData": 138752
        }
    ],
    "import": {
        "KERNEL32.dll": [
            "HeapAlloc",
            "GetProcessHeap",
            "GetModuleHandleA",
            "WaitForSingleObject",
            "GetCommandLineA",
            "GetStartupInfoA",
            "TerminateProcess",
            "GetCurrentProcess",
            "UnhandledExceptionFilter",
            "SetUnhandledExceptionFilter",
            "IsDebuggerPresent",
            "GetModuleHandleW",
            "Sleep",
            "GetProcAddress",
            "ExitProcess",
            "WriteFile",
            "GetStdHandle",
            "GetModuleFileNameA",
            "FreeEnvironmentStringsA",
            "GetEnvironmentStrings",
            "FreeEnvironmentStringsW",
            "WideCharToMultiByte",
            "GetLastError",
            "GetEnvironmentStringsW",
            "SetHandleCount",
            "GetFileType",
            "DeleteCriticalSection",
            "TlsGetValue",
            "TlsAlloc",
            "TlsSetValue",
            "TlsFree",
            "InterlockedIncrement",
            "SetLastError",
            "GetCurrentThreadId",
            "InterlockedDecrement",
            "HeapCreate",
            "VirtualFree",
            "HeapFree",
            "QueryPerformanceCounter",
            "GetTickCount",
            "GetCurrentProcessId",
            "GetSystemTimeAsFileTime",
            "LeaveCriticalSection",
            "EnterCriticalSection",
            "LoadLibraryA",
            "InitializeCriticalSectionAndSpinCount",
            "GetCPInfo",
            "GetACP",
            "GetOEMCP",
            "IsValidCodePage",
            "VirtualAlloc",
            "HeapReAlloc",
            "RtlUnwind",
            "HeapSize",
            "GetLocaleInfoA",
            "LCMapStringA",
            "MultiByteToWideChar",
            "LCMapStringW",
            "GetStringTypeA",
            "GetStringTypeW"
        ]
    }
}