{
    "hash": "00058b2d3cc21049b0edff27b87b6ff51a1d1c6ffc8b52d2dd083df460a6b094",
    "section": [
        {
            "Name": ".text\u0000\u0000\u0000",
            "VirtualAddress": "0x1000",
            "Misc_VirtualSize": "0x12652",
            "SizeOfRawData": 77824
        },
        {
            "Name": ".rdata\u0000\u0000",
            "VirtualAddress": "0x14000",
            "Misc_VirtualSize": "0x582b",
            "SizeOfRawData": 24576
        },
        {
            "Name": ".data\u0000\u0000\u0000",
            "VirtualAddress": "0x1a000",
            "Misc_VirtualSize": "0x3321",
            "SizeOfRawData": 12288
        },
        {
            "Name": ".rsrc\u0000\u0000\u0000",
            "VirtualAddress": "0x1e000",
            "Misc_VirtualSize": "0x418",
            "SizeOfRawData": 4096
        },
        {
            "Name": ".reloc\u0000\u0000",
            "VirtualAddress": "0x1f000",
            "Misc_VirtualSize": "0x13ac",
            "SizeOfRawData": 8192
        }
    ],
    "import": {
        "KERNEL32.dll": [
            "CreateEventW",
            "WaitForSingleObject",
            "SetEvent",
            "LoadLibraryW",
            "FreeLibrary",
            "GetProcAddress",
            "DeleteCriticalSection",
            "VirtualFree",
            "LeaveCriticalSection",
            "EnterCriticalSection",
            "VirtualAlloc",
            "CloseHandle",
            "ResetEvent",
            "InterlockedExchange",
            "CancelIo",
            "Sleep",
            "DeleteFileW",
            "GetLastError",
            "CreateDirectoryW",
            "GetFileAttributesW",
            "lstrcpyW",
            "lstrlenW",
            "CreateProcessW",
            "lstrcatW",
            "FindClose",
            "FindNextFileW",
            "lstrcmpW",
            "FindFirstFileW",
            "RemoveDirectoryW",
            "LocalFree",
            "LocalAlloc",
            "GetFileSize",
            "CreateFileW",
            "ReadFile",
            "SetFilePointer",
            "WriteFile",
            "MoveFileW",
            "WideCharToMultiByte",
            "DeviceIoControl",
            "GetModuleFileNameW",
            "GetLocalTime",
            "GetModuleHandleW",
            "lstrcmpiW",
            "GetTickCount",
            "GetModuleHandleA",
            "GlobalFree",
            "GlobalUnlock",
            "GlobalLock",
            "GlobalAlloc",
            "GlobalSize",
            "CopyFileW",
            "GetStartupInfoW",
            "PeekNamedPipe",
            "WaitForMultipleObjects",
            "OpenProcess",
            "LocalReAlloc",
            "LocalSize",
            "CreateThread",
            "GetCurrentThreadId",
            "ReleaseMutex",
            "OpenEventW",
            "SetErrorMode",
            "CreateMutexW",
            "DuplicateHandle",
            "GetCurrentProcess",
            "SetLastError",
            "SetFileAttributesW",
            "GetDriveTypeW",
            "GetExitCodeProcess",
            "GetVersionExW",
            "FreeConsole",
            "lstrcpynW",
            "GetLocaleInfoW",
            "GlobalMemoryStatus",
            "GetComputerNameW",
            "ExitProcess",
            "GetSystemDirectoryW"
        ],
        "USER32.dll": [
            "CreateWindowExW",
            "GetProcessWindowStation",
            "OpenWindowStationW",
            "SetProcessWindowStation",
            "PostMessageW",
            "IsWindow",
            "ShowWindow",
            "CloseWindow",
            "GetWindowTextW",
            "GetClassNameW",
            "IsWindowVisible",
            "GetWindowThreadProcessId",
            "ReleaseDC",
            "GetCursorInfo",
            "GetCursorPos",
            "GetDC",
            "SetRect",
            "GetSystemMetrics",
            "GetClipboardData",
            "OpenClipboard",
            "EmptyClipboard",
            "SetClipboardData",
            "CloseClipboard",
            "WindowFromPoint",
            "MapVirtualKeyW",
            "SystemParametersInfoW",
            "SendMessageW",
            "DestroyCursor",
            "wsprintfW",
            "LoadCursorW",
            "CharNextW"
        ],
        "MSVCRT.dll": [
            "??2@YAPAXI@Z",
            "??1exception@@UAE@XZ",
            "??0exception@@QAE@ABV0@@Z",
            "_adjust_fdiv",
            "_initterm",
            "_onexit",
            "__dllonexit",
            "??1type_info@@UAE@XZ",
            "wcschr",
            "wcstol",
            "srand",
            "rand",
            "strlen",
            "strcmp",
            "wcslen",
            "wcsrchr",
            "wcsstr",
            "_except_handler3",
            "malloc",
            "free",
            "_CxxThrowException",
            "memcmp",
            "__CxxFrameHandler",
            "_ftol",
            "ceil",
            "memmove",
            "memcpy",
            "??3@YAXPAX@Z",
            "??0exception@@QAE@ABQBD@Z",
            "memset"
        ],
        "WS2_32.dll": [
            "socket"
        ]
    }
}