{
    "hash": "0005482290490f804dabd6579c13fc67ede0cea526d6e5595b5a4fa3128bc158",
    "section": [
        {
            "Name": "UPX0\u0000\u0000\u0000\u0000",
            "VirtualAddress": "0x1000",
            "Misc_VirtualSize": "0x22000",
            "SizeOfRawData": 139264
        },
        {
            "Name": "UPX1\u0000\u0000\u0000\u0000",
            "VirtualAddress": "0x23000",
            "Misc_VirtualSize": "0x16000",
            "SizeOfRawData": 88576
        },
        {
            "Name": ".rsrc\u0000\u0000\u0000",
            "VirtualAddress": "0x39000",
            "Misc_VirtualSize": "0x1000",
            "SizeOfRawData": 1536
        }
    ],
    "import": {
        "KERNEL32.DLL": [
            "GetTempPathA",
            "GetModuleFileNameA",
            "FindNextFileA",
            "InitializeCriticalSection",
            "DeleteCriticalSection",
            "EnterCriticalSection",
            "LeaveCriticalSection",
            "FindFirstFileA",
            "ExpandEnvironmentStringsA",
            "RemoveDirectoryA",
            "GetFileAttributesA",
            "DeleteFileA",
            "CreateDirectoryA",
            "GetFileSize",
            "SetFileAttributesA",
            "GetShortPathNameA",
            "ReadFile",
            "GlobalMemoryStatus",
            "CreateProcessA",
            "GetVersionExA",
            "SetEvent",
            "OpenEventA",
            "WaitForSingleObject",
            "MoveFileExA",
            "GetDiskFreeSpaceA",
            "GetProcAddress",
            "LoadLibraryA",
            "FreeLibrary",
            "LocalFree",
            "GetCurrentThread",
            "CreateMutexA",
            "OpenMutexA",
            "InterlockedIncrement",
            "InterlockedDecrement",
            "GlobalFree",
            "GlobalAlloc",
            "GetModuleHandleA",
            "OutputDebugStringA",
            "GetLocalTime",
            "CreateEventA",
            "GetTempFileNameA",
            "FindClose",
            "GlobalUnlock",
            "GlobalLock",
            "ResetEvent",
            "CreateThread",
            "lstrcmpiA",
            "SetEnvironmentVariableA",
            "CompareStringW",
            "CompareStringA",
            "ReleaseSemaphore",
            "IsBadCodePtr",
            "IsBadReadPtr",
            "SetUnhandledExceptionFilter",
            "GetStringTypeW",
            "GetStringTypeA",
            "IsBadWritePtr",
            "VirtualAlloc",
            "SetEndOfFile",
            "SetStdHandle",
            "FlushFileBuffers",
            "GetOEMCP",
            "GetACP",
            "GetCPInfo",
            "VirtualFree",
            "HeapCreate",
            "HeapDestroy",
            "GetStdHandle",
            "SetHandleCount",
            "GetEnvironmentStringsW",
            "GetEnvironmentStrings",
            "FreeEnvironmentStringsW",
            "FreeEnvironmentStringsA",
            "UnhandledExceptionFilter",
            "LCMapStringW",
            "LCMapStringA",
            "MultiByteToWideChar",
            "GetPrivateProfileStringA",
            "CopyFileA",
            "WriteFile",
            "CreateFileA",
            "SetFilePointer",
            "GetTickCount",
            "CloseHandle",
            "WritePrivateProfileStringA",
            "GetExitCodeProcess",
            "GetLastError",
            "SetLastError",
            "Sleep",
            "lstrcatA",
            "GetWindowsDirectoryA",
            "GetVolumeInformationA",
            "lstrlenA",
            "lstrcpynA",
            "lstrcpyA",
            "SearchPathA",
            "FormatMessageA",
            "GetSystemDirectoryA",
            "HeapAlloc",
            "GetCurrentThreadId",
            "UnmapViewOfFile",
            "MapViewOfFile",
            "WideCharToMultiByte",
            "HeapSize",
            "HeapReAlloc",
            "GetCurrentProcess",
            "TerminateProcess",
            "TlsGetValue",
            "TlsAlloc",
            "TlsSetValue",
            "OpenSemaphoreA",
            "CreateFileMappingA",
            "HeapFree",
            "GetFileType",
            "ExitProcess",
            "GetVersion",
            "GetCommandLineA",
            "GetStartupInfoA",
            "GetSystemTime",
            "GetTimeZoneInformation",
            "RtlUnwind"
        ],
        "ADVAPI32.dll": [
            "RegQueryValueExA",
            "RegOpenKeyExA",
            "RevertToSelf",
            "ImpersonateSelf",
            "AreAllAccessesGranted",
            "GetAclInformation",
            "GetAce",
            "AllocateAndInitializeSid",
            "GetLengthSid",
            "InitializeAcl",
            "FreeSid",
            "InitializeSecurityDescriptor",
            "SetSecurityDescriptorDacl",
            "RegEnumKeyExA",
            "RegQueryInfoKeyA",
            "RegEnumValueA",
            "RegEnumKeyA",
            "RegDeleteKeyA",
            "RegDeleteValueA",
            "RegCreateKeyExA",
            "RegSetValueExA",
            "AccessCheck",
            "OpenThreadToken",
            "RegCloseKey",
            "AddAccessAllowedAce"
        ],
        "LZ32.dll": [
            "LZOpenFileA",
            "LZClose",
            "LZSeek",
            "LZRead"
        ],
        "ole32.dll": [
            "CoCreateGuid"
        ],
        "USER32.dll": [
            "GetClassInfoExA",
            "WaitForInputIdle",
            "DestroyWindow",
            "wsprintfA",
            "DispatchMessageA",
            "TranslateMessage",
            "GetMessageA",
            "UpdateWindow",
            "SetWindowPos",
            "ShowWindow",
            "IsWindow",
            "CreateWindowExA",
            "SetRect",
            "GetSystemMetrics",
            "SystemParametersInfoA",
            "RegisterClassExA",
            "LoadCursorA",
            "LoadIconA",
            "DefWindowProcA",
            "SetPropA",
            "GetPropA",
            "KillTimer",
            "SetTimer",
            "PostMessageA",
            "EnumWindows",
            "GetClassNameA",
            "GetDesktopWindow",
            "MessageBoxA",
            "PostQuitMessage",
            "SetForegroundWindow",
            "PeekMessageA",
            "GetCursorPos",
            "GetWindowTextA",
            "FindWindowA",
            "IsWindowVisible"
        ],
        "VERSION.dll": [
            "GetFileVersionInfoSizeA",
            "VerQueryValueA",
            "GetFileVersionInfoA"
        ],
        "WSOCK32.dll": [
            "recv",
            "WSACleanup",
            "WSAStartup",
            "WSACancelAsyncRequest",
            "inet_addr",
            "WSAAsyncGetHostByName",
            "getsockopt",
            "__WSAFDIsSet",
            "select",
            "connect",
            "htons",
            "ioctlsocket",
            "bind",
            "inet_ntoa",
            "socket",
            "closesocket",
            "send",
            "WSAGetLastError"
        ]
    }
}