{
    "hash": "000584bbd461f84b5676b30c04323c0cf87a7160c0c3a7f7391cb45de51cb2c8",
    "section": [
        {
            "Name": ".text\u0000\u0000\u0000",
            "VirtualAddress": "0x1000",
            "Misc_VirtualSize": "0xb7d0",
            "SizeOfRawData": 47056
        },
        {
            "Name": ".bss\u0000\u0000\u0000\u0000",
            "VirtualAddress": "0xd000",
            "Misc_VirtualSize": "0x1e81c",
            "SizeOfRawData": 0
        },
        {
            "Name": ".data\u0000\u0000\u0000",
            "VirtualAddress": "0x2c000",
            "Misc_VirtualSize": "0x3314",
            "SizeOfRawData": 13076
        },
        {
            "Name": ".idata\u0000\u0000",
            "VirtualAddress": "0x30000",
            "Misc_VirtualSize": "0x1210",
            "SizeOfRawData": 4624
        },
        {
            "Name": ".ajelhf\u0000",
            "VirtualAddress": "0x32000",
            "Misc_VirtualSize": "0x1000",
            "SizeOfRawData": 512
        }
    ],
    "import": {
        "wsock32.dll": [
            "WSAGetLastError",
            "WSAStartup",
            "__WSAFDIsSet",
            "accept",
            "bind",
            "closesocket",
            "connect",
            "gethostbyname",
            "htonl",
            "htons",
            "inet_addr",
            "ioctlsocket",
            "listen",
            "recv",
            "select",
            "send",
            "socket"
        ],
        "ole32.DLL": [
            "CoCreateInstance",
            "CLSIDFromString",
            "CoTaskMemFree",
            "CoInitialize",
            "CoUninitialize"
        ],
        "OLEAUT32.DLL": [
            "SysAllocString"
        ],
        "WININET.DLL": [
            "DeleteUrlCacheEntry",
            "FindFirstUrlCacheEntryA",
            "FindNextUrlCacheEntryA"
        ],
        "KERNEL32.DLL": [
            "ExitProcess",
            "ExitThread",
            "ExpandEnvironmentStringsA",
            "FileTimeToLocalFileTime",
            "FileTimeToSystemTime",
            "FindClose",
            "FindFirstFileA",
            "FindNextFileA",
            "FreeLibrary",
            "GetCommandLineA",
            "GetCurrentProcessId",
            "GetCurrentThreadId",
            "GetExitCodeProcess",
            "GetExitCodeThread",
            "GetFileAttributesA",
            "GetFileSize",
            "GetFileTime",
            "GetLocalTime",
            "GetModuleFileNameA",
            "GetModuleHandleA",
            "CloseHandle",
            "GetProcAddress",
            "GetSystemDirectoryA",
            "GetTempPathA",
            "GetTickCount",
            "GetTimeZoneInformation",
            "GetVersion",
            "GetVersionExA",
            "GetWindowsDirectoryA",
            "GlobalMemoryStatus",
            "CopyFileA",
            "InterlockedIncrement",
            "IsBadReadPtr",
            "IsBadWritePtr",
            "LoadLibraryA",
            "CreateDirectoryA",
            "LocalAlloc",
            "LocalFree",
            "OpenFile",
            "OpenMutexA",
            "OpenProcess",
            "PeekNamedPipe",
            "CreateFileA",
            "ReadFile",
            "RemoveDirectoryA",
            "RtlUnwind",
            "SetFileAttributesA",
            "SetFilePointer",
            "CreateMutexA",
            "Sleep",
            "TerminateProcess",
            "TerminateThread",
            "CreatePipe",
            "VirtualQuery",
            "CreateProcessA",
            "WaitForSingleObject",
            "WideCharToMultiByte",
            "WinExec",
            "WriteFile",
            "lstrlenA",
            "lstrlenW",
            "CreateThread",
            "DeleteFileA"
        ],
        "USER32.DLL": [
            "GetWindowTextA",
            "GetWindowRect",
            "FindWindowA",
            "GetWindow",
            "IsWindowVisible",
            "GetClassNameA",
            "GetForegroundWindow",
            "LoadCursorA",
            "SetTimer",
            "KillTimer",
            "RegisterClassA",
            "GetMessageA",
            "CreateDesktopA",
            "SetThreadDesktop",
            "GetThreadDesktop",
            "TranslateMessage",
            "DispatchMessageA",
            "SendMessageA",
            "CharUpperBuffA",
            "OemToCharA",
            "PostQuitMessage",
            "ShowWindow",
            "CreateWindowExA",
            "DestroyWindow",
            "DefWindowProcA"
        ],
        "GDI32.DLL": [
            "GetStockObject",
            "DeleteObject"
        ],
        "ADVAPI32.DLL": [
            "RegCreateKeyExA",
            "RegCloseKey",
            "RegOpenKeyExA",
            "RegQueryValueExA",
            "RegSetValueExA",
            "GetSecurityInfo",
            "SetSecurityInfo",
            "SetEntriesInAclA"
        ],
        "CRTDLL.DLL": [
            "_itoa",
            "__GetMainArgs",
            "_sleep",
            "_strcmpi",
            "_stricmp",
            "atoi",
            "exit",
            "memcpy",
            "memset",
            "raise",
            "rand",
            "signal",
            "sprintf",
            "srand",
            "sscanf",
            "strcat",
            "strchr",
            "strncmp"
        ]
    }
}