{
    "hash": "0005b9a52d9a75bdb95f09ede20d98131b96dbe544d55928a2ac484febc6a393",
    "section": [
        {
            "Name": ".text\u0000\u0000\u0000",
            "VirtualAddress": "0x1000",
            "Misc_VirtualSize": "0x5e7",
            "SizeOfRawData": 1536
        },
        {
            "Name": ".bss\u0000\u0000\u0000\u0000",
            "VirtualAddress": "0x2000",
            "Misc_VirtualSize": "0x4",
            "SizeOfRawData": 0
        },
        {
            "Name": ".rdata\u0000\u0000",
            "VirtualAddress": "0x3000",
            "Misc_VirtualSize": "0x452",
            "SizeOfRawData": 1536
        },
        {
            "Name": ".links\u0000\u0000",
            "VirtualAddress": "0x4000",
            "Misc_VirtualSize": "0x104",
            "SizeOfRawData": 512
        },
        {
            "Name": ".rsrc\u0000\u0000\u0000",
            "VirtualAddress": "0x5000",
            "Misc_VirtualSize": "0x1c0",
            "SizeOfRawData": 512
        },
        {
            "Name": ".reloc\u0000\u0000",
            "VirtualAddress": "0x6000",
            "Misc_VirtualSize": "0xe2",
            "SizeOfRawData": 512
        }
    ],
    "import": {
        "WININET.dll": [
            "HttpOpenRequestA",
            "InternetQueryOptionW",
            "InternetSetOptionW",
            "HttpSendRequestW",
            "InternetConnectA",
            "InternetOpenW",
            "HttpQueryInfoW",
            "InternetReadFile"
        ],
        "KERNEL32.dll": [
            "CloseHandle",
            "GetFileSize",
            "GetModuleHandleW",
            "ExitProcess",
            "HeapCreate",
            "HeapAlloc",
            "GetModuleFileNameW",
            "GetTempPathW",
            "HeapDestroy",
            "GetCurrentDirectoryW",
            "Sleep",
            "FreeLibrary",
            "GetProcAddress",
            "LoadLibraryW",
            "HeapFree",
            "DeleteFileW",
            "lstrlenW",
            "WriteFile",
            "lstrcmpW",
            "ReadFile",
            "CreateFileW"
        ],
        "USER32.dll": [
            "wsprintfW"
        ],
        "SHELL32.dll": [
            "ShellExecuteW"
        ]
    }
}