{
    "hash": "0005932b8b75dcd4dec7a1def1cc67ff95d1d1162df116b65610e250c4a42082",
    "section": [
        {
            "Name": "UPX0\u0000\u0000\u0000\u0000",
            "VirtualAddress": "0x1000",
            "Misc_VirtualSize": "0x8000",
            "SizeOfRawData": 29696
        },
        {
            "Name": "UPX1\u0000\u0000\u0000\u0000",
            "VirtualAddress": "0x9000",
            "Misc_VirtualSize": "0x5000",
            "SizeOfRawData": 17408
        },
        {
            "Name": "UPX2\u0000\u0000\u0000\u0000",
            "VirtualAddress": "0xe000",
            "Misc_VirtualSize": "0x1000",
            "SizeOfRawData": 512
        },
        {
            "Name": ".imports",
            "VirtualAddress": "0xf000",
            "Misc_VirtualSize": "0x1000",
            "SizeOfRawData": 1024
        }
    ],
    "import": {
        "KERNEL32.DLL": [
            "Sleep",
            "FindClose",
            "FindNextFileA",
            "FindFirstFileA",
            "GetModuleFileNameA",
            "GetLogicalDriveStringsA",
            "ExitProcess",
            "TerminateProcess",
            "GetCurrentProcess",
            "HeapAlloc",
            "HeapFree",
            "GetCommandLineA",
            "GetVersion",
            "GetLastError",
            "CloseHandle",
            "ReadFile",
            "GetModuleHandleA",
            "GetEnvironmentVariableA",
            "GetVersionExA",
            "HeapDestroy",
            "HeapCreate",
            "VirtualFree",
            "VirtualAlloc",
            "HeapReAlloc",
            "SetFilePointer",
            "SetHandleCount",
            "GetStdHandle",
            "GetFileType",
            "GetStartupInfoA",
            "WriteFile",
            "UnhandledExceptionFilter",
            "FreeEnvironmentStringsA",
            "FreeEnvironmentStringsW",
            "WideCharToMultiByte",
            "GetEnvironmentStrings",
            "GetEnvironmentStringsW",
            "RtlUnwind",
            "SetStdHandle",
            "FlushFileBuffers",
            "CreateFileA",
            "GetCPInfo",
            "GetACP",
            "GetOEMCP",
            "GetProcAddress",
            "LoadLibraryA",
            "SetEndOfFile",
            "MultiByteToWideChar",
            "LCMapStringA",
            "LCMapStringW",
            "GetStringTypeA",
            "GetStringTypeW"
        ]
    }
}