{
    "hash": "0006ebda301a099cc695495ca0122c636719baaec0d193b4f8ebc102da24ac27",
    "section": [
        {
            "Name": ".text\u0000\u0000\u0000",
            "VirtualAddress": "0x1000",
            "Misc_VirtualSize": "0x85a",
            "SizeOfRawData": 2560
        },
        {
            "Name": ".rdata\u0000\u0000",
            "VirtualAddress": "0x2000",
            "Misc_VirtualSize": "0x618",
            "SizeOfRawData": 2048
        },
        {
            "Name": ".data\u0000\u0000\u0000",
            "VirtualAddress": "0x3000",
            "Misc_VirtualSize": "0x39c",
            "SizeOfRawData": 512
        },
        {
            "Name": ".rsrc\u0000\u0000\u0000",
            "VirtualAddress": "0x4000",
            "Misc_VirtualSize": "0x954",
            "SizeOfRawData": 2560
        },
        {
            "Name": ".reloc\u0000\u0000",
            "VirtualAddress": "0x5000",
            "Misc_VirtualSize": "0x1aa",
            "SizeOfRawData": 512
        }
    ],
    "import": {
        "jli.dll": [
            "JLI_Launch"
        ],
        "MSVCR100.dll": [
            "_unlock",
            "__dllonexit",
            "_lock",
            "?terminate@@YAXXZ",
            "_except_handler4_common",
            "_invoke_watson",
            "_controlfp_s",
            "_crt_debugger_hook",
            "__set_app_type",
            "_fmode",
            "_commode",
            "__setusermatherr",
            "_configthreadlocale",
            "_initterm_e",
            "_initterm",
            "__initenv",
            "exit",
            "_XcptFilter",
            "_exit",
            "_cexit",
            "__getmainargs",
            "_amsg_exit",
            "_onexit"
        ],
        "KERNEL32.dll": [
            "IsDebuggerPresent",
            "GetCurrentProcess",
            "TerminateProcess",
            "GetSystemTimeAsFileTime",
            "GetCurrentProcessId",
            "GetCurrentThreadId",
            "GetTickCount",
            "QueryPerformanceCounter",
            "DecodePointer",
            "SetUnhandledExceptionFilter",
            "EncodePointer",
            "HeapSetInformation",
            "InterlockedCompareExchange",
            "Sleep",
            "InterlockedExchange",
            "UnhandledExceptionFilter"
        ]
    }
}