{
    "hash": "0006763e08948fad721a06996ad7c4c2052072cc45cdbde76cda9b955e7c2a13",
    "section": [
        {
            "Name": ".text\u0000\u0000\u0000",
            "VirtualAddress": "0x1000",
            "Misc_VirtualSize": "0x11c070",
            "SizeOfRawData": 1163776
        },
        {
            "Name": ".itext\u0000\u0000",
            "VirtualAddress": "0x11e000",
            "Misc_VirtualSize": "0x144c",
            "SizeOfRawData": 5632
        },
        {
            "Name": ".data\u0000\u0000\u0000",
            "VirtualAddress": "0x120000",
            "Misc_VirtualSize": "0x94b8",
            "SizeOfRawData": 38400
        },
        {
            "Name": ".bss\u0000\u0000\u0000\u0000",
            "VirtualAddress": "0x12a000",
            "Misc_VirtualSize": "0x86ac0",
            "SizeOfRawData": 0
        },
        {
            "Name": ".idata\u0000\u0000",
            "VirtualAddress": "0x1b1000",
            "Misc_VirtualSize": "0x3e6e",
            "SizeOfRawData": 16384
        },
        {
            "Name": ".didata\u0000",
            "VirtualAddress": "0x1b5000",
            "Misc_VirtualSize": "0x326",
            "SizeOfRawData": 1024
        },
        {
            "Name": ".tls\u0000\u0000\u0000\u0000",
            "VirtualAddress": "0x1b6000",
            "Misc_VirtualSize": "0x3c",
            "SizeOfRawData": 0
        },
        {
            "Name": ".rdata\u0000\u0000",
            "VirtualAddress": "0x1b7000",
            "Misc_VirtualSize": "0x18",
            "SizeOfRawData": 512
        },
        {
            "Name": ".reloc\u0000\u0000",
            "VirtualAddress": "0x1b8000",
            "Misc_VirtualSize": "0x177a4",
            "SizeOfRawData": 96256
        },
        {
            "Name": ".rsrc\u0000\u0000\u0000",
            "VirtualAddress": "0x1d0000",
            "Misc_VirtualSize": "0x3c098",
            "SizeOfRawData": 246272
        }
    ],
    "import": {
        "oleaut32.dll": [
            "SafeArrayPtrOfIndex",
            "SafeArrayGetUBound",
            "SafeArrayGetLBound",
            "SafeArrayCreate",
            "VariantChangeType",
            "VariantCopy",
            "VariantClear",
            "VariantInit"
        ],
        "advapi32.dll": [
            "SetSecurityDescriptorSacl",
            "SetSecurityDescriptorOwner",
            "SetSecurityDescriptorGroup",
            "SetSecurityDescriptorDacl",
            "RegUnLoadKeyW",
            "RegSetValueExW",
            "RegSaveKeyW",
            "RegRestoreKeyW",
            "RegReplaceKeyW",
            "RegQueryValueExW",
            "RegQueryInfoKeyW",
            "RegOpenKeyExW",
            "RegLoadKeyW",
            "RegFlushKey",
            "RegEnumValueW",
            "RegEnumKeyExW",
            "RegDeleteValueW",
            "RegDeleteKeyW",
            "RegCreateKeyExW",
            "RegConnectRegistryW",
            "RegCloseKey",
            "OpenThreadToken",
            "OpenProcessToken",
            "LookupAccountSidW",
            "IsValidSid",
            "InitializeSecurityDescriptor",
            "InitializeAcl",
            "GetUserNameW",
            "GetTokenInformation",
            "GetSidSubAuthorityCount",
            "GetSidSubAuthority",
            "GetSidIdentifierAuthority",
            "GetLengthSid",
            "FreeSid",
            "AllocateAndInitializeSid",
            "AddAccessAllowedAce"
        ],
        "user32.dll": [
            "CreateWindowExW",
            "WindowFromPoint",
            "WaitMessage",
            "UpdateWindow",
            "UnregisterClassW",
            "UnhookWindowsHookEx",
            "TranslateMessage",
            "TranslateMDISysAccel",
            "TrackPopupMenu",
            "SystemParametersInfoW",
            "ShowWindow",
            "ShowScrollBar",
            "ShowOwnedPopups",
            "SetWindowsHookExW",
            "SetWindowTextW",
            "SetWindowPos",
            "SetWindowPlacement",
            "SetWindowLongW",
            "SetTimer",
            "SetScrollRange",
            "SetScrollPos",
            "SetScrollInfo",
            "SetRect",
            "SetPropW",
            "SetParent",
            "SetMenuItemInfoW",
            "SetMenu",
            "SetForegroundWindow",
            "SetFocus",
            "SetCursorPos",
            "SetCursor",
            "SetClipboardData",
            "SetClassLongW",
            "SetCapture",
            "SetActiveWindow",
            "SendNotifyMessageW",
            "SendMessageA",
            "SendMessageW",
            "ScrollWindow",
            "ScreenToClient",
            "RemovePropW",
            "RemoveMenu",
            "ReleaseDC",
            "ReleaseCapture",
            "RegisterWindowMessageW",
            "RegisterClipboardFormatW",
            "RegisterClassW",
            "RedrawWindow",
            "PostThreadMessageW",
            "PostQuitMessage",
            "PostMessageW",
            "PeekMessageA",
            "PeekMessageW",
            "OpenClipboard",
            "OffsetRect",
            "MsgWaitForMultipleObjectsEx",
            "MsgWaitForMultipleObjects",
            "MessageBoxW",
            "MapWindowPoints",
            "MapVirtualKeyW",
            "LoadStringW",
            "LoadKeyboardLayoutW",
            "LoadIconW",
            "LoadCursorW",
            "LoadBitmapW",
            "KillTimer",
            "IsZoomed",
            "IsWindowVisible",
            "IsWindowUnicode",
            "IsWindowEnabled",
            "IsWindow",
            "IsIconic",
            "IsDialogMessageA",
            "IsDialogMessageW",
            "IsClipboardFormatAvailable",
            "IsChild",
            "InvalidateRect",
            "IntersectRect",
            "InsertMenuItemW",
            "InsertMenuW",
            "InflateRect",
            "GetWindowThreadProcessId",
            "GetWindowTextLengthW",
            "GetWindowTextW",
            "GetWindowRect",
            "GetWindowPlacement",
            "GetWindowLongW",
            "GetWindowDC",
            "GetTopWindow",
            "GetSystemMetrics",
            "GetSystemMenu",
            "GetSysColorBrush",
            "GetSysColor",
            "GetSubMenu",
            "GetScrollRange",
            "GetScrollPos",
            "GetScrollInfo",
            "GetPropW",
            "GetParent",
            "GetWindow",
            "GetMessageTime",
            "GetMessagePos",
            "GetMessageExtraInfo",
            "GetMenuStringW",
            "GetMenuState",
            "GetMenuItemInfoW",
            "GetMenuItemID",
            "GetMenuItemCount",
            "GetMenu",
            "GetLastActivePopup",
            "GetKeyboardState",
            "GetKeyboardLayoutNameW",
            "GetKeyboardLayoutList",
            "GetKeyboardLayout",
            "GetKeyState",
            "GetKeyNameTextW",
            "GetIconInfo",
            "GetForegroundWindow",
            "GetFocus",
            "GetDesktopWindow",
            "GetDCEx",
            "GetDC",
            "GetCursorPos",
            "GetCursor",
            "GetClipboardData",
            "GetClientRect",
            "GetClassNameW",
            "GetClassLongW",
            "GetClassInfoW",
            "GetCapture",
            "GetAsyncKeyState",
            "GetActiveWindow",
            "FrameRect",
            "FindWindowExW",
            "FindWindowW",
            "FillRect",
            "EnumWindows",
            "EnumThreadWindows",
            "EnumClipboardFormats",
            "EnumChildWindows",
            "EndPaint",
            "EnableWindow",
            "EnableScrollBar",
            "EnableMenuItem",
            "EmptyClipboard",
            "DrawTextExW",
            "DrawTextW",
            "DrawMenuBar",
            "DrawIconEx",
            "DrawIcon",
            "DrawFrameControl",
            "DrawFocusRect",
            "DrawEdge",
            "DispatchMessageA",
            "DispatchMessageW",
            "DestroyWindow",
            "DestroyMenu",
            "DestroyIcon",
            "DestroyCursor",
            "DeleteMenu",
            "DefWindowProcW",
            "DefMDIChildProcW",
            "DefFrameProcW",
            "CreatePopupMenu",
            "CreateMenu",
            "CreateIcon",
            "CreateAcceleratorTableW",
            "CountClipboardFormats",
            "CopyIcon",
            "CloseClipboard",
            "ClientToScreen",
            "CheckMenuItem",
            "CharUpperBuffW",
            "CharNextW",
            "CharLowerBuffW",
            "CharLowerW",
            "CallWindowProcW",
            "CallNextHookEx",
            "BeginPaint",
            "AttachThreadInput",
            "CharLowerBuffA",
            "CharUpperBuffA",
            "AdjustWindowRectEx",
            "ActivateKeyboardLayout"
        ],
        "kernel32.dll": [
            "GetVersionExW",
            "CreateMutexW"
        ],
        "msimg32.dll": [
            "AlphaBlend"
        ],
        "gdi32.dll": [
            "UnrealizeObject",
            "StretchDIBits",
            "StretchBlt",
            "StartPage",
            "StartDocW",
            "SetWindowOrgEx",
            "SetWinMetaFileBits",
            "SetViewportOrgEx",
            "SetTextColor",
            "SetStretchBltMode",
            "SetROP2",
            "SetPixel",
            "SetMapMode",
            "SetEnhMetaFileBits",
            "SetDIBits",
            "SetDIBColorTable",
            "SetBrushOrgEx",
            "SetBkMode",
            "SetBkColor",
            "SetAbortProc",
            "SelectPalette",
            "SelectObject",
            "SaveDC",
            "RoundRect",
            "RestoreDC",
            "Rectangle",
            "RectVisible",
            "RealizePalette",
            "Polyline",
            "Polygon",
            "PolyBezierTo",
            "PolyBezier",
            "PlayEnhMetaFile",
            "Pie",
            "PatBlt",
            "MoveToEx",
            "MaskBlt",
            "LineTo",
            "LPtoDP",
            "IntersectClipRect",
            "GetWindowOrgEx",
            "GetWinMetaFileBits",
            "GetTextMetricsW",
            "GetTextExtentPoint32W",
            "GetSystemPaletteEntries",
            "GetStockObject",
            "GetRgnBox",
            "GetPixel",
            "GetPaletteEntries",
            "GetObjectW",
            "GetEnhMetaFilePaletteEntries",
            "GetEnhMetaFileHeader",
            "GetEnhMetaFileDescriptionW",
            "GetEnhMetaFileBits",
            "GetDeviceCaps",
            "GetDIBits",
            "GetDIBColorTable",
            "GetDCOrgEx",
            "GetCurrentPositionEx",
            "GetClipBox",
            "GetBrushOrgEx",
            "GetBitmapBits",
            "GdiFlush",
            "FrameRgn",
            "ExtTextOutW",
            "ExtFloodFill",
            "ExcludeClipRect",
            "EnumFontsW",
            "EnumFontFamiliesExW",
            "EndPage",
            "EndDoc",
            "Ellipse",
            "DeleteObject",
            "DeleteEnhMetaFile",
            "DeleteDC",
            "CreateSolidBrush",
            "CreateRectRgn",
            "CreatePenIndirect",
            "CreatePalette",
            "CreateICW",
            "CreateHalftonePalette",
            "CreateFontIndirectW",
            "CreateEnhMetaFileW",
            "CreateDIBitmap",
            "CreateDIBSection",
            "CreateDCW",
            "CreateCompatibleDC",
            "CreateCompatibleBitmap",
            "CreateBrushIndirect",
            "CreateBitmap",
            "CopyEnhMetaFileW",
            "CloseEnhMetaFile",
            "Chord",
            "BitBlt",
            "Arc",
            "AbortDoc"
        ],
        "version.dll": [
            "VerQueryValueW",
            "GetFileVersionInfoSizeW",
            "GetFileVersionInfoW"
        ],
        "ole32.dll": [
            "IsEqualGUID"
        ],
        "comctl32.dll": [
            "InitializeFlatSB",
            "FlatSB_SetScrollProp",
            "FlatSB_SetScrollPos",
            "FlatSB_SetScrollInfo",
            "FlatSB_GetScrollPos",
            "FlatSB_GetScrollInfo",
            "_TrackMouseEvent",
            "ImageList_GetImageInfo",
            "ImageList_SetIconSize",
            "ImageList_GetIconSize",
            "ImageList_Write",
            "ImageList_Read",
            "ImageList_GetDragImage",
            "ImageList_DragShowNolock",
            "ImageList_DragMove",
            "ImageList_DragLeave",
            "ImageList_DragEnter",
            "ImageList_EndDrag",
            "ImageList_BeginDrag",
            "ImageList_Copy",
            "ImageList_LoadImageW",
            "ImageList_GetIcon",
            "ImageList_Remove",
            "ImageList_DrawEx",
            "ImageList_Replace",
            "ImageList_Draw",
            "ImageList_SetOverlayImage",
            "ImageList_GetBkColor",
            "ImageList_SetBkColor",
            "ImageList_ReplaceIcon",
            "ImageList_Add",
            "ImageList_SetImageCount",
            "ImageList_GetImageCount",
            "ImageList_Destroy",
            "ImageList_Create"
        ],
        "IMAGEHLP.DLL": [
            "CheckSumMappedFile"
        ],
        "URLMON.DLL": [
            "URLDownloadToFileW"
        ],
        "wininet.dll": [
            "DeleteUrlCacheEntryW"
        ],
        "shell32.dll": [
            "SHGetSpecialFolderLocation",
            "SHGetPathFromIDListW"
        ],
        "winspool.drv": [
            "GetDefaultPrinterW"
        ]
    }
}