{
    "hash": "00068be3e897d99a7a5716de55d0f431d1e1fcbed986a7bcc75121cea3dbb73e",
    "section": [
        {
            "Name": ".code\u0000\u0000\u0000",
            "VirtualAddress": "0x1000",
            "Misc_VirtualSize": "0x15a9",
            "SizeOfRawData": 5632
        },
        {
            "Name": ".text\u0000\u0000\u0000",
            "VirtualAddress": "0x3000",
            "Misc_VirtualSize": "0x50171",
            "SizeOfRawData": 328192
        },
        {
            "Name": ".rdata\u0000\u0000",
            "VirtualAddress": "0x54000",
            "Misc_VirtualSize": "0xd3b8",
            "SizeOfRawData": 54272
        },
        {
            "Name": ".data\u0000\u0000\u0000",
            "VirtualAddress": "0x62000",
            "Misc_VirtualSize": "0x1501f8",
            "SizeOfRawData": 1374208
        },
        {
            "Name": ".rsrc\u0000\u0000\u0000",
            "VirtualAddress": "0x1b3000",
            "Misc_VirtualSize": "0x12358",
            "SizeOfRawData": 74752
        }
    ],
    "import": {
        "MSVCRT.dll": [
            "memset",
            "wcscmp",
            "memmove",
            "wcslen",
            "wcscpy",
            "wcscat",
            "memcpy",
            "fread",
            "longjmp",
            "_setjmp3",
            "_wcsdup",
            "free",
            "wcsncmp",
            "_wcsicmp",
            "tolower",
            "wcsncpy",
            "_snwprintf",
            "fabs",
            "malloc",
            "ceil",
            "floor",
            "fseek",
            "ftell",
            "fclose",
            "pow",
            "??3@YAXPAX@Z",
            "_wcsnicmp",
            "frexp",
            "modf",
            "_CIpow",
            "fopen",
            "_errno",
            "strerror",
            "abort",
            "atof",
            "gmtime",
            "fflush",
            "ferror",
            "remove",
            "fwrite",
            "realloc",
            "calloc",
            "__p__iob",
            "strchr",
            "strstr",
            "isxdigit",
            "strncmp",
            "isalpha",
            "strtol",
            "strncpy",
            "sscanf",
            "strrchr",
            "strpbrk",
            "strtoul",
            "qsort",
            "fgets",
            "fputs",
            "atoi",
            "isspace",
            "memchr",
            "isdigit",
            "_stricmp",
            "_strnicmp",
            "_read",
            "_write",
            "fputc",
            "sprintf",
            "getenv",
            "isalnum",
            "isupper",
            "_stati64",
            "time",
            "_ftime",
            "_vsnwprintf"
        ],
        "KERNEL32.dll": [
            "GetModuleHandleW",
            "HeapCreate",
            "HeapDestroy",
            "ExitProcess",
            "GetCurrentProcessId",
            "GetCurrentThreadId",
            "CloseHandle",
            "InitializeCriticalSection",
            "GetModuleFileNameW",
            "GetCurrentProcess",
            "DuplicateHandle",
            "CreatePipe",
            "GetStdHandle",
            "HeapAlloc",
            "CreateProcessW",
            "WaitForSingleObject",
            "EnterCriticalSection",
            "LeaveCriticalSection",
            "HeapFree",
            "TlsAlloc",
            "TlsSetValue",
            "GetTickCount",
            "TlsGetValue",
            "FreeLibrary",
            "LoadLibraryW",
            "WideCharToMultiByte",
            "GetProcAddress",
            "CreateThread",
            "CreateFileW",
            "DeleteFileW",
            "WriteFile",
            "Sleep",
            "SetLastError",
            "CreateDirectoryW",
            "SetFileAttributesW",
            "FindFirstFileW",
            "FindNextFileW",
            "FindClose",
            "RemoveDirectoryW",
            "SetFilePointer",
            "GetFileSize",
            "ReadFile",
            "HeapReAlloc",
            "GlobalFree",
            "GlobalAlloc",
            "GetVersionExW",
            "MultiByteToWideChar",
            "MulDiv",
            "TlsFree",
            "DeleteCriticalSection",
            "InterlockedCompareExchange",
            "InterlockedExchange",
            "GetLastError",
            "VerSetConditionMask",
            "VerifyVersionInfoA",
            "SleepEx",
            "LoadLibraryA",
            "ExpandEnvironmentStringsA",
            "FormatMessageA",
            "GetCurrentThread",
            "CreateSemaphoreW",
            "ReleaseSemaphore",
            "WaitForMultipleObjects"
        ],
        "gdiplus.dll": [
            "GdipDeleteFont",
            "GdipDeleteGraphics",
            "GdipDeletePath",
            "GdipDeleteMatrix",
            "GdipDeletePen",
            "GdipDeleteStringFormat",
            "GdipFree",
            "GdipGetDpiX",
            "GdipGetDpiY"
        ],
        "USER32.DLL": [
            "MessageBoxW",
            "GetForegroundWindow",
            "GetWindowThreadProcessId",
            "IsWindowVisible",
            "GetWindowLongW",
            "IsWindowEnabled",
            "EnableWindow",
            "EnumWindows",
            "SetWindowPos",
            "DestroyWindow",
            "GetIconInfo",
            "InvalidateRect",
            "UpdateWindow",
            "RedrawWindow",
            "CallWindowProcW",
            "ReleaseCapture",
            "BeginPaint",
            "DrawStateW",
            "EndPaint",
            "SetCapture",
            "GetWindowRect",
            "ScreenToClient",
            "SendMessageW",
            "GetSystemMetrics",
            "CreateWindowExW",
            "SetWindowLongW",
            "GetSysColor",
            "GetSysColorBrush",
            "GetDC",
            "GetWindowTextLengthW",
            "GetWindowTextW",
            "SetRect",
            "DrawTextW",
            "ReleaseDC",
            "SetWindowTextW",
            "GetPropW",
            "RemovePropW",
            "DefWindowProcW",
            "GetParent",
            "SetPropW",
            "GetWindow",
            "SetActiveWindow",
            "UnregisterClassW",
            "DestroyAcceleratorTable",
            "DestroyIcon",
            "LoadIconW",
            "LoadCursorW",
            "RegisterClassW",
            "AdjustWindowRectEx",
            "ShowWindow",
            "CreateAcceleratorTableW",
            "DefFrameProcW",
            "SetFocus",
            "GetFocus",
            "EnumChildWindows",
            "PostMessageW",
            "GetActiveWindow",
            "GetKeyState",
            "GetClassNameW",
            "IsChild",
            "GetClientRect",
            "FillRect",
            "RegisterWindowMessageW",
            "CreateIconFromResourceEx",
            "CreateIconFromResource",
            "CharUpperW"
        ],
        "GDI32.DLL": [
            "GetStockObject",
            "GetObjectType",
            "GetObjectW",
            "DeleteObject",
            "SetTextColor",
            "SetBkColor",
            "SelectObject",
            "CreateSolidBrush",
            "GetDeviceCaps",
            "CreateRectRgnIndirect",
            "GetClipRgn",
            "ExtSelectClipRgn",
            "SelectClipRgn",
            "CreateCompatibleDC",
            "CreateDIBSection",
            "DeleteDC",
            "CreateBitmap",
            "SetPixel",
            "GetDIBits",
            "BitBlt",
            "CreateDCW",
            "CreateFontW"
        ],
        "ADVAPI32.DLL": [
            "GetCurrentHwProfileW",
            "CryptAcquireContextA",
            "CryptGenRandom",
            "CryptReleaseContext",
            "CryptCreateHash",
            "CryptHashData",
            "CryptGetHashParam",
            "CryptDestroyHash"
        ],
        "COMCTL32.DLL": [
            "InitCommonControlsEx"
        ],
        "OLE32.DLL": [
            "CoInitialize",
            "RevokeDragDrop"
        ],
        "SHELL32.DLL": [
            "ShellExecuteExW"
        ],
        "WS2_32.DLL": [
            "WSAIoctl",
            "getaddrinfo",
            "freeaddrinfo"
        ],
        "WSOCK32.DLL": [
            "closesocket",
            "WSACleanup",
            "WSAStartup",
            "socket",
            "inet_addr",
            "gethostbyname",
            "htons",
            "bind",
            "ioctlsocket",
            "connect",
            "select",
            "__WSAFDIsSet",
            "recv",
            "WSAGetLastError",
            "send",
            "WSASetLastError",
            "getsockopt",
            "setsockopt",
            "getpeername",
            "getsockname",
            "ntohs",
            "gethostname",
            "ntohl",
            "htonl"
        ],
        "WINMM.DLL": [
            "timeBeginPeriod"
        ]
    }
}