{
    "hash": "0006887291222e8afccb7b50fb0ebfce04ed9d8d61b00c1a3a088ef89037043b",
    "section": [
        {
            "Name": "UPX0\u0000\u0000\u0000\u0000",
            "VirtualAddress": "0x1000",
            "Misc_VirtualSize": "0x3b000",
            "SizeOfRawData": 150528
        },
        {
            "Name": "UPX1\u0000\u0000\u0000\u0000",
            "VirtualAddress": "0x3c000",
            "Misc_VirtualSize": "0x14000",
            "SizeOfRawData": 81920
        },
        {
            "Name": ".rsrc\u0000\u0000\u0000",
            "VirtualAddress": "0x50000",
            "Misc_VirtualSize": "0x5000",
            "SizeOfRawData": 19968
        },
        {
            "Name": ".imports",
            "VirtualAddress": "0x55000",
            "Misc_VirtualSize": "0x2000",
            "SizeOfRawData": 4608
        }
    ],
    "import": {
        "KERNEL32.DLL": [
            "lstrcmpA",
            "GlobalDeleteAtom",
            "InterlockedIncrement",
            "InterlockedDecrement",
            "LocalFree",
            "FlushFileBuffers",
            "lstrcpynA",
            "GetFullPathNameA",
            "LocalAlloc",
            "InitializeCriticalSection",
            "TlsAlloc",
            "lstrcmpiA",
            "GlobalHandle",
            "TlsFree",
            "LeaveCriticalSection",
            "GlobalReAlloc",
            "EnterCriticalSection",
            "TlsSetValue",
            "LocalReAlloc",
            "TlsGetValue",
            "GlobalFlags",
            "WritePrivateProfileStringA",
            "GetCurrentDirectoryA",
            "GlobalFindAtomA",
            "GlobalAddAtomA",
            "GlobalGetAtomNameA",
            "GetProcessVersion",
            "FileTimeToSystemTime",
            "FileTimeToLocalFileTime",
            "SetErrorMode",
            "GetCPInfo",
            "GetOEMCP",
            "GetStartupInfoA",
            "RtlUnwind",
            "RaiseException",
            "HeapSize",
            "GetACP",
            "UnhandledExceptionFilter",
            "FreeEnvironmentStringsA",
            "FreeEnvironmentStringsW",
            "GetEnvironmentStrings",
            "GetEnvironmentStringsW",
            "SetHandleCount",
            "GetStdHandle",
            "GetFileType",
            "GetEnvironmentVariableA",
            "HeapDestroy",
            "HeapCreate",
            "VirtualFree",
            "LCMapStringW",
            "VirtualAlloc",
            "IsBadWritePtr",
            "SetUnhandledExceptionFilter",
            "GetStringTypeA",
            "GetStringTypeW",
            "IsBadCodePtr",
            "SetStdHandle",
            "CompareStringA",
            "CompareStringW",
            "SetEnvironmentVariableA",
            "InterlockedExchange",
            "GetCurrentThread",
            "GetCurrentThreadId",
            "GetVersion",
            "GetTimeZoneInformation",
            "lstrcatA",
            "SetLastError",
            "GlobalAlloc",
            "lstrcpyA",
            "Sleep",
            "TerminateProcess",
            "GetDriveTypeA",
            "GetCurrentProcessId",
            "SetFilePointer",
            "GlobalLock",
            "GlobalUnlock",
            "GlobalFree",
            "WideCharToMultiByte",
            "MultiByteToWideChar",
            "GetLastError",
            "GetVersionExA",
            "GetWindowsDirectoryA",
            "GetSystemDirectoryA",
            "GetTempPathA",
            "lstrlenA",
            "LCMapStringA",
            "LoadLibraryA",
            "GetProcAddress",
            "FreeLibrary",
            "GetCommandLineA",
            "DeleteFileA",
            "FindClose",
            "FindFirstFileA",
            "FindNextFileA",
            "GetTickCount",
            "GetFileSize",
            "ReadFile",
            "CreateFileA",
            "WriteFile",
            "CloseHandle",
            "SetFileAttributesA",
            "CopyFileA",
            "CreateDirectoryA",
            "GetModuleFileNameA",
            "IsBadReadPtr",
            "HeapFree",
            "HeapReAlloc",
            "HeapAlloc",
            "ExitProcess",
            "GetModuleHandleA",
            "GetProcessHeap",
            "lstrcpyn",
            "SetWaitableTimer",
            "CreateWaitableTimerA",
            "CreateThread",
            "SetProcessWorkingSetSize",
            "Process32Next",
            "Process32First",
            "CreateToolhelp32Snapshot",
            "CreateEventA",
            "OpenEventA",
            "GetCurrentProcess",
            "OpenProcess",
            "DeleteCriticalSection"
        ],
        "ADVAPI32.dll": [
            "RegOpenKeyA",
            "LookupPrivilegeValueA",
            "RegOpenKeyExA",
            "RegDeleteValueA",
            "RegDeleteKeyA",
            "RegCreateKeyExA",
            "RegSetValueExA",
            "RegCloseKey",
            "AdjustTokenPrivileges",
            "OpenProcessToken"
        ],
        "COMCTL32.dll": [],
        "GDI32.dll": [
            "PtVisible",
            "RectVisible",
            "TextOutA",
            "ExtTextOutA",
            "Escape",
            "GetObjectA",
            "GetStockObject",
            "DeleteObject",
            "DeleteDC",
            "SelectObject",
            "GetDeviceCaps",
            "CreateBitmap",
            "SaveDC",
            "RestoreDC",
            "SetBkColor",
            "SetTextColor",
            "SetMapMode",
            "SetViewportOrgEx",
            "OffsetViewportOrgEx",
            "SetViewportExtEx",
            "ScaleViewportExtEx",
            "SetWindowExtEx",
            "ScaleWindowExtEx",
            "GetClipBox"
        ],
        "ole32.dll": [
            "CoCreateInstance"
        ],
        "SHELL32.dll": [
            "SHChangeNotify",
            "SHGetSpecialFolderPathA",
            "ShellExecuteA"
        ],
        "USER32.dll": [
            "GetMenuItemID",
            "GetSubMenu",
            "GetMenu",
            "RegisterClassA",
            "GetClassInfoA",
            "WinHelpA",
            "GetCapture",
            "GetTopWindow",
            "CopyRect",
            "GetClientRect",
            "AdjustWindowRectEx",
            "GetSysColor",
            "MapWindowPoints",
            "LoadCursorA",
            "GetSysColorBrush",
            "LoadStringA",
            "DestroyMenu",
            "GetMenuItemCount",
            "SetWindowTextA",
            "GetDlgCtrlID",
            "DestroyWindow",
            "UnhookWindowsHookEx",
            "GrayStringA",
            "DrawTextA",
            "TabbedTextOutA",
            "CreateWindowExA",
            "GetClassLongA",
            "SetPropA",
            "GetPropA",
            "CallWindowProcA",
            "RemovePropA",
            "DefWindowProcA",
            "GetMessageTime",
            "GetMessagePos",
            "RegisterWindowMessageA",
            "ClientToScreen",
            "IsIconic",
            "GetWindowPlacement",
            "SetFocus",
            "LoadIconA",
            "GetMenuCheckMarkDimensions",
            "LoadBitmapA",
            "GetMenuState",
            "ModifyMenuA",
            "SetMenuItemBitmaps",
            "CheckMenuItem",
            "EnableMenuItem",
            "GetFocus",
            "GetNextDlgTabItem",
            "GetKeyState",
            "CallNextHookEx",
            "ValidateRect",
            "SetWindowsHookExA",
            "GetLastActivePopup",
            "SetCursor",
            "PostMessageA",
            "PostQuitMessage",
            "GetWindow",
            "PtInRect",
            "GetWindowLongA",
            "SetWindowLongA",
            "GetDlgItem",
            "SystemParametersInfoA",
            "GetDC",
            "ReleaseDC",
            "SendMessageA",
            "GetWindowRect",
            "GetSystemMetrics",
            "GetActiveWindow",
            "GetForegroundWindow",
            "IsWindowEnabled",
            "GetParent",
            "EnableWindow",
            "PeekMessageA",
            "GetMessageA",
            "TranslateMessage",
            "DispatchMessageA",
            "wsprintfA",
            "MessageBoxA",
            "MsgWaitForMultipleObjects",
            "SetWindowPos",
            "SetForegroundWindow",
            "ShowWindow",
            "GetClassNameA",
            "GetWindowTextA",
            "GetWindowThreadProcessId",
            "IsWindowVisible",
            "GetCursorPos",
            "UnregisterClassA"
        ],
        "WINSPOOL.DRV": [
            "OpenPrinterA",
            "ClosePrinter",
            "DocumentPropertiesA"
        ]
    }
}