{
    "hash": "00066f68f3aa739c96287513fbdd256af9c3197f2c1cad50cd2257669531e03f",
    "section": [
        {
            "Name": ".text\u0000\u0000\u0000",
            "VirtualAddress": "0x1000",
            "Misc_VirtualSize": "0x3ca000",
            "SizeOfRawData": 3970560
        },
        {
            "Name": ".rdata\u0000\u0000",
            "VirtualAddress": "0x3cb000",
            "Misc_VirtualSize": "0x1000",
            "SizeOfRawData": 512
        },
        {
            "Name": ".data\u0000\u0000\u0000",
            "VirtualAddress": "0x3cc000",
            "Misc_VirtualSize": "0xb7",
            "SizeOfRawData": 512
        },
        {
            "Name": ".rsrc\u0000\u0000\u0000",
            "VirtualAddress": "0x3cd000",
            "Misc_VirtualSize": "0x115c",
            "SizeOfRawData": 4608
        }
    ],
    "import": {
        "ole32.dll": [
            "OleLockRunning"
        ],
        "ntdll.dll": [
            "NtAccessCheckByType"
        ],
        "user32.dll": [
            "GetMessageExtraInfo",
            "MapVirtualKeyExW",
            "GetInputState"
        ],
        "kernel32.dll": [
            "GetSystemDefaultLCID"
        ]
    }
}