{
    "hash": "00066b60c3e39d2c8ae937272d2944f236504adea7393ad7eba5fd273235f531",
    "section": [
        {
            "Name": ".text\u0000\u0000\u0000",
            "VirtualAddress": "0x1000",
            "Misc_VirtualSize": "0x8e7e",
            "SizeOfRawData": 36864
        },
        {
            "Name": ".rdata\u0000\u0000",
            "VirtualAddress": "0xa000",
            "Misc_VirtualSize": "0x29c6",
            "SizeOfRawData": 10752
        },
        {
            "Name": ".data\u0000\u0000\u0000",
            "VirtualAddress": "0xd000",
            "Misc_VirtualSize": "0x249c",
            "SizeOfRawData": 5120
        },
        {
            "Name": ".rsrc\u0000\u0000\u0000",
            "VirtualAddress": "0x10000",
            "Misc_VirtualSize": "0x5230",
            "SizeOfRawData": 21504
        }
    ],
    "import": {
        "USER32.dll": [
            "EndPaint",
            "TranslateMessage",
            "TranslateAcceleratorA",
            "GetMessageA",
            "EndDialog",
            "SendMessageA",
            "DestroyWindow",
            "DialogBoxParamA",
            "DefWindowProcA",
            "BeginPaint",
            "DispatchMessageA",
            "PostQuitMessage",
            "CreateWindowExA",
            "LoadStringA",
            "LoadAcceleratorsA",
            "LoadIconA",
            "LoadCursorA",
            "RegisterClassExA"
        ],
        "KERNEL32.dll": [
            "GetStringTypeW",
            "GetStringTypeA",
            "LCMapStringW",
            "LCMapStringA",
            "MultiByteToWideChar",
            "HeapSize",
            "RtlUnwind",
            "CreateDirectoryA",
            "ReadFile",
            "LoadLibraryA",
            "GetModuleHandleA",
            "lstrcpyA",
            "lstrlenA",
            "GetModuleFileNameA",
            "GetLastError",
            "GetLocaleInfoA",
            "DeleteCriticalSection",
            "HeapReAlloc",
            "VirtualAlloc",
            "Sleep",
            "GetOEMCP",
            "GetCommandLineA",
            "HeapFree",
            "GetVersionExA",
            "HeapAlloc",
            "GetProcessHeap",
            "GetStartupInfoA",
            "GetProcAddress",
            "ExitProcess",
            "WriteFile",
            "GetStdHandle",
            "UnhandledExceptionFilter",
            "FreeEnvironmentStringsA",
            "GetEnvironmentStrings",
            "FreeEnvironmentStringsW",
            "WideCharToMultiByte",
            "GetEnvironmentStringsW",
            "SetHandleCount",
            "GetFileType",
            "TlsGetValue",
            "TlsAlloc",
            "TlsSetValue",
            "TlsFree",
            "InterlockedIncrement",
            "SetLastError",
            "GetCurrentThreadId",
            "InterlockedDecrement",
            "HeapDestroy",
            "HeapCreate",
            "VirtualFree",
            "QueryPerformanceCounter",
            "GetTickCount",
            "GetCurrentProcessId",
            "GetSystemTimeAsFileTime",
            "LeaveCriticalSection",
            "EnterCriticalSection",
            "TerminateProcess",
            "GetCurrentProcess",
            "SetUnhandledExceptionFilter",
            "IsDebuggerPresent",
            "InitializeCriticalSection",
            "GetCPInfo",
            "GetACP"
        ],
        "GDI32.dll": [
            "GetStockObject",
            "TextOutA"
        ],
        "VERSION.dll": [
            "GetFileVersionInfoSizeA",
            "VerQueryValueA",
            "GetFileVersionInfoA"
        ]
    }
}