{
    "hash": "0006a8fc183bf9c4e265423e057ce21889981cc547256a1361e59dc6dd14e225",
    "section": [
        {
            "Name": ".text\u0000\u0000\u0000",
            "VirtualAddress": "0x1000",
            "Misc_VirtualSize": "0x5ff9",
            "SizeOfRawData": 24576
        },
        {
            "Name": ".rdata\u0000\u0000",
            "VirtualAddress": "0x7000",
            "Misc_VirtualSize": "0x13a4",
            "SizeOfRawData": 5120
        },
        {
            "Name": ".data\u0000\u0000\u0000",
            "VirtualAddress": "0x9000",
            "Misc_VirtualSize": "0x202f8",
            "SizeOfRawData": 1536
        },
        {
            "Name": ".ndata\u0000\u0000",
            "VirtualAddress": "0x2a000",
            "Misc_VirtualSize": "0x10000",
            "SizeOfRawData": 0
        },
        {
            "Name": ".rsrc\u0000\u0000\u0000",
            "VirtualAddress": "0x3a000",
            "Misc_VirtualSize": "0xbd8",
            "SizeOfRawData": 3072
        }
    ],
    "import": {
        "KERNEL32.dll": [
            "SetCurrentDirectoryW",
            "GetFileAttributesW",
            "GetFullPathNameW",
            "Sleep",
            "GetTickCount",
            "GetFileSize",
            "GetModuleFileNameW",
            "MoveFileW",
            "SetFileAttributesW",
            "GetCurrentProcess",
            "ExitProcess",
            "SetEnvironmentVariableW",
            "GetWindowsDirectoryW",
            "GetTempPathW",
            "GetCommandLineW",
            "GetVersion",
            "SetErrorMode",
            "lstrlenW",
            "WaitForSingleObject",
            "CopyFileW",
            "CompareFileTime",
            "GlobalLock",
            "CreateThread",
            "GetLastError",
            "CreateDirectoryW",
            "CreateProcessW",
            "RemoveDirectoryW",
            "lstrcmpiA",
            "CreateFileW",
            "GetTempFileNameW",
            "WriteFile",
            "lstrcpyA",
            "lstrcpyW",
            "MoveFileExW",
            "lstrcatW",
            "GetSystemDirectoryW",
            "GetProcAddress",
            "GetModuleHandleA",
            "GlobalFree",
            "GlobalAlloc",
            "GetShortPathNameW",
            "SearchPathW",
            "lstrcmpiW",
            "SetFileTime",
            "CloseHandle",
            "ExpandEnvironmentStringsW",
            "lstrcmpW",
            "GlobalUnlock",
            "lstrcpynW",
            "GetDiskFreeSpaceW",
            "GetExitCodeProcess",
            "FindFirstFileW",
            "FindNextFileW",
            "DeleteFileW",
            "SetFilePointer",
            "ReadFile",
            "FindClose",
            "MulDiv",
            "MultiByteToWideChar",
            "lstrlenA",
            "WideCharToMultiByte",
            "GetPrivateProfileStringW",
            "WritePrivateProfileStringW",
            "FreeLibrary",
            "LoadLibraryExW",
            "GetModuleHandleW"
        ],
        "USER32.dll": [
            "GetSystemMenu",
            "SetClassLongW",
            "IsWindowEnabled",
            "EnableMenuItem",
            "SetWindowPos",
            "GetSysColor",
            "GetWindowLongW",
            "SetCursor",
            "LoadCursorW",
            "CheckDlgButton",
            "GetMessagePos",
            "LoadBitmapW",
            "CallWindowProcW",
            "IsWindowVisible",
            "CloseClipboard",
            "SetClipboardData",
            "EmptyClipboard",
            "OpenClipboard",
            "wsprintfW",
            "ScreenToClient",
            "GetWindowRect",
            "GetSystemMetrics",
            "SetDlgItemTextW",
            "GetDlgItemTextW",
            "MessageBoxIndirectW",
            "CharPrevW",
            "CharNextA",
            "wsprintfA",
            "DispatchMessageW",
            "PeekMessageW",
            "GetDC",
            "ReleaseDC",
            "EnableWindow",
            "InvalidateRect",
            "SendMessageW",
            "DefWindowProcW",
            "BeginPaint",
            "GetClientRect",
            "FillRect",
            "EndDialog",
            "RegisterClassW",
            "SystemParametersInfoW",
            "CreateWindowExW",
            "GetClassInfoW",
            "DialogBoxParamW",
            "CharNextW",
            "ExitWindowsEx",
            "DestroyWindow",
            "LoadImageW",
            "SetTimer",
            "SetWindowTextW",
            "PostQuitMessage",
            "ShowWindow",
            "GetDlgItem",
            "IsWindow",
            "SetWindowLongW",
            "FindWindowExW",
            "TrackPopupMenu",
            "AppendMenuW",
            "CreatePopupMenu",
            "DrawTextW",
            "EndPaint",
            "CreateDialogParamW",
            "SendMessageTimeoutW",
            "SetForegroundWindow"
        ],
        "GDI32.dll": [
            "SelectObject",
            "SetBkMode",
            "CreateFontIndirectW",
            "SetTextColor",
            "DeleteObject",
            "GetDeviceCaps",
            "CreateBrushIndirect",
            "SetBkColor"
        ],
        "SHELL32.dll": [
            "SHGetSpecialFolderLocation",
            "SHGetPathFromIDListW",
            "SHBrowseForFolderW",
            "SHGetFileInfoW",
            "ShellExecuteW",
            "SHFileOperationW"
        ],
        "ADVAPI32.dll": [
            "RegDeleteKeyW",
            "SetFileSecurityW",
            "OpenProcessToken",
            "LookupPrivilegeValueW",
            "AdjustTokenPrivileges",
            "RegOpenKeyExW",
            "RegEnumValueW",
            "RegDeleteValueW",
            "RegCloseKey",
            "RegCreateKeyExW",
            "RegSetValueExW",
            "RegQueryValueExW",
            "RegEnumKeyW"
        ],
        "COMCTL32.dll": [
            "ImageList_AddMasked"
        ],
        "ole32.dll": [
            "OleUninitialize",
            "OleInitialize",
            "CoTaskMemFree",
            "CoCreateInstance"
        ]
    }
}