{
    "hash": "00064079c947e5758c52844c5477b8de06e328a3e733aefa4f8b76fd965a5cd9",
    "section": [
        {
            "Name": "UPX0\u0000\u0000\u0000\u0000",
            "VirtualAddress": "0x1000",
            "Misc_VirtualSize": "0x1a000",
            "SizeOfRawData": 106496
        },
        {
            "Name": "UPX1\u0000\u0000\u0000\u0000",
            "VirtualAddress": "0x1b000",
            "Misc_VirtualSize": "0xb000",
            "SizeOfRawData": 41472
        },
        {
            "Name": "UPX2\u0000\u0000\u0000\u0000",
            "VirtualAddress": "0x26000",
            "Misc_VirtualSize": "0x1000",
            "SizeOfRawData": 512
        },
        {
            "Name": ".imports",
            "VirtualAddress": "0x27000",
            "Misc_VirtualSize": "0x1000",
            "SizeOfRawData": 1024
        }
    ],
    "import": {
        "KERNEL32.DLL": [
            "OpenProcess",
            "VirtualAllocEx",
            "WriteProcessMemory",
            "WaitForSingleObject",
            "VirtualFreeEx",
            "GetProcessHeap",
            "GetModuleHandleA",
            "ExitProcess",
            "HeapAlloc",
            "HeapFree",
            "IsBadReadPtr",
            "DeleteFileA",
            "GetModuleFileNameA",
            "CloseHandle",
            "ReadFile",
            "GetFileSize",
            "CreateFileA",
            "WriteFile",
            "CreateProcessA",
            "GetStartupInfoA",
            "Sleep",
            "FreeLibrary",
            "GetProcAddress",
            "LoadLibraryA"
        ],
        "MSVCRT.dll": [
            "strchr",
            "_CIfmod",
            "atoi"
        ],
        "SHLWAPI.dll": [
            "PathFileExistsA"
        ],
        "USER32.dll": [
            "TranslateMessage",
            "DispatchMessageA",
            "GetMessageA",
            "wsprintfA",
            "MessageBoxA",
            "PeekMessageA",
            "GetWindowThreadProcessId"
        ]
    }
}