{
    "hash": "000627d1e05eda2bae76b29dd90007ba21e056064c38d4c85bd7a4a859af364a",
    "section": [
        {
            "Name": ".text\u0000\u0000\u0000",
            "VirtualAddress": "0x1000",
            "Misc_VirtualSize": "0xa57b6",
            "SizeOfRawData": 679936
        },
        {
            "Name": ".rdata\u0000\u0000",
            "VirtualAddress": "0xa7000",
            "Misc_VirtualSize": "0x1314",
            "SizeOfRawData": 8192
        },
        {
            "Name": ".data\u0000\u0000\u0000",
            "VirtualAddress": "0xa9000",
            "Misc_VirtualSize": "0x5fa7d",
            "SizeOfRawData": 12288
        },
        {
            "Name": ".rsrc\u0000\u0000\u0000",
            "VirtualAddress": "0x109000",
            "Misc_VirtualSize": "0xf3161",
            "SizeOfRawData": 999424
        }
    ],
    "import": {
        "COMCTL32.dll": [
            "ImageList_LoadImageW",
            "PropertySheetW"
        ],
        "VERSION.dll": [
            "VerQueryValueW"
        ],
        "SETUPAPI.dll": [
            "SetupGetBinaryField",
            "SetupDecompressOrCopyFileW",
            "SetupGetFileCompressionInfoW"
        ],
        "KERNEL32.dll": [
            "CloseHandle",
            "GetQueuedCompletionStatus",
            "OpenProcess",
            "TerminateThread",
            "GlobalFlags",
            "GetExitCodeProcess",
            "FlushFileBuffers",
            "InterlockedExchange",
            "GetSystemInfo",
            "CreateIoCompletionPort",
            "SetEndOfFile",
            "PostQueuedCompletionStatus",
            "GetTimeZoneInformation",
            "GlobalUnlock",
            "FindResourceExW",
            "ReleaseMutex",
            "GetDriveTypeW",
            "UnlockFile",
            "SetCurrentDirectoryW",
            "FindFirstFileA",
            "FindClose",
            "GetSystemDirectoryW",
            "SearchPathA",
            "SetFileAttributesA",
            "GetFileAttributesA",
            "DuplicateHandle",
            "GetProcAddress",
            "GetVersion",
            "lstrcatA",
            "FreeLibrary",
            "GetModuleHandleA",
            "IsBadReadPtr",
            "GetOEMCP",
            "GetCPInfo",
            "SetStdHandle",
            "GetACP",
            "VirtualAlloc",
            "HeapAlloc",
            "WriteFile",
            "RtlUnwind",
            "VirtualFree",
            "HeapCreate",
            "HeapDestroy",
            "GetEnvironmentVariableA",
            "GetFileType",
            "GetStdHandle",
            "SetHandleCount",
            "GetEnvironmentStringsW",
            "GetEnvironmentStrings",
            "WideCharToMultiByte",
            "FreeEnvironmentStringsW",
            "FreeEnvironmentStringsA",
            "GetModuleFileNameA",
            "UnhandledExceptionFilter",
            "GetCurrentProcess",
            "TerminateProcess",
            "GetStringTypeW",
            "GetLastError",
            "HeapFree",
            "ExitProcess",
            "GetCommandLineA",
            "GetStartupInfoA",
            "GetSystemTimeAsFileTime",
            "CreateFileMappingA",
            "GetTickCount",
            "GetVersionExA",
            "LoadLibraryA",
            "SetFilePointer",
            "MultiByteToWideChar",
            "LCMapStringA",
            "LCMapStringW",
            "GetStringTypeA",
            "HeapReAlloc",
            "QueryPerformanceCounter",
            "lstrcpyA"
        ],
        "USER32.dll": [
            "SendMessageW",
            "AdjustWindowRectEx",
            "SetFocus",
            "EndPaint",
            "DefWindowProcA",
            "CharLowerBuffW",
            "MessageBoxIndirectA",
            "BeginPaint",
            "GetParent",
            "GetWindowLongW",
            "EmptyClipboard",
            "ClientToScreen",
            "CloseClipboard",
            "CreateWindowExW",
            "GetSystemMenu",
            "GetClientRect",
            "RegisterClassExW",
            "DrawTextA",
            "GetSysColor",
            "LoadStringW",
            "LoadMenuW",
            "GetSubMenu",
            "IsWindowVisible",
            "CheckMenuRadioItem",
            "InvalidateRect",
            "CreatePopupMenu",
            "LoadAcceleratorsW",
            "ReleaseDC",
            "IsWindowEnabled",
            "EnableMenuItem",
            "TrackPopupMenuEx",
            "GetMessagePos",
            "DefWindowProcW",
            "SendMessageTimeoutA",
            "GetClassInfoExW",
            "SetCursor"
        ],
        "GDI32.dll": [
            "GetClipBox"
        ],
        "RPCRT4.dll": [
            "NdrComplexArrayBufferSize",
            "NdrClientCall2",
            "NdrClientInitialize",
            "NdrComplexArrayFree",
            "NdrClientInitializeNew"
        ],
        "ADVAPI32.dll": [
            "RegQueryInfoKeyW",
            "InitializeSid",
            "RegEnumKeyExW",
            "RegSetValueExW",
            "IsValidSid",
            "RegDeleteValueW",
            "RegCloseKey",
            "EqualSid",
            "RegCreateKeyExW",
            "GetSidSubAuthority",
            "RegDeleteKeyW"
        ],
        "SHELL32.dll": [
            "SHGetFileInfoA",
            "ShellExecuteW"
        ]
    }
}