{
    "hash": "0006c7d3c154455634fd01cc3a42c37b7f653dd8f3201196f5c0e681402a5179",
    "section": [
        {
            "Name": ".text\u0000\u0000\u0000",
            "VirtualAddress": "0x1000",
            "Misc_VirtualSize": "0x45e97",
            "SizeOfRawData": 286720
        },
        {
            "Name": ".rdata\u0000\u0000",
            "VirtualAddress": "0x47000",
            "Misc_VirtualSize": "0x2b836",
            "SizeOfRawData": 178688
        },
        {
            "Name": ".data\u0000\u0000\u0000",
            "VirtualAddress": "0x73000",
            "Misc_VirtualSize": "0x2cbc",
            "SizeOfRawData": 7680
        },
        {
            "Name": ".AESeal\u0000",
            "VirtualAddress": "0x76000",
            "Misc_VirtualSize": "0x19aa",
            "SizeOfRawData": 6656
        },
        {
            "Name": ".rsrc\u0000\u0000\u0000",
            "VirtualAddress": "0x78000",
            "Misc_VirtualSize": "0xcae70",
            "SizeOfRawData": 831488
        },
        {
            "Name": ".reloc\u0000\u0000",
            "VirtualAddress": "0x143000",
            "Misc_VirtualSize": "0x3f14",
            "SizeOfRawData": 16384
        }
    ],
    "import": {
        "OLEACC.dll": [
            "AccessibleObjectFromWindow"
        ],
        "KERNEL32.dll": [
            "InterlockedIncrement",
            "lstrcmpiW",
            "LoadLibraryExW",
            "EncodePointer",
            "LeaveCriticalSection",
            "InterlockedDecrement",
            "EnterCriticalSection",
            "WideCharToMultiByte",
            "GetCurrentProcessId",
            "CreateThread",
            "MultiByteToWideChar",
            "SetFileAttributesW",
            "GetFileAttributesW",
            "GetProcessId",
            "GetModuleFileNameW",
            "CreateDirectoryW",
            "MulDiv",
            "GetModuleHandleW",
            "GetProcessHeap",
            "ReadConsoleW",
            "SetEndOfFile",
            "WriteConsoleW",
            "SetFilePointerEx",
            "FlushFileBuffers",
            "SetStdHandle",
            "FreeLibrary",
            "FreeEnvironmentStringsW",
            "GetEnvironmentStringsW",
            "GetCommandLineW",
            "GetCommandLineA",
            "GetOEMCP",
            "IsValidCodePage",
            "FindNextFileW",
            "FindFirstFileExW",
            "FindClose",
            "GetConsoleMode",
            "GetConsoleCP",
            "EnumSystemLocalesW",
            "GetUserDefaultLCID",
            "DeleteCriticalSection",
            "HeapDestroy",
            "DecodePointer",
            "HeapAlloc",
            "ReadFile",
            "FindResourceW",
            "LoadResource",
            "FindResourceExW",
            "RaiseException",
            "HeapReAlloc",
            "LockResource",
            "GetLastError",
            "Sleep",
            "HeapSize",
            "InitializeCriticalSectionAndSpinCount",
            "HeapFree",
            "SizeofResource",
            "GetProcAddress",
            "IsValidLocale",
            "GetFileType",
            "GetACP",
            "WriteFile",
            "GetStdHandle",
            "GetModuleHandleExW",
            "ExitProcess",
            "VirtualQuery",
            "VirtualProtect",
            "GetSystemInfo",
            "RtlUnwind",
            "GetLocaleInfoW",
            "LCMapStringW",
            "CompareStringW",
            "GetCPInfo",
            "TlsFree",
            "TlsSetValue",
            "TlsGetValue",
            "TlsAlloc",
            "GetStringTypeW",
            "LoadLibraryExA",
            "VirtualFree",
            "VirtualAlloc",
            "FlushInstructionCache",
            "InterlockedPushEntrySList",
            "SetLastError",
            "GetCurrentProcess",
            "GetEnvironmentVariableW",
            "FormatMessageW",
            "CloseHandle",
            "LocalFree",
            "OutputDebugStringW",
            "SetFilePointer",
            "CreateFileW",
            "GetFileSize",
            "GetCurrentThreadId",
            "GlobalAlloc",
            "GlobalLock",
            "GlobalUnlock",
            "lstrcmpW",
            "SetEvent",
            "ResetEvent",
            "WaitForSingleObjectEx",
            "CreateEventW",
            "UnhandledExceptionFilter",
            "SetUnhandledExceptionFilter",
            "TerminateProcess",
            "IsProcessorFeaturePresent",
            "IsDebuggerPresent",
            "GetStartupInfoW",
            "QueryPerformanceCounter",
            "GetSystemTimeAsFileTime",
            "InitializeSListHead",
            "InterlockedPopEntrySList"
        ],
        "USER32.dll": [
            "UpdateWindow",
            "GetDesktopWindow",
            "ReleaseDC",
            "EndPaint",
            "BeginPaint",
            "KillTimer",
            "CallWindowProcW",
            "PostMessageW",
            "CharNextW",
            "MessageBoxW",
            "ShowWindow",
            "InvalidateRect",
            "GetWindowLongW",
            "GetWindowThreadProcessId",
            "GetMessageW",
            "DefWindowProcW",
            "GetWindowRect",
            "DestroyWindow",
            "GetDC",
            "IsWindowVisible",
            "SetWindowPos",
            "EqualRect",
            "EnumChildWindows",
            "CreateWindowExW",
            "GetSystemMetrics",
            "UnregisterClassW",
            "RegisterClassExW",
            "IsWindow",
            "DispatchMessageW",
            "SetTimer",
            "PeekMessageW",
            "GetWindowTextW",
            "GetCursorPos",
            "SetForegroundWindow",
            "ReleaseCapture",
            "RegisterWindowMessageW",
            "GetParent",
            "GetClassInfoExW",
            "GetDlgItem",
            "GetClientRect",
            "SetCapture",
            "SetFocus",
            "CreateAcceleratorTableW",
            "GetSysColor",
            "IsChild",
            "DestroyAcceleratorTable",
            "ClientToScreen",
            "RedrawWindow",
            "InvalidateRgn",
            "SetWindowTextW",
            "SendMessageW",
            "ScreenToClient",
            "FillRect",
            "GetFocus",
            "GetWindow",
            "GetWindowTextLengthW",
            "MoveWindow",
            "EnumWindows",
            "LoadBitmapW",
            "SetLayeredWindowAttributes",
            "TranslateMessage",
            "LoadCursorW",
            "GetClassNameW",
            "SetWindowLongW",
            "DrawTextW"
        ],
        "GDI32.dll": [
            "GetObjectW",
            "DeleteDC",
            "GetStockObject",
            "CreateCompatibleBitmap",
            "CreateSolidBrush",
            "CreateFontIndirectW",
            "SetBkMode",
            "SetTextColor",
            "GetDIBits",
            "CreateCompatibleDC",
            "SelectObject",
            "BitBlt",
            "DeleteObject",
            "GetDeviceCaps"
        ],
        "ADVAPI32.dll": [
            "CryptAcquireContextW",
            "RegEnumKeyW",
            "RegQueryInfoKeyW",
            "RegDeleteKeyW",
            "RegEnumKeyExW",
            "RegOpenKeyExW",
            "RegDeleteValueW",
            "RegCloseKey",
            "RegCreateKeyExW",
            "RegSetValueExW",
            "CryptCreateHash",
            "CryptHashData",
            "CryptDestroyHash",
            "CryptGetHashParam",
            "RegQueryValueExW",
            "CryptReleaseContext"
        ],
        "SHELL32.dll": [
            "SHGetFolderPathW",
            "ShellExecuteW",
            "ShellExecuteExW"
        ],
        "ole32.dll": [
            "OleLockRunning",
            "CoGetClassObject",
            "OleUninitialize",
            "StringFromGUID2",
            "CoTaskMemRealloc",
            "CreateStreamOnHGlobal",
            "OleInitialize",
            "CLSIDFromString",
            "CLSIDFromProgID",
            "CoCreateGuid",
            "CoTaskMemFree",
            "CoCreateInstance",
            "CoTaskMemAlloc",
            "CoUninitialize",
            "CoInitialize"
        ],
        "OLEAUT32.dll": [
            "LoadTypeLib",
            "OleCreateFontIndirect",
            "VarBstrCat",
            "SysStringLen",
            "SysAllocStringLen",
            "LoadRegTypeLib",
            "VariantClear",
            "VarBstrCmp",
            "SysAllocString",
            "SysFreeString",
            "VariantInit",
            "VarUI4FromStr"
        ],
        "SHLWAPI.dll": [
            "UrlEscapeW",
            "UrlUnescapeW",
            "PathAppendW",
            "PathAddBackslashW"
        ],
        "WININET.dll": [
            "InternetCloseHandle",
            "HttpSendRequestW",
            "InternetCrackUrlW",
            "InternetOpenW",
            "HttpOpenRequestW",
            "InternetConnectW"
        ]
    }
}