{
    "hash": "0006937eb26d5dd10b69a6e129cc7ae18c789dc92497d9c44db32ca58398a90e",
    "section": [
        {
            "Name": "UPX0\u0000\u0000\u0000\u0000",
            "VirtualAddress": "0x1000",
            "Misc_VirtualSize": "0x23000",
            "SizeOfRawData": 0
        },
        {
            "Name": "UPX1\u0000\u0000\u0000\u0000",
            "VirtualAddress": "0x24000",
            "Misc_VirtualSize": "0x8000",
            "SizeOfRawData": 32256
        },
        {
            "Name": ".rsrc\u0000\u0000\u0000",
            "VirtualAddress": "0x2c000",
            "Misc_VirtualSize": "0x3000",
            "SizeOfRawData": 8704
        }
    ],
    "import": {
        "KERNEL32.DLL": [
            "LoadLibraryA",
            "ExitProcess",
            "GetProcAddress",
            "VirtualProtect"
        ],
        "MSVBVM60.DLL": []
    }
}