{
    "hash": "0007011b892a15c24752ba619d58af40c0bb7d838c0a0d0193b6630cacb8b113",
    "section": [
        {
            "Name": ".text\u0000\u0000\u0000",
            "VirtualAddress": "0x1000",
            "Misc_VirtualSize": "0x69a2",
            "SizeOfRawData": 28672
        },
        {
            "Name": ".rdata\u0000\u0000",
            "VirtualAddress": "0x8000",
            "Misc_VirtualSize": "0x993c8",
            "SizeOfRawData": 630784
        },
        {
            "Name": ".data\u0000\u0000\u0000",
            "VirtualAddress": "0xa2000",
            "Misc_VirtualSize": "0x1a578",
            "SizeOfRawData": 106496
        },
        {
            "Name": ".rsrc\u0000\u0000\u0000",
            "VirtualAddress": "0xbd000",
            "Misc_VirtualSize": "0x9aa0",
            "SizeOfRawData": 40960
        }
    ],
    "import": {
        "KERNEL32.dll": [
            "ResetEvent",
            "CreateThread",
            "GetFileAttributesW",
            "VirtualAlloc",
            "Sleep",
            "FindClose",
            "ResumeThread",
            "SetEvent",
            "CreateDirectoryW",
            "InterlockedExchange",
            "SetFileAttributesW",
            "GetLongPathNameW",
            "GetProcessHeap",
            "GetWindowsDirectoryA",
            "InterlockedIncrement",
            "VirtualFree",
            "RemoveDirectoryW",
            "SetThreadPriorityBoost",
            "LCMapStringA",
            "GetStringTypeW",
            "GetStringTypeA",
            "MultiByteToWideChar",
            "RaiseException",
            "LoadLibraryA",
            "GetOEMCP",
            "GetACP",
            "GetCPInfo",
            "WriteFile",
            "GetModuleHandleA",
            "GetStartupInfoA",
            "GetCommandLineA",
            "GetVersion",
            "ExitProcess",
            "GetProcAddress",
            "HeapReAlloc",
            "HeapAlloc",
            "TerminateProcess",
            "GetCurrentProcess",
            "HeapSize",
            "UnhandledExceptionFilter",
            "GetModuleFileNameA",
            "FreeEnvironmentStringsA",
            "FreeEnvironmentStringsW",
            "WideCharToMultiByte",
            "GetEnvironmentStrings",
            "GetEnvironmentStringsW",
            "SetHandleCount",
            "GetStdHandle",
            "GetFileType",
            "HeapDestroy",
            "HeapCreate",
            "HeapFree",
            "RtlUnwind",
            "LCMapStringW"
        ],
        "USER32.dll": [
            "MoveWindow",
            "GetWindowTextA",
            "ShowWindow",
            "ReleaseDC",
            "SwitchDesktop"
        ],
        "WinSCard.dll": [
            "SCardForgetReaderW",
            "SCardReconnect"
        ],
        "WS2_32.dll": [
            "recv"
        ]
    }
}