{
    "hash": "00072fe704e948aaf8b3de7b090916e87a72f074637baadf507807ff2dc54e5f",
    "section": [
        {
            "Name": ".text\u0000\u0000\u0000",
            "VirtualAddress": "0x2000",
            "Misc_VirtualSize": "0x1e9b4",
            "SizeOfRawData": 126976
        },
        {
            "Name": ".rsrc\u0000\u0000\u0000",
            "VirtualAddress": "0x22000",
            "Misc_VirtualSize": "0x2a8",
            "SizeOfRawData": 4096
        },
        {
            "Name": ".reloc\u0000\u0000",
            "VirtualAddress": "0x24000",
            "Misc_VirtualSize": "0xc",
            "SizeOfRawData": 4096
        }
    ],
    "import": {
        "mscoree.dll": [
            "_CorExeMain"
        ]
    }
}