{
    "hash": "0007ec26af0a094e186cc90fcfbb975b9678095e6375c8c6732f20b37065521b",
    "section": [
        {
            "Name": ".text\u0000\u0000\u0000",
            "VirtualAddress": "0x1000",
            "Misc_VirtualSize": "0x172e",
            "SizeOfRawData": 8192
        },
        {
            "Name": ".data\u0000\u0000\u0000",
            "VirtualAddress": "0x3000",
            "Misc_VirtualSize": "0x248",
            "SizeOfRawData": 4096
        },
        {
            "Name": ".rsrc\u0000\u0000\u0000",
            "VirtualAddress": "0x4000",
            "Misc_VirtualSize": "0x51030",
            "SizeOfRawData": 335872
        }
    ],
    "import": {
        "msvcrt.dll": [
            "__p__commode",
            "_adjust_fdiv",
            "__setusermatherr",
            "__p__fmode",
            "__getmainargs",
            "_acmdln",
            "exit",
            "__set_app_type",
            "_except_handler3",
            "_controlfp",
            "_initterm",
            "_cexit",
            "_XcptFilter",
            "_exit",
            "_c_exit",
            "setlocale",
            "mbstowcs"
        ],
        "ADVAPI32.dll": [
            "LookupPrivilegeValueW",
            "AdjustTokenPrivileges",
            "RegCreateKeyW",
            "RegSetValueExW",
            "RegOpenKeyW",
            "RegQueryValueExW",
            "RegCloseKey",
            "RegOpenKeyExW",
            "OpenProcessToken"
        ],
        "KERNEL32.dll": [
            "GetProcAddress",
            "LoadLibraryA",
            "VirtualAlloc",
            "GetTickCount",
            "QueryPerformanceCounter",
            "TerminateProcess",
            "GetModuleFileNameW",
            "GetShortPathNameW",
            "GetModuleHandleA",
            "GetStartupInfoA",
            "GetCurrentProcess",
            "UnhandledExceptionFilter",
            "lstrcatW",
            "lstrlenW",
            "DeleteFileW",
            "GetCurrentThreadId",
            "WriteFile",
            "CloseHandle",
            "GetLastError",
            "CreateSemaphoreW",
            "CreateFileW",
            "GetVersionExW"
        ],
        "USER32.dll": [
            "FindWindowW",
            "SetFocus",
            "SetForegroundWindow",
            "LoadStringW",
            "MessageBoxW",
            "ExitWindowsEx"
        ],
        "INETCFG.dll": [
            "_LaunchSignupWizard@12"
        ],
        "SHELL32.dll": [
            "SHGetPathFromIDListW",
            "SHGetSpecialFolderLocation",
            "SHGetMalloc"
        ]
    }
}