{
    "hash": "000708887d831b3fbdee58c389c2d30260a51df3d1555669697c653333cb2978",
    "section": [
        {
            "Name": "CODE\u0000\u0000\u0000\u0000",
            "VirtualAddress": "0x1000",
            "Misc_VirtualSize": "0x32000",
            "SizeOfRawData": 90624
        },
        {
            "Name": "DATA\u0000\u0000\u0000\u0000",
            "VirtualAddress": "0x33000",
            "Misc_VirtualSize": "0x1000",
            "SizeOfRawData": 1536
        },
        {
            "Name": "BSS\u0000\u0000\u0000\u0000\u0000",
            "VirtualAddress": "0x34000",
            "Misc_VirtualSize": "0x1000",
            "SizeOfRawData": 0
        },
        {
            "Name": ".idata\u0000\u0000",
            "VirtualAddress": "0x35000",
            "Misc_VirtualSize": "0x3000",
            "SizeOfRawData": 3584
        },
        {
            "Name": ".tls\u0000\u0000\u0000\u0000",
            "VirtualAddress": "0x38000",
            "Misc_VirtualSize": "0x1000",
            "SizeOfRawData": 0
        },
        {
            "Name": ".rdata\u0000\u0000",
            "VirtualAddress": "0x39000",
            "Misc_VirtualSize": "0x1000",
            "SizeOfRawData": 512
        },
        {
            "Name": ".reloc\u0000\u0000",
            "VirtualAddress": "0x3a000",
            "Misc_VirtualSize": "0x4000",
            "SizeOfRawData": 0
        },
        {
            "Name": ".rsrc\u0000\u0000\u0000",
            "VirtualAddress": "0x3e000",
            "Misc_VirtualSize": "0x17000",
            "SizeOfRawData": 30720
        },
        {
            "Name": ".aspack\u0000",
            "VirtualAddress": "0x55000",
            "Misc_VirtualSize": "0x2000",
            "SizeOfRawData": 6144
        },
        {
            "Name": ".data\u0000\u0000\u0000",
            "VirtualAddress": "0x57000",
            "Misc_VirtualSize": "0x1000",
            "SizeOfRawData": 0
        }
    ],
    "import": {
        "kernel32.dll": [
            "GetProcAddress",
            "GetModuleHandleA",
            "LoadLibraryA"
        ],
        "user32.dll": [
            "WindowFromPoint"
        ],
        "advapi32.dll": [
            "RegSetValueExA"
        ],
        "oleaut32.dll": [
            "GetErrorInfo"
        ],
        "gdi32.dll": [
            "UnrealizeObject"
        ],
        "ole32.dll": [
            "CoUninitialize"
        ],
        "comctl32.dll": [
            "ImageList_GetDragImage"
        ],
        "wsock32.dll": [
            "WSACleanup"
        ],
        "shell32.dll": [
            "ShellExecuteA"
        ],
        "winmm.dll": [
            "timeKillEvent"
        ]
    }
}