{
    "hash": "00075800bb8954f62516602224e6da108c23fa46a3f48bf25d9314f5273b674a",
    "section": [
        {
            "Name": ".text\u0000\u0000\u0000",
            "VirtualAddress": "0x1000",
            "Misc_VirtualSize": "0x2a0e",
            "SizeOfRawData": 12288
        },
        {
            "Name": ".rdata\u0000\u0000",
            "VirtualAddress": "0x4000",
            "Misc_VirtualSize": "0x4022",
            "SizeOfRawData": 20480
        },
        {
            "Name": ".data\u0000\u0000\u0000",
            "VirtualAddress": "0x9000",
            "Misc_VirtualSize": "0x74c",
            "SizeOfRawData": 4096
        },
        {
            "Name": ".rsrc\u0000\u0000\u0000",
            "VirtualAddress": "0xa000",
            "Misc_VirtualSize": "0x48e68",
            "SizeOfRawData": 299008
        }
    ],
    "import": {
        "KERNEL32.dll": [
            "UnmapViewOfFile",
            "CreateFileA",
            "VirtualQueryEx",
            "GetCurrentProcess",
            "MapViewOfFile",
            "CreateFileMappingA",
            "GetFileAttributesA",
            "FindClose",
            "FindNextFileA",
            "FindFirstFileA",
            "ReadFile",
            "CloseHandle",
            "GetTempPathA",
            "GetWindowsDirectoryA",
            "GetSystemDirectoryA",
            "LoadLibraryA",
            "FreeLibrary",
            "GetProcAddress",
            "GetCurrentProcessId",
            "GetCurrentThreadId",
            "GetTickCount",
            "QueryPerformanceCounter",
            "GetSystemInfo",
            "IsDebuggerPresent",
            "OutputDebugStringA",
            "SetFilePointer",
            "GetVersionExA",
            "SetUnhandledExceptionFilter",
            "UnhandledExceptionFilter",
            "TerminateProcess",
            "GetStartupInfoA",
            "InterlockedCompareExchange",
            "Sleep",
            "InterlockedExchange",
            "GetSystemTimeAsFileTime"
        ],
        "USER32.dll": [
            "FindWindowA",
            "SendMessageA",
            "MessageBoxA"
        ],
        "ADVAPI32.dll": [
            "RegOpenKeyA",
            "RegQueryValueExA",
            "RegCloseKey",
            "RegQueryValueA"
        ],
        "SHELL32.dll": [
            "SHGetSpecialFolderLocation",
            "SHGetPathFromIDListA",
            "SHGetMalloc"
        ],
        "MSVCP80.dll": [
            "??0?$basic_string@DU?$char_traits@D@std@@V?$allocator@D@2@@std@@QAE@XZ",
            "??0?$basic_string@DU?$char_traits@D@std@@V?$allocator@D@2@@std@@QAE@PBD@Z",
            "?append@?$basic_string@DU?$char_traits@D@std@@V?$allocator@D@2@@std@@QAEAAV12@PBD@Z",
            "?append@?$basic_string@DU?$char_traits@D@std@@V?$allocator@D@2@@std@@QAEAAV12@ABV12@@Z",
            "??0?$basic_string@DU?$char_traits@D@std@@V?$allocator@D@2@@std@@QAE@PBDI@Z",
            "?erase@?$basic_string@DU?$char_traits@D@std@@V?$allocator@D@2@@std@@QAEAAV12@II@Z",
            "?npos@?$basic_string@DU?$char_traits@D@std@@V?$allocator@D@2@@std@@2IB",
            "??4?$basic_string@DU?$char_traits@D@std@@V?$allocator@D@2@@std@@QAEAAV01@PBD@Z",
            "??1?$basic_string@DU?$char_traits@D@std@@V?$allocator@D@2@@std@@QAE@XZ",
            "?c_str@?$basic_string@DU?$char_traits@D@std@@V?$allocator@D@2@@std@@QBEPBDXZ",
            "??0?$basic_string@DU?$char_traits@D@std@@V?$allocator@D@2@@std@@QAE@ABV01@@Z",
            "??$?MDU?$char_traits@D@std@@V?$allocator@D@1@@std@@YA_NABV?$basic_string@DU?$char_traits@D@std@@V?$allocator@D@2@@0@0@Z"
        ],
        "MSVCR80.dll": [
            "??0exception@std@@QAE@ABQBDH@Z",
            "?what@exception@std@@UBEPBDXZ",
            "??3@YAXPAX@Z",
            "??0exception@std@@QAE@XZ",
            "_invalid_parameter_noinfo",
            "??2@YAPAXI@Z",
            "_CxxThrowException",
            "??0exception@std@@QAE@ABV01@@Z",
            "??_V@YAXPAX@Z",
            "strchr",
            "strrchr",
            "free",
            "strcpy",
            "malloc",
            "strlen",
            "strcmp",
            "?terminate@@YAXXZ",
            "??0exception@std@@QAE@ABQBD@Z",
            "__getmainargs",
            "_cexit",
            "_exit",
            "_XcptFilter",
            "_ismbblead",
            "exit",
            "_acmdln",
            "_initterm",
            "_initterm_e",
            "_configthreadlocale",
            "__setusermatherr",
            "_adjust_fdiv",
            "__p__commode",
            "__p__fmode",
            "_encode_pointer",
            "__set_app_type",
            "_crt_debugger_hook",
            "?_type_info_dtor_internal_method@type_info@@QAEXXZ",
            "_except_handler4_common",
            "_unlock",
            "__dllonexit",
            "_lock",
            "_onexit",
            "_decode_pointer",
            "_invoke_watson",
            "_controlfp_s",
            "__CxxFrameHandler3",
            "_snprintf",
            "_amsg_exit",
            "??1exception@std@@UAE@XZ"
        ]
    }
}