{
    "hash": "0007f3ef356b58cadc6550b64a2c0995aab9eaffb9ffea93007f97637c80e2a7",
    "section": [
        {
            "Name": ".text\u0000\u0000\u0000",
            "VirtualAddress": "0x1000",
            "Misc_VirtualSize": "0x816ca",
            "SizeOfRawData": 530432
        },
        {
            "Name": ".data\u0000\u0000\u0000",
            "VirtualAddress": "0x83000",
            "Misc_VirtualSize": "0x2de00",
            "SizeOfRawData": 8704
        },
        {
            "Name": ".rsrc\u0000\u0000\u0000",
            "VirtualAddress": "0xb1000",
            "Misc_VirtualSize": "0x21400",
            "SizeOfRawData": 136192
        }
    ],
    "import": {
        "KERNEL32.dll": [
            "SetUnhandledExceptionFilter",
            "SetEnvironmentVariableA",
            "GetSystemInfo",
            "lstrlenA",
            "FreeResource",
            "LockResource",
            "LoadResource",
            "FindResourceA",
            "LoadLibraryExA",
            "GetTempPathA",
            "GetCurrentProcess",
            "GetDiskFreeSpaceExA",
            "GetDiskFreeSpaceA",
            "GetCompressedFileSizeA",
            "GetComputerNameA",
            "ReleaseSemaphore",
            "SetEndOfFile",
            "InterlockedDecrement",
            "GetCurrentThread",
            "GetExitCodeThread",
            "CreateSemaphoreA",
            "MoveFileA",
            "InterlockedCompareExchange",
            "QueryPerformanceCounter",
            "GetCurrentThreadId",
            "GetCurrentProcessId",
            "GetSystemTimeAsFileTime",
            "TerminateProcess",
            "CreateThread",
            "GetStartupInfoA",
            "HeapCreate",
            "HeapDestroy",
            "DosDateTimeToFileTime",
            "LocalFileTimeToFileTime",
            "GlobalAlloc",
            "GlobalLock",
            "GlobalHandle",
            "GlobalUnlock",
            "GlobalFree",
            "SetThreadPriority",
            "OpenFileMappingA",
            "ExitProcess",
            "DuplicateHandle",
            "GetSystemDefaultLangID",
            "GetModuleFileNameW",
            "ReleaseMutex",
            "CopyFileW",
            "lstrlenW",
            "GetTempFileNameW",
            "GetVersionExW",
            "ExpandEnvironmentStringsW",
            "SearchPathW",
            "lstrcpyW",
            "lstrcpynW",
            "GetDriveTypeW",
            "GetLocalTime",
            "OpenEventA",
            "GetFileSizeEx",
            "CreateRemoteThread",
            "VirtualAllocEx",
            "SetFileTime",
            "CreateEventW",
            "lstrcpyA",
            "QueryDosDeviceA",
            "DefineDosDeviceA",
            "lstrcpynA",
            "GetFullPathNameW",
            "LoadLibraryW",
            "FindFirstFileW",
            "lstrcmpiW",
            "FindNextFileW",
            "MapViewOfFileEx",
            "CreateProcessA",
            "GetExitCodeProcess",
            "FlushFileBuffers",
            "CreateFileW",
            "DeleteFileW",
            "GetFileTime",
            "HeapFree",
            "GetProcessHeap",
            "HeapAlloc",
            "FlushViewOfFile",
            "DelayLoadFailureHook",
            "GetFullPathNameA",
            "GetVolumeInformationA",
            "lstrcmpA",
            "GetWindowsDirectoryW",
            "GetVolumeInformationW",
            "SetErrorMode",
            "CreateMutexA",
            "CreateProcessW",
            "TerminateThread",
            "WaitForSingleObject",
            "SetEvent",
            "RemoveDirectoryA",
            "EnterCriticalSection",
            "LeaveCriticalSection",
            "FileTimeToLocalFileTime",
            "FileTimeToSystemTime",
            "DeviceIoControl",
            "GetFileAttributesExA",
            "VirtualFree",
            "SetCurrentDirectoryA",
            "GetModuleFileNameA",
            "GetEnvironmentVariableA",
            "InitializeCriticalSection",
            "Sleep",
            "GetPrivateProfileStringA",
            "VirtualAlloc",
            "SetFilePointer",
            "WriteFile",
            "GetSystemDirectoryA",
            "GetTempFileNameA",
            "CopyFileA",
            "OpenProcess",
            "MoveFileExA",
            "SetFileAttributesA",
            "GetVersionExA",
            "LocalAlloc",
            "LocalFree",
            "CreateFileA",
            "GetFileSize",
            "CreateFileMappingA",
            "MapViewOfFile",
            "UnmapViewOfFile",
            "CloseHandle",
            "GetThreadLocale",
            "GetLocaleInfoA",
            "GetDriveTypeA",
            "FindFirstFileA",
            "FindNextFileA",
            "FindClose",
            "GetFileInformationByHandle",
            "FileTimeToDosDateTime",
            "GetModuleHandleA",
            "FormatMessageW",
            "ReadFile",
            "GetTickCount",
            "WriteProcessMemory",
            "CreateEventA",
            "MultiByteToWideChar",
            "WideCharToMultiByte",
            "lstrcmpiA",
            "ExpandEnvironmentStringsA",
            "FormatMessageA",
            "SetLastError",
            "GetFileAttributesA",
            "CreateDirectoryA",
            "GetSystemDirectoryW",
            "LoadLibraryA",
            "GetLastError",
            "GetProcAddress",
            "GetWindowsDirectoryA",
            "DeleteFileA",
            "RaiseException",
            "FreeLibrary",
            "DeleteCriticalSection",
            "RtlUnwind",
            "InitializeCriticalSectionAndSpinCount",
            "GetSystemTime",
            "VirtualProtect",
            "FlushInstructionCache"
        ],
        "SHELL32.dll": [
            "SHGetPathFromIDListA",
            "SHBrowseForFolderA",
            "SHGetMalloc",
            "SHGetSpecialFolderPathA"
        ],
        "COMCTL32.dll": [
            "PropertySheetW"
        ],
        "USER32.dll": [
            "SetForegroundWindow",
            "SystemParametersInfoA",
            "GetDC",
            "ReleaseDC",
            "CheckDlgButton",
            "IsDlgButtonChecked",
            "LoadBitmapA",
            "SetDlgItemTextW",
            "PostMessageA",
            "EnumChildWindows",
            "GetWindowTextA",
            "GetWindowLongA",
            "SetWindowLongA",
            "RedrawWindow",
            "SetWindowTextA",
            "PostThreadMessageA",
            "GetMessageA",
            "TranslateMessage",
            "DispatchMessageA",
            "GetDlgItem",
            "EnableWindow",
            "ShowWindow",
            "SetDlgItemTextA",
            "SendMessageA",
            "DestroyWindow",
            "PostQuitMessage",
            "MessageBoxA",
            "LoadStringW",
            "LoadStringA",
            "GetSystemMetrics",
            "SetFocus",
            "GetDesktopWindow",
            "SetWindowTextW",
            "MessageBoxW",
            "DefWindowProcA",
            "CreateWindowExA",
            "RegisterClassA",
            "wvsprintfW",
            "EndDialog",
            "DialogBoxParamA"
        ],
        "ntdll.dll": [
            "mbstowcs",
            "sprintf",
            "strrchr",
            "_stricmp",
            "strchr",
            "_chkstk",
            "strncpy",
            "_snprintf",
            "_strcmpi",
            "_itoa",
            "_snwprintf",
            "wcscpy",
            "swprintf",
            "wcslen",
            "_strnicmp",
            "NtQuerySystemTime",
            "memchr",
            "_allmul",
            "strstr",
            "_strlwr",
            "RtlFreeUnicodeString",
            "RtlAnsiStringToUnicodeString",
            "RtlInitAnsiString",
            "RtlFreeAnsiString",
            "RtlUnicodeStringToAnsiString",
            "RtlInitUnicodeString",
            "strtoul",
            "_strupr",
            "strncmp",
            "_alldiv",
            "memmove",
            "vsprintf",
            "strncat",
            "wcscat",
            "_vsnprintf",
            "_memicmp",
            "atoi",
            "_aulldiv",
            "RtlUnwind",
            "NtClose",
            "NtAdjustPrivilegesToken",
            "NtOpenProcessToken",
            "NtQuerySystemInformation",
            "NtQueryInformationProcess",
            "RtlCharToInteger",
            "LdrAccessResource",
            "LdrFindResource_U",
            "NtShutdownSystem",
            "RtlFreeHeap",
            "RtlAllocateHeap",
            "RtlRaiseStatus",
            "NtYieldExecution",
            "NtSetSystemInformation",
            "NtCreateSection",
            "NtOpenFile",
            "NtOpenSection",
            "NtOpenDirectoryObject",
            "RtlCompareUnicodeString",
            "NtCreateFile",
            "RtlDosPathNameToNtPathName_U",
            "LdrUnloadDll",
            "NtFreeVirtualMemory",
            "NtQueryInformationThread",
            "NtWaitForSingleObject",
            "RtlCreateUserThread",
            "NtWriteVirtualMemory",
            "NtAllocateVirtualMemory",
            "NtOpenProcess",
            "LdrGetProcedureAddress",
            "LdrLoadDll",
            "RtlDestroyHeap",
            "RtlSetDaclSecurityDescriptor",
            "RtlCreateSecurityDescriptor",
            "RtlGetAce",
            "RtlAddAccessAllowedAce",
            "RtlCreateAcl",
            "RtlLengthSid",
            "RtlAllocateAndInitializeSid",
            "RtlCreateHeap",
            "DbgPrint",
            "RtlTimeToTimeFields"
        ],
        "MPR.dll": [
            "WNetGetUserA",
            "WNetGetUniversalNameA"
        ],
        "VERSION.dll": [
            "GetFileVersionInfoW",
            "GetFileVersionInfoA",
            "VerQueryValueW",
            "VerQueryValueA",
            "GetFileVersionInfoSizeW",
            "GetFileVersionInfoSizeA"
        ],
        "PSAPI.DLL": [
            "GetModuleFileNameExA"
        ],
        "ole32.dll": [
            "CoInitialize",
            "CoUninitialize",
            "CoCreateInstance"
        ],
        "OLEAUT32.dll": [
            "SysFreeString"
        ],
        "WINSPOOL.DRV": [
            "GetPrinterDriverDirectoryA"
        ],
        "CRYPT32.dll": [
            "CertSetCertificateContextProperty",
            "CertOpenStore",
            "CertCloseStore",
            "CertFreeCertificateContext",
            "CertCreateCertificateContext",
            "CertAddCertificateContextToStore",
            "CryptEncodeObject"
        ],
        "msvcrt.dll": [
            "calloc",
            "getenv",
            "_wcsdup",
            "malloc",
            "free",
            "_errno",
            "_open",
            "wcscmp",
            "_read",
            "_write",
            "_lseek",
            "remove",
            "_tempnam",
            "rename",
            "ctime",
            "realloc",
            "_vsnwprintf",
            "strcspn",
            "wcsrchr",
            "isdigit",
            "wcsncat",
            "wcsncpy",
            "_wcslwr",
            "_controlfp",
            "?terminate@@YAXXZ",
            "??1type_info@@UAE@XZ",
            "__set_app_type",
            "__p__fmode",
            "__p__commode",
            "_adjust_fdiv",
            "__setusermatherr",
            "_initterm",
            "__getmainargs",
            "_acmdln",
            "_cexit",
            "_XcptFilter",
            "_exit",
            "_c_exit",
            "_ltoa",
            "_ultoa",
            "wcschr",
            "fprintf",
            "fopen",
            "_close",
            "??2@YAPAXI@Z",
            "fclose",
            "_CxxThrowException",
            "??0exception@@QAE@ABV0@@Z",
            "??3@YAXPAX@Z",
            "__CxxFrameHandler",
            "??0exception@@QAE@ABQBD@Z",
            "??1exception@@UAE@XZ",
            "?what@exception@@UBEPBDXZ",
            "_itow",
            "exit",
            "wcstoul",
            "_wcsicmp",
            "_wtoi64",
            "isspace",
            "strpbrk",
            "atol",
            "strspn",
            "_strdup",
            "toupper"
        ],
        "ADVAPI32.dll": [
            "RegCloseKey",
            "InitializeSecurityDescriptor",
            "AllocateAndInitializeSid",
            "SetSecurityDescriptorOwner",
            "CloseServiceHandle",
            "ControlService",
            "StartServiceA",
            "OpenServiceA",
            "OpenSCManagerA",
            "RegDeleteValueA",
            "RegOpenKeyA",
            "GetServiceDisplayNameA",
            "QueryServiceStatus",
            "SetFileSecurityA",
            "AddAccessAllowedAce",
            "InitializeAcl",
            "RegSetKeySecurity",
            "FreeSid",
            "EnumDependentServicesA",
            "RegFlushKey",
            "RegSaveKeyA",
            "RegQueryInfoKeyA",
            "RegEnumKeyExA",
            "RegDeleteKeyA",
            "AddAce",
            "SetFileSecurityW",
            "GetAclInformation",
            "CopySid",
            "GetLengthSid",
            "AdjustTokenPrivileges",
            "RegUnLoadKeyA",
            "RegCreateKeyExA",
            "RegSetValueExA",
            "RegOpenKeyExA",
            "RegLoadKeyA",
            "OpenProcessToken",
            "DeregisterEventSource",
            "ReportEventA",
            "RegisterEventSourceA",
            "GetTokenInformation",
            "SetNamedSecurityInfoA",
            "GetNamedSecurityInfoA",
            "UnlockServiceDatabase",
            "ChangeServiceConfigA",
            "QueryServiceConfigA",
            "LockServiceDatabase",
            "GetFileSecurityA",
            "RegQueryValueExW",
            "RegOpenKeyExW",
            "RegSetValueExW",
            "RegCreateKeyExW",
            "AbortSystemShutdownA",
            "InitiateSystemShutdownA",
            "OpenServiceW",
            "SetSecurityDescriptorDacl",
            "RegQueryValueExA"
        ],
        "GDI32.dll": [
            "StretchBlt",
            "GetDIBits",
            "CreateCompatibleDC",
            "DeleteObject",
            "CreateFontIndirectA",
            "GetDeviceCaps",
            "BitBlt",
            "SelectObject"
        ],
        "USERENV.dll": [],
        "RPCRT4.dll": [
            "UuidFromStringA"
        ]
    }
}