{
    "hash": "0007aa3f1b37d3e8db8228b4e265baa3605d177e1c43012cf6c2a3755cf37231",
    "section": [
        {
            "Name": ".text\u0000\u0000\u0000",
            "VirtualAddress": "0x1000",
            "Misc_VirtualSize": "0x1a8a",
            "SizeOfRawData": 7168
        },
        {
            "Name": ".rdata\u0000\u0000",
            "VirtualAddress": "0x3000",
            "Misc_VirtualSize": "0x1058",
            "SizeOfRawData": 4608
        },
        {
            "Name": ".data\u0000\u0000\u0000",
            "VirtualAddress": "0x5000",
            "Misc_VirtualSize": "0x7c0",
            "SizeOfRawData": 512
        },
        {
            "Name": ".rsrc\u0000\u0000\u0000",
            "VirtualAddress": "0x6000",
            "Misc_VirtualSize": "0x28f40",
            "SizeOfRawData": 167936
        },
        {
            "Name": ".reloc\u0000\u0000",
            "VirtualAddress": "0x2f000",
            "Misc_VirtualSize": "0x528",
            "SizeOfRawData": 1536
        }
    ],
    "import": {
        "KERNEL32.dll": [
            "LockResource",
            "BeginUpdateResourceA",
            "UpdateResourceW",
            "ExitProcess",
            "CreateProcessW",
            "CreateDirectoryA",
            "FindFirstFileA",
            "GetLastError",
            "CopyFileA",
            "GetModuleFileNameA",
            "FindNextFileA",
            "lstrcatW",
            "CloseHandle",
            "LoadLibraryA",
            "DeleteFileA",
            "InterlockedExchange",
            "GetSystemTimeAsFileTime",
            "GetCurrentProcessId",
            "GetCurrentThreadId",
            "GetTickCount",
            "QueryPerformanceCounter",
            "IsDebuggerPresent",
            "SetUnhandledExceptionFilter",
            "UnhandledExceptionFilter",
            "GetCurrentProcess",
            "TerminateProcess",
            "SizeofResource",
            "EndUpdateResourceW",
            "LoadResource",
            "FreeLibrary",
            "GetTempPathA",
            "FindResourceW",
            "GetStartupInfoW",
            "InterlockedCompareExchange",
            "Sleep"
        ],
        "USER32.dll": [
            "GetMessageW",
            "PostQuitMessage",
            "PostMessageW",
            "TranslateMessage",
            "LoadIconW",
            "ShowWindow",
            "CreateWindowExW",
            "DefWindowProcW",
            "DispatchMessageW",
            "RegisterClassExW"
        ],
        "ADVAPI32.dll": [
            "OpenServiceW",
            "OpenSCManagerW"
        ],
        "SHELL32.dll": [
            "ShellExecuteA"
        ],
        "MSVCR90.dll": [
            "mbstowcs",
            "sprintf",
            "malloc",
            "rewind",
            "fputs",
            "fflush",
            "atoi",
            "fgets",
            "fopen",
            "fread",
            "fwrite",
            "strrchr",
            "ftell",
            "fseek",
            "fclose",
            "_amsg_exit",
            "__wgetmainargs",
            "_cexit",
            "_exit",
            "_XcptFilter",
            "exit",
            "_wcmdln",
            "_initterm",
            "_initterm_e",
            "_configthreadlocale",
            "__setusermatherr",
            "_adjust_fdiv",
            "__p__commode",
            "__p__fmode",
            "_encode_pointer",
            "__set_app_type",
            "_crt_debugger_hook",
            "?terminate@@YAXXZ",
            "_unlock",
            "__dllonexit",
            "_lock",
            "_onexit",
            "_decode_pointer",
            "_except_handler4_common",
            "_invoke_watson",
            "_controlfp_s",
            "memset",
            "free",
            "memcpy"
        ]
    }
}