{
    "hash": "0008b408d852e00c88e61d95d6ba9cf45b46cc8ce3e5a379fd5a7267f649782d",
    "section": [
        {
            "Name": ".text\u0000\u0000\u0000",
            "VirtualAddress": "0x1000",
            "Misc_VirtualSize": "0x7916",
            "SizeOfRawData": 31232
        },
        {
            "Name": ".data\u0000\u0000\u0000",
            "VirtualAddress": "0x9000",
            "Misc_VirtualSize": "0x190",
            "SizeOfRawData": 512
        },
        {
            "Name": ".rsrc\u0000\u0000\u0000",
            "VirtualAddress": "0xa000",
            "Misc_VirtualSize": "0x1a58",
            "SizeOfRawData": 7168
        }
    ],
    "import": {
        "msvcrt.dll": [
            "_controlfp",
            "_except_handler3",
            "__set_app_type",
            "__p__fmode",
            "__p__commode",
            "_adjust_fdiv",
            "__setusermatherr",
            "_initterm",
            "__getmainargs",
            "_acmdln",
            "exit",
            "_cexit",
            "_XcptFilter",
            "_exit",
            "_c_exit"
        ],
        "ADVAPI32.dll": [
            "RegCloseKey",
            "OpenProcessToken",
            "GetUserNameW",
            "RegCreateKeyExW",
            "RegDeleteKeyW",
            "RegDeleteValueW",
            "RegEnumKeyExW",
            "RegOpenKeyExW",
            "RegQueryValueExW",
            "RegSetValueExW",
            "RevertToSelf",
            "CreateProcessAsUserW",
            "ImpersonateLoggedOnUser"
        ],
        "KERNEL32.dll": [
            "WritePrivateProfileStringW",
            "FreeLibrary",
            "GetProcAddress",
            "GetTickCount",
            "CloseHandle",
            "GetExitCodeProcess",
            "SetProcessWorkingSetSize",
            "lstrcmpiW",
            "OpenProcess",
            "HeapFree",
            "GetProcessHeap",
            "LoadLibraryW",
            "lstrlenW",
            "SetCurrentDirectoryW",
            "Sleep",
            "CreateThread",
            "GetCurrentThreadId",
            "DeviceIoControl",
            "LoadLibraryExA",
            "SetEvent",
            "MapViewOfFile",
            "ExitProcess",
            "GetModuleHandleA",
            "lstrlenA",
            "WaitForSingleObject",
            "LockResource",
            "LoadResource",
            "LocalFree",
            "LocalAlloc",
            "GetLastError",
            "CreateEventA",
            "OpenEventA",
            "GetNumberFormatA",
            "GetLocaleInfoA",
            "QueryPerformanceCounter",
            "GetSystemTimeAsFileTime",
            "TerminateProcess",
            "GetCurrentProcess",
            "UnhandledExceptionFilter",
            "SetUnhandledExceptionFilter",
            "GetStartupInfoA",
            "GetCurrentProcessId",
            "UnmapViewOfFile",
            "SearchPathW",
            "OpenFileMappingW",
            "OpenEventW",
            "lstrcpynW",
            "GetProfileStringW",
            "lstrcmpW",
            "lstrcatW",
            "LoadLibraryExW",
            "GetVersionExW",
            "GetTimeFormatW",
            "GetTempPathW",
            "GetTempFileNameW",
            "GetSystemDirectoryW",
            "GetStringTypeExW",
            "GetPrivateProfileStringW",
            "GetPrivateProfileIntW",
            "GetModuleHandleW",
            "GetModuleFileNameW",
            "GetFileAttributesW",
            "lstrcpyW",
            "GetDateFormatW",
            "FindResourceExW",
            "ExpandEnvironmentStringsW",
            "DeleteFileW",
            "CreateProcessW",
            "CreateMutexW",
            "CreateFileMappingW",
            "CreateFileW",
            "CreateEventW",
            "CreateDirectoryW",
            "GetVersionExA"
        ],
        "GDI32.dll": [
            "DeleteObject"
        ],
        "USER32.dll": [
            "EnumThreadWindows",
            "GetWindowThreadProcessId",
            "DestroyMenu",
            "GetMenuItemCount",
            "GetSubMenu",
            "wsprintfA",
            "LoadCursorW",
            "LoadIconW",
            "LoadImageW",
            "LoadMenuW",
            "IsDialogMessageW",
            "LoadStringW",
            "PeekMessageW",
            "PostMessageW",
            "PostThreadMessageW",
            "RegisterClassExW",
            "RegisterWindowMessageW",
            "SendDlgItemMessageW",
            "SendMessageW",
            "SetDlgItemTextW",
            "SetWindowLongW",
            "SetWindowTextW",
            "UnregisterClassW",
            "WinHelpW",
            "wsprintfW",
            "wvsprintfW",
            "SendMessageA",
            "GetParent",
            "SetDlgItemTextA",
            "SendDlgItemMessageA",
            "GetDlgItem",
            "RegisterWindowMessageA",
            "PostMessageA",
            "MessageBoxW",
            "GetProcessWindowStation",
            "GetThreadDesktop",
            "GetUserObjectInformationW",
            "ScreenToClient",
            "ChildWindowFromPointEx",
            "GetDlgCtrlID",
            "MsgWaitForMultipleObjects",
            "TranslateMessage",
            "IsWindow",
            "IsWindowVisible",
            "GetWindowRect",
            "SystemParametersInfoA",
            "SetWindowPos",
            "GetCursorPos",
            "DestroyWindow",
            "SetMenuDefaultItem",
            "TrackPopupMenu",
            "ShowWindow",
            "EnableWindow",
            "GetLastActivePopup",
            "SetForegroundWindow",
            "EndDialog",
            "InsertMenuW",
            "GetWindowTextLengthW",
            "GetWindowTextW",
            "GetWindowLongW",
            "GetMessageW",
            "GetDlgItemTextW",
            "GetClassLongW",
            "FindWindowExW",
            "DispatchMessageW",
            "DialogBoxParamW",
            "DefWindowProcW",
            "CreateWindowExW",
            "CreateDialogParamW",
            "CharUpperW",
            "CharNextW",
            "CharPrevW",
            "CharLowerW",
            "PostQuitMessage",
            "CallWindowProcW"
        ],
        "cmutil.dll": [
            "CmAtolA",
            "CmIsDigitA",
            "ReleaseBold",
            "CmFmtMsgA",
            "MakeBold",
            "UpdateFont",
            "GetOSBuildNumber",
            "CmWinHelp",
            "CmLoadStringW",
            "CmStrCatAllocW",
            "??0CmLogFile@@QAE@XZ",
            "??0CIniW@@QAE@PAUHINSTANCE__@@PBG111@Z",
            "?GetPrimaryRegPath@CIniW@@QBEPBGXZ",
            "CmStrCpyAllocW",
            "?SetPrimaryRegPath@CIniW@@QAEXPBG@Z",
            "?Init@CmLogFile@@QAEJPAUHINSTANCE__@@HPBG@Z",
            "?SetParams@CmLogFile@@QAEJHKPBG@Z",
            "?Start@CmLogFile@@QAEJH@Z",
            "?Stop@CmLogFile@@QAEJXZ",
            "?Log@CmLogFile@@QAAXW4_CMLOG_ITEM@@ZZ",
            "CmFmtMsgW",
            "?GPPI@CIniW@@QBEKPBG0K@Z",
            "?DeInit@CmLogFile@@QAEJXZ",
            "??1CIniW@@QAE@XZ",
            "??1CmLogFile@@QAE@XZ",
            "CmLoadIconW",
            "CmLoadSmallIconW",
            "CmParsePathW",
            "IsLogonAsSystem",
            "?GPPB@CIniW@@QBEHPBG0H@Z",
            "?Clear@CIniW@@QAEXXZ",
            "?SetHInst@CIniW@@QAEXPAUHINSTANCE__@@@Z",
            "?SetFile@CIniW@@QAEXPBG@Z",
            "?GPPS@CIniW@@QBEPAGPBG00@Z",
            "?GetFile@CIniW@@QBEPBGXZ",
            "CmBuildFullPathFromRelativeW",
            "?SetPrimaryFile@CIniW@@QAEXPBG@Z",
            "SzToWz",
            "GetOSMajorVersion",
            "CmMalloc",
            "CmFree",
            "GetOSVersion"
        ]
    }
}