{
    "hash": "00089f63dd004e301f8409aa4a08c11d65be3a3985e43f1e75e700d028f87d0f",
    "section": [
        {
            "Name": ".text\u0000\u0000\u0000",
            "VirtualAddress": "0x2000",
            "Misc_VirtualSize": "0x328b4",
            "SizeOfRawData": 208896
        },
        {
            "Name": ".rsrc\u0000\u0000\u0000",
            "VirtualAddress": "0x36000",
            "Misc_VirtualSize": "0x298",
            "SizeOfRawData": 4096
        },
        {
            "Name": ".reloc\u0000\u0000",
            "VirtualAddress": "0x38000",
            "Misc_VirtualSize": "0xc",
            "SizeOfRawData": 4096
        }
    ],
    "import": {
        "mscoree.dll": [
            "_CorExeMain"
        ]
    }
}