{
    "hash": "00089a197f41fb44fcdb933bfe0ef245fa619208deb248985856156794fedc6b",
    "section": [
        {
            "Name": "UPX0\u0000\u0000\u0000\u0000",
            "VirtualAddress": "0x1000",
            "Misc_VirtualSize": "0x505000",
            "SizeOfRawData": 5263360
        },
        {
            "Name": "UPX1\u0000\u0000\u0000\u0000",
            "VirtualAddress": "0x506000",
            "Misc_VirtualSize": "0x469000",
            "SizeOfRawData": 4622336
        },
        {
            "Name": ".rsrc\u0000\u0000\u0000",
            "VirtualAddress": "0x96f000",
            "Misc_VirtualSize": "0x1e000",
            "SizeOfRawData": 121344
        },
        {
            "Name": ".imports",
            "VirtualAddress": "0x98d000",
            "Misc_VirtualSize": "0x3000",
            "SizeOfRawData": 11776
        },
        {
            "Name": ".reloc\u0000\u0000",
            "VirtualAddress": "0x990000",
            "Misc_VirtualSize": "0x21000",
            "SizeOfRawData": 133632
        }
    ],
    "import": {
        "KERNEL32.DLL": [
            "GetVolumeInformationW",
            "GetSystemDirectoryW",
            "GetComputerNameW",
            "LocalAlloc",
            "ReadDirectoryChangesW",
            "FormatMessageA",
            "GetSystemTime",
            "SystemTimeToFileTime",
            "LockFileEx",
            "UnlockFile",
            "HeapCompact",
            "GetSystemInfo",
            "DeleteFileA",
            "WaitForSingleObjectEx",
            "LoadLibraryA",
            "CreateFileA",
            "FlushViewOfFile",
            "GetFileAttributesA",
            "GetDiskFreeSpaceA",
            "FormatMessageW",
            "GetTempPathA",
            "HeapValidate",
            "UnlockFileEx",
            "SetEndOfFile",
            "GetFullPathNameA",
            "LockFile",
            "OutputDebugStringA",
            "GetDiskFreeSpaceW",
            "HeapCreate",
            "AreFileApisANSI",
            "InitializeCriticalSection",
            "TryEnterCriticalSection",
            "GetSystemFirmwareTable",
            "QueryDosDeviceW",
            "TerminateProcess",
            "VirtualAlloc",
            "VirtualFree",
            "ReadProcessMemory",
            "CreateToolhelp32Snapshot",
            "Process32FirstW",
            "Process32NextW",
            "SetEnvironmentVariableW",
            "GetDriveTypeW",
            "GetLogicalDrives",
            "GetWindowsDirectoryW",
            "GetNativeSystemInfo",
            "IsWow64Process",
            "DeviceIoControl",
            "ResumeThread",
            "FreeResource",
            "lstrcpynW",
            "GetCurrentDirectoryW",
            "LocalFileTimeToFileTime",
            "SetFileTime",
            "GetFileInformationByHandle",
            "GetLocalTime",
            "WideCharToMultiByte",
            "MultiByteToWideChar",
            "OutputDebugStringW",
            "FlushFileBuffers",
            "WriteConsoleW",
            "SetStdHandle",
            "FreeEnvironmentStringsW",
            "GetEnvironmentStringsW",
            "GetCommandLineA",
            "GetOEMCP",
            "GetACP",
            "IsValidCodePage",
            "GetPrivateProfileSectionNamesW",
            "ReadConsoleW",
            "DeleteTimerQueueTimer",
            "GetConsoleCP",
            "EnumSystemLocalesW",
            "TerminateThread",
            "IsValidLocale",
            "GetTimeFormatW",
            "GetDateFormatW",
            "GetTimeZoneInformation",
            "GetFileType",
            "GetStdHandle",
            "MoveFileExW",
            "ExitThread",
            "ExitProcess",
            "RtlUnwind",
            "WaitForMultipleObjectsEx",
            "UnregisterWaitEx",
            "QueryDepthSList",
            "InterlockedFlushSList",
            "SetProcessAffinityMask",
            "VirtualProtect",
            "FreeLibraryAndExitThread",
            "GetThreadTimes",
            "UnregisterWait",
            "RegisterWaitForSingleObject",
            "SetThreadAffinityMask",
            "GetProcessAffinityMask",
            "GetNumaHighestNodeNumber",
            "ChangeTimerQueueTimer",
            "GetLogicalProcessorInformation",
            "GetThreadPriority",
            "SetThreadPriority",
            "CreateThread",
            "SignalObjectAndWait",
            "CreateTimerQueue",
            "GetProcessTimes",
            "CreateSemaphoreW",
            "ReleaseSemaphore",
            "GetModuleHandleA",
            "GetModuleFileNameA",
            "CreateFileMappingA",
            "GetFileSizeEx",
            "GetStartupInfoW",
            "UnhandledExceptionFilter",
            "LCMapStringW",
            "CompareStringW",
            "GetCPInfo",
            "TlsFree",
            "TlsSetValue",
            "TlsGetValue",
            "TlsAlloc",
            "InitializeCriticalSectionAndSpinCount",
            "CreateHardLinkW",
            "SetFilePointerEx",
            "GetDiskFreeSpaceExW",
            "FindFirstFileExW",
            "RtlCaptureStackBackTrace",
            "GetModuleHandleExW",
            "QueueUserWorkItem",
            "GetExitCodeThread",
            "SwitchToThread",
            "DuplicateHandle",
            "QueryPerformanceFrequency",
            "GetStringTypeW",
            "LoadLibraryExA",
            "IsProcessorFeaturePresent",
            "FlushInstructionCache",
            "InterlockedPushEntrySList",
            "InterlockedPopEntrySList",
            "InitializeSListHead",
            "EncodePointer",
            "IsDebuggerPresent",
            "GetConsoleMode",
            "CreateTimerQueueTimer",
            "WTSGetActiveConsoleSessionId",
            "lstrcmpW",
            "MulDiv",
            "GlobalHandle",
            "SetCurrentDirectoryW",
            "CreateNamedPipeW",
            "DisconnectNamedPipe",
            "ConnectNamedPipe",
            "UnmapViewOfFile",
            "WritePrivateProfileStringW",
            "GetPrivateProfileStringW",
            "MoveFileW",
            "CopyFileW",
            "lstrlenW",
            "SetLastError",
            "SetFileAttributesW",
            "MapViewOfFile",
            "CreateFileMappingW",
            "VirtualQuery",
            "GetCurrentThread",
            "lstrcmpiW",
            "LoadLibraryW",
            "LoadLibraryExW",
            "FreeLibrary",
            "GetCurrentThreadId",
            "GetCurrentProcessId",
            "CreateMutexW",
            "QueryPerformanceCounter",
            "CreateEventW",
            "ResetEvent",
            "SetEvent",
            "GetCommandLineW",
            "GetTickCount",
            "lstrcpyW",
            "GetExitCodeProcess",
            "GetUserDefaultLCID",
            "Sleep",
            "RemoveDirectoryW",
            "GetFullPathNameW",
            "GetFileAttributesW",
            "FindNextFileW",
            "FindFirstFileW",
            "FindClose",
            "GetFileTime",
            "SetUnhandledExceptionFilter",
            "GetLocaleInfoW",
            "LocalFree",
            "GlobalFree",
            "GlobalLock",
            "GlobalUnlock",
            "GlobalAlloc",
            "FindResourceW",
            "SizeofResource",
            "LockResource",
            "LoadResource",
            "GetModuleFileNameW",
            "FindResourceExW",
            "GetVersionExW",
            "OpenProcess",
            "CreateProcessW",
            "GetCurrentProcess",
            "WaitForSingleObject",
            "GetTempPathW",
            "GetTempFileNameW",
            "DeleteFileW",
            "GetLongPathNameW",
            "WaitForMultipleObjects",
            "GetProcAddress",
            "GetModuleHandleW",
            "CloseHandle",
            "WriteFile",
            "SetFilePointer",
            "ReadFile",
            "GetFileSize",
            "CreateFileW",
            "GetSystemTimeAsFileTime",
            "CreateDirectoryW",
            "FileTimeToSystemTime",
            "SystemTimeToTzSpecificLocalTime",
            "GetFileAttributesExW",
            "DeleteCriticalSection",
            "InitializeCriticalSectionEx",
            "LeaveCriticalSection",
            "EnterCriticalSection",
            "GetProcessHeap",
            "HeapSize",
            "HeapFree",
            "HeapReAlloc",
            "HeapAlloc",
            "HeapDestroy",
            "GetLastError",
            "RaiseException",
            "SetConsoleCtrlHandler",
            "DecodePointer"
        ],
        "ADVAPI32.dll": [
            "LookupAccountSidW",
            "GetTokenInformation",
            "DuplicateTokenEx",
            "AdjustTokenPrivileges",
            "OpenProcessToken",
            "RegCloseKey",
            "CryptDestroyHash",
            "CryptHashData",
            "CryptCreateHash",
            "CryptGetHashParam",
            "CryptReleaseContext",
            "CryptAcquireContextW",
            "RegCreateKeyExW",
            "RegOpenKeyExW",
            "RegSetValueExW",
            "AddAce",
            "CopySid",
            "GetLengthSid",
            "GetSidLengthRequired",
            "GetSidSubAuthority",
            "InitializeAcl",
            "InitializeSid",
            "IsValidSid",
            "SetNamedSecurityInfoW",
            "CloseServiceHandle",
            "ControlService",
            "DeleteService",
            "EnumDependentServicesW",
            "RegDeleteKeyW",
            "RegDeleteValueW",
            "RegEnumKeyExW",
            "RegQueryInfoKeyW",
            "ConvertSidToStringSidW",
            "RegQueryValueExW",
            "CreateProcessAsUserW",
            "ImpersonateLoggedOnUser",
            "SetTokenInformation",
            "CreateServiceW",
            "QueryServiceStatusEx",
            "RegisterServiceCtrlHandlerW",
            "SetServiceStatus",
            "StartServiceCtrlDispatcherW",
            "StartServiceW",
            "LookupAccountNameW",
            "SystemFunction036",
            "GetAclInformation",
            "GetSecurityDescriptorControl",
            "GetSecurityDescriptorDacl",
            "GetSecurityDescriptorGroup",
            "GetSecurityDescriptorOwner",
            "GetSecurityDescriptorSacl",
            "InitializeSecurityDescriptor",
            "MakeAbsoluteSD",
            "SetSecurityDescriptorDacl",
            "RegEnumValueW",
            "SetSecurityInfo",
            "GetAce",
            "GetNamedSecurityInfoW",
            "EnumServicesStatusExW",
            "QueryServiceConfigW",
            "QueryServiceConfig2W",
            "FreeSid",
            "ConvertStringSidToSidW",
            "LookupPrivilegeValueW",
            "OpenSCManagerW",
            "OpenServiceW",
            "QueryServiceStatus",
            "EqualSid"
        ],
        "COMCTL32.dll": [
            "_TrackMouseEvent",
            "InitCommonControlsEx"
        ],
        "CRYPT32.dll": [
            "CryptMsgClose",
            "CryptMsgGetParam",
            "CertCloseStore",
            "CryptQueryObject"
        ],
        "dbghelp.dll": [
            "SymCleanup",
            "SymGetOptions",
            "SymSetOptions",
            "StackWalk64",
            "MakeSureDirectoryPathExists",
            "SymFunctionTableAccess64",
            "SymGetModuleBase64",
            "SymInitialize",
            "ImageNtHeader"
        ],
        "GDI32.dll": [
            "CreateSolidBrush",
            "CreateCompatibleBitmap",
            "BitBlt",
            "DeleteObject",
            "GetObjectW",
            "GetDeviceCaps",
            "CreateDIBSection",
            "SelectObject",
            "CreateCompatibleDC",
            "AddFontResourceW",
            "DeleteDC",
            "GetStockObject",
            "CreateFontIndirectW",
            "DPtoLP",
            "SetBkMode",
            "SetTextColor",
            "GetTextExtentPoint32W",
            "SetBkColor",
            "SetDIBColorTable",
            "ExtTextOutW"
        ],
        "gdiplus.dll": [
            "GdiplusShutdown",
            "GdipAlloc",
            "GdipFree",
            "GdipSetStringFormatTrimming",
            "GdipSetStringFormatLineAlign",
            "GdipSetStringFormatAlign",
            "GdipSetStringFormatFlags",
            "GdipDeleteStringFormat",
            "GdipCreateStringFormat",
            "GdipMeasureString",
            "GdipDrawString",
            "GdipGetFontSize",
            "GdipGetFontStyle",
            "GdipGetFamily",
            "GdipDeleteFont",
            "GdipCreateFont",
            "GdipGetFamilyName",
            "GdipGetGenericFontFamilySansSerif",
            "GdipDeleteFontFamily",
            "GdipCreateFontFamilyFromName",
            "GdipFillPath",
            "GdipFillRectangleI",
            "GdipGraphicsClear",
            "GdipDrawPath",
            "GdipDrawRectangleI",
            "GdipSetSmoothingMode",
            "GdipCreateBitmapFromGraphics",
            "GdipLoadImageFromStream",
            "GdipSetPenColor",
            "GdipDeletePen",
            "GdipCreatePen1",
            "GdipCreateLineBrushFromRectI",
            "GdipSetSolidFillColor",
            "GdipImageSelectActiveFrame",
            "GdipDeleteBrush",
            "GdipCloneBrush",
            "GdipAddPathArcI",
            "GdipClosePathFigure",
            "GdipStartPathFigure",
            "GdipDeletePath",
            "GdipCreatePath",
            "GdipDrawImageRectI",
            "GdipCreateFromHDC",
            "GdipGetPropertyItem",
            "GdipGetPropertyItemSize",
            "GdipCreateSolidFill",
            "GdipImageGetFrameCount",
            "GdipImageGetFrameDimensionsList",
            "GdipImageGetFrameDimensionsCount",
            "GdipLoadImageFromFileICM",
            "GdipLoadImageFromStreamICM",
            "GdipLoadImageFromFile",
            "GdipDrawImageI",
            "GdipDeleteGraphics",
            "GdipBitmapUnlockBits",
            "GdipBitmapLockBits",
            "GdipCreateBitmapFromScan0",
            "GdipCreateBitmapFromStreamICM",
            "GdipCreateBitmapFromStream",
            "GdipGetImagePaletteSize",
            "GdipGetImagePalette",
            "GdipGetImagePixelFormat",
            "GdipGetImageHeight",
            "GdipGetImageWidth",
            "GdipGetImageGraphicsContext",
            "GdipDisposeImage",
            "GdipCloneImage",
            "GdiplusStartup"
        ],
        "imagehlp.dll": [
            "UnMapAndLoad",
            "MapAndLoad"
        ],
        "IPHLPAPI.DLL": [
            "GetAdaptersInfo"
        ],
        "ole32.dll": [
            "CoCreateInstance",
            "CoInitialize",
            "CreateStreamOnHGlobal",
            "CoTaskMemAlloc",
            "CoTaskMemRealloc",
            "CoTaskMemFree",
            "CoGetClassObject",
            "CoUninitialize",
            "CLSIDFromProgID",
            "StringFromGUID2",
            "OleInitialize",
            "OleUninitialize",
            "OleLockRunning",
            "CoInitializeEx",
            "CoSetProxyBlanket",
            "CoInitializeSecurity",
            "OleRun",
            "CLSIDFromString"
        ],
        "OLEAUT32.dll": [
            "DispCallFunc",
            "SysAllocStringByteLen",
            "VariantChangeType",
            "OleCreateFontIndirect",
            "LoadRegTypeLib",
            "LoadTypeLib",
            "VariantClear",
            "SysStringByteLen",
            "SysStringLen",
            "SysAllocStringLen",
            "SysAllocString",
            "VarUI4FromStr",
            "SysFreeString",
            "GetErrorInfo",
            "SetErrorInfo",
            "CreateErrorInfo",
            "VariantInit",
            "VariantCopy"
        ],
        "PSAPI.DLL": [
            "GetDeviceDriverBaseNameW",
            "GetProcessImageFileNameW",
            "EnumDeviceDrivers"
        ],
        "RPCRT4.dll": [
            "UuidToStringW",
            "UuidCreate",
            "RpcStringFreeW"
        ],
        "SHELL32.dll": [
            "ShellExecuteW",
            "CommandLineToArgvW",
            "ShellExecuteExW",
            "SHFileOperationW",
            "SHGetFolderPathW",
            "SHGetMalloc",
            "SHGetDesktopFolder",
            "Shell_NotifyIconW"
        ],
        "SHLWAPI.dll": [
            "PathFileExistsW"
        ],
        "USER32.dll": [
            "PeekMessageW",
            "GetMessageW",
            "EmptyClipboard",
            "SetClipboardData",
            "CloseClipboard",
            "OpenClipboard",
            "SendMessageW",
            "ExitWindowsEx",
            "LoadStringW",
            "DispatchMessageW",
            "MonitorFromPoint",
            "GetWindowDC",
            "SetActiveWindow",
            "TrackPopupMenu",
            "GetSubMenu",
            "DestroyMenu",
            "LoadMenuW",
            "FindWindowW",
            "SetTimer",
            "GetCursorPos",
            "TranslateMessage",
            "GetWindow",
            "PostThreadMessageW",
            "PostQuitMessage",
            "IsWindow",
            "DestroyWindow",
            "ShowWindow",
            "IsWindowVisible",
            "BringWindowToTop",
            "CreateDialogParamW",
            "DialogBoxParamW",
            "CharNextW",
            "GetActiveWindow",
            "GetKeyState",
            "GetSystemMetrics",
            "GetForegroundWindow",
            "SetForegroundWindow",
            "GetClientRect",
            "GetWindowLongW",
            "SetWindowLongW",
            "SwitchToThisWindow",
            "GetDesktopWindow",
            "MessageBoxW",
            "RegisterWindowMessageW",
            "DefWindowProcW",
            "CallWindowProcW",
            "RegisterClassExW",
            "GetClassInfoExW",
            "CreateWindowExW",
            "IsChild",
            "MoveWindow",
            "SetWindowPos",
            "GetWindowThreadProcessId",
            "GetDlgItem",
            "SetFocus",
            "GetFocus",
            "SetCapture",
            "ReleaseCapture",
            "CreateAcceleratorTableW",
            "DestroyAcceleratorTable",
            "GetDC",
            "ReleaseDC",
            "BeginPaint",
            "EndPaint",
            "InvalidateRect",
            "InvalidateRgn",
            "RedrawWindow",
            "SetWindowTextW",
            "GetWindowTextW",
            "GetWindowTextLengthW",
            "ClientToScreen",
            "ScreenToClient",
            "GetSysColor",
            "FillRect",
            "GetParent",
            "LoadCursorW",
            "EndDialog",
            "wsprintfW",
            "GetWindowRect",
            "MapWindowPoints",
            "MonitorFromWindow",
            "GetMonitorInfoW",
            "SetWindowContextHelpId",
            "LoadImageW",
            "MapDialogRect",
            "SendDlgItemMessageW",
            "RegisterClassW",
            "EnableWindow",
            "UpdateWindow",
            "GetTopWindow",
            "GetClassNameW",
            "KillTimer",
            "CreateDialogIndirectParamW",
            "SetParent",
            "GetClassLongW",
            "PostMessageW",
            "UnregisterClassW",
            "LoadIconW",
            "SetCursor",
            "GetDlgCtrlID",
            "DialogBoxIndirectParamW"
        ],
        "USERENV.dll": [
            "CreateEnvironmentBlock",
            "UnloadUserProfile"
        ],
        "UxTheme.dll": [
            "SetWindowTheme"
        ],
        "VERSION.dll": [
            "GetFileVersionInfoSizeW",
            "VerQueryValueW",
            "GetFileVersionInfoW"
        ],
        "WINHTTP.dll": [
            "WinHttpOpen",
            "WinHttpSetStatusCallback",
            "WinHttpConnect",
            "WinHttpReadData",
            "WinHttpWriteData",
            "WinHttpSetOption",
            "WinHttpSetTimeouts",
            "WinHttpOpenRequest",
            "WinHttpAddRequestHeaders",
            "WinHttpSendRequest",
            "WinHttpReceiveResponse",
            "WinHttpQueryHeaders",
            "WinHttpCrackUrl",
            "WinHttpCloseHandle"
        ],
        "WININET.dll": [
            "InternetSetCookieW",
            "InternetGetCookieW"
        ],
        "WS2_32.dll": [
            "connect",
            "htons",
            "inet_addr",
            "recv",
            "send",
            "socket",
            "gethostbyname",
            "closesocket",
            "WSAStartup",
            "inet_ntoa"
        ]
    }
}