{
    "hash": "00087ab65749ad9fed49fba4b12f358e9e34dee4deea514f7bdedb1277ae28c7",
    "section": [
        {
            "Name": ".text\u0000\u0000\u0000",
            "VirtualAddress": "0x1000",
            "Misc_VirtualSize": "0x7f1fc",
            "SizeOfRawData": 520704
        },
        {
            "Name": ".rdata\u0000\u0000",
            "VirtualAddress": "0x81000",
            "Misc_VirtualSize": "0xd93c",
            "SizeOfRawData": 55808
        },
        {
            "Name": ".data\u0000\u0000\u0000",
            "VirtualAddress": "0x8f000",
            "Misc_VirtualSize": "0x1a518",
            "SizeOfRawData": 26624
        },
        {
            "Name": ".rsrc\u0000\u0000\u0000",
            "VirtualAddress": "0xaa000",
            "Misc_VirtualSize": "0xd000",
            "SizeOfRawData": 53248
        }
    ],
    "import": {
        "WSOCK32.dll": [
            "__WSAFDIsSet",
            "setsockopt",
            "ntohs",
            "recvfrom",
            "sendto",
            "htons",
            "select",
            "listen",
            "WSAStartup",
            "bind",
            "closesocket",
            "connect",
            "socket",
            "send",
            "WSACleanup",
            "ioctlsocket",
            "accept",
            "WSAGetLastError",
            "inet_addr",
            "gethostbyname",
            "gethostname",
            "recv"
        ],
        "VERSION.dll": [
            "VerQueryValueW",
            "GetFileVersionInfoW",
            "GetFileVersionInfoSizeW"
        ],
        "WINMM.dll": [
            "timeGetTime",
            "waveOutSetVolume",
            "mciSendStringW"
        ],
        "COMCTL32.dll": [
            "ImageList_Remove",
            "ImageList_SetDragCursorImage",
            "ImageList_BeginDrag",
            "ImageList_DragEnter",
            "ImageList_DragLeave",
            "ImageList_EndDrag",
            "ImageList_DragMove",
            "ImageList_ReplaceIcon",
            "ImageList_Create",
            "InitCommonControlsEx",
            "ImageList_Destroy"
        ],
        "MPR.dll": [
            "WNetCancelConnection2W",
            "WNetGetConnectionW",
            "WNetAddConnection2W",
            "WNetUseConnectionW"
        ],
        "WININET.dll": [
            "InternetReadFile",
            "InternetCloseHandle",
            "InternetOpenW",
            "InternetSetOptionW",
            "InternetCrackUrlW",
            "HttpQueryInfoW",
            "InternetConnectW",
            "HttpOpenRequestW",
            "HttpSendRequestW",
            "FtpOpenFileW",
            "FtpGetFileSize",
            "InternetOpenUrlW",
            "InternetQueryOptionW",
            "InternetQueryDataAvailable"
        ],
        "PSAPI.DLL": [
            "EnumProcesses",
            "GetModuleBaseNameW",
            "GetProcessMemoryInfo",
            "EnumProcessModules"
        ],
        "USERENV.dll": [
            "CreateEnvironmentBlock",
            "DestroyEnvironmentBlock",
            "UnloadUserProfile",
            "LoadUserProfileW"
        ],
        "KERNEL32.dll": [
            "HeapAlloc",
            "Sleep",
            "GetCurrentThreadId",
            "RaiseException",
            "MulDiv",
            "GetVersionExW",
            "GetSystemInfo",
            "MultiByteToWideChar",
            "WideCharToMultiByte",
            "GetModuleHandleW",
            "QueryPerformanceCounter",
            "VirtualFreeEx",
            "OpenProcess",
            "VirtualAllocEx",
            "WriteProcessMemory",
            "ReadProcessMemory",
            "CreateFileW",
            "SetFilePointerEx",
            "ReadFile",
            "WriteFile",
            "FlushFileBuffers",
            "TerminateProcess",
            "CreateToolhelp32Snapshot",
            "Process32FirstW",
            "Process32NextW",
            "SetFileTime",
            "GetFileAttributesW",
            "FindFirstFileW",
            "FindClose",
            "DeleteFileW",
            "FindNextFileW",
            "lstrcmpiW",
            "MoveFileW",
            "CopyFileW",
            "CreateDirectoryW",
            "RemoveDirectoryW",
            "SetSystemPowerState",
            "QueryPerformanceFrequency",
            "FindResourceW",
            "LoadResource",
            "LockResource",
            "SizeofResource",
            "GetProcessHeap",
            "OutputDebugStringW",
            "GetLocalTime",
            "CompareStringW",
            "CompareStringA",
            "InterlockedIncrement",
            "InterlockedDecrement",
            "DeleteCriticalSection",
            "EnterCriticalSection",
            "LeaveCriticalSection",
            "InitializeCriticalSectionAndSpinCount",
            "GetStdHandle",
            "CreatePipe",
            "InterlockedExchange",
            "TerminateThread",
            "GetTempPathW",
            "GetTempFileNameW",
            "VirtualFree",
            "FormatMessageW",
            "GetExitCodeProcess",
            "SetErrorMode",
            "GetPrivateProfileStringW",
            "WritePrivateProfileStringW",
            "GetPrivateProfileSectionW",
            "WritePrivateProfileSectionW",
            "GetPrivateProfileSectionNamesW",
            "FileTimeToLocalFileTime",
            "FileTimeToSystemTime",
            "SystemTimeToFileTime",
            "LocalFileTimeToFileTime",
            "GetDriveTypeW",
            "GetDiskFreeSpaceExW",
            "GetDiskFreeSpaceW",
            "GetVolumeInformationW",
            "SetVolumeLabelW",
            "CreateHardLinkW",
            "DeviceIoControl",
            "SetFileAttributesW",
            "GetShortPathNameW",
            "CreateEventW",
            "SetEvent",
            "GetEnvironmentVariableW",
            "SetEnvironmentVariableW",
            "GlobalLock",
            "GlobalUnlock",
            "GlobalAlloc",
            "GetFileSize",
            "GlobalFree",
            "GlobalMemoryStatusEx",
            "Beep",
            "GetComputerNameW",
            "GetWindowsDirectoryW",
            "GetSystemDirectoryW",
            "GetCurrentProcessId",
            "GetCurrentThread",
            "GetProcessIoCounters",
            "CreateProcessW",
            "SetPriorityClass",
            "LoadLibraryW",
            "VirtualAlloc",
            "LoadLibraryExW",
            "HeapFree",
            "WaitForSingleObject",
            "CreateThread",
            "DuplicateHandle",
            "GetLastError",
            "CloseHandle",
            "GetCurrentProcess",
            "GetProcAddress",
            "LoadLibraryA",
            "FreeLibrary",
            "GetModuleFileNameW",
            "GetFullPathNameW",
            "ExitProcess",
            "ExitThread",
            "GetSystemTimeAsFileTime",
            "SetCurrentDirectoryW",
            "IsDebuggerPresent",
            "GetCurrentDirectoryW",
            "ResumeThread",
            "GetStartupInfoW",
            "TlsGetValue",
            "TlsAlloc",
            "TlsSetValue",
            "TlsFree",
            "SetLastError",
            "HeapSize",
            "GetCPInfo",
            "GetACP",
            "GetOEMCP",
            "IsValidCodePage",
            "UnhandledExceptionFilter",
            "SetUnhandledExceptionFilter",
            "GetModuleFileNameA",
            "HeapReAlloc",
            "HeapCreate",
            "SetHandleCount",
            "GetFileType",
            "GetStartupInfoA",
            "SetStdHandle",
            "GetConsoleCP",
            "GetConsoleMode",
            "LCMapStringW",
            "LCMapStringA",
            "RtlUnwind",
            "SetFilePointer",
            "GetTimeZoneInformation",
            "GetTimeFormatA",
            "GetDateFormatA",
            "FreeEnvironmentStringsW",
            "GetEnvironmentStringsW",
            "GetCommandLineW",
            "GetTickCount",
            "GetStringTypeA",
            "GetStringTypeW",
            "GetLocaleInfoA",
            "GetModuleHandleA",
            "WriteConsoleA",
            "GetConsoleOutputCP",
            "WriteConsoleW",
            "CreateFileA",
            "SetEndOfFile",
            "EnumResourceNamesW",
            "SetEnvironmentVariableA"
        ],
        "USER32.dll": [
            "SetWindowPos",
            "GetCursorInfo",
            "RegisterHotKey",
            "ClientToScreen",
            "GetKeyboardLayoutNameW",
            "IsCharAlphaW",
            "IsCharAlphaNumericW",
            "IsCharLowerW",
            "IsCharUpperW",
            "GetMenuStringW",
            "GetSubMenu",
            "GetCaretPos",
            "IsZoomed",
            "MonitorFromPoint",
            "GetMonitorInfoW",
            "SetWindowLongW",
            "SetLayeredWindowAttributes",
            "FlashWindow",
            "GetClassLongW",
            "TranslateAcceleratorW",
            "IsDialogMessageW",
            "GetSysColor",
            "InflateRect",
            "DrawFocusRect",
            "DrawTextW",
            "FrameRect",
            "DrawFrameControl",
            "FillRect",
            "PtInRect",
            "DestroyAcceleratorTable",
            "CreateAcceleratorTableW",
            "SetCursor",
            "GetWindowDC",
            "GetSystemMetrics",
            "GetActiveWindow",
            "CharNextW",
            "wsprintfW",
            "RedrawWindow",
            "DrawMenuBar",
            "DestroyMenu",
            "SetMenu",
            "GetWindowTextLengthW",
            "CreateMenu",
            "IsDlgButtonChecked",
            "DefDlgProcW",
            "ReleaseCapture",
            "SetCapture",
            "WindowFromPoint",
            "CreateIconFromResourceEx",
            "mouse_event",
            "ExitWindowsEx",
            "SetActiveWindow",
            "FindWindowExW",
            "EnumThreadWindows",
            "SetMenuDefaultItem",
            "InsertMenuItemW",
            "IsMenu",
            "TrackPopupMenuEx",
            "GetCursorPos",
            "DeleteMenu",
            "CheckMenuRadioItem",
            "CopyImage",
            "GetMenuItemCount",
            "SetMenuItemInfoW",
            "GetMenuItemInfoW",
            "SetForegroundWindow",
            "IsIconic",
            "FindWindowW",
            "SystemParametersInfoW",
            "PeekMessageW",
            "SetKeyboardState",
            "GetKeyboardState",
            "VkKeyScanW",
            "GetKeyState",
            "keybd_event",
            "SendInput",
            "LoadStringW",
            "DialogBoxParamW",
            "MessageBeep",
            "EndDialog",
            "SendDlgItemMessageW",
            "GetDlgItem",
            "SetWindowTextW",
            "CopyRect",
            "ReleaseDC",
            "GetDC",
            "EndPaint",
            "BeginPaint",
            "GetClientRect",
            "GetMenu",
            "DestroyWindow",
            "EnumWindows",
            "GetDesktopWindow",
            "IsWindow",
            "IsWindowEnabled",
            "IsWindowVisible",
            "EnableWindow",
            "InvalidateRect",
            "GetWindowThreadProcessId",
            "AttachThreadInput",
            "GetFocus",
            "GetWindowTextW",
            "ScreenToClient",
            "SendMessageTimeoutW",
            "EnumChildWindows",
            "CharUpperBuffW",
            "GetClassNameW",
            "GetParent",
            "GetDlgCtrlID",
            "SendMessageW",
            "MapVirtualKeyW",
            "PostMessageW",
            "GetWindowRect",
            "SetUserObjectSecurity",
            "GetUserObjectSecurity",
            "CloseDesktop",
            "CloseWindowStation",
            "OpenDesktopW",
            "SetProcessWindowStation",
            "GetProcessWindowStation",
            "OpenWindowStationW",
            "MessageBoxW",
            "DefWindowProcW",
            "MoveWindow",
            "AdjustWindowRectEx",
            "SetRect",
            "SetClipboardData",
            "EmptyClipboard",
            "CountClipboardFormats",
            "CloseClipboard",
            "GetClipboardData",
            "IsClipboardFormatAvailable",
            "OpenClipboard",
            "BlockInput",
            "GetMessageW",
            "LockWindowUpdate",
            "DispatchMessageW",
            "GetMenuItemID",
            "TranslateMessage",
            "SetFocus",
            "PostQuitMessage",
            "KillTimer",
            "CreatePopupMenu",
            "RegisterWindowMessageW",
            "SetTimer",
            "ShowWindow",
            "CreateWindowExW",
            "RegisterClassExW",
            "LoadIconW",
            "LoadCursorW",
            "GetSysColorBrush",
            "GetForegroundWindow",
            "MessageBoxA",
            "DestroyIcon",
            "UnregisterHotKey",
            "CharLowerBuffW",
            "MonitorFromRect",
            "GetAsyncKeyState",
            "LoadImageW",
            "GetWindowLongW"
        ],
        "GDI32.dll": [
            "DeleteObject",
            "GetObjectW",
            "GetTextExtentPoint32W",
            "ExtCreatePen",
            "StrokeAndFillPath",
            "StrokePath",
            "EndPath",
            "SetPixel",
            "CloseFigure",
            "CreateCompatibleBitmap",
            "CreateCompatibleDC",
            "SelectObject",
            "StretchBlt",
            "GetDIBits",
            "LineTo",
            "AngleArc",
            "MoveToEx",
            "Ellipse",
            "PolyDraw",
            "BeginPath",
            "Rectangle",
            "GetDeviceCaps",
            "SetBkMode",
            "RoundRect",
            "SetBkColor",
            "CreatePen",
            "CreateSolidBrush",
            "SetTextColor",
            "CreateFontW",
            "GetTextFaceW",
            "GetStockObject",
            "CreateDCW",
            "GetPixel",
            "DeleteDC",
            "SetViewportOrgEx"
        ],
        "COMDLG32.dll": [
            "GetSaveFileNameW",
            "GetOpenFileNameW"
        ],
        "ADVAPI32.dll": [
            "RegEnumValueW",
            "RegDeleteValueW",
            "RegDeleteKeyW",
            "RegSetValueExW",
            "RegCreateKeyExW",
            "GetUserNameW",
            "RegConnectRegistryW",
            "RegEnumKeyExW",
            "CloseServiceHandle",
            "UnlockServiceDatabase",
            "LockServiceDatabase",
            "OpenSCManagerW",
            "InitiateSystemShutdownExW",
            "AdjustTokenPrivileges",
            "RegCloseKey",
            "RegQueryValueExW",
            "RegOpenKeyExW",
            "OpenThreadToken",
            "OpenProcessToken",
            "LookupPrivilegeValueW",
            "DuplicateTokenEx",
            "CreateProcessAsUserW",
            "CreateProcessWithLogonW",
            "InitializeSecurityDescriptor",
            "InitializeAcl",
            "GetLengthSid",
            "SetSecurityDescriptorDacl",
            "CopySid",
            "LogonUserW",
            "GetTokenInformation",
            "GetAclInformation",
            "GetAce",
            "AddAce",
            "GetSecurityDescriptorDacl"
        ],
        "SHELL32.dll": [
            "DragQueryPoint",
            "ShellExecuteExW",
            "SHGetFolderPathW",
            "DragQueryFileW",
            "SHEmptyRecycleBinW",
            "SHBrowseForFolderW",
            "SHFileOperationW",
            "SHGetPathFromIDListW",
            "SHGetDesktopFolder",
            "SHGetMalloc",
            "ExtractIconExW",
            "Shell_NotifyIconW",
            "ShellExecuteW",
            "DragFinish"
        ],
        "ole32.dll": [
            "OleSetMenuDescriptor",
            "MkParseDisplayName",
            "OleSetContainedObject",
            "CoInitialize",
            "CoUninitialize",
            "CoCreateInstance",
            "CreateStreamOnHGlobal",
            "CoTaskMemAlloc",
            "CoTaskMemFree",
            "CLSIDFromString",
            "StringFromCLSID",
            "IIDFromString",
            "StringFromIID",
            "OleInitialize",
            "CreateBindCtx",
            "CLSIDFromProgID",
            "CoInitializeSecurity",
            "CoCreateInstanceEx",
            "CoSetProxyBlanket",
            "OleUninitialize"
        ],
        "OLEAUT32.dll": [
            "SafeArrayAllocData",
            "SafeArrayAllocDescriptorEx",
            "SysAllocString",
            "OleLoadPicture",
            "SafeArrayGetVartype",
            "SafeArrayDestroyData",
            "SafeArrayAccessData",
            "VarR8FromDec",
            "VariantTimeToSystemTime",
            "VariantClear",
            "VariantCopy",
            "VariantInit",
            "SafeArrayDestroyDescriptor",
            "LoadRegTypeLib",
            "GetActiveObject",
            "SafeArrayUnaccessData"
        ]
    }
}