{
    "hash": "000852d5cb1cc1510c6aea928ebd2cc30bae08c501e5754c08bdb8d3b8369111",
    "section": [
        {
            "Name": ".text\u0000\u0000\u0000",
            "VirtualAddress": "0x1000",
            "Misc_VirtualSize": "0x25939e",
            "SizeOfRawData": 2462720
        },
        {
            "Name": ".rsrc\u0000\u0000\u0000",
            "VirtualAddress": "0x25b000",
            "Misc_VirtualSize": "0x115c",
            "SizeOfRawData": 4608
        }
    ],
    "import": {}
}