{
    "hash": "0008c736a92a5780665b67d3a2b151ac2098911d1db18eb9cd1e46bf430e3f46",
    "section": [
        {
            "Name": ".text\u0000\u0000\u0000",
            "VirtualAddress": "0x1000",
            "Misc_VirtualSize": "0x89000",
            "SizeOfRawData": 557568
        },
        {
            "Name": ".rdata\u0000\u0000",
            "VirtualAddress": "0x8a000",
            "Misc_VirtualSize": "0x1000",
            "SizeOfRawData": 512
        },
        {
            "Name": ".data\u0000\u0000\u0000",
            "VirtualAddress": "0x8b000",
            "Misc_VirtualSize": "0xd3000",
            "SizeOfRawData": 864256
        },
        {
            "Name": ".rsrc\u0000\u0000\u0000",
            "VirtualAddress": "0x15e000",
            "Misc_VirtualSize": "0x1200",
            "SizeOfRawData": 4608
        }
    ],
    "import": {
        "kernel32.dll": [
            "GetCommandLineA",
            "GetSystemDefaultLCID",
            "VirtualAlloc"
        ],
        "user32.dll": [
            "GetCursor"
        ]
    }
}