{
    "hash": "0008bf10feadb1cfb00c549cf33620a185eee64322965583c0eb901828f4720d",
    "section": [
        {
            "Name": ".text\u0000\u0000\u0000",
            "VirtualAddress": "0x1000",
            "Misc_VirtualSize": "0x1dd7c",
            "SizeOfRawData": 122368
        },
        {
            "Name": ".rdata\u0000\u0000",
            "VirtualAddress": "0x1f000",
            "Misc_VirtualSize": "0x2c1e",
            "SizeOfRawData": 11776
        },
        {
            "Name": ".data\u0000\u0000\u0000",
            "VirtualAddress": "0x22000",
            "Misc_VirtualSize": "0x91908",
            "SizeOfRawData": 4608
        },
        {
            "Name": ".rsrc\u0000\u0000\u0000",
            "VirtualAddress": "0xb4000",
            "Misc_VirtualSize": "0x2cba8",
            "SizeOfRawData": 183296
        }
    ],
    "import": {
        "KERNEL32.dll": [
            "GetEnvironmentVariableW",
            "LoadLibraryExW",
            "InitializeCriticalSection",
            "GetSystemDirectoryW",
            "Sleep",
            "GetProcAddress",
            "EnterCriticalSection",
            "GetVolumeInformationW",
            "CreateFileA",
            "SetStdHandle",
            "SetFilePointer",
            "WriteConsoleW",
            "GetConsoleOutputCP",
            "WriteConsoleA",
            "GetStartupInfoW",
            "TerminateProcess",
            "GetCurrentProcess",
            "UnhandledExceptionFilter",
            "SetUnhandledExceptionFilter",
            "IsDebuggerPresent",
            "LeaveCriticalSection",
            "GetModuleHandleW",
            "ExitProcess",
            "WriteFile",
            "GetStdHandle",
            "GetModuleFileNameA",
            "GetModuleFileNameW",
            "FreeEnvironmentStringsW",
            "GetEnvironmentStringsW",
            "GetCommandLineW",
            "SetHandleCount",
            "GetFileType",
            "GetStartupInfoA",
            "DeleteCriticalSection",
            "TlsGetValue",
            "TlsAlloc",
            "TlsSetValue",
            "TlsFree",
            "InterlockedIncrement",
            "SetLastError",
            "GetCurrentThreadId",
            "GetLastError",
            "InterlockedDecrement",
            "HeapCreate",
            "VirtualFree",
            "HeapFree",
            "QueryPerformanceCounter",
            "GetTickCount",
            "GetCurrentProcessId",
            "GetSystemTimeAsFileTime",
            "HeapAlloc",
            "RaiseException",
            "RtlUnwind",
            "GetCPInfo",
            "GetACP",
            "GetOEMCP",
            "IsValidCodePage",
            "MultiByteToWideChar",
            "LoadLibraryA",
            "InitializeCriticalSectionAndSpinCount",
            "VirtualAlloc",
            "HeapReAlloc",
            "HeapSize",
            "WideCharToMultiByte",
            "GetConsoleCP",
            "GetConsoleMode",
            "FlushFileBuffers",
            "LCMapStringA",
            "LCMapStringW",
            "GetStringTypeA",
            "GetStringTypeW",
            "GetLocaleInfoA",
            "CloseHandle"
        ],
        "ole32.dll": [
            "CoTaskMemFree",
            "CoInitialize",
            "CoUninitialize",
            "CoTaskMemAlloc"
        ],
        "RASAPI32.dll": [
            "RasEnumConnectionsW",
            "RasHangUpW",
            "RasGetConnectStatusW"
        ]
    }
}