{
    "hash": "0008c1c123fb523a382a4593f36e23713c16299b03ad8b5e64563bb4a5a892fb",
    "section": [
        {
            "Name": ".text\u0000\u0000\u0000",
            "VirtualAddress": "0x1000",
            "Misc_VirtualSize": "0x1a0dd7",
            "SizeOfRawData": 1707520
        },
        {
            "Name": ".rsrc\u0000\u0000\u0000",
            "VirtualAddress": "0x1a2000",
            "Misc_VirtualSize": "0x115c",
            "SizeOfRawData": 4608
        }
    ],
    "import": {}
}