{
    "hash": "00085649ae6487be1d23e7c88d39c3e6e43fa46aaa50e582aa2628a1b57abd2c",
    "section": [
        {
            "Name": ".text\u0000\u0000\u0000",
            "VirtualAddress": "0x1000",
            "Misc_VirtualSize": "0x13b2",
            "SizeOfRawData": 5120
        },
        {
            "Name": ".rdata\u0000\u0000",
            "VirtualAddress": "0x3000",
            "Misc_VirtualSize": "0x7ec",
            "SizeOfRawData": 2048
        },
        {
            "Name": ".data\u0000\u0000\u0000",
            "VirtualAddress": "0x4000",
            "Misc_VirtualSize": "0x808",
            "SizeOfRawData": 1024
        },
        {
            "Name": ".rsrc\u0000\u0000\u0000",
            "VirtualAddress": "0x5000",
            "Misc_VirtualSize": "0x3ddc8",
            "SizeOfRawData": 253440
        }
    ],
    "import": {
        "KERNEL32.dll": [
            "DeleteFileA",
            "GetTempPathA",
            "GetModuleFileNameA",
            "FreeResource",
            "SetFileAttributesA",
            "SetThreadPriority",
            "GetCurrentThread",
            "GetCurrentProcess",
            "SetPriorityClass",
            "GetEnvironmentVariableA",
            "CreateMutexW",
            "LoadLibraryA",
            "GetVersionExW",
            "GetTickCount",
            "FindClose",
            "FindFirstFileA",
            "WinExec",
            "GetEnvironmentVariableW",
            "GetModuleFileNameW",
            "GetStartupInfoA",
            "OutputDebugStringA",
            "GetShortPathNameW",
            "GetWindowsDirectoryA",
            "CloseHandle",
            "GetModuleHandleA",
            "GetLastError",
            "GetProcAddress",
            "FreeLibrary"
        ],
        "USER32.dll": [
            "MessageBoxA",
            "wsprintfW"
        ],
        "ADVAPI32.dll": [
            "RegOpenKeyExW",
            "RegSetValueExA",
            "RegCloseKey",
            "RegOpenKeyExA",
            "RegDeleteValueA",
            "RegCreateKeyExA",
            "RegQueryValueExA"
        ],
        "SHELL32.dll": [
            "ShellExecuteExW",
            "ShellExecuteExA"
        ],
        "MSVCRT.dll": [
            "fopen",
            "_controlfp",
            "__set_app_type",
            "__p__fmode",
            "__p__commode",
            "sprintf",
            "strlen",
            "strcpy",
            "memset",
            "strcat",
            "memcpy",
            "_except_handler3",
            "??3@YAXPAX@Z",
            "fwrite",
            "rand",
            "fclose",
            "fread",
            "??2@YAPAXI@Z",
            "ftell",
            "fseek",
            "_strlwr",
            "__CxxFrameHandler",
            "_access",
            "srand",
            "memcmp",
            "strncpy",
            "strrchr",
            "_exit",
            "_XcptFilter",
            "exit",
            "_acmdln",
            "__getmainargs",
            "_initterm",
            "__setusermatherr",
            "_adjust_fdiv"
        ]
    }
}