{
    "hash": "000955d2430acef2540b4b327e0bcdc09c4e2df598973c24c15b7f709e1d3819",
    "section": [
        {
            "Name": ".text\u0000\u0000\u0000",
            "VirtualAddress": "0x1000",
            "Misc_VirtualSize": "0x61c7",
            "SizeOfRawData": 25088
        },
        {
            "Name": ".rdata\u0000\u0000",
            "VirtualAddress": "0x8000",
            "Misc_VirtualSize": "0x1352",
            "SizeOfRawData": 5120
        },
        {
            "Name": ".data\u0000\u0000\u0000",
            "VirtualAddress": "0xa000",
            "Misc_VirtualSize": "0x48518",
            "SizeOfRawData": 1536
        },
        {
            "Name": ".ndata\u0000\u0000",
            "VirtualAddress": "0x53000",
            "Misc_VirtualSize": "0x70000",
            "SizeOfRawData": 0
        },
        {
            "Name": ".rsrc\u0000\u0000\u0000",
            "VirtualAddress": "0xc3000",
            "Misc_VirtualSize": "0x41d8",
            "SizeOfRawData": 16896
        }
    ],
    "import": {
        "KERNEL32.dll": [
            "CopyFileA",
            "Sleep",
            "GetTickCount",
            "CreateFileA",
            "GetFileSize",
            "GetModuleFileNameA",
            "ReadFile",
            "GetFileAttributesA",
            "SetFileAttributesA",
            "ExitProcess",
            "SetEnvironmentVariableA",
            "GetWindowsDirectoryA",
            "GetTempPathA",
            "GetCommandLineA",
            "lstrlenA",
            "GetVersion",
            "GetCurrentProcess",
            "GetFullPathNameA",
            "GetDiskFreeSpaceA",
            "GlobalUnlock",
            "GlobalLock",
            "CreateThread",
            "GetLastError",
            "CreateDirectoryA",
            "CreateProcessA",
            "RemoveDirectoryA",
            "GetTempFileNameA",
            "WriteFile",
            "lstrcpyA",
            "MoveFileExA",
            "lstrcatA",
            "GetSystemDirectoryA",
            "GetProcAddress",
            "CloseHandle",
            "SetCurrentDirectoryA",
            "MoveFileA",
            "CompareFileTime",
            "GetShortPathNameA",
            "SearchPathA",
            "lstrcmpiA",
            "SetFileTime",
            "lstrcmpA",
            "ExpandEnvironmentStringsA",
            "lstrcpynA",
            "SetErrorMode",
            "GlobalFree",
            "FindFirstFileA",
            "FindNextFileA",
            "DeleteFileA",
            "SetFilePointer",
            "GetPrivateProfileStringA",
            "FindClose",
            "MultiByteToWideChar",
            "FreeLibrary",
            "MulDiv",
            "WritePrivateProfileStringA",
            "LoadLibraryExA",
            "GetModuleHandleA",
            "GetExitCodeProcess",
            "WaitForSingleObject",
            "GlobalAlloc"
        ],
        "USER32.dll": [
            "ScreenToClient",
            "GetSystemMenu",
            "SetClassLongA",
            "IsWindowEnabled",
            "SetWindowPos",
            "GetSysColor",
            "GetWindowLongA",
            "SetCursor",
            "LoadCursorA",
            "CheckDlgButton",
            "GetMessagePos",
            "LoadBitmapA",
            "CallWindowProcA",
            "IsWindowVisible",
            "CloseClipboard",
            "SetClipboardData",
            "EmptyClipboard",
            "PostQuitMessage",
            "GetWindowRect",
            "EnableMenuItem",
            "CreatePopupMenu",
            "GetSystemMetrics",
            "SetDlgItemTextA",
            "GetDlgItemTextA",
            "MessageBoxIndirectA",
            "CharPrevA",
            "DispatchMessageA",
            "PeekMessageA",
            "ReleaseDC",
            "EnableWindow",
            "InvalidateRect",
            "SendMessageA",
            "DefWindowProcA",
            "BeginPaint",
            "GetClientRect",
            "FillRect",
            "DrawTextA",
            "EndDialog",
            "RegisterClassA",
            "SystemParametersInfoA",
            "CreateWindowExA",
            "GetClassInfoA",
            "DialogBoxParamA",
            "CharNextA",
            "ExitWindowsEx",
            "GetDC",
            "CreateDialogParamA",
            "SetTimer",
            "GetDlgItem",
            "SetWindowLongA",
            "SetForegroundWindow",
            "LoadImageA",
            "IsWindow",
            "SendMessageTimeoutA",
            "FindWindowExA",
            "OpenClipboard",
            "TrackPopupMenu",
            "AppendMenuA",
            "EndPaint",
            "DestroyWindow",
            "wsprintfA",
            "ShowWindow",
            "SetWindowTextA"
        ],
        "GDI32.dll": [
            "SelectObject",
            "SetBkMode",
            "CreateFontIndirectA",
            "SetTextColor",
            "DeleteObject",
            "GetDeviceCaps",
            "CreateBrushIndirect",
            "SetBkColor"
        ],
        "SHELL32.dll": [
            "SHGetSpecialFolderLocation",
            "SHGetPathFromIDListA",
            "SHBrowseForFolderA",
            "SHGetFileInfoA",
            "ShellExecuteA",
            "SHFileOperationA"
        ],
        "ADVAPI32.dll": [
            "RegDeleteKeyA",
            "SetFileSecurityA",
            "OpenProcessToken",
            "LookupPrivilegeValueA",
            "AdjustTokenPrivileges",
            "RegOpenKeyExA",
            "RegEnumValueA",
            "RegDeleteValueA",
            "RegCloseKey",
            "RegCreateKeyExA",
            "RegSetValueExA",
            "RegQueryValueExA",
            "RegEnumKeyA"
        ],
        "COMCTL32.dll": [
            "ImageList_Create",
            "ImageList_AddMasked",
            "ImageList_Destroy"
        ],
        "ole32.dll": [
            "OleUninitialize",
            "OleInitialize",
            "CoTaskMemFree",
            "CoCreateInstance"
        ]
    }
}