{
    "hash": "000945e8d30b942fa6696f474bd5abf1bfa4b91bac98cd5b0b0a6a551c8cdebc",
    "section": [
        {
            "Name": ".text\u0000\u0000\u0000",
            "VirtualAddress": "0x1000",
            "Misc_VirtualSize": "0x11ac",
            "SizeOfRawData": 4608
        },
        {
            "Name": ".data\u0000\u0000\u0000",
            "VirtualAddress": "0x3000",
            "Misc_VirtualSize": "0x5b0e8",
            "SizeOfRawData": 120832
        },
        {
            "Name": ".idata\u0000\u0000",
            "VirtualAddress": "0x5f000",
            "Misc_VirtualSize": "0x554",
            "SizeOfRawData": 1536
        },
        {
            "Name": ".rsrc\u0000\u0000\u0000",
            "VirtualAddress": "0x60000",
            "Misc_VirtualSize": "0x120c",
            "SizeOfRawData": 5120
        },
        {
            "Name": ".reloc\u0000\u0000",
            "VirtualAddress": "0x62000",
            "Misc_VirtualSize": "0x6a",
            "SizeOfRawData": 512
        }
    ],
    "import": {
        "KERNEL32.dll": [
            "CloseHandle",
            "CreateFileW",
            "FindFirstFileW",
            "FindNextFileW",
            "FormatMessageW",
            "FreeLibrary",
            "GetCommandLineW",
            "GetFileAttributesW",
            "GetFileType",
            "GetLastError",
            "GetModuleHandleA",
            "GetModuleHandleW",
            "GetProcAddress",
            "GetStdHandle",
            "GetTempPathW",
            "GetTickCount",
            "LoadLibraryA",
            "LoadLibraryW",
            "LocalAlloc",
            "LocalFree",
            "MultiByteToWideChar",
            "SetLastError",
            "VirtualProtect",
            "WriteConsoleW",
            "VerifyVersionInfoW"
        ],
        "USER32.dll": [
            "GetDC",
            "LoadAcceleratorsA",
            "LoadCursorA",
            "LoadIconA",
            "LoadStringW",
            "RegisterClassA",
            "RemoveMenu"
        ],
        "ntdll.dll": [
            "VerSetConditionMask",
            "_ultoa",
            "_wcsnicmp",
            "iswdigit",
            "memmove",
            "wcschr",
            "wcscmp",
            "wcscpy",
            "wcsncpy",
            "wcstoul",
            "wcstol"
        ],
        "WINSTA.dll": [
            "WinStationEnumerateW",
            "WinStationOpenServerW",
            "WinStationQueryInformationW",
            "WinStationFreeMemory"
        ]
    }
}