{
    "hash": "00099f0059a484369252c276abba6ca8777889d995aa6430462503364dfaabfe",
    "section": [
        {
            "Name": "UPX0\u0000\u0000\u0000\u0000",
            "VirtualAddress": "0x1000",
            "Misc_VirtualSize": "0x23000",
            "SizeOfRawData": 0
        },
        {
            "Name": "UPX1\u0000\u0000\u0000\u0000",
            "VirtualAddress": "0x24000",
            "Misc_VirtualSize": "0x8000",
            "SizeOfRawData": 32256
        },
        {
            "Name": ".rsrc\u0000\u0000\u0000",
            "VirtualAddress": "0x2c000",
            "Misc_VirtualSize": "0x3000",
            "SizeOfRawData": 8704
        }
    ],
    "import": {
        "KERNEL32.DLL": [
            "LoadLibraryA",
            "ExitProcess",
            "GetProcAddress",
            "VirtualProtect"
        ],
        "MSVBVM60.DLL": []
    }
}