{
    "hash": "0009dbf80a048a162b699b00da395c66a2461e180cd9155edf1ff83cf34b201c",
    "section": [
        {
            "Name": ".text\u0000\u0000\u0000",
            "VirtualAddress": "0x1000",
            "Misc_VirtualSize": "0xa000",
            "SizeOfRawData": 23040
        },
        {
            "Name": ".rdata\u0000\u0000",
            "VirtualAddress": "0xb000",
            "Misc_VirtualSize": "0x2000",
            "SizeOfRawData": 2048
        },
        {
            "Name": ".data\u0000\u0000\u0000",
            "VirtualAddress": "0xd000",
            "Misc_VirtualSize": "0x3000",
            "SizeOfRawData": 2048
        },
        {
            "Name": ".rsrc\u0000\u0000\u0000",
            "VirtualAddress": "0x10000",
            "Misc_VirtualSize": "0x1000",
            "SizeOfRawData": 512
        },
        {
            "Name": ".aspack\u0000",
            "VirtualAddress": "0x11000",
            "Misc_VirtualSize": "0x2000",
            "SizeOfRawData": 6656
        },
        {
            "Name": ".adata\u0000\u0000",
            "VirtualAddress": "0x13000",
            "Misc_VirtualSize": "0x1000",
            "SizeOfRawData": 4096
        }
    ],
    "import": {
        "kernel32.dll": [
            "GetProcAddress",
            "GetModuleHandleA",
            "LoadLibraryA"
        ],
        "ws2_32.dll": [
            "WSAStartup"
        ],
        "user32.dll": [
            "ExitWindowsEx"
        ],
        "advapi32.dll": [
            "OpenProcessToken"
        ],
        "version.dll": [
            "GetFileVersionInfoSizeA"
        ]
    }
}