{
    "hash": "0009ac96f7dba3ba6282b37ddbb60a480c8a99b110eb7199ff182a7579bbb32a",
    "section": [
        {
            "Name": ".text\u0000\u0000\u0000",
            "VirtualAddress": "0x1000",
            "Misc_VirtualSize": "0x14759c",
            "SizeOfRawData": 1340928
        },
        {
            "Name": ".itext\u0000\u0000",
            "VirtualAddress": "0x149000",
            "Misc_VirtualSize": "0xe10",
            "SizeOfRawData": 4096
        },
        {
            "Name": ".data\u0000\u0000\u0000",
            "VirtualAddress": "0x14a000",
            "Misc_VirtualSize": "0x53c0",
            "SizeOfRawData": 21504
        },
        {
            "Name": ".bss\u0000\u0000\u0000\u0000",
            "VirtualAddress": "0x150000",
            "Misc_VirtualSize": "0x65c4",
            "SizeOfRawData": 0
        },
        {
            "Name": ".idata\u0000\u0000",
            "VirtualAddress": "0x157000",
            "Misc_VirtualSize": "0x35cc",
            "SizeOfRawData": 13824
        },
        {
            "Name": ".tls\u0000\u0000\u0000\u0000",
            "VirtualAddress": "0x15b000",
            "Misc_VirtualSize": "0x40",
            "SizeOfRawData": 0
        },
        {
            "Name": ".rdata\u0000\u0000",
            "VirtualAddress": "0x15c000",
            "Misc_VirtualSize": "0x18",
            "SizeOfRawData": 512
        },
        {
            "Name": ".reloc\u0000\u0000",
            "VirtualAddress": "0x15d000",
            "Misc_VirtualSize": "0x169e4",
            "SizeOfRawData": 92672
        },
        {
            "Name": ".rsrc\u0000\u0000\u0000",
            "VirtualAddress": "0x174000",
            "Misc_VirtualSize": "0x54a00",
            "SizeOfRawData": 346624
        }
    ],
    "import": {
        "oleaut32.dll": [
            "SafeArrayPtrOfIndex",
            "SafeArrayPutElement",
            "SafeArrayGetElement",
            "SafeArrayUnaccessData",
            "SafeArrayAccessData",
            "SafeArrayGetUBound",
            "SafeArrayGetLBound",
            "SafeArrayRedim",
            "SafeArrayCreate",
            "VariantChangeType",
            "VariantCopyInd",
            "VariantCopy",
            "VariantClear",
            "VariantInit"
        ],
        "advapi32.dll": [
            "RegSetValueExA",
            "RegQueryValueExA",
            "RegOpenKeyExA",
            "RegFlushKey",
            "RegCreateKeyExA",
            "RegCloseKey"
        ],
        "user32.dll": [
            "CreateWindowExA",
            "WindowFromPoint",
            "WaitMessage",
            "ValidateRect",
            "UpdateWindow",
            "UnregisterClassA",
            "UnionRect",
            "UnhookWindowsHookEx",
            "TranslateMessage",
            "TranslateMDISysAccel",
            "TrackPopupMenu",
            "SystemParametersInfoA",
            "ShowWindow",
            "ShowScrollBar",
            "ShowOwnedPopups",
            "SetWindowsHookExA",
            "SetWindowTextA",
            "SetWindowPos",
            "SetWindowPlacement",
            "SetWindowLongW",
            "SetWindowLongA",
            "SetTimer",
            "SetScrollRange",
            "SetScrollPos",
            "SetScrollInfo",
            "SetRect",
            "SetPropA",
            "SetParent",
            "SetMenuItemInfoA",
            "SetMenu",
            "SetKeyboardState",
            "SetForegroundWindow",
            "SetFocus",
            "SetCursor",
            "SetClipboardData",
            "SetClassLongA",
            "SetCaretPos",
            "SetCapture",
            "SetActiveWindow",
            "SendMessageTimeoutA",
            "SendMessageW",
            "SendMessageA",
            "ScrollWindowEx",
            "ScrollWindow",
            "ScreenToClient",
            "RemovePropA",
            "RemoveMenu",
            "ReleaseDC",
            "ReleaseCapture",
            "RegisterWindowMessageA",
            "RegisterClipboardFormatA",
            "RegisterClassA",
            "RedrawWindow",
            "RealGetWindowClassA",
            "PtInRect",
            "PostQuitMessage",
            "PostMessageA",
            "PeekMessageW",
            "PeekMessageA",
            "OpenClipboard",
            "OffsetRect",
            "OemToCharBuffA",
            "OemToCharA",
            "MsgWaitForMultipleObjects",
            "MessageBoxA",
            "MessageBeep",
            "MapWindowPoints",
            "MapVirtualKeyA",
            "LoadStringA",
            "LoadKeyboardLayoutA",
            "LoadIconA",
            "LoadCursorA",
            "LoadBitmapA",
            "KillTimer",
            "IsZoomed",
            "IsWindowVisible",
            "IsWindowUnicode",
            "IsWindowEnabled",
            "IsWindow",
            "IsRectEmpty",
            "IsIconic",
            "IsDialogMessageW",
            "IsDialogMessageA",
            "IsChild",
            "IsCharAlphaNumericA",
            "IsCharAlphaA",
            "InvalidateRect",
            "IntersectRect",
            "InsertMenuItemA",
            "InsertMenuA",
            "InflateRect",
            "GetWindowThreadProcessId",
            "GetWindowTextA",
            "GetWindowRect",
            "GetWindowPlacement",
            "GetWindowLongW",
            "GetWindowLongA",
            "GetWindowDC",
            "GetTopWindow",
            "GetSystemMetrics",
            "GetSystemMenu",
            "GetSysColorBrush",
            "GetSysColor",
            "GetSubMenu",
            "GetScrollRange",
            "GetScrollPos",
            "GetScrollInfo",
            "GetPropA",
            "GetParent",
            "GetWindow",
            "GetMessageTime",
            "GetMessagePos",
            "GetMenuStringA",
            "GetMenuState",
            "GetMenuItemInfoA",
            "GetMenuItemID",
            "GetMenuItemCount",
            "GetMenu",
            "GetLastActivePopup",
            "GetKeyboardState",
            "GetKeyboardLayoutNameA",
            "GetKeyboardLayoutList",
            "GetKeyboardLayout",
            "GetKeyState",
            "GetKeyNameTextA",
            "GetIconInfo",
            "GetForegroundWindow",
            "GetFocus",
            "GetDoubleClickTime",
            "GetDlgItem",
            "GetDesktopWindow",
            "GetDCEx",
            "GetDC",
            "GetCursorPos",
            "GetCursor",
            "GetClipboardData",
            "GetClientRect",
            "GetClassLongA",
            "GetClassInfoA",
            "GetCaretPos",
            "GetCapture",
            "GetActiveWindow",
            "FrameRect",
            "FindWindowA",
            "FillRect",
            "EqualRect",
            "EnumWindows",
            "EnumThreadWindows",
            "EnumClipboardFormats",
            "EnumChildWindows",
            "EndPaint",
            "EnableWindow",
            "EnableScrollBar",
            "EnableMenuItem",
            "EmptyClipboard",
            "DrawTextA",
            "DrawMenuBar",
            "DrawIconEx",
            "DrawIcon",
            "DrawFrameControl",
            "DrawFocusRect",
            "DrawEdge",
            "DispatchMessageW",
            "DispatchMessageA",
            "DestroyWindow",
            "DestroyMenu",
            "DestroyIcon",
            "DestroyCursor",
            "DestroyCaret",
            "DeleteMenu",
            "DefWindowProcA",
            "DefMDIChildProcA",
            "DefFrameProcA",
            "CreatePopupMenu",
            "CreateMenu",
            "CreateIcon",
            "CreateCaret",
            "CloseClipboard",
            "ClientToScreen",
            "CheckMenuItem",
            "CharUpperBuffW",
            "CharNextW",
            "CharLowerBuffW",
            "CallWindowProcA",
            "CallNextHookEx",
            "BeginPaint",
            "CharNextA",
            "CharLowerBuffA",
            "CharLowerA",
            "CharUpperBuffA",
            "CharToOemBuffA",
            "CharToOemA",
            "AdjustWindowRectEx",
            "ActivateKeyboardLayout"
        ],
        "kernel32.dll": [
            "MulDiv"
        ],
        "gdi32.dll": [
            "UnrealizeObject",
            "StretchBlt",
            "SetWindowOrgEx",
            "SetWindowExtEx",
            "SetWinMetaFileBits",
            "SetViewportOrgEx",
            "SetViewportExtEx",
            "SetTextColor",
            "SetStretchBltMode",
            "SetROP2",
            "SetPixel",
            "SetMapMode",
            "SetEnhMetaFileBits",
            "SetDIBColorTable",
            "SetBrushOrgEx",
            "SetBkMode",
            "SetBkColor",
            "SelectPalette",
            "SelectObject",
            "SelectClipRgn",
            "SaveDC",
            "RoundRect",
            "RestoreDC",
            "Rectangle",
            "RectVisible",
            "RealizePalette",
            "Polyline",
            "Polygon",
            "PolyPolyline",
            "PlayEnhMetaFile",
            "PatBlt",
            "MoveToEx",
            "MaskBlt",
            "LineTo",
            "LPtoDP",
            "IntersectClipRect",
            "GetWindowOrgEx",
            "GetWinMetaFileBits",
            "GetTextMetricsA",
            "GetTextExtentPointA",
            "GetTextExtentPoint32A",
            "GetSystemPaletteEntries",
            "GetStockObject",
            "GetRgnBox",
            "GetPixel",
            "GetPaletteEntries",
            "GetObjectA",
            "GetNearestColor",
            "GetEnhMetaFilePaletteEntries",
            "GetEnhMetaFileHeader",
            "GetEnhMetaFileDescriptionA",
            "GetEnhMetaFileBits",
            "GetDeviceCaps",
            "GetDIBits",
            "GetDIBColorTable",
            "GetDCOrgEx",
            "GetCurrentPositionEx",
            "GetClipBox",
            "GetBrushOrgEx",
            "GetBitmapBits",
            "GdiFlush",
            "ExtTextOutA",
            "ExtCreatePen",
            "ExcludeClipRect",
            "Ellipse",
            "DeleteObject",
            "DeleteEnhMetaFile",
            "DeleteDC",
            "CreateSolidBrush",
            "CreateRectRgn",
            "CreatePenIndirect",
            "CreatePalette",
            "CreateHalftonePalette",
            "CreateFontIndirectA",
            "CreateEnhMetaFileA",
            "CreateDIBitmap",
            "CreateDIBSection",
            "CreateCompatibleDC",
            "CreateCompatibleBitmap",
            "CreateBrushIndirect",
            "CreateBitmap",
            "CopyEnhMetaFileA",
            "CombineRgn",
            "CloseEnhMetaFile",
            "BitBlt"
        ],
        "version.dll": [
            "VerQueryValueA",
            "GetFileVersionInfoSizeA",
            "GetFileVersionInfoA"
        ],
        "ole32.dll": [
            "CLSIDFromString"
        ],
        "comctl32.dll": [
            "_TrackMouseEvent",
            "ImageList_SetIconSize",
            "ImageList_GetIconSize",
            "ImageList_Write",
            "ImageList_Read",
            "ImageList_GetDragImage",
            "ImageList_DragShowNolock",
            "ImageList_DragMove",
            "ImageList_DragLeave",
            "ImageList_DragEnter",
            "ImageList_EndDrag",
            "ImageList_BeginDrag",
            "ImageList_Remove",
            "ImageList_DrawEx",
            "ImageList_Replace",
            "ImageList_Draw",
            "ImageList_GetBkColor",
            "ImageList_SetBkColor",
            "ImageList_Add",
            "ImageList_SetImageCount",
            "ImageList_GetImageCount",
            "ImageList_Destroy",
            "ImageList_Create",
            "InitCommonControls"
        ],
        "comdlg32.dll": [
            "GetOpenFileNameA"
        ],
        "ws2_32.dll": [
            "WSAWaitForMultipleEvents",
            "WSASocketA",
            "WSASetEvent",
            "WSAResetEvent",
            "WSAIoctl",
            "WSAEventSelect",
            "WSACreateEvent",
            "WSACloseEvent",
            "WSAGetLastError",
            "WSACleanup",
            "WSAStartup",
            "gethostname",
            "gethostbyname",
            "socket",
            "shutdown",
            "setsockopt",
            "sendto",
            "recvfrom",
            "ntohs",
            "inet_ntoa",
            "inet_addr",
            "htons",
            "closesocket",
            "bind"
        ]
    }
}