{
    "hash": "00090b169265a6c7d399e9e8be675d1eac82a4c86815c60263f7271d93eac905",
    "section": [
        {
            "Name": ".text\u0000\u0000\u0000",
            "VirtualAddress": "0x1000",
            "Misc_VirtualSize": "0xf132",
            "SizeOfRawData": 65536
        },
        {
            "Name": ".data\u0000\u0000\u0000",
            "VirtualAddress": "0x11000",
            "Misc_VirtualSize": "0x2ac4",
            "SizeOfRawData": 4096
        },
        {
            "Name": ".rsrc\u0000\u0000\u0000",
            "VirtualAddress": "0x14000",
            "Misc_VirtualSize": "0x670",
            "SizeOfRawData": 4096
        },
        {
            "Name": ".text\u0000\u0000\u0000",
            "VirtualAddress": "0x15000",
            "Misc_VirtualSize": "0x5000",
            "SizeOfRawData": 20480
        },
        {
            "Name": ".rdata\u0000\u0000",
            "VirtualAddress": "0x1a000",
            "Misc_VirtualSize": "0xa62",
            "SizeOfRawData": 4096
        },
        {
            "Name": ".data\u0000\u0000\u0000",
            "VirtualAddress": "0x1b000",
            "Misc_VirtualSize": "0x20dc",
            "SizeOfRawData": 4096
        },
        {
            "Name": ".reloc\u0000\u0000",
            "VirtualAddress": "0x1e000",
            "Misc_VirtualSize": "0x758",
            "SizeOfRawData": 4096
        }
    ],
    "import": {
        "KERNEL32.dll": [
            "GlobalAlloc",
            "SetFilePointer",
            "ReadFile",
            "GlobalFree",
            "WriteFile",
            "GetFileSize",
            "FindClose",
            "FindNextFileA",
            "DeleteFileA",
            "SetFileAttributesA",
            "CloseHandle",
            "SetFileTime",
            "GetFileTime",
            "CreateFileA",
            "FindFirstFileA",
            "GetDriveTypeA",
            "FreeLibrary",
            "ReleaseMutex",
            "ResumeThread",
            "SetThreadPriority",
            "GetLastError",
            "WaitForSingleObject",
            "CreateMutexA",
            "CreateThread",
            "GetCommandLineA",
            "GetProcAddress",
            "ExitProcess",
            "LoadLibraryA",
            "GetModuleHandleA",
            "GetWindowsDirectoryA",
            "GetModuleFileNameA",
            "GetStringTypeW",
            "FlushFileBuffers",
            "RtlUnwind",
            "GetVersion",
            "HeapFree",
            "HeapAlloc",
            "TerminateProcess",
            "GetCurrentProcess",
            "UnhandledExceptionFilter",
            "FreeEnvironmentStringsA",
            "FreeEnvironmentStringsW",
            "WideCharToMultiByte",
            "GetEnvironmentStrings",
            "GetEnvironmentStringsW",
            "SetHandleCount",
            "GetStdHandle",
            "GetFileType",
            "GetStartupInfoA",
            "HeapDestroy",
            "HeapCreate",
            "VirtualFree",
            "VirtualAlloc",
            "HeapReAlloc",
            "GetCPInfo",
            "GetACP",
            "GetOEMCP",
            "SetStdHandle",
            "MultiByteToWideChar",
            "LCMapStringA",
            "LCMapStringW",
            "GetStringTypeA"
        ],
        "USER32.dll": [
            "MessageBoxA"
        ]
    }
}