{
    "hash": "00097870b81ce69bb37185e01245fda94021630a12a03305c70ae1cac2d5033f",
    "section": [
        {
            "Name": ".text\u0000\u0000\u0000",
            "VirtualAddress": "0x1000",
            "Misc_VirtualSize": "0x13e00",
            "SizeOfRawData": 81408
        },
        {
            "Name": ".data\u0000\u0000\u0000",
            "VirtualAddress": "0x15000",
            "Misc_VirtualSize": "0x1084",
            "SizeOfRawData": 4608
        },
        {
            "Name": ".rdata\u0000\u0000",
            "VirtualAddress": "0x17000",
            "Misc_VirtualSize": "0x546ec",
            "SizeOfRawData": 346112
        },
        {
            "Name": ".bss\u0000\u0000\u0000\u0000",
            "VirtualAddress": "0x6c000",
            "Misc_VirtualSize": "0x27e4",
            "SizeOfRawData": 0
        },
        {
            "Name": ".CRT\u0000\u0000\u0000\u0000",
            "VirtualAddress": "0x6f000",
            "Misc_VirtualSize": "0xc",
            "SizeOfRawData": 512
        },
        {
            "Name": ".idata\u0000\u0000",
            "VirtualAddress": "0x70000",
            "Misc_VirtualSize": "0x9a5",
            "SizeOfRawData": 2560
        },
        {
            "Name": ".rsrc\u0000\u0000\u0000",
            "VirtualAddress": "0x71000",
            "Misc_VirtualSize": "0x1f0",
            "SizeOfRawData": 512
        }
    ],
    "import": {
        "kernel32.dll": [
            "GetLastError",
            "SetLastError",
            "GetTickCount",
            "ExitProcess",
            "GetStartupInfoA",
            "GetStdHandle",
            "GetCommandLineA",
            "GetCurrentProcessId",
            "GetCurrentThreadId",
            "GetCurrentProcess",
            "ReadProcessMemory",
            "GetModuleFileNameA",
            "GetModuleHandleA",
            "WriteFile",
            "ReadFile",
            "CloseHandle",
            "SetFilePointer",
            "FreeLibrary",
            "LoadLibraryA",
            "GetProcAddress",
            "DeleteFileW",
            "MoveFileW",
            "CreateFileW",
            "GetFileAttributesW",
            "GetConsoleMode",
            "GetConsoleOutputCP",
            "GetOEMCP",
            "GetProcessHeap",
            "HeapAlloc",
            "HeapFree",
            "TlsAlloc",
            "TlsGetValue",
            "TlsSetValue",
            "CreateThread",
            "ExitThread",
            "LocalAlloc",
            "LocalFree",
            "Sleep",
            "SuspendThread",
            "ResumeThread",
            "TerminateThread",
            "WaitForSingleObject",
            "SetThreadPriority",
            "GetThreadPriority",
            "CreateEventA",
            "ResetEvent",
            "SetEvent",
            "InitializeCriticalSection",
            "DeleteCriticalSection",
            "EnterCriticalSection",
            "LeaveCriticalSection",
            "TryEnterCriticalSection",
            "MultiByteToWideChar",
            "WideCharToMultiByte",
            "GetACP",
            "GetConsoleCP",
            "SetUnhandledExceptionFilter",
            "EnumResourceTypesA",
            "EnumResourceNamesA",
            "EnumResourceLanguagesA",
            "FindResourceA",
            "FindResourceExA",
            "LoadResource",
            "SizeofResource",
            "LockResource",
            "FreeResource",
            "GetWindowsDirectoryA",
            "CopyFileA",
            "CreateProcessA",
            "GetVersionExA",
            "CompareStringA",
            "GetLocaleInfoA",
            "EnumCalendarInfoA",
            "FormatMessageW",
            "CompareStringW",
            "TerminateProcess",
            "GetThreadLocale",
            "SetThreadLocale",
            "GetUserDefaultLCID"
        ],
        "oleaut32.dll": [
            "SysAllocStringLen",
            "SysFreeString",
            "SysReAllocStringLen"
        ],
        "user32.dll": [
            "MessageBoxA",
            "CharUpperBuffW",
            "CharLowerBuffW",
            "CharUpperA",
            "CharUpperBuffA",
            "CharLowerA",
            "CharLowerBuffA",
            "GetSystemMetrics",
            "MessageBeep"
        ]
    }
}