{
    "hash": "0009c0b059cbb40d57225dd802abe07daa1f6bdf9c654818658a873284be60bf",
    "section": [
        {
            "Name": ".text\u0000\u0000\u0000",
            "VirtualAddress": "0x1000",
            "Misc_VirtualSize": "0xa9000",
            "SizeOfRawData": 692224
        },
        {
            "Name": ".rdata\u0000\u0000",
            "VirtualAddress": "0xaa000",
            "Misc_VirtualSize": "0x2000",
            "SizeOfRawData": 10240
        },
        {
            "Name": ".data\u0000\u0000\u0000",
            "VirtualAddress": "0xac000",
            "Misc_VirtualSize": "0x14b000",
            "SizeOfRawData": 1355776
        },
        {
            "Name": ".rsrc\u0000\u0000\u0000",
            "VirtualAddress": "0x1f7000",
            "Misc_VirtualSize": "0x1200",
            "SizeOfRawData": 4608
        }
    ],
    "import": {
        "kernel32.dll": [
            "VirtualAlloc",
            "GetCommandLineW"
        ],
        "user32.dll": [
            "GetMessagePos"
        ]
    }
}