{
    "hash": "0009b0186ad7b12ec56cc19308a2c139ff9330b091b5c8e8f81a983e703a1d4a",
    "section": [
        {
            "Name": ".text\u0000\u0000\u0000",
            "VirtualAddress": "0x1000",
            "Misc_VirtualSize": "0x570f6",
            "SizeOfRawData": 356864
        },
        {
            "Name": ".rdata\u0000\u0000",
            "VirtualAddress": "0x59000",
            "Misc_VirtualSize": "0x21b28",
            "SizeOfRawData": 138240
        },
        {
            "Name": ".data\u0000\u0000\u0000",
            "VirtualAddress": "0x7b000",
            "Misc_VirtualSize": "0x48c0",
            "SizeOfRawData": 8704
        },
        {
            "Name": ".rsrc\u0000\u0000\u0000",
            "VirtualAddress": "0x80000",
            "Misc_VirtualSize": "0x3ec0",
            "SizeOfRawData": 16384
        },
        {
            "Name": ".reloc\u0000\u0000",
            "VirtualAddress": "0x84000",
            "Misc_VirtualSize": "0x6352",
            "SizeOfRawData": 25600
        }
    ],
    "import": {
        "KERNEL32.dll": [
            "InitializeCriticalSectionAndSpinCount",
            "LocalAlloc",
            "LoadLibraryA",
            "CreateEventW",
            "CreateMutexW",
            "WaitForSingleObject",
            "GetCommandLineW",
            "GetTempFileNameW",
            "GetTickCount",
            "MapViewOfFile",
            "HeapAlloc",
            "HeapFree",
            "lstrcmpW",
            "FindClose",
            "GetFullPathNameW",
            "FindFirstFileW",
            "FindNextFileW",
            "DebugBreak",
            "OutputDebugStringW",
            "lstrlenA",
            "LoadLibraryW",
            "MulDiv",
            "GlobalUnlock",
            "GlobalLock",
            "GlobalAlloc",
            "FlushFileBuffers",
            "CloseHandle",
            "CreateFileW",
            "ReadFile",
            "WriteConsoleW",
            "SetStdHandle",
            "LCMapStringW",
            "GetConsoleMode",
            "GetConsoleCP",
            "DeleteCriticalSection",
            "SetFilePointer",
            "RtlUnwind",
            "GetCurrentProcessId",
            "QueryPerformanceCounter",
            "GetFileType",
            "SetHandleCount",
            "GetEnvironmentStringsW",
            "FreeEnvironmentStringsW",
            "GetStringTypeW",
            "IsValidCodePage",
            "GetOEMCP",
            "GetACP",
            "GetCPInfo",
            "TlsFree",
            "TlsSetValue",
            "TlsGetValue",
            "TlsAlloc",
            "GetStdHandle",
            "WriteFile",
            "HeapReAlloc",
            "HeapCreate",
            "ExitProcess",
            "HeapSize",
            "Sleep",
            "IsDebuggerPresent",
            "SetUnhandledExceptionFilter",
            "UnhandledExceptionFilter",
            "TerminateProcess",
            "GetStartupInfoW",
            "HeapSetInformation",
            "GetSystemTimeAsFileTime",
            "DecodePointer",
            "EncodePointer",
            "InterlockedPopEntrySList",
            "VirtualAlloc",
            "VirtualFree",
            "InterlockedIncrement",
            "InterlockedDecrement",
            "GetModuleFileNameW",
            "LoadLibraryExW",
            "FindResourceW",
            "LoadResource",
            "lstrlenW",
            "SizeofResource",
            "MultiByteToWideChar",
            "lstrcmpiW",
            "FreeLibrary",
            "SetLastError",
            "GetLastError",
            "RaiseException",
            "GetCurrentThreadId",
            "FlushInstructionCache",
            "GetCurrentProcess",
            "GetModuleHandleW",
            "GetProcAddress",
            "LeaveCriticalSection",
            "EnterCriticalSection",
            "WideCharToMultiByte",
            "IsProcessorFeaturePresent",
            "GetProcessHeap",
            "InterlockedPushEntrySList",
            "InterlockedCompareExchange"
        ],
        "USER32.dll": [
            "LoadCursorW",
            "DestroyWindow",
            "GetWindowLongW",
            "CreateWindowExW",
            "DefWindowProcW",
            "RegisterClassExW",
            "GetClassInfoExW",
            "SetTimer",
            "KillTimer",
            "SetWindowLongW",
            "RedrawWindow",
            "RegisterWindowMessageW",
            "BeginPaint",
            "FillRect",
            "EndPaint",
            "IsChild",
            "SetFocus",
            "GetDlgItem",
            "GetClassNameW",
            "GetSysColor",
            "UnregisterClassA",
            "CreateAcceleratorTableW",
            "InvalidateRect",
            "GetDesktopWindow",
            "GetFocus",
            "UpdateWindow",
            "SetWindowTextW",
            "GetWindowTextW",
            "GetWindowTextLengthW",
            "ClientToScreen",
            "ReleaseDC",
            "GetDC",
            "PostMessageW",
            "ShowWindow",
            "IsWindowVisible",
            "GetWindow",
            "MonitorFromWindow",
            "GetMonitorInfoW",
            "GetParent",
            "GetClientRect",
            "MapWindowPoints",
            "SetWindowPos",
            "MoveWindow",
            "GetWindowRect",
            "SendMessageW",
            "MessageBoxW",
            "IsWindow",
            "PeekMessageW",
            "GetMessageW",
            "TranslateMessage",
            "DispatchMessageW",
            "CharNextW",
            "CallWindowProcW"
        ],
        "GDI32.dll": [
            "CreateSolidBrush",
            "GetDeviceCaps",
            "GetObjectW",
            "SelectObject",
            "CreateCompatibleDC",
            "DeleteDC",
            "DeleteObject",
            "GetStockObject"
        ],
        "COMDLG32.dll": [
            "GetSaveFileNameW",
            "GetOpenFileNameW"
        ],
        "ADVAPI32.dll": [
            "RegQueryInfoKeyW",
            "RegDeleteKeyW",
            "RegDeleteValueW",
            "RegEnumKeyExW",
            "RegSetValueExW",
            "RegQueryValueExW",
            "RegCreateKeyExW",
            "RegOpenKeyExW",
            "RegCloseKey"
        ],
        "SHELL32.dll": [
            "CommandLineToArgvW",
            "DoEnvironmentSubstW",
            "SHGetFolderPathW"
        ],
        "ole32.dll": [
            "OleInitialize",
            "CreateStreamOnHGlobal",
            "OleLockRunning",
            "OleUninitialize",
            "StringFromCLSID",
            "CoUninitialize",
            "CoTaskMemAlloc",
            "CoTaskMemRealloc",
            "CoTaskMemFree",
            "CoCreateInstance"
        ],
        "OLEAUT32.dll": [
            "VarUI4FromStr",
            "SysStringLen",
            "VariantCopy",
            "SysAllocString",
            "OleCreateFontIndirect",
            "DispCallFunc",
            "VarBstrCat",
            "SysStringByteLen",
            "SysAllocStringByteLen",
            "LoadTypeLib",
            "SysFreeString",
            "VariantInit",
            "VariantClear",
            "VariantChangeType",
            "LoadRegTypeLib"
        ],
        "SHLWAPI.dll": [
            "PathFileExistsW",
            "PathRemoveFileSpecW",
            "PathAddBackslashW"
        ]
    }
}