{
    "hash": "00096785706f0f3f907dd5cfbee144ddae1acd7307cd0787e3637cbcf390b0e7",
    "section": [
        {
            "Name": ".text\u0000\u0000\u0000",
            "VirtualAddress": "0x1000",
            "Misc_VirtualSize": "0x77bf1",
            "SizeOfRawData": 490496
        },
        {
            "Name": ".rdata\u0000\u0000",
            "VirtualAddress": "0x79000",
            "Misc_VirtualSize": "0x189a4",
            "SizeOfRawData": 100864
        },
        {
            "Name": ".data\u0000\u0000\u0000",
            "VirtualAddress": "0x92000",
            "Misc_VirtualSize": "0x8c4b8",
            "SizeOfRawData": 570880
        },
        {
            "Name": ".reloc\u0000\u0000",
            "VirtualAddress": "0x11f000",
            "Misc_VirtualSize": "0x4efc",
            "SizeOfRawData": 20480
        }
    ],
    "import": {
        "KERNEL32.dll": [
            "ExitProcess",
            "GetFileSize",
            "MapViewOfFile",
            "UnmapViewOfFile",
            "CreateMutexA",
            "CreateFileMappingW",
            "GetModuleHandleA",
            "GetCommandLineA",
            "CreateDirectoryW",
            "CreateFileW",
            "GetVersionExW",
            "CreateThread",
            "TerminateProcess",
            "GetShortPathNameA",
            "GetShortPathNameW",
            "GetLongPathNameA",
            "GetLongPathNameW",
            "WriteFile",
            "ReadFile",
            "SetFilePointer",
            "FindClose",
            "SetFileTime",
            "DuplicateHandle",
            "SystemTimeToFileTime",
            "GetSystemDirectoryW",
            "GetTempPathW",
            "GetCurrentDirectoryW",
            "RemoveDirectoryW",
            "GetFullPathNameA",
            "GetFullPathNameW",
            "GetFileAttributesW",
            "GetFileAttributesExW",
            "DeleteFileW",
            "FindFirstFileW",
            "FindNextFileW",
            "MoveFileExW",
            "GetVolumeInformationA",
            "LocalAlloc",
            "HeapAlloc",
            "HeapFree",
            "GetProcessHeap",
            "OpenProcess",
            "GetCurrentProcessId",
            "GetLocalTime",
            "GetCurrentProcess",
            "GetWindowsDirectoryW",
            "GetSystemWow64DirectoryW",
            "CreateToolhelp32Snapshot",
            "Process32First",
            "Process32Next",
            "Module32FirstW",
            "VirtualProtect",
            "RtlUnwind",
            "InitializeSListHead",
            "WriteConsoleW",
            "FlushFileBuffers",
            "SetFilePointerEx",
            "GetConsoleMode",
            "GetConsoleCP",
            "SetStdHandle",
            "SetEnvironmentVariableA",
            "FreeEnvironmentStringsW",
            "GetEnvironmentStringsW",
            "GetCommandLineW",
            "GetOEMCP",
            "IsValidCodePage",
            "FindNextFileA",
            "FindFirstFileExA",
            "HeapSize",
            "GetTimeZoneInformation",
            "GetFileType",
            "GetStdHandle",
            "GetACP",
            "EnumSystemLocalesW",
            "GetUserDefaultLCID",
            "IsValidLocale",
            "GetTimeFormatW",
            "GetDateFormatW",
            "HeapReAlloc",
            "GetCurrentThreadId",
            "GetModuleFileNameA",
            "GetModuleHandleExW",
            "GetExitCodeProcess",
            "CreateEventA",
            "WaitForSingleObject",
            "InterlockedExchange",
            "Sleep",
            "LoadLibraryW",
            "LoadLibraryA",
            "GetProcAddress",
            "FreeLibrary",
            "InterlockedDecrement",
            "GetEnvironmentVariableW",
            "CreateProcessW",
            "GetModuleFileNameW",
            "GetSystemInfo",
            "CloseHandle",
            "GetTickCount",
            "DeleteCriticalSection",
            "InitializeCriticalSectionAndSpinCount",
            "GetLastError",
            "FileTimeToSystemTime",
            "RaiseException",
            "QueryPerformanceCounter",
            "GetStartupInfoW",
            "WaitForSingleObjectEx",
            "ResetEvent",
            "SetEvent",
            "IsProcessorFeaturePresent",
            "SetUnhandledExceptionFilter",
            "UnhandledExceptionFilter",
            "LocalFree",
            "OutputDebugStringW",
            "IsDebuggerPresent",
            "LoadLibraryExW",
            "WideCharToMultiByte",
            "MultiByteToWideChar",
            "EnterCriticalSection",
            "LeaveCriticalSection",
            "GetCPInfo",
            "SetLastError",
            "CreateEventW",
            "SwitchToThread",
            "TlsAlloc",
            "TlsGetValue",
            "TlsSetValue",
            "TlsFree",
            "GetSystemTimeAsFileTime",
            "GetModuleHandleW",
            "CompareStringW",
            "LCMapStringW",
            "GetLocaleInfoW",
            "GetStringTypeW",
            "InterlockedFlushSList"
        ],
        "SHELL32.dll": [
            "SHGetFolderPathW"
        ],
        "ole32.dll": [
            "CoTaskMemFree",
            "CoCreateInstance",
            "CoCreateGuid",
            "CoTaskMemAlloc",
            "CoInitializeEx"
        ],
        "WS2_32.dll": [
            "socket",
            "shutdown",
            "send",
            "ntohs",
            "listen",
            "htons",
            "sendto",
            "getpeername",
            "connect",
            "closesocket",
            "bind",
            "accept",
            "ntohl",
            "inet_addr",
            "select",
            "recv",
            "recvfrom",
            "htonl"
        ],
        "USERENV.dll": [
            "CreateEnvironmentBlock",
            "DestroyEnvironmentBlock"
        ],
        "USER32.dll": [
            "DispatchMessageW",
            "PeekMessageW",
            "GetDesktopWindow",
            "GetWindowRect"
        ],
        "ADVAPI32.dll": [
            "GetCurrentHwProfileA",
            "OpenProcessToken",
            "InitializeSecurityDescriptor",
            "GetUserNameW",
            "GetTokenInformation",
            "GetSidSubAuthority",
            "FreeSid",
            "DuplicateTokenEx",
            "CheckTokenMembership",
            "AllocateAndInitializeSid",
            "ConvertStringSecurityDescriptorToSecurityDescriptorA",
            "ConvertSidToStringSidW",
            "RegSetValueExW",
            "RegQueryValueExW",
            "RegOpenKeyExW",
            "RegEnumKeyExW",
            "RegCreateKeyExW",
            "RegCloseKey",
            "CreateProcessAsUserW",
            "RegDeleteValueA"
        ],
        "OLEAUT32.dll": [
            "VariantClear",
            "VariantInit",
            "SafeArrayCreateVector",
            "SafeArrayPutElement",
            "SafeArrayUnlock",
            "SysAllocString",
            "SafeArrayDestroy",
            "SafeArrayCreate",
            "SysFreeString",
            "SafeArrayLock",
            "VariantChangeType"
        ]
    }
}