{
    "hash": "0009cf8b647d693e9e3c4b82c8272490ace1cf2cf5773e7e4a4c0d62fb47c645",
    "section": [
        {
            "Name": "UPX0\u0000\u0000\u0000\u0000",
            "VirtualAddress": "0x1000",
            "Misc_VirtualSize": "0x57000",
            "SizeOfRawData": 0
        },
        {
            "Name": "UPX1\u0000\u0000\u0000\u0000",
            "VirtualAddress": "0x58000",
            "Misc_VirtualSize": "0x4a000",
            "SizeOfRawData": 302080
        },
        {
            "Name": ".rsrc\u0000\u0000\u0000",
            "VirtualAddress": "0xa2000",
            "Misc_VirtualSize": "0x2000",
            "SizeOfRawData": 5120
        }
    ],
    "import": {
        "KERNEL32.DLL": [
            "LoadLibraryA",
            "GetProcAddress",
            "VirtualProtect",
            "VirtualAlloc",
            "VirtualFree",
            "ExitProcess"
        ],
        "advapi32.dll": [
            "RegCloseKey"
        ],
        "comctl32.dll": [
            "ImageList_Add"
        ],
        "gdi32.dll": [
            "SaveDC"
        ],
        "oleaut32.dll": [
            "VariantCopy"
        ],
        "user32.dll": [
            "GetDC"
        ],
        "version.dll": [
            "VerQueryValueA"
        ]
    }
}