{
    "hash": "0009f0e0db052e62167d212edd737aca852a052965067446abbff4380f604be2",
    "section": [
        {
            "Name": "UPX0\u0000\u0000\u0000\u0000",
            "VirtualAddress": "0x1000",
            "Misc_VirtualSize": "0x23000",
            "SizeOfRawData": 141824
        },
        {
            "Name": "UPX1\u0000\u0000\u0000\u0000",
            "VirtualAddress": "0x24000",
            "Misc_VirtualSize": "0x8000",
            "SizeOfRawData": 32256
        },
        {
            "Name": ".rsrc\u0000\u0000\u0000",
            "VirtualAddress": "0x2c000",
            "Misc_VirtualSize": "0x3000",
            "SizeOfRawData": 8704
        },
        {
            "Name": ".imports",
            "VirtualAddress": "0x2f000",
            "Misc_VirtualSize": "0x1000",
            "SizeOfRawData": 2048
        }
    ],
    "import": {
        "MSVBVM60.DLL": [
            "__vbaVarTstGt",
            "__vbaVarSub",
            "__vbaNextEachAry",
            "_CIcos",
            "_adj_fptan",
            "__vbaVarMove",
            "__vbaFreeVar",
            "__vbaLenBstr",
            "__vbaStrVarMove",
            "__vbaFreeVarList",
            "__vbaEnd",
            "__vbaPut3",
            "_adj_fdiv_m64",
            "__vbaFreeObjList"
        ]
    }
}