{
    "hash": "0009fcdae31d9edae353b57497f4bf74a3984cf8452eb412b5b5d80b6e3d750e",
    "section": [
        {
            "Name": ".text\u0000\u0000\u0000",
            "VirtualAddress": "0x1000",
            "Misc_VirtualSize": "0x5bfe",
            "SizeOfRawData": 23552
        },
        {
            "Name": ".rdata\u0000\u0000",
            "VirtualAddress": "0x7000",
            "Misc_VirtualSize": "0x11fe",
            "SizeOfRawData": 4608
        },
        {
            "Name": ".data\u0000\u0000\u0000",
            "VirtualAddress": "0x9000",
            "Misc_VirtualSize": "0x264f4",
            "SizeOfRawData": 1024
        },
        {
            "Name": ".ndata\u0000\u0000",
            "VirtualAddress": "0x30000",
            "Misc_VirtualSize": "0xa000",
            "SizeOfRawData": 0
        },
        {
            "Name": ".rsrc\u0000\u0000\u0000",
            "VirtualAddress": "0x3a000",
            "Misc_VirtualSize": "0x6e98",
            "SizeOfRawData": 28672
        },
        {
            "Name": ".xur\u0006\u0000\u0000\u0000",
            "VirtualAddress": "0x41000",
            "Misc_VirtualSize": "0x1000",
            "SizeOfRawData": 2048
        }
    ],
    "import": {
        "KERNEL32.dll": [
            "LoadLibraryA",
            "GetProcAddress",
            "CompareFileTime",
            "SearchPathA",
            "GetShortPathNameA",
            "GetFullPathNameA",
            "MoveFileA",
            "SetCurrentDirectoryA",
            "GetFileAttributesA",
            "GetLastError",
            "CreateDirectoryA",
            "SetFileAttributesA",
            "Sleep",
            "GetFileSize",
            "GetModuleFileNameA",
            "GetTickCount",
            "GetCurrentProcess",
            "lstrcmpiA",
            "ExitProcess",
            "GetCommandLineA",
            "GetWindowsDirectoryA",
            "GetTempPathA",
            "lstrcpynA",
            "GetDiskFreeSpaceA",
            "GlobalUnlock",
            "GlobalLock",
            "CreateThread",
            "CreateProcessA",
            "RemoveDirectoryA",
            "CreateFileA",
            "GetTempFileNameA",
            "lstrlenA",
            "lstrcatA",
            "GetSystemDirectoryA",
            "lstrcmpA",
            "GetEnvironmentVariableA",
            "ExpandEnvironmentStringsA",
            "GlobalFree",
            "GlobalAlloc",
            "WaitForSingleObject",
            "GetExitCodeProcess",
            "SetErrorMode",
            "GetModuleHandleA",
            "LoadLibraryA",
            "GetProcAddress",
            "FreeLibrary",
            "MultiByteToWideChar",
            "WritePrivateProfileStringA",
            "GetPrivateProfileStringA",
            "WriteFile",
            "ReadFile",
            "MulDiv",
            "SetFilePointer",
            "FindClose",
            "FindNextFileA",
            "FindFirstFileA",
            "DeleteFileA",
            "CopyFileA"
        ],
        "USER32.dll": [
            "ScreenToClient",
            "GetWindowRect",
            "SetClassLongA",
            "IsWindowEnabled",
            "SetWindowPos",
            "GetSysColor",
            "GetWindowLongA",
            "SetCursor",
            "LoadCursorA",
            "CheckDlgButton",
            "GetMessagePos",
            "LoadBitmapA",
            "CallWindowProcA",
            "IsWindowVisible",
            "CloseClipboard",
            "SetClipboardData",
            "EmptyClipboard",
            "OpenClipboard",
            "EndDialog",
            "AppendMenuA",
            "CreatePopupMenu",
            "GetSystemMetrics",
            "SetDlgItemTextA",
            "GetDlgItemTextA",
            "MessageBoxA",
            "CharPrevA",
            "DispatchMessageA",
            "PeekMessageA",
            "CreateDialogParamA",
            "DestroyWindow",
            "SetTimer",
            "SetWindowTextA",
            "PostQuitMessage",
            "SetForegroundWindow",
            "wsprintfA",
            "SendMessageTimeoutA",
            "FindWindowExA",
            "RegisterClassA",
            "SystemParametersInfoA",
            "CreateWindowExA",
            "GetClassInfoA",
            "DialogBoxParamA",
            "CharNextA",
            "TrackPopupMenu",
            "ExitWindowsEx",
            "IsWindow",
            "GetDlgItem",
            "SetWindowLongA",
            "LoadImageA",
            "GetDC",
            "EnableWindow",
            "InvalidateRect",
            "SendMessageA",
            "DefWindowProcA",
            "BeginPaint",
            "GetClientRect",
            "FillRect",
            "DrawTextA",
            "EndPaint",
            "ShowWindow"
        ],
        "GDI32.dll": [
            "SetBkColor",
            "GetDeviceCaps",
            "DeleteObject",
            "CreateBrushIndirect",
            "CreateFontIndirectA",
            "SetBkMode",
            "SetTextColor",
            "SelectObject"
        ],
        "SHELL32.dll": [
            "SHGetMalloc",
            "SHGetPathFromIDListA",
            "SHBrowseForFolderA",
            "SHGetFileInfoA",
            "ShellExecuteA",
            "SHFileOperationA",
            "SHGetSpecialFolderLocation"
        ],
        "ADVAPI32.dll": [
            "RegQueryValueExA",
            "RegSetValueExA",
            "RegEnumKeyA",
            "RegEnumValueA",
            "RegOpenKeyExA",
            "RegDeleteKeyA",
            "RegDeleteValueA",
            "RegCloseKey",
            "RegCreateKeyExA"
        ],
        "COMCTL32.dll": [
            "ImageList_AddMasked",
            "ImageList_Destroy"
        ],
        "ole32.dll": [
            "OleInitialize",
            "OleUninitialize",
            "CoCreateInstance"
        ],
        "VERSION.dll": [
            "GetFileVersionInfoSizeA",
            "GetFileVersionInfoA",
            "VerQueryValueA"
        ]
    }
}