{
    "hash": "000aac1aeab7ab1d78d7426d7cfac64d6115f330f9df5ceed698b9305bbd556b",
    "section": [
        {
            "Name": ".Upack\u0000\u0000",
            "VirtualAddress": "0x1000",
            "Misc_VirtualSize": "0x35000",
            "SizeOfRawData": 49
        },
        {
            "Name": ".rsrc\u0000\u0000\u0000",
            "VirtualAddress": "0x36000",
            "Misc_VirtualSize": "0x12000",
            "SizeOfRawData": 42887
        }
    ],
    "import": {
        "KERNEL32.DLL": [
            "LoadLibraryA",
            "GetProcAddress"
        ]
    }
}