{
    "hash": "000aa4db8dfb2f8308ac953da436d49a9c50caf6a8534efc660c1295fac1d375",
    "section": [
        {
            "Name": ".text\u0000\u0000\u0000",
            "VirtualAddress": "0x1000",
            "Misc_VirtualSize": "0x23df8",
            "SizeOfRawData": 147456
        },
        {
            "Name": ".data\u0000\u0000\u0000",
            "VirtualAddress": "0x25000",
            "Misc_VirtualSize": "0xd54",
            "SizeOfRawData": 4096
        },
        {
            "Name": ".rsrc\u0000\u0000\u0000",
            "VirtualAddress": "0x26000",
            "Misc_VirtualSize": "0xffe0",
            "SizeOfRawData": 65536
        }
    ],
    "import": {
        "MSVBVM60.DLL": [
            "__vbaVarTstGt",
            "__vbaVarSub",
            "__vbaStrI2",
            "_CIcos",
            "_adj_fptan",
            "__vbaVarMove",
            "__vbaVarVargNofree",
            "__vbaAryMove",
            "__vbaFreeVar",
            "__vbaLenBstr",
            "__vbaStrVarMove"
        ]
    }
}