{
    "hash": "000ae608cccf79297e56c5c4f2878de9d69974b07a50e0395d9982c3ab64c73b",
    "section": [
        {
            "Name": ".text\u0000\u0000\u0000",
            "VirtualAddress": "0x1000",
            "Misc_VirtualSize": "0x5c000",
            "SizeOfRawData": 240640
        },
        {
            "Name": ".rsrc\u0000\u0000\u0000",
            "VirtualAddress": "0x5d000",
            "Misc_VirtualSize": "0x7000",
            "SizeOfRawData": 28672
        },
        {
            "Name": ".reloc\u0000\u0000",
            "VirtualAddress": "0x64000",
            "Misc_VirtualSize": "0x1000",
            "SizeOfRawData": 512
        }
    ],
    "import": {
        "kernel32.dll": [
            "LoadLibraryA",
            "GetProcAddress",
            "VirtualAlloc",
            "VirtualFree"
        ]
    }
}