{
    "hash": "000a31ffd00213683aa153fed40c4e90b95d5fe8bdcf4b2845c71a6c3c3810b1",
    "section": [
        {
            "Name": ".text\u0000\u0000\u0000",
            "VirtualAddress": "0x1000",
            "Misc_VirtualSize": "0x8200",
            "SizeOfRawData": 2560
        },
        {
            "Name": "DATA\u0000\u0000\u0000\u0000",
            "VirtualAddress": "0xa000",
            "Misc_VirtualSize": "0x4a00",
            "SizeOfRawData": 7168
        },
        {
            "Name": ".rsrc\u0000\u0000\u0000",
            "VirtualAddress": "0xf000",
            "Misc_VirtualSize": "0x59f0",
            "SizeOfRawData": 23040
        }
    ],
    "import": {
        "RASAPI32.dll": [
            "DDMGetPhonebookInfo"
        ],
        "GLU32.dll": [
            "gluBeginCurve",
            "gluBeginPolygon",
            "gluBeginSurface",
            "gluBeginTrim",
            "gluBuild1DMipmaps",
            "gluBuild2DMipmaps",
            "gluCylinder",
            "gluDeleteNurbsRenderer",
            "gluDeleteQuadric",
            "gluDeleteTess",
            "gluDisk",
            "gluEndCurve",
            "gluEndPolygon",
            "gluEndSurface",
            "gluEndTrim",
            "gluErrorString",
            "gluErrorUnicodeStringEXT",
            "gluGetNurbsProperty",
            "gluGetString",
            "gluGetTessProperty",
            "gluLoadSamplingMatrices",
            "gluLookAt",
            "gluNewNurbsRenderer",
            "gluNewQuadric",
            "gluNewTess",
            "gluNextContour",
            "gluNurbsCallback",
            "gluNurbsCurve",
            "gluNurbsProperty",
            "gluNurbsSurface",
            "gluOrtho2D"
        ],
        "kernel32.dll": [
            "MapViewOfFileEx",
            "GetACP",
            "GetSystemDirectoryA",
            "LocalFree",
            "SetConsoleTitleW",
            "EnumCalendarInfoW",
            "GetFileSize",
            "ReadFile",
            "CreateFileA"
        ],
        "MSDTCPRX.dll": [
            "DTC_XaOpen",
            "DTC_XaPrepare",
            "DTC_XaRollback"
        ],
        "adsldpc.dll": [
            "ADSIFreeColumn",
            "ADSIGetColumn",
            "ADSIGetFirstRow",
            "ADSIGetNextColumnName",
            "ADSIGetNextRow",
            "ADSIGetObjectAttributes",
            "ADSIGetPreviousRow",
            "ADSIModifyRdn"
        ],
        "msrating.dll": [
            "RatingCustomInit"
        ],
        "MTXCLU.DLL": [
            "MtxCluIsClusterPresent"
        ],
        "SAMLIB.dll": [
            "SamAddMemberToAlias"
        ]
    }
}