{
    "hash": "000a8ccf8c6144e6df1f6d9eacf2d55f856de80ba4950bce2e4d8b681ecdcd5d",
    "section": [
        {
            "Name": ".text\u0000\u0000\u0000",
            "VirtualAddress": "0x1000",
            "Misc_VirtualSize": "0x2545f7",
            "SizeOfRawData": 2442752
        },
        {
            "Name": ".rdata\u0000\u0000",
            "VirtualAddress": "0x256000",
            "Misc_VirtualSize": "0x59c6",
            "SizeOfRawData": 23040
        },
        {
            "Name": ".data\u0000\u0000\u0000",
            "VirtualAddress": "0x25c000",
            "Misc_VirtualSize": "0x12b0",
            "SizeOfRawData": 2048
        },
        {
            "Name": ".gfids\u0000\u0000",
            "VirtualAddress": "0x25e000",
            "Misc_VirtualSize": "0xac",
            "SizeOfRawData": 512
        },
        {
            "Name": ".rsrc\u0000\u0000\u0000",
            "VirtualAddress": "0x25f000",
            "Misc_VirtualSize": "0x4f88",
            "SizeOfRawData": 20480
        },
        {
            "Name": ".reloc\u0000\u0000",
            "VirtualAddress": "0x264000",
            "Misc_VirtualSize": "0xe00",
            "SizeOfRawData": 3584
        }
    ],
    "import": {
        "KERNEL32.dll": [
            "SetFilePointerEx",
            "GetConsoleCP",
            "WriteConsoleW",
            "DecodePointer",
            "CreateFileW",
            "GetModuleHandleW",
            "GetConsoleMode",
            "VirtualProtect",
            "FlushFileBuffers",
            "HeapReAlloc",
            "HeapSize",
            "GetProcessHeap",
            "GetStringTypeW",
            "GetFileType",
            "SetStdHandle",
            "LCMapStringW",
            "UnhandledExceptionFilter",
            "SetUnhandledExceptionFilter",
            "GetCurrentProcess",
            "TerminateProcess",
            "IsProcessorFeaturePresent",
            "QueryPerformanceCounter",
            "GetCurrentProcessId",
            "GetCurrentThreadId",
            "GetSystemTimeAsFileTime",
            "InitializeSListHead",
            "IsDebuggerPresent",
            "GetStartupInfoW",
            "RtlUnwind",
            "GetLastError",
            "SetLastError",
            "EnterCriticalSection",
            "LeaveCriticalSection",
            "DeleteCriticalSection",
            "InitializeCriticalSectionAndSpinCount",
            "TlsAlloc",
            "TlsGetValue",
            "TlsSetValue",
            "TlsFree",
            "FreeLibrary",
            "GetProcAddress",
            "LoadLibraryExW",
            "GetStdHandle",
            "WriteFile",
            "GetModuleFileNameW",
            "MultiByteToWideChar",
            "WideCharToMultiByte",
            "ExitProcess",
            "GetModuleHandleExW",
            "GetACP",
            "HeapFree",
            "HeapAlloc",
            "CloseHandle",
            "FindClose",
            "FindFirstFileExW",
            "FindNextFileW",
            "IsValidCodePage",
            "GetOEMCP",
            "GetCPInfo",
            "GetCommandLineA",
            "GetCommandLineW",
            "GetEnvironmentStringsW",
            "FreeEnvironmentStringsW",
            "RaiseException"
        ],
        "USER32.dll": [
            "AdjustWindowRect",
            "CalculatePopupWindowPosition",
            "GetMenuCheckMarkDimensions",
            "AddClipboardFormatListener",
            "DisableProcessWindowsGhosting",
            "GetWindowModuleFileNameW"
        ],
        "GDI32.dll": [
            "CreateHalftonePalette",
            "SetDIBitsToDevice",
            "CreatePalette",
            "CreateHatchBrush",
            "CreateBitmapIndirect",
            "CloseMetaFile",
            "ColorCorrectPalette"
        ],
        "SHELL32.dll": [
            "DuplicateIcon",
            "DragAcceptFiles",
            "DragQueryPoint",
            "DragQueryFileW"
        ]
    }
}