{
    "hash": "000a760d3e444587f0ec2da29737bab5c4f78b3ca06a257a2bfe21aa00ff42e6",
    "section": [
        {
            "Name": ".text\u0000\u0000\u0000",
            "VirtualAddress": "0x1000",
            "Misc_VirtualSize": "0x19718",
            "SizeOfRawData": 104448
        },
        {
            "Name": ".rdata\u0000\u0000",
            "VirtualAddress": "0x1b000",
            "Misc_VirtualSize": "0x6db4",
            "SizeOfRawData": 28160
        },
        {
            "Name": ".data\u0000\u0000\u0000",
            "VirtualAddress": "0x22000",
            "Misc_VirtualSize": "0x30c0",
            "SizeOfRawData": 5632
        },
        {
            "Name": ".rsrc\u0000\u0000\u0000",
            "VirtualAddress": "0x26000",
            "Misc_VirtualSize": "0x1d3e8",
            "SizeOfRawData": 119808
        }
    ],
    "import": {
        "KERNEL32.dll": [
            "RaiseException",
            "GetLastError",
            "MultiByteToWideChar",
            "lstrlenA",
            "InterlockedDecrement",
            "GetProcAddress",
            "LoadLibraryA",
            "FreeResource",
            "SizeofResource",
            "LockResource",
            "LoadResource",
            "FindResourceA",
            "GetModuleHandleA",
            "Module32Next",
            "CloseHandle",
            "Module32First",
            "CreateToolhelp32Snapshot",
            "GetCurrentProcessId",
            "SetEndOfFile",
            "GetStringTypeW",
            "GetStringTypeA",
            "LCMapStringW",
            "LCMapStringA",
            "GetLocaleInfoA",
            "HeapFree",
            "GetProcessHeap",
            "HeapAlloc",
            "GetCommandLineA",
            "HeapCreate",
            "VirtualFree",
            "DeleteCriticalSection",
            "LeaveCriticalSection",
            "EnterCriticalSection",
            "VirtualAlloc",
            "HeapReAlloc",
            "HeapSize",
            "TerminateProcess",
            "GetCurrentProcess",
            "UnhandledExceptionFilter",
            "SetUnhandledExceptionFilter",
            "IsDebuggerPresent",
            "GetModuleHandleW",
            "Sleep",
            "ExitProcess",
            "WriteFile",
            "GetStdHandle",
            "GetModuleFileNameA",
            "WideCharToMultiByte",
            "GetConsoleCP",
            "GetConsoleMode",
            "ReadFile",
            "TlsGetValue",
            "TlsAlloc",
            "TlsSetValue",
            "TlsFree",
            "InterlockedIncrement",
            "SetLastError",
            "GetCurrentThreadId",
            "FlushFileBuffers",
            "SetFilePointer",
            "SetHandleCount",
            "GetFileType",
            "GetStartupInfoA",
            "RtlUnwind",
            "FreeEnvironmentStringsA",
            "GetEnvironmentStrings",
            "FreeEnvironmentStringsW",
            "GetEnvironmentStringsW",
            "QueryPerformanceCounter",
            "GetTickCount",
            "GetSystemTimeAsFileTime",
            "InitializeCriticalSectionAndSpinCount",
            "GetCPInfo",
            "GetACP",
            "GetOEMCP",
            "IsValidCodePage",
            "CompareStringA",
            "CompareStringW",
            "SetEnvironmentVariableA",
            "WriteConsoleA",
            "GetConsoleOutputCP",
            "WriteConsoleW",
            "SetStdHandle",
            "CreateFileA"
        ],
        "ole32.dll": [
            "OleInitialize"
        ],
        "OLEAUT32.dll": [
            "SafeArrayCreate",
            "SafeArrayAccessData",
            "SafeArrayUnaccessData",
            "SafeArrayDestroy",
            "SafeArrayCreateVector",
            "VariantClear",
            "VariantInit",
            "SysFreeString",
            "SysAllocString"
        ]
    }
}