{
    "hash": "000bc1a8121b681a523daddbc054aa77856f2193b9856b0c8fc6a637d4914f97",
    "section": [
        {
            "Name": ".text\u0000\u0000\u0000",
            "VirtualAddress": "0x1000",
            "Misc_VirtualSize": "0x3428",
            "SizeOfRawData": 13824
        },
        {
            "Name": "rdata\u0000\u0000\u0000",
            "VirtualAddress": "0x5000",
            "Misc_VirtualSize": "0x10000",
            "SizeOfRawData": 0
        },
        {
            "Name": ".data\u0000\u0000\u0000",
            "VirtualAddress": "0x15000",
            "Misc_VirtualSize": "0x1f800",
            "SizeOfRawData": 128000
        },
        {
            "Name": "gfelmge\u0000",
            "VirtualAddress": "0x35000",
            "Misc_VirtualSize": "0x1000",
            "SizeOfRawData": 0
        }
    ],
    "import": {
        "KERNEL32.dll": [
            "VirtualProtectEx",
            "GetThreadSelectorEntry",
            "BuildCommDCBAndTimeoutsA",
            "FreeConsole",
            "SetConsoleTitleW",
            "SetLocaleInfoW",
            "VerLanguageNameA",
            "GetFullPathNameA",
            "GetOverlappedResult",
            "LoadLibraryA",
            "GetCurrentDirectoryW"
        ]
    }
}