{
    "hash": "000ba284a0a23c4af944f424a9a0cc5faf81e302ff75ca69ab16f75e0c74f13a",
    "section": [
        {
            "Name": ".text\u0000\u0000\u0000",
            "VirtualAddress": "0x1000",
            "Misc_VirtualSize": "0x3c5e94",
            "SizeOfRawData": 3956736
        },
        {
            "Name": ".itext\u0000\u0000",
            "VirtualAddress": "0x3c7000",
            "Misc_VirtualSize": "0x22c8",
            "SizeOfRawData": 9216
        },
        {
            "Name": ".data\u0000\u0000\u0000",
            "VirtualAddress": "0x3ca000",
            "Misc_VirtualSize": "0x6678",
            "SizeOfRawData": 26624
        },
        {
            "Name": ".bss\u0000\u0000\u0000\u0000",
            "VirtualAddress": "0x3d1000",
            "Misc_VirtualSize": "0x6984",
            "SizeOfRawData": 0
        },
        {
            "Name": ".idata\u0000\u0000",
            "VirtualAddress": "0x3d8000",
            "Misc_VirtualSize": "0x3a52",
            "SizeOfRawData": 15360
        },
        {
            "Name": ".didata\u0000",
            "VirtualAddress": "0x3dc000",
            "Misc_VirtualSize": "0xb0e",
            "SizeOfRawData": 3072
        },
        {
            "Name": ".edata\u0000\u0000",
            "VirtualAddress": "0x3dd000",
            "Misc_VirtualSize": "0x9a",
            "SizeOfRawData": 512
        },
        {
            "Name": ".tls\u0000\u0000\u0000\u0000",
            "VirtualAddress": "0x3de000",
            "Misc_VirtualSize": "0x58",
            "SizeOfRawData": 0
        },
        {
            "Name": ".rdata\u0000\u0000",
            "VirtualAddress": "0x3df000",
            "Misc_VirtualSize": "0x5d",
            "SizeOfRawData": 512
        },
        {
            "Name": ".reloc\u0000\u0000",
            "VirtualAddress": "0x3e0000",
            "Misc_VirtualSize": "0x5b61c",
            "SizeOfRawData": 374784
        },
        {
            "Name": ".rsrc\u0000\u0000\u0000",
            "VirtualAddress": "0x43c000",
            "Misc_VirtualSize": "0x2977c9",
            "SizeOfRawData": 2717696
        }
    ],
    "import": {
        "winmm.dll": [
            "sndPlaySoundW"
        ],
        "oleacc.dll": [
            "LresultFromObject"
        ],
        "winspool.drv": [
            "DocumentPropertiesW",
            "ClosePrinter",
            "OpenPrinterW",
            "GetDefaultPrinterW",
            "EnumPrintersW"
        ],
        "comctl32.dll": [
            "ImageList_GetImageInfo",
            "FlatSB_SetScrollInfo",
            "InitCommonControls",
            "ImageList_DragMove",
            "ImageList_Destroy",
            "_TrackMouseEvent",
            "ImageList_DragShowNolock",
            "ImageList_Add",
            "FlatSB_SetScrollProp",
            "ImageList_GetDragImage",
            "ImageList_Create",
            "ImageList_EndDrag",
            "ImageList_DrawEx",
            "ImageList_SetImageCount",
            "FlatSB_GetScrollPos",
            "FlatSB_SetScrollPos",
            "InitializeFlatSB",
            "ImageList_Copy",
            "FlatSB_GetScrollInfo",
            "ImageList_Write",
            "ImageList_SetBkColor",
            "ImageList_GetBkColor",
            "ImageList_BeginDrag",
            "ImageList_GetIcon",
            "ImageList_Replace",
            "ImageList_GetImageCount",
            "ImageList_DragEnter",
            "ImageList_GetIconSize",
            "ImageList_SetIconSize",
            "ImageList_Read",
            "ImageList_DragLeave",
            "ImageList_LoadImageW",
            "ImageList_Draw",
            "ImageList_Remove",
            "ImageList_ReplaceIcon",
            "ImageList_SetOverlayImage"
        ],
        "shell32.dll": [
            "Shell_NotifyIconW"
        ],
        "user32.dll": [
            "CopyImage",
            "CreateWindowExW",
            "ChildWindowFromPoint",
            "GetMenuItemInfoW",
            "SetMenuItemInfoW",
            "DefFrameProcW",
            "GetDCEx",
            "PeekMessageW",
            "MonitorFromWindow",
            "GetDlgCtrlID",
            "WinHelpW",
            "SetTimer",
            "WindowFromPoint",
            "BeginPaint",
            "DrawStateW",
            "RegisterClipboardFormatW",
            "FrameRect",
            "MapVirtualKeyW",
            "IsWindowUnicode",
            "RegisterWindowMessageW",
            "FillRect",
            "GetMenuStringW",
            "DispatchMessageW",
            "CreateAcceleratorTableW",
            "SendMessageA",
            "DefMDIChildProcW",
            "EnumWindows",
            "GetClassInfoW",
            "GetClassInfoExW",
            "ShowOwnedPopups",
            "GetSystemMenu",
            "GetScrollRange",
            "GetScrollPos",
            "SetScrollPos",
            "GetActiveWindow",
            "SetActiveWindow",
            "DrawEdge",
            "GetKeyboardLayoutList",
            "LoadBitmapW",
            "DrawFocusRect",
            "EnumChildWindows",
            "GetScrollBarInfo",
            "ReleaseCapture",
            "UnhookWindowsHookEx",
            "LoadCursorW",
            "GetCapture",
            "SetCapture",
            "CreatePopupMenu",
            "ScrollWindow",
            "ShowCaret",
            "GetMenuItemID",
            "GetLastActivePopup",
            "CharLowerBuffW",
            "GetSystemMetrics",
            "SetWindowLongW",
            "PostMessageW",
            "DrawMenuBar",
            "SetParent",
            "IsZoomed",
            "CharUpperBuffW",
            "GetClientRect",
            "IsChild",
            "ClientToScreen",
            "GetClipboardData",
            "SetClipboardData",
            "SetWindowPlacement",
            "IsIconic",
            "CallNextHookEx",
            "GetMonitorInfoW",
            "ShowWindow",
            "CheckMenuItem",
            "CharUpperW",
            "DefWindowProcW",
            "GetAsyncKeyState",
            "GetForegroundWindow",
            "SetForegroundWindow",
            "GetWindowTextW",
            "EnableWindow",
            "DestroyWindow",
            "IsDialogMessageW",
            "EndMenu",
            "RegisterClassW",
            "CharNextW",
            "GetWindowThreadProcessId",
            "RedrawWindow",
            "GetDC",
            "GetFocus",
            "SetFocus",
            "EndPaint",
            "ReleaseDC",
            "MsgWaitForMultipleObjectsEx",
            "LoadKeyboardLayoutW",
            "GetClassLongW",
            "ActivateKeyboardLayout",
            "GetParent",
            "DrawTextW",
            "SetScrollRange",
            "MonitorFromRect",
            "InsertMenuItemW",
            "PeekMessageA",
            "GetPropW",
            "SetClassLongW",
            "MessageBoxW",
            "MessageBeep",
            "SetPropW",
            "RemovePropW",
            "UpdateWindow",
            "GetSubMenu",
            "MsgWaitForMultipleObjects",
            "DestroyMenu",
            "DestroyIcon",
            "SetWindowsHookExW",
            "EmptyClipboard",
            "IsWindowVisible",
            "DispatchMessageA",
            "UnregisterClassW",
            "GetTopWindow",
            "SendMessageW",
            "AdjustWindowRectEx",
            "DrawIcon",
            "IsWindow",
            "EnumThreadWindows",
            "GetMessageTime",
            "NotifyWinEvent",
            "InvalidateRect",
            "GetKeyboardState",
            "DrawFrameControl",
            "ScreenToClient",
            "SetCursor",
            "CreateIcon",
            "CreateMenu",
            "LoadStringW",
            "CharLowerW",
            "SetWindowPos",
            "SetWindowRgn",
            "GetMenuItemCount",
            "RemoveMenu",
            "GetSysColorBrush",
            "GetKeyboardLayoutNameW",
            "GetWindowDC",
            "TranslateMessage",
            "OpenClipboard",
            "DrawTextExW",
            "MapWindowPoints",
            "EnumDisplayMonitors",
            "CallWindowProcW",
            "CloseClipboard",
            "DestroyCursor",
            "GetScrollInfo",
            "SetWindowTextW",
            "GetMessageExtraInfo",
            "EnableScrollBar",
            "GetSysColor",
            "TrackPopupMenu",
            "CopyIcon",
            "DrawIconEx",
            "PostQuitMessage",
            "GetClassNameW",
            "ShowScrollBar",
            "EnableMenuItem",
            "GetIconInfo",
            "GetMessagePos",
            "SetScrollInfo",
            "GetKeyNameTextW",
            "GetDesktopWindow",
            "GetCursorPos",
            "SetCursorPos",
            "HideCaret",
            "GetMenu",
            "GetMenuState",
            "SetMenu",
            "SetRect",
            "GetKeyState",
            "FindWindowExW",
            "MonitorFromPoint",
            "SystemParametersInfoW",
            "LoadIconW",
            "GetCursor",
            "GetWindow",
            "GetWindowLongW",
            "GetWindowRect",
            "InsertMenuW",
            "KillTimer",
            "WaitMessage",
            "IsWindowEnabled",
            "IsDialogMessageA",
            "TranslateMDISysAccel",
            "GetWindowPlacement",
            "FindWindowW",
            "DeleteMenu",
            "GetKeyboardLayout"
        ],
        "version.dll": [
            "GetFileVersionInfoSizeW",
            "VerQueryValueW",
            "GetFileVersionInfoW"
        ],
        "oleaut32.dll": [
            "SafeArrayPutElement",
            "SetErrorInfo",
            "GetErrorInfo",
            "VariantInit",
            "VariantClear",
            "SysFreeString",
            "SafeArrayAccessData",
            "SysReAllocStringLen",
            "SafeArrayCreate",
            "CreateErrorInfo",
            "SafeArrayGetElement",
            "GetActiveObject",
            "SysAllocStringLen",
            "SafeArrayUnaccessData",
            "SafeArrayPtrOfIndex",
            "VariantCopy",
            "SafeArrayGetUBound",
            "SafeArrayGetLBound",
            "VariantCopyInd",
            "VariantChangeType"
        ],
        "advapi32.dll": [
            "GetAce",
            "RegUnLoadKeyW",
            "RegSaveKeyW",
            "EqualSid",
            "GetLengthSid",
            "RegReplaceKeyW",
            "GetSidSubAuthority",
            "GetTokenInformation",
            "MakeSelfRelativeSD",
            "RegCreateKeyExW",
            "GetSecurityDescriptorDacl",
            "GetFileSecurityA",
            "GetFileSecurityW",
            "RegEnumKeyExW",
            "FindFirstFreeAce",
            "GetOldestEventLogRecord",
            "GetSecurityDescriptorGroup",
            "LookupPrivilegeValueA",
            "LookupPrivilegeValueW",
            "RegOpenKeyExW",
            "RegDeleteValueW",
            "ImpersonateLoggedOnUser",
            "GetCurrentHwProfileW",
            "GetCurrentHwProfileA",
            "RegFlushKey",
            "RegQueryValueExW",
            "RegEnumValueW",
            "GetKernelObjectSecurity",
            "ObjectDeleteAuditAlarmW",
            "ObjectDeleteAuditAlarmA",
            "RegRestoreKeyW",
            "RegSetValueExW",
            "RegConnectRegistryW",
            "ObjectCloseAuditAlarmW",
            "ObjectCloseAuditAlarmA",
            "LookupPrivilegeNameW",
            "GetUserNameA",
            "GetUserNameW",
            "GetSecurityDescriptorSacl",
            "DuplicateToken",
            "RegQueryInfoKeyW",
            "DuplicateTokenEx",
            "GetNumberOfEventLogRecords",
            "MakeAbsoluteSD",
            "GetSidSubAuthorityCount",
            "RegLoadKeyW",
            "GetSecurityDescriptorLength",
            "GetSidIdentifierAuthority",
            "GetSecurityDescriptorControl",
            "RegDeleteKeyW",
            "ObjectOpenAuditAlarmW",
            "ObjectOpenAuditAlarmA",
            "GetAclInformation",
            "GetSecurityDescriptorOwner",
            "RegCloseKey"
        ],
        "netapi32.dll": [
            "NetWkstaGetInfo",
            "NetApiBufferFree"
        ],
        "kernel32.dll": [
            "GetACP",
            "LocalFree",
            "CloseHandle",
            "GetCurrentProcessId",
            "VirtualProtectEx",
            "SizeofResource",
            "VirtualProtect",
            "QueryPerformanceFrequency",
            "IsDebuggerPresent",
            "GetFullPathNameW",
            "GetThreadContext",
            "VirtualFree",
            "ExitProcess",
            "HeapAlloc",
            "GetCPInfoExW",
            "GlobalSize",
            "RtlUnwind",
            "GetCPInfo",
            "EnumSystemLocalesW",
            "GetStdHandle",
            "GetTimeZoneInformation",
            "GetModuleHandleW",
            "FreeLibrary",
            "TryEnterCriticalSection",
            "HeapDestroy",
            "ReadFile",
            "GetUserDefaultLCID",
            "HeapSize",
            "GetLastError",
            "GetModuleFileNameW",
            "SetLastError",
            "GlobalAlloc",
            "GlobalUnlock",
            "FindResourceW",
            "CreateThread",
            "CompareStringW",
            "LoadLibraryA",
            "ResetEvent",
            "MulDiv",
            "FreeResource",
            "GetVersion",
            "RaiseException",
            "GlobalAddAtomW",
            "FormatMessageW",
            "SwitchToThread",
            "GetExitCodeThread",
            "GetCurrentThread",
            "GetQueuedCompletionStatus",
            "CreateIoCompletionPort",
            "LoadLibraryExW",
            "TerminateProcess",
            "LockResource",
            "GetCurrentThreadId",
            "UnhandledExceptionFilter",
            "VirtualQuery",
            "GlobalFindAtomW",
            "VirtualQueryEx",
            "GlobalFree",
            "Sleep",
            "EnterCriticalSection",
            "SetFilePointer",
            "LoadResource",
            "SuspendThread",
            "GetTickCount",
            "WaitForMultipleObjects",
            "GetStartupInfoW",
            "GlobalDeleteAtom",
            "GetFileAttributesW",
            "InitializeCriticalSection",
            "GetThreadPriority",
            "GetCurrentProcess",
            "SetThreadPriority",
            "GlobalLock",
            "VirtualAlloc",
            "GetSystemInfo",
            "GetCommandLineW",
            "LeaveCriticalSection",
            "GetProcAddress",
            "ResumeThread",
            "GetVersionExW",
            "VerifyVersionInfoW",
            "HeapCreate",
            "GetDiskFreeSpaceW",
            "VerSetConditionMask",
            "FindFirstFileW",
            "GetUserDefaultUILanguage",
            "lstrlenW",
            "QueryPerformanceCounter",
            "SetEndOfFile",
            "lstrcmpW",
            "HeapFree",
            "WideCharToMultiByte",
            "FindClose",
            "MultiByteToWideChar",
            "LoadLibraryW",
            "SetEvent",
            "CreateFileW",
            "GetLocaleInfoW",
            "EnumResourceNamesW",
            "DeleteFileW",
            "GetLocalTime",
            "WaitForSingleObject",
            "WriteFile",
            "ExitThread",
            "DeleteCriticalSection",
            "GetDateFormatW",
            "TlsGetValue",
            "PostQueuedCompletionStatus",
            "SetErrorMode",
            "GetComputerNameW",
            "IsValidLocale",
            "SleepEx",
            "TlsSetValue",
            "GetSystemDefaultUILanguage",
            "EnumCalendarInfoW",
            "LocalAlloc",
            "RemoveDirectoryW",
            "CreateEventW",
            "WaitForMultipleObjectsEx",
            "GetThreadLocale",
            "SetThreadLocale"
        ],
        "ole32.dll": [
            "OleRegEnumVerbs",
            "IsAccelerator",
            "CoCreateInstance",
            "CoUninitialize",
            "IsEqualGUID",
            "CreateStreamOnHGlobal",
            "OleInitialize",
            "ProgIDFromCLSID",
            "OleUninitialize",
            "CoGetClassObject",
            "CoInitialize",
            "CoTaskMemFree",
            "OleDraw",
            "CoTaskMemAlloc",
            "OleSetMenuDescriptor",
            "StringFromCLSID"
        ],
        "gdi32.dll": [
            "Pie",
            "SetBkMode",
            "CreateCompatibleBitmap",
            "GetEnhMetaFileHeader",
            "CloseEnhMetaFile",
            "RectVisible",
            "AngleArc",
            "SetAbortProc",
            "SetTextColor",
            "StretchBlt",
            "RoundRect",
            "RestoreDC",
            "SetRectRgn",
            "GetTextMetricsW",
            "GetWindowOrgEx",
            "CreatePalette",
            "PolyBezierTo",
            "CreateICW",
            "CreateDCW",
            "GetStockObject",
            "CreateSolidBrush",
            "Polygon",
            "MoveToEx",
            "PlayEnhMetaFile",
            "Ellipse",
            "StartPage",
            "GetBitmapBits",
            "StartDocW",
            "AbortDoc",
            "GetSystemPaletteEntries",
            "GetEnhMetaFileBits",
            "GetEnhMetaFilePaletteEntries",
            "CreatePenIndirect",
            "SetMapMode",
            "CreateFontIndirectW",
            "PolyBezier",
            "LPtoDP",
            "EndDoc",
            "GetObjectW",
            "GetWinMetaFileBits",
            "SetROP2",
            "GetEnhMetaFileDescriptionW",
            "ArcTo",
            "CreateEnhMetaFileW",
            "Arc",
            "SelectPalette",
            "ExcludeClipRect",
            "MaskBlt",
            "SetWindowOrgEx",
            "EndPage",
            "DeleteEnhMetaFile",
            "Chord",
            "SetDIBits",
            "SetViewportOrgEx",
            "CreateRectRgn",
            "RealizePalette",
            "SetDIBColorTable",
            "GetDIBColorTable",
            "CreateBrushIndirect",
            "PatBlt",
            "SetEnhMetaFileBits",
            "Rectangle",
            "SaveDC",
            "DeleteDC",
            "BitBlt",
            "FrameRgn",
            "GetDeviceCaps",
            "GetTextExtentPoint32W",
            "GetClipBox",
            "IntersectClipRect",
            "Polyline",
            "CreateBitmap",
            "SetWinMetaFileBits",
            "GetStretchBltMode",
            "CreateDIBitmap",
            "SetStretchBltMode",
            "GetDIBits",
            "CreateDIBSection",
            "LineTo",
            "GetRgnBox",
            "EnumFontsW",
            "CreateHalftonePalette",
            "SelectObject",
            "DeleteObject",
            "ExtFloodFill",
            "UnrealizeObject",
            "CopyEnhMetaFileW",
            "SetBkColor",
            "CreateCompatibleDC",
            "GetBrushOrgEx",
            "GetCurrentPositionEx",
            "SetDCPenColor",
            "GetTextExtentPointW",
            "ExtTextOutW",
            "SetBrushOrgEx",
            "GetPixel",
            "GdiFlush",
            "SetPixel",
            "EnumFontFamiliesExW",
            "StretchDIBits",
            "GetPaletteEntries"
        ],
        "ntdll.dll": [
            "NtUnmapViewOfSection"
        ]
    }
}