{
    "hash": "000b615a7255e0cc36c1e0a0c67e33ed9c01a76d6f141a6ea9674c22a1456f46",
    "section": [
        {
            "Name": "\u0000\u0000\u0000\u0000\u0000\u0000\u0000\u0000",
            "VirtualAddress": "0x1000",
            "Misc_VirtualSize": "0x147000",
            "SizeOfRawData": 1339392
        }
    ],
    "import": {}
}