{
    "hash": "000b0f0d73781f22843805bc037245425e3a8bf4a11203517158a99a024cfd2b",
    "section": [
        {
            "Name": "CODE\u0000\u0000\u0000\u0000",
            "VirtualAddress": "0x1000",
            "Misc_VirtualSize": "0x9e90",
            "SizeOfRawData": 40960
        },
        {
            "Name": "DATA\u0000\u0000\u0000\u0000",
            "VirtualAddress": "0xb000",
            "Misc_VirtualSize": "0x1a0",
            "SizeOfRawData": 512
        },
        {
            "Name": "BSS\u0000\u0000\u0000\u0000\u0000",
            "VirtualAddress": "0xc000",
            "Misc_VirtualSize": "0x118d",
            "SizeOfRawData": 0
        },
        {
            "Name": ".idata\u0000\u0000",
            "VirtualAddress": "0xe000",
            "Misc_VirtualSize": "0x91c",
            "SizeOfRawData": 2560
        },
        {
            "Name": ".tls\u0000\u0000\u0000\u0000",
            "VirtualAddress": "0xf000",
            "Misc_VirtualSize": "0x8",
            "SizeOfRawData": 0
        },
        {
            "Name": ".rdata\u0000\u0000",
            "VirtualAddress": "0x10000",
            "Misc_VirtualSize": "0x18",
            "SizeOfRawData": 512
        },
        {
            "Name": ".reloc\u0000\u0000",
            "VirtualAddress": "0x11000",
            "Misc_VirtualSize": "0x95c",
            "SizeOfRawData": 2560
        },
        {
            "Name": ".rsrc\u0000\u0000\u0000",
            "VirtualAddress": "0x12000",
            "Misc_VirtualSize": "0x600",
            "SizeOfRawData": 1536
        }
    ],
    "import": {
        "kernel32.dll": [
            "WritePrivateProfileStringA",
            "WriteFile",
            "WaitForSingleObject",
            "Sleep",
            "ReadFile",
            "LoadLibraryA",
            "GetWindowsDirectoryA",
            "GetVersionExA",
            "GetTempPathA",
            "GetSystemDirectoryA",
            "GetProcAddress",
            "GetModuleHandleA",
            "GetModuleFileNameA",
            "GetLastError",
            "GetFileAttributesA",
            "GetCurrentDirectoryA",
            "FindNextFileA",
            "FindFirstFileA",
            "FindClose",
            "FileTimeToLocalFileTime",
            "FileTimeToDosDateTime",
            "ExitProcess",
            "DeleteFileA",
            "CreateThread",
            "CreateMutexA",
            "CreateFileA",
            "CreateDirectoryA",
            "CopyFileA",
            "CloseHandle"
        ],
        "user32.dll": [
            "GetKeyboardType",
            "MessageBoxA",
            "CharNextA"
        ],
        "advapi32.dll": [
            "RegQueryValueExA",
            "RegOpenKeyExA",
            "RegCloseKey"
        ],
        "oleaut32.dll": [
            "SysFreeString"
        ],
        "mpr.dll": [
            "WNetCancelConnectionA",
            "WNetAddConnection2A"
        ],
        "wsock32.dll": [
            "WSACleanup",
            "WSAStartup",
            "gethostbyname",
            "socket",
            "send",
            "recv",
            "inet_ntoa",
            "inet_addr",
            "htons",
            "connect",
            "closesocket"
        ],
        "shell32.dll": [
            "ShellExecuteA"
        ],
        "wininet.dll": [
            "InternetGetConnectedState"
        ],
        "URLMON.DLL": [
            "URLDownloadToFileA"
        ]
    }
}