{
    "hash": "000b68038e036406356c0400e943295e66acb4970379767bf5b5ad77bd80076c",
    "section": [
        {
            "Name": ".text\u0000\u0000\u0000",
            "VirtualAddress": "0x1000",
            "Misc_VirtualSize": "0x2000",
            "SizeOfRawData": 8192
        },
        {
            "Name": ".rdata\u0000\u0000",
            "VirtualAddress": "0x3000",
            "Misc_VirtualSize": "0x7ec",
            "SizeOfRawData": 4096
        },
        {
            "Name": ".data\u0000\u0000\u0000",
            "VirtualAddress": "0x4000",
            "Misc_VirtualSize": "0x11c",
            "SizeOfRawData": 4096
        },
        {
            "Name": ".rsrc\u0000\u0000\u0000",
            "VirtualAddress": "0x5000",
            "Misc_VirtualSize": "0x254e6",
            "SizeOfRawData": 152806
        }
    ],
    "import": {
        "MSVCIRT.dll": [
            "??1fstream@@UAE@XZ",
            "??0fstream@@QAE@PBDHH@Z",
            "?close@fstream@@QAEXXZ",
            "?seekp@ostream@@QAEAAV1@JW4seek_dir@ios@@@Z",
            "??1ifstream@@UAE@XZ",
            "?open@ifstream@@QAEXPBDHH@Z",
            "?tellg@istream@@QAEJXZ",
            "??1ofstream@@UAE@XZ",
            "??1ios@@UAE@XZ",
            "?openprot@filebuf@@2HB",
            "?close@ofstream@@QAEXXZ",
            "??0ofstream@@QAE@PBDHH@Z",
            "??0ifstream@@QAE@PBDHH@Z",
            "?read@istream@@QAEAAV1@PADH@Z",
            "?seekg@istream@@QAEAAV1@JW4seek_dir@ios@@@Z",
            "?write@ostream@@QAEAAV1@PBDH@Z",
            "?close@ifstream@@QAEXXZ"
        ],
        "MSVCRT.dll": [
            "_controlfp",
            "_except_handler3",
            "__set_app_type",
            "__p__fmode",
            "__p__commode",
            "_adjust_fdiv",
            "__setusermatherr",
            "__getmainargs",
            "_acmdln",
            "exit",
            "_XcptFilter",
            "_exit",
            "_EH_prolog",
            "__CxxFrameHandler",
            "??2@YAPAXI@Z",
            "strcpy",
            "strcat",
            "strlen",
            "??3@YAXPAX@Z",
            "_initterm",
            "_strcmpi"
        ],
        "KERNEL32.dll": [
            "SuspendThread",
            "CreateThread",
            "Sleep",
            "WaitForSingleObject",
            "CreateSemaphoreA",
            "WinExec",
            "GetSystemDirectoryA",
            "GetWindowsDirectoryA",
            "FindFirstFileA",
            "FindClose",
            "FindNextFileA",
            "CopyFileA",
            "MoveFileA",
            "DeleteFileA",
            "SetFileAttributesA",
            "GetCommandLineA",
            "GetModuleHandleA",
            "GetStartupInfoA",
            "ResumeThread"
        ]
    }
}