{
    "hash": "000b67e921da50e3143bfbe9c8502457d115e9f810944c73fc67a2a3e1117c2b",
    "section": [
        {
            "Name": ".text\u0000\u0000\u0000",
            "VirtualAddress": "0x1000",
            "Misc_VirtualSize": "0x3be78",
            "SizeOfRawData": 245760
        },
        {
            "Name": ".data\u0000\u0000\u0000",
            "VirtualAddress": "0x3d000",
            "Misc_VirtualSize": "0x260",
            "SizeOfRawData": 1024
        },
        {
            "Name": ".rdata\u0000\u0000",
            "VirtualAddress": "0x3e000",
            "Misc_VirtualSize": "0x24a8",
            "SizeOfRawData": 9728
        },
        {
            "Name": ".bss\u0000\u0000\u0000\u0000",
            "VirtualAddress": "0x41000",
            "Misc_VirtualSize": "0x4890",
            "SizeOfRawData": 0
        },
        {
            "Name": ".idata\u0000\u0000",
            "VirtualAddress": "0x46000",
            "Misc_VirtualSize": "0x8a4",
            "SizeOfRawData": 2560
        },
        {
            "Name": ".rsrc\u0000\u0000\u0000",
            "VirtualAddress": "0x47000",
            "Misc_VirtualSize": "0xa98bc",
            "SizeOfRawData": 694460
        }
    ],
    "import": {
        "KERNEL32.dll": [
            "AddAtomA",
            "CreateDirectoryA",
            "CreateProcessA",
            "CreateSemaphoreA",
            "DeleteFileA",
            "ExitProcess",
            "FindAtomA",
            "GetAtomNameA",
            "GetCommandLineA",
            "GetLastError",
            "GetModuleFileNameA",
            "GetModuleHandleA",
            "GetStartupInfoA",
            "InterlockedDecrement",
            "InterlockedIncrement",
            "ReleaseSemaphore",
            "SetFileAttributesA",
            "SetLastError",
            "SetUnhandledExceptionFilter",
            "Sleep",
            "TlsAlloc",
            "TlsFree",
            "TlsGetValue",
            "TlsSetValue",
            "WaitForSingleObject"
        ],
        "msvcrt.dll": [
            "__getmainargs",
            "__mb_cur_max",
            "__p__environ",
            "__p__fmode",
            "__set_app_type",
            "_assert",
            "_cexit",
            "_ctype",
            "_errno",
            "_fstati64",
            "_iob",
            "_isctype",
            "_lseeki64",
            "_onexit",
            "_pctype",
            "_setmode",
            "_strnicmp",
            "_vsnprintf",
            "abort",
            "atexit",
            "fclose",
            "fflush",
            "fopen",
            "fprintf",
            "free",
            "localeconv",
            "malloc",
            "memchr",
            "memcpy",
            "memmove",
            "memset",
            "rand",
            "setlocale",
            "setvbuf",
            "signal",
            "srand",
            "strcat",
            "strcmp",
            "strcoll",
            "strcpy",
            "strftime",
            "strlen",
            "strtod",
            "strxfrm",
            "time"
        ],
        "SHELL32.DLL": [
            "SHGetFolderPathA",
            "ShellExecuteA"
        ]
    }
}