{
    "hash": "000b0f559dac4563a81c8563c7ab88d98d176b134c52f784da74e33b646823f5",
    "section": [
        {
            "Name": "UPX0\u0000\u0000\u0000\u0000",
            "VirtualAddress": "0x1000",
            "Misc_VirtualSize": "0x6f000",
            "SizeOfRawData": 0
        },
        {
            "Name": "UPX1\u0000\u0000\u0000\u0000",
            "VirtualAddress": "0x70000",
            "Misc_VirtualSize": "0x42000",
            "SizeOfRawData": 270336
        },
        {
            "Name": ".rsrc\u0000\u0000\u0000",
            "VirtualAddress": "0xb2000",
            "Misc_VirtualSize": "0x1000",
            "SizeOfRawData": 2560
        }
    ],
    "import": {
        "KERNEL32.DLL": [
            "LoadLibraryA",
            "GetProcAddress",
            "VirtualProtect",
            "VirtualAlloc",
            "VirtualFree",
            "ExitProcess"
        ],
        "ADVAPI32.dll": [
            "GetAce"
        ],
        "COMCTL32.dll": [
            "ImageList_Remove"
        ],
        "COMDLG32.dll": [
            "GetSaveFileNameW"
        ],
        "GDI32.dll": [
            "LineTo"
        ],
        "MPR.dll": [
            "WNetGetConnectionW"
        ],
        "ole32.dll": [
            "CoInitialize"
        ],
        "OLEAUT32.dll": [
            "VariantInit"
        ],
        "PSAPI.DLL": [
            "EnumProcesses"
        ],
        "SHELL32.dll": [
            "DragFinish"
        ],
        "USER32.dll": [
            "GetDC"
        ],
        "USERENV.dll": [
            "LoadUserProfileW"
        ],
        "VERSION.dll": [
            "VerQueryValueW"
        ],
        "WININET.dll": [
            "FtpOpenFileW"
        ],
        "WINMM.dll": [
            "timeGetTime"
        ],
        "WSOCK32.dll": [
            "recv"
        ]
    }
}