{
    "hash": "000b8c84b783fb4a70a5484e837fbaceac702a6c1a002357434a4d118080f575",
    "section": [
        {
            "Name": ".text\u0000\u0000\u0000",
            "VirtualAddress": "0x1000",
            "Misc_VirtualSize": "0x16994",
            "SizeOfRawData": 92672
        },
        {
            "Name": ".rdata\u0000\u0000",
            "VirtualAddress": "0x18000",
            "Misc_VirtualSize": "0x62014",
            "SizeOfRawData": 401920
        },
        {
            "Name": ".data\u0000\u0000\u0000",
            "VirtualAddress": "0x7b000",
            "Misc_VirtualSize": "0xa030",
            "SizeOfRawData": 40960
        },
        {
            "Name": ".rsrc\u0000\u0000\u0000",
            "VirtualAddress": "0x86000",
            "Misc_VirtualSize": "0x80b8",
            "SizeOfRawData": 33280
        },
        {
            "Name": ".reloc\u0000\u0000",
            "VirtualAddress": "0x8f000",
            "Misc_VirtualSize": "0x984",
            "SizeOfRawData": 2560
        }
    ],
    "import": {
        "KERNEL32.dll": [
            "lstrlenA",
            "lstrcpynA",
            "lstrcpyA",
            "lstrcmpA",
            "lstrcatA",
            "_lread",
            "_lopen",
            "_llseek",
            "_lclose",
            "_hread",
            "WritePrivateProfileStringA",
            "WinExec",
            "UnhandledExceptionFilter",
            "TerminateProcess",
            "Sleep",
            "SizeofResource",
            "SetUnhandledExceptionFilter",
            "SetThreadPriority",
            "QueryPerformanceCounter",
            "OpenFile",
            "MultiByteToWideChar",
            "LockResource",
            "LocalFree",
            "LocalAlloc",
            "VirtualAlloc",
            "LoadResource",
            "LoadLibraryA",
            "GlobalUnlock",
            "GlobalReAlloc",
            "GlobalLock",
            "GlobalHandle",
            "GlobalFree",
            "GlobalAlloc",
            "GetVersion",
            "GetUserDefaultLangID",
            "GetTickCount",
            "GetSystemTimeAsFileTime",
            "GetStartupInfoA",
            "GetProcAddress",
            "GetPrivateProfileIntA",
            "GetModuleHandleA",
            "GetModuleFileNameA",
            "GetLastError",
            "GetCurrentThreadId",
            "GetCurrentThread",
            "GetCurrentProcessId",
            "GetCurrentProcess",
            "FreeResource",
            "FindResourceA",
            "AddAtomA",
            "GetModuleHandleW"
        ],
        "USER32.dll": [
            "CharLowerA",
            "GetKBCodePage",
            "CharLowerW",
            "ReleaseCapture",
            "CascadeWindows",
            "CharUpperA",
            "GetMessageExtraInfo",
            "GetInputDesktop",
            "GetSubMenu",
            "InsertMenuA",
            "InvertRect",
            "SetThreadDesktop",
            "GetFocus",
            "GetShellWindow",
            "GetMessagePos",
            "ExcludeUpdateRgn",
            "GetForegroundWindow",
            "GetProcessWindowStation",
            "LoadCursorW"
        ],
        "GDI32.dll": [
            "MaskBlt",
            "LPtoDP",
            "GetWorldTransform",
            "GetWindowExtEx",
            "GetSystemPaletteEntries",
            "GetStockObject",
            "GetRelAbs",
            "GetPaletteEntries",
            "GetOutlineTextMetricsW",
            "GetOutlineTextMetricsA",
            "GetObjectA",
            "GetLayout",
            "GetHFONT",
            "GetEnhMetaFileW",
            "GetEUDCTimeStamp",
            "GdiPlayDCScript",
            "GdiArtificialDecrementDriver",
            "GdiAddGlsRecord",
            "ExtCreateRegion",
            "MoveToEx",
            "PolyTextOutA",
            "EngDeleteSurface",
            "EngCreateDeviceSurface",
            "EngComputeGlyphSet",
            "Ellipse",
            "DeleteObject",
            "DeleteDC",
            "CreateSolidBrush",
            "CreateScalableFontResourceW",
            "CreateRectRgnIndirect",
            "CreatePalette",
            "CreateMetaFileW",
            "CreateFontA",
            "CreateDIBitmap",
            "CreateCompatibleDC",
            "CreateCompatibleBitmap",
            "CreateColorSpaceA",
            "CLIPOBJ_ppoGetPath",
            "BitBlt",
            "AnimatePalette",
            "EnumFontFamiliesW",
            "Pie",
            "ResizePalette",
            "STROBJ_bEnum",
            "STROBJ_dwGetCodePage",
            "SelectObject",
            "SetBkMode",
            "SetICMMode",
            "SetLayout",
            "SetPaletteEntries",
            "GetDeviceCaps",
            "EngQueryEMFInfo",
            "bMakePathNameW",
            "XFORMOBJ_iGetXform",
            "UnrealizeObject",
            "StretchDIBits",
            "SetVirtualResolution",
            "SetTextColor",
            "SetSystemPaletteUse",
            "SetPixelFormat"
        ],
        "ADVAPI32.dll": [
            "RegQueryValueExW",
            "RegCloseKey",
            "RegCreateKeyExA",
            "RegOpenKeyA",
            "RegOpenKeyExA",
            "RegQueryValueA",
            "RegQueryValueExA",
            "RegSetValueExA",
            "RegOpenKeyW"
        ],
        "SHELL32.dll": [
            "ExtractIconEx",
            "DoEnvironmentSubstA",
            "ExtractIconW",
            "FindExecutableA",
            "SHCreateDirectoryExW",
            "SHFileOperationW",
            "SHGetDataFromIDListW",
            "SHGetFileInfoA",
            "SHGetFolderPathW",
            "SHGetIconOverlayIndexW",
            "SHGetInstanceExplorer",
            "SHLoadInProc",
            "SHPathPrepareForWriteW",
            "ShellAboutA",
            "ShellExecuteA",
            "ShellExecuteExA",
            "ShellExecuteW",
            "Shell_NotifyIconW"
        ],
        "SHLWAPI.dll": [
            "StrRStrIA",
            "StrCmpNW",
            "StrChrW",
            "StrStrW"
        ],
        "COMCTL32.dll": [
            "InitCommonControlsEx"
        ],
        "msvcrt.dll": [
            "_XcptFilter",
            "__getmainargs",
            "__p__commode",
            "__p__fmode",
            "__set_app_type",
            "__setusermatherr",
            "_acmdln",
            "_adjust_fdiv",
            "_cexit",
            "_controlfp",
            "_except_handler3",
            "_exit",
            "_initterm",
            "_itoa",
            "_ltoa",
            "_strnicmp",
            "atol",
            "exit",
            "free",
            "malloc",
            "memmove",
            "realloc",
            "sprintf",
            "sscanf"
        ]
    }
}