{
    "hash": "000bcc8b6212881d1f07fefb8409efb364176b4bc847719bd4fc5db7b81b4a95",
    "section": [
        {
            "Name": ".text\u0000\u0000\u0000",
            "VirtualAddress": "0x1000",
            "Misc_VirtualSize": "0x2a328",
            "SizeOfRawData": 176128
        },
        {
            "Name": ".data\u0000\u0000\u0000",
            "VirtualAddress": "0x2c000",
            "Misc_VirtualSize": "0xa20",
            "SizeOfRawData": 4096
        },
        {
            "Name": ".rsrc\u0000\u0000\u0000",
            "VirtualAddress": "0x2d000",
            "Misc_VirtualSize": "0x8f4",
            "SizeOfRawData": 4096
        }
    ],
    "import": {
        "MSVBVM60.DLL": [
            "_CIcos",
            "_adj_fptan",
            "__vbaVarMove",
            "__vbaFreeVar"
        ]
    }
}