{
    "hash": "000bf45b5877c2ebd7d964c168bf7477bd9342279f46ea0b519182c38a44ac71",
    "section": [
        {
            "Name": ".text\u0000\u0000\u0000",
            "VirtualAddress": "0x2000",
            "Misc_VirtualSize": "0x1bb4",
            "SizeOfRawData": 7168
        },
        {
            "Name": ".rsrc\u0000\u0000\u0000",
            "VirtualAddress": "0x4000",
            "Misc_VirtualSize": "0x2b0",
            "SizeOfRawData": 1024
        },
        {
            "Name": ".reloc\u0000\u0000",
            "VirtualAddress": "0x6000",
            "Misc_VirtualSize": "0xc",
            "SizeOfRawData": 512
        }
    ],
    "import": {
        "mscoree.dll": [
            "_CorDllMain"
        ]
    }
}