{
    "hash": "000b9095059cb2e58c9ebfdeb986f705b3a3dab00a0e6e5125849c4617680460",
    "section": [
        {
            "Name": ".text\u0000\u0000\u0000",
            "VirtualAddress": "0x1000",
            "Misc_VirtualSize": "0x40ae",
            "SizeOfRawData": 16896
        },
        {
            "Name": ".rdata\u0000\u0000",
            "VirtualAddress": "0x6000",
            "Misc_VirtualSize": "0x9de",
            "SizeOfRawData": 2560
        },
        {
            "Name": ".data\u0000\u0000\u0000",
            "VirtualAddress": "0x7000",
            "Misc_VirtualSize": "0xf48",
            "SizeOfRawData": 3584
        },
        {
            "Name": ".rsrc\u0000\u0000\u0000",
            "VirtualAddress": "0x8000",
            "Misc_VirtualSize": "0x3b0",
            "SizeOfRawData": 1024
        }
    ],
    "import": {
        "SHLWAPI.dll": [
            "PathRemoveFileSpecA",
            "StrStrA",
            "StrToIntA",
            "StrChrA"
        ],
        "KERNEL32.dll": [
            "GetStartupInfoA",
            "FreeLibrary",
            "InterlockedExchange",
            "Sleep",
            "CreateThread",
            "ExitThread",
            "GetProcAddress",
            "LoadLibraryA",
            "LocalAlloc",
            "lstrcpyA",
            "lstrcpynA",
            "CloseHandle",
            "GetCurrentProcess",
            "ExitProcess",
            "SetFileAttributesA",
            "GetModuleFileNameA",
            "ReleaseMutex",
            "GetLastError",
            "OpenMutexA",
            "WinExec",
            "lstrlenA",
            "lstrcatA",
            "GetTempPathA",
            "ResumeThread",
            "CreateProcessA",
            "SetThreadPriority",
            "GetCurrentThread",
            "SetPriorityClass",
            "GetEnvironmentVariableA",
            "GetShortPathNameA",
            "GetWindowsDirectoryA",
            "WaitForSingleObject",
            "CreateMutexA",
            "CopyFileA",
            "DeleteFileA",
            "GlobalMemoryStatusEx",
            "GetComputerNameA",
            "GetLocaleInfoW",
            "RaiseException",
            "GetTickCount",
            "GetModuleHandleA",
            "TerminateProcess",
            "GetSystemDirectoryA"
        ],
        "SHELL32.dll": [
            "ShellExecuteA"
        ],
        "WS2_32.dll": [
            "WSAStartup",
            "send",
            "select",
            "__WSAFDIsSet",
            "recv",
            "setsockopt",
            "WSAIoctl",
            "htons",
            "socket",
            "connect",
            "closesocket",
            "gethostbyname",
            "inet_addr",
            "sendto",
            "WSASocketA",
            "htonl"
        ],
        "DNSAPI.dll": [
            "DnsRecordListFree"
        ],
        "MSVCRT.dll": [
            "__set_app_type",
            "__p__fmode",
            "__p__commode",
            "_adjust_fdiv",
            "_controlfp",
            "__setusermatherr",
            "_initterm",
            "rand",
            "srand",
            "time",
            "_except_handler3",
            "_stricmp",
            "_exit",
            "_XcptFilter",
            "exit",
            "_acmdln",
            "__getmainargs"
        ]
    }
}