{
    "hash": "000b77d23a7b98baf337ff920ef47bf50980b192ec67be6e4c6931ad9797752d",
    "section": [
        {
            "Name": ".text\u0000\u0000\u0000",
            "VirtualAddress": "0x200",
            "Misc_VirtualSize": "0x171a",
            "SizeOfRawData": 5920
        },
        {
            "Name": ".rdata\u0000\u0000",
            "VirtualAddress": "0x1920",
            "Misc_VirtualSize": "0x40a",
            "SizeOfRawData": 1040
        }
    ],
    "import": {
        "user32.dll": [
            "wsprintfA"
        ],
        "kernel32.dll": [
            "GetTempPathA",
            "lstrlenA",
            "CloseHandle",
            "CopyFileA",
            "CreateEventA",
            "CreateFileA",
            "CreateFileMappingA",
            "CreateProcessA",
            "DeleteFileA",
            "ExitProcess",
            "FindClose",
            "FindFirstFileA",
            "FindNextFileA",
            "GetDriveTypeA",
            "GetFileSize",
            "GetLastError",
            "GetModuleFileNameA",
            "GetSystemDirectoryA",
            "GetTempFileNameA",
            "lstrcpynA",
            "GlobalAlloc",
            "GlobalFree",
            "LoadLibraryA",
            "MapViewOfFile",
            "RtlMoveMemory",
            "SetEndOfFile",
            "SetFilePointer",
            "UnmapViewOfFile",
            "VirtualAlloc",
            "WaitForSingleObject",
            "WriteFile",
            "lstrcatA",
            "lstrcmpiA",
            "lstrcpyA"
        ],
        "shlwapi.dll": [
            "PathFindExtensionA"
        ]
    }
}