{
    "hash": "000cd1d8e9bb84b9af343bb8fad9602641a1155a1af2fc85bf723d751c840ad8",
    "section": [
        {
            "Name": "UPX0\u0000\u0000\u0000\u0000",
            "VirtualAddress": "0x1000",
            "Misc_VirtualSize": "0x38000",
            "SizeOfRawData": 209408
        },
        {
            "Name": "UPX1\u0000\u0000\u0000\u0000",
            "VirtualAddress": "0x39000",
            "Misc_VirtualSize": "0x4f000",
            "SizeOfRawData": 321024
        },
        {
            "Name": ".rsrc\u0000\u0000\u0000",
            "VirtualAddress": "0x88000",
            "Misc_VirtualSize": "0x1000",
            "SizeOfRawData": 2560
        },
        {
            "Name": ".imports",
            "VirtualAddress": "0x89000",
            "Misc_VirtualSize": "0x2000",
            "SizeOfRawData": 4608
        }
    ],
    "import": {
        "KERNEL32.DLL": [
            "LocalReAlloc",
            "DeleteCriticalSection",
            "GlobalFree",
            "TlsFree",
            "GetProcAddress",
            "InterlockedDecrement",
            "FreeLibrary",
            "GetCurrentProcessId",
            "lstrlenW",
            "FormatMessageW",
            "GetCurrentThreadId",
            "InterlockedIncrement",
            "lstrcmpA",
            "lstrlenA",
            "GetVersionExA",
            "lstrcmpW",
            "LoadLibraryA",
            "InitializeCriticalSection",
            "GlobalDeleteAtom",
            "GlobalFindAtomW",
            "GlobalAddAtomW",
            "GlobalFlags",
            "FlushFileBuffers",
            "SetEndOfFile",
            "GetCurrentProcess",
            "GetModuleHandleA",
            "TlsSetValue",
            "HeapAlloc",
            "HeapFree",
            "GetStartupInfoW",
            "RtlUnwind",
            "RaiseException",
            "HeapReAlloc",
            "HeapSize",
            "TerminateProcess",
            "UnhandledExceptionFilter",
            "SetUnhandledExceptionFilter",
            "IsDebuggerPresent",
            "GetConsoleCP",
            "GetConsoleMode",
            "SetHandleCount",
            "GetStdHandle",
            "GetFileType",
            "GetStartupInfoA",
            "VirtualFree",
            "VirtualAlloc",
            "HeapCreate",
            "GetCPInfo",
            "GetACP",
            "GetOEMCP",
            "IsValidCodePage",
            "FreeEnvironmentStringsW",
            "GetEnvironmentStringsW",
            "GetCommandLineW",
            "QueryPerformanceCounter",
            "GetSystemTimeAsFileTime",
            "InitializeCriticalSectionAndSpinCount",
            "SetStdHandle",
            "WriteConsoleA",
            "GetConsoleOutputCP",
            "WriteConsoleW",
            "LCMapStringA",
            "LCMapStringW",
            "GetStringTypeA",
            "GetStringTypeW",
            "GetLocaleInfoA",
            "GetProcessHeap",
            "GlobalAlloc",
            "GlobalHandle",
            "GlobalUnlock",
            "GlobalReAlloc",
            "GlobalLock",
            "EnterCriticalSection",
            "TlsGetValue",
            "LeaveCriticalSection",
            "LocalFree",
            "LocalAlloc",
            "SetLastError",
            "TlsAlloc",
            "WideCharToMultiByte",
            "LocalFileTimeToFileTime",
            "GetCurrentDirectoryW",
            "SystemTimeToFileTime",
            "SetFilePointer",
            "GetLastError",
            "SetFileAttributesW",
            "GetFileSizeEx",
            "LockResource",
            "LoadResource",
            "SizeofResource",
            "FindResourceW",
            "GetModuleHandleW",
            "ExitProcess",
            "MultiByteToWideChar",
            "CreateThread",
            "WriteFile",
            "CreateFileA",
            "GetModuleFileNameA",
            "GetTempPathA",
            "ReadFile",
            "DeviceIoControl",
            "CreateFileW",
            "GetSystemDirectoryW",
            "GetTickCount",
            "Sleep",
            "CreateEventW",
            "CloseHandle",
            "OpenEventW",
            "DeleteFileW",
            "GetFileAttributesW",
            "GetTempPathW",
            "GetModuleFileNameW",
            "LoadLibraryW",
            "GetVersionExW"
        ],
        "ADVAPI32.dll": [
            "RegQueryValueExW",
            "RegCloseKey",
            "RegSetValueExW",
            "RegOpenKeyExW"
        ],
        "GDI32.dll": [
            "DeleteDC",
            "GetStockObject",
            "CreateBitmap",
            "GetClipBox",
            "SetTextColor",
            "SetBkColor",
            "DeleteObject",
            "SaveDC",
            "ScaleWindowExtEx",
            "SetWindowExtEx",
            "ScaleViewportExtEx",
            "SetMapMode",
            "SetViewportExtEx",
            "OffsetViewportOrgEx",
            "PtVisible",
            "RestoreDC",
            "SetViewportOrgEx",
            "SelectObject",
            "Escape",
            "TextOutW",
            "ExtTextOutW",
            "GetDeviceCaps",
            "RectVisible"
        ],
        "IPHLPAPI.DLL": [
            "GetAdaptersInfo"
        ],
        "OLEACC.dll": [
            "LresultFromObject",
            "CreateStdAccessibleObject"
        ],
        "OLEAUT32.dll": [
            "VariantClear",
            "VariantChangeType",
            "VariantInit"
        ],
        "SHELL32.dll": [
            "ShellExecuteW",
            "ShellExecuteA"
        ],
        "USER32.dll": [
            "DestroyMenu",
            "TabbedTextOutW",
            "DrawTextW",
            "DrawTextExW",
            "GrayStringW",
            "WinHelpW",
            "GetCapture",
            "GetClassLongW",
            "GetClassNameW",
            "SetPropW",
            "GetPropW",
            "RemovePropW",
            "IsWindow",
            "GetForegroundWindow",
            "GetDlgItem",
            "GetTopWindow",
            "GetMessageTime",
            "GetMessagePos",
            "MapWindowPoints",
            "SetMenu",
            "SetForegroundWindow",
            "GetClientRect",
            "PostMessageW",
            "GetClassInfoExW",
            "GetClassInfoW",
            "ClientToScreen",
            "AdjustWindowRectEx",
            "GetDlgCtrlID",
            "CallWindowProcW",
            "PtInRect",
            "GetMenu",
            "SetWindowLongW",
            "SetWindowPos",
            "SystemParametersInfoA",
            "IsIconic",
            "GetWindowPlacement",
            "GetWindowRect",
            "GetWindow",
            "SetMenuItemBitmaps",
            "GetMenuCheckMarkDimensions",
            "LoadBitmapW",
            "GetFocus",
            "ModifyMenuW",
            "EnableMenuItem",
            "CheckMenuItem",
            "GetWindowTextW",
            "GetSystemMetrics",
            "GetDC",
            "ReleaseDC",
            "GetSysColor",
            "GetSysColorBrush",
            "SetWindowsHookExW",
            "CallNextHookEx",
            "GetKeyState",
            "PeekMessageW",
            "ValidateRect",
            "GetMenuState",
            "GetMenuItemID",
            "GetMenuItemCount",
            "GetSubMenu",
            "GetWindowThreadProcessId",
            "wsprintfW",
            "LoadStringW",
            "SendMessageW",
            "GetParent",
            "GetWindowLongW",
            "GetLastActivePopup",
            "IsWindowEnabled",
            "EnableWindow",
            "MessageBoxW",
            "UnhookWindowsHookEx",
            "SetWindowTextW",
            "DispatchMessageW",
            "LoadIconW",
            "LoadCursorW",
            "RegisterClassExW",
            "CreateWindowExW",
            "DialogBoxParamW",
            "DestroyWindow",
            "DefWindowProcW",
            "BeginPaint",
            "EndPaint",
            "PostQuitMessage",
            "EndDialog",
            "RegisterClassW",
            "RegisterWindowMessageW",
            "CopyRect"
        ],
        "WINSPOOL.DRV": [
            "OpenPrinterW",
            "DocumentPropertiesW",
            "ClosePrinter"
        ],
        "WS2_32.dll": [
            "gethostbyaddr",
            "htonl",
            "socket",
            "closesocket",
            "send",
            "recv",
            "gethostbyname",
            "inet_addr",
            "htons",
            "WSAStartup",
            "WSAGetLastError",
            "connect"
        ]
    }
}