{
    "hash": "000c78bd59c5312c273760d1333f947c128fdfb5a9ee6ad5ffaa0532702d3eb9",
    "section": [
        {
            "Name": "B*emB*em",
            "VirtualAddress": "0x1000",
            "Misc_VirtualSize": "0xe000",
            "SizeOfRawData": 0
        },
        {
            "Name": "B*emB*em",
            "VirtualAddress": "0xf000",
            "Misc_VirtualSize": "0x8000",
            "SizeOfRawData": 29696
        },
        {
            "Name": "B*emB*em",
            "VirtualAddress": "0x17000",
            "Misc_VirtualSize": "0x16000",
            "SizeOfRawData": 12800
        }
    ],
    "import": {
        "KERNEL32.DLL": [
            "LoadLibraryA",
            "GetProcAddress",
            "ExitProcess"
        ],
        "ADVAPI32.dll": [
            "RegOpenKeyA"
        ],
        "SHELL32.dll": [
            "ShellExecuteA"
        ],
        "USER32.dll": [
            "ShowWindow"
        ],
        "WININET.dll": [
            "InternetOpenA"
        ],
        "WSOCK32.dll": [
            "gethostbyname"
        ]
    }
}