{
    "hash": "000c9fbc7b874bc5ef55fdc1481d876a4a59c16cc19cc865574ed650cbfb6822",
    "section": [
        {
            "Name": ".text\u0000\u0000\u0000",
            "VirtualAddress": "0x1000",
            "Misc_VirtualSize": "0xa128",
            "SizeOfRawData": 45056
        },
        {
            "Name": ".data\u0000\u0000\u0000",
            "VirtualAddress": "0xc000",
            "Misc_VirtualSize": "0xf54",
            "SizeOfRawData": 0
        },
        {
            "Name": ".rsrc\u0000\u0000\u0000",
            "VirtualAddress": "0xd000",
            "Misc_VirtualSize": "0x5ba0",
            "SizeOfRawData": 24576
        }
    ],
    "import": {
        "MSVBVM60.DLL": [
            "MethCallEngine"
        ]
    }
}