{
    "hash": "000ca29a56fea185dde31ad8d714f451d826cc1c1cf32d25d5254fa152a6b82a",
    "section": [
        {
            "Name": ".text\u0000\u0000\u0000",
            "VirtualAddress": "0x1000",
            "Misc_VirtualSize": "0xf0b6",
            "SizeOfRawData": 61952
        },
        {
            "Name": ".rdata\u0000\u0000",
            "VirtualAddress": "0x11000",
            "Misc_VirtualSize": "0x6e8",
            "SizeOfRawData": 2048
        },
        {
            "Name": ".data\u0000\u0000\u0000",
            "VirtualAddress": "0x12000",
            "Misc_VirtualSize": "0xbd6",
            "SizeOfRawData": 3072
        },
        {
            "Name": ".rsrc\u0000\u0000\u0000",
            "VirtualAddress": "0x13000",
            "Misc_VirtualSize": "0x2e0",
            "SizeOfRawData": 1024
        },
        {
            "Name": ".reloc\u0000\u0000",
            "VirtualAddress": "0x14000",
            "Misc_VirtualSize": "0xf08",
            "SizeOfRawData": 4096
        }
    ],
    "import": {
        "user32.dll": [
            "GetMessageW",
            "CreateDesktopA",
            "wsprintfW",
            "LoadBitmapA",
            "IsDialogMessageW",
            "DialogBoxParamA",
            "PostMessageW",
            "InsertMenuA",
            "IsCharLowerW",
            "GetDlgItemTextW"
        ],
        "kernel32.dll": [
            "GetVersion",
            "GetProcAddress",
            "WaitForSingleObject",
            "ReadFile",
            "MoveFileW",
            "GetFileSize",
            "DeleteFileW",
            "GetACP",
            "CopyFileW",
            "GetModuleHandleA",
            "GetVersionExA",
            "FindFirstFileW",
            "QueryDosDeviceW",
            "GetNumberFormatA",
            "CreateWaitableTimerW",
            "OpenSemaphoreA"
        ],
        "msimg32.dll": [
            "GradientFill",
            "vSetDdrawflag",
            "AlphaBlend",
            "TransparentBlt"
        ],
        "crypt32.dll": [
            "CertAddStoreToCollection",
            "CertFreeCRLContext",
            "CryptSignMessage",
            "CertFindExtension",
            "CryptMemAlloc",
            "CertFreeCTLContext",
            "CryptMsgUpdate",
            "CryptSIPLoad",
            "CertGetNameStringA",
            "CryptUnprotectData",
            "CertNameToStrA",
            "CertDuplicateCRLContext"
        ]
    }
}