{
    "hash": "000c9c3ae838fe18b8e5350641a9be3b2b5f1aebd5253a609051834e9cd922d7",
    "section": [
        {
            "Name": ".text\u0000\u0000\u0000",
            "VirtualAddress": "0x1000",
            "Misc_VirtualSize": "0x1d9b",
            "SizeOfRawData": 7680
        },
        {
            "Name": ".data\u0000\u0000\u0000",
            "VirtualAddress": "0x3000",
            "Misc_VirtualSize": "0x9c",
            "SizeOfRawData": 512
        },
        {
            "Name": ".rsrc\u0000\u0000\u0000",
            "VirtualAddress": "0x4000",
            "Misc_VirtualSize": "0x14750",
            "SizeOfRawData": 83968
        }
    ],
    "import": {
        "msvcrt.dll": [
            "_except_handler3"
        ],
        "KERNEL32.dll": [
            "UnhandledExceptionFilter",
            "GetCommandLineA",
            "lstrlenW",
            "MultiByteToWideChar",
            "CreateEventA",
            "GetCurrentThreadId",
            "lstrcatA",
            "lstrlenA",
            "lstrcmpiA",
            "lstrcpyA",
            "GetModuleFileNameA",
            "FreeLibrary",
            "GetProcAddress",
            "LoadLibraryA",
            "GetVersionExA",
            "UnmapViewOfFile",
            "CloseHandle",
            "ReleaseMutex",
            "SetEvent",
            "WaitForSingleObject",
            "CreateProcessA",
            "lstrcpynA",
            "GetCurrentProcessId",
            "DuplicateHandle",
            "GetCurrentProcess",
            "CreateMutexA",
            "MapViewOfFile",
            "CreateFileMappingA",
            "WaitForMultipleObjects",
            "GetModuleFileNameW",
            "OpenProcess",
            "GetLastError",
            "SetUnhandledExceptionFilter",
            "LocalFree",
            "LocalAlloc",
            "GetModuleHandleA",
            "ExitThread",
            "GetStartupInfoA",
            "SetErrorMode",
            "TerminateProcess",
            "QueryPerformanceCounter",
            "GetTickCount",
            "GetSystemTimeAsFileTime"
        ],
        "USER32.dll": [
            "GetShellWindow",
            "GetClassNameA",
            "SendMessageA",
            "PeekMessageA",
            "MsgWaitForMultipleObjects",
            "DestroyWindow",
            "TranslateMessage",
            "DispatchMessageA",
            "LoadStringA",
            "DefWindowProcA",
            "RegisterClassA",
            "CreateMenu",
            "CreateWindowExA",
            "ShowWindow",
            "GetForegroundWindow",
            "wsprintfA"
        ],
        "SHLWAPI.dll": [
            "SHGetValueA"
        ],
        "SHDOCVW.dll": []
    }
}