{
    "hash": "000c1dad11514ed661d726af55e0a62ab92ca66c55ca34ecc8184f39531a9b4a",
    "section": [
        {
            "Name": ".text\u0000\u0000\u0000",
            "VirtualAddress": "0x1000",
            "Misc_VirtualSize": "0x5b50",
            "SizeOfRawData": 24576
        },
        {
            "Name": ".rdata\u0000\u0000",
            "VirtualAddress": "0x7000",
            "Misc_VirtualSize": "0x9ac",
            "SizeOfRawData": 4096
        },
        {
            "Name": ".data\u0000\u0000\u0000",
            "VirtualAddress": "0x8000",
            "Misc_VirtualSize": "0x3478",
            "SizeOfRawData": 8192
        },
        {
            "Name": ".rsrc\u0000\u0000\u0000",
            "VirtualAddress": "0xc000",
            "Misc_VirtualSize": "0x958",
            "SizeOfRawData": 4096
        }
    ],
    "import": {
        "KERNEL32.dll": [
            "FindClose",
            "FindNextFileA",
            "GetModuleHandleA",
            "GetStringTypeW",
            "GetStringTypeA",
            "GetModuleFileNameA",
            "GetWindowsDirectoryA",
            "FindFirstFileA",
            "Sleep",
            "HeapFree",
            "HeapAlloc",
            "GetStartupInfoA",
            "GetCommandLineA",
            "GetVersion",
            "ExitProcess",
            "HeapDestroy",
            "HeapCreate",
            "VirtualFree",
            "VirtualAlloc",
            "HeapReAlloc",
            "GetLastError",
            "CloseHandle",
            "WriteFile",
            "ReadFile",
            "TerminateProcess",
            "GetCurrentProcess",
            "UnhandledExceptionFilter",
            "FreeEnvironmentStringsA",
            "FreeEnvironmentStringsW",
            "WideCharToMultiByte",
            "GetEnvironmentStrings",
            "GetEnvironmentStringsW",
            "SetHandleCount",
            "GetStdHandle",
            "GetFileType",
            "RtlUnwind",
            "SetStdHandle",
            "FlushFileBuffers",
            "CreateFileA",
            "SetFilePointer",
            "GetCPInfo",
            "GetACP",
            "GetOEMCP",
            "GetProcAddress",
            "LoadLibraryA",
            "SetEndOfFile",
            "MultiByteToWideChar",
            "LCMapStringA",
            "LCMapStringW",
            "CreateDirectoryA"
        ],
        "USER32.dll": [
            "MessageBoxA"
        ],
        "ADVAPI32.dll": [
            "RegSetValueExA",
            "RegCloseKey",
            "RegOpenKeyA"
        ]
    }
}