{
    "hash": "000c9dde23f043436919a610eabebd652ca872244447ad341b45d23865bfad55",
    "section": [
        {
            "Name": "CODE\u0000\u0000\u0000\u0000",
            "VirtualAddress": "0x1000",
            "Misc_VirtualSize": "0x28000",
            "SizeOfRawData": 163840
        },
        {
            "Name": "DATA\u0000\u0000\u0000\u0000",
            "VirtualAddress": "0x29000",
            "Misc_VirtualSize": "0x1000",
            "SizeOfRawData": 1536
        },
        {
            "Name": "BSS\u0000\u0000\u0000\u0000\u0000",
            "VirtualAddress": "0x2a000",
            "Misc_VirtualSize": "0x1000",
            "SizeOfRawData": 0
        },
        {
            "Name": ".idata\u0000\u0000",
            "VirtualAddress": "0x2b000",
            "Misc_VirtualSize": "0x1000",
            "SizeOfRawData": 3072
        },
        {
            "Name": ".tls\u0000\u0000\u0000\u0000",
            "VirtualAddress": "0x2c000",
            "Misc_VirtualSize": "0x1000",
            "SizeOfRawData": 0
        },
        {
            "Name": ".rdata\u0000\u0000",
            "VirtualAddress": "0x2d000",
            "Misc_VirtualSize": "0x1000",
            "SizeOfRawData": 512
        },
        {
            "Name": ".reloc\u0000\u0000",
            "VirtualAddress": "0x2e000",
            "Misc_VirtualSize": "0x3000",
            "SizeOfRawData": 0
        },
        {
            "Name": ".rsrc\u0000\u0000\u0000",
            "VirtualAddress": "0x31000",
            "Misc_VirtualSize": "0xa000",
            "SizeOfRawData": 38912
        },
        {
            "Name": ".aspack\u0000",
            "VirtualAddress": "0x3b000",
            "Misc_VirtualSize": "0x1000",
            "SizeOfRawData": 4096
        },
        {
            "Name": ".adata\u0000\u0000",
            "VirtualAddress": "0x3c000",
            "Misc_VirtualSize": "0x1000",
            "SizeOfRawData": 0
        },
        {
            "Name": "ExeS\u0000\u0000\u0000\u0000",
            "VirtualAddress": "0x3d000",
            "Misc_VirtualSize": "0x2000",
            "SizeOfRawData": 3584
        }
    ],
    "import": {
        "kernel32.dll": [
            "Sleep"
        ],
        "user32.dll": [
            "MessageBoxA",
            "LoadStringA",
            "GetSystemMetrics",
            "CharNextA",
            "CharToOemA"
        ],
        "advapi32.dll": [
            "RegSetValueExA",
            "RegOpenKeyA",
            "RegCloseKey"
        ],
        "oleaut32.dll": [
            "SafeArrayPtrOfIndex",
            "SafeArrayGetUBound",
            "SafeArrayGetLBound",
            "SafeArrayCreate",
            "VariantChangeType",
            "VariantCopy",
            "VariantClear",
            "VariantInit"
        ]
    }
}