{
    "hash": "000ca7c2f0dafaa7efec483e2b94adc6214ca58c9876217bd8ef1909cbe588ba",
    "section": [
        {
            "Name": ".\u0000\u0000\u0000\u0000\u0000\u0000\u0000",
            "VirtualAddress": "0x1000",
            "Misc_VirtualSize": "0x7000",
            "SizeOfRawData": 7168
        },
        {
            "Name": ".\u0000\u0000\u0000\u0000\u0000\u0000\u0000",
            "VirtualAddress": "0x8000",
            "Misc_VirtualSize": "0x432",
            "SizeOfRawData": 1536
        },
        {
            "Name": ".\u0000\u0000\u0000\u0000\u0000\u0000\u0000",
            "VirtualAddress": "0x9000",
            "Misc_VirtualSize": "0x2bc",
            "SizeOfRawData": 1024
        }
    ],
    "import": {
        "KERNEL32.DLL": [
            "GetModuleHandleA",
            "GetProcAddress"
        ],
        "MSVCRT.dll": [
            "memset"
        ],
        "COMCTL32.DLL": [
            "InitCommonControls"
        ],
        "USER32.DLL": [
            "MessageBoxA"
        ],
        "SHELL32.DLL": [
            "ShellExecuteExA"
        ],
        "OLE32.DLL": [
            "CoInitialize"
        ]
    }
}