{
    "hash": "000cdf46900030e64077ef4039460d4baa8374fe7963419f15ff3476320c0edf",
    "section": [
        {
            "Name": ".text\u0000\u0000\u0000",
            "VirtualAddress": "0x1000",
            "Misc_VirtualSize": "0x2e5e8",
            "SizeOfRawData": 192512
        },
        {
            "Name": ".data\u0000\u0000\u0000",
            "VirtualAddress": "0x30000",
            "Misc_VirtualSize": "0x23dc",
            "SizeOfRawData": 0
        },
        {
            "Name": ".rsrc\u0000\u0000\u0000",
            "VirtualAddress": "0x33000",
            "Misc_VirtualSize": "0x10",
            "SizeOfRawData": 4096
        }
    ],
    "import": {
        "MSVBVM60.DLL": [
            "EVENT_SINK_GetIDsOfNames",
            "MethCallEngine",
            "EVENT_SINK_Invoke"
        ]
    }
}