{
    "hash": "000caabd6bf4e814e103c26b21132e0315a619cf0d3ce8c1dccc0e901589e498",
    "section": [
        {
            "Name": "CODE\u0000\u0000\u0000\u0000",
            "VirtualAddress": "0x1000",
            "Misc_VirtualSize": "0x11d0e0",
            "SizeOfRawData": 1167872
        },
        {
            "Name": "DATA\u0000\u0000\u0000\u0000",
            "VirtualAddress": "0x11f000",
            "Misc_VirtualSize": "0x29a4",
            "SizeOfRawData": 10752
        },
        {
            "Name": "BSS\u0000\u0000\u0000\u0000\u0000",
            "VirtualAddress": "0x122000",
            "Misc_VirtualSize": "0xf81",
            "SizeOfRawData": 0
        },
        {
            "Name": ".idata\u0000\u0000",
            "VirtualAddress": "0x123000",
            "Misc_VirtualSize": "0x2e20",
            "SizeOfRawData": 12288
        },
        {
            "Name": ".tls\u0000\u0000\u0000\u0000",
            "VirtualAddress": "0x126000",
            "Misc_VirtualSize": "0x10",
            "SizeOfRawData": 0
        },
        {
            "Name": ".rdata\u0000\u0000",
            "VirtualAddress": "0x127000",
            "Misc_VirtualSize": "0x18",
            "SizeOfRawData": 512
        },
        {
            "Name": ".reloc\u0000\u0000",
            "VirtualAddress": "0x128000",
            "Misc_VirtualSize": "0x12d48",
            "SizeOfRawData": 77312
        },
        {
            "Name": ".rsrc\u0000\u0000\u0000",
            "VirtualAddress": "0x13b000",
            "Misc_VirtualSize": "0xfd000",
            "SizeOfRawData": 1036052
        }
    ],
    "import": {
        "kernel32.dll": [
            "MulDiv"
        ],
        "user32.dll": [
            "DdeCmpStringHandles",
            "DdeFreeStringHandle",
            "DdeQueryStringA",
            "DdeCreateStringHandleA",
            "DdeGetLastError",
            "DdeFreeDataHandle",
            "DdeUnaccessData",
            "DdeAccessData",
            "DdeCreateDataHandle",
            "DdeClientTransaction",
            "DdeNameService",
            "DdePostAdvise",
            "DdeSetUserHandle",
            "DdeQueryConvInfo",
            "DdeDisconnect",
            "DdeConnect",
            "DdeUninitialize",
            "DdeInitializeA"
        ],
        "advapi32.dll": [
            "RegSetValueExA",
            "RegQueryValueExA",
            "RegQueryValueA",
            "RegOpenKeyExA",
            "RegOpenKeyA",
            "RegDeleteKeyA",
            "RegCreateKeyExA",
            "RegCloseKey"
        ],
        "oleaut32.dll": [
            "CreateErrorInfo",
            "GetErrorInfo",
            "SetErrorInfo",
            "SafeArrayCopy",
            "SafeArrayUnaccessData",
            "SafeArrayAccessData",
            "SafeArrayGetUBound",
            "SafeArrayDestroy",
            "SafeArrayCreate",
            "SysFreeString"
        ],
        "version.dll": [
            "VerQueryValueA",
            "GetFileVersionInfoSizeA",
            "GetFileVersionInfoA"
        ],
        "gdi32.dll": [
            "UnrealizeObject",
            "TextOutA",
            "StretchBlt",
            "StartPage",
            "StartDocA",
            "SetWindowOrgEx",
            "SetWindowExtEx",
            "SetWinMetaFileBits",
            "SetViewportOrgEx",
            "SetViewportExtEx",
            "SetTextColor",
            "SetTextAlign",
            "SetStretchBltMode",
            "SetROP2",
            "SetPixel",
            "SetMapMode",
            "SetEnhMetaFileBits",
            "SetDIBColorTable",
            "SetBrushOrgEx",
            "SetBkMode",
            "SetBkColor",
            "SetAbortProc",
            "SelectPalette",
            "SelectObject",
            "SelectClipRgn",
            "SaveDC",
            "RoundRect",
            "RestoreDC",
            "Rectangle",
            "RectVisible",
            "RealizePalette",
            "Polyline",
            "Polygon",
            "PolyPolyline",
            "PlayEnhMetaFile",
            "Pie",
            "PatBlt",
            "MoveToEx",
            "MaskBlt",
            "LineTo",
            "LPtoDP",
            "IntersectClipRect",
            "GetWindowOrgEx",
            "GetWinMetaFileBits",
            "GetTextMetricsA",
            "GetTextExtentPoint32A",
            "GetTextAlign",
            "GetSystemPaletteEntries",
            "GetStockObject",
            "GetRgnBox",
            "GetPixel",
            "GetPaletteEntries",
            "GetObjectA",
            "GetEnhMetaFilePaletteEntries",
            "GetEnhMetaFileHeader",
            "GetEnhMetaFileBits",
            "GetDeviceCaps",
            "GetDIBits",
            "GetDIBColorTable",
            "GetDCOrgEx",
            "GetCurrentPositionEx",
            "GetClipRgn",
            "GetClipBox",
            "GetBrushOrgEx",
            "GetBkMode",
            "GetBkColor",
            "GetBitmapBits",
            "GdiFlush",
            "ExtTextOutA",
            "ExtSelectClipRgn",
            "ExtCreatePen",
            "ExcludeClipRect",
            "EndPage",
            "EndDoc",
            "Ellipse",
            "DeleteObject",
            "DeleteMetaFile",
            "DeleteEnhMetaFile",
            "DeleteDC",
            "CreateSolidBrush",
            "CreateRectRgn",
            "CreatePolygonRgn",
            "CreatePenIndirect",
            "CreatePen",
            "CreatePatternBrush",
            "CreatePalette",
            "CreateICA",
            "CreateHalftonePalette",
            "CreateFontIndirectA",
            "CreateDIBitmap",
            "CreateDIBSection",
            "CreateDCA",
            "CreateCompatibleDC",
            "CreateCompatibleBitmap",
            "CreateBrushIndirect",
            "CreateBitmap",
            "CopyEnhMetaFileA",
            "CombineRgn",
            "BitBlt",
            "Arc"
        ],
        "ole32.dll": [
            "CreateILockBytesOnHGlobal",
            "GetHGlobalFromILockBytes",
            "OleGetIconOfClass",
            "OleDraw",
            "OleSetMenuDescriptor",
            "OleSetContainedObject",
            "OleSave",
            "OleLoad",
            "OleUninitialize",
            "OleInitialize",
            "StgOpenStorageOnILockBytes",
            "StgCreateDocfileOnILockBytes",
            "CoTaskMemFree",
            "CoTaskMemAlloc",
            "CLSIDFromString",
            "StringFromCLSID",
            "CoCreateInstance",
            "CoUninitialize",
            "CoInitialize",
            "IsEqualGUID"
        ],
        "comctl32.dll": [
            "ImageList_SetIconSize",
            "ImageList_GetIconSize",
            "ImageList_Write",
            "ImageList_Read",
            "ImageList_GetDragImage",
            "ImageList_DragShowNolock",
            "ImageList_SetDragCursorImage",
            "ImageList_DragMove",
            "ImageList_DragLeave",
            "ImageList_DragEnter",
            "ImageList_EndDrag",
            "ImageList_BeginDrag",
            "ImageList_Remove",
            "ImageList_DrawEx",
            "ImageList_Replace",
            "ImageList_Draw",
            "ImageList_GetBkColor",
            "ImageList_SetBkColor",
            "ImageList_ReplaceIcon",
            "ImageList_Add",
            "ImageList_GetImageCount",
            "ImageList_Destroy",
            "ImageList_Create",
            "InitCommonControls"
        ],
        "winspool.drv": [
            "OpenPrinterA",
            "EnumPrintersA",
            "DocumentPropertiesA",
            "ClosePrinter"
        ],
        "wininet.dll": [
            "InternetConnectA",
            "InternetCloseHandle",
            "HttpSendRequestA",
            "HttpOpenRequestA"
        ],
        "comdlg32.dll": [
            "ChooseColorA"
        ]
    }
}