{
    "hash": "000df21c4d38cc8aaf6e64ceabe09ea36a4034a12bf0ad2261dcc4d1a2e1a263",
    "section": [
        {
            "Name": "UCI0\u0000\u0000\u0000\u0000",
            "VirtualAddress": "0x1000",
            "Misc_VirtualSize": "0x40000",
            "SizeOfRawData": 0
        },
        {
            "Name": "UCI1\u0000\u0000\u0000\u0000",
            "VirtualAddress": "0x41000",
            "Misc_VirtualSize": "0x32000",
            "SizeOfRawData": 201728
        },
        {
            "Name": ".rsrc\u0000\u0000\u0000",
            "VirtualAddress": "0x73000",
            "Misc_VirtualSize": "0x1000",
            "SizeOfRawData": 3584
        }
    ],
    "import": {
        "KERNEL32.DLL": [
            "LoadLibraryA",
            "GetProcAddress",
            "VirtualProtect",
            "VirtualAlloc",
            "VirtualFree",
            "ExitProcess"
        ],
        "advapi32.dll": [
            "RegCloseKey"
        ],
        "comctl32.dll": [
            "ImageList_Add"
        ],
        "gdi32.dll": [
            "SaveDC"
        ],
        "ole32.dll": [
            "CoInitialize"
        ],
        "oleaut32.dll": [
            "VariantCopy"
        ],
        "user32.dll": [
            "GetDC"
        ],
        "version.dll": [
            "VerQueryValueA"
        ]
    }
}