{
    "hash": "000dcccb0e2c6ff7a7f99233ef0950d50a6cb4bc5a798f16c343407bf55a6c4b",
    "section": [
        {
            "Name": ".text\u0000\u0000\u0000",
            "VirtualAddress": "0x1000",
            "Misc_VirtualSize": "0x1f60",
            "SizeOfRawData": 8192
        },
        {
            "Name": ".rdata\u0000\u0000",
            "VirtualAddress": "0x3000",
            "Misc_VirtualSize": "0xbba",
            "SizeOfRawData": 3072
        },
        {
            "Name": ".data\u0000\u0000\u0000",
            "VirtualAddress": "0x4000",
            "Misc_VirtualSize": "0xba1",
            "SizeOfRawData": 512
        },
        {
            "Name": ".rsrc\u0000\u0000\u0000",
            "VirtualAddress": "0x5000",
            "Misc_VirtualSize": "0x29a0",
            "SizeOfRawData": 10752
        }
    ],
    "import": {
        "user32.dll": [
            "SendMessageA",
            "ShowWindow",
            "MessageBoxA",
            "PostQuitMessage",
            "GetMessageA",
            "EndPaint",
            "DispatchMessageA",
            "BeginPaint",
            "TranslateMessage",
            "MoveWindow",
            "CreateWindowExA",
            "RegisterClassExA",
            "DefWindowProcA",
            "DestroyWindow",
            "LoadIconA",
            "UpdateWindow",
            "LoadCursorA"
        ],
        "kernel32.dll": [
            "GetSystemTimeAsFileTime",
            "CreateFileA",
            "GetLastError",
            "GetModuleHandleA",
            "GetCommandLineA",
            "GetCurrentDirectoryA",
            "lstrcmpA",
            "lstrlenA",
            "GetTickCount",
            "GetCurrentProcessId",
            "GetCurrentProcess"
        ],
        "gdi32.dll": [
            "CreateCompatibleBitmap",
            "CreateCompatibleDC",
            "DeleteObject"
        ]
    }
}