{
    "hash": "000d037d5220f64e88027340bf7f49c61dff8906c5f8ac45d074618ee5ac650d",
    "section": [
        {
            "Name": "CODE\u0000\u0000\u0000\u0000",
            "VirtualAddress": "0x1000",
            "Misc_VirtualSize": "0x6c268",
            "SizeOfRawData": 443392
        },
        {
            "Name": "DATA\u0000\u0000\u0000\u0000",
            "VirtualAddress": "0x6e000",
            "Misc_VirtualSize": "0x13ac",
            "SizeOfRawData": 5120
        },
        {
            "Name": "BSS\u0000\u0000\u0000\u0000\u0000",
            "VirtualAddress": "0x70000",
            "Misc_VirtualSize": "0xbfd",
            "SizeOfRawData": 0
        },
        {
            "Name": ".idata\u0000\u0000",
            "VirtualAddress": "0x71000",
            "Misc_VirtualSize": "0x25d0",
            "SizeOfRawData": 9728
        },
        {
            "Name": ".tls\u0000\u0000\u0000\u0000",
            "VirtualAddress": "0x74000",
            "Misc_VirtualSize": "0x10",
            "SizeOfRawData": 0
        },
        {
            "Name": ".rdata\u0000\u0000",
            "VirtualAddress": "0x75000",
            "Misc_VirtualSize": "0x18",
            "SizeOfRawData": 512
        },
        {
            "Name": ".reloc\u0000\u0000",
            "VirtualAddress": "0x76000",
            "Misc_VirtualSize": "0x7e84",
            "SizeOfRawData": 32768
        },
        {
            "Name": ".rsrc\u0000\u0000\u0000",
            "VirtualAddress": "0x7e000",
            "Misc_VirtualSize": "0x154a08",
            "SizeOfRawData": 1395712
        }
    ],
    "import": {
        "kernel32.dll": [
            "Sleep"
        ],
        "user32.dll": [
            "CreateWindowExA",
            "WindowFromPoint",
            "WinHelpA",
            "WaitMessage",
            "UpdateWindow",
            "UnregisterClassA",
            "UnhookWindowsHookEx",
            "TranslateMessage",
            "TranslateMDISysAccel",
            "TrackPopupMenu",
            "SystemParametersInfoA",
            "ShowWindow",
            "ShowScrollBar",
            "ShowOwnedPopups",
            "ShowCursor",
            "SetWindowsHookExA",
            "SetWindowTextA",
            "SetWindowPos",
            "SetWindowPlacement",
            "SetWindowLongA",
            "SetTimer",
            "SetScrollRange",
            "SetScrollPos",
            "SetScrollInfo",
            "SetRect",
            "SetPropA",
            "SetParent",
            "SetMenuItemInfoA",
            "SetMenu",
            "SetForegroundWindow",
            "SetFocus",
            "SetCursor",
            "SetClipboardData",
            "SetClassLongA",
            "SetCapture",
            "SetActiveWindow",
            "SendMessageA",
            "SendDlgItemMessageA",
            "ScrollWindow",
            "ScreenToClient",
            "RemovePropA",
            "RemoveMenu",
            "ReleaseDC",
            "ReleaseCapture",
            "RegisterWindowMessageA",
            "RegisterClipboardFormatA",
            "RegisterClassA",
            "RedrawWindow",
            "PtInRect",
            "PostQuitMessage",
            "PostMessageA",
            "PeekMessageA",
            "OpenClipboard",
            "OffsetRect",
            "OemToCharA",
            "MessageBoxA",
            "MessageBeep",
            "MapWindowPoints",
            "MapVirtualKeyA",
            "LoadStringA",
            "LoadKeyboardLayoutA",
            "LoadIconA",
            "LoadCursorA",
            "LoadBitmapA",
            "KillTimer",
            "IsZoomed",
            "IsWindowVisible",
            "IsWindowEnabled",
            "IsWindow",
            "IsRectEmpty",
            "IsIconic",
            "IsDialogMessageA",
            "IsClipboardFormatAvailable",
            "IsChild",
            "InvalidateRect",
            "IntersectRect",
            "InsertMenuItemA",
            "InsertMenuA",
            "InflateRect",
            "GetWindowThreadProcessId",
            "GetWindowTextA",
            "GetWindowRect",
            "GetWindowPlacement",
            "GetWindowLongA",
            "GetWindowDC",
            "GetTopWindow",
            "GetSystemMetrics",
            "GetSystemMenu",
            "GetSysColorBrush",
            "GetSysColor",
            "GetSubMenu",
            "GetScrollRange",
            "GetScrollPos",
            "GetScrollInfo",
            "GetPropA",
            "GetParent",
            "GetWindow",
            "GetMenuStringA",
            "GetMenuState",
            "GetMenuItemInfoA",
            "GetMenuItemID",
            "GetMenuItemCount",
            "GetMenu",
            "GetLastActivePopup",
            "GetKeyboardState",
            "GetKeyboardLayoutList",
            "GetKeyboardLayout",
            "GetKeyState",
            "GetKeyNameTextA",
            "GetIconInfo",
            "GetForegroundWindow",
            "GetFocus",
            "GetDlgItem",
            "GetDesktopWindow",
            "GetDCEx",
            "GetDC",
            "GetCursorPos",
            "GetCursor",
            "GetClipboardData",
            "GetClientRect",
            "GetClassNameA",
            "GetClassInfoA",
            "GetCapture",
            "GetActiveWindow",
            "FrameRect",
            "FindWindowA",
            "FillRect",
            "EqualRect",
            "EnumWindows",
            "EnumThreadWindows",
            "EnumClipboardFormats",
            "EndPaint",
            "EnableWindow",
            "EnableScrollBar",
            "EnableMenuItem",
            "EmptyClipboard",
            "DrawTextA",
            "DrawMenuBar",
            "DrawIconEx",
            "DrawIcon",
            "DrawFrameControl",
            "DrawFocusRect",
            "DrawEdge",
            "DispatchMessageA",
            "DestroyWindow",
            "DestroyMenu",
            "DestroyIcon",
            "DestroyCursor",
            "DeleteMenu",
            "DefWindowProcA",
            "DefMDIChildProcA",
            "DefFrameProcA",
            "CreatePopupMenu",
            "CreateMenu",
            "CreateIcon",
            "CloseClipboard",
            "ClientToScreen",
            "CheckMenuItem",
            "CallWindowProcA",
            "CallNextHookEx",
            "BringWindowToTop",
            "BeginPaint",
            "CharPrevA",
            "CharNextA",
            "CharLowerBuffA",
            "CharLowerA",
            "CharToOemA",
            "AdjustWindowRectEx",
            "ActivateKeyboardLayout"
        ],
        "advapi32.dll": [
            "RegQueryValueExA",
            "RegOpenKeyExA",
            "RegCloseKey"
        ],
        "oleaut32.dll": [
            "SafeArrayPtrOfIndex",
            "SafeArrayGetUBound",
            "SafeArrayGetLBound",
            "SafeArrayCreate",
            "VariantChangeType",
            "VariantCopy",
            "VariantClear",
            "VariantInit"
        ],
        "version.dll": [
            "VerQueryValueA",
            "GetFileVersionInfoSizeA",
            "GetFileVersionInfoA"
        ],
        "gdi32.dll": [
            "UnrealizeObject",
            "TextOutA",
            "StretchBlt",
            "StartPage",
            "StartDocA",
            "SetWindowOrgEx",
            "SetWinMetaFileBits",
            "SetViewportOrgEx",
            "SetTextColor",
            "SetStretchBltMode",
            "SetROP2",
            "SetPixel",
            "SetEnhMetaFileBits",
            "SetDIBColorTable",
            "SetBrushOrgEx",
            "SetBkMode",
            "SetBkColor",
            "SetAbortProc",
            "SelectPalette",
            "SelectObject",
            "SaveDC",
            "RestoreDC",
            "RectVisible",
            "RealizePalette",
            "PlayEnhMetaFile",
            "PatBlt",
            "MoveToEx",
            "MaskBlt",
            "LineTo",
            "IntersectClipRect",
            "GetWindowOrgEx",
            "GetWinMetaFileBits",
            "GetTextMetricsA",
            "GetTextExtentPointA",
            "GetTextExtentPoint32A",
            "GetSystemPaletteEntries",
            "GetStockObject",
            "GetPixel",
            "GetPaletteEntries",
            "GetObjectA",
            "GetEnhMetaFilePaletteEntries",
            "GetEnhMetaFileHeader",
            "GetEnhMetaFileBits",
            "GetDeviceCaps",
            "GetDIBits",
            "GetDIBColorTable",
            "GetDCOrgEx",
            "GetDCPenColor",
            "GetCurrentPositionEx",
            "GetClipBox",
            "GetBrushOrgEx",
            "GetBitmapBits",
            "ExcludeClipRect",
            "EndPage",
            "EndDoc",
            "DeleteObject",
            "DeleteEnhMetaFile",
            "DeleteDC",
            "CreateSolidBrush",
            "CreatePenIndirect",
            "CreatePalette",
            "CreateICA",
            "CreateHalftonePalette",
            "CreateFontIndirectA",
            "CreateDIBitmap",
            "CreateDIBSection",
            "CreateDCA",
            "CreateCompatibleDC",
            "CreateCompatibleBitmap",
            "CreateBrushIndirect",
            "CreateBitmap",
            "CopyEnhMetaFileA",
            "BitBlt"
        ],
        "comctl32.dll": [
            "ImageList_SetIconSize",
            "ImageList_GetIconSize",
            "ImageList_Write",
            "ImageList_Read",
            "ImageList_GetDragImage",
            "ImageList_DragShowNolock",
            "ImageList_SetDragCursorImage",
            "ImageList_DragMove",
            "ImageList_DragLeave",
            "ImageList_DragEnter",
            "ImageList_EndDrag",
            "ImageList_BeginDrag",
            "ImageList_Remove",
            "ImageList_DrawEx",
            "ImageList_Replace",
            "ImageList_Draw",
            "ImageList_GetBkColor",
            "ImageList_SetBkColor",
            "ImageList_ReplaceIcon",
            "ImageList_Add",
            "ImageList_SetImageCount",
            "ImageList_GetImageCount",
            "ImageList_Destroy",
            "ImageList_Create",
            "InitCommonControls"
        ],
        "winspool.drv": [
            "OpenPrinterA",
            "EnumPrintersA",
            "DocumentPropertiesA",
            "ClosePrinter"
        ],
        "shell32.dll": [
            "DragQueryFileA",
            "DragFinish",
            "DragAcceptFiles"
        ],
        "comdlg32.dll": [
            "PageSetupDlgA",
            "PrintDlgA",
            "ChooseFontA",
            "ReplaceTextA",
            "FindTextA",
            "GetSaveFileNameA",
            "GetOpenFileNameA"
        ],
        "shfolder.dll": [
            "SHGetFolderPathA"
        ]
    }
}