{
    "hash": "000d9a098cd18eec4917514cdbbcc0b5cbb1ecbc78ca82d4a2f39e1897bab3fd",
    "section": [
        {
            "Name": ".text\u0000\u0000\u0000",
            "VirtualAddress": "0x1000",
            "Misc_VirtualSize": "0xd7e79",
            "SizeOfRawData": 884736
        },
        {
            "Name": ".rdata\u0000\u0000",
            "VirtualAddress": "0xd9000",
            "Misc_VirtualSize": "0x1530",
            "SizeOfRawData": 8192
        },
        {
            "Name": ".data\u0000\u0000\u0000",
            "VirtualAddress": "0xdb000",
            "Misc_VirtualSize": "0x2d85c",
            "SizeOfRawData": 12288
        },
        {
            "Name": ".pdata\u0000\u0000",
            "VirtualAddress": "0x109000",
            "Misc_VirtualSize": "0x9e",
            "SizeOfRawData": 4096
        },
        {
            "Name": ".rsrc\u0000\u0000\u0000",
            "VirtualAddress": "0x10a000",
            "Misc_VirtualSize": "0x11d928",
            "SizeOfRawData": 1171456
        }
    ],
    "import": {
        "KERNEL32.dll": [
            "UnlockFile",
            "TerminateThread",
            "GlobalFlags",
            "ResumeThread",
            "GetVolumeInformationW",
            "MulDiv",
            "GetConsoleCP",
            "SearchPathA",
            "SizeofResource",
            "OpenProcess",
            "GetDiskFreeSpaceA",
            "GetShortPathNameA",
            "CreateMutexW",
            "CreateIoCompletionPort",
            "GlobalLock",
            "DuplicateHandle",
            "GetModuleHandleW",
            "GetCommandLineW",
            "lstrcpyA",
            "IsBadReadPtr",
            "FreeLibrary",
            "LoadLibraryW",
            "GetStringTypeA",
            "LCMapStringW",
            "LCMapStringA",
            "MultiByteToWideChar",
            "SetFilePointer",
            "LoadLibraryA",
            "InterlockedExchange",
            "GetACP",
            "GetCPInfo",
            "FlushFileBuffers",
            "SetStdHandle",
            "HeapReAlloc",
            "GetDateFormatA",
            "HeapAlloc",
            "WriteFile",
            "RtlUnwind",
            "VirtualFree",
            "HeapCreate",
            "HeapDestroy",
            "GetEnvironmentVariableA",
            "GetFileType",
            "GetStdHandle",
            "SetHandleCount",
            "GetEnvironmentStringsW",
            "GetEnvironmentStrings",
            "WideCharToMultiByte",
            "FreeEnvironmentStringsW",
            "FreeEnvironmentStringsA",
            "UnhandledExceptionFilter",
            "GetCurrentProcess",
            "GetLastError",
            "GetStringTypeW",
            "HeapFree",
            "ExitProcess",
            "GetCommandLineA",
            "GetStartupInfoA",
            "GetVersion",
            "DeleteFileW",
            "GetCurrentThreadId",
            "CreateFileMappingA",
            "GetSystemTimeAsFileTime",
            "GetTickCount",
            "GetModuleHandleA",
            "GetModuleFileNameA",
            "GetVersionExA",
            "DisableThreadLibraryCalls",
            "TerminateProcess",
            "GetProcAddress",
            "GetCurrentProcessId",
            "RemoveDirectoryA",
            "CopyFileA",
            "CreateDirectoryA",
            "GetTimeFormatA",
            "SetCurrentDirectoryA",
            "GlobalUnlock",
            "FormatMessageW",
            "ReleaseMutex",
            "VirtualProtect",
            "LeaveCriticalSection",
            "EnterCriticalSection",
            "GetSystemDirectoryW",
            "RaiseException",
            "FindNextFileA",
            "SetEndOfFile",
            "GetTempPathA",
            "GetExitCodeProcess",
            "VirtualAlloc",
            "ResetEvent",
            "lstrcmpiA",
            "GetOEMCP",
            "CloseHandle"
        ],
        "USER32.dll": [
            "GetKeyState",
            "DeleteMenu",
            "SendMessageA",
            "ReleaseDC",
            "GetWindowLongW",
            "SetWindowPos",
            "GetParent",
            "LoadAcceleratorsW",
            "SendMessageTimeoutA",
            "DispatchMessageW",
            "GetMessagePos",
            "GetWindowLongA",
            "SetFocus",
            "ClientToScreen",
            "DefWindowProcA",
            "SetCursor",
            "TrackPopupMenu",
            "LoadStringW",
            "CharNextW",
            "EnableMenuItem",
            "DestroyMenu",
            "IsWindowEnabled",
            "RegisterClassExW",
            "SetWindowLongW",
            "SetClassLongW",
            "LoadMenuW",
            "DrawTextA",
            "CharLowerBuffW",
            "CreatePopupMenu",
            "EmptyClipboard",
            "LoadBitmapA",
            "InvalidateRect",
            "EndPaint",
            "CloseClipboard",
            "SendMessageW",
            "MoveWindow",
            "GetClassInfoExW",
            "TranslateAcceleratorW",
            "DestroyWindow",
            "TranslateMessage",
            "GetSubMenu",
            "GetClassNameW",
            "CheckDlgButton",
            "SetClipboardData",
            "TrackPopupMenuEx"
        ],
        "GDI32.dll": [
            "GetDeviceCaps",
            "DeleteObject",
            "CreateBrushIndirect",
            "CreateFontIndirectA",
            "SetBkMode",
            "SetTextColor",
            "SelectObject",
            "GetMapMode",
            "GetWindowExtEx",
            "RectVisible",
            "GetTextColor",
            "SetMapMode",
            "ScaleWindowExtEx",
            "GetClipBox",
            "GetDIBits",
            "RestoreDC",
            "GetStockObject",
            "SetBkColor"
        ],
        "ADVAPI32.dll": [
            "InitializeSid",
            "LookupPrivilegeNameA",
            "OpenEventLogW",
            "RegOpenKeyExW",
            "EqualSid",
            "RegCloseKey",
            "RegDeleteKeyW",
            "RegEnumValueW",
            "RegSetValueExW",
            "LookupPrivilegeNameW",
            "RegDeleteValueW",
            "RegCreateKeyExW",
            "LookupAccountSidW",
            "AllocateLocallyUniqueId",
            "RegQueryValueW"
        ]
    }
}