{
    "hash": "000d0b393034e2e934f4199b3ceedc3581046d605223c4d784b1945151209d9e",
    "section": [
        {
            "Name": ".text\u0000\u0000\u0000",
            "VirtualAddress": "0x1000",
            "Misc_VirtualSize": "0x189a",
            "SizeOfRawData": 8192
        },
        {
            "Name": ".rdata\u0000\u0000",
            "VirtualAddress": "0x3000",
            "Misc_VirtualSize": "0xa98",
            "SizeOfRawData": 4096
        },
        {
            "Name": ".data\u0000\u0000\u0000",
            "VirtualAddress": "0x4000",
            "Misc_VirtualSize": "0x520",
            "SizeOfRawData": 4096
        },
        {
            "Name": ".rsrc\u0000\u0000\u0000",
            "VirtualAddress": "0x5000",
            "Misc_VirtualSize": "0x9c60",
            "SizeOfRawData": 40960
        }
    ],
    "import": {
        "KERNEL32.dll": [
            "lstrcatA",
            "lstrcpyA",
            "GetEnvironmentVariableA",
            "GetShortPathNameA",
            "GetModuleFileNameA",
            "GetLastError",
            "SetFileAttributesA",
            "CopyFileA",
            "CloseHandle",
            "GetCurrentProcess",
            "CreateFileA",
            "GlobalFree",
            "LockResource",
            "GlobalAlloc",
            "LoadResource",
            "SizeofResource",
            "FindResourceA",
            "SetPriorityClass",
            "GetCurrentThread",
            "SetThreadPriority",
            "ResumeThread",
            "Sleep",
            "GetStartupInfoA",
            "CreateProcessA",
            "lstrlenA",
            "VirtualAllocEx",
            "WriteProcessMemory",
            "GetModuleHandleA",
            "GetProcAddress",
            "CreateRemoteThread",
            "GetSystemWindowsDirectoryA",
            "GetSystemDirectoryA",
            "WriteFile"
        ],
        "USER32.dll": [
            "MessageBoxA"
        ],
        "comdlg32.dll": [
            "GetFileTitleA"
        ],
        "ADVAPI32.dll": [
            "CloseServiceHandle",
            "RegOpenKeyExA",
            "RegQueryValueExA",
            "StartServiceCtrlDispatcherA",
            "RegCreateKeyA",
            "RegisterServiceCtrlHandlerA",
            "SetServiceStatus",
            "RegOpenKeyA",
            "RegDeleteValueA",
            "RegSetValueExA",
            "RegCloseKey",
            "OpenServiceA",
            "CreateServiceA",
            "OpenSCManagerA",
            "StartServiceA"
        ],
        "ole32.dll": [
            "CoUninitialize",
            "CoCreateGuid",
            "CoInitialize"
        ],
        "MFC42.DLL": [],
        "MSVCRT.dll": [
            "_controlfp",
            "__set_app_type",
            "__CxxFrameHandler",
            "_snprintf",
            "free",
            "fwrite",
            "fclose",
            "fread",
            "malloc",
            "ftell",
            "fseek",
            "fopen",
            "exit",
            "strstr",
            "strncmp",
            "_except_handler3",
            "__dllonexit",
            "_onexit",
            "_exit",
            "_XcptFilter",
            "_acmdln",
            "__getmainargs",
            "_initterm",
            "__setusermatherr",
            "_adjust_fdiv",
            "__p__commode",
            "__p__fmode"
        ],
        "MSVCP60.dll": [
            "??0_Winit@std@@QAE@XZ",
            "??1_Winit@std@@QAE@XZ",
            "??1Init@ios_base@std@@QAE@XZ",
            "??0Init@ios_base@std@@QAE@XZ"
        ]
    }
}