{
    "hash": "000d5bd506a7e1786d9c7cdd59445a8d9e0bb5cf8406019c868f9164b75c6978",
    "section": [
        {
            "Name": ".text\u0000\u0000\u0000",
            "VirtualAddress": "0x1000",
            "Misc_VirtualSize": "0x12ade",
            "SizeOfRawData": 77824
        },
        {
            "Name": ".rdata\u0000\u0000",
            "VirtualAddress": "0x14000",
            "Misc_VirtualSize": "0x27ac",
            "SizeOfRawData": 12288
        },
        {
            "Name": ".data\u0000\u0000\u0000",
            "VirtualAddress": "0x17000",
            "Misc_VirtualSize": "0x24e4",
            "SizeOfRawData": 4096
        },
        {
            "Name": ".rsrc\u0000\u0000\u0000",
            "VirtualAddress": "0x1a000",
            "Misc_VirtualSize": "0x73f4c",
            "SizeOfRawData": 475136
        },
        {
            "Name": ".reloc\u0000\u0000",
            "VirtualAddress": "0x8e000",
            "Misc_VirtualSize": "0xf62",
            "SizeOfRawData": 4096
        }
    ],
    "import": {
        "KERNEL32.dll": [
            "VirtualFree",
            "VirtualAlloc",
            "GetProcAddress",
            "GetCurrentProcess",
            "LoadLibraryA",
            "lstrcatA",
            "lstrcpyA",
            "GetModuleHandleA",
            "CreateThread",
            "GetCommandLineA",
            "HeapFree",
            "GetVersionExA",
            "HeapAlloc",
            "GetProcessHeap",
            "GetStartupInfoA",
            "TerminateProcess",
            "UnhandledExceptionFilter",
            "SetUnhandledExceptionFilter",
            "IsDebuggerPresent",
            "ExitProcess",
            "WriteFile",
            "GetStdHandle",
            "GetModuleFileNameA",
            "FreeEnvironmentStringsA",
            "GetEnvironmentStrings",
            "FreeEnvironmentStringsW",
            "WideCharToMultiByte",
            "GetLastError",
            "GetEnvironmentStringsW",
            "SetHandleCount",
            "GetFileType",
            "DeleteCriticalSection",
            "TlsGetValue",
            "TlsAlloc",
            "TlsSetValue",
            "TlsFree",
            "InterlockedIncrement",
            "SetLastError",
            "GetCurrentThreadId",
            "InterlockedDecrement",
            "GetCurrentThread",
            "HeapDestroy",
            "HeapCreate",
            "QueryPerformanceCounter",
            "GetTickCount",
            "GetCurrentProcessId",
            "GetSystemTimeAsFileTime",
            "LeaveCriticalSection",
            "FatalAppExitA",
            "EnterCriticalSection",
            "SetConsoleCtrlHandler",
            "FreeLibrary",
            "InterlockedExchange",
            "InitializeCriticalSection",
            "GetCPInfo",
            "GetACP",
            "GetOEMCP",
            "IsValidCodePage",
            "Sleep",
            "HeapReAlloc",
            "RtlUnwind",
            "HeapSize",
            "MultiByteToWideChar",
            "GetLocaleInfoA",
            "GetLocaleInfoW",
            "LCMapStringA",
            "LCMapStringW",
            "GetStringTypeA",
            "GetStringTypeW",
            "GetTimeFormatA",
            "GetDateFormatA",
            "GetUserDefaultLCID",
            "EnumSystemLocalesA",
            "IsValidLocale",
            "GetTimeZoneInformation",
            "CompareStringA",
            "CompareStringW",
            "SetEnvironmentVariableA"
        ]
    }
}