{
    "hash": "000dbed0ff1a6c50825e015157e5639a9f93927f378e0df0b8cb717c2508ce21",
    "section": [
        {
            "Name": "CODE\u0000\u0000\u0000\u0000",
            "VirtualAddress": "0x1000",
            "Misc_VirtualSize": "0xc984",
            "SizeOfRawData": 51712
        },
        {
            "Name": "DATA\u0000\u0000\u0000\u0000",
            "VirtualAddress": "0xe000",
            "Misc_VirtualSize": "0xa1c",
            "SizeOfRawData": 3072
        },
        {
            "Name": "BSS\u0000\u0000\u0000\u0000\u0000",
            "VirtualAddress": "0xf000",
            "Misc_VirtualSize": "0x1111",
            "SizeOfRawData": 0
        },
        {
            "Name": ".idata\u0000\u0000",
            "VirtualAddress": "0x11000",
            "Misc_VirtualSize": "0x83e",
            "SizeOfRawData": 2560
        },
        {
            "Name": ".tls\u0000\u0000\u0000\u0000",
            "VirtualAddress": "0x12000",
            "Misc_VirtualSize": "0x8",
            "SizeOfRawData": 0
        },
        {
            "Name": ".rdata\u0000\u0000",
            "VirtualAddress": "0x13000",
            "Misc_VirtualSize": "0x18",
            "SizeOfRawData": 512
        },
        {
            "Name": ".reloc\u0000\u0000",
            "VirtualAddress": "0x14000",
            "Misc_VirtualSize": "0x710",
            "SizeOfRawData": 2048
        },
        {
            "Name": ".rsrc\u0000\u0000\u0000",
            "VirtualAddress": "0x15000",
            "Misc_VirtualSize": "0xabc",
            "SizeOfRawData": 3072
        }
    ],
    "import": {
        "kernel32.dll": [
            "WritePrivateProfileStringA",
            "WinExec",
            "UpdateResourceA",
            "Sleep",
            "SetFilePointer",
            "ReadFile",
            "GetSystemDirectoryA",
            "GetLastError",
            "GetFileAttributesA",
            "FindNextFileA",
            "FindFirstFileA",
            "FindClose",
            "FileTimeToLocalFileTime",
            "FileTimeToDosDateTime",
            "ExitProcess",
            "EndUpdateResourceA",
            "DeleteFileA",
            "CreateThread",
            "CreateMutexA",
            "CreateFileA",
            "CreateDirectoryA",
            "CopyFileA",
            "CloseHandle",
            "BeginUpdateResourceA"
        ],
        "user32.dll": [
            "SetTimer",
            "GetMessageA",
            "DispatchMessageA",
            "CharUpperBuffA"
        ],
        "advapi32.dll": [
            "RegQueryValueExA",
            "RegOpenKeyExA",
            "RegCloseKey"
        ],
        "oleaut32.dll": [
            "SysFreeString"
        ],
        "wsock32.dll": [
            "WSACleanup",
            "WSAStartup",
            "gethostbyname",
            "socket",
            "send",
            "select",
            "recv",
            "ntohs",
            "listen",
            "inet_ntoa",
            "inet_addr",
            "htons",
            "htonl",
            "getsockname",
            "connect",
            "closesocket",
            "bind",
            "accept"
        ]
    }
}