{
    "hash": "000d72c7c86d391c82eeebe81e65d8946fe5869a08c9d2c2bee5f8531de35097",
    "section": [
        {
            "Name": "UPX0\u0000\u0000\u0000\u0000",
            "VirtualAddress": "0x1000",
            "Misc_VirtualSize": "0x11000",
            "SizeOfRawData": 0
        },
        {
            "Name": "UPX1\u0000\u0000\u0000\u0000",
            "VirtualAddress": "0x12000",
            "Misc_VirtualSize": "0x9000",
            "SizeOfRawData": 34816
        },
        {
            "Name": "UPX2\u0000\u0000\u0000\u0000",
            "VirtualAddress": "0x1b000",
            "Misc_VirtualSize": "0x1000",
            "SizeOfRawData": 512
        }
    ],
    "import": {
        "ADVAPI32.dll": [
            "RegCloseKey"
        ],
        "KERNEL32.DLL": [
            "LoadLibraryA",
            "ExitProcess",
            "GetProcAddress",
            "VirtualProtect"
        ],
        "MPR.dll": [
            "WNetOpenEnumA"
        ],
        "SHELL32.dll": [
            "ShellExecuteA"
        ],
        "USER32.dll": [
            "EnumWindows"
        ],
        "WS2_32.dll": [
            "gethostbyaddr"
        ]
    }
}