{
    "hash": "000ddbfdc414d172544405f98e8c39c9123ba92c14b6fce3763b84d105608a92",
    "section": [
        {
            "Name": ".text\u0000\u0000\u0000",
            "VirtualAddress": "0x1000",
            "Misc_VirtualSize": "0x304",
            "SizeOfRawData": 1024
        },
        {
            "Name": ".rdata\u0000\u0000",
            "VirtualAddress": "0x2000",
            "Misc_VirtualSize": "0x29a",
            "SizeOfRawData": 1024
        },
        {
            "Name": ".rsrc\u0000\u0000\u0000",
            "VirtualAddress": "0x3000",
            "Misc_VirtualSize": "0xa8",
            "SizeOfRawData": 512
        }
    ],
    "import": {
        "SHLWAPI.dll": [
            "PathAppendW"
        ],
        "KERNEL32.dll": [
            "lstrlenW",
            "GlobalFree",
            "GetCommandLineW",
            "GlobalAlloc",
            "CreateProcessW"
        ],
        "USER32.dll": [
            "wsprintfW"
        ],
        "ADVAPI32.dll": [
            "RegOpenKeyExW",
            "RegQueryValueExW"
        ],
        "SHELL32.dll": [
            "SHGetFolderPathW"
        ]
    }
}