{
    "hash": "000da988dcfb229d78888b408d562ba3c1bc800f87119a591a814915f4c22f9d",
    "section": [
        {
            "Name": "CODE\u0000\u0000\u0000\u0000",
            "VirtualAddress": "0x1000",
            "Misc_VirtualSize": "0x722c",
            "SizeOfRawData": 29696
        },
        {
            "Name": "DATA\u0000\u0000\u0000\u0000",
            "VirtualAddress": "0x9000",
            "Misc_VirtualSize": "0x218",
            "SizeOfRawData": 1024
        },
        {
            "Name": "BSS\u0000\u0000\u0000\u0000\u0000",
            "VirtualAddress": "0xa000",
            "Misc_VirtualSize": "0xa899",
            "SizeOfRawData": 0
        },
        {
            "Name": ".idata\u0000\u0000",
            "VirtualAddress": "0x15000",
            "Misc_VirtualSize": "0x864",
            "SizeOfRawData": 2560
        },
        {
            "Name": ".tls\u0000\u0000\u0000\u0000",
            "VirtualAddress": "0x16000",
            "Misc_VirtualSize": "0x8",
            "SizeOfRawData": 0
        },
        {
            "Name": ".rdata\u0000\u0000",
            "VirtualAddress": "0x17000",
            "Misc_VirtualSize": "0x18",
            "SizeOfRawData": 512
        },
        {
            "Name": ".reloc\u0000\u0000",
            "VirtualAddress": "0x18000",
            "Misc_VirtualSize": "0x5cc",
            "SizeOfRawData": 1536
        },
        {
            "Name": ".rsrc\u0000\u0000\u0000",
            "VirtualAddress": "0x19000",
            "Misc_VirtualSize": "0x1400",
            "SizeOfRawData": 5120
        }
    ],
    "import": {
        "kernel32.dll": [
            "WriteFile",
            "WinExec",
            "SetFilePointer",
            "SetFileAttributesA",
            "SetEndOfFile",
            "SetCurrentDirectoryA",
            "ReleaseMutex",
            "ReadFile",
            "GetWindowsDirectoryA",
            "GetTempPathA",
            "GetShortPathNameA",
            "GetModuleFileNameA",
            "GetLogicalDriveStringsA",
            "GetLocalTime",
            "GetLastError",
            "GetFileSize",
            "GetFileAttributesA",
            "GetDriveTypeA",
            "GetCommandLineA",
            "FreeLibrary",
            "FindNextFileA",
            "FindFirstFileA",
            "FindClose",
            "DeleteFileA",
            "CreateMutexA",
            "CreateFileA",
            "CreateDirectoryA",
            "CloseHandle"
        ],
        "user32.dll": [
            "ReleaseDC",
            "GetSysColor",
            "GetIconInfo",
            "GetDC",
            "FillRect",
            "DestroyIcon",
            "CopyImage",
            "CharLowerBuffA"
        ],
        "advapi32.dll": [
            "RegSetValueExA",
            "RegOpenKeyExA",
            "RegCloseKey"
        ],
        "oleaut32.dll": [
            "SysFreeString",
            "SysReAllocStringLen"
        ],
        "gdi32.dll": [
            "StretchDIBits",
            "SetDIBits",
            "SelectObject",
            "GetObjectA",
            "GetDIBits",
            "DeleteObject",
            "DeleteDC",
            "CreateSolidBrush",
            "CreateDIBSection",
            "CreateCompatibleDC",
            "CreateCompatibleBitmap",
            "BitBlt"
        ],
        "shell32.dll": [
            "ShellExecuteA",
            "ExtractIconA"
        ]
    }
}