{
    "hash": "000dfe7e9f499e2a02936e14f9973511f9ad16b9a686e703fd71ff616476081a",
    "section": [
        {
            "Name": ".text\u0000\u0000\u0000",
            "VirtualAddress": "0x1000",
            "Misc_VirtualSize": "0x46e35",
            "SizeOfRawData": 290816
        },
        {
            "Name": ".rdata\u0000\u0000",
            "VirtualAddress": "0x48000",
            "Misc_VirtualSize": "0x1e100",
            "SizeOfRawData": 123392
        },
        {
            "Name": ".data\u0000\u0000\u0000",
            "VirtualAddress": "0x67000",
            "Misc_VirtualSize": "0x47b0",
            "SizeOfRawData": 8192
        },
        {
            "Name": ".gfids\u0000\u0000",
            "VirtualAddress": "0x6c000",
            "Misc_VirtualSize": "0x23c",
            "SizeOfRawData": 1024
        },
        {
            "Name": ".rsrc\u0000\u0000\u0000",
            "VirtualAddress": "0x6d000",
            "Misc_VirtualSize": "0x3ab08",
            "SizeOfRawData": 240640
        },
        {
            "Name": ".bak\u0000\u0000\u0000\u0000",
            "VirtualAddress": "0xa8000",
            "Misc_VirtualSize": "0x1903",
            "SizeOfRawData": 6656
        },
        {
            "Name": ".bak\u0000\u0000\u0000\u0000",
            "VirtualAddress": "0xaa000",
            "Misc_VirtualSize": "0x1903",
            "SizeOfRawData": 6656
        },
        {
            "Name": ".bak\u0000\u0000\u0000\u0000",
            "VirtualAddress": "0xac000",
            "Misc_VirtualSize": "0x1903",
            "SizeOfRawData": 6656
        },
        {
            "Name": ".bak\u0000\u0000\u0000\u0000",
            "VirtualAddress": "0xae000",
            "Misc_VirtualSize": "0x1903",
            "SizeOfRawData": 6656
        },
        {
            "Name": ".bak\u0000\u0000\u0000\u0000",
            "VirtualAddress": "0xb0000",
            "Misc_VirtualSize": "0x1903",
            "SizeOfRawData": 6656
        },
        {
            "Name": ".bak\u0000\u0000\u0000\u0000",
            "VirtualAddress": "0xb2000",
            "Misc_VirtualSize": "0x1903",
            "SizeOfRawData": 6656
        },
        {
            "Name": ".bak\u0000\u0000\u0000\u0000",
            "VirtualAddress": "0xb4000",
            "Misc_VirtualSize": "0x1903",
            "SizeOfRawData": 6656
        },
        {
            "Name": ".bak\u0000\u0000\u0000\u0000",
            "VirtualAddress": "0xb6000",
            "Misc_VirtualSize": "0x1903",
            "SizeOfRawData": 6656
        },
        {
            "Name": ".bak\u0000\u0000\u0000\u0000",
            "VirtualAddress": "0xb8000",
            "Misc_VirtualSize": "0x1903",
            "SizeOfRawData": 6656
        },
        {
            "Name": ".bak\u0000\u0000\u0000\u0000",
            "VirtualAddress": "0xba000",
            "Misc_VirtualSize": "0x1903",
            "SizeOfRawData": 6656
        },
        {
            "Name": ".bak\u0000\u0000\u0000\u0000",
            "VirtualAddress": "0xbc000",
            "Misc_VirtualSize": "0x1903",
            "SizeOfRawData": 6656
        },
        {
            "Name": ".bak\u0000\u0000\u0000\u0000",
            "VirtualAddress": "0xbe000",
            "Misc_VirtualSize": "0x1903",
            "SizeOfRawData": 6656
        },
        {
            "Name": ".bak\u0000\u0000\u0000\u0000",
            "VirtualAddress": "0xc0000",
            "Misc_VirtualSize": "0x1903",
            "SizeOfRawData": 6656
        },
        {
            "Name": ".bak\u0000\u0000\u0000\u0000",
            "VirtualAddress": "0xc2000",
            "Misc_VirtualSize": "0x1903",
            "SizeOfRawData": 6656
        },
        {
            "Name": ".bak\u0000\u0000\u0000\u0000",
            "VirtualAddress": "0xc4000",
            "Misc_VirtualSize": "0x1903",
            "SizeOfRawData": 6656
        },
        {
            "Name": ".bak\u0000\u0000\u0000\u0000",
            "VirtualAddress": "0xc6000",
            "Misc_VirtualSize": "0x1903",
            "SizeOfRawData": 6656
        },
        {
            "Name": ".bak\u0000\u0000\u0000\u0000",
            "VirtualAddress": "0xc8000",
            "Misc_VirtualSize": "0x1903",
            "SizeOfRawData": 6656
        },
        {
            "Name": ".bak\u0000\u0000\u0000\u0000",
            "VirtualAddress": "0xca000",
            "Misc_VirtualSize": "0x1903",
            "SizeOfRawData": 6656
        },
        {
            "Name": ".bak\u0000\u0000\u0000\u0000",
            "VirtualAddress": "0xcc000",
            "Misc_VirtualSize": "0x1903",
            "SizeOfRawData": 6656
        },
        {
            "Name": ".bak\u0000\u0000\u0000\u0000",
            "VirtualAddress": "0xce000",
            "Misc_VirtualSize": "0x1903",
            "SizeOfRawData": 6656
        },
        {
            "Name": ".bak\u0000\u0000\u0000\u0000",
            "VirtualAddress": "0xd0000",
            "Misc_VirtualSize": "0x1903",
            "SizeOfRawData": 6656
        },
        {
            "Name": ".bak\u0000\u0000\u0000\u0000",
            "VirtualAddress": "0xd2000",
            "Misc_VirtualSize": "0x1903",
            "SizeOfRawData": 6656
        },
        {
            "Name": ".bak\u0000\u0000\u0000\u0000",
            "VirtualAddress": "0xd4000",
            "Misc_VirtualSize": "0x1903",
            "SizeOfRawData": 6656
        },
        {
            "Name": ".bak\u0000\u0000\u0000\u0000",
            "VirtualAddress": "0xd6000",
            "Misc_VirtualSize": "0x1903",
            "SizeOfRawData": 6656
        },
        {
            "Name": ".bak\u0000\u0000\u0000\u0000",
            "VirtualAddress": "0xd8000",
            "Misc_VirtualSize": "0x1903",
            "SizeOfRawData": 6656
        },
        {
            "Name": ".bak\u0000\u0000\u0000\u0000",
            "VirtualAddress": "0xda000",
            "Misc_VirtualSize": "0x1903",
            "SizeOfRawData": 6656
        },
        {
            "Name": ".bak\u0000\u0000\u0000\u0000",
            "VirtualAddress": "0xdc000",
            "Misc_VirtualSize": "0x1903",
            "SizeOfRawData": 6656
        },
        {
            "Name": ".bak\u0000\u0000\u0000\u0000",
            "VirtualAddress": "0xde000",
            "Misc_VirtualSize": "0x1903",
            "SizeOfRawData": 6656
        },
        {
            "Name": ".bak\u0000\u0000\u0000\u0000",
            "VirtualAddress": "0xe0000",
            "Misc_VirtualSize": "0x1903",
            "SizeOfRawData": 6656
        },
        {
            "Name": ".bak\u0000\u0000\u0000\u0000",
            "VirtualAddress": "0xe2000",
            "Misc_VirtualSize": "0x1903",
            "SizeOfRawData": 6656
        },
        {
            "Name": ".bak\u0000\u0000\u0000\u0000",
            "VirtualAddress": "0xe4000",
            "Misc_VirtualSize": "0x1903",
            "SizeOfRawData": 6656
        },
        {
            "Name": ".bak\u0000\u0000\u0000\u0000",
            "VirtualAddress": "0xe6000",
            "Misc_VirtualSize": "0x1903",
            "SizeOfRawData": 6656
        },
        {
            "Name": ".bak\u0000\u0000\u0000\u0000",
            "VirtualAddress": "0xe8000",
            "Misc_VirtualSize": "0x1903",
            "SizeOfRawData": 6656
        },
        {
            "Name": ".bak\u0000\u0000\u0000\u0000",
            "VirtualAddress": "0xea000",
            "Misc_VirtualSize": "0x1903",
            "SizeOfRawData": 6656
        },
        {
            "Name": ".bak\u0000\u0000\u0000\u0000",
            "VirtualAddress": "0xec000",
            "Misc_VirtualSize": "0x1903",
            "SizeOfRawData": 6656
        },
        {
            "Name": ".bak\u0000\u0000\u0000\u0000",
            "VirtualAddress": "0xee000",
            "Misc_VirtualSize": "0x1903",
            "SizeOfRawData": 6656
        },
        {
            "Name": ".bak\u0000\u0000\u0000\u0000",
            "VirtualAddress": "0xf0000",
            "Misc_VirtualSize": "0x1903",
            "SizeOfRawData": 6656
        },
        {
            "Name": ".bak\u0000\u0000\u0000\u0000",
            "VirtualAddress": "0xf2000",
            "Misc_VirtualSize": "0x1903",
            "SizeOfRawData": 6656
        },
        {
            "Name": ".bak\u0000\u0000\u0000\u0000",
            "VirtualAddress": "0xf4000",
            "Misc_VirtualSize": "0x1903",
            "SizeOfRawData": 6656
        },
        {
            "Name": ".bak\u0000\u0000\u0000\u0000",
            "VirtualAddress": "0xf6000",
            "Misc_VirtualSize": "0x1903",
            "SizeOfRawData": 6656
        },
        {
            "Name": ".bak\u0000\u0000\u0000\u0000",
            "VirtualAddress": "0xf8000",
            "Misc_VirtualSize": "0x1903",
            "SizeOfRawData": 6656
        },
        {
            "Name": ".bak\u0000\u0000\u0000\u0000",
            "VirtualAddress": "0xfa000",
            "Misc_VirtualSize": "0x1903",
            "SizeOfRawData": 6656
        },
        {
            "Name": ".bak\u0000\u0000\u0000\u0000",
            "VirtualAddress": "0xfc000",
            "Misc_VirtualSize": "0x1903",
            "SizeOfRawData": 6656
        },
        {
            "Name": ".bak\u0000\u0000\u0000\u0000",
            "VirtualAddress": "0xfe000",
            "Misc_VirtualSize": "0x1903",
            "SizeOfRawData": 6656
        },
        {
            "Name": ".bak\u0000\u0000\u0000\u0000",
            "VirtualAddress": "0x100000",
            "Misc_VirtualSize": "0x1903",
            "SizeOfRawData": 6656
        },
        {
            "Name": ".bak\u0000\u0000\u0000\u0000",
            "VirtualAddress": "0x102000",
            "Misc_VirtualSize": "0x1903",
            "SizeOfRawData": 6656
        },
        {
            "Name": ".bak\u0000\u0000\u0000\u0000",
            "VirtualAddress": "0x104000",
            "Misc_VirtualSize": "0x1903",
            "SizeOfRawData": 6656
        },
        {
            "Name": ".bak\u0000\u0000\u0000\u0000",
            "VirtualAddress": "0x106000",
            "Misc_VirtualSize": "0x1903",
            "SizeOfRawData": 6656
        },
        {
            "Name": ".bak\u0000\u0000\u0000\u0000",
            "VirtualAddress": "0x108000",
            "Misc_VirtualSize": "0x1903",
            "SizeOfRawData": 6656
        },
        {
            "Name": ".bak\u0000\u0000\u0000\u0000",
            "VirtualAddress": "0x10a000",
            "Misc_VirtualSize": "0x1903",
            "SizeOfRawData": 6656
        },
        {
            "Name": ".bak\u0000\u0000\u0000\u0000",
            "VirtualAddress": "0x10c000",
            "Misc_VirtualSize": "0x1903",
            "SizeOfRawData": 6656
        },
        {
            "Name": ".bak\u0000\u0000\u0000\u0000",
            "VirtualAddress": "0x10e000",
            "Misc_VirtualSize": "0x1903",
            "SizeOfRawData": 6656
        },
        {
            "Name": ".bak\u0000\u0000\u0000\u0000",
            "VirtualAddress": "0x110000",
            "Misc_VirtualSize": "0x1903",
            "SizeOfRawData": 6656
        },
        {
            "Name": ".bak\u0000\u0000\u0000\u0000",
            "VirtualAddress": "0x112000",
            "Misc_VirtualSize": "0x1903",
            "SizeOfRawData": 6656
        },
        {
            "Name": ".bak\u0000\u0000\u0000\u0000",
            "VirtualAddress": "0x114000",
            "Misc_VirtualSize": "0x1903",
            "SizeOfRawData": 6656
        },
        {
            "Name": ".bak\u0000\u0000\u0000\u0000",
            "VirtualAddress": "0x116000",
            "Misc_VirtualSize": "0x1903",
            "SizeOfRawData": 6656
        },
        {
            "Name": ".bak\u0000\u0000\u0000\u0000",
            "VirtualAddress": "0x118000",
            "Misc_VirtualSize": "0x1903",
            "SizeOfRawData": 6656
        },
        {
            "Name": ".bak\u0000\u0000\u0000\u0000",
            "VirtualAddress": "0x11a000",
            "Misc_VirtualSize": "0x1903",
            "SizeOfRawData": 6656
        },
        {
            "Name": ".bak\u0000\u0000\u0000\u0000",
            "VirtualAddress": "0x11c000",
            "Misc_VirtualSize": "0x1903",
            "SizeOfRawData": 6656
        },
        {
            "Name": ".bak\u0000\u0000\u0000\u0000",
            "VirtualAddress": "0x11e000",
            "Misc_VirtualSize": "0x1903",
            "SizeOfRawData": 6656
        },
        {
            "Name": ".bak\u0000\u0000\u0000\u0000",
            "VirtualAddress": "0x120000",
            "Misc_VirtualSize": "0x1903",
            "SizeOfRawData": 6656
        },
        {
            "Name": ".bak\u0000\u0000\u0000\u0000",
            "VirtualAddress": "0x122000",
            "Misc_VirtualSize": "0x1903",
            "SizeOfRawData": 6656
        },
        {
            "Name": ".bak\u0000\u0000\u0000\u0000",
            "VirtualAddress": "0x124000",
            "Misc_VirtualSize": "0x1903",
            "SizeOfRawData": 6656
        },
        {
            "Name": ".bak\u0000\u0000\u0000\u0000",
            "VirtualAddress": "0x126000",
            "Misc_VirtualSize": "0x1903",
            "SizeOfRawData": 6656
        },
        {
            "Name": ".bak\u0000\u0000\u0000\u0000",
            "VirtualAddress": "0x128000",
            "Misc_VirtualSize": "0x1903",
            "SizeOfRawData": 6656
        },
        {
            "Name": ".bak\u0000\u0000\u0000\u0000",
            "VirtualAddress": "0x12a000",
            "Misc_VirtualSize": "0x1903",
            "SizeOfRawData": 6656
        },
        {
            "Name": ".bak\u0000\u0000\u0000\u0000",
            "VirtualAddress": "0x12c000",
            "Misc_VirtualSize": "0x1903",
            "SizeOfRawData": 6656
        },
        {
            "Name": ".bak\u0000\u0000\u0000\u0000",
            "VirtualAddress": "0x12e000",
            "Misc_VirtualSize": "0x1903",
            "SizeOfRawData": 6656
        },
        {
            "Name": ".bak\u0000\u0000\u0000\u0000",
            "VirtualAddress": "0x130000",
            "Misc_VirtualSize": "0x1903",
            "SizeOfRawData": 6656
        },
        {
            "Name": ".bak\u0000\u0000\u0000\u0000",
            "VirtualAddress": "0x132000",
            "Misc_VirtualSize": "0x1903",
            "SizeOfRawData": 6656
        },
        {
            "Name": ".bak\u0000\u0000\u0000\u0000",
            "VirtualAddress": "0x134000",
            "Misc_VirtualSize": "0x1903",
            "SizeOfRawData": 6656
        },
        {
            "Name": ".bak\u0000\u0000\u0000\u0000",
            "VirtualAddress": "0x136000",
            "Misc_VirtualSize": "0x1903",
            "SizeOfRawData": 6656
        },
        {
            "Name": ".bak\u0000\u0000\u0000\u0000",
            "VirtualAddress": "0x138000",
            "Misc_VirtualSize": "0x1903",
            "SizeOfRawData": 6656
        },
        {
            "Name": ".bak\u0000\u0000\u0000\u0000",
            "VirtualAddress": "0x13a000",
            "Misc_VirtualSize": "0x1903",
            "SizeOfRawData": 6656
        },
        {
            "Name": ".bak\u0000\u0000\u0000\u0000",
            "VirtualAddress": "0x13c000",
            "Misc_VirtualSize": "0x1903",
            "SizeOfRawData": 6656
        },
        {
            "Name": ".bak\u0000\u0000\u0000\u0000",
            "VirtualAddress": "0x13e000",
            "Misc_VirtualSize": "0x1903",
            "SizeOfRawData": 6656
        },
        {
            "Name": ".bak\u0000\u0000\u0000\u0000",
            "VirtualAddress": "0x140000",
            "Misc_VirtualSize": "0x1903",
            "SizeOfRawData": 6656
        },
        {
            "Name": ".bak\u0000\u0000\u0000\u0000",
            "VirtualAddress": "0x142000",
            "Misc_VirtualSize": "0x1903",
            "SizeOfRawData": 6656
        },
        {
            "Name": ".bak\u0000\u0000\u0000\u0000",
            "VirtualAddress": "0x144000",
            "Misc_VirtualSize": "0x1903",
            "SizeOfRawData": 6656
        },
        {
            "Name": ".bak\u0000\u0000\u0000\u0000",
            "VirtualAddress": "0x146000",
            "Misc_VirtualSize": "0x1903",
            "SizeOfRawData": 6656
        },
        {
            "Name": ".bak\u0000\u0000\u0000\u0000",
            "VirtualAddress": "0x148000",
            "Misc_VirtualSize": "0x1903",
            "SizeOfRawData": 6656
        }
    ],
    "import": {
        "WS2_32.dll": [
            "WSACleanup",
            "WSAStartup"
        ],
        "KERNEL32.dll": [
            "CloseHandle",
            "WritePrivateProfileStringA",
            "CreateFileMappingW",
            "MapViewOfFile",
            "GetPrivateProfileStringA",
            "ReadFile",
            "IsBadWritePtr",
            "EnterCriticalSection",
            "GetCurrentProcess",
            "lstrlenW",
            "GetModuleFileNameW",
            "LeaveCriticalSection",
            "InitializeCriticalSection",
            "SetFilePointer",
            "CreateFileW",
            "GetCurrentThreadId",
            "FormatMessageW",
            "GetLastError",
            "GetCurrentThread",
            "DeleteFileA",
            "RaiseException",
            "GetSystemInfo",
            "LoadLibraryW",
            "FileTimeToLocalFileTime",
            "GetProcAddress",
            "GetFileSize",
            "DeleteCriticalSection",
            "GetCurrentProcessId",
            "GetModuleHandleW",
            "lstrcpyW",
            "GetSystemTimeAsFileTime",
            "GlobalMemoryStatus",
            "IsBadReadPtr",
            "GetPrivateProfileIntA",
            "VirtualQuery",
            "GetFileTime",
            "SetUnhandledExceptionFilter",
            "FileTimeToDosDateTime",
            "WaitForSingleObject",
            "CreateEventW",
            "SetEvent",
            "CreateProcessA",
            "OpenEventA",
            "TerminateProcess",
            "CreateMutexA",
            "CreateEventA",
            "GetFileAttributesW",
            "FreeLibrary",
            "GetVersion",
            "GetWindowsDirectoryA",
            "CreateDirectoryA",
            "lstrcpynA",
            "MultiByteToWideChar",
            "GlobalFree",
            "GetLocalTime",
            "WriteFile",
            "SetEndOfFile",
            "FindClose",
            "GetFileAttributesA",
            "TerminateThread",
            "InterlockedExchange",
            "InterlockedCompareExchange",
            "InterlockedIncrement",
            "GetTickCount",
            "OutputDebugStringA",
            "OpenProcess",
            "CreateToolhelp32Snapshot",
            "Process32NextW",
            "Process32FirstW",
            "Module32FirstW",
            "GetOEMCP",
            "IsValidCodePage",
            "FindNextFileW",
            "FindFirstFileExW",
            "GetCommandLineA",
            "GetProcessHeap",
            "SetFilePointerEx",
            "EnumSystemLocalesW",
            "GetUserDefaultLCID",
            "IsValidLocale",
            "GetConsoleMode",
            "GetConsoleCP",
            "FlushFileBuffers",
            "GetFileType",
            "GetACP",
            "GetStdHandle",
            "HeapFree",
            "HeapReAlloc",
            "HeapAlloc",
            "FreeLibraryAndExitThread",
            "ExitThread",
            "GlobalAlloc",
            "CreateFileA",
            "lstrlenA",
            "UnmapViewOfFile",
            "GetModuleFileNameA",
            "lstrcpyA",
            "GetVersionExW",
            "WriteConsoleW",
            "ReadConsoleW",
            "WideCharToMultiByte",
            "HeapSize",
            "SetStdHandle",
            "CreateThread",
            "GetModuleHandleExW",
            "FreeEnvironmentStringsW",
            "GetEnvironmentStringsW",
            "GetCommandLineW",
            "EncodePointer",
            "DecodePointer",
            "SetLastError",
            "InitializeCriticalSectionAndSpinCount",
            "TlsAlloc",
            "TlsGetValue",
            "TlsSetValue",
            "TlsFree",
            "LCMapStringW",
            "GetLocaleInfoW",
            "GetStringTypeW",
            "GetCPInfo",
            "UnhandledExceptionFilter",
            "IsProcessorFeaturePresent",
            "IsDebuggerPresent",
            "GetStartupInfoW",
            "QueryPerformanceCounter",
            "InitializeSListHead",
            "RtlUnwind",
            "LoadLibraryExW",
            "ExitProcess"
        ],
        "USER32.dll": [
            "CharLowerA",
            "GetMessageW",
            "DefWindowProcW",
            "DestroyWindow",
            "CreateWindowExW",
            "EndDialog",
            "RegisterClassExW",
            "LoadAcceleratorsW",
            "LoadStringW",
            "ShowWindow",
            "DispatchMessageW",
            "TranslateAcceleratorW",
            "TranslateMessage",
            "LoadIconW",
            "LoadCursorW",
            "PostQuitMessage",
            "DialogBoxParamW",
            "BeginPaint",
            "EndPaint",
            "wvsprintfW",
            "MessageBoxA",
            "wsprintfW",
            "UpdateWindow"
        ],
        "ADVAPI32.dll": [
            "RegCloseKey",
            "RegQueryValueExA",
            "RegOpenKeyExA",
            "GetUserNameW"
        ],
        "dbghelp.dll": [
            "MiniDumpWriteDump"
        ],
        "PSAPI.DLL": [
            "GetModuleInformation"
        ],
        "WININET.dll": [
            "InternetSetOptionA"
        ],
        "VERSION.dll": [
            "GetFileVersionInfoA",
            "VerQueryValueA",
            "GetFileVersionInfoSizeA"
        ]
    }
}