{
    "hash": "000dde57c8e49303efd0bf7b357bae75f3c35a2e58304185b065d410611a9262",
    "section": [
        {
            "Name": ".text\u0000\u0000\u0000",
            "VirtualAddress": "0x1000",
            "Misc_VirtualSize": "0x7eac",
            "SizeOfRawData": 32428
        },
        {
            "Name": ".bss\u0000\u0000\u0000\u0000",
            "VirtualAddress": "0x9000",
            "Misc_VirtualSize": "0x213b0",
            "SizeOfRawData": 0
        },
        {
            "Name": ".data\u0000\u0000\u0000",
            "VirtualAddress": "0x2b000",
            "Misc_VirtualSize": "0x31d0",
            "SizeOfRawData": 12752
        },
        {
            "Name": ".idata\u0000\u0000",
            "VirtualAddress": "0x2f000",
            "Misc_VirtualSize": "0xea4",
            "SizeOfRawData": 3748
        },
        {
            "Name": ".aciof\u0000\u0000",
            "VirtualAddress": "0x30000",
            "Misc_VirtualSize": "0x1000",
            "SizeOfRawData": 512
        }
    ],
    "import": {
        "ole32.DLL": [
            "CoCreateInstance",
            "CLSIDFromString",
            "CoInitialize",
            "CoUninitialize"
        ],
        "OLEAUT32.DLL": [
            "SysAllocString"
        ],
        "WININET.DLL": [
            "DeleteUrlCacheEntry",
            "FindFirstUrlCacheEntryA",
            "FindNextUrlCacheEntryA"
        ],
        "KERNEL32.DLL": [
            "ExitProcess",
            "ExpandEnvironmentStringsA",
            "GetCommandLineA",
            "GetComputerNameA",
            "GetCurrentProcessId",
            "GetCurrentThreadId",
            "GetExitCodeThread",
            "GetFileSize",
            "GetModuleFileNameA",
            "GetModuleHandleA",
            "CloseHandle",
            "GetProcAddress",
            "GetSystemDirectoryA",
            "GetTempPathA",
            "GetTickCount",
            "GetVersion",
            "GetVersionExA",
            "GetWindowsDirectoryA",
            "GlobalMemoryStatus",
            "CopyFileA",
            "InterlockedIncrement",
            "IsBadReadPtr",
            "IsBadWritePtr",
            "LoadLibraryA",
            "LocalAlloc",
            "LocalFree",
            "OpenMutexA",
            "CreateFileA",
            "ReadFile",
            "RtlUnwind",
            "SetFilePointer",
            "CreateMutexA",
            "Sleep",
            "TerminateProcess",
            "VirtualQuery",
            "CreateProcessA",
            "WaitForSingleObject",
            "WideCharToMultiByte",
            "WinExec",
            "WriteFile",
            "lstrlenA",
            "lstrlenW",
            "CreateThread",
            "DeleteFileA"
        ],
        "USER32.DLL": [
            "GetWindowTextA",
            "GetWindowRect",
            "FindWindowA",
            "GetWindow",
            "GetClassNameA",
            "SetFocus",
            "GetForegroundWindow",
            "LoadCursorA",
            "LoadIconA",
            "SetTimer",
            "RegisterClassA",
            "MessageBoxA",
            "GetMessageA",
            "GetWindowLongA",
            "SetWindowLongA",
            "CreateDesktopA",
            "SetThreadDesktop",
            "GetThreadDesktop",
            "TranslateMessage",
            "DispatchMessageA",
            "SendMessageA",
            "PostQuitMessage",
            "ShowWindow",
            "CreateWindowExA",
            "DestroyWindow",
            "MoveWindow",
            "DefWindowProcA",
            "CallWindowProcA"
        ],
        "GDI32.DLL": [
            "GetStockObject",
            "SetBkColor",
            "SetTextColor",
            "CreateBrushIndirect",
            "CreateFontA"
        ],
        "ADVAPI32.DLL": [
            "GetUserNameA",
            "RegCreateKeyExA",
            "RegCloseKey",
            "RegOpenKeyExA",
            "RegQueryValueExA",
            "RegSetValueExA",
            "GetSecurityInfo",
            "SetSecurityInfo",
            "SetEntriesInAclA"
        ],
        "CRTDLL.DLL": [
            "__GetMainArgs",
            "_sleep",
            "_stricmp",
            "atoi",
            "exit",
            "memcpy",
            "memset",
            "printf",
            "raise",
            "rand",
            "signal",
            "sprintf",
            "srand",
            "sscanf",
            "strcat",
            "strchr",
            "strncmp",
            "vsprintf"
        ]
    }
}