{
    "hash": "000eb4a04b85f84847f724e273f4fc5ef833c78da6c3295ad59a0cf4705b6ae0",
    "section": [
        {
            "Name": ".text\u0000\u0000\u0000",
            "VirtualAddress": "0x1000",
            "Misc_VirtualSize": "0x1268bd",
            "SizeOfRawData": 1208320
        },
        {
            "Name": ".rdata\u0000\u0000",
            "VirtualAddress": "0x128000",
            "Misc_VirtualSize": "0xbd3",
            "SizeOfRawData": 4096
        },
        {
            "Name": ".data\u0000\u0000\u0000",
            "VirtualAddress": "0x129000",
            "Misc_VirtualSize": "0x365b",
            "SizeOfRawData": 12288
        },
        {
            "Name": ".rsrc\u0000\u0000\u0000",
            "VirtualAddress": "0x12d000",
            "Misc_VirtualSize": "0x12ec0",
            "SizeOfRawData": 77824
        }
    ],
    "import": {
        "COMCTL32.dll": [
            "ImageList_Remove"
        ],
        "WININET.dll": [
            "InternetOpenA"
        ],
        "KERNEL32.dll": [
            "GetCurrentThreadId",
            "CreateFileMappingA",
            "DeleteFileA",
            "GetCurrentProcessId",
            "GetTickCount",
            "GetModuleHandleA",
            "HeapFree",
            "FindFirstFileA",
            "FileTimeToLocalFileTime",
            "SizeofResource",
            "GetProcAddress",
            "IsBadReadPtr",
            "GetStringTypeA",
            "LCMapStringW",
            "LCMapStringA",
            "MultiByteToWideChar",
            "LoadLibraryA",
            "HeapReAlloc",
            "HeapAlloc",
            "GetSystemTimeAsFileTime",
            "FreeLibrary",
            "QueryPerformanceCounter",
            "GetLastError",
            "WriteFile",
            "CloseHandle",
            "VirtualAlloc",
            "ExitProcess",
            "GetFileType",
            "GetOEMCP",
            "GetACP",
            "GetCPInfo",
            "GetStringTypeW",
            "RtlUnwind",
            "GetStartupInfoA",
            "GetCommandLineA",
            "GetVersion",
            "TerminateProcess",
            "GetCurrentProcess",
            "UnhandledExceptionFilter",
            "GetModuleFileNameA",
            "FreeEnvironmentStringsA",
            "FreeEnvironmentStringsW",
            "WideCharToMultiByte",
            "GetEnvironmentStrings",
            "GetEnvironmentStringsW",
            "SetHandleCount",
            "GetStdHandle",
            "GetEnvironmentVariableA",
            "GetVersionExA",
            "HeapDestroy",
            "HeapCreate",
            "VirtualFree"
        ],
        "USER32.dll": [
            "IntersectRect",
            "IsWindow",
            "SetWindowPlacement",
            "CreateWindowExA",
            "SetScrollPos"
        ],
        "GDI32.dll": [
            "SelectPalette",
            "SetAbortProc",
            "GetLogColorSpaceW",
            "ExcludeClipRect",
            "TextOutW",
            "Rectangle"
        ],
        "ADVAPI32.dll": [
            "AllocateLocallyUniqueId",
            "RegQueryValueExW",
            "RegCloseKey"
        ],
        "OLEAUT32.dll": [
            "SafeArrayRedim",
            "VarNumFromParseNum"
        ]
    }
}