{
    "hash": "000e341a863c319026a6bf249026fd4f2abc83db1c1640c4b40a29e52f1ada2f",
    "section": [
        {
            "Name": ".text\u0000\u0000\u0000",
            "VirtualAddress": "0x1000",
            "Misc_VirtualSize": "0xf244",
            "SizeOfRawData": 62464
        },
        {
            "Name": ".itext\u0000\u0000",
            "VirtualAddress": "0x11000",
            "Misc_VirtualSize": "0xf64",
            "SizeOfRawData": 4096
        },
        {
            "Name": ".data\u0000\u0000\u0000",
            "VirtualAddress": "0x12000",
            "Misc_VirtualSize": "0xc88",
            "SizeOfRawData": 3584
        },
        {
            "Name": ".bss\u0000\u0000\u0000\u0000",
            "VirtualAddress": "0x13000",
            "Misc_VirtualSize": "0x56bc",
            "SizeOfRawData": 0
        },
        {
            "Name": ".idata\u0000\u0000",
            "VirtualAddress": "0x19000",
            "Misc_VirtualSize": "0xe04",
            "SizeOfRawData": 4096
        },
        {
            "Name": ".tls\u0000\u0000\u0000\u0000",
            "VirtualAddress": "0x1a000",
            "Misc_VirtualSize": "0x8",
            "SizeOfRawData": 0
        },
        {
            "Name": ".rdata\u0000\u0000",
            "VirtualAddress": "0x1b000",
            "Misc_VirtualSize": "0x18",
            "SizeOfRawData": 512
        },
        {
            "Name": ".rsrc\u0000\u0000\u0000",
            "VirtualAddress": "0x1c000",
            "Misc_VirtualSize": "0xb200",
            "SizeOfRawData": 45568
        }
    ],
    "import": {
        "oleaut32.dll": [
            "SysFreeString",
            "SysReAllocStringLen",
            "SysAllocStringLen"
        ],
        "advapi32.dll": [
            "AdjustTokenPrivileges"
        ],
        "user32.dll": [
            "CreateWindowExW",
            "TranslateMessage",
            "SetWindowLongW",
            "PeekMessageW",
            "MsgWaitForMultipleObjects",
            "MessageBoxW",
            "LoadStringW",
            "GetSystemMetrics",
            "ExitWindowsEx",
            "DispatchMessageW",
            "DestroyWindow",
            "CharUpperBuffW",
            "CallWindowProcW"
        ],
        "kernel32.dll": [
            "Sleep"
        ],
        "comctl32.dll": [
            "InitCommonControls"
        ]
    }
}