{
    "hash": "000e8e5dea96b0c819a8414ebc61ad6f412fec177ce4cb74285549e387c90564",
    "section": [
        {
            "Name": ".text\u0000\u0000\u0000",
            "VirtualAddress": "0x1000",
            "Misc_VirtualSize": "0x9cda",
            "SizeOfRawData": 40960
        },
        {
            "Name": ".data\u0000\u0000\u0000",
            "VirtualAddress": "0xb000",
            "Misc_VirtualSize": "0xcdc",
            "SizeOfRawData": 4096
        },
        {
            "Name": ".rsrc\u0000\u0000\u0000",
            "VirtualAddress": "0xc000",
            "Misc_VirtualSize": "0x9128",
            "SizeOfRawData": 40960
        }
    ],
    "import": {
        "ADVAPI32.DLL": [
            "RegCloseKey",
            "CryptReleaseContext",
            "RegQueryValueExW",
            "RegQueryValueExA",
            "RegOpenKeyExW",
            "RegOpenKeyExA",
            "RegCreateKeyExW",
            "RegCreateKeyExA"
        ],
        "KERNEL32.DLL": [
            "FindFirstFileW",
            "FindResourceA",
            "FindFirstFileA",
            "GetFileAttributesA",
            "GetModuleFileNameW",
            "GetModuleHandleW",
            "SetFileAttributesA",
            "SetFileAttributesW",
            "FindNextFileA",
            "FindNextFileW",
            "DeleteFileW",
            "GetPrivateProfileIntW",
            "GetTempPathA",
            "GetTempPathW",
            "SizeofResource",
            "LockResource",
            "LoadResource",
            "SetLastError",
            "CopyFileA",
            "CopyFileW",
            "RemoveDirectoryA",
            "RemoveDirectoryW",
            "CreateMutexW",
            "CreateFileA",
            "LoadLibraryA",
            "LoadLibraryW",
            "GetPrivateProfileStringA",
            "GetPrivateProfileStringW",
            "CreateProcessW",
            "FindClose",
            "SetErrorMode",
            "DeleteCriticalSection",
            "GetTickCount",
            "IsBadReadPtr",
            "InterlockedExchange",
            "GlobalAddAtomA",
            "GlobalDeleteAtom",
            "GetVersionExA",
            "GetSystemTimeAsFileTime",
            "GetACP",
            "GetVersionExW",
            "QueryPerformanceCounter",
            "QueryPerformanceFrequency",
            "InterlockedIncrement",
            "InterlockedDecrement",
            "IsDBCSLeadByte",
            "GetCurrentProcessId",
            "GetProcessTimes",
            "GetLocalTime",
            "FlushFileBuffers",
            "GetAtomNameA",
            "lstrcmpA",
            "RaiseException",
            "DeleteFileA",
            "CreateFileW",
            "CreateEventW",
            "LocalReAlloc",
            "WaitForSingleObject",
            "CloseHandle",
            "ReleaseMutex",
            "lstrlenA",
            "WideCharToMultiByte",
            "lstrlenW",
            "ExitProcess",
            "Sleep",
            "GetLastError",
            "GetCommandLineA",
            "LocalFree",
            "MultiByteToWideChar",
            "SetUnhandledExceptionFilter",
            "LocalAlloc",
            "GetCommandLineW",
            "GetCurrentThreadId",
            "InitializeCriticalSection",
            "GetModuleHandleA",
            "UnmapViewOfFile",
            "GetCurrentProcess",
            "LeaveCriticalSection",
            "GetPrivateProfileIntA",
            "SetEvent",
            "CreateProcessA",
            "CreateMutexA",
            "lstrcpynA",
            "DuplicateHandle",
            "CreateFileMappingA",
            "CreateEventA",
            "MapViewOfFile",
            "WriteFile",
            "GetModuleFileNameA",
            "EnterCriticalSection",
            "GetProcAddress",
            "SetFilePointer",
            "FreeLibrary",
            "CreateFileMappingW"
        ],
        "USER32.DLL": [
            "GetDoubleClickTime",
            "SetTimer",
            "KillTimer",
            "GetSubMenu",
            "EnableMenuItem",
            "GetForegroundWindow",
            "SetForegroundWindow",
            "GetCursorPos",
            "LoadMenuA",
            "SetFocus",
            "RegisterWindowMessageA",
            "IsWindow",
            "GetWindowTextA",
            "DestroyWindow",
            "TranslateMessage",
            "DestroyIcon",
            "CreateWindowExA",
            "CreateWindowExW",
            "DefWindowProcA",
            "DefWindowProcW",
            "DispatchMessageA",
            "FindWindowW",
            "FindWindowExA",
            "FindWindowExW",
            "GetMessageA",
            "GetMessageW",
            "MessageBoxW",
            "GetWindowLongA",
            "GetWindowLongW",
            "LoadCursorA",
            "LoadCursorW",
            "CreateIconFromResource",
            "CreateIconFromResourceEx",
            "LookupIconIdFromDirectoryEx",
            "LoadImageA",
            "LoadImageW",
            "DestroyMenu",
            "DispatchMessageW",
            "TrackPopupMenuEx",
            "LoadStringW",
            "PostMessageA",
            "PostMessageW",
            "PostThreadMessageA",
            "PostThreadMessageW",
            "RegisterWindowMessageW",
            "CharNextA",
            "SendMessageTimeoutA",
            "SendMessageTimeoutW",
            "SetWindowLongA",
            "SetWindowLongW",
            "SystemParametersInfoA",
            "SystemParametersInfoW",
            "RegisterClassExA",
            "RegisterClassExW",
            "GetClassInfoExA",
            "GetClassInfoExW",
            "GetSysColor",
            "ReleaseDC",
            "GetDC",
            "GetSystemMetrics",
            "LoadStringA",
            "wvsprintfA",
            "MessageBoxA"
        ],
        "GDI32.DLL": [
            "GetDeviceCaps",
            "GetPaletteEntries",
            "DeleteObject"
        ]
    }
}