{
    "hash": "000ec09f3a9966875390c81805606c46617ca5f763bd51987df45de5076699ee",
    "section": [
        {
            "Name": ".text\u0000\u0000\u0000",
            "VirtualAddress": "0x1000",
            "Misc_VirtualSize": "0x93000",
            "SizeOfRawData": 601088
        },
        {
            "Name": ".rdata\u0000\u0000",
            "VirtualAddress": "0x94000",
            "Misc_VirtualSize": "0x1000",
            "SizeOfRawData": 512
        },
        {
            "Name": ".data\u0000\u0000\u0000",
            "VirtualAddress": "0x95000",
            "Misc_VirtualSize": "0xd4000",
            "SizeOfRawData": 868352
        },
        {
            "Name": ".rsrc\u0000\u0000\u0000",
            "VirtualAddress": "0x169000",
            "Misc_VirtualSize": "0x1200",
            "SizeOfRawData": 4608
        }
    ],
    "import": {
        "kernel32.dll": [
            "VirtualAlloc",
            "GetCommandLineW",
            "GetProcessHeap"
        ]
    }
}