{
    "hash": "000eff30e2e4ce37024879b065c791e851a63d6ff843441916dd5424f6deadf2",
    "section": [
        {
            "Name": ".text\u0000\u0000\u0000",
            "VirtualAddress": "0x1000",
            "Misc_VirtualSize": "0x1bc42",
            "SizeOfRawData": 114176
        },
        {
            "Name": ".rdata\u0000\u0000",
            "VirtualAddress": "0x1d000",
            "Misc_VirtualSize": "0x4523",
            "SizeOfRawData": 17920
        },
        {
            "Name": ".data\u0000\u0000\u0000",
            "VirtualAddress": "0x22000",
            "Misc_VirtualSize": "0x2eee8",
            "SizeOfRawData": 5632
        },
        {
            "Name": ".rsrc\u0000\u0000\u0000",
            "VirtualAddress": "0x51000",
            "Misc_VirtualSize": "0x391d4",
            "SizeOfRawData": 233984
        }
    ],
    "import": {
        "COMCTL32.dll": [
            "InitCommonControlsEx"
        ],
        "SHLWAPI.dll": [
            "SHAutoComplete"
        ],
        "KERNEL32.dll": [
            "GetFileAttributesW",
            "SetFileAttributesW",
            "MoveFileW",
            "DeleteFileW",
            "CreateDirectoryW",
            "FindClose",
            "FindNextFileW",
            "FindFirstFileW",
            "GetCurrentDirectoryW",
            "GetFullPathNameW",
            "GetModuleFileNameW",
            "FindResourceW",
            "GetModuleHandleW",
            "FreeLibrary",
            "GetProcAddress",
            "LoadLibraryW",
            "GetCurrentProcessId",
            "GetLocaleInfoW",
            "GetNumberFormatW",
            "ExpandEnvironmentStringsW",
            "WaitForSingleObject",
            "GetDateFormatW",
            "GetTimeFormatW",
            "FileTimeToSystemTime",
            "FileTimeToLocalFileTime",
            "GetExitCodeProcess",
            "GetTempPathW",
            "MoveFileExW",
            "Sleep",
            "UnmapViewOfFile",
            "MapViewOfFile",
            "GetCommandLineW",
            "CreateFileMappingW",
            "GetTickCount",
            "SetEnvironmentVariableW",
            "OpenFileMappingW",
            "SystemTimeToFileTime",
            "TzSpecificLocalTimeToSystemTime",
            "WideCharToMultiByte",
            "MultiByteToWideChar",
            "CompareStringW",
            "IsDBCSLeadByte",
            "GetCPInfo",
            "GlobalAlloc",
            "SetCurrentDirectoryW",
            "FlushFileBuffers",
            "WriteConsoleW",
            "GetConsoleOutputCP",
            "WriteConsoleA",
            "SetStdHandle",
            "GetLocaleInfoA",
            "GetStringTypeW",
            "GetStringTypeA",
            "LoadLibraryA",
            "GetConsoleMode",
            "GetConsoleCP",
            "InitializeCriticalSectionAndSpinCount",
            "QueryPerformanceCounter",
            "SetHandleCount",
            "GetEnvironmentStringsW",
            "FreeEnvironmentStringsW",
            "GetEnvironmentStrings",
            "FreeEnvironmentStringsA",
            "GetModuleHandleA",
            "LCMapStringW",
            "LCMapStringA",
            "IsValidCodePage",
            "GetOEMCP",
            "GetACP",
            "HeapSize",
            "GetModuleFileNameA",
            "ExitProcess",
            "IsDebuggerPresent",
            "SetUnhandledExceptionFilter",
            "UnhandledExceptionFilter",
            "GetCurrentProcess",
            "TerminateProcess",
            "InterlockedDecrement",
            "GetCurrentThreadId",
            "InterlockedIncrement",
            "TlsFree",
            "TlsSetValue",
            "TlsAlloc",
            "TlsGetValue",
            "VirtualAlloc",
            "EnterCriticalSection",
            "LeaveCriticalSection",
            "DeleteCriticalSection",
            "SetFileTime",
            "ReadFile",
            "GetFileType",
            "SetEndOfFile",
            "SetFilePointer",
            "GetStdHandle",
            "CloseHandle",
            "WriteFile",
            "CreateFileW",
            "SetLastError",
            "GetLastError",
            "CreateFileA",
            "VirtualFree",
            "HeapCreate",
            "GetStartupInfoA",
            "GetCommandLineA",
            "GetSystemTimeAsFileTime",
            "HeapAlloc",
            "HeapReAlloc",
            "RaiseException",
            "RtlUnwind",
            "HeapFree"
        ],
        "USER32.dll": [
            "EnableWindow",
            "GetDlgItem",
            "SetForegroundWindow",
            "ShowWindow",
            "FindWindowExW",
            "GetParent",
            "MapWindowPoints",
            "CreateWindowExW",
            "UpdateWindow",
            "LoadCursorW",
            "RegisterClassExW",
            "DefWindowProcW",
            "DestroyWindow",
            "CopyRect",
            "OemToCharBuffA",
            "LoadIconW",
            "LoadBitmapW",
            "PostMessageW",
            "GetSysColor",
            "IsWindow",
            "MessageBoxW",
            "WaitForInputIdle",
            "IsWindowVisible",
            "DialogBoxParamW",
            "DestroyIcon",
            "SetFocus",
            "GetClassNameW",
            "SendDlgItemMessageW",
            "EndDialog",
            "GetDlgItemTextW",
            "SetDlgItemTextW",
            "wvsprintfW",
            "SendMessageW",
            "GetDC",
            "ReleaseDC",
            "PeekMessageW",
            "GetMessageW",
            "TranslateMessage",
            "DispatchMessageW",
            "LoadStringW",
            "GetWindowRect",
            "GetClientRect",
            "SetWindowPos",
            "GetWindowTextW",
            "SetWindowTextW",
            "GetSystemMetrics",
            "GetWindow",
            "GetWindowLongW",
            "SetWindowLongW"
        ],
        "GDI32.dll": [
            "GetObjectW",
            "DeleteObject",
            "GetDeviceCaps",
            "CreateDIBSection"
        ],
        "ADVAPI32.dll": [
            "RegCloseKey",
            "RegOpenKeyExW",
            "RegQueryValueExW",
            "RegCreateKeyExW",
            "RegSetValueExW"
        ],
        "SHELL32.dll": [
            "SHGetSpecialFolderLocation",
            "SHGetMalloc",
            "SHBrowseForFolderW",
            "SHFileOperationW",
            "SHGetFileInfoW",
            "SHGetPathFromIDListW",
            "SHChangeNotify",
            "ShellExecuteExW"
        ],
        "ole32.dll": [
            "OleInitialize",
            "CreateStreamOnHGlobal",
            "CLSIDFromString",
            "CoCreateInstance",
            "OleUninitialize"
        ],
        "OLEAUT32.dll": [
            "VariantInit"
        ]
    }
}