{
    "hash": "000f64619fd2bade1d17a2904094aa7ff4819a19df3ae00b19a64f15291645ff",
    "section": [
        {
            "Name": ".text\u0000\u0000\u0000",
            "VirtualAddress": "0x2000",
            "Misc_VirtualSize": "0x116d4",
            "SizeOfRawData": 73728
        },
        {
            "Name": ".rsrc\u0000\u0000\u0000",
            "VirtualAddress": "0x14000",
            "Misc_VirtualSize": "0x2a8",
            "SizeOfRawData": 4096
        },
        {
            "Name": ".reloc\u0000\u0000",
            "VirtualAddress": "0x16000",
            "Misc_VirtualSize": "0xc",
            "SizeOfRawData": 4096
        }
    ],
    "import": {
        "mscoree.dll": [
            "_CorDllMain"
        ]
    }
}