{
    "hash": "000f239b388745a163156c869c1c8c714668d6a84a808ea4ddf8331dd32808ef",
    "section": [
        {
            "Name": ".text\u0000\u0000\u0000",
            "VirtualAddress": "0x1000",
            "Misc_VirtualSize": "0x2308c",
            "SizeOfRawData": 147456
        },
        {
            "Name": ".data\u0000\u0000\u0000",
            "VirtualAddress": "0x25000",
            "Misc_VirtualSize": "0x1090",
            "SizeOfRawData": 4096
        },
        {
            "Name": ".rsrc\u0000\u0000\u0000",
            "VirtualAddress": "0x27000",
            "Misc_VirtualSize": "0x203c",
            "SizeOfRawData": 12288
        }
    ],
    "import": {
        "MSVBVM60.DLL": [
            "__vbaVarTstGt",
            "__vbaVarSub",
            "__vbaNextEachAry",
            "_CIcos",
            "_adj_fptan",
            "__vbaVarMove",
            "__vbaFreeVar",
            "__vbaLenBstr",
            "__vbaStrVarMove",
            "__vbaFreeVarList",
            "__vbaEnd",
            "__vbaPut3",
            "_adj_fdiv_m64",
            "__vbaFreeObjList"
        ]
    }
}