{
    "hash": "000f1bec2f5246a9eb0bc4c20365577813372e01619fab26f9148b03f2891670",
    "section": [
        {
            "Name": ".text\u0000\u0000\u0000",
            "VirtualAddress": "0x1000",
            "Misc_VirtualSize": "0x6000",
            "SizeOfRawData": 24576
        },
        {
            "Name": ".data\u0000\u0000\u0000",
            "VirtualAddress": "0x7000",
            "Misc_VirtualSize": "0x1098",
            "SizeOfRawData": 4096
        },
        {
            "Name": ".rsrc\u0000\u0000\u0000",
            "VirtualAddress": "0x9000",
            "Misc_VirtualSize": "0x99fc",
            "SizeOfRawData": 39420
        }
    ],
    "import": {
        "KERNEL32.dll": [
            "GetModuleHandleA",
            "GetStartupInfoA",
            "GetCommandLineA",
            "GetVersionExA",
            "ExitProcess",
            "GetProcAddress",
            "WriteFile",
            "GetStdHandle",
            "GetModuleFileNameA",
            "UnhandledExceptionFilter",
            "FreeEnvironmentStringsA",
            "GetEnvironmentStrings",
            "FreeEnvironmentStringsW",
            "WideCharToMultiByte",
            "GetLastError",
            "GetEnvironmentStringsW",
            "SetHandleCount",
            "GetFileType",
            "DeleteCriticalSection",
            "TlsFree",
            "SetLastError",
            "GetCurrentThreadId",
            "TlsSetValue",
            "TlsGetValue",
            "TlsAlloc",
            "HeapDestroy",
            "HeapCreate",
            "VirtualFree",
            "HeapFree",
            "LeaveCriticalSection",
            "EnterCriticalSection",
            "LoadLibraryA",
            "GetACP",
            "GetOEMCP",
            "GetCPInfo",
            "HeapAlloc",
            "InitializeCriticalSection",
            "VirtualAlloc",
            "HeapReAlloc",
            "LCMapStringA",
            "MultiByteToWideChar",
            "LCMapStringW",
            "GetStringTypeA",
            "GetStringTypeW",
            "GetLocaleInfoA",
            "RtlUnwind",
            "VirtualProtect",
            "GetSystemInfo",
            "VirtualQuery"
        ],
        "ole32.dll": [
            "CoUninitialize",
            "CoInitializeEx",
            "CoCreateInstance"
        ]
    }
}