{
    "hash": "000f62cf5bcb8a33babd85eec4558118817868c1932f7c33fff6a67bf16859ca",
    "section": [
        {
            "Name": ".text\u0000\u0000\u0000",
            "VirtualAddress": "0x1000",
            "Misc_VirtualSize": "0x413",
            "SizeOfRawData": 1536
        },
        {
            "Name": ".qdata\u0000\u0000",
            "VirtualAddress": "0x2000",
            "Misc_VirtualSize": "0xd6210",
            "SizeOfRawData": 877568
        },
        {
            "Name": ".RSRC\u0000\u0000\u0000",
            "VirtualAddress": "0xd9000",
            "Misc_VirtualSize": "0x250",
            "SizeOfRawData": 1024
        }
    ],
    "import": {
        "kernel32.dll": [
            "LoadLibraryExW",
            "LoadLibraryA",
            "DeleteFileA",
            "VirtualProtect",
            "VirtualAlloc",
            "DefineDosDeviceA"
        ],
        "authz.dll": [
            "AuthzFreeAuditEvent",
            "AuthzFreeContext",
            "AuthzAddSidsToContext",
            "AuthzInitializeContextFromSid"
        ],
        "user32.dll": [
            "wsprintfA",
            "LoadBitmapA",
            "DialogBoxParamA",
            "GetClassLongA",
            "GetMessageW",
            "InsertMenuA",
            "FlashWindow",
            "IsCharLowerW",
            "IsDialogMessageW",
            "GetDlgItemTextW"
        ]
    }
}