{
    "hash": "000f3d04216f5f9d7fc73f88e5b411e3c5202959956df4f51cf9ea608dfe7512",
    "section": [
        {
            "Name": ".text\u0000\u0000\u0000",
            "VirtualAddress": "0x1000",
            "Misc_VirtualSize": "0x14a000",
            "SizeOfRawData": 366592
        },
        {
            "Name": ".data\u0000\u0000\u0000",
            "VirtualAddress": "0x14b000",
            "Misc_VirtualSize": "0x5000",
            "SizeOfRawData": 512
        },
        {
            "Name": ".rsrc\u0000\u0000\u0000",
            "VirtualAddress": "0x150000",
            "Misc_VirtualSize": "0x12000",
            "SizeOfRawData": 1024
        },
        {
            "Name": ".data\u0000\u0000\u0000",
            "VirtualAddress": "0x162000",
            "Misc_VirtualSize": "0x24000",
            "SizeOfRawData": 143872
        },
        {
            "Name": ".data\u0000\u0000\u0000",
            "VirtualAddress": "0x186000",
            "Misc_VirtualSize": "0x1000",
            "SizeOfRawData": 0
        }
    ],
    "import": {
        "kernel32.dll": [
            "GetProcAddress",
            "GetModuleHandleA",
            "LoadLibraryA"
        ],
        "msvbvm60.dll": [
            "_CIcos"
        ]
    }
}