{
    "hash": "000f2862977b7dda0ad688310093d6c623071367bee5605347903ba962014709",
    "section": [
        {
            "Name": ".text\u0000\u0000\u0000",
            "VirtualAddress": "0x1000",
            "Misc_VirtualSize": "0x93000",
            "SizeOfRawData": 600576
        },
        {
            "Name": ".rdata\u0000\u0000",
            "VirtualAddress": "0x94000",
            "Misc_VirtualSize": "0x1000",
            "SizeOfRawData": 512
        },
        {
            "Name": ".data\u0000\u0000\u0000",
            "VirtualAddress": "0x95000",
            "Misc_VirtualSize": "0xca000",
            "SizeOfRawData": 827392
        },
        {
            "Name": ".rsrc\u0000\u0000\u0000",
            "VirtualAddress": "0x15f000",
            "Misc_VirtualSize": "0x1200",
            "SizeOfRawData": 4608
        }
    ],
    "import": {
        "kernel32.dll": [
            "VirtualAlloc",
            "GetSystemDefaultLangID"
        ],
        "user32.dll": [
            "GetFocus",
            "GetDialogBaseUnits"
        ]
    }
}