{
    "hash": "000fbf7bca9dd654b1f280b91b17e9572762e4e8dafa2e8c3deec2fcb2a42da5",
    "section": [
        {
            "Name": ".code\u0000\u0000\u0000",
            "VirtualAddress": "0x1000",
            "Misc_VirtualSize": "0x6fe",
            "SizeOfRawData": 2048
        },
        {
            "Name": ".text\u0000\u0000\u0000",
            "VirtualAddress": "0x2000",
            "Misc_VirtualSize": "0x1808",
            "SizeOfRawData": 6656
        },
        {
            "Name": ".rdata\u0000\u0000",
            "VirtualAddress": "0x4000",
            "Misc_VirtualSize": "0x1a",
            "SizeOfRawData": 512
        },
        {
            "Name": ".data\u0000\u0000\u0000",
            "VirtualAddress": "0x5000",
            "Misc_VirtualSize": "0x758",
            "SizeOfRawData": 2048
        },
        {
            "Name": ".rsrc\u0000\u0000\u0000",
            "VirtualAddress": "0x6000",
            "Misc_VirtualSize": "0x2bc",
            "SizeOfRawData": 1024
        }
    ],
    "import": {
        "MSVCRT.dll": [
            "memset",
            "memcpy",
            "_stricmp",
            "strncmp",
            "_strnicmp",
            "strcmp",
            "memmove",
            "strlen",
            "strcpy",
            "strcat",
            "strncpy"
        ],
        "KERNEL32.dll": [
            "GetModuleHandleA",
            "HeapCreate",
            "HeapDestroy",
            "ExitProcess",
            "GetCurrentThreadId",
            "GetTickCount",
            "HeapAlloc",
            "HeapFree",
            "WriteFile",
            "CloseHandle",
            "CreateFileA",
            "GetFileSize",
            "ReadFile",
            "SetFilePointer",
            "InitializeCriticalSection",
            "GetModuleFileNameA",
            "GetCurrentProcess",
            "DuplicateHandle",
            "CreatePipe",
            "GetStdHandle",
            "CreateProcessA",
            "WaitForSingleObject",
            "EnterCriticalSection",
            "LeaveCriticalSection",
            "GetCurrentProcessId",
            "FindClose",
            "FindFirstFileA",
            "GetLastError",
            "FindNextFileA",
            "SetFileAttributesA",
            "HeapReAlloc"
        ],
        "COMCTL32.DLL": [
            "InitCommonControls"
        ],
        "USER32.DLL": [
            "MessageBoxA",
            "GetWindowThreadProcessId",
            "IsWindowVisible",
            "IsWindowEnabled",
            "GetForegroundWindow",
            "EnableWindow",
            "EnumWindows"
        ],
        "SHELL32.DLL": [
            "ShellExecuteExA"
        ],
        "OLE32.DLL": [
            "CoInitialize"
        ]
    }
}