{
    "hash": "000f0fe04aea8a13c1c35e5b52cc26306495d02f9c2d6db9563e3e7284c7ec80",
    "section": [
        {
            "Name": ".text\u0000\u0000\u0000",
            "VirtualAddress": "0x1000",
            "Misc_VirtualSize": "0xae000",
            "SizeOfRawData": 712704
        },
        {
            "Name": ".rdata\u0000\u0000",
            "VirtualAddress": "0xaf000",
            "Misc_VirtualSize": "0x2000",
            "SizeOfRawData": 10240
        },
        {
            "Name": ".data\u0000\u0000\u0000",
            "VirtualAddress": "0xb1000",
            "Misc_VirtualSize": "0x176000",
            "SizeOfRawData": 1531904
        },
        {
            "Name": ".rsrc\u0000\u0000\u0000",
            "VirtualAddress": "0x227000",
            "Misc_VirtualSize": "0x1200",
            "SizeOfRawData": 4608
        }
    ],
    "import": {
        "kernel32.dll": [
            "VirtualAlloc"
        ],
        "user32.dll": [
            "GetMessagePos",
            "GetMessageTime"
        ]
    }
}