{
    "hash": "000f1bef9b2656f309f12f55614cccf592544cbb82ef87a49c105a3e9bc093b2",
    "section": [
        {
            "Name": ".text\u0000\u0000\u0000",
            "VirtualAddress": "0x1000",
            "Misc_VirtualSize": "0x7ba44",
            "SizeOfRawData": 506880
        },
        {
            "Name": ".itext\u0000\u0000",
            "VirtualAddress": "0x7d000",
            "Misc_VirtualSize": "0x754",
            "SizeOfRawData": 2048
        },
        {
            "Name": ".data\u0000\u0000\u0000",
            "VirtualAddress": "0x7e000",
            "Misc_VirtualSize": "0x1aac",
            "SizeOfRawData": 7168
        },
        {
            "Name": ".bss\u0000\u0000\u0000\u0000",
            "VirtualAddress": "0x80000",
            "Misc_VirtualSize": "0x4cd0",
            "SizeOfRawData": 0
        },
        {
            "Name": ".idata\u0000\u0000",
            "VirtualAddress": "0x85000",
            "Misc_VirtualSize": "0x250e",
            "SizeOfRawData": 9728
        },
        {
            "Name": ".tls\u0000\u0000\u0000\u0000",
            "VirtualAddress": "0x88000",
            "Misc_VirtualSize": "0x34",
            "SizeOfRawData": 0
        },
        {
            "Name": ".rdata\u0000\u0000",
            "VirtualAddress": "0x89000",
            "Misc_VirtualSize": "0x18",
            "SizeOfRawData": 512
        },
        {
            "Name": ".reloc\u0000\u0000",
            "VirtualAddress": "0x8a000",
            "Misc_VirtualSize": "0x5a70",
            "SizeOfRawData": 23552
        },
        {
            "Name": ".rsrc\u0000\u0000\u0000",
            "VirtualAddress": "0x90000",
            "Misc_VirtualSize": "0x3c00",
            "SizeOfRawData": 15360
        }
    ],
    "import": {
        "oleaut32.dll": [
            "SafeArrayPtrOfIndex",
            "SafeArrayGetUBound",
            "SafeArrayGetLBound",
            "SafeArrayCreate",
            "VariantChangeType",
            "VariantCopy",
            "VariantClear",
            "VariantInit"
        ],
        "advapi32.dll": [
            "RegQueryValueExA",
            "RegOpenKeyExA",
            "RegFlushKey",
            "RegCloseKey"
        ],
        "user32.dll": [
            "CreateWindowExA",
            "WindowFromPoint",
            "WaitMessage",
            "UpdateWindow",
            "UnregisterClassA",
            "UnhookWindowsHookEx",
            "TranslateMessage",
            "TranslateMDISysAccel",
            "TrackPopupMenu",
            "SystemParametersInfoA",
            "ShowWindow",
            "ShowScrollBar",
            "ShowOwnedPopups",
            "SetWindowsHookExA",
            "SetWindowPos",
            "SetWindowPlacement",
            "SetWindowLongW",
            "SetWindowLongA",
            "SetTimer",
            "SetScrollRange",
            "SetScrollPos",
            "SetScrollInfo",
            "SetRect",
            "SetPropA",
            "SetParent",
            "SetMenuItemInfoA",
            "SetMenu",
            "SetForegroundWindow",
            "SetFocus",
            "SetCursor",
            "SetClassLongA",
            "SetCapture",
            "SetActiveWindow",
            "SendMessageW",
            "SendMessageA",
            "ScrollWindow",
            "ScreenToClient",
            "RemovePropA",
            "RemoveMenu",
            "ReleaseDC",
            "ReleaseCapture",
            "RegisterWindowMessageA",
            "RegisterClipboardFormatA",
            "RegisterClassA",
            "RedrawWindow",
            "PtInRect",
            "PostQuitMessage",
            "PostMessageA",
            "PeekMessageW",
            "PeekMessageA",
            "OffsetRect",
            "OemToCharA",
            "MessageBoxA",
            "MapWindowPoints",
            "MapVirtualKeyA",
            "LoadStringA",
            "LoadKeyboardLayoutA",
            "LoadIconA",
            "LoadCursorA",
            "LoadBitmapA",
            "KillTimer",
            "IsZoomed",
            "IsWindowVisible",
            "IsWindowUnicode",
            "IsWindowEnabled",
            "IsWindow",
            "IsRectEmpty",
            "IsIconic",
            "IsDialogMessageW",
            "IsDialogMessageA",
            "IsChild",
            "InvalidateRect",
            "IntersectRect",
            "InsertMenuItemA",
            "InsertMenuA",
            "InflateRect",
            "GetWindowThreadProcessId",
            "GetWindowTextA",
            "GetWindowRect",
            "GetWindowPlacement",
            "GetWindowLongW",
            "GetWindowLongA",
            "GetWindowDC",
            "GetTopWindow",
            "GetSystemMetrics",
            "GetSystemMenu",
            "GetSysColorBrush",
            "GetSysColor",
            "GetSubMenu",
            "GetScrollRange",
            "GetScrollPos",
            "GetScrollInfo",
            "GetPropA",
            "GetParent",
            "GetWindow",
            "GetMessagePos",
            "GetMenuStringA",
            "GetMenuState",
            "GetMenuItemInfoA",
            "GetMenuItemID",
            "GetMenuItemCount",
            "GetMenu",
            "GetLastActivePopup",
            "GetKeyboardState",
            "GetKeyboardLayoutNameA",
            "GetKeyboardLayoutList",
            "GetKeyboardLayout",
            "GetKeyState",
            "GetKeyNameTextA",
            "GetIconInfo",
            "GetForegroundWindow",
            "GetFocus",
            "GetDesktopWindow",
            "GetDCEx",
            "GetDC",
            "GetCursorPos",
            "GetCursor",
            "GetClientRect",
            "GetClassNameW",
            "GetClassLongA",
            "GetClassInfoA",
            "GetCapture",
            "GetActiveWindow",
            "FrameRect",
            "FindWindowA",
            "FillRect",
            "EqualRect",
            "EnumWindows",
            "EnumThreadWindows",
            "EnumChildWindows",
            "EndPaint",
            "EnableWindow",
            "EnableScrollBar",
            "EnableMenuItem",
            "DrawTextA",
            "DrawMenuBar",
            "DrawIconEx",
            "DrawIcon",
            "DrawFrameControl",
            "DrawEdge",
            "DispatchMessageW",
            "DispatchMessageA",
            "DestroyWindow",
            "DestroyMenu",
            "DestroyIcon",
            "DestroyCursor",
            "DeleteMenu",
            "DefWindowProcA",
            "DefMDIChildProcA",
            "DefFrameProcA",
            "CreatePopupMenu",
            "CreateMenu",
            "CreateIcon",
            "ClipCursor",
            "ClientToScreen",
            "CheckMenuItem",
            "CallWindowProcA",
            "CallNextHookEx",
            "BeginPaint",
            "CharNextA",
            "CharLowerA",
            "CharToOemA",
            "AdjustWindowRectEx",
            "ActivateKeyboardLayout"
        ],
        "kernel32.dll": [
            "Sleep"
        ],
        "gdi32.dll": [
            "UnrealizeObject",
            "StretchBlt",
            "SetWindowOrgEx",
            "SetViewportOrgEx",
            "SetTextColor",
            "SetStretchBltMode",
            "SetROP2",
            "SetPixel",
            "SetDIBColorTable",
            "SetBrushOrgEx",
            "SetBkMode",
            "SetBkColor",
            "SelectPalette",
            "SelectObject",
            "SaveDC",
            "RestoreDC",
            "RectVisible",
            "RealizePalette",
            "PatBlt",
            "MoveToEx",
            "MaskBlt",
            "LineTo",
            "IntersectClipRect",
            "GetWindowOrgEx",
            "GetTextMetricsA",
            "GetTextExtentPoint32A",
            "GetSystemPaletteEntries",
            "GetStockObject",
            "GetRgnBox",
            "GetPixel",
            "GetPaletteEntries",
            "GetObjectA",
            "GetDeviceCaps",
            "GetDIBits",
            "GetDIBColorTable",
            "GetDCOrgEx",
            "GetCurrentPositionEx",
            "GetClipBox",
            "GetBrushOrgEx",
            "GetBitmapBits",
            "ExcludeClipRect",
            "DeleteObject",
            "DeleteDC",
            "CreateSolidBrush",
            "CreatePenIndirect",
            "CreatePalette",
            "CreateHalftonePalette",
            "CreateFontIndirectA",
            "CreateDIBitmap",
            "CreateDIBSection",
            "CreateCompatibleDC",
            "CreateCompatibleBitmap",
            "CreateBrushIndirect",
            "CreateBitmap",
            "BitBlt"
        ],
        "version.dll": [
            "VerQueryValueA",
            "GetFileVersionInfoSizeA",
            "GetFileVersionInfoA"
        ],
        "comctl32.dll": [
            "_TrackMouseEvent",
            "ImageList_SetIconSize",
            "ImageList_GetIconSize",
            "ImageList_Write",
            "ImageList_Read",
            "ImageList_DragShowNolock",
            "ImageList_DragMove",
            "ImageList_DragLeave",
            "ImageList_DragEnter",
            "ImageList_EndDrag",
            "ImageList_BeginDrag",
            "ImageList_Remove",
            "ImageList_DrawEx",
            "ImageList_Draw",
            "ImageList_GetBkColor",
            "ImageList_SetBkColor",
            "ImageList_Add",
            "ImageList_GetImageCount",
            "ImageList_Destroy",
            "ImageList_Create"
        ]
    }
}