{
    "hash": "0010157f7d0bf02e1e67c1c33773a1e2ea9296b3f7cd5e0a53ae9b248c5bb9dc",
    "section": [
        {
            "Name": ".text\u0000\u0000\u0000",
            "VirtualAddress": "0x1000",
            "Misc_VirtualSize": "0x2e969",
            "SizeOfRawData": 190976
        },
        {
            "Name": ".rdata\u0000\u0000",
            "VirtualAddress": "0x30000",
            "Misc_VirtualSize": "0xacc2",
            "SizeOfRawData": 44544
        },
        {
            "Name": ".data\u0000\u0000\u0000",
            "VirtualAddress": "0x3b000",
            "Misc_VirtualSize": "0x6c12cc",
            "SizeOfRawData": 9728
        },
        {
            "Name": ".81tubd\u0000",
            "VirtualAddress": "0x6fd000",
            "Misc_VirtualSize": "0x5702c0",
            "SizeOfRawData": 5702656
        },
        {
            "Name": ".rsrc\u0000\u0000\u0000",
            "VirtualAddress": "0xc6e000",
            "Misc_VirtualSize": "0x6374",
            "SizeOfRawData": 25600
        }
    ],
    "import": {
        "KERNEL32.dll": [
            "VirtualAllocEx",
            "GetLastError",
            "GetSystemInfo",
            "CreateDirectoryW",
            "WriteConsoleW",
            "SetStdHandle",
            "GetStringTypeW",
            "CloseHandle",
            "DuplicateHandle",
            "WaitForSingleObject",
            "GetCurrentProcess",
            "GetCurrentThread",
            "GetCurrentThreadId",
            "GetExitCodeThread",
            "GetSystemTimeAsFileTime",
            "EnterCriticalSection",
            "LeaveCriticalSection",
            "DeleteCriticalSection",
            "EncodePointer",
            "DecodePointer",
            "RaiseException",
            "RtlUnwind",
            "GetCommandLineA",
            "IsProcessorFeaturePresent",
            "UnhandledExceptionFilter",
            "SetUnhandledExceptionFilter",
            "SetLastError",
            "InitializeCriticalSectionAndSpinCount",
            "CreateEventW",
            "Sleep",
            "TerminateProcess",
            "TlsAlloc",
            "TlsGetValue",
            "TlsSetValue",
            "TlsFree",
            "GetStartupInfoW",
            "GetTickCount",
            "GetModuleHandleW",
            "GetProcAddress",
            "CreateSemaphoreW",
            "CreateThread",
            "ExitThread",
            "LoadLibraryExW",
            "HeapFree",
            "CreateTimerQueue",
            "SetEvent",
            "WaitForSingleObjectEx",
            "SignalObjectAndWait",
            "SwitchToThread",
            "SetThreadPriority",
            "GetThreadPriority",
            "GetLogicalProcessorInformation",
            "CreateTimerQueueTimer",
            "ChangeTimerQueueTimer",
            "DeleteTimerQueueTimer",
            "GetNumaHighestNodeNumber",
            "GetProcessAffinityMask",
            "SetThreadAffinityMask",
            "RegisterWaitForSingleObject",
            "UnregisterWait",
            "HeapAlloc",
            "ExitProcess",
            "GetModuleHandleExW",
            "MultiByteToWideChar",
            "WideCharToMultiByte",
            "GetProcessHeap",
            "GetStdHandle",
            "GetFileType",
            "GetModuleFileNameA",
            "WriteFile",
            "GetModuleFileNameW",
            "QueryPerformanceCounter",
            "GetCurrentProcessId",
            "GetEnvironmentStringsW",
            "FreeEnvironmentStringsW",
            "HeapSize",
            "IsDebuggerPresent",
            "OutputDebugStringW",
            "GetThreadTimes",
            "FreeLibrary",
            "FreeLibraryAndExitThread",
            "GetModuleHandleA",
            "GetVersionExW",
            "VirtualAlloc",
            "VirtualFree",
            "VirtualProtect",
            "ReleaseSemaphore",
            "InitializeSListHead",
            "InterlockedPopEntrySList",
            "InterlockedPushEntrySList",
            "InterlockedFlushSList",
            "QueryDepthSList",
            "UnregisterWaitEx",
            "HeapReAlloc",
            "IsValidCodePage",
            "GetACP",
            "GetOEMCP",
            "GetCPInfo",
            "LCMapStringW",
            "FlushFileBuffers",
            "GetConsoleCP",
            "GetConsoleMode",
            "SetFilePointerEx",
            "LoadLibraryW",
            "CreateFileW"
        ],
        "MPR.dll": [
            "WNetEnumResourceW",
            "WNetGetResourceInformationW"
        ]
    }
}