{
    "hash": "0010a7cded433ee52d3788c98f2c74e6883f19d1ca458f0c9834fd0378f1f255",
    "section": [
        {
            "Name": "UPX0\u0000\u0000\u0000\u0000",
            "VirtualAddress": "0x1000",
            "Misc_VirtualSize": "0xd000",
            "SizeOfRawData": 0
        },
        {
            "Name": "UPX1\u0000\u0000\u0000\u0000",
            "VirtualAddress": "0xe000",
            "Misc_VirtualSize": "0x1000",
            "SizeOfRawData": 3072
        },
        {
            "Name": "UPX2\u0000\u0000\u0000\u0000",
            "VirtualAddress": "0xf000",
            "Misc_VirtualSize": "0x1000",
            "SizeOfRawData": 4096
        },
        {
            "Name": "UPX3\u0000\u0000\u0000\u0000",
            "VirtualAddress": "0x10000",
            "Misc_VirtualSize": "0x3000",
            "SizeOfRawData": 9372
        }
    ],
    "import": {
        "kernel32.dll": [
            "LoadLibraryA",
            "GetProcAddress"
        ]
    }
}