{
    "hash": "00101b102303c917b8a83b361c0c643aae526781a1afae600f783a65ab7670d0",
    "section": [
        {
            "Name": ".\u0000\u0000\u0000\u0000\u0000\u0000\u0000",
            "VirtualAddress": "0x1000",
            "Misc_VirtualSize": "0x6400",
            "SizeOfRawData": 5120
        },
        {
            "Name": ".\u0000\u0000\u0000\u0000\u0000\u0000\u0000",
            "VirtualAddress": "0x8000",
            "Misc_VirtualSize": "0x42e",
            "SizeOfRawData": 1536
        }
    ],
    "import": {
        "KERNEL32.DLL": [
            "GetModuleHandleA",
            "GetProcAddress"
        ],
        "ADVAPI32.dll": [
            "CryptHashData"
        ],
        "ntdll.dll": [
            "_wtoi"
        ],
        "ole32.dll": [
            "CreateStreamOnHGlobal"
        ],
        "USER32.dll": [
            "wsprintfA"
        ],
        "WINHTTP.dll": [
            "WinHttpOpen"
        ]
    }
}