{
    "hash": "0010df621db0ec5d22a675fba2383e1c89c9a1a141854c865618bc2224d3ad44",
    "section": [
        {
            "Name": "UPX0\u0000\u0000\u0000\u0000",
            "VirtualAddress": "0x1000",
            "Misc_VirtualSize": "0x23000",
            "SizeOfRawData": 0
        },
        {
            "Name": "UPX1\u0000\u0000\u0000\u0000",
            "VirtualAddress": "0x24000",
            "Misc_VirtualSize": "0x8000",
            "SizeOfRawData": 32256
        },
        {
            "Name": ".rsrc\u0000\u0000\u0000",
            "VirtualAddress": "0x2c000",
            "Misc_VirtualSize": "0x3000",
            "SizeOfRawData": 8704
        }
    ],
    "import": {
        "KERNEL32.DLL": [
            "LoadLibraryA",
            "ExitProcess",
            "GetProcAddress",
            "VirtualProtect"
        ],
        "MSVBVM60.DLL": []
    }
}