{
    "hash": "00109248f60f11a24c32de83698ae5784303a96b0f9d90fd41838279476f80db",
    "section": [
        {
            "Name": ".MPRESS1",
            "VirtualAddress": "0x1000",
            "Misc_VirtualSize": "0x36000",
            "SizeOfRawData": 219136
        },
        {
            "Name": ".MPRESS2",
            "VirtualAddress": "0x37000",
            "Misc_VirtualSize": "0x1000",
            "SizeOfRawData": 4096
        },
        {
            "Name": ".rsrc\u0000\u0000\u0000",
            "VirtualAddress": "0x38000",
            "Misc_VirtualSize": "0x1000",
            "SizeOfRawData": 1024
        },
        {
            "Name": ".imports",
            "VirtualAddress": "0x39000",
            "Misc_VirtualSize": "0x2000",
            "SizeOfRawData": 4608
        }
    ],
    "import": {
        "KERNEL32.DLL": [
            "CreateFileW",
            "GetVolumeInformationW",
            "OpenProcess",
            "HeapReAlloc",
            "HeapAlloc",
            "HeapFree",
            "HeapCreate",
            "SetLastError",
            "InitializeCriticalSection",
            "LeaveCriticalSection",
            "EnterCriticalSection",
            "DeleteCriticalSection",
            "GetVersionExW",
            "FindNextVolumeW",
            "GetDiskFreeSpaceExW",
            "FindFirstVolumeW",
            "FindVolumeClose",
            "GetCurrentThread",
            "OpenMutexW",
            "CreateMutexW",
            "lstrcmpA",
            "lstrlenA",
            "WideCharToMultiByte",
            "GlobalFree",
            "LoadLibraryA",
            "FreeLibrary",
            "SetEnvironmentVariableW",
            "GetCurrentProcessId",
            "WriteProcessMemory",
            "CreateRemoteThread",
            "GetSystemDirectoryW",
            "GetFileAttributesW",
            "VirtualAllocEx",
            "CreatePipe",
            "GetOEMCP",
            "PeekNamedPipe",
            "GetExitCodeProcess",
            "FileTimeToSystemTime",
            "FindNextVolumeMountPointW",
            "GetCurrentDirectoryW",
            "FindVolumeMountPointClose",
            "GetLocalTime",
            "FindFirstVolumeMountPointW",
            "GetDriveTypeW",
            "FileTimeToLocalFileTime",
            "GetVolumeNameForVolumeMountPointW",
            "GetVolumePathNamesForVolumeNameW",
            "LocalFree",
            "CreateDirectoryW",
            "ReadFile",
            "GetLocaleInfoA",
            "GetStringTypeW",
            "GetStringTypeA",
            "RtlUnwind",
            "IsDebuggerPresent",
            "UnhandledExceptionFilter",
            "CopyFileW",
            "WriteFile",
            "SetFileTime",
            "FindNextFileW",
            "SetFilePointer",
            "FindClose",
            "FindFirstFileW",
            "GetFileSizeEx",
            "lstrcmpW",
            "CreateToolhelp32Snapshot",
            "Process32NextW",
            "Process32FirstW",
            "MultiByteToWideChar",
            "GetACP",
            "lstrcpynW",
            "ExitProcess",
            "lstrcmpiW",
            "TerminateProcess",
            "SystemTimeToFileTime",
            "SetUnhandledExceptionFilter",
            "CreateProcessW",
            "SetErrorMode",
            "FreeConsole",
            "LoadLibraryW",
            "MoveFileW",
            "GetSystemTime",
            "GetProcAddress",
            "GetTickCount",
            "GetModuleHandleW",
            "DeleteFileW",
            "SleepEx",
            "GetCurrentProcess",
            "GetLastError",
            "ExitThread",
            "Sleep",
            "GetExitCodeThread",
            "TerminateThread",
            "CreateThread",
            "CloseHandle",
            "WaitForSingleObject",
            "GetEnvironmentVariableW",
            "lstrcpyW",
            "GetWindowsDirectoryW",
            "GetTempPathW",
            "VirtualAlloc",
            "GetSystemTimeAsFileTime",
            "QueryPerformanceCounter",
            "VirtualFree",
            "HeapDestroy",
            "GetFileType",
            "SetHandleCount",
            "GetEnvironmentStringsW",
            "FreeEnvironmentStringsW",
            "GetEnvironmentStrings",
            "FreeEnvironmentStringsA",
            "GetModuleFileNameA",
            "GetStdHandle",
            "LCMapStringW",
            "LCMapStringA",
            "IsValidCodePage",
            "GetCPInfo",
            "HeapSize",
            "InterlockedDecrement",
            "GetCurrentThreadId",
            "InterlockedIncrement",
            "TlsFree",
            "TlsSetValue",
            "TlsAlloc",
            "TlsGetValue",
            "GetModuleHandleA",
            "GetStartupInfoA",
            "GetProcessHeap",
            "GetVersionExA",
            "GetCommandLineA",
            "lstrcatW",
            "lstrlenW",
            "GetModuleFileNameW",
            "GetComputerNameW",
            "RaiseException",
            "VirtualQuery"
        ],
        "ADVAPI32.dll": [
            "LookupAccountSidW",
            "OpenProcessToken",
            "AdjustTokenPrivileges",
            "CloseServiceHandle",
            "StartServiceW",
            "ChangeServiceConfigW",
            "QueryServiceStatus",
            "CryptCreateHash",
            "CredEnumerateW",
            "CryptAcquireContextW",
            "CryptGetHashParam",
            "CryptHashData",
            "CredFree",
            "CryptDestroyHash",
            "CryptReleaseContext",
            "RegEnumValueW",
            "OpenThreadToken",
            "AddAccessAllowedAce",
            "InitializeAcl",
            "SetSecurityDescriptorDacl",
            "RegDeleteKeyW",
            "InitializeSecurityDescriptor",
            "RegSetValueExW",
            "RegQueryInfoKeyW",
            "RegCloseKey",
            "RegOpenKeyW",
            "RegQueryValueExW",
            "RegCreateKeyExW",
            "RegEnumKeyExW",
            "RegEnumKeyW",
            "GetLengthSid",
            "RegOpenKeyExW",
            "RegSetKeySecurity",
            "GetTokenInformation",
            "CheckTokenMembership",
            "GetUserNameW",
            "FreeSid",
            "AllocateAndInitializeSid",
            "OpenServiceW",
            "OpenSCManagerW",
            "LookupPrivilegeValueW"
        ],
        "CRYPT32.dll": [
            "PFXExportCertStoreEx",
            "CertCloseStore",
            "CryptUnprotectData",
            "CertOpenStore"
        ],
        "ole32.dll": [
            "IIDFromString",
            "CoInitialize",
            "CoCreateInstance",
            "OleUninitialize",
            "OleInitialize",
            "CoTaskMemFree",
            "CoUninitialize"
        ],
        "OLEAUT32.dll": [
            "SysFreeString",
            "SafeArrayCreate",
            "VariantInit",
            "SysAllocString",
            "SafeArrayPutElement"
        ],
        "RPCRT4.dll": [
            "UuidCreate",
            "UuidToStringW"
        ],
        "Secur32.dll": [
            "GetComputerObjectNameW"
        ],
        "SHELL32.dll": [
            "SHGetFolderPathW",
            "SHGetSpecialFolderPathW"
        ],
        "USER32.dll": [
            "GetKeyboardLayoutNameW",
            "CreateWindowExW",
            "SetWindowLongW",
            "GetRawInputData",
            "PeekMessageW",
            "GetMessageW",
            "wsprintfW",
            "LockSetForegroundWindow",
            "SystemParametersInfoW",
            "GetForegroundWindow",
            "SetForegroundWindow",
            "ShowWindow",
            "PostQuitMessage",
            "RegisterRawInputDevices",
            "DefWindowProcW",
            "DispatchMessageW",
            "RegisterClassExW"
        ],
        "WININET.dll": [
            "InternetSetOptionW",
            "InternetQueryOptionW"
        ],
        "WS2_32.dll": [
            "select",
            "connect",
            "closesocket",
            "send",
            "WSAStartup",
            "WSAGetLastError",
            "htonl",
            "recv",
            "WSACleanup",
            "shutdown",
            "htons",
            "socket",
            "__WSAFDIsSet",
            "WSASetLastError",
            "ioctlsocket"
        ],
        "WTSAPI32.dll": [
            "WTSFreeMemory",
            "WTSQuerySessionInformationW"
        ]
    }
}