{
    "hash": "0010720482f5bfc0d04a1be3d89567ff8861b1b310e028a283b703a5ad054eec",
    "section": [
        {
            "Name": ".text\u0000\u0000\u0000",
            "VirtualAddress": "0x1000",
            "Misc_VirtualSize": "0x80000",
            "SizeOfRawData": 522752
        },
        {
            "Name": ".rdata\u0000\u0000",
            "VirtualAddress": "0x81000",
            "Misc_VirtualSize": "0x1000",
            "SizeOfRawData": 512
        },
        {
            "Name": ".data\u0000\u0000\u0000",
            "VirtualAddress": "0x82000",
            "Misc_VirtualSize": "0xcd000",
            "SizeOfRawData": 839680
        },
        {
            "Name": ".rsrc\u0000\u0000\u0000",
            "VirtualAddress": "0x14f000",
            "Misc_VirtualSize": "0x115c",
            "SizeOfRawData": 4608
        }
    ],
    "import": {
        "kernel32.dll": [
            "VirtualAlloc"
        ],
        "user32.dll": [
            "GetClipboardOwner"
        ]
    }
}