{
    "hash": "00105475fb597894972d440d713a41f1cfffbc24de4985dfbb226f2ab878b5aa",
    "section": [
        {
            "Name": ".text\u0000\u0000\u0000",
            "VirtualAddress": "0x1000",
            "Misc_VirtualSize": "0x12400",
            "SizeOfRawData": 74752
        },
        {
            "Name": ".data\u0000\u0000\u0000",
            "VirtualAddress": "0x14000",
            "Misc_VirtualSize": "0x7e9c",
            "SizeOfRawData": 2048
        },
        {
            "Name": ".rsrc\u0000\u0000\u0000",
            "VirtualAddress": "0x1c000",
            "Misc_VirtualSize": "0x2a400",
            "SizeOfRawData": 173056
        }
    ],
    "import": {
        "msvcrt.dll": [
            "_mbsrchr",
            "__lconv_init",
            "_mbschr",
            "_mbsinc",
            "_except_handler3",
            "__set_app_type",
            "__p__fmode",
            "__p__commode",
            "_adjust_fdiv",
            "__setusermatherr",
            "_initterm",
            "__getmainargs",
            "_acmdln",
            "setlocale",
            "strtoul",
            "_ftol",
            "wcsncpy",
            "wcslen",
            "wcscpy",
            "wcscat",
            "wcschr",
            "wcsrchr",
            "??2@YAPAXI@Z",
            "_controlfp",
            "exit",
            "_cexit",
            "_XcptFilter",
            "_exit",
            "_c_exit",
            "??3@YAXPAX@Z",
            "memmove",
            "towlower",
            "_wtoi",
            "iswspace",
            "free",
            "_wcsnicmp",
            "_wcsicmp",
            "wcsncmp"
        ],
        "ADVAPI32.dll": [
            "RegOpenKeyW",
            "LookupPrivilegeValueW",
            "OpenProcessToken",
            "LookupAccountSidW",
            "GetTokenInformation",
            "FreeSid",
            "EqualSid",
            "AllocateAndInitializeSid",
            "RegCloseKey",
            "RegQueryValueExW",
            "RegEnumKeyW",
            "RegQueryValueW",
            "RegEnumKeyExW",
            "RegSetValueExW",
            "AdjustTokenPrivileges",
            "RegOpenKeyExW"
        ],
        "KERNEL32.dll": [
            "DeleteFileA",
            "FileTimeToDosDateTime",
            "FileTimeToLocalFileTime",
            "FindFirstFileA",
            "SetErrorMode",
            "GetFileAttributesA",
            "SetCurrentDirectoryW",
            "GetModuleFileNameW",
            "CloseHandle",
            "GetCurrentProcess",
            "CreateThread",
            "LocalFree",
            "FormatMessageW",
            "LocalAlloc",
            "GetLastError",
            "CreateMutexW",
            "GetVersionExW",
            "DeleteCriticalSection",
            "WaitForSingleObject",
            "lstrlenW",
            "LeaveCriticalSection",
            "EnterCriticalSection",
            "GetVersion",
            "GetCurrentDirectoryW",
            "InitializeCriticalSection",
            "lstrcpyW",
            "GetEnvironmentStringsW",
            "HeapFree",
            "HeapAlloc",
            "GetProcessHeap",
            "GetProcAddress",
            "GetModuleHandleW",
            "CopyFileW",
            "CreateDirectoryW",
            "GetSystemDirectoryW",
            "GetWindowsDirectoryW",
            "GetEnvironmentVariableW",
            "GetFileAttributesW",
            "DeleteFileW",
            "SetFileAttributesW",
            "WideCharToMultiByte",
            "MultiByteToWideChar",
            "lstrlenA",
            "GetDriveTypeW",
            "ExpandEnvironmentStringsW",
            "LoadLibraryW",
            "FreeLibrary",
            "LoadLibraryExW",
            "DeviceIoControl",
            "CreateFileA",
            "TerminateProcess",
            "OpenProcess",
            "FindClose",
            "FindNextFileW",
            "FindFirstFileW",
            "lstrcatW",
            "SetEvent",
            "CreateEventW",
            "ResetEvent",
            "WriteFile",
            "SetCommState",
            "GetCommState",
            "SetCommTimeouts",
            "ReadFile",
            "ExitThread",
            "WaitForMultipleObjects",
            "GetModuleHandleA",
            "GetStartupInfoA",
            "DebugBreak",
            "ExitProcess",
            "HeapReAlloc",
            "GetDiskFreeSpaceW",
            "SetFilePointer",
            "FormatMessageA",
            "SetLastError",
            "IsDBCSLeadByte",
            "GetVersionExA",
            "CreateEventA",
            "CreateDirectoryA",
            "GetTempFileNameA",
            "GetTempPathA",
            "CreateFileW",
            "CreateProcessW"
        ],
        "GDI32.dll": [
            "GetDeviceCaps",
            "CreateFontIndirectW",
            "AddFontResourceW"
        ],
        "USER32.dll": [
            "CopyRect",
            "IsWindow",
            "GetWindowLongA",
            "SetWindowLongA",
            "InvalidateRect",
            "GetSysColor",
            "SendDlgItemMessageW",
            "SetFocus",
            "LoadIconW",
            "SetWindowLongW",
            "RedrawWindow",
            "LoadImageW",
            "EnumChildWindows",
            "GetWindowLongW",
            "GetClientRect",
            "ScreenToClient",
            "SetWindowPos",
            "ShowWindow",
            "SystemParametersInfoW",
            "GetDC",
            "LoadStringA",
            "ReleaseDC",
            "wsprintfW",
            "GetParent",
            "PostMessageW",
            "DialogBoxParamW",
            "EnableWindow",
            "EndDialog",
            "GetDlgItem",
            "SendMessageA",
            "MessageBoxA",
            "GetWindowRect",
            "SetTimer",
            "FindWindowW",
            "RegisterClassExW",
            "LoadStringW",
            "MessageBoxW",
            "CreateWindowExW",
            "GetMessageW",
            "TranslateMessage",
            "DispatchMessageW",
            "SendMessageW",
            "SetForegroundWindow",
            "EnumThreadWindows",
            "PostQuitMessage",
            "DefWindowProcW",
            "ExitWindowsEx"
        ],
        "SHELL32.dll": [
            "SHGetPathFromIDListW",
            "SHBrowseForFolderW",
            "SHGetSpecialFolderLocation",
            "SHGetDesktopFolder",
            "SHGetFileInfoW",
            "SHGetMalloc"
        ],
        "ole32.dll": [
            "OleUninitialize",
            "OleInitialize",
            "CoInitialize",
            "CoTaskMemAlloc",
            "CoTaskMemFree",
            "CoCreateInstance",
            "CLSIDFromString",
            "CoUninitialize"
        ],
        "comdlg32.dll": [
            "GetOpenFileNameW"
        ],
        "COMCTL32.dll": [
            "PropertySheetW",
            "InitCommonControlsEx",
            "CreatePropertySheetPageW"
        ],
        "SETUPAPI.dll": [
            "SetupGetLineCountW",
            "SetupFindFirstLineW",
            "SetupOpenAppendInfFileW",
            "SetupOpenInfFileW",
            "SetupCloseInfFile",
            "SetupFindNextLine",
            "SetupGetStringFieldW"
        ],
        "LOG.dll": [
            "LogReInitW",
            "SuppressAllLogPopups",
            "LogEnd",
            "LogA",
            "LogDeleteOnNextInit",
            "LogBegin"
        ],
        "MIGISM.dll": [
            "IsmStartTransport",
            "IsmSetRollbackJournalType",
            "IsmDoesRollbackDataExist",
            "IsmPreserveJournal",
            "IsmCanWriteRollbackJournal",
            "IsmTerminate",
            "IsmSetCancel",
            "IsmSave",
            "IsmLoad",
            "IsmRollback",
            "IsmRemoveAllUserSuppliedComponents",
            "IsmSelectMasterGroup",
            "IsmEnumFirstComponent",
            "IsmEnumNextComponent",
            "IsmExecute",
            "IsmRegisterTransport",
            "IsmSelectTransport",
            "IsmSetTransportStorage",
            "IsmSendMessageToApp",
            "IsmAppendEnvironmentMultiSz",
            "IsmSetEnvironmentValue",
            "IsmRegisterProgressBarCallback",
            "IsmIsComponentSelected",
            "IsmSelectComponent",
            "IsmAddComponentAlias",
            "IsmGetTempStorage",
            "TrackedIsmDuplicateString",
            "TrackedIsmGetMemory",
            "IsmSetEnvironmentString",
            "IsmReleaseObject",
            "TrackedIsmExpandEnvironmentString",
            "IsmGetTempFile",
            "IsmDestroyObjectString",
            "IsmInitialize",
            "IsmSetPlatform",
            "IsmGetEnvironmentMultiSz",
            "IsmSetEnvironmentMultiSz",
            "IsmGetObjectTypeName",
            "TrackedIsmGetNativeObjectName",
            "IsmGetObjectTypeId",
            "IsmAcquireObjectEx",
            "TrackedIsmCreateObjectStringsFromHandleEx",
            "TrackedIsmCreateObjectHandle",
            "IsmReplacePhysicalObject",
            "IsmDestroyObjectHandle",
            "IsmReleaseMemory",
            "IsmStartEtmModules",
            "IsmSetEnvironmentFlag"
        ],
        "SHLWAPI.dll": [
            "StrCmpW",
            "StrChrIW",
            "SHGetValueW",
            "PathIsDirectoryW",
            "StrDupW",
            "StrCpyW",
            "StrCatW",
            "StrCpyNW",
            "PathIsRootW",
            "PathAppendW",
            "StrCmpIW"
        ],
        "Cabinet.dll": []
    }
}