{
    "hash": "0010472e32edfbe1c561a18a64f3fa7f24ef70fcbd2ef1e38ed02f1dce5a3cde",
    "section": [
        {
            "Name": ".text\u0000\u0000\u0000",
            "VirtualAddress": "0x1000",
            "Misc_VirtualSize": "0xf132",
            "SizeOfRawData": 65536
        },
        {
            "Name": ".data\u0000\u0000\u0000",
            "VirtualAddress": "0x11000",
            "Misc_VirtualSize": "0x2ac4",
            "SizeOfRawData": 4096
        },
        {
            "Name": ".rsrc\u0000\u0000\u0000",
            "VirtualAddress": "0x14000",
            "Misc_VirtualSize": "0x670",
            "SizeOfRawData": 4096
        }
    ],
    "import": {
        "KERNEL32.dll": [
            "GetPrivateProfileIntA",
            "GetPrivateProfileIntW",
            "GetModuleFileNameW",
            "LoadLibraryA",
            "GetModuleFileNameA",
            "GetPrivateProfileStringW",
            "GetProcAddress",
            "IsBadWritePtr",
            "LeaveCriticalSection",
            "EnterCriticalSection",
            "GlobalAddAtomA",
            "GlobalDeleteAtom",
            "GetVersionExA",
            "IsDBCSLeadByte",
            "GetCurrentThreadId",
            "GetTickCount",
            "GetSystemTimeAsFileTime",
            "GlobalMemoryStatus",
            "InitializeCriticalSection",
            "SetFilePointer",
            "DeleteCriticalSection",
            "GetACP",
            "GetVersionExW",
            "InterlockedDecrement",
            "InterlockedIncrement",
            "CreateFileMappingA",
            "CreateFileMappingW",
            "QueryPerformanceCounter",
            "QueryPerformanceFrequency",
            "SetEvent",
            "GetProcessTimes",
            "GetCurrentProcess",
            "GetLocalTime",
            "FlushFileBuffers",
            "GetAtomNameA",
            "lstrcmpA",
            "GetCurrentDirectoryW",
            "GetCurrentDirectoryA",
            "CreateFileW",
            "CreateFileA",
            "CreateEventW",
            "CreateEventA",
            "GetFileSize",
            "MapViewOfFile",
            "GetLastError",
            "UnmapViewOfFile",
            "CloseHandle",
            "IsBadReadPtr",
            "IsBadCodePtr",
            "LocalReAlloc",
            "LocalAlloc",
            "GetStdHandle",
            "HeapAlloc",
            "lstrcpynA",
            "WriteFile",
            "ExitProcess",
            "GetProcessHeap",
            "GetCommandLineA",
            "MoveFileA",
            "MultiByteToWideChar",
            "DeleteFileA",
            "LocalFree",
            "GetTempFileNameA",
            "GetCurrentProcessId",
            "GetPrivateProfileStringA",
            "lstrlenA",
            "lstrlenW",
            "WideCharToMultiByte",
            "TerminateProcess",
            "RtlUnwind",
            "RaiseException"
        ],
        "USER32.dll": [
            "RegisterWindowMessageA",
            "RegisterWindowMessageW",
            "SystemParametersInfoA",
            "SystemParametersInfoW",
            "ReleaseDC",
            "GetSysColor",
            "GetSystemMetrics",
            "IntersectRect",
            "OffsetRect",
            "MessageBoxW",
            "MessageBoxA",
            "GetDC"
        ],
        "SHLWAPI.dll": [
            "SHCreateStreamOnFileW",
            "PathIsRelativeW",
            "PathCombineW",
            "wvnsprintfW",
            "PathRemoveFileSpecA",
            "wvnsprintfA",
            "wnsprintfA",
            "StrCmpNW",
            "StrCatBuffW",
            "StrCatBuffA",
            "PathAppendW",
            "SHGetValueW",
            "SHGetInverseCMAP",
            "StrStrIW",
            "StrCmpIW",
            "SHCreateShellPalette",
            "wnsprintfW",
            "PathRemoveFileSpecW",
            "PathFindFileNameW",
            "SHStrDupW",
            "StrToIntW",
            "StrCpyNW"
        ],
        "ole32.dll": [
            "CoCreateInstance",
            "CoTaskMemFree",
            "CreateStreamOnHGlobal",
            "CoTaskMemAlloc",
            "CoInitialize",
            "CoUninitialize"
        ],
        "OLEAUT32.dll": [
            "SysFreeString",
            "SysAllocStringLen",
            "SysAllocStringByteLen",
            "VariantChangeType",
            "SysStringLen",
            "SysAllocString"
        ],
        "ADVAPI32.dll": [
            "RegQueryValueExA",
            "CryptReleaseContext",
            "RegCloseKey",
            "RegQueryValueExW",
            "RegOpenKeyExW",
            "RegOpenKeyExA"
        ],
        "GDI32.dll": [
            "SetDIBColorTable",
            "SetTextColor",
            "SetStretchBltMode",
            "SetBkMode",
            "RealizePalette",
            "SelectPalette",
            "GetObjectW",
            "GetObjectA",
            "GetDeviceCaps",
            "CreateCompatibleDC",
            "SelectObject",
            "DeleteDC",
            "CreateCompatibleBitmap",
            "GetDIBits",
            "GetDIBColorTable",
            "GetPaletteEntries",
            "CreateDIBSection",
            "DeleteObject"
        ]
    }
}