{
    "hash": "001059e5353ea0ac69eeb46a0899070bb886856e2f384a74f01d2321e5c8df15",
    "section": [
        {
            "Name": "UPX0\u0000\u0000\u0000\u0000",
            "VirtualAddress": "0x1000",
            "Misc_VirtualSize": "0x39000",
            "SizeOfRawData": 0
        },
        {
            "Name": "UPX1\u0000\u0000\u0000\u0000",
            "VirtualAddress": "0x3a000",
            "Misc_VirtualSize": "0x13000",
            "SizeOfRawData": 74240
        },
        {
            "Name": ".rsrc\u0000\u0000\u0000",
            "VirtualAddress": "0x4d000",
            "Misc_VirtualSize": "0x1a000",
            "SizeOfRawData": 106496
        }
    ],
    "import": {
        "KERNEL32.DLL": [
            "LoadLibraryA",
            "GetProcAddress",
            "VirtualProtect",
            "VirtualAlloc",
            "VirtualFree",
            "ExitProcess"
        ],
        "USER32.DLL": [
            "SetParent"
        ]
    }
}