{
    "hash": "0011d0c6c3633be71bdffe579b3a6b91f9877950e22548c6028fc56ce773502d",
    "section": [
        {
            "Name": ".text\u0000\u0000\u0000",
            "VirtualAddress": "0x1000",
            "Misc_VirtualSize": "0xb71",
            "SizeOfRawData": 3072
        },
        {
            "Name": ".code\u0000\u0000\u0000",
            "VirtualAddress": "0x2000",
            "Misc_VirtualSize": "0x4b",
            "SizeOfRawData": 512
        },
        {
            "Name": ".data\u0000\u0000\u0000",
            "VirtualAddress": "0x3000",
            "Misc_VirtualSize": "0x76d",
            "SizeOfRawData": 2048
        },
        {
            "Name": ".data2\u0000\u0000",
            "VirtualAddress": "0x4000",
            "Misc_VirtualSize": "0x1028",
            "SizeOfRawData": 4608
        },
        {
            "Name": ".idata\u0000\u0000",
            "VirtualAddress": "0x6000",
            "Misc_VirtualSize": "0x570",
            "SizeOfRawData": 1536
        },
        {
            "Name": ".rsrc\u0000\u0000\u0000",
            "VirtualAddress": "0x7000",
            "Misc_VirtualSize": "0x229c",
            "SizeOfRawData": 9216
        }
    ],
    "import": {
        "user32.dll": [
            "GetMessageA",
            "DefWindowProcA",
            "PostQuitMessage",
            "GetDoubleClickTime",
            "UpdateWindow",
            "GetQueueStatus",
            "LoadIconA",
            "RegisterClassA"
        ],
        "GDI32.dll": [
            "CreateBitmap",
            "IntersectClipRect",
            "ExcludeClipRect",
            "UpdateColors",
            "GetTextExtentPoint32A",
            "CreateCompatibleDC",
            "DeleteObject",
            "TextOutA",
            "SetBkColor",
            "SetTextColor",
            "Rectangle",
            "CreateSolidBrush",
            "GetStockObject",
            "CreateFontIndirectA",
            "GetTextExtentExPointA",
            "GetTextMetricsA",
            "CreateFontA",
            "RealizePalette"
        ],
        "Msacm32.dll": [
            "acmDriverID",
            "acmStreamOpen"
        ],
        "ADVAPI32.dll": [
            "RegQueryValueExA",
            "RegOpenKeyA",
            "GetUserNameA",
            "CopySid",
            "GetLengthSid"
        ],
        "IMM32.dll": [
            "ImmGetCompositionStringW",
            "ImmSetCompositionFontA",
            "ImmGetContext",
            "ImmSetCompositionWindow"
        ],
        "kernel32.dll": [
            "GetModuleHandleA",
            "GetProcAddress",
            "HeapCreate",
            "HeapAlloc",
            "ExitProcess",
            "FreeLibrary"
        ]
    }
}