{
    "hash": "0011ff36574fe67bf9c8f12561b67b1d8eb8208e9f655f780e040d98e68eeccf",
    "section": [
        {
            "Name": ".text\u0000\u0000\u0000",
            "VirtualAddress": "0x1000",
            "Misc_VirtualSize": "0xe610",
            "SizeOfRawData": 61440
        },
        {
            "Name": ".data\u0000\u0000\u0000",
            "VirtualAddress": "0x10000",
            "Misc_VirtualSize": "0xc7c",
            "SizeOfRawData": 4096
        },
        {
            "Name": ".rsrc\u0000\u0000\u0000",
            "VirtualAddress": "0x11000",
            "Misc_VirtualSize": "0x1e89c",
            "SizeOfRawData": 126976
        }
    ],
    "import": {
        "MSVBVM60.DLL": [
            "_CIcos",
            "_adj_fptan",
            "__vbaVarMove",
            "__vbaVarVargNofree",
            "__vbaFreeVar",
            "__vbaStrVarMove",
            "__vbaLenBstr",
            "__vbaFreeVarList",
            "__vbaEnd",
            "_adj_fdiv_m64",
            "__vbaNextEachVar",
            "__vbaFreeObjList"
        ]
    }
}