{
    "hash": "0011480143b779b002d862bd578bf7170e7f3793ee5cd1b546d62e60da18a2ec",
    "section": [
        {
            "Name": "UPX0\u0000\u0000\u0000\u0000",
            "VirtualAddress": "0x1000",
            "Misc_VirtualSize": "0x1a000",
            "SizeOfRawData": 0
        },
        {
            "Name": "UPX1\u0000\u0000\u0000\u0000",
            "VirtualAddress": "0x1b000",
            "Misc_VirtualSize": "0xb000",
            "SizeOfRawData": 41472
        },
        {
            "Name": "UPX2\u0000\u0000\u0000\u0000",
            "VirtualAddress": "0x26000",
            "Misc_VirtualSize": "0x1000",
            "SizeOfRawData": 512
        }
    ],
    "import": {
        "KERNEL32.DLL": [
            "LoadLibraryA",
            "GetProcAddress",
            "VirtualProtect",
            "VirtualAlloc",
            "VirtualFree",
            "ExitProcess"
        ],
        "MSVCRT.dll": [
            "atoi"
        ],
        "SHLWAPI.dll": [
            "PathFileExistsA"
        ],
        "USER32.dll": [
            "wsprintfA"
        ]
    }
}