{
    "hash": "0011ca9dd578c96fc1fdf53c60656da49d49249696d905f71d682f3918822b02",
    "section": [
        {
            "Name": ".text\u0000\u0000\u0000",
            "VirtualAddress": "0x1000",
            "Misc_VirtualSize": "0x29324",
            "SizeOfRawData": 168960
        },
        {
            "Name": ".rdata\u0000\u0000",
            "VirtualAddress": "0x2b000",
            "Misc_VirtualSize": "0x54e3",
            "SizeOfRawData": 22016
        },
        {
            "Name": ".data\u0000\u0000\u0000",
            "VirtualAddress": "0x31000",
            "Misc_VirtualSize": "0x215e8",
            "SizeOfRawData": 6144
        },
        {
            "Name": ".rsrc\u0000\u0000\u0000",
            "VirtualAddress": "0x53000",
            "Misc_VirtualSize": "0x13ba8",
            "SizeOfRawData": 80896
        }
    ],
    "import": {
        "KERNEL32.dll": [
            "GetLastError",
            "SetLastError",
            "CloseHandle",
            "GetCurrentProcess",
            "CreateHardLinkW",
            "DeleteFileW",
            "RemoveDirectoryW",
            "DeviceIoControl",
            "CreateDirectoryW",
            "CreateFileW",
            "SetFileTime",
            "MoveFileW",
            "GetShortPathNameW",
            "GetLongPathNameW",
            "WriteFile",
            "GetStdHandle",
            "SetFilePointer",
            "SetEndOfFile",
            "FlushFileBuffers",
            "GetFileType",
            "ReadFile",
            "GetFileAttributesW",
            "SetFileAttributesW",
            "FindClose",
            "FindNextFileW",
            "FindFirstFileW",
            "GetVersionExW",
            "GetCurrentDirectoryW",
            "FoldStringW",
            "GetFullPathNameW",
            "GetModuleFileNameW",
            "FindResourceW",
            "GetModuleHandleW",
            "FreeLibrary",
            "GetProcAddress",
            "GetCurrentProcessId",
            "GetLocaleInfoW",
            "GetNumberFormatW",
            "SetEnvironmentVariableW",
            "ExpandEnvironmentStringsW",
            "WaitForSingleObject",
            "GetDateFormatW",
            "GetTimeFormatW",
            "FileTimeToSystemTime",
            "FileTimeToLocalFileTime",
            "GetExitCodeProcess",
            "GetTempPathW",
            "MoveFileExW",
            "UnmapViewOfFile",
            "Sleep",
            "MapViewOfFile",
            "GetCommandLineW",
            "CreateFileMappingW",
            "GetTickCount",
            "GetLocalTime",
            "OpenFileMappingW",
            "SetThreadExecutionState",
            "LoadLibraryW",
            "GetSystemDirectoryW",
            "ExitProcess",
            "FreeConsole",
            "WriteConsoleW",
            "AttachConsole",
            "AllocConsole",
            "InitializeCriticalSection",
            "DeleteCriticalSection",
            "EnterCriticalSection",
            "LeaveCriticalSection",
            "CreateThread",
            "GetProcessAffinityMask",
            "CreateEventW",
            "CreateSemaphoreW",
            "ReleaseSemaphore",
            "ResetEvent",
            "SetEvent",
            "SetThreadPriority",
            "SystemTimeToFileTime",
            "GetSystemTime",
            "SystemTimeToTzSpecificLocalTime",
            "TzSpecificLocalTimeToSystemTime",
            "LocalFileTimeToFileTime",
            "WideCharToMultiByte",
            "MultiByteToWideChar",
            "CompareStringW",
            "IsDBCSLeadByte",
            "GetCPInfo",
            "GlobalAlloc",
            "SetCurrentDirectoryW",
            "LocalAlloc",
            "InterlockedExchange",
            "LoadLibraryA",
            "RaiseException",
            "RtlUnwind",
            "HeapFree",
            "HeapReAlloc",
            "HeapAlloc",
            "GetSystemTimeAsFileTime",
            "GetCommandLineA",
            "GetStartupInfoA",
            "TlsGetValue",
            "TlsAlloc",
            "TlsSetValue",
            "TlsFree",
            "InterlockedIncrement",
            "GetCurrentThreadId",
            "InterlockedDecrement",
            "HeapCreate",
            "VirtualFree",
            "VirtualAlloc",
            "TerminateProcess",
            "UnhandledExceptionFilter",
            "SetUnhandledExceptionFilter",
            "IsDebuggerPresent",
            "HeapSize",
            "GetModuleFileNameA",
            "GetACP",
            "GetOEMCP",
            "IsValidCodePage",
            "LCMapStringA",
            "LCMapStringW",
            "GetModuleHandleA",
            "FreeEnvironmentStringsA",
            "GetEnvironmentStrings",
            "FreeEnvironmentStringsW",
            "GetEnvironmentStringsW",
            "SetHandleCount",
            "QueryPerformanceCounter",
            "InitializeCriticalSectionAndSpinCount",
            "GetConsoleCP",
            "GetConsoleMode",
            "GetStringTypeA",
            "GetStringTypeW",
            "GetLocaleInfoA",
            "SetStdHandle",
            "WriteConsoleA",
            "GetConsoleOutputCP",
            "CreateFileA"
        ]
    }
}