{
    "hash": "00116678dc79567fd1e673bfecaa24a590eeeecf4ceb9148933e99eb1384dfa9",
    "section": [
        {
            "Name": ".text\u0000\u0000\u0000",
            "VirtualAddress": "0x1000",
            "Misc_VirtualSize": "0xaa000",
            "SizeOfRawData": 696320
        },
        {
            "Name": ".rdata\u0000\u0000",
            "VirtualAddress": "0xab000",
            "Misc_VirtualSize": "0x2000",
            "SizeOfRawData": 10240
        },
        {
            "Name": ".data\u0000\u0000\u0000",
            "VirtualAddress": "0xad000",
            "Misc_VirtualSize": "0x14a000",
            "SizeOfRawData": 1351680
        },
        {
            "Name": ".rsrc\u0000\u0000\u0000",
            "VirtualAddress": "0x1f7000",
            "Misc_VirtualSize": "0x1200",
            "SizeOfRawData": 4608
        }
    ],
    "import": {
        "kernel32.dll": [
            "VirtualAlloc"
        ],
        "user32.dll": [
            "GetMessageExtraInfo",
            "GetCapture"
        ]
    }
}