{
    "hash": "00116e1f51d27ad987be8c5cea4641062b41c753b6465e1af02b1eb1eba5808d",
    "section": [
        {
            "Name": ".text\u0000\u0000\u0000",
            "VirtualAddress": "0x1000",
            "Misc_VirtualSize": "0x388",
            "SizeOfRawData": 1024
        },
        {
            "Name": ".rdata\u0000\u0000",
            "VirtualAddress": "0x2000",
            "Misc_VirtualSize": "0x414",
            "SizeOfRawData": 1536
        },
        {
            "Name": ".data\u0000\u0000\u0000",
            "VirtualAddress": "0x3000",
            "Misc_VirtualSize": "0x4",
            "SizeOfRawData": 0
        },
        {
            "Name": ".rsrc\u0000\u0000\u0000",
            "VirtualAddress": "0x4000",
            "Misc_VirtualSize": "0x1b4",
            "SizeOfRawData": 512
        },
        {
            "Name": ".reloc\u0000\u0000",
            "VirtualAddress": "0x5000",
            "Misc_VirtualSize": "0xa6",
            "SizeOfRawData": 512
        }
    ],
    "import": {
        "WININET.dll": [
            "HttpSendRequestW",
            "InternetSetOptionW",
            "InternetQueryOptionW",
            "HttpOpenRequestW",
            "HttpQueryInfoW",
            "InternetReadFile",
            "InternetConnectW",
            "InternetOpenW"
        ],
        "KERNEL32.dll": [
            "GetTempPathW",
            "GetFileSize",
            "GetCurrentDirectoryW",
            "DeleteFileW",
            "CloseHandle",
            "WriteFile",
            "lstrcmpW",
            "ReadFile",
            "GetModuleHandleW",
            "ExitProcess",
            "HeapCreate",
            "HeapAlloc",
            "GetModuleFileNameW",
            "CreateFileW",
            "lstrlenW"
        ],
        "USER32.dll": [
            "wsprintfW"
        ],
        "SHELL32.dll": [
            "ShellExecuteW"
        ]
    }
}