{
    "hash": "001110a08411e66e080bf60a505775156beb9b27b69e5c64289c53fd2616eec9",
    "section": [
        {
            "Name": ".text\u0000\u0000\u0000",
            "VirtualAddress": "0x1000",
            "Misc_VirtualSize": "0xa7000",
            "SizeOfRawData": 684032
        },
        {
            "Name": ".rdata\u0000\u0000",
            "VirtualAddress": "0xa8000",
            "Misc_VirtualSize": "0x2000",
            "SizeOfRawData": 10240
        },
        {
            "Name": ".data\u0000\u0000\u0000",
            "VirtualAddress": "0xaa000",
            "Misc_VirtualSize": "0x155000",
            "SizeOfRawData": 1396736
        }
    ],
    "import": {
        "kernel32.dll": [
            "GetCurrentThreadId",
            "VirtualAlloc"
        ],
        "user32.dll": [
            "GetCaretBlinkTime",
            "GetShellWindow"
        ]
    }
}