{
    "hash": "0011ef099e52b358dda1279d032a0f2b690c842b09d126092085c7e4d696f660",
    "section": [
        {
            "Name": ".text\u0000\u0000\u0000",
            "VirtualAddress": "0x1000",
            "Misc_VirtualSize": "0x65c8",
            "SizeOfRawData": 28672
        },
        {
            "Name": ".data\u0000\u0000\u0000",
            "VirtualAddress": "0x8000",
            "Misc_VirtualSize": "0x9ec",
            "SizeOfRawData": 4096
        },
        {
            "Name": ".rsrc\u0000\u0000\u0000",
            "VirtualAddress": "0x9000",
            "Misc_VirtualSize": "0x4000",
            "SizeOfRawData": 16384
        }
    ],
    "import": {
        "MSVBVM60.DLL": [
            "_CIcos",
            "_adj_fptan",
            "__vbaStrI4",
            "__vbaFreeVar",
            "__vbaFreeVarList",
            "_adj_fdiv_m64",
            "__vbaFreeObjList",
            "_adj_fprem1",
            "__vbaStrCat",
            "__vbaHresultCheckObj",
            "_adj_fdiv_m32"
        ]
    }
}