{
    "hash": "001109e2380ea0b97fd071246fa1db135094c2030e64a7500cab605865183109",
    "section": [
        {
            "Name": ".text\u0000\u0000\u0000",
            "VirtualAddress": "0x1000",
            "Misc_VirtualSize": "0x285364",
            "SizeOfRawData": 2642944
        },
        {
            "Name": ".itext\u0000\u0000",
            "VirtualAddress": "0x287000",
            "Misc_VirtualSize": "0x18b8",
            "SizeOfRawData": 6656
        },
        {
            "Name": ".data\u0000\u0000\u0000",
            "VirtualAddress": "0x289000",
            "Misc_VirtualSize": "0xc128",
            "SizeOfRawData": 49664
        },
        {
            "Name": ".bss\u0000\u0000\u0000\u0000",
            "VirtualAddress": "0x296000",
            "Misc_VirtualSize": "0x87084",
            "SizeOfRawData": 0
        },
        {
            "Name": ".idata\u0000\u0000",
            "VirtualAddress": "0x31e000",
            "Misc_VirtualSize": "0x4432",
            "SizeOfRawData": 17920
        },
        {
            "Name": ".didata\u0000",
            "VirtualAddress": "0x323000",
            "Misc_VirtualSize": "0xa68",
            "SizeOfRawData": 3072
        },
        {
            "Name": ".edata\u0000\u0000",
            "VirtualAddress": "0x324000",
            "Misc_VirtualSize": "0x5e",
            "SizeOfRawData": 512
        },
        {
            "Name": ".tls\u0000\u0000\u0000\u0000",
            "VirtualAddress": "0x325000",
            "Misc_VirtualSize": "0x44",
            "SizeOfRawData": 0
        },
        {
            "Name": ".rdata\u0000\u0000",
            "VirtualAddress": "0x326000",
            "Misc_VirtualSize": "0x5d",
            "SizeOfRawData": 512
        },
        {
            "Name": ".reloc\u0000\u0000",
            "VirtualAddress": "0x327000",
            "Misc_VirtualSize": "0x383cc",
            "SizeOfRawData": 230400
        },
        {
            "Name": ".rsrc\u0000\u0000\u0000",
            "VirtualAddress": "0x360000",
            "Misc_VirtualSize": "0x54b20",
            "SizeOfRawData": 347136
        }
    ],
    "import": {
        "oleaut32.dll": [
            "GetErrorInfo",
            "GetActiveObject",
            "SysFreeString"
        ],
        "advapi32.dll": [
            "SetSecurityDescriptorSacl",
            "SetSecurityDescriptorOwner",
            "SetSecurityDescriptorGroup",
            "SetSecurityDescriptorDacl",
            "RegUnLoadKeyW",
            "RegSetValueExW",
            "RegSaveKeyW",
            "RegRestoreKeyW",
            "RegReplaceKeyW",
            "RegQueryValueExA",
            "RegQueryValueExW",
            "RegQueryInfoKeyW",
            "RegOpenKeyExA",
            "RegOpenKeyExW",
            "RegLoadKeyW",
            "RegFlushKey",
            "RegEnumValueW",
            "RegEnumKeyExW",
            "RegDeleteValueW",
            "RegDeleteKeyW",
            "RegCreateKeyExW",
            "RegConnectRegistryW",
            "RegCloseKey",
            "OpenThreadToken",
            "OpenProcessToken",
            "LookupAccountSidW",
            "IsValidSid",
            "InitializeSecurityDescriptor",
            "InitializeAcl",
            "GetUserNameW",
            "GetTokenInformation",
            "GetSidSubAuthorityCount",
            "GetSidSubAuthority",
            "GetSidIdentifierAuthority",
            "GetLengthSid",
            "FreeSid",
            "AllocateAndInitializeSid",
            "AddAccessAllowedAce"
        ],
        "user32.dll": [
            "EnumDisplayMonitors",
            "GetMonitorInfoW",
            "MonitorFromPoint",
            "MonitorFromRect",
            "MonitorFromWindow"
        ],
        "kernel32.dll": [
            "GetVersionExW"
        ],
        "gdi32.dll": [
            "UnrealizeObject",
            "StretchDIBits",
            "StretchBlt",
            "StartPage",
            "StartDocW",
            "SetWindowOrgEx",
            "SetWinMetaFileBits",
            "SetViewportOrgEx",
            "SetTextColor",
            "SetStretchBltMode",
            "SetRectRgn",
            "SetROP2",
            "SetPixel",
            "SetMapMode",
            "SetEnhMetaFileBits",
            "SetDIBits",
            "SetDIBColorTable",
            "SetBrushOrgEx",
            "SetBkMode",
            "SetBkColor",
            "SetAbortProc",
            "SelectPalette",
            "SelectObject",
            "SaveDC",
            "RoundRect",
            "RestoreDC",
            "Rectangle",
            "RectVisible",
            "RealizePalette",
            "Polyline",
            "Polygon",
            "PolyBezierTo",
            "PolyBezier",
            "PlayEnhMetaFile",
            "Pie",
            "PatBlt",
            "MoveToEx",
            "MaskBlt",
            "LineTo",
            "LPtoDP",
            "IntersectClipRect",
            "GetWindowOrgEx",
            "GetWinMetaFileBits",
            "GetTextMetricsW",
            "GetTextExtentPointW",
            "GetTextExtentPoint32W",
            "GetSystemPaletteEntries",
            "GetStockObject",
            "GetRgnBox",
            "GetPixel",
            "GetPaletteEntries",
            "GetObjectW",
            "GetEnhMetaFilePaletteEntries",
            "GetEnhMetaFileHeader",
            "GetEnhMetaFileDescriptionW",
            "GetEnhMetaFileBits",
            "GetDeviceCaps",
            "GetDIBits",
            "GetDIBColorTable",
            "GetCurrentPositionEx",
            "GetClipBox",
            "GetBrushOrgEx",
            "GetBitmapBits",
            "GdiFlush",
            "FrameRgn",
            "ExtTextOutW",
            "ExtFloodFill",
            "ExcludeClipRect",
            "EnumFontsW",
            "EnumFontFamiliesExW",
            "EndPage",
            "EndDoc",
            "Ellipse",
            "DeleteObject",
            "DeleteEnhMetaFile",
            "DeleteDC",
            "CreateSolidBrush",
            "CreateRectRgn",
            "CreatePenIndirect",
            "CreatePalette",
            "CreateICW",
            "CreateHalftonePalette",
            "CreateFontIndirectW",
            "CreateEnhMetaFileW",
            "CreateDIBitmap",
            "CreateDIBSection",
            "CreateDCW",
            "CreateCompatibleDC",
            "CreateCompatibleBitmap",
            "CreateBrushIndirect",
            "CreateBitmap",
            "CopyEnhMetaFileW",
            "CloseEnhMetaFile",
            "Chord",
            "BitBlt",
            "ArcTo",
            "Arc",
            "AngleArc",
            "AbortDoc"
        ],
        "version.dll": [
            "VerQueryValueW",
            "GetFileVersionInfoSizeW",
            "GetFileVersionInfoW"
        ],
        "ole32.dll": [
            "CreateStreamOnHGlobal",
            "OleRegEnumVerbs",
            "IsAccelerator",
            "OleDraw",
            "OleSetMenuDescriptor",
            "OleUninitialize",
            "OleInitialize",
            "CoTaskMemFree",
            "CoTaskMemAlloc",
            "ProgIDFromCLSID",
            "StringFromCLSID",
            "CoCreateInstance",
            "CoGetClassObject",
            "CoUninitialize",
            "CoInitialize",
            "IsEqualGUID"
        ],
        "comctl32.dll": [
            "InitializeFlatSB",
            "FlatSB_SetScrollProp",
            "FlatSB_SetScrollPos",
            "FlatSB_SetScrollInfo",
            "FlatSB_GetScrollPos",
            "FlatSB_GetScrollInfo",
            "_TrackMouseEvent",
            "ImageList_GetImageInfo",
            "ImageList_SetIconSize",
            "ImageList_GetIconSize",
            "ImageList_Write",
            "ImageList_Read",
            "ImageList_GetDragImage",
            "ImageList_DragShowNolock",
            "ImageList_DragMove",
            "ImageList_DragLeave",
            "ImageList_DragEnter",
            "ImageList_EndDrag",
            "ImageList_BeginDrag",
            "ImageList_Copy",
            "ImageList_LoadImageW",
            "ImageList_GetIcon",
            "ImageList_Remove",
            "ImageList_DrawEx",
            "ImageList_Replace",
            "ImageList_Draw",
            "ImageList_SetOverlayImage",
            "ImageList_GetBkColor",
            "ImageList_SetBkColor",
            "ImageList_ReplaceIcon",
            "ImageList_Add",
            "ImageList_SetImageCount",
            "ImageList_GetImageCount",
            "ImageList_Destroy",
            "ImageList_Create"
        ],
        "msvcrt.dll": [
            "memset",
            "memcpy"
        ],
        "shell32.dll": [
            "SHGetSpecialFolderLocation",
            "SHGetPathFromIDListW",
            "SHChangeNotify"
        ],
        "wininet.dll": [
            "FindNextUrlCacheEntryW",
            "FindFirstUrlCacheEntryW",
            "FindCloseUrlCache",
            "DeleteUrlCacheEntryW"
        ],
        "winspool.drv": [
            "GetDefaultPrinterW"
        ],
        "wsock32.dll": [
            "WSACleanup",
            "WSAStartup",
            "WSAGetLastError",
            "WSACancelAsyncRequest",
            "WSAAsyncGetHostByName",
            "gethostname",
            "socket",
            "shutdown",
            "setsockopt",
            "send",
            "recv",
            "ntohs",
            "listen",
            "ioctlsocket",
            "inet_ntoa",
            "inet_addr",
            "htons",
            "closesocket"
        ]
    }
}