{
    "hash": "0011b70aaecbe8151637aa2af540d590c274375fc7d84ad42d74f79ac62fdaa0",
    "section": [
        {
            "Name": ".text\u0000\u0000\u0000",
            "VirtualAddress": "0x1000",
            "Misc_VirtualSize": "0x3730",
            "SizeOfRawData": 14336
        },
        {
            "Name": ".data\u0000\u0000\u0000",
            "VirtualAddress": "0x5000",
            "Misc_VirtualSize": "0x4cc",
            "SizeOfRawData": 1024
        },
        {
            "Name": ".rsrc\u0000\u0000\u0000",
            "VirtualAddress": "0x6000",
            "Misc_VirtualSize": "0x6c8",
            "SizeOfRawData": 2048
        }
    ],
    "import": {
        "msvcrt.dll": [
            "??2@YAPAXI@Z",
            "_except_handler3",
            "_c_exit",
            "_exit",
            "_XcptFilter",
            "_cexit",
            "exit",
            "_acmdln",
            "__getmainargs",
            "_initterm",
            "__setusermatherr",
            "_adjust_fdiv",
            "__p__commode",
            "_vsnwprintf",
            "__p__fmode",
            "__set_app_type",
            "_controlfp",
            "??3@YAXPAX@Z"
        ],
        "KERNEL32.dll": [
            "EnterCriticalSection",
            "LoadLibraryExA",
            "SetEvent",
            "GetTempFileNameW",
            "GetTickCount",
            "GetTempPathW",
            "UnmapViewOfFile",
            "GetModuleHandleW",
            "CloseHandle",
            "CreateProcessW",
            "GetModuleFileNameW",
            "GetLastError",
            "SetLastError",
            "DeleteCriticalSection",
            "lstrcpynW",
            "CreateFileW",
            "GetCommandLineW",
            "SetUnhandledExceptionFilter",
            "InitializeCriticalSection",
            "CreateFileMappingW",
            "QueryPerformanceCounter",
            "GetCurrentThreadId",
            "GetCurrentProcessId",
            "GetSystemTimeAsFileTime",
            "TerminateProcess",
            "GetCurrentProcess",
            "UnhandledExceptionFilter",
            "GetModuleHandleA",
            "GetStartupInfoA",
            "GetProcAddress",
            "LeaveCriticalSection",
            "LocalFree",
            "LoadLibraryW",
            "MapViewOfFile",
            "GetWindowsDirectoryW",
            "GlobalFree"
        ],
        "GDI32.dll": [
            "GetObjectW",
            "SetTextColor",
            "SetBkMode",
            "CreatePen",
            "SelectObject",
            "Polyline",
            "DeleteObject",
            "CreateFontIndirectW"
        ],
        "USER32.dll": [
            "GetParent",
            "DialogBoxParamW",
            "SendMessageW",
            "LoadStringW",
            "SetDlgItemTextW",
            "GetSysColor",
            "DrawIconEx",
            "FillRect",
            "GetSysColorBrush",
            "SetWindowTextW",
            "EnableWindow",
            "GetDlgItem",
            "ShowWindow",
            "EndDialog",
            "GetWindowLongW",
            "MessageBoxW",
            "SetWindowLongW"
        ],
        "SHLWAPI.dll": [],
        "SHELL32.dll": [
            "ExtractIconExW",
            "CommandLineToArgvW"
        ],
        "DBGHELP.dll": [
            "MiniDumpWriteDump",
            "MiniDumpReadDumpStream"
        ],
        "OLEAUT32.dll": [
            "SysStringLen",
            "SysAllocStringLen",
            "SysFreeString",
            "SysAllocString"
        ],
        "ole32.dll": [
            "CoInitialize",
            "CoUninitialize",
            "CoCreateInstance"
        ],
        "SHDOCVW.dll": [],
        "sfc.dll": [
            "SfcIsFileProtected"
        ]
    }
}