{
    "hash": "00116baeb82f3cee38bf4056be876f7d522d5f45433eb0435aa209468aac5fa7",
    "section": [
        {
            "Name": ".text\u0000\u0000\u0000",
            "VirtualAddress": "0x1000",
            "Misc_VirtualSize": "0x1128",
            "SizeOfRawData": 4608
        },
        {
            "Name": ".rdata\u0000\u0000",
            "VirtualAddress": "0x3000",
            "Misc_VirtualSize": "0x415",
            "SizeOfRawData": 1536
        },
        {
            "Name": ".data\u0000\u0000\u0000",
            "VirtualAddress": "0x4000",
            "Misc_VirtualSize": "0x39f",
            "SizeOfRawData": 512
        },
        {
            "Name": ".rsrc\u0000\u0000\u0000",
            "VirtualAddress": "0x5000",
            "Misc_VirtualSize": "0x32c4",
            "SizeOfRawData": 13312
        }
    ],
    "import": {
        "KERNEL32.dll": [
            "EnterCriticalSection",
            "VirtualProtect",
            "InitializeCriticalSection",
            "GetModuleHandleA",
            "HeapAlloc",
            "GetProcessHeap",
            "TerminateProcess",
            "VirtualAllocEx",
            "HeapFree",
            "VirtualAlloc",
            "lstrlenA",
            "GetLastError",
            "LockResource",
            "lstrcpyA",
            "SizeofResource",
            "FindResourceA",
            "WritePrivateProfileStringA",
            "GetTempPathA",
            "CloseHandle",
            "WriteFile",
            "SetFilePointer",
            "ExitProcess",
            "ReadFile",
            "GetFileSize",
            "CreateFileA",
            "CopyFileA",
            "GetModuleFileNameA",
            "lstrcatA",
            "GetProcAddress",
            "LoadResource",
            "LeaveCriticalSection"
        ],
        "ADVAPI32.dll": [
            "CryptGenRandom",
            "CryptReleaseContext",
            "CryptAcquireContextA"
        ]
    }
}