{
    "hash": "0012aa89f6705f398407d8d3f9e0321ffe43f66656686a21b9c10eb275ac8fbd",
    "section": [
        {
            "Name": ".text\u0000\u0000\u0000",
            "VirtualAddress": "0x1000",
            "Misc_VirtualSize": "0x99000",
            "SizeOfRawData": 625152
        },
        {
            "Name": ".rdata\u0000\u0000",
            "VirtualAddress": "0x9a000",
            "Misc_VirtualSize": "0x1000",
            "SizeOfRawData": 512
        },
        {
            "Name": ".data\u0000\u0000\u0000",
            "VirtualAddress": "0x9b000",
            "Misc_VirtualSize": "0xd3",
            "SizeOfRawData": 512
        },
        {
            "Name": ".rsrc\u0000\u0000\u0000",
            "VirtualAddress": "0x9c000",
            "Misc_VirtualSize": "0x200",
            "SizeOfRawData": 512
        }
    ],
    "import": {
        "advapi32.dll": [
            "GetTrusteeTypeA"
        ],
        "kernel32.dll": [
            "GetSystemDefaultUILanguage",
            "GetCurrentThread",
            "GetUserDefaultLCID"
        ]
    }
}