{
    "hash": "0012d1a3c29015ad15710c5f26f362959dd698254f191c934ad2c480574c3cbc",
    "section": [
        {
            "Name": "   \u0000    ",
            "VirtualAddress": "0x1000",
            "Misc_VirtualSize": "0x2d000",
            "SizeOfRawData": 61440
        },
        {
            "Name": ".rsrc\u0000\u0000\u0000",
            "VirtualAddress": "0x2e000",
            "Misc_VirtualSize": "0x5e0",
            "SizeOfRawData": 4096
        },
        {
            "Name": ".idata  ",
            "VirtualAddress": "0x2f000",
            "Misc_VirtualSize": "0x1000",
            "SizeOfRawData": 4096
        },
        {
            "Name": "        ",
            "VirtualAddress": "0x30000",
            "Misc_VirtualSize": "0x2b8000",
            "SizeOfRawData": 4096
        },
        {
            "Name": "oinmuahq",
            "VirtualAddress": "0x2e8000",
            "Misc_VirtualSize": "0x1b7000",
            "SizeOfRawData": 1798144
        },
        {
            "Name": "whfvtfbm",
            "VirtualAddress": "0x49f000",
            "Misc_VirtualSize": "0x1000",
            "SizeOfRawData": 4096
        },
        {
            "Name": ".taggant",
            "VirtualAddress": "0x4a0000",
            "Misc_VirtualSize": "0x3000",
            "SizeOfRawData": 12288
        }
    ],
    "import": {
        "kernel32.dll": [
            "lstrcpy"
        ],
        "comctl32.dll": [
            "InitCommonControls"
        ]
    }
}