{
    "hash": "0012983a83a526c6fe14e5ea86e1bc7f060683311775c392c9e084882a7ecbaf",
    "section": [
        {
            "Name": ".text\u0000\u0000\u0000",
            "VirtualAddress": "0x1000",
            "Misc_VirtualSize": "0xa7000",
            "SizeOfRawData": 684032
        },
        {
            "Name": ".rdata\u0000\u0000",
            "VirtualAddress": "0xa8000",
            "Misc_VirtualSize": "0x2000",
            "SizeOfRawData": 10240
        },
        {
            "Name": ".data\u0000\u0000\u0000",
            "VirtualAddress": "0xaa000",
            "Misc_VirtualSize": "0x156000",
            "SizeOfRawData": 1400832
        }
    ],
    "import": {
        "kernel32.dll": [
            "VirtualAlloc",
            "GetSystemDefaultUILanguage"
        ],
        "user32.dll": [
            "GetShellWindow"
        ]
    }
}