{
    "hash": "0012c90fbc47cc1df01f9dd76ffbd6cfa65e69898d0f0709e23fec452b6fb731",
    "section": [
        {
            "Name": ".\u0000\u0000\u0000\u0000\u0000\u0000\u0000",
            "VirtualAddress": "0x1000",
            "Misc_VirtualSize": "0x1a000",
            "SizeOfRawData": 0
        },
        {
            "Name": ".\u0000\u0000\u0000\u0000\u0000\u0000\u0000",
            "VirtualAddress": "0x1b000",
            "Misc_VirtualSize": "0xb000",
            "SizeOfRawData": 41472
        },
        {
            "Name": ".\u0000\u0000\u0000\u0000\u0000\u0000\u0000",
            "VirtualAddress": "0x26000",
            "Misc_VirtualSize": "0x1000",
            "SizeOfRawData": 512
        }
    ],
    "import": {
        "KERNEL32.DLL": [
            "LoadLibraryA",
            "GetProcAddress",
            "VirtualProtect",
            "VirtualAlloc",
            "VirtualFree",
            "ExitProcess"
        ],
        "MSVCRT.dll": [
            "atoi"
        ],
        "SHLWAPI.dll": [
            "PathFileExistsA"
        ],
        "USER32.dll": [
            "wsprintfA"
        ]
    }
}