{
    "hash": "00129453883e3ea170baa139099cc43958c6f26890424d6345240554da2bca5e",
    "section": [
        {
            "Name": ".data\u0000\u0000\u0000",
            "VirtualAddress": "0x1000",
            "Misc_VirtualSize": "0x6910",
            "SizeOfRawData": 27136
        },
        {
            "Name": ".CRT\u0000\u0000\u0000\u0000",
            "VirtualAddress": "0x8000",
            "Misc_VirtualSize": "0xc",
            "SizeOfRawData": 512
        },
        {
            "Name": ".rsrc\u0000\u0000\u0000",
            "VirtualAddress": "0x9000",
            "Misc_VirtualSize": "0x24550",
            "SizeOfRawData": 148992
        },
        {
            "Name": ".nkh\u0007\u0000\u0000\u0000",
            "VirtualAddress": "0x2e000",
            "Misc_VirtualSize": "0x1000",
            "SizeOfRawData": 1536
        }
    ],
    "import": {
        "KERNEL32.dll": [
            "LoadLibraryA",
            "GetProcAddress",
            "SetLastError",
            "CopyFileA",
            "Process32Next",
            "Process32First",
            "CreateToolhelp32Snapshot",
            "OpenProcess",
            "WaitForSingleObject",
            "FreeLibrary",
            "GetVersion",
            "SetFilePointer",
            "ReleaseMutex",
            "CreateMutexA",
            "DeleteFileA",
            "GetCurrentThreadId",
            "GetFileTime",
            "lstrcatA",
            "WritePrivateProfileStringA",
            "CreateDirectoryA",
            "lstrcpyA",
            "FreeResource",
            "WriteFile",
            "SizeofResource",
            "LoadResource",
            "FindResourceA",
            "SetFileTime",
            "LocalFileTimeToFileTime",
            "LocalReAlloc",
            "MultiByteToWideChar",
            "CreateFileA",
            "ReadFile",
            "CloseHandle",
            "LocalFree",
            "GetTickCount",
            "LoadLibraryA",
            "Sleep",
            "CreateProcessA",
            "ExitProcess",
            "VirtualAllocEx",
            "WriteProcessMemory",
            "GetModuleHandleA",
            "GetProcAddress",
            "CreateRemoteThread",
            "GetCurrentProcess",
            "GetLastError",
            "GetModuleFileNameA",
            "lstrlenA",
            "LocalAlloc",
            "OutputDebugStringA",
            "GetSystemDirectoryA",
            "GetCommandLineA",
            "GetFileAttributesA"
        ],
        "USER32.dll": [
            "CreateWindowExA",
            "wsprintfA",
            "MessageBoxW",
            "CharNextA",
            "GetInputState",
            "PostThreadMessageA",
            "GetMessageA"
        ],
        "ADVAPI32.dll": [
            "RegOpenKeyExA",
            "RegCreateKeyExA",
            "OpenProcessToken",
            "LookupPrivilegeValueA",
            "AdjustTokenPrivileges",
            "RegCreateKeyA",
            "RegSetValueExA",
            "RegCloseKey",
            "OpenServiceA",
            "CloseServiceHandle",
            "StartServiceA",
            "OpenSCManagerA",
            "CreateServiceA",
            "RegQueryValueExA",
            "EnumServicesStatusA",
            "QueryServiceConfigA",
            "UnlockServiceDatabase",
            "ChangeServiceConfigA",
            "LockServiceDatabase"
        ],
        "SHELL32.dll": [
            "ShellExecuteA"
        ],
        "ole32.dll": [
            "CoCreateGuid",
            "CoInitialize",
            "CoUninitialize"
        ],
        "MSVCRT.dll": [
            "free",
            "_except_handler3",
            "_strlwr",
            "??1type_info@@UAE@XZ",
            "__dllonexit",
            "_onexit",
            "strstr",
            "rename",
            "isdigit",
            "strtoul",
            "strncmp",
            "malloc",
            "realloc",
            "??3@YAXPAX@Z",
            "__CxxFrameHandler",
            "??2@YAPAXI@Z",
            "sprintf",
            "fclose",
            "fwrite",
            "fread",
            "_stat",
            "fopen",
            "_snprintf",
            "rand",
            "wcslen",
            "strchr"
        ]
    }
}