{
    "hash": "0012c754332735bb09d26d8a921374dd1bb5128d2d92b915b2985a024a318392",
    "section": [
        {
            "Name": ".text\u0000\u0000\u0000",
            "VirtualAddress": "0x2000",
            "Misc_VirtualSize": "0x11a64",
            "SizeOfRawData": 73728
        },
        {
            "Name": ".rsrc\u0000\u0000\u0000",
            "VirtualAddress": "0x14000",
            "Misc_VirtualSize": "0x2a8",
            "SizeOfRawData": 4096
        },
        {
            "Name": ".reloc\u0000\u0000",
            "VirtualAddress": "0x16000",
            "Misc_VirtualSize": "0xc",
            "SizeOfRawData": 4096
        }
    ],
    "import": {
        "mscoree.dll": [
            "_CorDllMain"
        ]
    }
}