{
    "hash": "001251f89644b969231ef6c7cb2a4644f241c94287fd2682d79b3d1dd54cfe61",
    "section": [
        {
            "Name": ".text\u0000\u0000\u0000",
            "VirtualAddress": "0x1000",
            "Misc_VirtualSize": "0x18000",
            "SizeOfRawData": 98304
        },
        {
            "Name": ".sedata\u0000",
            "VirtualAddress": "0x19000",
            "Misc_VirtualSize": "0x6000",
            "SizeOfRawData": 21504
        },
        {
            "Name": ".reloc\u0000\u0000",
            "VirtualAddress": "0x1f000",
            "Misc_VirtualSize": "0x1000",
            "SizeOfRawData": 3072
        }
    ],
    "import": {
        "WINMM.dll": [
            "PlaySoundW"
        ],
        "KERNEL32.dll": [
            "GetCurrentProcess",
            "GetModuleHandleW",
            "Sleep",
            "ReadProcessMemory",
            "GetModuleFileNameW",
            "Module32FirstW",
            "VirtualProtect",
            "RtlUnwind",
            "Module32NextW",
            "CloseHandle",
            "GetCurrentProcessId",
            "CreateThread",
            "WriteFile",
            "LoadLibraryW",
            "CreateToolhelp32Snapshot",
            "GetProcAddress",
            "GetCurrentThreadId",
            "DecodePointer",
            "GetCommandLineA",
            "TerminateProcess",
            "UnhandledExceptionFilter",
            "SetUnhandledExceptionFilter",
            "IsDebuggerPresent",
            "GetCPInfo",
            "InterlockedIncrement",
            "InterlockedDecrement",
            "GetACP",
            "GetOEMCP",
            "IsValidCodePage",
            "EncodePointer",
            "TlsAlloc",
            "TlsGetValue",
            "TlsSetValue",
            "TlsFree",
            "SetLastError",
            "GetLastError",
            "HeapSize",
            "HeapFree",
            "ExitProcess",
            "SetHandleCount",
            "GetStdHandle",
            "InitializeCriticalSectionAndSpinCount",
            "GetFileType",
            "GetStartupInfoW",
            "DeleteCriticalSection",
            "GetModuleFileNameA",
            "FreeEnvironmentStringsW",
            "WideCharToMultiByte",
            "GetEnvironmentStringsW",
            "HeapCreate",
            "HeapDestroy",
            "QueryPerformanceCounter",
            "GetTickCount",
            "GetSystemTimeAsFileTime",
            "HeapAlloc",
            "RaiseException",
            "LCMapStringW",
            "MultiByteToWideChar",
            "GetStringTypeW",
            "LeaveCriticalSection",
            "EnterCriticalSection",
            "IsProcessorFeaturePresent",
            "HeapReAlloc"
        ],
        "USER32.dll": [
            "GetDesktopWindow"
        ],
        "DINPUT8.dll": [
            "DirectInput8Create"
        ]
    }
}