{
    "hash": "001265ef7ae68437b04b0ba314e9d9f2011418bc959dddbb469c115d5950ed3a",
    "section": [
        {
            "Name": ".text\u0000\u0000\u0000",
            "VirtualAddress": "0x1000",
            "Misc_VirtualSize": "0x6402",
            "SizeOfRawData": 26112
        },
        {
            "Name": ".data\u0000\u0000\u0000",
            "VirtualAddress": "0x8000",
            "Misc_VirtualSize": "0x181ec",
            "SizeOfRawData": 512
        },
        {
            "Name": ".cdata\u0000\u0000",
            "VirtualAddress": "0x21000",
            "Misc_VirtualSize": "0x4",
            "SizeOfRawData": 512
        },
        {
            "Name": ".rsrc\u0000\u0000\u0000",
            "VirtualAddress": "0x22000",
            "Misc_VirtualSize": "0x580",
            "SizeOfRawData": 1536
        }
    ],
    "import": {
        "ADVAPI32.dll": [
            "RegCloseKey",
            "RegSetValueExW",
            "RegCreateKeyExW",
            "RegDeleteKeyW",
            "RegEnumKeyExW",
            "RegOpenKeyExW",
            "RegQueryValueExA",
            "RegOpenKeyExA",
            "FreeSid",
            "CheckTokenMembership",
            "AllocateAndInitializeSid",
            "RegEnumValueW",
            "RegQueryInfoKeyW",
            "RegQueryValueExW",
            "ConvertSidToStringSidA",
            "AddAce",
            "ConvertStringSecurityDescriptorToSecurityDescriptorW",
            "GetSecurityDescriptorDacl",
            "InitializeSecurityDescriptor",
            "SetSecurityDescriptorDacl",
            "OpenThreadToken",
            "OpenProcessToken",
            "GetTokenInformation",
            "CopySid",
            "IsValidSid",
            "InitializeAcl",
            "AddAccessDeniedAce",
            "AddAccessAllowedAce",
            "GetLengthSid"
        ],
        "KERNEL32.dll": [
            "EnterCriticalSection",
            "LoadLibraryA",
            "InterlockedExchange",
            "FreeLibrary",
            "GetSystemTimeAsFileTime",
            "GetCurrentProcessId",
            "GetCurrentThreadId",
            "GetTickCount",
            "QueryPerformanceCounter",
            "VirtualProtect",
            "SetUnhandledExceptionFilter",
            "UnhandledExceptionFilter",
            "TerminateProcess",
            "GetCurrentThread",
            "LocalAlloc",
            "LocalFree",
            "GetModuleFileNameA",
            "GetShortPathNameA",
            "OpenMutexA",
            "CreateMutexA",
            "GetCurrentProcess",
            "GetModuleHandleA",
            "GetProcAddress",
            "MultiByteToWideChar",
            "Sleep",
            "GlobalAlloc",
            "GlobalFree",
            "CreateProcessW",
            "CloseHandle",
            "GetShortPathNameW",
            "GetLongPathNameW",
            "lstrcmpiW",
            "GetSystemWindowsDirectoryW",
            "GetLastError",
            "GetFileAttributesW",
            "WaitForSingleObject",
            "GetModuleFileNameW",
            "CreateEventW",
            "lstrlenW",
            "InterlockedDecrement",
            "SetEvent",
            "InterlockedIncrement",
            "RaiseException",
            "LeaveCriticalSection",
            "SetLastError",
            "VirtualFree",
            "VirtualAlloc",
            "InitializeCriticalSectionAndSpinCount",
            "TlsAlloc",
            "GetSystemDefaultLCID",
            "TlsFree",
            "DeleteCriticalSection",
            "TlsSetValue",
            "TlsGetValue"
        ],
        "MSVCRT.dll": [
            "_wtol",
            "_except_handler3",
            "memmove",
            "_c_exit",
            "_XcptFilter",
            "_cexit",
            "exit",
            "__p___winitenv",
            "_amsg_exit",
            "__wgetmainargs",
            "_initterm",
            "__setusermatherr",
            "_adjust_fdiv",
            "__p__commode",
            "__p__fmode",
            "__set_app_type",
            "__dllonexit",
            "_onexit",
            "_controlfp",
            "_exit"
        ],
        "ole32.dll": [
            "StringFromCLSID",
            "CoUninitialize",
            "CoInitializeEx",
            "CoRegisterClassObject",
            "StringFromIID",
            "CoCreateInstance",
            "CoRevokeClassObject",
            "CoTaskMemFree"
        ],
        "OLEAUT32.dll": [
            "SysAllocString",
            "SysFreeString",
            "LoadRegTypeLib",
            "LoadTypeLib"
        ],
        "SHELL32.dll": [
            "SHGetSpecialFolderPathW"
        ],
        "USER32.dll": [
            "SystemParametersInfoW"
        ]
    }
}