{
    "hash": "001273234151a077c87e2b9e678f76b7d6a89c1364e5911b2838de5f2c75fca2",
    "section": [
        {
            "Name": "   \u0000    ",
            "VirtualAddress": "0x1000",
            "Misc_VirtualSize": "0x32000",
            "SizeOfRawData": 94208
        },
        {
            "Name": ".rsrc\u0000\u0000\u0000",
            "VirtualAddress": "0x33000",
            "Misc_VirtualSize": "0x6d4c",
            "SizeOfRawData": 16384
        },
        {
            "Name": ".idata  ",
            "VirtualAddress": "0x3a000",
            "Misc_VirtualSize": "0x1000",
            "SizeOfRawData": 4096
        },
        {
            "Name": "        ",
            "VirtualAddress": "0x3b000",
            "Misc_VirtualSize": "0xf3000",
            "SizeOfRawData": 4096
        },
        {
            "Name": "nhgxrnnn",
            "VirtualAddress": "0x12e000",
            "Misc_VirtualSize": "0xcb000",
            "SizeOfRawData": 831488
        },
        {
            "Name": "zgwhklkc",
            "VirtualAddress": "0x1f9000",
            "Misc_VirtualSize": "0x1000",
            "SizeOfRawData": 4096
        }
    ],
    "import": {
        "kernel32.dll": [
            "lstrcpy"
        ],
        "comctl32.dll": [
            "InitCommonControls"
        ]
    }
}