{
    "hash": "0012f743e905ebc437289a1dbcddafe4e261191ad3315152a1de6d9fd7933e03",
    "section": [
        {
            "Name": ".text\u0000\u0000\u0000",
            "VirtualAddress": "0x1000",
            "Misc_VirtualSize": "0x215dd",
            "SizeOfRawData": 136704
        },
        {
            "Name": ".rdata\u0000\u0000",
            "VirtualAddress": "0x23000",
            "Misc_VirtualSize": "0x635c",
            "SizeOfRawData": 25600
        },
        {
            "Name": ".data\u0000\u0000\u0000",
            "VirtualAddress": "0x2a000",
            "Misc_VirtualSize": "0x183844",
            "SizeOfRawData": 530432
        },
        {
            "Name": ".rsrc\u0000\u0000\u0000",
            "VirtualAddress": "0x1ae000",
            "Misc_VirtualSize": "0xf42",
            "SizeOfRawData": 4096
        }
    ],
    "import": {
        "USER32.dll": [
            "EndPaint",
            "DestroyWindow",
            "GetMessageA",
            "RegisterClassExA",
            "PostQuitMessage",
            "LoadStringA",
            "LoadIconA",
            "BeginPaint",
            "TranslateMessage",
            "TranslateAcceleratorA",
            "EndDialog",
            "DefWindowProcA",
            "LoadAcceleratorsA",
            "DispatchMessageA",
            "LoadCursorA",
            "DialogBoxParamA"
        ],
        "KERNEL32.dll": [
            "TlsGetValue",
            "SetStdHandle",
            "WriteConsoleW",
            "CloseHandle",
            "SetFilePointer",
            "ReadFile",
            "FlushFileBuffers",
            "GetConsoleMode",
            "GetConsoleCP",
            "InitializeCriticalSection",
            "IsValidLocale",
            "EnumSystemLocalesA",
            "GetLocaleInfoA",
            "GetUserDefaultLCID",
            "GetStringTypeW",
            "MultiByteToWideChar",
            "GetCommandLineA",
            "HeapSetInformation",
            "GetStartupInfoW",
            "DecodePointer",
            "EncodePointer",
            "TerminateProcess",
            "GetCurrentProcess",
            "UnhandledExceptionFilter",
            "SetUnhandledExceptionFilter",
            "IsDebuggerPresent",
            "HeapAlloc",
            "GetLastError",
            "HeapFree",
            "IsProcessorFeaturePresent",
            "RaiseException",
            "GetProcAddress",
            "GetModuleHandleW",
            "ExitProcess",
            "WriteFile",
            "GetStdHandle",
            "GetModuleFileNameW",
            "GetModuleFileNameA",
            "FreeEnvironmentStringsW",
            "WideCharToMultiByte",
            "GetEnvironmentStringsW",
            "SetHandleCount",
            "InitializeCriticalSectionAndSpinCount",
            "GetFileType",
            "DeleteCriticalSection",
            "TlsAlloc",
            "CreateFileW",
            "TlsSetValue",
            "TlsFree",
            "InterlockedIncrement",
            "SetLastError",
            "GetCurrentThreadId",
            "InterlockedDecrement",
            "GetCurrentThread",
            "HeapCreate",
            "HeapDestroy",
            "QueryPerformanceCounter",
            "GetTickCount",
            "GetCurrentProcessId",
            "GetSystemTimeAsFileTime",
            "SetConsoleCtrlHandler",
            "GetLocaleInfoW",
            "LeaveCriticalSection",
            "FatalAppExitA",
            "EnterCriticalSection",
            "RtlUnwind",
            "Sleep",
            "HeapSize",
            "FreeLibrary",
            "InterlockedExchange",
            "LoadLibraryW",
            "GetCPInfo",
            "GetACP",
            "GetOEMCP",
            "IsValidCodePage",
            "HeapReAlloc",
            "LCMapStringW"
        ]
    }
}