{
    "hash": "0012af91805bb84f9bbfe43bf666e84ac3109a66b75c32b5b6dc78e4ed753b45",
    "section": [
        {
            "Name": "UPX0\u0000\u0000\u0000\u0000",
            "VirtualAddress": "0x1000",
            "Misc_VirtualSize": "0x18000",
            "SizeOfRawData": 98304
        },
        {
            "Name": "UPX1\u0000\u0000\u0000\u0000",
            "VirtualAddress": "0x19000",
            "Misc_VirtualSize": "0xe000",
            "SizeOfRawData": 54784
        },
        {
            "Name": ".rsrc\u0000\u0000\u0000",
            "VirtualAddress": "0x27000",
            "Misc_VirtualSize": "0x1000",
            "SizeOfRawData": 1024
        },
        {
            "Name": ".imports",
            "VirtualAddress": "0x28000",
            "Misc_VirtualSize": "0x1000",
            "SizeOfRawData": 2560
        }
    ],
    "import": {
        "KERNEL32.DLL": [
            "WriteFile",
            "WaitForSingleObject",
            "VirtualQuery",
            "SetFilePointer",
            "SetEvent",
            "SetEndOfFile",
            "ResetEvent",
            "ReadFile",
            "LeaveCriticalSection",
            "InitializeCriticalSection",
            "GlobalUnlock",
            "GlobalReAlloc",
            "GlobalHandle",
            "GlobalLock",
            "GlobalFree",
            "GlobalAlloc",
            "GetWindowsDirectoryA",
            "GetVersionExA",
            "GetTickCount",
            "GetThreadLocale",
            "GetStringTypeExA",
            "GetStdHandle",
            "GetProcAddress",
            "GetModuleHandleA",
            "GetModuleFileNameA",
            "GetLocaleInfoA",
            "GetLastError",
            "GetDiskFreeSpaceA",
            "GetCurrentThreadId",
            "GetCPInfo",
            "GetACP",
            "FormatMessageA",
            "FindFirstFileA",
            "FindClose",
            "FileTimeToLocalFileTime",
            "FileTimeToDosDateTime",
            "ExitProcess",
            "EnumCalendarInfoA",
            "EnterCriticalSection",
            "DeleteCriticalSection",
            "CreateFileA",
            "CreateEventA",
            "CreateDirectoryA",
            "CopyFileA",
            "CompareStringA",
            "CloseHandle"
        ],
        "advapi32.dll": [
            "RegSetValueExA",
            "RegQueryValueExA",
            "RegOpenKeyExA",
            "RegFlushKey",
            "RegCreateKeyExA",
            "RegCloseKey"
        ],
        "oleaut32.dll": [
            "SysFreeString",
            "SysReAllocStringLen",
            "SysAllocStringLen"
        ],
        "user32.dll": [
            "GetKeyboardType",
            "LoadStringA",
            "MessageBoxA",
            "CharNextA"
        ]
    }
}