{
    "hash": "001308bed2e3b93634b3781e3859342aa2759db37c6864e869d129667fc298d5",
    "section": [
        {
            "Name": ".text\u0000\u0000\u0000",
            "VirtualAddress": "0x1000",
            "Misc_VirtualSize": "0x5212c",
            "SizeOfRawData": 336384
        },
        {
            "Name": ".itext\u0000\u0000",
            "VirtualAddress": "0x54000",
            "Misc_VirtualSize": "0x938",
            "SizeOfRawData": 2560
        },
        {
            "Name": ".data\u0000\u0000\u0000",
            "VirtualAddress": "0x55000",
            "Misc_VirtualSize": "0x5240",
            "SizeOfRawData": 21504
        },
        {
            "Name": ".bss\u0000\u0000\u0000\u0000",
            "VirtualAddress": "0x5b000",
            "Misc_VirtualSize": "0x52c4",
            "SizeOfRawData": 0
        },
        {
            "Name": ".idata\u0000\u0000",
            "VirtualAddress": "0x61000",
            "Misc_VirtualSize": "0x2430",
            "SizeOfRawData": 9728
        },
        {
            "Name": ".didata\u0000",
            "VirtualAddress": "0x64000",
            "Misc_VirtualSize": "0x69e",
            "SizeOfRawData": 2048
        },
        {
            "Name": ".tls\u0000\u0000\u0000\u0000",
            "VirtualAddress": "0x65000",
            "Misc_VirtualSize": "0xc",
            "SizeOfRawData": 0
        },
        {
            "Name": ".rdata\u0000\u0000",
            "VirtualAddress": "0x66000",
            "Misc_VirtualSize": "0x18",
            "SizeOfRawData": 512
        },
        {
            "Name": ".rsrc\u0000\u0000\u0000",
            "VirtualAddress": "0x67000",
            "Misc_VirtualSize": "0x2f828",
            "SizeOfRawData": 195072
        }
    ],
    "import": {
        "oleaut32.dll": [
            "SafeArrayPtrOfIndex",
            "SafeArrayGetUBound",
            "SafeArrayGetLBound",
            "SafeArrayCreate",
            "VariantChangeType",
            "VariantCopy",
            "VariantClear",
            "VariantInit"
        ],
        "advapi32.dll": [
            "RegSetValueExW",
            "RegQueryValueExW",
            "RegOpenKeyExW",
            "RegOpenKeyW",
            "RegCreateKeyExW",
            "RegCloseKey",
            "OpenProcessToken",
            "DuplicateTokenEx",
            "CreateProcessAsUserW"
        ],
        "user32.dll": [
            "GetMonitorInfoW",
            "MonitorFromWindow"
        ],
        "kernel32.dll": [
            "GetUserDefaultUILanguage",
            "GetUserGeoID"
        ],
        "msimg32.dll": [
            "AlphaBlend"
        ],
        "gdi32.dll": [
            "SetWindowOrgEx",
            "SetTextColor",
            "SetBkMode",
            "SetBkColor",
            "SelectObject",
            "Rectangle",
            "MoveToEx",
            "LineTo",
            "GetTextExtentPoint32W",
            "GetTextColor",
            "GetStockObject",
            "GetObjectW",
            "GetCurrentObject",
            "GetBkMode",
            "GetBkColor",
            "ExcludeClipRect",
            "DeleteObject",
            "DeleteDC",
            "CreateSolidBrush",
            "CreateRoundRectRgn",
            "CreateRectRgn",
            "CreatePen",
            "CreateFontIndirectW",
            "CreateDIBSection",
            "CreateCompatibleDC",
            "CreateCompatibleBitmap",
            "CombineRgn",
            "BitBlt",
            "AddFontMemResourceEx"
        ],
        "version.dll": [
            "VerQueryValueW",
            "GetFileVersionInfoSizeW",
            "GetFileVersionInfoW"
        ],
        "mpr.dll": [
            "WNetGetProviderNameW"
        ],
        "shell32.dll": [
            "Shell_NotifyIconW"
        ],
        "ole32.dll": [
            "CreateStreamOnHGlobal"
        ],
        "comctl32.dll": [
            "InitCommonControlsEx",
            "InitCommonControls"
        ],
        "SetupApi.dll": [
            "IsUserAdmin"
        ],
        "wininet.dll": [
            "InternetReadFile",
            "InternetOpenUrlW",
            "InternetOpenW",
            "InternetCrackUrlW",
            "InternetConnectW",
            "InternetCloseHandle",
            "InternetCanonicalizeUrlW",
            "HttpSendRequestW",
            "HttpQueryInfoW",
            "HttpOpenRequestW",
            "DeleteUrlCacheEntryW"
        ],
        "shlwapi.dll": [
            "AssocQueryStringW"
        ],
        "wintrust.dll": [
            "CryptCATAdminReleaseContext",
            "CryptCATAdminReleaseCatalogContext",
            "CryptCATCatalogInfoFromContext",
            "CryptCATAdminEnumCatalogFromHash",
            "CryptCATAdminAcquireContext",
            "CryptCATAdminCalcHashFromFileHandle",
            "WinVerifyTrustEx"
        ],
        "wsock32.dll": [
            "WSACleanup",
            "WSAStartup",
            "WSAGetLastError",
            "gethostbyname",
            "socket",
            "shutdown",
            "setsockopt",
            "send",
            "recv",
            "inet_addr",
            "htons",
            "connect",
            "closesocket"
        ],
        "uxtheme.dll": [
            "SetWindowTheme"
        ]
    }
}