{
    "attributes": {
        "authentihash": "08a658f1a65e17840f91da3b1db76f88ba544e558ec3370c0fefbcc3afaf8061",
        "creation_date": 1295081130,
        "first_submission_date": 1539652851,
        "last_analysis_date": 1566343950,
        "last_analysis_results": {
            "ALYac": {
                "category": "malicious",
                "engine_name": "ALYac",
                "engine_update": "20190820",
                "engine_version": "1.1.1.5",
                "method": "blacklist",
                "result": "Gen:Variant.Ulise.22672"
            },
            "APEX": {
                "category": "malicious",
                "engine_name": "APEX",
                "engine_update": "20190819",
                "engine_version": "5.53",
                "method": "blacklist",
                "result": "Malicious"
            },
            "AVG": {
                "category": "malicious",
                "engine_name": "AVG",
                "engine_update": "20190821",
                "engine_version": "18.4.3895.0",
                "method": "blacklist",
                "result": "Win32:Gepys-J [Trj]"
            },
            "Acronis": {
                "category": "malicious",
                "engine_name": "Acronis",
                "engine_update": "20190820",
                "engine_version": "1.0.1.51",
                "method": "blacklist",
                "result": "suspicious"
            },
            "Ad-Aware": {
                "category": "malicious",
                "engine_name": "Ad-Aware",
                "engine_update": "20190820",
                "engine_version": "3.0.5.370",
                "method": "blacklist",
                "result": "Gen:Variant.Ulise.22672"
            },
            "AegisLab": {
                "category": "malicious",
                "engine_name": "AegisLab",
                "engine_update": "20190820",
                "engine_version": "4.2",
                "method": "blacklist",
                "result": "Trojan.Win32.ShipUp.4!c"
            },
            "AhnLab-V3": {
                "category": "malicious",
                "engine_name": "AhnLab-V3",
                "engine_update": "20190820",
                "engine_version": "3.16.0.24856",
                "method": "blacklist",
                "result": "Trojan/Win32.Shipup.R58491"
            },
            "Alibaba": {
                "category": "malicious",
                "engine_name": "Alibaba",
                "engine_update": "20190527",
                "engine_version": "0.3.0.5",
                "method": "blacklist",
                "result": "TrojanDropper:Win32/ShipUp.209b0106"
            },
            "Antiy-AVL": {
                "category": "malicious",
                "engine_name": "Antiy-AVL",
                "engine_update": "20190820",
                "engine_version": "3.0.0.1",
                "method": "blacklist",
                "result": "Trojan/Win32.ShipUp"
            },
            "Arcabit": {
                "category": "undetected",
                "engine_name": "Arcabit",
                "engine_update": "20190820",
                "engine_version": "1.0.0.856",
                "method": "blacklist",
                "result": null
            },
            "Avast": {
                "category": "timeout",
                "engine_name": "Avast",
                "engine_update": "20190821",
                "engine_version": "18.4.3895.0",
                "method": "blacklist",
                "result": null
            },
            "Avast-Mobile": {
                "category": "undetected",
                "engine_name": "Avast-Mobile",
                "engine_update": "20190820",
                "engine_version": "190820-00",
                "method": "blacklist",
                "result": null
            },
            "Avira": {
                "category": "malicious",
                "engine_name": "Avira",
                "engine_update": "20190820",
                "engine_version": "8.3.3.8",
                "method": "blacklist",
                "result": "TR/Crypt.XPACK.Gen"
            },
            "Baidu": {
                "category": "malicious",
                "engine_name": "Baidu",
                "engine_update": "20190318",
                "engine_version": "1.0.0.2",
                "method": "blacklist",
                "result": "Win32.Trojan.Agent.eq"
            },
            "BitDefender": {
                "category": "malicious",
                "engine_name": "BitDefender",
                "engine_update": "20190820",
                "engine_version": "7.2",
                "method": "blacklist",
                "result": "Gen:Variant.Ulise.22672"
            },
            "Bkav": {
                "category": "malicious",
                "engine_name": "Bkav",
                "engine_update": "20190820",
                "engine_version": "1.3.0.10239",
                "method": "blacklist",
                "result": "W32.FamVT.ShipUpTC.Trojan"
            },
            "CAT-QuickHeal": {
                "category": "malicious",
                "engine_name": "CAT-QuickHeal",
                "engine_update": "20190820",
                "engine_version": "14.00",
                "method": "blacklist",
                "result": "TrojanPWS.Zbot.Y"
            },
            "CMC": {
                "category": "malicious",
                "engine_name": "CMC",
                "engine_update": "20190321",
                "engine_version": "1.1.0.977",
                "method": "blacklist",
                "result": "Trojan.Win32.ShipUp!O"
            },
            "ClamAV": {
                "category": "malicious",
                "engine_name": "ClamAV",
                "engine_update": "20190820",
                "engine_version": "0.101.3.0",
                "method": "blacklist",
                "result": "Win.Trojan.Shipup-90"
            },
            "Comodo": {
                "category": "malicious",
                "engine_name": "Comodo",
                "engine_update": "20190820",
                "engine_version": "31352",
                "method": "blacklist",
                "result": "TrojWare.Win32.ShipUp.BNV@4vayon"
            },
            "CrowdStrike": {
                "category": "malicious",
                "engine_name": "CrowdStrike",
                "engine_update": "20190212",
                "engine_version": "1.0",
                "method": "blacklist",
                "result": "win/malicious_confidence_100% (W)"
            },
            "Cybereason": {
                "category": "malicious",
                "engine_name": "Cybereason",
                "engine_update": "20190616",
                "engine_version": "1.2.449",
                "method": "blacklist",
                "result": "malicious.1281a2"
            },
            "Cylance": {
                "category": "malicious",
                "engine_name": "Cylance",
                "engine_update": "20190821",
                "engine_version": "2.3.1.101",
                "method": "blacklist",
                "result": "Unsafe"
            },
            "Cyren": {
                "category": "malicious",
                "engine_name": "Cyren",
                "engine_update": "20190821",
                "engine_version": "6.2.0.1",
                "method": "blacklist",
                "result": "W32/Zbot.JC.gen!Eldorado"
            },
            "DrWeb": {
                "category": "malicious",
                "engine_name": "DrWeb",
                "engine_update": "20190820",
                "engine_version": "7.0.41.7240",
                "method": "blacklist",
                "result": "Trojan.Redirect.140"
            },
            "ESET-NOD32": {
                "category": "malicious",
                "engine_name": "ESET-NOD32",
                "engine_update": "20190820",
                "engine_version": "19887",
                "method": "blacklist",
                "result": "a variant of Win32/Kryptik.AWRZ"
            },
            "Emsisoft": {
                "category": "malicious",
                "engine_name": "Emsisoft",
                "engine_update": "20190820",
                "engine_version": "2018.12.0.1641",
                "method": "blacklist",
                "result": "Gen:Variant.Ulise.22672 (B)"
            },
            "Endgame": {
                "category": "malicious",
                "engine_name": "Endgame",
                "engine_update": "20190819",
                "engine_version": "3.0.14",
                "method": "blacklist",
                "result": "malicious (high confidence)"
            },
            "F-Prot": {
                "category": "malicious",
                "engine_name": "F-Prot",
                "engine_update": "20190820",
                "engine_version": "4.7.1.166",
                "method": "blacklist",
                "result": "W32/Zbot.JC.gen!Eldorado"
            },
            "F-Secure": {
                "category": "malicious",
                "engine_name": "F-Secure",
                "engine_update": "20190821",
                "engine_version": "12.0.86.52",
                "method": "blacklist",
                "result": "Trojan.TR/Crypt.XPACK.Gen"
            },
            "FireEye": {
                "category": "malicious",
                "engine_name": "FireEye",
                "engine_update": "20190820",
                "engine_version": "29.7.0.0",
                "method": "blacklist",
                "result": "Generic.mg.c9d1bcd1281a25c1"
            },
            "Fortinet": {
                "category": "malicious",
                "engine_name": "Fortinet",
                "engine_update": "20190820",
                "engine_version": "5.4.247.0",
                "method": "blacklist",
                "result": "W32/Kryptik.AYTK!tr"
            },
            "GData": {
                "category": "malicious",
                "engine_name": "GData",
                "engine_update": "20190820",
                "engine_version": "A:25.23133B:26.15838",
                "method": "blacklist",
                "result": "Gen:Variant.Ulise.22672"
            },
            "Ikarus": {
                "category": "malicious",
                "engine_name": "Ikarus",
                "engine_update": "20190820",
                "engine_version": "0.1.5.2",
                "method": "blacklist",
                "result": "Trojan.Win32.ShipUp"
            },
            "Invincea": {
                "category": "malicious",
                "engine_name": "Invincea",
                "engine_update": "20190717",
                "engine_version": "6.3.6.26157",
                "method": "blacklist",
                "result": "heuristic"
            },
            "Jiangmin": {
                "category": "malicious",
                "engine_name": "Jiangmin",
                "engine_update": "20190820",
                "engine_version": "16.0.100",
                "method": "blacklist",
                "result": "Trojan/ShipUp.hy"
            },
            "K7AntiVirus": {
                "category": "malicious",
                "engine_name": "K7AntiVirus",
                "engine_update": "20190820",
                "engine_version": "11.62.31793",
                "method": "blacklist",
                "result": "Trojan ( 0040f7c21 )"
            },
            "K7GW": {
                "category": "malicious",
                "engine_name": "K7GW",
                "engine_update": "20190821",
                "engine_version": "11.62.31794",
                "method": "blacklist",
                "result": "Trojan ( 0040f7c21 )"
            },
            "Kaspersky": {
                "category": "malicious",
                "engine_name": "Kaspersky",
                "engine_update": "20190821",
                "engine_version": "15.0.1.13",
                "method": "blacklist",
                "result": "Trojan.Win32.ShipUp.bnv"
            },
            "Kingsoft": {
                "category": "undetected",
                "engine_name": "Kingsoft",
                "engine_update": "20190821",
                "engine_version": "2013.8.14.323",
                "method": "blacklist",
                "result": null
            },
            "MAX": {
                "category": "malicious",
                "engine_name": "MAX",
                "engine_update": "20190821",
                "engine_version": "2018.9.12.1",
                "method": "blacklist",
                "result": "malware (ai score=80)"
            },
            "Malwarebytes": {
                "category": "malicious",
                "engine_name": "Malwarebytes",
                "engine_update": "20190821",
                "engine_version": "2.1.1.1115",
                "method": "blacklist",
                "result": "Trojan.MalPack.Generic"
            },
            "McAfee": {
                "category": "malicious",
                "engine_name": "McAfee",
                "engine_update": "20190820",
                "engine_version": "6.0.6.653",
                "method": "blacklist",
                "result": "PWS-Zbot-FAQW!C9D1BCD1281A"
            },
            "McAfee-GW-Edition": {
                "category": "malicious",
                "engine_name": "McAfee-GW-Edition",
                "engine_update": "20190820",
                "engine_version": "v2017.3010",
                "method": "blacklist",
                "result": "BehavesLike.Win32.PWSZbot.dh"
            },
            "MicroWorld-eScan": {
                "category": "malicious",
                "engine_name": "MicroWorld-eScan",
                "engine_update": "20190820",
                "engine_version": "14.0.297.0",
                "method": "blacklist",
                "result": "Gen:Variant.Ulise.22672"
            },
            "Microsoft": {
                "category": "malicious",
                "engine_name": "Microsoft",
                "engine_update": "20190820",
                "engine_version": "1.1.16200.1",
                "method": "blacklist",
                "result": "TrojanDropper:Win32/Gepys.A"
            },
            "NANO-Antivirus": {
                "category": "malicious",
                "engine_name": "NANO-Antivirus",
                "engine_update": "20190821",
                "engine_version": "1.0.134.24859",
                "method": "blacklist",
                "result": "Trojan.Win32.ShipUp.bqorug"
            },
            "Paloalto": {
                "category": "malicious",
                "engine_name": "Paloalto",
                "engine_update": "20190821",
                "engine_version": "1.0",
                "method": "blacklist",
                "result": "generic.ml"
            },
            "Panda": {
                "category": "malicious",
                "engine_name": "Panda",
                "engine_update": "20190820",
                "engine_version": "4.6.4.2",
                "method": "blacklist",
                "result": "Trj/Genetic.gen"
            },
            "Qihoo-360": {
                "category": "malicious",
                "engine_name": "Qihoo-360",
                "engine_update": "20190821",
                "engine_version": "1.0.0.1120",
                "method": "blacklist",
                "result": "Win32/Trojan.709"
            },
            "Rising": {
                "category": "malicious",
                "engine_name": "Rising",
                "engine_update": "20190821",
                "engine_version": "25.0.0.24",
                "method": "blacklist",
                "result": "Trojan.Kryptik!1.AB51 (CLASSIC)"
            },
            "SUPERAntiSpyware": {
                "category": "malicious",
                "engine_name": "SUPERAntiSpyware",
                "engine_update": "20190816",
                "engine_version": "5.6.0.1032",
                "method": "blacklist",
                "result": "Trojan.Agent/Gen-Injector"
            },
            "SentinelOne": {
                "category": "malicious",
                "engine_name": "SentinelOne",
                "engine_update": "20190807",
                "engine_version": "1.0.31.22",
                "method": "blacklist",
                "result": "DFI - Malicious PE"
            },
            "Sophos": {
                "category": "malicious",
                "engine_name": "Sophos",
                "engine_update": "20190820",
                "engine_version": "4.98.0",
                "method": "blacklist",
                "result": "Troj/Zbot-EHY"
            },
            "Symantec": {
                "category": "malicious",
                "engine_name": "Symantec",
                "engine_update": "20190820",
                "engine_version": "1.10.0.0",
                "method": "blacklist",
                "result": "Packed.Generic.459"
            },
            "SymantecMobileInsight": {
                "category": "type-unsupported",
                "engine_name": "SymantecMobileInsight",
                "engine_update": "20190724",
                "engine_version": "2.0",
                "method": "blacklist",
                "result": null
            },
            "TACHYON": {
                "category": "undetected",
                "engine_name": "TACHYON",
                "engine_update": "20190820",
                "engine_version": "2019-08-20.02",
                "method": "blacklist",
                "result": null
            },
            "Tencent": {
                "category": "malicious",
                "engine_name": "Tencent",
                "engine_update": "20190821",
                "engine_version": "1.0.0.1",
                "method": "blacklist",
                "result": "Trojan.Win32.ShipUp.awe"
            },
            "TotalDefense": {
                "category": "undetected",
                "engine_name": "TotalDefense",
                "engine_update": "20190820",
                "engine_version": "37.1.62.1",
                "method": "blacklist",
                "result": null
            },
            "Trapmine": {
                "category": "malicious",
                "engine_name": "Trapmine",
                "engine_update": "20190522",
                "engine_version": "3.1.62.789",
                "method": "blacklist",
                "result": "malicious.high.ml.score"
            },
            "TrendMicro": {
                "category": "timeout",
                "engine_name": "TrendMicro",
                "engine_update": "20190821",
                "engine_version": "11.0.0.1006",
                "method": "blacklist",
                "result": null
            },
            "TrendMicro-HouseCall": {
                "category": "malicious",
                "engine_name": "TrendMicro-HouseCall",
                "engine_update": "20190820",
                "engine_version": "10.0.0.1040",
                "method": "blacklist",
                "result": "TROJ_KRYPTK.SML3"
            },
            "Trustlook": {
                "category": "type-unsupported",
                "engine_name": "Trustlook",
                "engine_update": "20190821",
                "engine_version": "1.0",
                "method": "blacklist",
                "result": null
            },
            "VBA32": {
                "category": "malicious",
                "engine_name": "VBA32",
                "engine_update": "20190820",
                "engine_version": "4.0.0",
                "method": "blacklist",
                "result": "BScope.Trojan.ShipUp"
            },
            "ViRobot": {
                "category": "undetected",
                "engine_name": "ViRobot",
                "engine_update": "20190820",
                "engine_version": "2014.3.20.0",
                "method": "blacklist",
                "result": null
            },
            "Webroot": {
                "category": "malicious",
                "engine_name": "Webroot",
                "engine_update": "20190821",
                "engine_version": "1.0.0.403",
                "method": "blacklist",
                "result": "W32.Trojan.Gen"
            },
            "Yandex": {
                "category": "malicious",
                "engine_name": "Yandex",
                "engine_update": "20190811",
                "engine_version": "5.5.2.24",
                "method": "blacklist",
                "result": "Trojan.ShipUp!W2gPMUli548"
            },
            "Zillya": {
                "category": "malicious",
                "engine_name": "Zillya",
                "engine_update": "20190820",
                "engine_version": "2.0.0.3882",
                "method": "blacklist",
                "result": "Trojan.ShipUp.Win32.1159"
            },
            "ZoneAlarm": {
                "category": "malicious",
                "engine_name": "ZoneAlarm",
                "engine_update": "20190821",
                "engine_version": "1.0",
                "method": "blacklist",
                "result": "Trojan.Win32.ShipUp.bnv"
            },
            "Zoner": {
                "category": "undetected",
                "engine_name": "Zoner",
                "engine_update": "20190820",
                "engine_version": "1.0.0.1",
                "method": "blacklist",
                "result": null
            },
            "eGambit": {
                "category": "malicious",
                "engine_name": "eGambit",
                "engine_update": "20190821",
                "engine_version": "v4.3.6",
                "method": "blacklist",
                "result": "Unsafe.AI_Score_77%"
            }
        },
        "last_analysis_stats": {
            "confirmed-timeout": 0,
            "failure": 0,
            "harmless": 0,
            "malicious": 60,
            "suspicious": 0,
            "timeout": 2,
            "type-unsupported": 2,
            "undetected": 7
        },
        "last_modification_date": 1566344274,
        "last_submission_date": 1539652851,
        "magic": "PE32 executable for MS Windows (GUI) Intel 80386 32-bit",
        "md5": "c9d1bcd1281a25c14030dfd12324d572",
        "meaningful_name": "c9d1bcd1281a25c14030dfd12324d572.virus",
        "names": [
            "c9d1bcd1281a25c14030dfd12324d572.virus"
        ],
        "pe_info": {
            "entry_point": 6640,
            "imphash": "432bad8bbedcc1fcee2414805c933039",
            "import_list": [
                {
                    "imported_functions": [
                        "RegOpenKeyExW"
                    ],
                    "library_name": "ADVAPI32.dll"
                },
                {
                    "imported_functions": [
                        "VirtualAlloc",
                        "GetStartupInfoW",
                        "ReadFile"
                    ],
                    "library_name": "KERNEL32.dll"
                },
                {
                    "imported_functions": [
                        "strncmp",
                        "__p__fmode",
                        "toupper",
                        "__wgetmainargs",
                        "_wcsnicmp",
                        "_wcslwr",
                        "strncpy",
                        "strtoul",
                        "wcsncat",
                        "towupper",
                        "__winitenv",
                        "_cexit",
                        "_c_exit",
                        "setlocale",
                        "isalpha",
                        "exit",
                        "_XcptFilter",
                        "_snprintf",
                        "__setusermatherr",
                        "_adjust_fdiv",
                        "sprintf",
                        "strchr",
                        "tolower",
                        "__p__commode",
                        "wcscat",
                        "atoi",
                        "calloc",
                        "_initterm",
                        "towlower",
                        "wcscpy",
                        "wcstok",
                        "wcsstr",
                        "_strnicmp",
                        "_exit",
                        "memchr",
                        "_wtoi"
                    ],
                    "library_name": "msvcrt.dll"
                },
                {
                    "imported_functions": [
                        "LoadIconW",
                        "LoadCursorA"
                    ],
                    "library_name": "USER32.dll"
                }
            ],
            "machine_type": 332,
            "overlay": {
                "chi2": 312.7272033691406,
                "entropy": 6.7119951248168945,
                "filetype": "data",
                "md5": "d241efebabaccab098652e94b15cfb8f",
                "offset": 220672,
                "size": 176
            },
            "resource_details": [
                {
                    "chi2": 51053.67578125,
                    "entropy": 3.6222376823425293,
                    "filetype": "data",
                    "lang": "ENGLISH US",
                    "sha256": "d299ea6481ff10a5b351247cb88c074477c73a02b3537d1a1629e145bdcaeaa0",
                    "type": "RT_DIALOG"
                }
            ],
            "resource_langs": {
                "ENGLISH US": 1
            },
            "resource_types": {
                "RT_DIALOG": 1
            },
            "sections": [
                {
                    "entropy": 1.41,
                    "md5": "f0e8650521682cd9ee9bcf5a71396554",
                    "name": ".text",
                    "raw_size": 23552,
                    "virtual_address": 4096,
                    "virtual_size": 23088
                },
                {
                    "entropy": 6.52,
                    "md5": "1d4ed530aa82307fd94404d88e4b52bd",
                    "name": ".rdata",
                    "raw_size": 190976,
                    "virtual_address": 28672,
                    "virtual_size": 190740
                },
                {
                    "entropy": 3.51,
                    "md5": "7ff81b644c0559ca538057dbc28a355b",
                    "name": ".data",
                    "raw_size": 1536,
                    "virtual_address": 221184,
                    "virtual_size": 1308
                },
                {
                    "entropy": 0.0,
                    "md5": "bf619eac0cdf3f68d496ea9344137e8b",
                    "name": ".rdata3",
                    "raw_size": 512,
                    "virtual_address": 225280,
                    "virtual_size": 100
                },
                {
                    "entropy": 0.0,
                    "md5": "bf619eac0cdf3f68d496ea9344137e8b",
                    "name": ".rdata2",
                    "raw_size": 512,
                    "virtual_address": 229376,
                    "virtual_size": 100
                },
                {
                    "entropy": 0.0,
                    "md5": "bf619eac0cdf3f68d496ea9344137e8b",
                    "name": ".rdata1",
                    "raw_size": 512,
                    "virtual_address": 233472,
                    "virtual_size": 100
                },
                {
                    "entropy": 3.31,
                    "md5": "b832625edacc9b566d6f90326b106d1d",
                    "name": ".rsrc",
                    "raw_size": 1024,
                    "virtual_address": 237568,
                    "virtual_size": 960
                },
                {
                    "entropy": 3.15,
                    "md5": "711074a808c4016dce328cc2c2a2d99d",
                    "name": ".rsrc",
                    "raw_size": 1024,
                    "virtual_address": 241664,
                    "virtual_size": 127864
                }
            ],
            "timestamp": 1295081130
        },
        "reputation": 0,
        "sha1": "9bff055688943ddea93992d184e91d6f5f22f988",
        "sha256": "0000ba8ecc3a9adb3ec4046ee7e92203b944b2e798dbe28b0ebfdb26a6505652",
        "size": 220848,
        "ssdeep": "3072:T5MiiVM2EB3D3OtlX/L9+wijkKpj37u9vmHAyUFVdhxDdiht1wNyY9y6r:NTiVdI3D38p+RXjtHAbFbiD11RS",
        "tags": [
            "peexe",
            "overlay"
        ],
        "times_submitted": 1,
        "total_votes": {
            "harmless": 0,
            "malicious": 0
        },
        "trid": [
            {
                "file_type": "Win64 Executable (generic)",
                "probability": 61.7
            },
            {
                "file_type": "Win32 Dynamic Link Library (generic)",
                "probability": 14.7
            },
            {
                "file_type": "Win32 Executable (generic)",
                "probability": 10.0
            },
            {
                "file_type": "OS/2 Executable (generic)",
                "probability": 4.5
            },
            {
                "file_type": "Generic Win/DOS Executable",
                "probability": 4.4
            }
        ],
        "type_description": "Win32 EXE",
        "type_extension": "exe",
        "type_tag": "peexe",
        "unique_sources": 1,
        "vhash": "025086156d150505051d1019z324lz2fz"
    },
    "id": "0000ba8ecc3a9adb3ec4046ee7e92203b944b2e798dbe28b0ebfdb26a6505652",
    "links": {
        "self": "https://www.virustotal.com/api/v3/files/0000ba8ecc3a9adb3ec4046ee7e92203b944b2e798dbe28b0ebfdb26a6505652"
    },
    "type": "file"
}