{
    "attributes": {
        "authentihash": "96745251c5a86d5356cb5a50b5cbd38a99330b83a8ac2e0b48c2a6e968bd54bb",
        "creation_date": 1301832471,
        "first_submission_date": 1538139773,
        "last_analysis_date": 1538139773,
        "last_analysis_results": {
            "ALYac": {
                "category": "undetected",
                "engine_name": "ALYac",
                "engine_update": "20180928",
                "engine_version": "1.1.1.5",
                "method": "blacklist",
                "result": null
            },
            "AVG": {
                "category": "malicious",
                "engine_name": "AVG",
                "engine_update": "20180927",
                "engine_version": "18.4.3895.0",
                "method": "blacklist",
                "result": "Win32:Small-NTV [Wrm]"
            },
            "AVware": {
                "category": "malicious",
                "engine_name": "AVware",
                "engine_update": "20180925",
                "engine_version": "1.6.0.52",
                "method": "blacklist",
                "result": "Virus.Win32.sivis.a (v)"
            },
            "Ad-Aware": {
                "category": "malicious",
                "engine_name": "Ad-Aware",
                "engine_update": "20180928",
                "engine_version": "3.0.5.370",
                "method": "blacklist",
                "result": "Trojan.GenericKD.31242302"
            },
            "AegisLab": {
                "category": "malicious",
                "engine_name": "AegisLab",
                "engine_update": "20180928",
                "engine_version": "4.2",
                "method": "blacklist",
                "result": "W32.Agent.tn6k"
            },
            "AhnLab-V3": {
                "category": "malicious",
                "engine_name": "AhnLab-V3",
                "engine_update": "20180928",
                "engine_version": "3.13.1.21616",
                "method": "blacklist",
                "result": "Trojan/Win32.Agent.R12486"
            },
            "Alibaba": {
                "category": "undetected",
                "engine_name": "Alibaba",
                "engine_update": "20180921",
                "engine_version": "0.1.0.2",
                "method": "blacklist",
                "result": null
            },
            "Antiy-AVL": {
                "category": "malicious",
                "engine_name": "Antiy-AVL",
                "engine_update": "20180928",
                "engine_version": "3.0.0.1",
                "method": "blacklist",
                "result": "Virus/Win32.Agent.es"
            },
            "Arcabit": {
                "category": "malicious",
                "engine_name": "Arcabit",
                "engine_update": "20180928",
                "engine_version": "1.0.0.833",
                "method": "blacklist",
                "result": "Trojan.Generic.D26A76E5"
            },
            "Avast": {
                "category": "malicious",
                "engine_name": "Avast",
                "engine_update": "20180927",
                "engine_version": "18.4.3895.0",
                "method": "blacklist",
                "result": "Win32:Small-NTV [Wrm]"
            },
            "Avast-Mobile": {
                "category": "undetected",
                "engine_name": "Avast-Mobile",
                "engine_update": "20180927",
                "engine_version": "180927-00",
                "method": "blacklist",
                "result": null
            },
            "Avira": {
                "category": "malicious",
                "engine_name": "Avira",
                "engine_update": "20180928",
                "engine_version": "8.3.3.6",
                "method": "blacklist",
                "result": "W32/Sivis.A"
            },
            "Babable": {
                "category": "undetected",
                "engine_name": "Babable",
                "engine_update": "20180918",
                "engine_version": "9107201",
                "method": "blacklist",
                "result": null
            },
            "Baidu": {
                "category": "malicious",
                "engine_name": "Baidu",
                "engine_update": "20180928",
                "engine_version": "1.0.0.2",
                "method": "blacklist",
                "result": "Win32.Virus.Visisig.a"
            },
            "BitDefender": {
                "category": "malicious",
                "engine_name": "BitDefender",
                "engine_update": "20180928",
                "engine_version": "7.2",
                "method": "blacklist",
                "result": "Trojan.GenericKD.31242302"
            },
            "Bkav": {
                "category": "malicious",
                "engine_name": "Bkav",
                "engine_update": "20180928",
                "engine_version": "1.3.0.9898",
                "method": "blacklist",
                "result": "W32.FamVT.LamerATTc.PE"
            },
            "CAT-QuickHeal": {
                "category": "malicious",
                "engine_name": "CAT-QuickHeal",
                "engine_update": "20180928",
                "engine_version": "14.00",
                "method": "blacklist",
                "result": "W32.Sivis.A5"
            },
            "CMC": {
                "category": "malicious",
                "engine_name": "CMC",
                "engine_update": "20180928",
                "engine_version": "1.1.0.977",
                "method": "blacklist",
                "result": "Virus.Win32.Agent!O"
            },
            "ClamAV": {
                "category": "malicious",
                "engine_name": "ClamAV",
                "engine_update": "20180928",
                "engine_version": "0.100.1.0",
                "method": "blacklist",
                "result": "Win.Trojan.Sivis-1"
            },
            "Comodo": {
                "category": "malicious",
                "engine_name": "Comodo",
                "engine_update": "20180928",
                "engine_version": "29742",
                "method": "blacklist",
                "result": "Backdoor.Win32.Androm.XTA"
            },
            "CrowdStrike": {
                "category": "malicious",
                "engine_name": "CrowdStrike",
                "engine_update": "20180723",
                "engine_version": "1.0",
                "method": "blacklist",
                "result": "malicious_confidence_100% (D)"
            },
            "Cybereason": {
                "category": "malicious",
                "engine_name": "Cybereason",
                "engine_update": "20180225",
                "engine_version": "1.2.27",
                "method": "blacklist",
                "result": "malicious.4ab4b7"
            },
            "Cylance": {
                "category": "malicious",
                "engine_name": "Cylance",
                "engine_update": "20180928",
                "engine_version": "2.3.1.101",
                "method": "blacklist",
                "result": "Unsafe"
            },
            "Cyren": {
                "category": "malicious",
                "engine_name": "Cyren",
                "engine_update": "20180928",
                "engine_version": "6.0.0.4",
                "method": "blacklist",
                "result": "W32/Sivis.A"
            },
            "DrWeb": {
                "category": "malicious",
                "engine_name": "DrWeb",
                "engine_update": "20180928",
                "engine_version": "7.0.33.6080",
                "method": "blacklist",
                "result": "Win32.Siggen.28"
            },
            "ESET-NOD32": {
                "category": "malicious",
                "engine_name": "ESET-NOD32",
                "engine_update": "20180928",
                "engine_version": "18127",
                "method": "blacklist",
                "result": "Win32/Agent.NBA"
            },
            "Emsisoft": {
                "category": "malicious",
                "engine_name": "Emsisoft",
                "engine_update": "20180928",
                "engine_version": "2018.4.0.1029",
                "method": "blacklist",
                "result": "Trojan.GenericKD.31242302 (B)"
            },
            "Endgame": {
                "category": "malicious",
                "engine_name": "Endgame",
                "engine_update": "20180730",
                "engine_version": "3.0.1",
                "method": "blacklist",
                "result": "malicious (high confidence)"
            },
            "F-Prot": {
                "category": "malicious",
                "engine_name": "F-Prot",
                "engine_update": "20180928",
                "engine_version": "4.7.1.166",
                "method": "blacklist",
                "result": "W32/Sivis.A"
            },
            "F-Secure": {
                "category": "malicious",
                "engine_name": "F-Secure",
                "engine_update": "20180928",
                "engine_version": "11.0.19100.45",
                "method": "blacklist",
                "result": "Trojan.GenericKD.31242302"
            },
            "Fortinet": {
                "category": "malicious",
                "engine_name": "Fortinet",
                "engine_update": "20180928",
                "engine_version": "5.4.247.0",
                "method": "blacklist",
                "result": "W32/Agent.NBA!worm"
            },
            "GData": {
                "category": "malicious",
                "engine_name": "GData",
                "engine_update": "20180928",
                "engine_version": "A:25.18685B:25.13322",
                "method": "blacklist",
                "result": "Win32.Virus.Sivis.A"
            },
            "Ikarus": {
                "category": "malicious",
                "engine_name": "Ikarus",
                "engine_update": "20180928",
                "engine_version": "0.1.5.2",
                "method": "blacklist",
                "result": "Gen.Win32.FileInfector"
            },
            "Invincea": {
                "category": "malicious",
                "engine_name": "Invincea",
                "engine_update": "20180717",
                "engine_version": "6.3.5.26121",
                "method": "blacklist",
                "result": "heuristic"
            },
            "Jiangmin": {
                "category": "malicious",
                "engine_name": "Jiangmin",
                "engine_update": "20180928",
                "engine_version": "16.0.100",
                "method": "blacklist",
                "result": "Trojan/Cosmu.isk"
            },
            "K7AntiVirus": {
                "category": "malicious",
                "engine_name": "K7AntiVirus",
                "engine_update": "20180928",
                "engine_version": "11.5.28536",
                "method": "blacklist",
                "result": "Trojan ( 00481e511 )"
            },
            "K7GW": {
                "category": "malicious",
                "engine_name": "K7GW",
                "engine_update": "20180928",
                "engine_version": "11.5.28536",
                "method": "blacklist",
                "result": "Trojan ( 00481e511 )"
            },
            "Kaspersky": {
                "category": "malicious",
                "engine_name": "Kaspersky",
                "engine_update": "20180928",
                "engine_version": "15.0.1.13",
                "method": "blacklist",
                "result": "Virus.Win32.Agent.es"
            },
            "Kingsoft": {
                "category": "undetected",
                "engine_name": "Kingsoft",
                "engine_update": "20180928",
                "engine_version": "2013.8.14.323",
                "method": "blacklist",
                "result": null
            },
            "MAX": {
                "category": "malicious",
                "engine_name": "MAX",
                "engine_update": "20180928",
                "engine_version": "2018.9.12.1",
                "method": "blacklist",
                "result": "malware (ai score=80)"
            },
            "Malwarebytes": {
                "category": "undetected",
                "engine_name": "Malwarebytes",
                "engine_update": "20180928",
                "engine_version": "2.1.1.1115",
                "method": "blacklist",
                "result": null
            },
            "McAfee": {
                "category": "malicious",
                "engine_name": "McAfee",
                "engine_update": "20180928",
                "engine_version": "6.0.6.653",
                "method": "blacklist",
                "result": "W32/Sivis.gen.a"
            },
            "McAfee-GW-Edition": {
                "category": "malicious",
                "engine_name": "McAfee-GW-Edition",
                "engine_update": "20180928",
                "engine_version": "v2017.3010",
                "method": "blacklist",
                "result": "BehavesLike.Win32.Sivis.cm"
            },
            "MicroWorld-eScan": {
                "category": "malicious",
                "engine_name": "MicroWorld-eScan",
                "engine_update": "20180928",
                "engine_version": "14.0.297.0",
                "method": "blacklist",
                "result": "Trojan.GenericKD.31242302"
            },
            "Microsoft": {
                "category": "malicious",
                "engine_name": "Microsoft",
                "engine_update": "20180928",
                "engine_version": "1.1.15300.6",
                "method": "blacklist",
                "result": "Virus:Win32/Sivis.A"
            },
            "NANO-Antivirus": {
                "category": "malicious",
                "engine_name": "NANO-Antivirus",
                "engine_update": "20180928",
                "engine_version": "1.0.134.24036",
                "method": "blacklist",
                "result": "Virus.Win32.Agent.klkgx"
            },
            "Paloalto": {
                "category": "undetected",
                "engine_name": "Paloalto",
                "engine_update": "20180928",
                "engine_version": "1.0",
                "method": "blacklist",
                "result": null
            },
            "Panda": {
                "category": "undetected",
                "engine_name": "Panda",
                "engine_update": "20180928",
                "engine_version": "4.6.4.2",
                "method": "blacklist",
                "result": null
            },
            "Qihoo-360": {
                "category": "malicious",
                "engine_name": "Qihoo-360",
                "engine_update": "20180928",
                "engine_version": "1.0.0.1120",
                "method": "blacklist",
                "result": "HEUR/QVM05.1.2B2E.Malware.Gen"
            },
            "Rising": {
                "category": "malicious",
                "engine_name": "Rising",
                "engine_update": "20180928",
                "engine_version": "25.0.0.24",
                "method": "blacklist",
                "result": "Virus.Sivis!1.A647 (CLASSIC)"
            },
            "SUPERAntiSpyware": {
                "category": "undetected",
                "engine_name": "SUPERAntiSpyware",
                "engine_update": "20180907",
                "engine_version": "5.6.0.1032",
                "method": "blacklist",
                "result": null
            },
            "SentinelOne": {
                "category": "undetected",
                "engine_name": "SentinelOne",
                "engine_update": "20180926",
                "engine_version": "1.0.19.242",
                "method": "blacklist",
                "result": null
            },
            "Sophos": {
                "category": "malicious",
                "engine_name": "Sophos",
                "engine_update": "20180928",
                "engine_version": "4.98.0",
                "method": "blacklist",
                "result": "W32/Sivis-A"
            },
            "Symantec": {
                "category": "malicious",
                "engine_name": "Symantec",
                "engine_update": "20180928",
                "engine_version": "1.7.0.0",
                "method": "blacklist",
                "result": "Trojan.Gen"
            },
            "SymantecMobileInsight": {
                "category": "type-unsupported",
                "engine_name": "SymantecMobileInsight",
                "engine_update": "20180924",
                "engine_version": "2.0",
                "method": "blacklist",
                "result": null
            },
            "TACHYON": {
                "category": "malicious",
                "engine_name": "TACHYON",
                "engine_update": "20180928",
                "engine_version": "2018-09-28.02",
                "method": "blacklist",
                "result": "Trojan/W32.Sivis.Gen"
            },
            "Tencent": {
                "category": "malicious",
                "engine_name": "Tencent",
                "engine_update": "20180928",
                "engine_version": "1.0.0.1",
                "method": "blacklist",
                "result": "Virus.Win32.Savis.a"
            },
            "TheHacker": {
                "category": "malicious",
                "engine_name": "TheHacker",
                "engine_update": "20180927",
                "engine_version": "6.8.0.5.3713",
                "method": "blacklist",
                "result": "Trojan/Cosmu.aqfo"
            },
            "TotalDefense": {
                "category": "malicious",
                "engine_name": "TotalDefense",
                "engine_update": "20180925",
                "engine_version": "37.1.62.1",
                "method": "blacklist",
                "result": "Win32/Agent.BFH"
            },
            "TrendMicro": {
                "category": "timeout",
                "engine_name": "TrendMicro",
                "engine_update": "20180928",
                "engine_version": "10.0.0.1040",
                "method": "blacklist",
                "result": null
            },
            "TrendMicro-HouseCall": {
                "category": "malicious",
                "engine_name": "TrendMicro-HouseCall",
                "engine_update": "20180928",
                "engine_version": "10.0.0.1040",
                "method": "blacklist",
                "result": "PE_SIVIS.A-O"
            },
            "Trustlook": {
                "category": "type-unsupported",
                "engine_name": "Trustlook",
                "engine_update": "20180928",
                "engine_version": "2",
                "method": "blacklist",
                "result": null
            },
            "VBA32": {
                "category": "malicious",
                "engine_name": "VBA32",
                "engine_update": "20180928",
                "engine_version": "3.33.0",
                "method": "blacklist",
                "result": "Hoax.Gen"
            },
            "VIPRE": {
                "category": "malicious",
                "engine_name": "VIPRE",
                "engine_update": "20180928",
                "engine_version": "69908",
                "method": "blacklist",
                "result": "Virus.Win32.sivis.a (v)"
            },
            "ViRobot": {
                "category": "undetected",
                "engine_name": "ViRobot",
                "engine_update": "20180928",
                "engine_version": "2014.3.20.0",
                "method": "blacklist",
                "result": null
            },
            "Webroot": {
                "category": "undetected",
                "engine_name": "Webroot",
                "engine_update": "20180928",
                "engine_version": "1.0.0.403",
                "method": "blacklist",
                "result": null
            },
            "Yandex": {
                "category": "malicious",
                "engine_name": "Yandex",
                "engine_update": "20180927",
                "engine_version": "5.5.1.3",
                "method": "blacklist",
                "result": "Win32.Sivis.A"
            },
            "Zillya": {
                "category": "malicious",
                "engine_name": "Zillya",
                "engine_update": "20180928",
                "engine_version": "2.0.0.3658",
                "method": "blacklist",
                "result": "Trojan.Cosmu.Win32.8809"
            },
            "ZoneAlarm": {
                "category": "malicious",
                "engine_name": "ZoneAlarm",
                "engine_update": "20180925",
                "engine_version": "1.0",
                "method": "blacklist",
                "result": "Virus.Win32.Agent.es"
            },
            "Zoner": {
                "category": "undetected",
                "engine_name": "Zoner",
                "engine_update": "20180927",
                "engine_version": "1.0",
                "method": "blacklist",
                "result": null
            },
            "eGambit": {
                "category": "undetected",
                "engine_name": "eGambit",
                "engine_update": "20180928",
                "engine_version": null,
                "method": "blacklist",
                "result": null
            }
        },
        "last_analysis_stats": {
            "confirmed-timeout": 0,
            "failure": 0,
            "harmless": 0,
            "malicious": 54,
            "suspicious": 0,
            "timeout": 1,
            "type-unsupported": 2,
            "undetected": 14
        },
        "last_modification_date": 1538139886,
        "last_submission_date": 1538139773,
        "magic": "PE32 executable for MS Windows (GUI) Intel 80386 32-bit",
        "md5": "a8b46b24ab4b78d0cef4751ccd76ba82",
        "names": [],
        "pe_info": {
            "entry_point": 4096,
            "imphash": "a8f69eb2cf9f30ea96961c86b4347282",
            "import_list": [
                {
                    "imported_functions": [
                        "GetLastError",
                        "HeapFree",
                        "GetStdHandle",
                        "EnterCriticalSection",
                        "GetFileAttributesA",
                        "WaitForSingleObject",
                        "GetDriveTypeA",
                        "HeapDestroy",
                        "HeapAlloc",
                        "GetModuleFileNameA",
                        "CreatePipe",
                        "GetCurrentProcess",
                        "GetFileSize",
                        "CreateDirectoryA",
                        "GetModuleHandleA",
                        "SetFilePointer",
                        "ReadFile",
                        "WriteFile",
                        "FindFirstFileA",
                        "CloseHandle",
                        "FindNextFileA",
                        "DuplicateHandle",
                        "HeapReAlloc",
                        "SetFileAttributesA",
                        "CreateProcessA",
                        "InitializeCriticalSection",
                        "HeapCreate",
                        "FindClose",
                        "GetTickCount",
                        "CreateFileA",
                        "ExitProcess",
                        "GetCurrentThreadId",
                        "GetCurrentProcessId",
                        "LeaveCriticalSection"
                    ],
                    "library_name": "KERNEL32.dll"
                },
                {
                    "imported_functions": [
                        "strncmp",
                        "memmove",
                        "memset",
                        "strcat",
                        "memcpy",
                        "strcpy",
                        "_strnicmp",
                        "_stricmp",
                        "strlen",
                        "strcmp",
                        "strncpy"
                    ],
                    "library_name": "MSVCRT.dll"
                },
                {
                    "imported_functions": [
                        "ShellExecuteExA"
                    ],
                    "library_name": "SHELL32.DLL"
                },
                {
                    "imported_functions": [
                        "CoInitialize"
                    ],
                    "library_name": "OLE32.DLL"
                },
                {
                    "imported_functions": [
                        "GetWindowThreadProcessId",
                        "GetForegroundWindow",
                        "EnableWindow",
                        "IsWindowVisible",
                        "EnumWindows",
                        "MessageBoxA",
                        "IsWindowEnabled"
                    ],
                    "library_name": "USER32.DLL"
                },
                {
                    "imported_functions": [
                        "InitCommonControls"
                    ],
                    "library_name": "COMCTL32.DLL"
                }
            ],
            "machine_type": 332,
            "overlay": {
                "chi2": 5463761.0,
                "entropy": 5.329669952392578,
                "filetype": "data",
                "md5": "127cef2de4afbd410ef38c0aa16cbfcd",
                "offset": 13312,
                "size": 138616
            },
            "resource_details": [
                {
                    "chi2": 7386.1708984375,
                    "entropy": 4.923219680786133,
                    "filetype": "ASCII text",
                    "lang": "ENGLISH US",
                    "sha256": "be809cba9d14bfb52a969d766992832b10e99e133babcdd99dc6d1bba5597cf7",
                    "type": "RT_MANIFEST"
                }
            ],
            "resource_langs": {
                "ENGLISH US": 1
            },
            "resource_types": {
                "RT_MANIFEST": 1
            },
            "sections": [
                {
                    "entropy": 4.99,
                    "md5": "e300b4c3d365769efc9d62917794c118",
                    "name": ".code",
                    "raw_size": 2048,
                    "virtual_address": 4096,
                    "virtual_size": 1841
                },
                {
                    "entropy": 6.14,
                    "md5": "294d3b0fd2353fdeb72659b76a31361c",
                    "name": ".text",
                    "raw_size": 6656,
                    "virtual_address": 8192,
                    "virtual_size": 6552
                },
                {
                    "entropy": 0.18,
                    "md5": "d3404c0e0f01ffd525aba85527c0eb06",
                    "name": ".rdata",
                    "raw_size": 512,
                    "virtual_address": 16384,
                    "virtual_size": 28
                },
                {
                    "entropy": 4.38,
                    "md5": "c4b71dd7f5b54fa22bf7e30e7c8e71c1",
                    "name": ".data",
                    "raw_size": 2048,
                    "virtual_address": 20480,
                    "virtual_size": 1960
                },
                {
                    "entropy": 4.13,
                    "md5": "6236b80cdab0d5d98a0b858891cb2daf",
                    "name": ".rsrc",
                    "raw_size": 1024,
                    "virtual_address": 24576,
                    "virtual_size": 700
                }
            ],
            "timestamp": 1301832471
        },
        "reputation": 0,
        "sha1": "c8546d098dd50560f3302f89f7deb60ae02be79f",
        "sha256": "0000ef73dda239a6da71f8d0cd8e2bd2a580c6f68a6f74d67e481be3735a9d4d",
        "size": 151928,
        "ssdeep": "1536:Z0nERoZbO3Xe8X9h1Q08pDakhNq06vn4gqLI/vSbWgSANXtY6:ynEOi/X31Q0j/06vn9qLIXSbL46",
        "tags": [
            "peexe",
            "overlay"
        ],
        "times_submitted": 1,
        "total_votes": {
            "harmless": 0,
            "malicious": 0
        },
        "trid": [
            {
                "file_type": "Win32 Executable PureBasic (generic)",
                "probability": 57.4
            },
            {
                "file_type": "Win32 Executable MS Visual C++ (generic)",
                "probability": 17.0
            },
            {
                "file_type": "Win64 Executable (generic)",
                "probability": 15.0
            },
            {
                "file_type": "Win32 Dynamic Link Library (generic)",
                "probability": 3.5
            },
            {
                "file_type": "Win32 Executable (generic)",
                "probability": 2.4
            }
        ],
        "type_description": "Win32 EXE",
        "type_extension": "exe",
        "type_tag": "peexe",
        "unique_sources": 1,
        "vhash": "01505656651d1511z16z220b5z17z13z7fz"
    },
    "id": "0000ef73dda239a6da71f8d0cd8e2bd2a580c6f68a6f74d67e481be3735a9d4d",
    "links": {
        "self": "https://www.virustotal.com/api/v3/files/0000ef73dda239a6da71f8d0cd8e2bd2a580c6f68a6f74d67e481be3735a9d4d"
    },
    "type": "file"
}