{
    "attributes": {
        "authentihash": "6a2258c92bcfad52e7e7e856b9360480fbad1171c3163e4b472d612f562cefc5",
        "creation_date": 708992537,
        "first_submission_date": 1553663027,
        "last_analysis_date": 1553663027,
        "last_analysis_results": {
            "AVG": {
                "category": "malicious",
                "engine_name": "AVG",
                "engine_update": "20190327",
                "engine_version": "18.4.3895.0",
                "method": "blacklist",
                "result": "Win32:Delf-UDU [Trj]"
            },
            "Acronis": {
                "category": "malicious",
                "engine_name": "Acronis",
                "engine_update": "20190327",
                "engine_version": "1.0.1.44",
                "method": "blacklist",
                "result": "suspicious"
            },
            "Ad-Aware": {
                "category": "malicious",
                "engine_name": "Ad-Aware",
                "engine_update": "20190327",
                "engine_version": "3.0.5.370",
                "method": "blacklist",
                "result": "Dropped:Generic.Malware.SN!.60919A19"
            },
            "AegisLab": {
                "category": "malicious",
                "engine_name": "AegisLab",
                "engine_update": "20190327",
                "engine_version": "4.2",
                "method": "blacklist",
                "result": "Worm.Win32.Sytro.lgBr"
            },
            "AhnLab-V3": {
                "category": "malicious",
                "engine_name": "AhnLab-V3",
                "engine_update": "20190326",
                "engine_version": "3.15.0.23609",
                "method": "blacklist",
                "result": "Worm/Win32.Sytro.R233708"
            },
            "Alibaba": {
                "category": "undetected",
                "engine_name": "Alibaba",
                "engine_update": "20190306",
                "engine_version": "0.2.0.3",
                "method": "blacklist",
                "result": null
            },
            "Antiy-AVL": {
                "category": "malicious",
                "engine_name": "Antiy-AVL",
                "engine_update": "20190327",
                "engine_version": "3.0.0.1",
                "method": "blacklist",
                "result": "Worm[P2P]/Win32.Sytro"
            },
            "Arcabit": {
                "category": "malicious",
                "engine_name": "Arcabit",
                "engine_update": "20190327",
                "engine_version": "1.0.0.844",
                "method": "blacklist",
                "result": "Generic.Malware.SN!.60919A19"
            },
            "Avast": {
                "category": "malicious",
                "engine_name": "Avast",
                "engine_update": "20190327",
                "engine_version": "18.4.3895.0",
                "method": "blacklist",
                "result": "Win32:Delf-UDU [Trj]"
            },
            "Avast-Mobile": {
                "category": "undetected",
                "engine_name": "Avast-Mobile",
                "engine_update": "20190326",
                "engine_version": "190326-00",
                "method": "blacklist",
                "result": null
            },
            "Avira": {
                "category": "malicious",
                "engine_name": "Avira",
                "engine_update": "20190326",
                "engine_version": "8.3.3.8",
                "method": "blacklist",
                "result": "TR/ATRAPS.Gen"
            },
            "Babable": {
                "category": "undetected",
                "engine_name": "Babable",
                "engine_update": "20180918",
                "engine_version": "9107201",
                "method": "blacklist",
                "result": null
            },
            "Baidu": {
                "category": "malicious",
                "engine_name": "Baidu",
                "engine_update": "20190318",
                "engine_version": "1.0.0.2",
                "method": "blacklist",
                "result": "Win32.Trojan.Agent.aaw"
            },
            "BitDefender": {
                "category": "malicious",
                "engine_name": "BitDefender",
                "engine_update": "20190327",
                "engine_version": "7.2",
                "method": "blacklist",
                "result": "Dropped:Generic.Malware.SN!.60919A19"
            },
            "Bkav": {
                "category": "malicious",
                "engine_name": "Bkav",
                "engine_update": "20190326",
                "engine_version": "1.3.0.9899",
                "method": "blacklist",
                "result": "W32.FamVT.Sytro.Worm"
            },
            "CAT-QuickHeal": {
                "category": "malicious",
                "engine_name": "CAT-QuickHeal",
                "engine_update": "20190326",
                "engine_version": "14.00",
                "method": "blacklist",
                "result": "Worm.SolternPMF.S4082778"
            },
            "CMC": {
                "category": "malicious",
                "engine_name": "CMC",
                "engine_update": "20190321",
                "engine_version": "1.1.0.977",
                "method": "blacklist",
                "result": "P2P-Worm.Win32.Sytro!O"
            },
            "ClamAV": {
                "category": "malicious",
                "engine_name": "ClamAV",
                "engine_update": "20190326",
                "engine_version": "0.101.2.0",
                "method": "blacklist",
                "result": "Win.Worm.Soltern-1"
            },
            "Comodo": {
                "category": "malicious",
                "engine_name": "Comodo",
                "engine_update": "20190326",
                "engine_version": "30629",
                "method": "blacklist",
                "result": "Packed.Win32.MUPX.Gen@24tbus"
            },
            "CrowdStrike": {
                "category": "malicious",
                "engine_name": "CrowdStrike",
                "engine_update": "20190212",
                "engine_version": "1.0",
                "method": "blacklist",
                "result": "win/malicious_confidence_100% (D)"
            },
            "Cybereason": {
                "category": "malicious",
                "engine_name": "Cybereason",
                "engine_update": "20190325",
                "engine_version": "1.2.449",
                "method": "blacklist",
                "result": "malicious.1b7dee"
            },
            "Cyren": {
                "category": "malicious",
                "engine_name": "Cyren",
                "engine_update": "20190327",
                "engine_version": "6.2.0.1",
                "method": "blacklist",
                "result": "W32/Heuristic-114!Eldorado"
            },
            "DrWeb": {
                "category": "malicious",
                "engine_name": "DrWeb",
                "engine_update": "20190327",
                "engine_version": "7.0.34.11020",
                "method": "blacklist",
                "result": "Win32.HLLW.Sytro"
            },
            "ESET-NOD32": {
                "category": "malicious",
                "engine_name": "ESET-NOD32",
                "engine_update": "20190327",
                "engine_version": "19093",
                "method": "blacklist",
                "result": "a variant of Win32/Soltern.NAA"
            },
            "Emsisoft": {
                "category": "malicious",
                "engine_name": "Emsisoft",
                "engine_update": "20190327",
                "engine_version": "2018.4.0.1029",
                "method": "blacklist",
                "result": "Dropped:Generic.Malware.SN!.60919A19 (B)"
            },
            "Endgame": {
                "category": "malicious",
                "engine_name": "Endgame",
                "engine_update": "20190322",
                "engine_version": "3.0.8",
                "method": "blacklist",
                "result": "malicious (high confidence)"
            },
            "F-Secure": {
                "category": "malicious",
                "engine_name": "F-Secure",
                "engine_update": "20190326",
                "engine_version": "12.0.86.52",
                "method": "blacklist",
                "result": "Trojan.TR/ATRAPS.Gen"
            },
            "FireEye": {
                "category": "malicious",
                "engine_name": "FireEye",
                "engine_update": "20190327",
                "engine_version": "29.7.0.0",
                "method": "blacklist",
                "result": "Generic.mg.1b04c731b7dee35d"
            },
            "Fortinet": {
                "category": "malicious",
                "engine_name": "Fortinet",
                "engine_update": "20190327",
                "engine_version": "5.4.247.0",
                "method": "blacklist",
                "result": "W32/Sytro.AVCT!worm.p2p"
            },
            "GData": {
                "category": "malicious",
                "engine_name": "GData",
                "engine_update": "20190327",
                "engine_version": "A:25.21282B:25.14700",
                "method": "blacklist",
                "result": "Dropped:Generic.Malware.SN!.60919A19"
            },
            "Ikarus": {
                "category": "malicious",
                "engine_name": "Ikarus",
                "engine_update": "20190326",
                "engine_version": "0.1.5.2",
                "method": "blacklist",
                "result": "Virus.Win32.Sytro"
            },
            "Invincea": {
                "category": "malicious",
                "engine_name": "Invincea",
                "engine_update": "20190313",
                "engine_version": "6.3.6.26157",
                "method": "blacklist",
                "result": "heuristic"
            },
            "Jiangmin": {
                "category": "malicious",
                "engine_name": "Jiangmin",
                "engine_update": "20190327",
                "engine_version": "16.0.100",
                "method": "blacklist",
                "result": "Worm/P2P.Sytro.k"
            },
            "K7AntiVirus": {
                "category": "malicious",
                "engine_name": "K7AntiVirus",
                "engine_update": "20190326",
                "engine_version": "11.35.30409",
                "method": "blacklist",
                "result": "Trojan ( 0048ed981 )"
            },
            "K7GW": {
                "category": "malicious",
                "engine_name": "K7GW",
                "engine_update": "20190327",
                "engine_version": "11.35.30410",
                "method": "blacklist",
                "result": "Trojan ( 0048ed981 )"
            },
            "Kaspersky": {
                "category": "malicious",
                "engine_name": "Kaspersky",
                "engine_update": "20190327",
                "engine_version": "15.0.1.13",
                "method": "blacklist",
                "result": "P2P-Worm.Win32.Sytro.vhu"
            },
            "Kingsoft": {
                "category": "undetected",
                "engine_name": "Kingsoft",
                "engine_update": "20190327",
                "engine_version": "2013.8.14.323",
                "method": "blacklist",
                "result": null
            },
            "MAX": {
                "category": "malicious",
                "engine_name": "MAX",
                "engine_update": "20190327",
                "engine_version": "2018.9.12.1",
                "method": "blacklist",
                "result": "malware (ai score=86)"
            },
            "Malwarebytes": {
                "category": "malicious",
                "engine_name": "Malwarebytes",
                "engine_update": "20190327",
                "engine_version": "2.1.1.1115",
                "method": "blacklist",
                "result": "Worm.Soltern"
            },
            "McAfee": {
                "category": "malicious",
                "engine_name": "McAfee",
                "engine_update": "20190327",
                "engine_version": "6.0.6.653",
                "method": "blacklist",
                "result": "W32/Sytro.worm.gen!p2p"
            },
            "McAfee-GW-Edition": {
                "category": "malicious",
                "engine_name": "McAfee-GW-Edition",
                "engine_update": "20190326",
                "engine_version": "v2017.3010",
                "method": "blacklist",
                "result": "BehavesLike.Win32.Sytro.jm"
            },
            "MicroWorld-eScan": {
                "category": "malicious",
                "engine_name": "MicroWorld-eScan",
                "engine_update": "20190327",
                "engine_version": "14.0.297.0",
                "method": "blacklist",
                "result": "Dropped:Generic.Malware.SN!.60919A19"
            },
            "Microsoft": {
                "category": "malicious",
                "engine_name": "Microsoft",
                "engine_update": "20190326",
                "engine_version": "1.1.15800.1",
                "method": "blacklist",
                "result": "Worm:Win32/Soltern!rfn"
            },
            "NANO-Antivirus": {
                "category": "malicious",
                "engine_name": "NANO-Antivirus",
                "engine_update": "20190327",
                "engine_version": "1.0.134.24576",
                "method": "blacklist",
                "result": "Trojan.Win32.Sytro.fyby"
            },
            "Paloalto": {
                "category": "undetected",
                "engine_name": "Paloalto",
                "engine_update": "20190327",
                "engine_version": "1.0",
                "method": "blacklist",
                "result": null
            },
            "Panda": {
                "category": "malicious",
                "engine_name": "Panda",
                "engine_update": "20190326",
                "engine_version": "4.6.4.2",
                "method": "blacklist",
                "result": "Trj/Genetic.gen"
            },
            "Qihoo-360": {
                "category": "malicious",
                "engine_name": "Qihoo-360",
                "engine_update": "20190327",
                "engine_version": "1.0.0.1120",
                "method": "blacklist",
                "result": "HEUR/QVM05.1.1DCF.Malware.Gen"
            },
            "Rising": {
                "category": "malicious",
                "engine_name": "Rising",
                "engine_update": "20190327",
                "engine_version": "25.0.0.24",
                "method": "blacklist",
                "result": "Worm.Soltern!1.A328 (RDM+:cmRtazoxbe4dukohrSCk1EOalVIu)"
            },
            "SUPERAntiSpyware": {
                "category": "undetected",
                "engine_name": "SUPERAntiSpyware",
                "engine_update": "20190321",
                "engine_version": "5.6.0.1032",
                "method": "blacklist",
                "result": null
            },
            "SentinelOne": {
                "category": "malicious",
                "engine_name": "SentinelOne",
                "engine_update": "20190317",
                "engine_version": "1.0.24.302",
                "method": "blacklist",
                "result": "DFI - Malicious PE"
            },
            "Sophos": {
                "category": "malicious",
                "engine_name": "Sophos",
                "engine_update": "20190327",
                "engine_version": "4.98.0",
                "method": "blacklist",
                "result": "W32/Systro-K"
            },
            "SymantecMobileInsight": {
                "category": "type-unsupported",
                "engine_name": "SymantecMobileInsight",
                "engine_update": "20190325",
                "engine_version": "2.0",
                "method": "blacklist",
                "result": null
            },
            "TACHYON": {
                "category": "undetected",
                "engine_name": "TACHYON",
                "engine_update": "20190327",
                "engine_version": "2019-03-27.01",
                "method": "blacklist",
                "result": null
            },
            "Tencent": {
                "category": "malicious",
                "engine_name": "Tencent",
                "engine_update": "20190327",
                "engine_version": "1.0.0.1",
                "method": "blacklist",
                "result": "Trojan.Win32.Dropper.aax"
            },
            "TheHacker": {
                "category": "malicious",
                "engine_name": "TheHacker",
                "engine_update": "20190324",
                "engine_version": "6.8.0.5.4098",
                "method": "blacklist",
                "result": "Trojan/Soltern.naa"
            },
            "TotalDefense": {
                "category": "malicious",
                "engine_name": "TotalDefense",
                "engine_update": "20190326",
                "engine_version": "37.1.62.1",
                "method": "blacklist",
                "result": "Win32/Sytro.A"
            },
            "Trapmine": {
                "category": "malicious",
                "engine_name": "Trapmine",
                "engine_update": "20190325",
                "engine_version": "3.1.52.760",
                "method": "blacklist",
                "result": "malicious.high.ml.score"
            },
            "TrendMicro-HouseCall": {
                "category": "malicious",
                "engine_name": "TrendMicro-HouseCall",
                "engine_update": "20190327",
                "engine_version": "10.0.0.1040",
                "method": "blacklist",
                "result": "Worm.Win32.SYTRO.SMJT"
            },
            "Trustlook": {
                "category": "undetected",
                "engine_name": "Trustlook",
                "engine_update": "20190327",
                "engine_version": "1.0",
                "method": "blacklist",
                "result": null
            },
            "VBA32": {
                "category": "malicious",
                "engine_name": "VBA32",
                "engine_update": "20190326",
                "engine_version": "4.0.0",
                "method": "blacklist",
                "result": "BScope.TrojanDropper.Delf"
            },
            "VIPRE": {
                "category": "malicious",
                "engine_name": "VIPRE",
                "engine_update": "20190327",
                "engine_version": "73994",
                "method": "blacklist",
                "result": "BehavesLike.Win32.Malware.tsc (mx-v)"
            },
            "ViRobot": {
                "category": "undetected",
                "engine_name": "ViRobot",
                "engine_update": "20190326",
                "engine_version": "2014.3.20.0",
                "method": "blacklist",
                "result": null
            },
            "Yandex": {
                "category": "malicious",
                "engine_name": "Yandex",
                "engine_update": "20190326",
                "engine_version": "5.5.1.3",
                "method": "blacklist",
                "result": "Worm.P2P.Sytro!jXCCNCON78M"
            },
            "Zillya": {
                "category": "malicious",
                "engine_name": "Zillya",
                "engine_update": "20190326",
                "engine_version": "2.0.0.3782",
                "method": "blacklist",
                "result": "Worm.Sytro.Win32.4"
            },
            "ZoneAlarm": {
                "category": "malicious",
                "engine_name": "ZoneAlarm",
                "engine_update": "20190327",
                "engine_version": "1.0",
                "method": "blacklist",
                "result": "P2P-Worm.Win32.Sytro.vhu"
            },
            "Zoner": {
                "category": "malicious",
                "engine_name": "Zoner",
                "engine_update": "20190327",
                "engine_version": "1.0",
                "method": "blacklist",
                "result": "Trojan.Win32.27891"
            },
            "eGambit": {
                "category": "malicious",
                "engine_name": "eGambit",
                "engine_update": "20190327",
                "engine_version": "v4.3.6",
                "method": "blacklist",
                "result": "Unsafe.AI_Score_87%"
            }
        },
        "last_analysis_stats": {
            "confirmed-timeout": 0,
            "failure": 0,
            "harmless": 0,
            "malicious": 57,
            "suspicious": 0,
            "timeout": 0,
            "type-unsupported": 1,
            "undetected": 9
        },
        "last_modification_date": 1553664757,
        "last_submission_date": 1553663027,
        "magic": "PE32 executable for MS Windows (GUI) Intel 80386 32-bit",
        "md5": "1b04c731b7dee35dbf09e475ddac3372",
        "names": [],
        "packers": {
            "PEiD": "BobSoft Mini Delphi -> BoB / BobSoft"
        },
        "pe_info": {
            "entry_point": 110776,
            "imphash": "8eb90f63ff7fc0bd388dac1d27b3afce",
            "import_list": [
                {
                    "imported_functions": [
                        "RegFlushKey",
                        "RegCloseKey",
                        "RegQueryValueExA",
                        "RegSetValueExA",
                        "RegCreateKeyExA",
                        "RegOpenKeyExA"
                    ],
                    "library_name": "advapi32.dll"
                },
                {
                    "imported_functions": [
                        "GetSystemTime",
                        "GetLastError",
                        "GetStringTypeExA",
                        "GetStdHandle",
                        "EnterCriticalSection",
                        "FileTimeToDosDateTime",
                        "lstrlenA",
                        "GlobalFree",
                        "WaitForSingleObject",
                        "FreeLibrary",
                        "CopyFileA",
                        "ExitProcess",
                        "GetThreadLocale",
                        "GetVersionExA",
                        "GlobalUnlock",
                        "GetModuleFileNameA",
                        "GlobalHandle",
                        "RtlUnwind",
                        "DeleteCriticalSection",
                        "GetStartupInfoA",
                        "LoadLibraryExA",
                        "GetWindowsDirectoryA",
                        "GetLocaleInfoA",
                        "LocalAlloc",
                        "CreateDirectoryA",
                        "GlobalReAlloc",
                        "UnhandledExceptionFilter",
                        "TlsGetValue",
                        "MultiByteToWideChar",
                        "GetCPInfo",
                        "GetCommandLineA",
                        "GetProcAddress",
                        "FormatMessageA",
                        "SetFilePointer",
                        "RaiseException",
                        "CompareStringA",
                        "CloseHandle",
                        "WideCharToMultiByte",
                        "FileTimeToLocalFileTime",
                        "GetModuleHandleA",
                        "FindFirstFileA",
                        "WriteFile",
                        "EnumCalendarInfoA",
                        "ReadFile",
                        "ResetEvent",
                        "lstrcpynA",
                        "GetACP",
                        "GetDiskFreeSpaceA",
                        "GlobalLock",
                        "GlobalAlloc",
                        "SetEvent",
                        "LocalFree",
                        "InitializeCriticalSection",
                        "VirtualQuery",
                        "VirtualFree",
                        "CreateEventA",
                        "FindClose",
                        "InterlockedDecrement",
                        "Sleep",
                        "GetFileType",
                        "SetEndOfFile",
                        "TlsSetValue",
                        "CreateFileA",
                        "GetTickCount",
                        "GetCurrentThreadId",
                        "LeaveCriticalSection",
                        "VirtualAlloc",
                        "GetFileSize",
                        "InterlockedIncrement"
                    ],
                    "library_name": "KERNEL32.DLL"
                },
                {
                    "imported_functions": [
                        "VariantCopy",
                        "SafeArrayGetLBound",
                        "SafeArrayGetElement",
                        "SafeArrayPtrOfIndex",
                        "SysAllocStringLen",
                        "VariantCopyInd",
                        "VariantClear",
                        "SafeArrayCreate",
                        "SysReAllocStringLen",
                        "SafeArrayGetUBound",
                        "SafeArrayRedim",
                        "SysFreeString",
                        "SafeArrayPutElement",
                        "VariantInit",
                        "VariantChangeTypeEx"
                    ],
                    "library_name": "oleaut32.dll"
                },
                {
                    "imported_functions": [
                        "MessageBoxA",
                        "CharNextA",
                        "GetKeyboardType",
                        "GetSystemMetrics",
                        "LoadStringA"
                    ],
                    "library_name": "user32.dll"
                }
            ],
            "machine_type": 332,
            "overlay": {
                "chi2": 318.8103332519531,
                "entropy": 7.975748538970947,
                "filetype": "binary Computer Graphics Metafile",
                "md5": "c701ebb024d942d66bbed1d0f4c0969f",
                "offset": 665088,
                "size": 10682
            },
            "resource_details": [
                {
                    "chi2": 49834.828125,
                    "entropy": 3.1390764713287354,
                    "filetype": "ASCII text",
                    "lang": "NEUTRAL",
                    "sha256": "51b2f82e0f557187edb07648da596609046cb53a0a3c322074952c5435491047",
                    "type": "RT_STRING"
                },
                {
                    "chi2": 61649.78515625,
                    "entropy": 3.195587635040283,
                    "filetype": "ASCII text",
                    "lang": "NEUTRAL",
                    "sha256": "1667723de7b2370ba03c418d042f7e41d9231f1538d20ea4e531f9306e6c9764",
                    "type": "RT_STRING"
                },
                {
                    "chi2": 20643.0859375,
                    "entropy": 2.9434142112731934,
                    "filetype": "ASCII text",
                    "lang": "NEUTRAL",
                    "sha256": "0bab6e5a1259540a8def510ea55891a64d06c7c40dbbe8eab251f5d60993aabe",
                    "type": "RT_STRING"
                },
                {
                    "chi2": 17259.03125,
                    "entropy": 2.87939715385437,
                    "filetype": "ASCII text",
                    "lang": "NEUTRAL",
                    "sha256": "580d974dbf7953e0e47920170ddb9e8dba22e8f3561e059ce4f3774056c876a1",
                    "type": "RT_STRING"
                },
                {
                    "chi2": 52957.8984375,
                    "entropy": 3.232722282409668,
                    "filetype": "ASCII text",
                    "lang": "NEUTRAL",
                    "sha256": "189bbf82fe004b671309dec257b2f3f0aedf8ccb1c35fd52499c8600e61ba8a1",
                    "type": "RT_STRING"
                },
                {
                    "chi2": 61339.0546875,
                    "entropy": 3.240624189376831,
                    "filetype": "ASCII text",
                    "lang": "NEUTRAL",
                    "sha256": "f00071bb1b5f37d12500223b2e453a83710d906a00965283f873a3867fc02e32",
                    "type": "RT_STRING"
                },
                {
                    "chi2": 50375.5859375,
                    "entropy": 3.185905933380127,
                    "filetype": "ASCII text",
                    "lang": "NEUTRAL",
                    "sha256": "ce28bb03eda08a374750ce5be8f32f5739cfed85bf3b6d667be80938fd92615b",
                    "type": "RT_STRING"
                },
                {
                    "chi2": 240.0,
                    "entropy": 4.0,
                    "filetype": "data",
                    "lang": "NEUTRAL",
                    "sha256": "88d14cc6638af8a0836f6d868dfab60df92907a2d7becaefbbd7e007acb75610",
                    "type": "RT_RCDATA"
                },
                {
                    "chi2": 2664.444091796875,
                    "entropy": 4.789161205291748,
                    "filetype": "data",
                    "lang": "NEUTRAL",
                    "sha256": "49dfaedb4c54d73531ba769b78ab06c245bd0915a2fd8da15c98011c7dffc15c",
                    "type": "RT_RCDATA"
                }
            ],
            "resource_langs": {
                "NEUTRAL": 9
            },
            "resource_types": {
                "RT_RCDATA": 2,
                "RT_STRING": 7
            },
            "sections": [
                {
                    "entropy": 4.72,
                    "md5": "b3121d2f19080ba5f62777a55a9a41fb",
                    "name": "UPX0",
                    "raw_size": 466944,
                    "virtual_address": 4096,
                    "virtual_size": 466944
                },
                {
                    "entropy": 5.31,
                    "md5": "deabddb58d06a815d742271536dcc066",
                    "name": "UPX1",
                    "raw_size": 193536,
                    "virtual_address": 471040,
                    "virtual_size": 196608
                },
                {
                    "entropy": 2.88,
                    "md5": "0f3c414fdc40b73d1393c606c1e08758",
                    "name": ".rsrc",
                    "raw_size": 1024,
                    "virtual_address": 667648,
                    "virtual_size": 4096
                },
                {
                    "entropy": 4.52,
                    "md5": "81edf50990e50b4cd813fc3838ec3b3c",
                    "name": ".imports",
                    "raw_size": 2560,
                    "virtual_address": 671744,
                    "virtual_size": 4096
                }
            ],
            "timestamp": 708992537
        },
        "reputation": 0,
        "sha1": "bc863d5cbd0624fb5d480e743ed36291bd485613",
        "sha256": "0000df672d1762db5a5260d47352ee250bf401a92513ddf8d34795adb083bb83",
        "size": 675770,
        "ssdeep": "6144:808p9uIVlfV3p2Q/DyzdYwg92krimolrjzKgga5fD+tKXz7+GdQ6ee+LaP/pn0sp:A9TbflpFTpl76ee+LaP/9ToBKQqmC",
        "tags": [
            "peexe",
            "bobsoft",
            "overlay"
        ],
        "times_submitted": 1,
        "total_votes": {
            "harmless": 0,
            "malicious": 0
        },
        "trid": [
            {
                "file_type": "Win32 EXE PECompact compressed (generic)",
                "probability": 32.3
            },
            {
                "file_type": "UPX compressed Win32 Executable",
                "probability": 21.0
            },
            {
                "file_type": "Win32 EXE Yoda's Crypter",
                "probability": 20.6
            },
            {
                "file_type": "Win32 Executable Delphi generic",
                "probability": 11.0
            },
            {
                "file_type": "Win32 Dynamic Link Library (generic)",
                "probability": 5.1
            }
        ],
        "type_description": "Win32 EXE",
        "type_extension": "exe",
        "type_tag": "peexe",
        "unique_sources": 1,
        "vhash": "06504e5f5d1d1039z49zcbz4fz"
    },
    "id": "0000df672d1762db5a5260d47352ee250bf401a92513ddf8d34795adb083bb83",
    "links": {
        "self": "https://www.virustotal.com/api/v3/files/0000df672d1762db5a5260d47352ee250bf401a92513ddf8d34795adb083bb83"
    },
    "type": "file"
}