{
    "attributes": {
        "authentihash": "9625c74f9ea7ea9be1525b06fb075e2050a17b6dac92741a2a5618f44a3e90e7",
        "creation_date": 1422330987,
        "first_submission_date": 1504286988,
        "last_analysis_date": 1526974056,
        "last_analysis_results": {
            "ALYac": {
                "category": "malicious",
                "engine_name": "ALYac",
                "engine_update": "20180522",
                "engine_version": "1.1.1.5",
                "method": "blacklist",
                "result": "Trojan.GenericKD.40270029"
            },
            "AVG": {
                "category": "malicious",
                "engine_name": "AVG",
                "engine_update": "20180522",
                "engine_version": "18.4.3895.0",
                "method": "blacklist",
                "result": "Win32:Dropper-OXK [Drp]"
            },
            "AVware": {
                "category": "malicious",
                "engine_name": "AVware",
                "engine_update": "20180522",
                "engine_version": "1.5.0.42",
                "method": "blacklist",
                "result": "Trojan.Win32.Generic!BT"
            },
            "Ad-Aware": {
                "category": "malicious",
                "engine_name": "Ad-Aware",
                "engine_update": "20180522",
                "engine_version": "3.0.5.370",
                "method": "blacklist",
                "result": "Trojan.GenericKD.40270029"
            },
            "AegisLab": {
                "category": "malicious",
                "engine_name": "AegisLab",
                "engine_update": "20180522",
                "engine_version": "4.2",
                "method": "blacklist",
                "result": "Troj.Dropper.W32.Dinwod.toVw"
            },
            "AhnLab-V3": {
                "category": "malicious",
                "engine_name": "AhnLab-V3",
                "engine_update": "20180522",
                "engine_version": "3.12.1.20782",
                "method": "blacklist",
                "result": "Trojan/Win32.OnlineGameHack.C33730"
            },
            "Alibaba": {
                "category": "type-unsupported",
                "engine_name": "Alibaba",
                "engine_update": "20180522",
                "engine_version": "1.0",
                "method": "blacklist",
                "result": null
            },
            "Antiy-AVL": {
                "category": "malicious",
                "engine_name": "Antiy-AVL",
                "engine_update": "20180522",
                "engine_version": "3.0.0.1",
                "method": "blacklist",
                "result": "Trojan[Dropper]/Win32.Dinwod"
            },
            "Arcabit": {
                "category": "malicious",
                "engine_name": "Arcabit",
                "engine_update": "20180522",
                "engine_version": "1.0.0.831",
                "method": "blacklist",
                "result": "Trojan.Generic.D26678CD"
            },
            "Avast": {
                "category": "malicious",
                "engine_name": "Avast",
                "engine_update": "20180522",
                "engine_version": "18.4.3895.0",
                "method": "blacklist",
                "result": "Win32:Dropper-OXK [Drp]"
            },
            "Avast-Mobile": {
                "category": "undetected",
                "engine_name": "Avast-Mobile",
                "engine_update": "20180522",
                "engine_version": "180522-00",
                "method": "blacklist",
                "result": null
            },
            "Avira": {
                "category": "malicious",
                "engine_name": "Avira",
                "engine_update": "20180522",
                "engine_version": "8.3.3.6",
                "method": "blacklist",
                "result": "TR/Spy.Gen"
            },
            "Babable": {
                "category": "malicious",
                "engine_name": "Babable",
                "engine_update": "20180406",
                "engine_version": "9107201",
                "method": "blacklist",
                "result": "Malware.HighConfidence"
            },
            "Baidu": {
                "category": "malicious",
                "engine_name": "Baidu",
                "engine_update": "20180522",
                "engine_version": "1.0.0.2",
                "method": "blacklist",
                "result": "Win32.Trojan.Agent.acb"
            },
            "BitDefender": {
                "category": "malicious",
                "engine_name": "BitDefender",
                "engine_update": "20180522",
                "engine_version": "7.2",
                "method": "blacklist",
                "result": "Trojan.GenericKD.40270029"
            },
            "Bkav": {
                "category": "malicious",
                "engine_name": "Bkav",
                "engine_update": "20180522",
                "engine_version": "1.3.0.9466",
                "method": "blacklist",
                "result": "W32.FamVT.DinwoodAATTC.Worm"
            },
            "CAT-QuickHeal": {
                "category": "malicious",
                "engine_name": "CAT-QuickHeal",
                "engine_update": "20180522",
                "engine_version": "14.00",
                "method": "blacklist",
                "result": "Trojan.Zenshirsh.SL7"
            },
            "CMC": {
                "category": "undetected",
                "engine_name": "CMC",
                "engine_update": "20180522",
                "engine_version": "1.1.0.977",
                "method": "blacklist",
                "result": null
            },
            "ClamAV": {
                "category": "malicious",
                "engine_name": "ClamAV",
                "engine_update": "20180521",
                "engine_version": "0.99.2.0",
                "method": "blacklist",
                "result": "Win.Trojan.Agent-1388676"
            },
            "Comodo": {
                "category": "undetected",
                "engine_name": "Comodo",
                "engine_update": "20180522",
                "engine_version": null,
                "method": "blacklist",
                "result": null
            },
            "CrowdStrike": {
                "category": "type-unsupported",
                "engine_name": "CrowdStrike",
                "engine_update": "20180202",
                "engine_version": "1.0",
                "method": "blacklist",
                "result": null
            },
            "Cybereason": {
                "category": "type-unsupported",
                "engine_name": "Cybereason",
                "engine_update": null,
                "engine_version": null,
                "method": "blacklist",
                "result": null
            },
            "Cylance": {
                "category": "malicious",
                "engine_name": "Cylance",
                "engine_update": "20180522",
                "engine_version": "2.3.1.101",
                "method": "blacklist",
                "result": "Unsafe"
            },
            "Cyren": {
                "category": "malicious",
                "engine_name": "Cyren",
                "engine_update": "20180522",
                "engine_version": "6.0.0.4",
                "method": "blacklist",
                "result": "W32/S-f9cb8831!Eldorado"
            },
            "DrWeb": {
                "category": "malicious",
                "engine_name": "DrWeb",
                "engine_update": "20180522",
                "engine_version": "7.0.28.2020",
                "method": "blacklist",
                "result": "Trojan.Inject1.58305"
            },
            "ESET-NOD32": {
                "category": "malicious",
                "engine_name": "ESET-NOD32",
                "engine_update": "20180522",
                "engine_version": "17426",
                "method": "blacklist",
                "result": "a variant of Win32/Agent.XFC"
            },
            "Emsisoft": {
                "category": "malicious",
                "engine_name": "Emsisoft",
                "engine_update": "20180522",
                "engine_version": "4.0.2.899",
                "method": "blacklist",
                "result": "Trojan.GenericKD.40270029 (B)"
            },
            "Endgame": {
                "category": "malicious",
                "engine_name": "Endgame",
                "engine_update": "20180507",
                "engine_version": "2.1.2",
                "method": "blacklist",
                "result": "malicious (moderate confidence)"
            },
            "F-Prot": {
                "category": "malicious",
                "engine_name": "F-Prot",
                "engine_update": "20180522",
                "engine_version": "4.7.1.166",
                "method": "blacklist",
                "result": "W32/S-f9cb8831!Eldorado"
            },
            "F-Secure": {
                "category": "malicious",
                "engine_name": "F-Secure",
                "engine_update": "20180522",
                "engine_version": "11.0.19100.45",
                "method": "blacklist",
                "result": "Trojan.GenericKD.40270029"
            },
            "Fortinet": {
                "category": "malicious",
                "engine_name": "Fortinet",
                "engine_update": "20180522",
                "engine_version": "5.4.247.0",
                "method": "blacklist",
                "result": "W32/Agent.OJQ!tr.spy"
            },
            "GData": {
                "category": "malicious",
                "engine_name": "GData",
                "engine_update": "20180522",
                "engine_version": "A:25.17140B:25.12314",
                "method": "blacklist",
                "result": "Win32.Trojan.Agent.WP"
            },
            "Ikarus": {
                "category": "malicious",
                "engine_name": "Ikarus",
                "engine_update": "20180522",
                "engine_version": "0.1.5.2",
                "method": "blacklist",
                "result": "Trojan.Win32.Agent"
            },
            "Invincea": {
                "category": "malicious",
                "engine_name": "Invincea",
                "engine_update": "20180503",
                "engine_version": "6.3.4.26036",
                "method": "blacklist",
                "result": "heuristic"
            },
            "Jiangmin": {
                "category": "malicious",
                "engine_name": "Jiangmin",
                "engine_update": "20180522",
                "engine_version": "16.0.100",
                "method": "blacklist",
                "result": "TrojanDropper.Dinwod.ale"
            },
            "K7AntiVirus": {
                "category": "malicious",
                "engine_name": "K7AntiVirus",
                "engine_update": "20180522",
                "engine_version": "10.47.27218",
                "method": "blacklist",
                "result": "Trojan ( 000aef511 )"
            },
            "K7GW": {
                "category": "malicious",
                "engine_name": "K7GW",
                "engine_update": "20180522",
                "engine_version": "10.47.27217",
                "method": "blacklist",
                "result": "Trojan ( 000aef511 )"
            },
            "Kaspersky": {
                "category": "malicious",
                "engine_name": "Kaspersky",
                "engine_update": "20180522",
                "engine_version": "15.0.1.13",
                "method": "blacklist",
                "result": "Trojan-Dropper.Win32.Dinwod.acqn"
            },
            "Kingsoft": {
                "category": "undetected",
                "engine_name": "Kingsoft",
                "engine_update": "20180522",
                "engine_version": "2013.8.14.323",
                "method": "blacklist",
                "result": null
            },
            "MAX": {
                "category": "malicious",
                "engine_name": "MAX",
                "engine_update": "20180522",
                "engine_version": "2017.11.15.1",
                "method": "blacklist",
                "result": "malware (ai score=80)"
            },
            "Malwarebytes": {
                "category": "malicious",
                "engine_name": "Malwarebytes",
                "engine_update": "20180522",
                "engine_version": "2.1.1.1115",
                "method": "blacklist",
                "result": "Trojan.Dropper"
            },
            "McAfee": {
                "category": "malicious",
                "engine_name": "McAfee",
                "engine_update": "20180522",
                "engine_version": "6.0.6.653",
                "method": "blacklist",
                "result": "Dropper-FVF!AB0396EEFD87"
            },
            "McAfee-GW-Edition": {
                "category": "malicious",
                "engine_name": "McAfee-GW-Edition",
                "engine_update": "20180522",
                "engine_version": "v2017.2786",
                "method": "blacklist",
                "result": "BehavesLike.Win32.Dropper.ch"
            },
            "MicroWorld-eScan": {
                "category": "malicious",
                "engine_name": "MicroWorld-eScan",
                "engine_update": "20180522",
                "engine_version": "14.0.297.0",
                "method": "blacklist",
                "result": "Trojan.GenericKD.40270029"
            },
            "Microsoft": {
                "category": "malicious",
                "engine_name": "Microsoft",
                "engine_update": "20180522",
                "engine_version": "1.1.14800.3",
                "method": "blacklist",
                "result": "TrojanDropper:Win32/Dinwod.B!bit"
            },
            "NANO-Antivirus": {
                "category": "malicious",
                "engine_name": "NANO-Antivirus",
                "engine_update": "20180522",
                "engine_version": "1.0.106.22618",
                "method": "blacklist",
                "result": "Trojan.Win32.Dinwod.ejafor"
            },
            "Paloalto": {
                "category": "undetected",
                "engine_name": "Paloalto",
                "engine_update": "20180522",
                "engine_version": "1.0",
                "method": "blacklist",
                "result": null
            },
            "Panda": {
                "category": "undetected",
                "engine_name": "Panda",
                "engine_update": "20180522",
                "engine_version": "4.6.4.2",
                "method": "blacklist",
                "result": null
            },
            "Qihoo-360": {
                "category": "malicious",
                "engine_name": "Qihoo-360",
                "engine_update": "20180522",
                "engine_version": "1.0.0.1120",
                "method": "blacklist",
                "result": "Win32/Trojan.PSW.GameOnline.GF"
            },
            "Rising": {
                "category": "undetected",
                "engine_name": "Rising",
                "engine_update": "20180522",
                "engine_version": "25.0.0.1",
                "method": "blacklist",
                "result": null
            },
            "SUPERAntiSpyware": {
                "category": "malicious",
                "engine_name": "SUPERAntiSpyware",
                "engine_update": "20180522",
                "engine_version": "5.6.0.1032",
                "method": "blacklist",
                "result": "Trojan.Agent/Gen-Dropper"
            },
            "SentinelOne": {
                "category": "malicious",
                "engine_name": "SentinelOne",
                "engine_update": "20180225",
                "engine_version": "1.0.15.206",
                "method": "blacklist",
                "result": "static engine - malicious"
            },
            "Sophos": {
                "category": "malicious",
                "engine_name": "Sophos",
                "engine_update": "20180522",
                "engine_version": "4.98.0",
                "method": "blacklist",
                "result": "Troj/Eydrop-A"
            },
            "Symantec": {
                "category": "malicious",
                "engine_name": "Symantec",
                "engine_update": "20180522",
                "engine_version": "1.6.0.0",
                "method": "blacklist",
                "result": "Trojan.Gen"
            },
            "SymantecMobileInsight": {
                "category": "type-unsupported",
                "engine_name": "SymantecMobileInsight",
                "engine_update": "20180522",
                "engine_version": "1.0.0.35_220",
                "method": "blacklist",
                "result": null
            },
            "Tencent": {
                "category": "malicious",
                "engine_name": "Tencent",
                "engine_update": "20180522",
                "engine_version": "1.0.0.1",
                "method": "blacklist",
                "result": "Win32.Trojan-dropper.Dinwod.Llqp"
            },
            "TheHacker": {
                "category": "malicious",
                "engine_name": "TheHacker",
                "engine_update": "20180516",
                "engine_version": "6.8.0.5.2838",
                "method": "blacklist",
                "result": "Trojan/Agent.xfc"
            },
            "TotalDefense": {
                "category": "malicious",
                "engine_name": "TotalDefense",
                "engine_update": "20180520",
                "engine_version": "37.1.62.1",
                "method": "blacklist",
                "result": "Win32/Oflwr.A!crypt"
            },
            "TrendMicro": {
                "category": "malicious",
                "engine_name": "TrendMicro",
                "engine_update": "20180522",
                "engine_version": "10.0.0.1040",
                "method": "blacklist",
                "result": "TSPY_EYDROP.SMA"
            },
            "TrendMicro-HouseCall": {
                "category": "malicious",
                "engine_name": "TrendMicro-HouseCall",
                "engine_update": "20180522",
                "engine_version": "9.950.0.1006",
                "method": "blacklist",
                "result": "TSPY_EYDROP.SMA"
            },
            "Trustlook": {
                "category": "type-unsupported",
                "engine_name": "Trustlook",
                "engine_update": "20180522",
                "engine_version": "2",
                "method": "blacklist",
                "result": null
            },
            "VBA32": {
                "category": "malicious",
                "engine_name": "VBA32",
                "engine_update": "20180522",
                "engine_version": "3.12.32.0",
                "method": "blacklist",
                "result": "Trojan.Inject"
            },
            "VIPRE": {
                "category": "malicious",
                "engine_name": "VIPRE",
                "engine_update": "20180522",
                "engine_version": "66860",
                "method": "blacklist",
                "result": "Trojan.Win32.Generic!BT"
            },
            "ViRobot": {
                "category": "malicious",
                "engine_name": "ViRobot",
                "engine_update": "20180522",
                "engine_version": "2014.3.20.0",
                "method": "blacklist",
                "result": "Trojan.Win32.Agent.69310"
            },
            "Webroot": {
                "category": "malicious",
                "engine_name": "Webroot",
                "engine_update": "20180522",
                "engine_version": "1.0.0.403",
                "method": "blacklist",
                "result": "W32.Trojan.Agent.Gen"
            },
            "Yandex": {
                "category": "malicious",
                "engine_name": "Yandex",
                "engine_update": "20180522",
                "engine_version": "5.5.1.3",
                "method": "blacklist",
                "result": "Trojan.DR.Dinwod!dCCk6/8cSJk"
            },
            "Zillya": {
                "category": "malicious",
                "engine_name": "Zillya",
                "engine_update": "20180521",
                "engine_version": "2.0.0.3557",
                "method": "blacklist",
                "result": "Dropper.DinwodGen.Win32.1"
            },
            "ZoneAlarm": {
                "category": "malicious",
                "engine_name": "ZoneAlarm",
                "engine_update": "20180522",
                "engine_version": "1.0",
                "method": "blacklist",
                "result": "Trojan-Dropper.Win32.Dinwod.acqn"
            },
            "Zoner": {
                "category": "undetected",
                "engine_name": "Zoner",
                "engine_update": "20180522",
                "engine_version": "1.0",
                "method": "blacklist",
                "result": null
            },
            "eGambit": {
                "category": "undetected",
                "engine_name": "eGambit",
                "engine_update": "20180522",
                "engine_version": null,
                "method": "blacklist",
                "result": null
            },
            "nProtect": {
                "category": "undetected",
                "engine_name": "nProtect",
                "engine_update": "20180522",
                "engine_version": "2018-05-22.02",
                "method": "blacklist",
                "result": null
            }
        },
        "last_analysis_stats": {
            "confirmed-timeout": 0,
            "failure": 0,
            "harmless": 0,
            "malicious": 56,
            "suspicious": 0,
            "timeout": 0,
            "type-unsupported": 5,
            "undetected": 10
        },
        "last_modification_date": 1526994527,
        "last_submission_date": 1526974056,
        "magic": "PE32 executable for MS Windows (GUI) Intel 80386 32-bit",
        "md5": "ab0396eefd872da8b3a53420389defd5",
        "names": [
            "ab0396eefd872da8b3a53420389defd5"
        ],
        "packers": {
            "F-PROT": "UPX_LZMA",
            "PEiD": "UPX 2.93 [LZMA] -> Markus Oberhumer, Laszlo Molnar & John Reiser"
        },
        "pe_info": {
            "entry_point": 149056,
            "imphash": "406c785a6e2c6970c1e8ed62877e197b",
            "import_list": [
                {
                    "imported_functions": [
                        "PathFileExistsA"
                    ],
                    "library_name": "SHLWAPI.dll"
                },
                {
                    "imported_functions": [
                        "VirtualFree",
                        "ExitProcess",
                        "VirtualProtect",
                        "LoadLibraryA",
                        "VirtualAlloc",
                        "GetProcAddress"
                    ],
                    "library_name": "KERNEL32.DLL"
                },
                {
                    "imported_functions": [
                        "atoi"
                    ],
                    "library_name": "MSVCRT.dll"
                },
                {
                    "imported_functions": [
                        "wsprintfA"
                    ],
                    "library_name": "USER32.dll"
                }
            ],
            "machine_type": 332,
            "overlay": {
                "chi2": 569267.125,
                "entropy": 4.958852767944336,
                "filetype": "ASCII text",
                "md5": "2c14f3afc0d78519b211ad02a4024df6",
                "offset": 43008,
                "size": 71123
            },
            "sections": [
                {
                    "entropy": 0.0,
                    "md5": "d41d8cd98f00b204e9800998ecf8427e",
                    "name": "UPX0",
                    "raw_size": 0,
                    "virtual_address": 4096,
                    "virtual_size": 106496
                },
                {
                    "entropy": 7.97,
                    "md5": "f7aa81250ba37869900138a6b59a55ec",
                    "name": "UPX1",
                    "raw_size": 41472,
                    "virtual_address": 110592,
                    "virtual_size": 45056
                },
                {
                    "entropy": 2.93,
                    "md5": "acb8e418c691779c7059b0a8588cc9c4",
                    "name": "UPX2",
                    "raw_size": 512,
                    "virtual_address": 155648,
                    "virtual_size": 4096
                }
            ],
            "timestamp": 1422330987
        },
        "reputation": 0,
        "sha1": "11d551653a79a105b290bab253a2fea2bf29628b",
        "sha256": "0000bae11b04eb49a09ab135f405b510256cda1c877d17aa4476c2df66c1e0b7",
        "size": 114131,
        "ssdeep": "3072:0hOmTsF93UYfwC6GIoutXZKmCqG2peovvZ+WLpH5JQ2O:0cm4FmowdHoS7zNl3Z+WFDO",
        "tags": [
            "peexe",
            "upx",
            "overlay"
        ],
        "times_submitted": 2,
        "total_votes": {
            "harmless": 0,
            "malicious": 0
        },
        "trid": [
            {
                "file_type": "UPX compressed Win32 Executable",
                "probability": 38.2
            },
            {
                "file_type": "Win32 EXE Yoda's Crypter",
                "probability": 37.5
            },
            {
                "file_type": "Win32 Dynamic Link Library (generic)",
                "probability": 9.2
            },
            {
                "file_type": "Win32 Executable (generic)",
                "probability": 6.3
            },
            {
                "file_type": "OS/2 Executable (generic)",
                "probability": 2.8
            }
        ],
        "type_description": "Win32 EXE",
        "type_extension": "exe",
        "type_tag": "peexe",
        "unique_sources": 2,
        "vhash": "01503e0f7d1bz601hz11z1fz"
    },
    "id": "0000bae11b04eb49a09ab135f405b510256cda1c877d17aa4476c2df66c1e0b7",
    "links": {
        "self": "https://www.virustotal.com/api/v3/files/0000bae11b04eb49a09ab135f405b510256cda1c877d17aa4476c2df66c1e0b7"
    },
    "type": "file"
}