{
    "attributes": {
        "authentihash": "bbf45bd28e49a884f60696c1ffcf81dee4803bf9d98ee5510c16096dea54ac06",
        "creation_date": 1190215264,
        "first_submission_date": 1497547127,
        "last_analysis_date": 1497547127,
        "last_analysis_results": {
            "ALYac": {
                "category": "malicious",
                "engine_name": "ALYac",
                "engine_update": "20170615",
                "engine_version": "1.0.1.9",
                "method": "blacklist",
                "result": "Win32.SlugIn.A"
            },
            "AVG": {
                "category": "malicious",
                "engine_name": "AVG",
                "engine_update": "20170615",
                "engine_version": "8.0.1489.320",
                "method": "blacklist",
                "result": "Win32:Patched-HO [Trj]"
            },
            "AVware": {
                "category": "malicious",
                "engine_name": "AVware",
                "engine_update": "20170615",
                "engine_version": "1.5.0.42",
                "method": "blacklist",
                "result": "Virus.Win32.Slugin.a (v)"
            },
            "Ad-Aware": {
                "category": "malicious",
                "engine_name": "Ad-Aware",
                "engine_update": "20170615",
                "engine_version": "3.0.3.1010",
                "method": "blacklist",
                "result": "Win32.SlugIn.A"
            },
            "AegisLab": {
                "category": "malicious",
                "engine_name": "AegisLab",
                "engine_update": "20170615",
                "engine_version": "4.2",
                "method": "blacklist",
                "result": "Troj.Spy.mt4a"
            },
            "AhnLab-V3": {
                "category": "malicious",
                "engine_name": "AhnLab-V3",
                "engine_update": "20170615",
                "engine_version": "3.9.1.17781",
                "method": "blacklist",
                "result": "Win32/Slugin"
            },
            "Alibaba": {
                "category": "type-unsupported",
                "engine_name": "Alibaba",
                "engine_update": "20170615",
                "engine_version": "1.0",
                "method": "blacklist",
                "result": null
            },
            "Arcabit": {
                "category": "malicious",
                "engine_name": "Arcabit",
                "engine_update": "20170615",
                "engine_version": "1.0.0.806",
                "method": "blacklist",
                "result": "Win32.SlugIn.A"
            },
            "Avast": {
                "category": "malicious",
                "engine_name": "Avast",
                "engine_update": "20170615",
                "engine_version": "8.0.1489.320",
                "method": "blacklist",
                "result": "Win32:Patched-HO [Trj]"
            },
            "Avira": {
                "category": "malicious",
                "engine_name": "Avira",
                "engine_update": "20170615",
                "engine_version": "8.3.3.4",
                "method": "blacklist",
                "result": "W32/Slugin.A"
            },
            "Baidu": {
                "category": "malicious",
                "engine_name": "Baidu",
                "engine_update": "20170615",
                "engine_version": "1.0.0.2",
                "method": "blacklist",
                "result": "Win32.Virus.Slugin.a"
            },
            "BitDefender": {
                "category": "malicious",
                "engine_name": "BitDefender",
                "engine_update": "20170615",
                "engine_version": "7.2",
                "method": "blacklist",
                "result": "Win32.SlugIn.A"
            },
            "Bkav": {
                "category": "malicious",
                "engine_name": "Bkav",
                "engine_update": "20170615",
                "engine_version": "1.3.0.8876",
                "method": "blacklist",
                "result": "W32.OlayFara.PE"
            },
            "CAT-QuickHeal": {
                "category": "malicious",
                "engine_name": "CAT-QuickHeal",
                "engine_update": "20170615",
                "engine_version": "14.00",
                "method": "blacklist",
                "result": "W32.Slugin.A"
            },
            "CMC": {
                "category": "malicious",
                "engine_name": "CMC",
                "engine_update": "20170615",
                "engine_version": "1.1.0.977",
                "method": "blacklist",
                "result": "Trojan.Win32.Patch.1!O"
            },
            "ClamAV": {
                "category": "malicious",
                "engine_name": "ClamAV",
                "engine_update": "20170615",
                "engine_version": "0.99.2.0",
                "method": "blacklist",
                "result": "Win.Spyware.59563-2"
            },
            "Comodo": {
                "category": "malicious",
                "engine_name": "Comodo",
                "engine_update": "20170615",
                "engine_version": "27282",
                "method": "blacklist",
                "result": "TrojWare.Win32.Patched.Q"
            },
            "CrowdStrike": {
                "category": "malicious",
                "engine_name": "CrowdStrike",
                "engine_update": "20170420",
                "engine_version": "1.0",
                "method": "blacklist",
                "result": "malicious_confidence_100% (D)"
            },
            "Cyren": {
                "category": "malicious",
                "engine_name": "Cyren",
                "engine_update": "20170615",
                "engine_version": "5.4.30.7",
                "method": "blacklist",
                "result": "W32/Slugin.B"
            },
            "DrWeb": {
                "category": "malicious",
                "engine_name": "DrWeb",
                "engine_update": "20170615",
                "engine_version": "7.0.28.2020",
                "method": "blacklist",
                "result": "Win32.Wplugin.2"
            },
            "ESET-NOD32": {
                "category": "malicious",
                "engine_name": "ESET-NOD32",
                "engine_update": "20170615",
                "engine_version": "15589",
                "method": "blacklist",
                "result": "Win32/Slugin.A"
            },
            "Emsisoft": {
                "category": "malicious",
                "engine_name": "Emsisoft",
                "engine_update": "20170615",
                "engine_version": "4.0.1.883",
                "method": "blacklist",
                "result": "Win32.SlugIn.A (B)"
            },
            "Endgame": {
                "category": "malicious",
                "engine_name": "Endgame",
                "engine_update": "20170614",
                "engine_version": "0.7.1",
                "method": "blacklist",
                "result": "malicious (moderate confidence)"
            },
            "F-Prot": {
                "category": "malicious",
                "engine_name": "F-Prot",
                "engine_update": "20170615",
                "engine_version": "4.7.1.166",
                "method": "blacklist",
                "result": "W32/Slugin.B"
            },
            "F-Secure": {
                "category": "malicious",
                "engine_name": "F-Secure",
                "engine_update": "20170615",
                "engine_version": "11.0.19100.45",
                "method": "blacklist",
                "result": "Win32.SlugIn.A"
            },
            "Fortinet": {
                "category": "malicious",
                "engine_name": "Fortinet",
                "engine_update": "20170615",
                "engine_version": "5.4.233.0",
                "method": "blacklist",
                "result": "W32/Wplug.A"
            },
            "GData": {
                "category": "malicious",
                "engine_name": "GData",
                "engine_update": "20170615",
                "engine_version": "A:25.12877B:25.9776",
                "method": "blacklist",
                "result": "Win32.Virus.Slugin.A"
            },
            "Ikarus": {
                "category": "malicious",
                "engine_name": "Ikarus",
                "engine_update": "20170615",
                "engine_version": "0.1.5.2",
                "method": "blacklist",
                "result": "Virus.Win32.Slugin"
            },
            "Invincea": {
                "category": "undetected",
                "engine_name": "Invincea",
                "engine_update": "20170607",
                "engine_version": "6.3.0.25415",
                "method": "blacklist",
                "result": null
            },
            "Jiangmin": {
                "category": "malicious",
                "engine_name": "Jiangmin",
                "engine_update": "20170615",
                "engine_version": "16.0.100",
                "method": "blacklist",
                "result": "Win32/PatchFile.bi"
            },
            "K7AntiVirus": {
                "category": "malicious",
                "engine_name": "K7AntiVirus",
                "engine_update": "20170615",
                "engine_version": "10.16.23668",
                "method": "blacklist",
                "result": "Trojan ( 000ff64e1 )"
            },
            "K7GW": {
                "category": "malicious",
                "engine_name": "K7GW",
                "engine_update": "20170615",
                "engine_version": "10.16.23676",
                "method": "blacklist",
                "result": "Trojan ( 000ff64e1 )"
            },
            "Kaspersky": {
                "category": "malicious",
                "engine_name": "Kaspersky",
                "engine_update": "20170615",
                "engine_version": "15.0.1.13",
                "method": "blacklist",
                "result": "Virus.Win32.Slugin.a"
            },
            "Kingsoft": {
                "category": "malicious",
                "engine_name": "Kingsoft",
                "engine_update": "20170615",
                "engine_version": "2013.8.14.323",
                "method": "blacklist",
                "result": "Win32.Patched.dj.161283"
            },
            "Malwarebytes": {
                "category": "undetected",
                "engine_name": "Malwarebytes",
                "engine_update": "20170615",
                "engine_version": "2.1.1.1115",
                "method": "blacklist",
                "result": null
            },
            "McAfee": {
                "category": "malicious",
                "engine_name": "McAfee",
                "engine_update": "20170615",
                "engine_version": "6.0.6.653",
                "method": "blacklist",
                "result": "W32/Wplugin"
            },
            "McAfee-GW-Edition": {
                "category": "malicious",
                "engine_name": "McAfee-GW-Edition",
                "engine_update": "20170615",
                "engine_version": "v2015",
                "method": "blacklist",
                "result": "BehavesLike.Win32.GameVance.vc"
            },
            "MicroWorld-eScan": {
                "category": "malicious",
                "engine_name": "MicroWorld-eScan",
                "engine_update": "20170615",
                "engine_version": "12.0.250.0",
                "method": "blacklist",
                "result": "Win32.SlugIn.A"
            },
            "Microsoft": {
                "category": "malicious",
                "engine_name": "Microsoft",
                "engine_update": "20170615",
                "engine_version": "1.1.13804.0",
                "method": "blacklist",
                "result": "Virus:Win32/Slugin.A"
            },
            "NANO-Antivirus": {
                "category": "malicious",
                "engine_name": "NANO-Antivirus",
                "engine_update": "20170615",
                "engine_version": "1.0.76.17389",
                "method": "blacklist",
                "result": "Virus.Win32.Slugin.ddowbn"
            },
            "Paloalto": {
                "category": "undetected",
                "engine_name": "Paloalto",
                "engine_update": "20170615",
                "engine_version": "1.0",
                "method": "blacklist",
                "result": null
            },
            "Panda": {
                "category": "malicious",
                "engine_name": "Panda",
                "engine_update": "20170615",
                "engine_version": "4.6.4.2",
                "method": "blacklist",
                "result": "Generic Malware"
            },
            "Qihoo-360": {
                "category": "malicious",
                "engine_name": "Qihoo-360",
                "engine_update": "20170615",
                "engine_version": "1.0.0.1120",
                "method": "blacklist",
                "result": "Virus.Win32.Slugin.A"
            },
            "Rising": {
                "category": "malicious",
                "engine_name": "Rising",
                "engine_update": "20170615",
                "engine_version": "28.0.0.1",
                "method": "blacklist",
                "result": "Virus.Agent!1.9AF8 (classic) "
            },
            "SUPERAntiSpyware": {
                "category": "undetected",
                "engine_name": "SUPERAntiSpyware",
                "engine_update": "20170615",
                "engine_version": "5.6.0.1032",
                "method": "blacklist",
                "result": null
            },
            "SentinelOne": {
                "category": "undetected",
                "engine_name": "SentinelOne",
                "engine_update": "20170516",
                "engine_version": "1.0.0.12",
                "method": "blacklist",
                "result": null
            },
            "Sophos": {
                "category": "malicious",
                "engine_name": "Sophos",
                "engine_update": "20170615",
                "engine_version": "4.98.0",
                "method": "blacklist",
                "result": "W32/Slugin-A"
            },
            "Symantec": {
                "category": "malicious",
                "engine_name": "Symantec",
                "engine_update": "20170615",
                "engine_version": "1.3.1.0",
                "method": "blacklist",
                "result": "W32.Slugin.A!inf"
            },
            "SymantecMobileInsight": {
                "category": "type-unsupported",
                "engine_name": "SymantecMobileInsight",
                "engine_update": "20170614",
                "engine_version": "1.0.0.35_220",
                "method": "blacklist",
                "result": null
            },
            "Tencent": {
                "category": "undetected",
                "engine_name": "Tencent",
                "engine_update": "20170615",
                "engine_version": "1.0.0.1",
                "method": "blacklist",
                "result": null
            },
            "TheHacker": {
                "category": "undetected",
                "engine_name": "TheHacker",
                "engine_update": "20170615",
                "engine_version": "6.8.0.5.1631",
                "method": "blacklist",
                "result": null
            },
            "TotalDefense": {
                "category": "malicious",
                "engine_name": "TotalDefense",
                "engine_update": "20170615",
                "engine_version": "37.1.62.1",
                "method": "blacklist",
                "result": "Win32/Slugin.A"
            },
            "TrendMicro": {
                "category": "malicious",
                "engine_name": "TrendMicro",
                "engine_update": "20170615",
                "engine_version": "9.740.0.1012",
                "method": "blacklist",
                "result": "PE_WPLUG.A"
            },
            "Trustlook": {
                "category": "type-unsupported",
                "engine_name": "Trustlook",
                "engine_update": "20170615",
                "engine_version": "2",
                "method": "blacklist",
                "result": null
            },
            "VBA32": {
                "category": "malicious",
                "engine_name": "VBA32",
                "engine_update": "20170615",
                "engine_version": "3.12.26.4",
                "method": "blacklist",
                "result": "Virus.Slugin.28805"
            },
            "VIPRE": {
                "category": "malicious",
                "engine_name": "VIPRE",
                "engine_update": "20170615",
                "engine_version": "58846",
                "method": "blacklist",
                "result": "Virus.Win32.Slugin.a (v)"
            },
            "ViRobot": {
                "category": "malicious",
                "engine_name": "ViRobot",
                "engine_update": "20170615",
                "engine_version": "2014.3.20.0",
                "method": "blacklist",
                "result": "Win32.Patched.N[h]"
            },
            "Webroot": {
                "category": "undetected",
                "engine_name": "Webroot",
                "engine_update": "20170615",
                "engine_version": "1.0.0.207",
                "method": "blacklist",
                "result": null
            },
            "WhiteArmor": {
                "category": "type-unsupported",
                "engine_name": "WhiteArmor",
                "engine_update": "20170614",
                "engine_version": "9101276",
                "method": "blacklist",
                "result": null
            },
            "Yandex": {
                "category": "malicious",
                "engine_name": "Yandex",
                "engine_update": "20170615",
                "engine_version": "5.5.1.3",
                "method": "blacklist",
                "result": "Win32.Slugin.A"
            },
            "Zillya": {
                "category": "undetected",
                "engine_name": "Zillya",
                "engine_update": "20170614",
                "engine_version": "2.0.0.3313",
                "method": "blacklist",
                "result": null
            },
            "ZoneAlarm": {
                "category": "malicious",
                "engine_name": "ZoneAlarm",
                "engine_update": "20170615",
                "engine_version": "1.0",
                "method": "blacklist",
                "result": "Virus.Win32.Slugin.a"
            },
            "Zoner": {
                "category": "undetected",
                "engine_name": "Zoner",
                "engine_update": "20170615",
                "engine_version": "1.0",
                "method": "blacklist",
                "result": null
            },
            "nProtect": {
                "category": "undetected",
                "engine_name": "nProtect",
                "engine_update": "20170615",
                "engine_version": "2017-06-15.04",
                "method": "blacklist",
                "result": null
            }
        },
        "last_analysis_stats": {
            "confirmed-timeout": 0,
            "failure": 0,
            "harmless": 0,
            "malicious": 49,
            "suspicious": 0,
            "timeout": 0,
            "type-unsupported": 4,
            "undetected": 11
        },
        "last_modification_date": 1498503342,
        "last_submission_date": 1497547127,
        "magic": "PE32 executable for MS Windows (GUI) Intel 80386 32-bit",
        "md5": "34a2a96dc447b51db8c880f4d91eee14",
        "names": [],
        "pe_info": {
            "entry_point": 1692288,
            "imphash": "23ae5cb5bec54c0ef9219d8e29f70577",
            "import_list": [
                {
                    "imported_functions": [
                        "?Transform@Dib@@QAEPAV1@ABVAffineTransform@@VTColor@@@Z"
                    ],
                    "library_name": "Image.dll"
                },
                {
                    "imported_functions": [
                        "?Copy@Picture@@UBEPAVGraphicObj@@XZ"
                    ],
                    "library_name": "Desview.dll"
                },
                {
                    "imported_functions": [
                        "?CreateAttachedMenu@MDIFrameInterface@@SAPAVWMenu@@PAVCMenu@@I@Z"
                    ],
                    "library_name": "product.dll"
                },
                {
                    "imported_functions": [
                        "??1ifstream@@UAE@XZ"
                    ],
                    "library_name": "MSVCI70.dll"
                },
                {
                    "imported_functions": [
                        "_wcsupr"
                    ],
                    "library_name": "MSVCR70.dll"
                },
                {
                    "imported_functions": [
                        "?AddUniqueId@MMGDefaults@@SA_NABVMachineUnitInfo@@@Z"
                    ],
                    "library_name": "Defmgr.dll"
                },
                {
                    "imported_functions": [
                        "GetSystemTime",
                        "DeviceIoControl",
                        "GetEnvironmentVariableA",
                        "LocalReAlloc",
                        "SystemTimeToFileTime",
                        "FileTimeToSystemTime",
                        "GetLastError",
                        "WaitForSingleObject",
                        "FreeLibrary",
                        "TlsAlloc",
                        "GetModuleFileNameA",
                        "GetFileSize",
                        "LoadLibraryA",
                        "GetLocalTime",
                        "DeleteCriticalSection",
                        "GetCurrentProcess",
                        "EnterCriticalSection",
                        "LocalAlloc",
                        "CreateSemaphoreA",
                        "SetErrorMode",
                        "GetProcAddress",
                        "ReleaseSemaphore",
                        "GetModuleHandleA",
                        "QueryDosDeviceA",
                        "ReadFile",
                        "WriteFile",
                        "FindFirstFileA",
                        "CloseHandle",
                        "FindNextFileA",
                        "LocalFree",
                        "InitializeCriticalSection",
                        "OpenSemaphoreA",
                        "SearchPathA",
                        "FindClose",
                        "TlsGetValue",
                        "Sleep",
                        "TlsSetValue",
                        "CreateFileA",
                        "GetVersion",
                        "GetCurrentProcessId",
                        "LeaveCriticalSection"
                    ],
                    "library_name": "KERNEL32.dll"
                },
                {
                    "imported_functions": [
                        "?OnKeyDown@ListViewControl@@MAEXIII@Z"
                    ],
                    "library_name": "controls.dll"
                },
                {
                    "imported_functions": [
                        "SysFreeString"
                    ],
                    "library_name": "OLEAUT32.dll"
                },
                {
                    "imported_functions": [
                        "ShellExecuteA"
                    ],
                    "library_name": "SHELL32.dll"
                },
                {
                    "imported_functions": [
                        "?Read@DesignDetails@@QAEKABVString@@@Z"
                    ],
                    "library_name": "Oleintf.dll"
                },
                {
                    "imported_functions": [
                        "Ord(3565)"
                    ],
                    "library_name": "MFC70.DLL"
                },
                {
                    "imported_functions": [
                        "_TrackMouseEvent"
                    ],
                    "library_name": "COMCTL32.dll"
                },
                {
                    "imported_functions": [
                        "?SetResourceProductConfig@@YAXPAVDICallBackObj@@@Z"
                    ],
                    "library_name": "Dialog.dll"
                },
                {
                    "imported_functions": [
                        "?GetResourceString@@YA_NIAAVString@@_N@Z"
                    ],
                    "library_name": "Resource.dll"
                },
                {
                    "imported_functions": [
                        "?appVersion@@3PAVProductVersion@@A"
                    ],
                    "library_name": "Versndll.dll"
                },
                {
                    "imported_functions": [
                        "?SetOrigin@GraphicSpace@@QAEXABVLongPoint@@@Z"
                    ],
                    "library_name": "Geometry.dll"
                },
                {
                    "imported_functions": [
                        "GetObjectA"
                    ],
                    "library_name": "GDI32.dll"
                },
                {
                    "imported_functions": [
                        "??0NeedlePos@@QAE@PBVNeedlePointStore@@@Z"
                    ],
                    "library_name": "mod1.dll"
                },
                {
                    "imported_functions": [
                        "??0MouseDragEvt@@QAE@PAVCOleDataObject@@KABVLongPoint@@@Z"
                    ],
                    "library_name": "Wessys.dll"
                },
                {
                    "imported_functions": [
                        "EnumPortsA"
                    ],
                    "library_name": "WINSPOOL.DRV"
                },
                {
                    "imported_functions": [
                        "?ReadMachineDescriptor@@YAKABVString@@AAVDataItem@@@Z"
                    ],
                    "library_name": "Import.dll"
                },
                {
                    "imported_functions": [
                        "RegCloseKey"
                    ],
                    "library_name": "ADVAPI32.dll"
                },
                {
                    "imported_functions": [
                        "StgIsStorageFile"
                    ],
                    "library_name": "ole32.dll"
                },
                {
                    "imported_functions": [
                        "SetupDiEnumDeviceInfo"
                    ],
                    "library_name": "SETUPAPI.dll"
                },
                {
                    "imported_functions": [
                        "MessageBoxA",
                        "UpdateWindow"
                    ],
                    "library_name": "USER32.dll"
                }
            ],
            "machine_type": 332,
            "overlay": {
                "entropy": 6.461284134827398,
                "filetype": "application/x-ms-dos-executable",
                "md5": "65c2705d6ea80f05bb3c57e6ca72ba38",
                "offset": 2482176,
                "size": 94689
            },
            "resource_details": [
                {
                    "filetype": "data",
                    "lang": "ENGLISH AUS",
                    "sha256": "42566b813e4fde124ece6572d1c03c1974307c2d5a0b2c24aaa5ddaa06823c29",
                    "type": "RT_DIALOG"
                },
                {
                    "filetype": "data",
                    "lang": "ENGLISH AUS",
                    "sha256": "6f02537f2d049312471a71ef812f23f672160f84c06d1b2d94b7546f5dbfcf07",
                    "type": "RT_DIALOG"
                },
                {
                    "filetype": "data",
                    "lang": "ENGLISH US",
                    "sha256": "8f4121ac76b334f28a80716f62de2deb9f4cb2b3cc746417a49d00da1d808107",
                    "type": "RT_DIALOG"
                },
                {
                    "filetype": "data",
                    "lang": "ENGLISH AUS",
                    "sha256": "191630eb2f28291e38d03a90ec66793cc0270fe7bd9f9e11747d1ee793f9dd81",
                    "type": "RT_DIALOG"
                },
                {
                    "filetype": "data",
                    "lang": "ENGLISH AUS",
                    "sha256": "0a995eab6d4a14ffdcaca3d51143ec78e6d1f15857c27f7d06927875c2709ba0",
                    "type": "RT_DIALOG"
                },
                {
                    "filetype": "data",
                    "lang": "ENGLISH AUS",
                    "sha256": "54fffbc99a0cbcf0f6360b3e13ad26c5e6532dbd67cdd735a956856a7367dc2b",
                    "type": "RT_DIALOG"
                },
                {
                    "filetype": "data",
                    "lang": "ENGLISH AUS",
                    "sha256": "470336a85facd833ef7e60769f7ed4c5eb38483d111bdd622101fe0f715e25e5",
                    "type": "RT_DIALOG"
                },
                {
                    "filetype": "data",
                    "lang": "ENGLISH AUS",
                    "sha256": "29dfc1ca07983874873f3a6a1ab09f0e79096a3fd69b1c9378b2606941d1401c",
                    "type": "RT_DIALOG"
                },
                {
                    "filetype": "data",
                    "lang": "ENGLISH AUS",
                    "sha256": "a4e383371f3aaba9f4c80d8a8fd56756e449a2b91e3f5e9e967dcdc9441923c2",
                    "type": "RT_DIALOG"
                },
                {
                    "filetype": "ASCII text",
                    "lang": "ENGLISH AUS",
                    "sha256": "0851fea49cdc6a7b3b3f725d3b4de745be5273ae4da837e36b318211882615c6",
                    "type": "RT_STRING"
                },
                {
                    "filetype": "ASCII text",
                    "lang": "ENGLISH AUS",
                    "sha256": "dc4a6444508d730989e7578c5a6cedd71dd5ffd19596bfa1c767cb498abde9a8",
                    "type": "RT_STRING"
                }
            ],
            "resource_langs": {
                "ENGLISH AUS": 10,
                "ENGLISH US": 1
            },
            "resource_types": {
                "RT_DIALOG": 9,
                "RT_STRING": 2
            },
            "sections": [
                {
                    "entropy": 8.0,
                    "md5": "ab495e736ccd211a54d5879d0a72d8d1",
                    "name": ".text",
                    "raw_size": 962560,
                    "virtual_address": 4096,
                    "virtual_size": 958944
                },
                {
                    "entropy": 0.13,
                    "md5": "4112956293effddeff920da565ab1883",
                    "name": "CONST",
                    "raw_size": 4096,
                    "virtual_address": 966656,
                    "virtual_size": 48
                },
                {
                    "entropy": 7.95,
                    "md5": "92bd113b6cfc01dbdb5933226095395b",
                    "name": ".rdata",
                    "raw_size": 163840,
                    "virtual_address": 970752,
                    "virtual_size": 159908
                },
                {
                    "entropy": 8.0,
                    "md5": "421b5afe66bbc16a1c94adc54491e953",
                    "name": ".data",
                    "raw_size": 102400,
                    "virtual_address": 1134592,
                    "virtual_size": 547664
                },
                {
                    "entropy": 3.46,
                    "md5": "ada218186377be2d6856888671066c95",
                    "name": ".rsrc",
                    "raw_size": 8192,
                    "virtual_address": 1683456,
                    "virtual_size": 7552
                },
                {
                    "entropy": 7.99,
                    "md5": "c85f1871312a273556461b0dd716dd7a",
                    "name": ".protect",
                    "raw_size": 1236992,
                    "virtual_address": 1691648,
                    "virtual_size": 1236300
                }
            ],
            "timestamp": 1190215264
        },
        "reputation": 0,
        "sha1": "e4a733d1955e82ebdeaf4824edd70dd6c43f3d45",
        "sha256": "0000a4cf55ec517c4cc29118a9622b27b955daf1abf40b9c62622fae35086c17",
        "size": 2576865,
        "ssdeep": "49152:7MdLX/x6eYatlS9G23Pb4URNGwEJiITn6lNM0eF9LtRzsIU+DW86IsdATlHJg4:wx/xBURLan0lC7LtRzsIfDvsiBp9",
        "tags": [
            "peexe",
            "overlay"
        ],
        "times_submitted": 1,
        "total_votes": {
            "harmless": 0,
            "malicious": 0
        },
        "trid": [
            {
                "file_type": "Win32 Executable MS Visual C++ (generic)",
                "probability": 42.2
            },
            {
                "file_type": "Win64 Executable (generic)",
                "probability": 37.3
            },
            {
                "file_type": "Win32 Dynamic Link Library (generic)",
                "probability": 8.8
            },
            {
                "file_type": "Win32 Executable (generic)",
                "probability": 6.0
            },
            {
                "file_type": "Generic Win/DOS Executable",
                "probability": 2.7
            }
        ],
        "type_description": "Win32 EXE",
        "type_extension": "exe",
        "type_tag": "peexe",
        "unique_sources": 1,
        "vhash": "02606676157d751e701013z100287z1015z13z1bz11z"
    },
    "id": "0000a4cf55ec517c4cc29118a9622b27b955daf1abf40b9c62622fae35086c17",
    "links": {
        "self": "https://www.virustotal.com/api/v3/files/0000a4cf55ec517c4cc29118a9622b27b955daf1abf40b9c62622fae35086c17"
    },
    "type": "file"
}