{
    "attributes": {
        "authentihash": "d1cdb5532309e31b545ef95a31549960a101eab007a7b2194239ed1b06d6245d",
        "creation_date": 1392837630,
        "first_submission_date": 1511324702,
        "last_analysis_date": 1511324702,
        "last_analysis_results": {
            "ALYac": {
                "category": "malicious",
                "engine_name": "ALYac",
                "engine_update": "20171122",
                "engine_version": "1.1.1.2",
                "method": "blacklist",
                "result": "Trojan.GenericKD.1801883"
            },
            "AVG": {
                "category": "malicious",
                "engine_name": "AVG",
                "engine_update": "20171122",
                "engine_version": "17.8.3705.0",
                "method": "blacklist",
                "result": "Win32:Malware-gen"
            },
            "AVware": {
                "category": "malicious",
                "engine_name": "AVware",
                "engine_update": "20171122",
                "engine_version": "1.5.0.42",
                "method": "blacklist",
                "result": "Trojan.Win32.Rovnix.h (v)"
            },
            "Ad-Aware": {
                "category": "malicious",
                "engine_name": "Ad-Aware",
                "engine_update": "20171122",
                "engine_version": "3.0.3.1010",
                "method": "blacklist",
                "result": "Trojan.GenericKD.1801883"
            },
            "AegisLab": {
                "category": "malicious",
                "engine_name": "AegisLab",
                "engine_update": "20171122",
                "engine_version": "4.2",
                "method": "blacklist",
                "result": "Backdoor.W32.Androm.tosQ"
            },
            "AhnLab-V3": {
                "category": "malicious",
                "engine_name": "AhnLab-V3",
                "engine_update": "20171121",
                "engine_version": "3.10.1.19128",
                "method": "blacklist",
                "result": "Trojan/Win32.Necurs.R115578"
            },
            "Alibaba": {
                "category": "type-unsupported",
                "engine_name": "Alibaba",
                "engine_update": "20170911",
                "engine_version": "1.0",
                "method": "blacklist",
                "result": null
            },
            "Antiy-AVL": {
                "category": "malicious",
                "engine_name": "Antiy-AVL",
                "engine_update": "20171122",
                "engine_version": "3.0.0.1",
                "method": "blacklist",
                "result": "Trojan[Backdoor]/Win32.Androm"
            },
            "Arcabit": {
                "category": "malicious",
                "engine_name": "Arcabit",
                "engine_update": "20171122",
                "engine_version": "1.0.0.827",
                "method": "blacklist",
                "result": "Trojan.Generic.D1B7E9B"
            },
            "Avast": {
                "category": "malicious",
                "engine_name": "Avast",
                "engine_update": "20171122",
                "engine_version": "17.8.3705.0",
                "method": "blacklist",
                "result": "Win32:Malware-gen"
            },
            "Avast-Mobile": {
                "category": "undetected",
                "engine_name": "Avast-Mobile",
                "engine_update": "20171121",
                "engine_version": "171121-04",
                "method": "blacklist",
                "result": null
            },
            "Avira": {
                "category": "malicious",
                "engine_name": "Avira",
                "engine_update": "20171121",
                "engine_version": "8.3.3.6",
                "method": "blacklist",
                "result": "TR/Katusha.uaws"
            },
            "Baidu": {
                "category": "malicious",
                "engine_name": "Baidu",
                "engine_update": "20171121",
                "engine_version": "1.0.0.2",
                "method": "blacklist",
                "result": "Win32.Trojan-Downloader.Agent.kj"
            },
            "BitDefender": {
                "category": "malicious",
                "engine_name": "BitDefender",
                "engine_update": "20171122",
                "engine_version": "7.2",
                "method": "blacklist",
                "result": "Trojan.GenericKD.1801883"
            },
            "Bkav": {
                "category": "malicious",
                "engine_name": "Bkav",
                "engine_update": "20171121",
                "engine_version": "1.3.0.9367",
                "method": "blacklist",
                "result": "W32.FamVT.GeND.Trojan"
            },
            "CAT-QuickHeal": {
                "category": "malicious",
                "engine_name": "CAT-QuickHeal",
                "engine_update": "20171121",
                "engine_version": "14.00",
                "method": "blacklist",
                "result": "TrojanDwnldr.Upatre.AB4"
            },
            "CMC": {
                "category": "undetected",
                "engine_name": "CMC",
                "engine_update": "20171121",
                "engine_version": "1.1.0.977",
                "method": "blacklist",
                "result": null
            },
            "ClamAV": {
                "category": "malicious",
                "engine_name": "ClamAV",
                "engine_update": "20171122",
                "engine_version": "0.99.2.0",
                "method": "blacklist",
                "result": "Win.Trojan.Generickd-614"
            },
            "Comodo": {
                "category": "malicious",
                "engine_name": "Comodo",
                "engine_update": "20171122",
                "engine_version": "28079",
                "method": "blacklist",
                "result": "TrojWare.Win32.TrojanDownloader.Waski.FDA"
            },
            "CrowdStrike": {
                "category": "malicious",
                "engine_name": "CrowdStrike",
                "engine_update": "20171016",
                "engine_version": "1.0",
                "method": "blacklist",
                "result": "malicious_confidence_100% (D)"
            },
            "Cybereason": {
                "category": "malicious",
                "engine_name": "Cybereason",
                "engine_update": "20171103",
                "engine_version": "0.0.914",
                "method": "blacklist",
                "result": "malicious.1b8fb7"
            },
            "Cylance": {
                "category": "malicious",
                "engine_name": "Cylance",
                "engine_update": "20171122",
                "engine_version": "2.3.1.101",
                "method": "blacklist",
                "result": "Unsafe"
            },
            "Cyren": {
                "category": "malicious",
                "engine_name": "Cyren",
                "engine_update": "20171122",
                "engine_version": "5.4.30.7",
                "method": "blacklist",
                "result": "W32/Trojan.PBPB-2165"
            },
            "DrWeb": {
                "category": "malicious",
                "engine_name": "DrWeb",
                "engine_update": "20171122",
                "engine_version": "7.0.28.2020",
                "method": "blacklist",
                "result": "Trojan.DownLoad3.33795"
            },
            "ESET-NOD32": {
                "category": "malicious",
                "engine_name": "ESET-NOD32",
                "engine_update": "20171122",
                "engine_version": "16449",
                "method": "blacklist",
                "result": "Win32/TrojanDownloader.Waski.F"
            },
            "Emsisoft": {
                "category": "malicious",
                "engine_name": "Emsisoft",
                "engine_update": "20171122",
                "engine_version": "4.0.1.883",
                "method": "blacklist",
                "result": "Trojan.GenericKD.1801883 (B)"
            },
            "Endgame": {
                "category": "malicious",
                "engine_name": "Endgame",
                "engine_update": "20171024",
                "engine_version": "1.1.3",
                "method": "blacklist",
                "result": "malicious (high confidence)"
            },
            "F-Prot": {
                "category": "malicious",
                "engine_name": "F-Prot",
                "engine_update": "20171122",
                "engine_version": "4.7.1.166",
                "method": "blacklist",
                "result": "W32/Trojan3.JYB"
            },
            "F-Secure": {
                "category": "malicious",
                "engine_name": "F-Secure",
                "engine_update": "20171122",
                "engine_version": "11.0.19100.45",
                "method": "blacklist",
                "result": "Trojan.GenericKD.1801883"
            },
            "Fortinet": {
                "category": "malicious",
                "engine_name": "Fortinet",
                "engine_update": "20171122",
                "engine_version": "5.4.247.0",
                "method": "blacklist",
                "result": "W32/Kryptik.CKUG!tr"
            },
            "GData": {
                "category": "malicious",
                "engine_name": "GData",
                "engine_update": "20171122",
                "engine_version": "A:25.14870B:25.10948",
                "method": "blacklist",
                "result": "Trojan.GenericKD.1801883"
            },
            "Ikarus": {
                "category": "malicious",
                "engine_name": "Ikarus",
                "engine_update": "20171121",
                "engine_version": "0.1.5.2",
                "method": "blacklist",
                "result": "Backdoor.Win32.Androm"
            },
            "Invincea": {
                "category": "malicious",
                "engine_name": "Invincea",
                "engine_update": "20170914",
                "engine_version": "6.3.1.25473",
                "method": "blacklist",
                "result": "heuristic"
            },
            "Jiangmin": {
                "category": "malicious",
                "engine_name": "Jiangmin",
                "engine_update": "20171122",
                "engine_version": "16.0.100",
                "method": "blacklist",
                "result": "Backdoor/Androm.gxn"
            },
            "K7AntiVirus": {
                "category": "malicious",
                "engine_name": "K7AntiVirus",
                "engine_update": "20171121",
                "engine_version": "10.32.25324",
                "method": "blacklist",
                "result": "Trojan-Downloader ( 004b8d561 )"
            },
            "K7GW": {
                "category": "malicious",
                "engine_name": "K7GW",
                "engine_update": "20171122",
                "engine_version": "10.32.25324",
                "method": "blacklist",
                "result": "Trojan-Downloader ( 004b8d561 )"
            },
            "Kaspersky": {
                "category": "malicious",
                "engine_name": "Kaspersky",
                "engine_update": "20171122",
                "engine_version": "15.0.1.13",
                "method": "blacklist",
                "result": "HEUR:Trojan.Win32.Generic"
            },
            "Kingsoft": {
                "category": "malicious",
                "engine_name": "Kingsoft",
                "engine_update": "20171122",
                "engine_version": "2013.8.14.323",
                "method": "blacklist",
                "result": "Win32.Troj.Undef.(kcloud)"
            },
            "MAX": {
                "category": "malicious",
                "engine_name": "MAX",
                "engine_update": "20171122",
                "engine_version": "2017.11.15.1",
                "method": "blacklist",
                "result": "malware (ai score=83)"
            },
            "Malwarebytes": {
                "category": "malicious",
                "engine_name": "Malwarebytes",
                "engine_update": "20171122",
                "engine_version": "2.1.1.1115",
                "method": "blacklist",
                "result": "Trojan.Upatre"
            },
            "McAfee": {
                "category": "malicious",
                "engine_name": "McAfee",
                "engine_update": "20171122",
                "engine_version": "6.0.6.653",
                "method": "blacklist",
                "result": "GenericRXAT-KR!EE6FE791FBF9"
            },
            "McAfee-GW-Edition": {
                "category": "malicious",
                "engine_name": "McAfee-GW-Edition",
                "engine_update": "20171122",
                "engine_version": "v2015",
                "method": "blacklist",
                "result": "BehavesLike.Win32.Trojan.nm"
            },
            "MicroWorld-eScan": {
                "category": "malicious",
                "engine_name": "MicroWorld-eScan",
                "engine_update": "20171122",
                "engine_version": "14.0.297.0",
                "method": "blacklist",
                "result": "Trojan.GenericKD.1801883"
            },
            "Microsoft": {
                "category": "malicious",
                "engine_name": "Microsoft",
                "engine_update": "20171122",
                "engine_version": "1.1.14306.0",
                "method": "blacklist",
                "result": "TrojanDownloader:Win32/Upatre"
            },
            "NANO-Antivirus": {
                "category": "malicious",
                "engine_name": "NANO-Antivirus",
                "engine_update": "20171122",
                "engine_version": "1.0.100.20142",
                "method": "blacklist",
                "result": "Trojan.Win32.Dwn.ddtmhv"
            },
            "Paloalto": {
                "category": "undetected",
                "engine_name": "Paloalto",
                "engine_update": "20171122",
                "engine_version": "1.0",
                "method": "blacklist",
                "result": null
            },
            "Panda": {
                "category": "malicious",
                "engine_name": "Panda",
                "engine_update": "20171121",
                "engine_version": "4.6.4.2",
                "method": "blacklist",
                "result": "Trj/Genetic.gen"
            },
            "Qihoo-360": {
                "category": "malicious",
                "engine_name": "Qihoo-360",
                "engine_update": "20171122",
                "engine_version": "1.0.0.1120",
                "method": "blacklist",
                "result": "HEUR/QVM20.1.5957.Malware.Gen"
            },
            "Rising": {
                "category": "malicious",
                "engine_name": "Rising",
                "engine_update": "20171122",
                "engine_version": "25.0.0.1",
                "method": "blacklist",
                "result": "Trojan.Waski!1.A489 (CLASSIC)"
            },
            "SUPERAntiSpyware": {
                "category": "malicious",
                "engine_name": "SUPERAntiSpyware",
                "engine_update": "20171122",
                "engine_version": "5.6.0.1032",
                "method": "blacklist",
                "result": "Trojan.Agent/Gen-Upatre"
            },
            "SentinelOne": {
                "category": "malicious",
                "engine_name": "SentinelOne",
                "engine_update": "20171113",
                "engine_version": "1.0.9.192",
                "method": "blacklist",
                "result": "static engine - malicious"
            },
            "Sophos": {
                "category": "malicious",
                "engine_name": "Sophos",
                "engine_update": "20171122",
                "engine_version": "4.98.0",
                "method": "blacklist",
                "result": "Troj/Kegotip-D"
            },
            "Symantec": {
                "category": "malicious",
                "engine_name": "Symantec",
                "engine_update": "20171122",
                "engine_version": "1.5.0.0",
                "method": "blacklist",
                "result": "Infostealer.Dyre"
            },
            "SymantecMobileInsight": {
                "category": "type-unsupported",
                "engine_name": "SymantecMobileInsight",
                "engine_update": "20171121",
                "engine_version": "1.0.0.35_220",
                "method": "blacklist",
                "result": null
            },
            "Tencent": {
                "category": "malicious",
                "engine_name": "Tencent",
                "engine_update": "20171122",
                "engine_version": "1.0.0.1",
                "method": "blacklist",
                "result": "Suspicious.Heuristic.Gen.b.0"
            },
            "TheHacker": {
                "category": "malicious",
                "engine_name": "TheHacker",
                "engine_update": "20171121",
                "engine_version": "6.8.0.5.2159",
                "method": "blacklist",
                "result": "Trojan/Downloader.Waski.f"
            },
            "TotalDefense": {
                "category": "malicious",
                "engine_name": "TotalDefense",
                "engine_update": "20171121",
                "engine_version": "37.1.62.1",
                "method": "blacklist",
                "result": "Win32/Kegotip.YWLbfUD"
            },
            "TrendMicro": {
                "category": "malicious",
                "engine_name": "TrendMicro",
                "engine_update": "20171122",
                "engine_version": "9.862.0.1074",
                "method": "blacklist",
                "result": "Mal_Dalexis"
            },
            "TrendMicro-HouseCall": {
                "category": "malicious",
                "engine_name": "TrendMicro-HouseCall",
                "engine_update": "20171122",
                "engine_version": "9.950.0.1006",
                "method": "blacklist",
                "result": "Mal_Dalexis"
            },
            "Trustlook": {
                "category": "type-unsupported",
                "engine_name": "Trustlook",
                "engine_update": "20171122",
                "engine_version": "2",
                "method": "blacklist",
                "result": null
            },
            "VBA32": {
                "category": "malicious",
                "engine_name": "VBA32",
                "engine_update": "20171121",
                "engine_version": "3.12.26.4",
                "method": "blacklist",
                "result": "Trojan.FakeAV.01657"
            },
            "VIPRE": {
                "category": "malicious",
                "engine_name": "VIPRE",
                "engine_update": "20171122",
                "engine_version": "62612",
                "method": "blacklist",
                "result": "Trojan.Win32.Rovnix.h (v)"
            },
            "ViRobot": {
                "category": "undetected",
                "engine_name": "ViRobot",
                "engine_update": "20171122",
                "engine_version": "2014.3.20.0",
                "method": "blacklist",
                "result": null
            },
            "Webroot": {
                "category": "undetected",
                "engine_name": "Webroot",
                "engine_update": "20171122",
                "engine_version": "1.0.0.207",
                "method": "blacklist",
                "result": null
            },
            "WhiteArmor": {
                "category": "malicious",
                "engine_name": "WhiteArmor",
                "engine_update": "20171104",
                "engine_version": null,
                "method": "blacklist",
                "result": "Malware.HighConfidence"
            },
            "Yandex": {
                "category": "malicious",
                "engine_name": "Yandex",
                "engine_update": "20171120",
                "engine_version": "5.5.1.3",
                "method": "blacklist",
                "result": "Backdoor.Androm!dhtY5uX9n60"
            },
            "Zillya": {
                "category": "malicious",
                "engine_name": "Zillya",
                "engine_update": "20171121",
                "engine_version": "2.0.0.3433",
                "method": "blacklist",
                "result": "Backdoor.Androm.Win32.10333"
            },
            "ZoneAlarm": {
                "category": "malicious",
                "engine_name": "ZoneAlarm",
                "engine_update": "20171122",
                "engine_version": "1.0",
                "method": "blacklist",
                "result": "HEUR:Trojan.Win32.Generic"
            },
            "Zoner": {
                "category": "malicious",
                "engine_name": "Zoner",
                "engine_update": "20171122",
                "engine_version": "1.0",
                "method": "blacklist",
                "result": "Trojan.Waski.F"
            },
            "eGambit": {
                "category": "malicious",
                "engine_name": "eGambit",
                "engine_update": "20171122",
                "engine_version": "v4.2.7",
                "method": "blacklist",
                "result": "Unsafe.AI_Score_100%"
            },
            "nProtect": {
                "category": "undetected",
                "engine_name": "nProtect",
                "engine_update": "20171122",
                "engine_version": "2017-11-22.01",
                "method": "blacklist",
                "result": null
            }
        },
        "last_analysis_stats": {
            "confirmed-timeout": 0,
            "failure": 0,
            "harmless": 0,
            "malicious": 62,
            "suspicious": 0,
            "timeout": 0,
            "type-unsupported": 3,
            "undetected": 6
        },
        "last_modification_date": 1511690801,
        "last_submission_date": 1511324702,
        "magic": "PE32 executable for MS Windows (GUI) Intel 80386 32-bit",
        "md5": "ee6fe791fbf9e7f3f509bed015ceac26",
        "meaningful_name": "1059-8220db31c3ec16c56abcc629343e941b26847af3",
        "names": [
            "1059-8220db31c3ec16c56abcc629343e941b26847af3",
            "ee6fe791fbf9e7f3f509bed015ceac26.virus"
        ],
        "pe_info": {
            "entry_point": 6546,
            "imphash": "222e7b320f36011feb1642000d8fa826",
            "import_list": [
                {
                    "imported_functions": [
                        "SHGetFileInfoA",
                        "SHCreateShellItem",
                        "ShellMessageBoxW",
                        "FindExecutableA",
                        "ShellAboutA",
                        "DragAcceptFiles",
                        "SHGetDesktopFolder",
                        "FreeIconList",
                        "SHGetDiskFreeSpaceA",
                        "SHGetFolderPathA",
                        "DragFinish",
                        "StrChrA",
                        "SHGetDataFromIDListA",
                        "DragQueryFileA",
                        "SHGetMalloc",
                        "SHFileOperationA"
                    ],
                    "library_name": "shell32.dll"
                },
                {
                    "imported_functions": [
                        "CDLocateRng",
                        "CDBuildVect",
                        "MD5Init",
                        "MD5Update"
                    ],
                    "library_name": "cryptdll.dll"
                },
                {
                    "imported_functions": [
                        "DeviceIoControl",
                        "IsValidCodePage",
                        "FileTimeToSystemTime",
                        "lstrcmpiA",
                        "GetLastError",
                        "GetTickCount",
                        "GetLocalTime",
                        "GetCurrentDirectoryW",
                        "CreateDirectoryA",
                        "SetErrorMode",
                        "IsBadStringPtrA",
                        "GetProcAddress",
                        "GetPrivateProfileIntW",
                        "OpenMutexA",
                        "lstrcpynW",
                        "CompareStringW",
                        "GetFullPathNameW",
                        "SetEnvironmentVariableW",
                        "lstrcmpA",
                        "FindFirstFileA",
                        "InterlockedDecrement",
                        "GetStringTypeW",
                        "GetModuleHandleW",
                        "WriteConsoleA",
                        "GetEnvironmentVariableA",
                        "SearchPathA",
                        "TlsGetValue",
                        "ReadConsoleW",
                        "SleepEx"
                    ],
                    "library_name": "kernel32.dll"
                },
                {
                    "imported_functions": [
                        "ConnectionWrite",
                        "ConnectionClose",
                        "ConnectionError"
                    ],
                    "library_name": "dbnmpntw.dll"
                }
            ],
            "machine_type": 332,
            "overlay": {
                "entropy": 3.504879724782457,
                "filetype": "ASCII text",
                "md5": "e6a599d3eb54ec317fd88f7c785e1554",
                "offset": 27136,
                "size": 9214
            },
            "resource_details": [
                {
                    "filetype": "data",
                    "lang": "NEUTRAL",
                    "sha256": "66a0ed942a9b6126629d25fcbd1f98cc287a5a4b0f88144485a70ceccabe48bc",
                    "type": "RT_ICON"
                },
                {
                    "filetype": "ASCII text",
                    "lang": "ENGLISH US",
                    "sha256": "80422bc3d307b4a25bdafcc84ac7fb01cb55a09810e8b0f37bb12e0edb5c48ca",
                    "type": "RT_MENU"
                },
                {
                    "filetype": "data",
                    "lang": "NEUTRAL",
                    "sha256": "a185012574b465b2ffe29f14de54d978f9741811e545a7150dd3dd7f18534e38",
                    "type": "RT_GROUP_ICON"
                }
            ],
            "resource_langs": {
                "ENGLISH US": 1,
                "NEUTRAL": 2
            },
            "resource_types": {
                "RT_GROUP_ICON": 1,
                "RT_ICON": 1,
                "RT_MENU": 1
            },
            "sections": [
                {
                    "entropy": 6.98,
                    "md5": "fc391ac2428ea7a24e76dace0b3cc772",
                    "name": ".text",
                    "raw_size": 8704,
                    "virtual_address": 4096,
                    "virtual_size": 8458
                },
                {
                    "entropy": 4.11,
                    "md5": "e2c015386d3acdf3e3be1cf07c78b6c9",
                    "name": ".rdata",
                    "raw_size": 2048,
                    "virtual_address": 16384,
                    "virtual_size": 1800
                },
                {
                    "entropy": 5.18,
                    "md5": "445311e3d98def7677fed58bcfc67ced",
                    "name": ".data",
                    "raw_size": 3584,
                    "virtual_address": 20480,
                    "virtual_size": 3395
                },
                {
                    "entropy": 3.12,
                    "md5": "73ac533e806ceda7018daed83926d654",
                    "name": ".rsrc",
                    "raw_size": 11776,
                    "virtual_address": 24576,
                    "virtual_size": 11438
                }
            ],
            "timestamp": 1392837630
        },
        "reputation": 0,
        "sha1": "8220db31c3ec16c56abcc629343e941b26847af3",
        "sha256": "0000af1d0161275784e01f40fc8d8b43ccd9727dfe6ef4be8d871d947bf9d50c",
        "size": 36350,
        "ssdeep": "768:kf1Y9RRw/dUT6vurGd/pkUOyGAv+rh95kyq0Quw:GY9jw/dUT62rGdiUOWWrNi",
        "tags": [
            "peexe",
            "overlay"
        ],
        "times_submitted": 1,
        "total_votes": {
            "harmless": 0,
            "malicious": 0
        },
        "trid": [
            {
                "file_type": "Win32 Dynamic Link Library (generic)",
                "probability": 38.2
            },
            {
                "file_type": "Win32 Executable (generic)",
                "probability": 26.2
            },
            {
                "file_type": "Win16/32 Executable Delphi generic",
                "probability": 12.0
            },
            {
                "file_type": "Generic Win/DOS Executable",
                "probability": 11.6
            },
            {
                "file_type": "DOS Executable Generic",
                "probability": 11.6
            }
        ],
        "type_description": "Win32 EXE",
        "type_extension": "exe",
        "type_tag": "peexe",
        "unique_sources": 1,
        "vhash": "034046651d551az1egz1mz"
    },
    "id": "0000af1d0161275784e01f40fc8d8b43ccd9727dfe6ef4be8d871d947bf9d50c",
    "links": {
        "self": "https://www.virustotal.com/api/v3/files/0000af1d0161275784e01f40fc8d8b43ccd9727dfe6ef4be8d871d947bf9d50c"
    },
    "type": "file"
}