{
    "attributes": {
        "authentihash": "7e4bb24be867c776a78d0acdb223424afe14d4465dcd77d513925a6b013668c9",
        "creation_date": 1164619441,
        "first_submission_date": 1502042222,
        "last_analysis_date": 1502042222,
        "last_analysis_results": {
            "ALYac": {
                "category": "malicious",
                "engine_name": "ALYac",
                "engine_update": "20170806",
                "engine_version": "1.1.1.2",
                "method": "blacklist",
                "result": "Generic.Malware.SMP!Pkg.B8D96178"
            },
            "AVG": {
                "category": "malicious",
                "engine_name": "AVG",
                "engine_update": "20170806",
                "engine_version": "8.0.1489.320",
                "method": "blacklist",
                "result": "Win32:Emotet-AI [Trj]"
            },
            "AVware": {
                "category": "malicious",
                "engine_name": "AVware",
                "engine_update": "20170806",
                "engine_version": "1.5.0.42",
                "method": "blacklist",
                "result": "Worm.Win32.Ludbaruma.a (v)"
            },
            "Ad-Aware": {
                "category": "malicious",
                "engine_name": "Ad-Aware",
                "engine_update": "20170806",
                "engine_version": "3.0.3.1010",
                "method": "blacklist",
                "result": "Generic.Malware.SMP!Pkg.B8D96178"
            },
            "AegisLab": {
                "category": "malicious",
                "engine_name": "AegisLab",
                "engine_update": "20170806",
                "engine_version": "4.2",
                "method": "blacklist",
                "result": "Troj.W32.Regrun.tnq1"
            },
            "AhnLab-V3": {
                "category": "malicious",
                "engine_name": "AhnLab-V3",
                "engine_update": "20170806",
                "engine_version": "3.9.2.18278",
                "method": "blacklist",
                "result": "Backdoor/Win32.IRCBot.R1456"
            },
            "Alibaba": {
                "category": "type-unsupported",
                "engine_name": "Alibaba",
                "engine_update": "20170804",
                "engine_version": "1.0",
                "method": "blacklist",
                "result": null
            },
            "Antiy-AVL": {
                "category": "malicious",
                "engine_name": "Antiy-AVL",
                "engine_update": "20170806",
                "engine_version": "3.0.0.1",
                "method": "blacklist",
                "result": "Trojan[Banker]/Win32.Tinba"
            },
            "Arcabit": {
                "category": "malicious",
                "engine_name": "Arcabit",
                "engine_update": "20170806",
                "engine_version": "1.0.0.817",
                "method": "blacklist",
                "result": "Generic.Malware.SMP!Pkg.B8D96178"
            },
            "Avast": {
                "category": "malicious",
                "engine_name": "Avast",
                "engine_update": "20170806",
                "engine_version": "8.0.1489.320",
                "method": "blacklist",
                "result": "Win32:Emotet-AI [Trj]"
            },
            "Avira": {
                "category": "malicious",
                "engine_name": "Avira",
                "engine_update": "20170806",
                "engine_version": "8.3.3.4",
                "method": "blacklist",
                "result": "TR/BAS.Samca.cbaoi"
            },
            "Baidu": {
                "category": "malicious",
                "engine_name": "Baidu",
                "engine_update": "20170804",
                "engine_version": "1.0.0.2",
                "method": "blacklist",
                "result": "Win32.Worm.VB.k"
            },
            "BitDefender": {
                "category": "malicious",
                "engine_name": "BitDefender",
                "engine_update": "20170806",
                "engine_version": "7.2",
                "method": "blacklist",
                "result": "Generic.Malware.SMP!Pkg.B8D96178"
            },
            "Bkav": {
                "category": "malicious",
                "engine_name": "Bkav",
                "engine_update": "20170805",
                "engine_version": "1.3.0.9282",
                "method": "blacklist",
                "result": "W32.HfsOval.F20F"
            },
            "CAT-QuickHeal": {
                "category": "malicious",
                "engine_name": "CAT-QuickHeal",
                "engine_update": "20170805",
                "engine_version": "14.00",
                "method": "blacklist",
                "result": "Worm.Ludbaruma.A3"
            },
            "CMC": {
                "category": "undetected",
                "engine_name": "CMC",
                "engine_update": "20170805",
                "engine_version": "1.1.0.977",
                "method": "blacklist",
                "result": null
            },
            "ClamAV": {
                "category": "malicious",
                "engine_name": "ClamAV",
                "engine_update": "20170806",
                "engine_version": "0.99.2.0",
                "method": "blacklist",
                "result": "Win.Worm.Untukmu-5949608-0"
            },
            "Comodo": {
                "category": "malicious",
                "engine_name": "Comodo",
                "engine_update": "20170806",
                "engine_version": "27563",
                "method": "blacklist",
                "result": "TrojWare.Win32.Injector.FZZA"
            },
            "CrowdStrike": {
                "category": "malicious",
                "engine_name": "CrowdStrike",
                "engine_update": "20170710",
                "engine_version": "1.0",
                "method": "blacklist",
                "result": "malicious_confidence_100% (D)"
            },
            "Cylance": {
                "category": "malicious",
                "engine_name": "Cylance",
                "engine_update": "20170806",
                "engine_version": "2.3.1.101",
                "method": "blacklist",
                "result": "Unsafe"
            },
            "Cyren": {
                "category": "malicious",
                "engine_name": "Cyren",
                "engine_update": "20170806",
                "engine_version": "5.4.30.7",
                "method": "blacklist",
                "result": "W32/VBInject.IL.gen!Eldorado"
            },
            "DrWeb": {
                "category": "malicious",
                "engine_name": "DrWeb",
                "engine_update": "20170806",
                "engine_version": "7.0.28.2020",
                "method": "blacklist",
                "result": "Trojan.DownLoader7.3730"
            },
            "ESET-NOD32": {
                "category": "malicious",
                "engine_name": "ESET-NOD32",
                "engine_update": "20170806",
                "engine_version": "15870",
                "method": "blacklist",
                "result": "Win32/VB.ORD"
            },
            "Emsisoft": {
                "category": "malicious",
                "engine_name": "Emsisoft",
                "engine_update": "20170806",
                "engine_version": "4.0.1.883",
                "method": "blacklist",
                "result": "Generic.Malware.SMP!Pkg.B8D96178 (B)"
            },
            "Endgame": {
                "category": "malicious",
                "engine_name": "Endgame",
                "engine_update": "20170721",
                "engine_version": "0.7.6",
                "method": "blacklist",
                "result": "malicious (high confidence)"
            },
            "F-Prot": {
                "category": "malicious",
                "engine_name": "F-Prot",
                "engine_update": "20170806",
                "engine_version": "4.7.1.166",
                "method": "blacklist",
                "result": "W32/VBInject.IL.gen!Eldorado"
            },
            "F-Secure": {
                "category": "malicious",
                "engine_name": "F-Secure",
                "engine_update": "20170806",
                "engine_version": "11.0.19100.45",
                "method": "blacklist",
                "result": "Generic.Malware.SMP!Pkg.B8D96178"
            },
            "Fortinet": {
                "category": "malicious",
                "engine_name": "Fortinet",
                "engine_update": "20170806",
                "engine_version": "5.4.247.0",
                "method": "blacklist",
                "result": "W32/Regrun.PKE!tr"
            },
            "GData": {
                "category": "malicious",
                "engine_name": "GData",
                "engine_update": "20170806",
                "engine_version": "A:25.13723B:25.10167",
                "method": "blacklist",
                "result": "Generic.Malware.SMP!Pkg.B8D96178"
            },
            "Ikarus": {
                "category": "malicious",
                "engine_name": "Ikarus",
                "engine_update": "20170806",
                "engine_version": "0.1.5.2",
                "method": "blacklist",
                "result": "Trojan.AgentMB.VB"
            },
            "Invincea": {
                "category": "malicious",
                "engine_name": "Invincea",
                "engine_update": "20170607",
                "engine_version": "6.3.0.25415",
                "method": "blacklist",
                "result": "heuristic"
            },
            "Jiangmin": {
                "category": "malicious",
                "engine_name": "Jiangmin",
                "engine_update": "20170806",
                "engine_version": "16.0.100",
                "method": "blacklist",
                "result": "Trojan.Regrun.dz"
            },
            "K7AntiVirus": {
                "category": "malicious",
                "engine_name": "K7AntiVirus",
                "engine_update": "20170804",
                "engine_version": "10.20.24203",
                "method": "blacklist",
                "result": "Trojan ( 0040f6141 )"
            },
            "K7GW": {
                "category": "malicious",
                "engine_name": "K7GW",
                "engine_update": "20170806",
                "engine_version": "10.20.24209",
                "method": "blacklist",
                "result": "Trojan ( 0040f6141 )"
            },
            "Kaspersky": {
                "category": "malicious",
                "engine_name": "Kaspersky",
                "engine_update": "20170806",
                "engine_version": "15.0.1.13",
                "method": "blacklist",
                "result": "Trojan.Win32.Regrun.pke"
            },
            "Kingsoft": {
                "category": "undetected",
                "engine_name": "Kingsoft",
                "engine_update": "20170806",
                "engine_version": "2013.8.14.323",
                "method": "blacklist",
                "result": null
            },
            "MAX": {
                "category": "malicious",
                "engine_name": "MAX",
                "engine_update": "20170806",
                "engine_version": "2017.6.26.1",
                "method": "blacklist",
                "result": "malware (ai score=81)"
            },
            "Malwarebytes": {
                "category": "malicious",
                "engine_name": "Malwarebytes",
                "engine_update": "20170806",
                "engine_version": "2.1.1.1115",
                "method": "blacklist",
                "result": "Trojan.AVDis.CS"
            },
            "McAfee": {
                "category": "malicious",
                "engine_name": "McAfee",
                "engine_update": "20170804",
                "engine_version": "6.0.6.653",
                "method": "blacklist",
                "result": "W32/Rontokbro.gen@MM"
            },
            "McAfee-GW-Edition": {
                "category": "malicious",
                "engine_name": "McAfee-GW-Edition",
                "engine_update": "20170806",
                "engine_version": "v2015",
                "method": "blacklist",
                "result": "BehavesLike.Win32.Rontokbro.dm"
            },
            "MicroWorld-eScan": {
                "category": "malicious",
                "engine_name": "MicroWorld-eScan",
                "engine_update": "20170806",
                "engine_version": "12.0.250.0",
                "method": "blacklist",
                "result": "Generic.Malware.SMP!Pkg.B8D96178"
            },
            "Microsoft": {
                "category": "malicious",
                "engine_name": "Microsoft",
                "engine_update": "20170806",
                "engine_version": "1.1.14003.0",
                "method": "blacklist",
                "result": "Worm:Win32/Ludbaruma.A"
            },
            "NANO-Antivirus": {
                "category": "malicious",
                "engine_name": "NANO-Antivirus",
                "engine_update": "20170806",
                "engine_version": "1.0.94.18103",
                "method": "blacklist",
                "result": "Trojan.Win32.Regrun.dxtouo"
            },
            "Paloalto": {
                "category": "undetected",
                "engine_name": "Paloalto",
                "engine_update": "20170806",
                "engine_version": "1.0",
                "method": "blacklist",
                "result": null
            },
            "Panda": {
                "category": "malicious",
                "engine_name": "Panda",
                "engine_update": "20170806",
                "engine_version": "4.6.4.2",
                "method": "blacklist",
                "result": "Trj/Genetic.gen"
            },
            "Qihoo-360": {
                "category": "malicious",
                "engine_name": "Qihoo-360",
                "engine_update": "20170806",
                "engine_version": "1.0.0.1120",
                "method": "blacklist",
                "result": "HEUR/QVM41.1.FCA7.Malware.Gen"
            },
            "Rising": {
                "category": "malicious",
                "engine_name": "Rising",
                "engine_update": "20170806",
                "engine_version": "25.0.0.1",
                "method": "blacklist",
                "result": "Worm.VBInjectEx!1.99E6 (cloud:t5JX6ahnEmI)"
            },
            "SUPERAntiSpyware": {
                "category": "undetected",
                "engine_name": "SUPERAntiSpyware",
                "engine_update": "20170806",
                "engine_version": "5.6.0.1032",
                "method": "blacklist",
                "result": null
            },
            "SentinelOne": {
                "category": "malicious",
                "engine_name": "SentinelOne",
                "engine_update": "20170806",
                "engine_version": "1.0.2.235",
                "method": "blacklist",
                "result": "static engine - malicious"
            },
            "Sophos": {
                "category": "malicious",
                "engine_name": "Sophos",
                "engine_update": "20170806",
                "engine_version": "4.98.0",
                "method": "blacklist",
                "result": "W32/Mato-N"
            },
            "Symantec": {
                "category": "malicious",
                "engine_name": "Symantec",
                "engine_update": "20170805",
                "engine_version": "1.4.0.0",
                "method": "blacklist",
                "result": "SMG.Heur!gen"
            },
            "SymantecMobileInsight": {
                "category": "type-unsupported",
                "engine_name": "SymantecMobileInsight",
                "engine_update": "20170804",
                "engine_version": "1.0.0.35_220",
                "method": "blacklist",
                "result": null
            },
            "Tencent": {
                "category": "malicious",
                "engine_name": "Tencent",
                "engine_update": "20170806",
                "engine_version": "1.0.0.1",
                "method": "blacklist",
                "result": "Trojan-Ransom.Win32.Blocker.kalr"
            },
            "TheHacker": {
                "category": "malicious",
                "engine_name": "TheHacker",
                "engine_update": "20170806",
                "engine_version": "6.8.0.5.1813",
                "method": "blacklist",
                "result": "Trojan/VB.et"
            },
            "TotalDefense": {
                "category": "undetected",
                "engine_name": "TotalDefense",
                "engine_update": "20170806",
                "engine_version": "37.1.62.1",
                "method": "blacklist",
                "result": null
            },
            "TrendMicro": {
                "category": "malicious",
                "engine_name": "TrendMicro",
                "engine_update": "20170806",
                "engine_version": "9.862.0.1074",
                "method": "blacklist",
                "result": "TROJ_TINBA.SMH"
            },
            "TrendMicro-HouseCall": {
                "category": "malicious",
                "engine_name": "TrendMicro-HouseCall",
                "engine_update": "20170806",
                "engine_version": "9.950.0.1006",
                "method": "blacklist",
                "result": "TROJ_TINBA.SMH"
            },
            "Trustlook": {
                "category": "type-unsupported",
                "engine_name": "Trustlook",
                "engine_update": "20170806",
                "engine_version": "2",
                "method": "blacklist",
                "result": null
            },
            "VBA32": {
                "category": "malicious",
                "engine_name": "VBA32",
                "engine_update": "20170803",
                "engine_version": "3.12.26.4",
                "method": "blacklist",
                "result": "Trojan.Regrun"
            },
            "VIPRE": {
                "category": "malicious",
                "engine_name": "VIPRE",
                "engine_update": "20170806",
                "engine_version": "60100",
                "method": "blacklist",
                "result": "Worm.Win32.Ludbaruma.a (v)"
            },
            "ViRobot": {
                "category": "undetected",
                "engine_name": "ViRobot",
                "engine_update": "20170806",
                "engine_version": "2014.3.20.0",
                "method": "blacklist",
                "result": null
            },
            "Webroot": {
                "category": "malicious",
                "engine_name": "Webroot",
                "engine_update": "20170806",
                "engine_version": "1.0.0.207",
                "method": "blacklist",
                "result": "W32.Malware.Gen"
            },
            "WhiteArmor": {
                "category": "undetected",
                "engine_name": "WhiteArmor",
                "engine_update": "20170731",
                "engine_version": null,
                "method": "blacklist",
                "result": null
            },
            "Yandex": {
                "category": "malicious",
                "engine_name": "Yandex",
                "engine_update": "20170801",
                "engine_version": "5.5.1.3",
                "method": "blacklist",
                "result": "Trojan.Agent!o2EUNzRPHUE"
            },
            "Zillya": {
                "category": "malicious",
                "engine_name": "Zillya",
                "engine_update": "20170806",
                "engine_version": "2.0.0.3355",
                "method": "blacklist",
                "result": "Trojan.RegrunGen.Win32.1"
            },
            "ZoneAlarm": {
                "category": "malicious",
                "engine_name": "ZoneAlarm",
                "engine_update": "20170806",
                "engine_version": "1.0",
                "method": "blacklist",
                "result": "Trojan.Win32.Regrun.pke"
            },
            "Zoner": {
                "category": "undetected",
                "engine_name": "Zoner",
                "engine_update": "20170806",
                "engine_version": "1.0",
                "method": "blacklist",
                "result": null
            },
            "nProtect": {
                "category": "undetected",
                "engine_name": "nProtect",
                "engine_update": "20170806",
                "engine_version": "2017-08-06.02",
                "method": "blacklist",
                "result": null
            }
        },
        "last_analysis_stats": {
            "confirmed-timeout": 0,
            "failure": 0,
            "harmless": 0,
            "malicious": 56,
            "suspicious": 0,
            "timeout": 0,
            "type-unsupported": 3,
            "undetected": 9
        },
        "last_modification_date": 1502042469,
        "last_submission_date": 1502042222,
        "magic": "PE32 executable for MS Windows (GUI) Intel 80386 32-bit",
        "md5": "c731eb35625059046efbd0e2f4a5fca5",
        "meaningful_name": "DATA.exe",
        "names": [
            "c731eb35625059046efbd0e2f4a5fca5.virus",
            "DATA",
            "DATA.exe"
        ],
        "pe_info": {
            "entry_point": 9484,
            "imphash": "135e92fc9902f3140f2e5a51458efdf0",
            "import_list": [
                {
                    "imported_functions": [
                        "_adj_fdivr_m64",
                        "Ord(546)",
                        "Ord(518)",
                        "Ord(537)",
                        "__vbaStrFixstr",
                        "_allmul",
                        "__vbaGet3",
                        "_adj_fprem",
                        "__vbaObjVar",
                        "__vbaNextEachCollAd",
                        "__vbaRedimPreserve",
                        "__vbaVarMod",
                        "__vbaVarAnd",
                        "__vbaRedim",
                        "__vbaCopyBytes",
                        "_adj_fdiv_r",
                        "__vbaRecAnsiToUni",
                        "__vbaObjSetAddref",
                        "__vbaFixstrConstruct",
                        "_adj_fdiv_m64",
                        "__vbaHresultCheckObj",
                        "__vbaI2Var",
                        "_CIlog",
                        "Ord(616)",
                        "__vbaVarLateMemCallLd",
                        "_adj_fptan",
                        "__vbaFileClose",
                        "__vbaI4Var",
                        "__vbaRecUniToAnsi",
                        "__vbaFreeVar",
                        "__vbaFreeStr",
                        "Ord(631)",
                        "__vbaVarNot",
                        "__vbaFreeStrList",
                        "_adj_fdiv_m16i",
                        "EVENT_SINK_QueryInterface",
                        "Ord(617)",
                        "Ord(516)",
                        "Ord(607)",
                        "__vbaLenBstr",
                        "Ord(525)",
                        "Ord(594)",
                        "__vbaStrToUnicode",
                        "__vbaInStr",
                        "_adj_fdiv_m32i",
                        "Ord(717)",
                        "Ord(600)",
                        "__vbaExceptHandler",
                        "__vbaSetSystemError",
                        "DllFunctionCall",
                        "Ord(608)",
                        "__vbaBoolVarNull",
                        "__vbaForEachAry",
                        "__vbaFileOpen",
                        "_CIsin",
                        "__vbaInStrVar",
                        "__vbaLsetFixstr",
                        "__vbaVarTstEq",
                        "Ord(593)",
                        "Ord(667)",
                        "Ord(716)",
                        "__vbaOnError",
                        "_adj_fdivr_m32i",
                        "__vbaStrCat",
                        "__vbaVarDup",
                        "__vbaNextEachAry",
                        "__vbaChkstk",
                        "Ord(523)",
                        "__vbaPrintFile",
                        "EVENT_SINK_Release",
                        "__vbaStrCmp",
                        "__vbaAryUnlock",
                        "__vbaStrVarCopy",
                        "__vbaFreeObjList",
                        "__vbaVarCmpGt",
                        "__vbaFreeVarList",
                        "__vbaStrVarMove",
                        "Ord(618)",
                        "__vbaExitProc",
                        "__vbaVarOr",
                        "__vbaVarTstNe",
                        "__vbaVarXor",
                        "__vbaLateMemCallLd",
                        "__vbaAryConstruct2",
                        "Ord(520)",
                        "__vbaFreeObj",
                        "_adj_fdivr_m32",
                        "__vbaStrVarVal",
                        "__vbaVarSub",
                        "__vbaVarTstGt",
                        "_CIcos",
                        "Ord(528)",
                        "__vbaVarCmpNe",
                        "__vbaVarMove",
                        "__vbaVarCmpEq",
                        "Ord(669)",
                        "__vbaNew2",
                        "__vbaAryDestruct",
                        "__vbaStrMove",
                        "_adj_fprem1",
                        "Ord(619)",
                        "Ord(543)",
                        "_adj_fdiv_m32",
                        "__vbaLenVar",
                        "__vbaEnd",
                        "__vbaLateMemSt",
                        "__vbaVarLateMemCallLdRf",
                        "_adj_fpatan",
                        "EVENT_SINK_AddRef",
                        "Ord(547)",
                        "__vbaVarSetVar",
                        "__vbaStrCopy",
                        "Ord(632)",
                        "Ord(645)",
                        "__vbaFPException",
                        "_adj_fdivr_m16i",
                        "__vbaVarAdd",
                        "Ord(100)",
                        "Ord(544)",
                        "Ord(526)",
                        "_CIsqrt",
                        "_CIatan",
                        "__vbaLateMemCall",
                        "Ord(529)",
                        "__vbaPut3",
                        "__vbaObjSet",
                        "Ord(644)",
                        "__vbaVarCat",
                        "__vbaForEachCollAd",
                        "_CIexp",
                        "__vbaStrToAnsi",
                        "_CItan",
                        "__vbaFpI4",
                        "Ord(598)",
                        "__vbaFpI2"
                    ],
                    "library_name": "MSVBVM60.DLL"
                }
            ],
            "machine_type": 332,
            "overlay": {
                "entropy": 5.758743394742274,
                "filetype": "application/x-ms-dos-executable",
                "md5": "3abdf4a9ba1c57697cce037062e9445b",
                "offset": 167936,
                "size": 110592
            },
            "resource_details": [
                {
                    "filetype": "data",
                    "lang": "NEUTRAL",
                    "sha256": "e4938ec7ac6201183685b2a959309d5eccb95af4e5483755ef478ea90fe26aff",
                    "type": "RT_ICON"
                },
                {
                    "filetype": "data",
                    "lang": "NEUTRAL",
                    "sha256": "d9b5896e1c4c6ef492411bee875c012ec512f0ecbaebd1c1dd1f90ee40e7f081",
                    "type": "RT_ICON"
                },
                {
                    "filetype": "data",
                    "lang": "NEUTRAL",
                    "sha256": "4fd401fa62e7b1483b3f3c53b4a03b7d598ba1480f76ee489352e2377b60b502",
                    "type": "RT_ICON"
                },
                {
                    "filetype": "data",
                    "lang": "NEUTRAL",
                    "sha256": "af8bbba38dd87838596082342b3002aa3ca69e1c2139949814d1f304b805635d",
                    "type": "RT_GROUP_ICON"
                },
                {
                    "filetype": "data",
                    "lang": "ENGLISH US",
                    "sha256": "5eb1c5212fdef6ab85c47fd2988578aae79ca8cdcc03f7f35db1b50d1406f1d9",
                    "type": "RT_VERSION"
                }
            ],
            "resource_langs": {
                "ENGLISH US": 1,
                "NEUTRAL": 4
            },
            "resource_types": {
                "RT_GROUP_ICON": 1,
                "RT_ICON": 3,
                "RT_VERSION": 1
            },
            "sections": [
                {
                    "entropy": 5.72,
                    "md5": "a70f96b64a0253b694f6308ddefb3aae",
                    "name": ".text",
                    "raw_size": 147456,
                    "virtual_address": 4096,
                    "virtual_size": 143500
                },
                {
                    "entropy": 0.0,
                    "md5": "620f0b67a91f7f74151bc5be745b7110",
                    "name": ".data",
                    "raw_size": 4096,
                    "virtual_address": 151552,
                    "virtual_size": 4240
                },
                {
                    "entropy": 2.92,
                    "md5": "b4192861f9fe058fe72fd6e98b9042c1",
                    "name": ".rsrc",
                    "raw_size": 12288,
                    "virtual_address": 159744,
                    "virtual_size": 8252
                }
            ],
            "timestamp": 1164619441
        },
        "reputation": 0,
        "sha1": "7bdd36682a8d371a8d4d0a594cd386d2b62cd623",
        "sha256": "0000ec6fa3aef33dd7f5f35d7d19fb150508565e563611e9a6514b21b046aada",
        "signature_info": {
            "file version": "0.00.0020",
            "internal name": "DATA",
            "original name": "DATA.exe",
            "product": "xk"
        },
        "size": 278528,
        "ssdeep": "3072:Ax/5F/E7tEf0Q+p+tYlpJH7iXQNgggHlxDZiYLK5Wpht4xZVX4/awxf/:AxhF4cV+wWJH7igNgjdFKsCRAR/",
        "tags": [
            "peexe",
            "overlay"
        ],
        "times_submitted": 1,
        "total_votes": {
            "harmless": 0,
            "malicious": 0
        },
        "trid": [
            {
                "file_type": "Win32 Executable Microsoft Visual Basic 6",
                "probability": 63.9
            },
            {
                "file_type": "Win32 Executable MS Visual C++ (generic)",
                "probability": 24.3
            },
            {
                "file_type": "Win32 Dynamic Link Library (generic)",
                "probability": 5.1
            },
            {
                "file_type": "Win32 Executable (generic)",
                "probability": 3.5
            },
            {
                "file_type": "Generic Win/DOS Executable",
                "probability": 1.5
            }
        ],
        "type_description": "Win32 EXE",
        "type_extension": "exe",
        "type_tag": "peexe",
        "unique_sources": 1,
        "vhash": "0250365d051)z873z"
    },
    "id": "0000ec6fa3aef33dd7f5f35d7d19fb150508565e563611e9a6514b21b046aada",
    "links": {
        "self": "https://www.virustotal.com/api/v3/files/0000ec6fa3aef33dd7f5f35d7d19fb150508565e563611e9a6514b21b046aada"
    },
    "type": "file"
}