{
    "attributes": {
        "authentihash": "b13bd2514c93c3d5ab0cb3c256e54f37b24306fb0af26c6832f10131234e7dae",
        "creation_date": 1553779721,
        "first_submission_date": 1554798762,
        "last_analysis_date": 1596333332,
        "last_analysis_results": {
            "ALYac": {
                "category": "malicious",
                "engine_name": "ALYac",
                "engine_update": "20200802",
                "engine_version": "1.1.1.5",
                "method": "blacklist",
                "result": "Trojan.Agent.DSOY"
            },
            "APEX": {
                "category": "malicious",
                "engine_name": "APEX",
                "engine_update": "20200801",
                "engine_version": "6.53",
                "method": "blacklist",
                "result": "Malicious"
            },
            "AVG": {
                "category": "malicious",
                "engine_name": "AVG",
                "engine_update": "20200802",
                "engine_version": "18.4.3895.0",
                "method": "blacklist",
                "result": "Win32:AdwareX-gen [Adw]"
            },
            "Acronis": {
                "category": "malicious",
                "engine_name": "Acronis",
                "engine_update": "20200603",
                "engine_version": "1.1.1.76",
                "method": "blacklist",
                "result": "suspicious"
            },
            "Ad-Aware": {
                "category": "malicious",
                "engine_name": "Ad-Aware",
                "engine_update": "20200802",
                "engine_version": "3.0.5.370",
                "method": "blacklist",
                "result": "Trojan.Agent.DSOY"
            },
            "AegisLab": {
                "category": "malicious",
                "engine_name": "AegisLab",
                "engine_update": "20200802",
                "engine_version": "4.2",
                "method": "blacklist",
                "result": "Trojan.Win32.Generic.4!c"
            },
            "AhnLab-V3": {
                "category": "malicious",
                "engine_name": "AhnLab-V3",
                "engine_update": "20200801",
                "engine_version": "3.18.1.10026",
                "method": "blacklist",
                "result": "PUP/Win32.StartSurf.R261547"
            },
            "Alibaba": {
                "category": "malicious",
                "engine_name": "Alibaba",
                "engine_update": "20190527",
                "engine_version": "0.3.0.5",
                "method": "blacklist",
                "result": "Trojan:Win32/Kryptik.33202f33"
            },
            "Antiy-AVL": {
                "category": "undetected",
                "engine_name": "Antiy-AVL",
                "engine_update": "20200802",
                "engine_version": "3.0.0.1",
                "method": "blacklist",
                "result": null
            },
            "Arcabit": {
                "category": "undetected",
                "engine_name": "Arcabit",
                "engine_update": "20200801",
                "engine_version": "1.0.0.877",
                "method": "blacklist",
                "result": null
            },
            "Avast": {
                "category": "malicious",
                "engine_name": "Avast",
                "engine_update": "20200802",
                "engine_version": "18.4.3895.0",
                "method": "blacklist",
                "result": "Win32:AdwareX-gen [Adw]"
            },
            "Avast-Mobile": {
                "category": "undetected",
                "engine_name": "Avast-Mobile",
                "engine_update": "20200801",
                "engine_version": "200801-00",
                "method": "blacklist",
                "result": null
            },
            "Avira": {
                "category": "malicious",
                "engine_name": "Avira",
                "engine_update": "20200802",
                "engine_version": "8.3.3.8",
                "method": "blacklist",
                "result": "HEUR/AGEN.1103347"
            },
            "Baidu": {
                "category": "undetected",
                "engine_name": "Baidu",
                "engine_update": "20190318",
                "engine_version": "1.0.0.2",
                "method": "blacklist",
                "result": null
            },
            "BitDefender": {
                "category": "malicious",
                "engine_name": "BitDefender",
                "engine_update": "20200802",
                "engine_version": "7.2",
                "method": "blacklist",
                "result": "Trojan.Agent.DSOY"
            },
            "BitDefenderTheta": {
                "category": "malicious",
                "engine_name": "BitDefenderTheta",
                "engine_update": "20200730",
                "engine_version": "7.2.37796.0",
                "method": "blacklist",
                "result": "Gen:NN.ZexaF.34144.OqW@ay5lVigi"
            },
            "Bkav": {
                "category": "malicious",
                "engine_name": "Bkav",
                "engine_update": "20200801",
                "engine_version": "1.3.0.9899",
                "method": "blacklist",
                "result": "W32.AIDetectVM.malware2"
            },
            "CMC": {
                "category": "undetected",
                "engine_name": "CMC",
                "engine_update": "20200802",
                "engine_version": "2.7.2019.1",
                "method": "blacklist",
                "result": null
            },
            "ClamAV": {
                "category": "undetected",
                "engine_name": "ClamAV",
                "engine_update": "20200801",
                "engine_version": "0.102.4.0",
                "method": "blacklist",
                "result": null
            },
            "Comodo": {
                "category": "malicious",
                "engine_name": "Comodo",
                "engine_update": "20200728",
                "engine_version": "32668",
                "method": "blacklist",
                "result": "Application.Win32.Prepscram.GZ@83qt3r"
            },
            "CrowdStrike": {
                "category": "malicious",
                "engine_name": "CrowdStrike",
                "engine_update": "20190702",
                "engine_version": "1.0",
                "method": "blacklist",
                "result": "win/malicious_confidence_60% (W)"
            },
            "Cybereason": {
                "category": "malicious",
                "engine_name": "Cybereason",
                "engine_update": "20190616",
                "engine_version": "1.2.449",
                "method": "blacklist",
                "result": "malicious.f97957"
            },
            "Cylance": {
                "category": "malicious",
                "engine_name": "Cylance",
                "engine_update": "20200802",
                "engine_version": "2.3.1.101",
                "method": "blacklist",
                "result": "Unsafe"
            },
            "Cynet": {
                "category": "malicious",
                "engine_name": "Cynet",
                "engine_update": "20200728",
                "engine_version": "4.0.0.24",
                "method": "blacklist",
                "result": "Malicious (score: 100)"
            },
            "Cyren": {
                "category": "malicious",
                "engine_name": "Cyren",
                "engine_update": "20200802",
                "engine_version": "6.3.0.2",
                "method": "blacklist",
                "result": "W32/S-72061a5e!Eldorado"
            },
            "DrWeb": {
                "category": "malicious",
                "engine_name": "DrWeb",
                "engine_update": "20200802",
                "engine_version": "7.0.46.3050",
                "method": "blacklist",
                "result": "Trojan.Siggen8.21375"
            },
            "ESET-NOD32": {
                "category": "malicious",
                "engine_name": "ESET-NOD32",
                "engine_update": "20200801",
                "engine_version": "21753",
                "method": "blacklist",
                "result": "a variant of Win32/Kryptik.GOGZ"
            },
            "Emsisoft": {
                "category": "malicious",
                "engine_name": "Emsisoft",
                "engine_update": "20200802",
                "engine_version": "2018.12.0.1641",
                "method": "blacklist",
                "result": "Trojan.Agent.DSOY (B)"
            },
            "Endgame": {
                "category": "malicious",
                "engine_name": "Endgame",
                "engine_update": "20200727",
                "engine_version": "4.0.6",
                "method": "blacklist",
                "result": "malicious (high confidence)"
            },
            "F-Prot": {
                "category": "malicious",
                "engine_name": "F-Prot",
                "engine_update": "20200802",
                "engine_version": "4.7.1.166",
                "method": "blacklist",
                "result": "W32/S-72061a5e!Eldorado"
            },
            "F-Secure": {
                "category": "malicious",
                "engine_name": "F-Secure",
                "engine_update": "20200802",
                "engine_version": "12.0.86.52",
                "method": "blacklist",
                "result": "Heuristic.HEUR/AGEN.1103347"
            },
            "FireEye": {
                "category": "malicious",
                "engine_name": "FireEye",
                "engine_update": "20200802",
                "engine_version": "32.36.1.0",
                "method": "blacklist",
                "result": "Generic.mg.a6eb419f97957d61"
            },
            "Fortinet": {
                "category": "malicious",
                "engine_name": "Fortinet",
                "engine_update": "20200729",
                "engine_version": "6.2.142.0",
                "method": "blacklist",
                "result": "W32/GenKryptik.CUPB!tr"
            },
            "GData": {
                "category": "malicious",
                "engine_name": "GData",
                "engine_update": "20200802",
                "engine_version": "A:25.26437B:27.19651",
                "method": "blacklist",
                "result": "Win32.Trojan.Prepscram.A"
            },
            "Ikarus": {
                "category": "failure",
                "engine_name": "Ikarus",
                "engine_update": "20200801",
                "engine_version": "0.1.5.2",
                "method": "blacklist",
                "result": null
            },
            "Invincea": {
                "category": "malicious",
                "engine_name": "Invincea",
                "engine_update": "20200502",
                "engine_version": "6.3.6.26157",
                "method": "blacklist",
                "result": "heuristic"
            },
            "Jiangmin": {
                "category": "malicious",
                "engine_name": "Jiangmin",
                "engine_update": "20200802",
                "engine_version": "16.0.100",
                "method": "blacklist",
                "result": "Trojan.Generic.ddeoq"
            },
            "K7AntiVirus": {
                "category": "malicious",
                "engine_name": "K7AntiVirus",
                "engine_update": "20200731",
                "engine_version": "11.127.34861",
                "method": "blacklist",
                "result": "Trojan ( 0054ea9e1 )"
            },
            "K7GW": {
                "category": "malicious",
                "engine_name": "K7GW",
                "engine_update": "20200801",
                "engine_version": "11.127.34865",
                "method": "blacklist",
                "result": "Trojan ( 0054619f1 )"
            },
            "Kaspersky": {
                "category": "malicious",
                "engine_name": "Kaspersky",
                "engine_update": "20200802",
                "engine_version": "15.0.1.13",
                "method": "blacklist",
                "result": "HEUR:Trojan.Win32.Generic"
            },
            "Kingsoft": {
                "category": "undetected",
                "engine_name": "Kingsoft",
                "engine_update": "20200802",
                "engine_version": "2013.8.14.323",
                "method": "blacklist",
                "result": null
            },
            "MAX": {
                "category": "malicious",
                "engine_name": "MAX",
                "engine_update": "20200802",
                "engine_version": "2019.9.16.1",
                "method": "blacklist",
                "result": "malware (ai score=100)"
            },
            "Malwarebytes": {
                "category": "malicious",
                "engine_name": "Malwarebytes",
                "engine_update": "20200802",
                "engine_version": "3.6.4.335",
                "method": "blacklist",
                "result": "Adware.IStartSurf"
            },
            "MaxSecure": {
                "category": "failure",
                "engine_name": "MaxSecure",
                "engine_update": null,
                "engine_version": null,
                "method": "blacklist",
                "result": null
            },
            "McAfee": {
                "category": "malicious",
                "engine_name": "McAfee",
                "engine_update": "20200802",
                "engine_version": "6.0.6.653",
                "method": "blacklist",
                "result": "Packed-FSD!A6EB419F9795"
            },
            "McAfee-GW-Edition": {
                "category": "failure",
                "engine_name": "McAfee-GW-Edition",
                "engine_update": "20200801",
                "engine_version": null,
                "method": "blacklist",
                "result": null
            },
            "MicroWorld-eScan": {
                "category": "malicious",
                "engine_name": "MicroWorld-eScan",
                "engine_update": "20200802",
                "engine_version": "14.0.409.0",
                "method": "blacklist",
                "result": "Trojan.Agent.DSOY"
            },
            "Microsoft": {
                "category": "malicious",
                "engine_name": "Microsoft",
                "engine_update": "20200802",
                "engine_version": "1.1.17300.4",
                "method": "blacklist",
                "result": "SoftwareBundler:Win32/Prepscram"
            },
            "NANO-Antivirus": {
                "category": "malicious",
                "engine_name": "NANO-Antivirus",
                "engine_update": "20200802",
                "engine_version": "1.0.134.25119",
                "method": "blacklist",
                "result": "Trojan.Win32.Kryptik.foojui"
            },
            "Paloalto": {
                "category": "malicious",
                "engine_name": "Paloalto",
                "engine_update": "20200802",
                "engine_version": "1.0",
                "method": "blacklist",
                "result": "generic.ml"
            },
            "Panda": {
                "category": "malicious",
                "engine_name": "Panda",
                "engine_update": "20200801",
                "engine_version": "4.6.4.2",
                "method": "blacklist",
                "result": "Trj/Genetic.gen"
            },
            "Qihoo-360": {
                "category": "malicious",
                "engine_name": "Qihoo-360",
                "engine_update": "20200802",
                "engine_version": "1.0.0.1120",
                "method": "blacklist",
                "result": "Win32/Trojan.913"
            },
            "Rising": {
                "category": "malicious",
                "engine_name": "Rising",
                "engine_update": "20200802",
                "engine_version": "25.0.0.26",
                "method": "blacklist",
                "result": "Trojan.Kryptik!8.8 (CLOUD)"
            },
            "SUPERAntiSpyware": {
                "category": "malicious",
                "engine_name": "SUPERAntiSpyware",
                "engine_update": "20200731",
                "engine_version": "5.6.0.1032",
                "method": "blacklist",
                "result": "Trojan.Agent/Gen-Kryptik"
            },
            "Sangfor": {
                "category": "malicious",
                "engine_name": "Sangfor",
                "engine_update": "20200423",
                "engine_version": "1.0",
                "method": "blacklist",
                "result": "Malware"
            },
            "SentinelOne": {
                "category": "malicious",
                "engine_name": "SentinelOne",
                "engine_update": "20200725",
                "engine_version": "4.4.0.0",
                "method": "blacklist",
                "result": "DFI - Malicious PE"
            },
            "Sophos": {
                "category": "malicious",
                "engine_name": "Sophos",
                "engine_update": "20200802",
                "engine_version": "4.98.0",
                "method": "blacklist",
                "result": "IStartSurfInstaller (PUA)"
            },
            "Symantec": {
                "category": "malicious",
                "engine_name": "Symantec",
                "engine_update": "20200801",
                "engine_version": "1.11.0.0",
                "method": "blacklist",
                "result": "ML.Attribute.HighConfidence"
            },
            "SymantecMobileInsight": {
                "category": "type-unsupported",
                "engine_name": "SymantecMobileInsight",
                "engine_update": "20200701",
                "engine_version": "2.0",
                "method": "blacklist",
                "result": null
            },
            "TACHYON": {
                "category": "undetected",
                "engine_name": "TACHYON",
                "engine_update": "20200802",
                "engine_version": "2020-08-02.01",
                "method": "blacklist",
                "result": null
            },
            "Tencent": {
                "category": "malicious",
                "engine_name": "Tencent",
                "engine_update": "20200802",
                "engine_version": "1.0.0.1",
                "method": "blacklist",
                "result": "Malware.Win32.Gencirc.10b0cfaf"
            },
            "TotalDefense": {
                "category": "undetected",
                "engine_name": "TotalDefense",
                "engine_update": "20200801",
                "engine_version": "37.1.62.1",
                "method": "blacklist",
                "result": null
            },
            "Trapmine": {
                "category": "undetected",
                "engine_name": "Trapmine",
                "engine_update": "20200727",
                "engine_version": "3.5.0.1023",
                "method": "blacklist",
                "result": null
            },
            "TrendMicro": {
                "category": "malicious",
                "engine_name": "TrendMicro",
                "engine_update": "20200802",
                "engine_version": "11.0.0.1006",
                "method": "blacklist",
                "result": "TROJ_GEN.R002C0PFR20"
            },
            "TrendMicro-HouseCall": {
                "category": "malicious",
                "engine_name": "TrendMicro-HouseCall",
                "engine_update": "20200802",
                "engine_version": "10.0.0.1040",
                "method": "blacklist",
                "result": "TROJ_GEN.R002C0PFR20"
            },
            "Trustlook": {
                "category": "type-unsupported",
                "engine_name": "Trustlook",
                "engine_update": "20200802",
                "engine_version": "1.0",
                "method": "blacklist",
                "result": null
            },
            "VBA32": {
                "category": "malicious",
                "engine_name": "VBA32",
                "engine_update": "20200731",
                "engine_version": "4.4.1",
                "method": "blacklist",
                "result": "Trojan.Ludicrouz"
            },
            "VIPRE": {
                "category": "malicious",
                "engine_name": "VIPRE",
                "engine_update": "20200802",
                "engine_version": "85632",
                "method": "blacklist",
                "result": "Trojan.Win32.Generic!BT"
            },
            "ViRobot": {
                "category": "undetected",
                "engine_name": "ViRobot",
                "engine_update": "20200801",
                "engine_version": "2014.3.20.0",
                "method": "blacklist",
                "result": null
            },
            "Webroot": {
                "category": "malicious",
                "engine_name": "Webroot",
                "engine_update": "20200802",
                "engine_version": "1.0.0.403",
                "method": "blacklist",
                "result": "W32.Adware.Gen"
            },
            "Yandex": {
                "category": "undetected",
                "engine_name": "Yandex",
                "engine_update": "20200707",
                "engine_version": "5.5.2.24",
                "method": "blacklist",
                "result": null
            },
            "Zillya": {
                "category": "undetected",
                "engine_name": "Zillya",
                "engine_update": "20200731",
                "engine_version": "2.0.0.4144",
                "method": "blacklist",
                "result": null
            },
            "ZoneAlarm": {
                "category": "malicious",
                "engine_name": "ZoneAlarm",
                "engine_update": "20200802",
                "engine_version": "1.0",
                "method": "blacklist",
                "result": "HEUR:Trojan.Win32.Generic"
            },
            "Zoner": {
                "category": "undetected",
                "engine_name": "Zoner",
                "engine_update": "20200802",
                "engine_version": "0.0.0.0",
                "method": "blacklist",
                "result": null
            },
            "eGambit": {
                "category": "malicious",
                "engine_name": "eGambit",
                "engine_update": "20200802",
                "engine_version": null,
                "method": "blacklist",
                "result": "Unsafe.AI_Score_99%"
            }
        },
        "last_analysis_stats": {
            "confirmed-timeout": 0,
            "failure": 3,
            "harmless": 0,
            "malicious": 56,
            "suspicious": 0,
            "timeout": 0,
            "type-unsupported": 2,
            "undetected": 14
        },
        "last_modification_date": 1605706866,
        "last_submission_date": 1554798762,
        "magic": "PE32 executable for MS Windows (console) Intel 80386 32-bit",
        "md5": "a6eb419f97957d61fafcfe1ba04a177c",
        "names": [],
        "pe_info": {
            "entry_point": 5579,
            "imphash": "4c90fc9dffad99d6eb1537821c7ade42",
            "import_list": [
                {
                    "imported_functions": [
                        "GetLastError",
                        "InitializeCriticalSectionAndSpinCount",
                        "HeapFree",
                        "IsProcessorFeaturePresent",
                        "EnterCriticalSection",
                        "LCMapStringW",
                        "GetModuleFileNameW",
                        "GetConsoleCP",
                        "FreeLibrary",
                        "QueryPerformanceCounter",
                        "HeapReAlloc",
                        "IsDebuggerPresent",
                        "EncodePointer",
                        "TlsAlloc",
                        "GetOEMCP",
                        "GetEnvironmentStringsW",
                        "FlushFileBuffers",
                        "RtlUnwind",
                        "GetStdHandle",
                        "DeleteCriticalSection",
                        "GetCurrentProcess",
                        "GetConsoleMode",
                        "HeapSize",
                        "GetCurrentProcessId",
                        "GetCommandLineW",
                        "WideCharToMultiByte",
                        "UnhandledExceptionFilter",
                        "LoadLibraryExW",
                        "MultiByteToWideChar",
                        "GetStartupInfoW",
                        "SetFilePointerEx",
                        "FreeEnvironmentStringsW",
                        "GetCommandLineA",
                        "GetProcAddress",
                        "InitializeSListHead",
                        "GetFileType",
                        "SetStdHandle",
                        "CompareStringW",
                        "RaiseException",
                        "GetCPInfo",
                        "SetEnvironmentVariableW",
                        "TlsFree",
                        "FindNextFileW",
                        "SetUnhandledExceptionFilter",
                        "WriteFile",
                        "DecodePointer",
                        "CloseHandle",
                        "GetSystemTimeAsFileTime",
                        "GetACP",
                        "FindFirstFileExW",
                        "GetStringTypeW",
                        "GetModuleHandleW",
                        "HeapAlloc",
                        "TerminateProcess",
                        "GetModuleHandleExW",
                        "IsValidCodePage",
                        "CreateFileW",
                        "GetConsoleWindow",
                        "FindClose",
                        "TlsGetValue",
                        "WriteConsoleW",
                        "TlsSetValue",
                        "ExitProcess",
                        "GetCurrentThreadId",
                        "GetProcessHeap",
                        "SetLastError",
                        "LeaveCriticalSection"
                    ],
                    "library_name": "KERNEL32.dll"
                },
                {
                    "imported_functions": [
                        "ShowWindow"
                    ],
                    "library_name": "USER32.dll"
                }
            ],
            "machine_type": 332,
            "resource_details": [
                {
                    "chi2": 7346.59375,
                    "entropy": 4.99851655960083,
                    "filetype": "application/xml",
                    "lang": "ENGLISH US",
                    "sha256": "4d9a4e0560ed3a04e83d9c2ac91c4cdc215df785f73c4003ebedb3f29dc24411",
                    "type": "RT_MANIFEST"
                }
            ],
            "resource_langs": {
                "ENGLISH US": 1
            },
            "resource_types": {
                "RT_MANIFEST": 1
            },
            "sections": [
                {
                    "chi2": 307424.06,
                    "entropy": 6.61,
                    "flags": "rx",
                    "md5": "2c9232d927d6bfccc7f0a5fe95e9ff8c",
                    "name": ".text",
                    "raw_size": 56832,
                    "virtual_address": 4096,
                    "virtual_size": 56656
                },
                {
                    "chi2": 3002661.75,
                    "entropy": 7.44,
                    "flags": "rwx",
                    "md5": "669b0604d24cbe231d2af7fb9ad3d30d",
                    "name": ".rdata",
                    "raw_size": 603648,
                    "virtual_address": 61440,
                    "virtual_size": 603572
                },
                {
                    "chi2": 289096.75,
                    "entropy": 2.33,
                    "flags": "rw",
                    "md5": "2b2475e2b0c1700f6682f0ddf9524e76",
                    "name": ".data",
                    "raw_size": 2048,
                    "virtual_address": 667648,
                    "virtual_size": 4652
                },
                {
                    "chi2": 34258.0,
                    "entropy": 4.3,
                    "flags": "r",
                    "md5": "981272885797d4a4fefc90262f8691bf",
                    "name": ".rsrc",
                    "raw_size": 1024,
                    "virtual_address": 675840,
                    "virtual_size": 760
                }
            ],
            "timestamp": 1553779721
        },
        "reputation": 0,
        "sha1": "e7c5381b5e26dbfc9c45ae9b2312c0c845396e35",
        "sha256": "00000cae80bac4c4591dd2f4451d0d1543ecd8d62eb8bcdc22a6bd45ba738d7d",
        "size": 664576,
        "ssdeep": "12288:JSFiCRx7PULJiw/21MEAh5PmTJPnjmSPREG8n/ENAGDlMYzcu:/CxA1HO1M1ONPjmSPRuM7MKt",
        "tags": [
            "peexe"
        ],
        "times_submitted": 1,
        "total_votes": {
            "harmless": 0,
            "malicious": 0
        },
        "trid": [
            {
                "file_type": "Win64 Executable (generic)",
                "probability": 46.9
            },
            {
                "file_type": "Win16 NE executable (generic)",
                "probability": 23.8
            },
            {
                "file_type": "Win32 Dynamic Link Library (generic)",
                "probability": 11.1
            },
            {
                "file_type": "Win32 Executable (generic)",
                "probability": 7.6
            },
            {
                "file_type": "OS/2 Executable (generic)",
                "probability": 3.4
            }
        ],
        "type_description": "Win32 EXE",
        "type_extension": "exe",
        "type_tag": "peexe",
        "unique_sources": 1,
        "vhash": "0650466f7d151az43nz1fz"
    },
    "id": "00000cae80bac4c4591dd2f4451d0d1543ecd8d62eb8bcdc22a6bd45ba738d7d",
    "links": {
        "self": "https://www.virustotal.com/api/v3/files/00000cae80bac4c4591dd2f4451d0d1543ecd8d62eb8bcdc22a6bd45ba738d7d"
    },
    "type": "file"
}