{
    "attributes": {
        "authentihash": "3c70dbecc79e408885409de74f550a7f5e2960edb8a6183b26e52e86dba4d31c",
        "creation_date": 1404237733,
        "first_submission_date": 1524834598,
        "last_analysis_date": 1524834598,
        "last_analysis_results": {
            "ALYac": {
                "category": "malicious",
                "engine_name": "ALYac",
                "engine_update": "20180427",
                "engine_version": "1.1.1.5",
                "method": "blacklist",
                "result": "Trojan.GenericKD.30606265"
            },
            "AVG": {
                "category": "malicious",
                "engine_name": "AVG",
                "engine_update": "20180427",
                "engine_version": "18.3.3860.0",
                "method": "blacklist",
                "result": "Win32:Banker-LAA [Trj]"
            },
            "AVware": {
                "category": "malicious",
                "engine_name": "AVware",
                "engine_update": "20180427",
                "engine_version": "1.5.0.42",
                "method": "blacklist",
                "result": "Trojan.Win32.Generic!BT"
            },
            "Ad-Aware": {
                "category": "malicious",
                "engine_name": "Ad-Aware",
                "engine_update": "20180427",
                "engine_version": "3.0.5.370",
                "method": "blacklist",
                "result": "Trojan.GenericKD.30606265"
            },
            "AhnLab-V3": {
                "category": "malicious",
                "engine_name": "AhnLab-V3",
                "engine_update": "20180427",
                "engine_version": "3.12.0.20656",
                "method": "blacklist",
                "result": "PUP/Win32.Snojan.R217833"
            },
            "Alibaba": {
                "category": "type-unsupported",
                "engine_name": "Alibaba",
                "engine_update": "20180427",
                "engine_version": "1.0",
                "method": "blacklist",
                "result": null
            },
            "Antiy-AVL": {
                "category": "malicious",
                "engine_name": "Antiy-AVL",
                "engine_update": "20180427",
                "engine_version": "3.0.0.1",
                "method": "blacklist",
                "result": "RiskWare[Downloader]/Win32.Snojan"
            },
            "Arcabit": {
                "category": "malicious",
                "engine_name": "Arcabit",
                "engine_update": "20180427",
                "engine_version": "1.0.0.831",
                "method": "blacklist",
                "result": "Trojan.Generic.D1D303B9"
            },
            "Avast": {
                "category": "malicious",
                "engine_name": "Avast",
                "engine_update": "20180427",
                "engine_version": "18.3.3860.0",
                "method": "blacklist",
                "result": "Win32:Banker-LAA [Trj]"
            },
            "Avast-Mobile": {
                "category": "undetected",
                "engine_name": "Avast-Mobile",
                "engine_update": "20180426",
                "engine_version": "180426-04",
                "method": "blacklist",
                "result": null
            },
            "Avira": {
                "category": "malicious",
                "engine_name": "Avira",
                "engine_update": "20180427",
                "engine_version": "8.3.3.6",
                "method": "blacklist",
                "result": "TR/Spy.Banker.axzdc"
            },
            "Babable": {
                "category": "undetected",
                "engine_name": "Babable",
                "engine_update": "20180406",
                "engine_version": "9107201",
                "method": "blacklist",
                "result": null
            },
            "Baidu": {
                "category": "undetected",
                "engine_name": "Baidu",
                "engine_update": "20180426",
                "engine_version": "1.0.0.2",
                "method": "blacklist",
                "result": null
            },
            "BitDefender": {
                "category": "malicious",
                "engine_name": "BitDefender",
                "engine_update": "20180427",
                "engine_version": "7.2",
                "method": "blacklist",
                "result": "Trojan.GenericKD.30606265"
            },
            "Bkav": {
                "category": "malicious",
                "engine_name": "Bkav",
                "engine_update": "20180426",
                "engine_version": "1.3.0.9466",
                "method": "blacklist",
                "result": "W32.FamVT.Any1VM.Trojan"
            },
            "CAT-QuickHeal": {
                "category": "malicious",
                "engine_name": "CAT-QuickHeal",
                "engine_update": "20180427",
                "engine_version": "14.00",
                "method": "blacklist",
                "result": "Trojan.Snojan.S1829144"
            },
            "CMC": {
                "category": "undetected",
                "engine_name": "CMC",
                "engine_update": "20180427",
                "engine_version": "1.1.0.977",
                "method": "blacklist",
                "result": null
            },
            "ClamAV": {
                "category": "undetected",
                "engine_name": "ClamAV",
                "engine_update": "20180427",
                "engine_version": "0.99.2.0",
                "method": "blacklist",
                "result": null
            },
            "Comodo": {
                "category": "undetected",
                "engine_name": "Comodo",
                "engine_update": "20180427",
                "engine_version": null,
                "method": "blacklist",
                "result": null
            },
            "CrowdStrike": {
                "category": "undetected",
                "engine_name": "CrowdStrike",
                "engine_update": "20180418",
                "engine_version": "1.0",
                "method": "blacklist",
                "result": null
            },
            "Cybereason": {
                "category": "type-unsupported",
                "engine_name": "Cybereason",
                "engine_update": null,
                "engine_version": null,
                "method": "blacklist",
                "result": null
            },
            "Cylance": {
                "category": "undetected",
                "engine_name": "Cylance",
                "engine_update": "20180427",
                "engine_version": "2.3.1.101",
                "method": "blacklist",
                "result": null
            },
            "Cyren": {
                "category": "malicious",
                "engine_name": "Cyren",
                "engine_update": "20180427",
                "engine_version": "5.4.30.7",
                "method": "blacklist",
                "result": "W32/S-f9d51e84!Eldorado"
            },
            "DrWeb": {
                "category": "malicious",
                "engine_name": "DrWeb",
                "engine_update": "20180427",
                "engine_version": "7.0.28.2020",
                "method": "blacklist",
                "result": "Tool.Snojan.1"
            },
            "ESET-NOD32": {
                "category": "undetected",
                "engine_name": "ESET-NOD32",
                "engine_update": "20180427",
                "engine_version": "17292",
                "method": "blacklist",
                "result": null
            },
            "Emsisoft": {
                "category": "malicious",
                "engine_name": "Emsisoft",
                "engine_update": "20180427",
                "engine_version": "4.0.2.899",
                "method": "blacklist",
                "result": "Trojan.GenericKD.30606265 (B)"
            },
            "Endgame": {
                "category": "malicious",
                "engine_name": "Endgame",
                "engine_update": "20180403",
                "engine_version": "2.1.0",
                "method": "blacklist",
                "result": "malicious (high confidence)"
            },
            "F-Prot": {
                "category": "malicious",
                "engine_name": "F-Prot",
                "engine_update": "20180427",
                "engine_version": "4.7.1.166",
                "method": "blacklist",
                "result": "W32/S-f9d51e84!Eldorado"
            },
            "F-Secure": {
                "category": "malicious",
                "engine_name": "F-Secure",
                "engine_update": "20180427",
                "engine_version": "11.0.19100.45",
                "method": "blacklist",
                "result": "Trojan.GenericKD.30606265"
            },
            "Fortinet": {
                "category": "malicious",
                "engine_name": "Fortinet",
                "engine_update": "20180427",
                "engine_version": "5.4.247.0",
                "method": "blacklist",
                "result": "Riskware/Snojan"
            },
            "GData": {
                "category": "malicious",
                "engine_name": "GData",
                "engine_update": "20180427",
                "engine_version": "A:25.16856B:25.12130",
                "method": "blacklist",
                "result": "Win32.Application.Snojan.A"
            },
            "Ikarus": {
                "category": "malicious",
                "engine_name": "Ikarus",
                "engine_update": "20180427",
                "engine_version": "0.1.5.2",
                "method": "blacklist",
                "result": "not-a-virus:Downloader.Snojan"
            },
            "Invincea": {
                "category": "malicious",
                "engine_name": "Invincea",
                "engine_update": "20180121",
                "engine_version": "6.3.4.26036",
                "method": "blacklist",
                "result": "heuristic"
            },
            "Jiangmin": {
                "category": "malicious",
                "engine_name": "Jiangmin",
                "engine_update": "20180427",
                "engine_version": "16.0.100",
                "method": "blacklist",
                "result": "Downloader.Snojan.adp"
            },
            "K7AntiVirus": {
                "category": "malicious",
                "engine_name": "K7AntiVirus",
                "engine_update": "20180427",
                "engine_version": "10.45.26964",
                "method": "blacklist",
                "result": "Trojan ( 0052706d1 )"
            },
            "K7GW": {
                "category": "malicious",
                "engine_name": "K7GW",
                "engine_update": "20180427",
                "engine_version": "10.45.26961",
                "method": "blacklist",
                "result": "Trojan ( 0052706d1 )"
            },
            "Kaspersky": {
                "category": "malicious",
                "engine_name": "Kaspersky",
                "engine_update": "20180427",
                "engine_version": "15.0.1.13",
                "method": "blacklist",
                "result": "not-a-virus:Downloader.Win32.Snojan.eiqu"
            },
            "Kingsoft": {
                "category": "undetected",
                "engine_name": "Kingsoft",
                "engine_update": "20180427",
                "engine_version": "2013.8.14.323",
                "method": "blacklist",
                "result": null
            },
            "MAX": {
                "category": "malicious",
                "engine_name": "MAX",
                "engine_update": "20180427",
                "engine_version": "2017.11.15.1",
                "method": "blacklist",
                "result": "malware (ai score=85)"
            },
            "McAfee": {
                "category": "malicious",
                "engine_name": "McAfee",
                "engine_update": "20180427",
                "engine_version": "6.0.6.653",
                "method": "blacklist",
                "result": "RDN/Generic Downloader.x"
            },
            "McAfee-GW-Edition": {
                "category": "malicious",
                "engine_name": "McAfee-GW-Edition",
                "engine_update": "20180425",
                "engine_version": "v2017.2786",
                "method": "blacklist",
                "result": "BehavesLike.Win32.Downloader.ch"
            },
            "MicroWorld-eScan": {
                "category": "malicious",
                "engine_name": "MicroWorld-eScan",
                "engine_update": "20180427",
                "engine_version": "14.0.297.0",
                "method": "blacklist",
                "result": "Trojan.GenericKD.30606265"
            },
            "Microsoft": {
                "category": "undetected",
                "engine_name": "Microsoft",
                "engine_update": "20180427",
                "engine_version": "1.1.14800.3",
                "method": "blacklist",
                "result": null
            },
            "NANO-Antivirus": {
                "category": "malicious",
                "engine_name": "NANO-Antivirus",
                "engine_update": "20180427",
                "engine_version": "1.0.106.22618",
                "method": "blacklist",
                "result": "Trojan.Win32.Snojan.evvppm"
            },
            "Paloalto": {
                "category": "undetected",
                "engine_name": "Paloalto",
                "engine_update": "20180427",
                "engine_version": "1.0",
                "method": "blacklist",
                "result": null
            },
            "Panda": {
                "category": "malicious",
                "engine_name": "Panda",
                "engine_update": "20180427",
                "engine_version": "4.6.4.2",
                "method": "blacklist",
                "result": "Trj/Genetic.gen"
            },
            "Qihoo-360": {
                "category": "malicious",
                "engine_name": "Qihoo-360",
                "engine_update": "20180427",
                "engine_version": "1.0.0.1120",
                "method": "blacklist",
                "result": "HEUR/QVM02.0.C8E5.Malware.Gen"
            },
            "Rising": {
                "category": "undetected",
                "engine_name": "Rising",
                "engine_update": "20180427",
                "engine_version": "25.0.0.1",
                "method": "blacklist",
                "result": null
            },
            "SUPERAntiSpyware": {
                "category": "undetected",
                "engine_name": "SUPERAntiSpyware",
                "engine_update": "20180427",
                "engine_version": "5.6.0.1032",
                "method": "blacklist",
                "result": null
            },
            "SentinelOne": {
                "category": "undetected",
                "engine_name": "SentinelOne",
                "engine_update": "20180225",
                "engine_version": "1.0.15.206",
                "method": "blacklist",
                "result": null
            },
            "Sophos": {
                "category": "malicious",
                "engine_name": "Sophos",
                "engine_update": "20180427",
                "engine_version": "4.98.0",
                "method": "blacklist",
                "result": "Troj/Bdoor-BHD"
            },
            "Symantec": {
                "category": "malicious",
                "engine_name": "Symantec",
                "engine_update": "20180427",
                "engine_version": "1.5.0.0",
                "method": "blacklist",
                "result": "Trojan.Gen.2"
            },
            "SymantecMobileInsight": {
                "category": "type-unsupported",
                "engine_name": "SymantecMobileInsight",
                "engine_update": "20180424",
                "engine_version": "1.0.0.35_220",
                "method": "blacklist",
                "result": null
            },
            "Tencent": {
                "category": "undetected",
                "engine_name": "Tencent",
                "engine_update": "20180427",
                "engine_version": "1.0.0.1",
                "method": "blacklist",
                "result": null
            },
            "TheHacker": {
                "category": "undetected",
                "engine_name": "TheHacker",
                "engine_update": "20180426",
                "engine_version": "6.8.0.5.2719",
                "method": "blacklist",
                "result": null
            },
            "TotalDefense": {
                "category": "undetected",
                "engine_name": "TotalDefense",
                "engine_update": "20180427",
                "engine_version": "37.1.62.1",
                "method": "blacklist",
                "result": null
            },
            "TrendMicro": {
                "category": "malicious",
                "engine_name": "TrendMicro",
                "engine_update": "20180427",
                "engine_version": "10.0.0.1040",
                "method": "blacklist",
                "result": "TROJ_GEN.R029C0ODN18"
            },
            "TrendMicro-HouseCall": {
                "category": "malicious",
                "engine_name": "TrendMicro-HouseCall",
                "engine_update": "20180427",
                "engine_version": "9.950.0.1006",
                "method": "blacklist",
                "result": "TROJ_GEN.R029C0ODN18"
            },
            "Trustlook": {
                "category": "type-unsupported",
                "engine_name": "Trustlook",
                "engine_update": "20180427",
                "engine_version": "2",
                "method": "blacklist",
                "result": null
            },
            "VBA32": {
                "category": "malicious",
                "engine_name": "VBA32",
                "engine_update": "20180427",
                "engine_version": "3.12.28.0",
                "method": "blacklist",
                "result": "Downloader.Snojan"
            },
            "VIPRE": {
                "category": "malicious",
                "engine_name": "VIPRE",
                "engine_update": "20180427",
                "engine_version": "66284",
                "method": "blacklist",
                "result": "Trojan.Win32.Generic!BT"
            },
            "ViRobot": {
                "category": "undetected",
                "engine_name": "ViRobot",
                "engine_update": "20180427",
                "engine_version": "2014.3.20.0",
                "method": "blacklist",
                "result": null
            },
            "Webroot": {
                "category": "undetected",
                "engine_name": "Webroot",
                "engine_update": "20180427",
                "engine_version": "1.0.0.403",
                "method": "blacklist",
                "result": null
            },
            "Yandex": {
                "category": "malicious",
                "engine_name": "Yandex",
                "engine_update": "20180427",
                "engine_version": "5.5.1.3",
                "method": "blacklist",
                "result": "PUA.Downloader!"
            },
            "Zillya": {
                "category": "malicious",
                "engine_name": "Zillya",
                "engine_update": "20180427",
                "engine_version": "2.0.0.3545",
                "method": "blacklist",
                "result": "Trojan.GenericKD.Win32.100891"
            },
            "ZoneAlarm": {
                "category": "malicious",
                "engine_name": "ZoneAlarm",
                "engine_update": "20180427",
                "engine_version": "1.0",
                "method": "blacklist",
                "result": "not-a-virus:Downloader.Win32.Snojan.eiqu"
            },
            "Zoner": {
                "category": "undetected",
                "engine_name": "Zoner",
                "engine_update": "20180426",
                "engine_version": "1.0",
                "method": "blacklist",
                "result": null
            },
            "eGambit": {
                "category": "undetected",
                "engine_name": "eGambit",
                "engine_update": "20180427",
                "engine_version": "v4.3.5",
                "method": "blacklist",
                "result": null
            },
            "nProtect": {
                "category": "undetected",
                "engine_name": "nProtect",
                "engine_update": "20180427",
                "engine_version": "2018-04-27.02",
                "method": "blacklist",
                "result": null
            }
        },
        "last_analysis_stats": {
            "confirmed-timeout": 0,
            "failure": 0,
            "harmless": 0,
            "malicious": 42,
            "suspicious": 0,
            "timeout": 0,
            "type-unsupported": 4,
            "undetected": 23
        },
        "last_modification_date": 1524927820,
        "last_submission_date": 1524834598,
        "magic": "PE32 executable for MS Windows (console) Intel 80386 32-bit",
        "md5": "7ac3408fc205f393080a251d00485a66",
        "meaningful_name": "7ac3408fc205f393080a251d00485a66.bin",
        "names": [
            "7ac3408fc205f393080a251d00485a66.bin"
        ],
        "pe_info": {
            "entry_point": 4400,
            "exports": [
                "curl_easy_cleanup",
                "curl_easy_duphandle",
                "curl_easy_escape",
                "curl_easy_getinfo",
                "curl_easy_init",
                "curl_easy_pause",
                "curl_easy_perform",
                "curl_easy_recv",
                "curl_easy_reset",
                "curl_easy_send",
                "curl_easy_setopt",
                "curl_easy_strerror",
                "curl_easy_unescape",
                "curl_escape",
                "curl_formadd",
                "curl_formfree",
                "curl_formget",
                "curl_free",
                "curl_getdate",
                "curl_getenv",
                "curl_global_cleanup",
                "curl_global_init",
                "curl_global_init_mem",
                "curl_maprintf",
                "curl_mfprintf",
                "curl_mprintf",
                "curl_msnprintf",
                "curl_msprintf",
                "curl_multi_add_handle",
                "curl_multi_assign",
                "curl_multi_cleanup",
                "curl_multi_fdset",
                "curl_multi_info_read",
                "curl_multi_init",
                "curl_multi_perform",
                "curl_multi_remove_handle",
                "curl_multi_setopt",
                "curl_multi_socket",
                "curl_multi_socket_action",
                "curl_multi_socket_all",
                "curl_multi_strerror",
                "curl_multi_timeout",
                "curl_multi_wait",
                "curl_mvaprintf",
                "curl_mvfprintf",
                "curl_mvprintf",
                "curl_mvsnprintf",
                "curl_mvsprintf",
                "curl_share_cleanup",
                "curl_share_init",
                "curl_share_setopt",
                "curl_share_strerror",
                "curl_slist_append",
                "curl_slist_free_all",
                "curl_strequal",
                "curl_strnequal",
                "curl_unescape"
            ],
            "imphash": "84706849fa809feaa385711a628be029",
            "import_list": [
                {
                    "imported_functions": [
                        "CryptReleaseContext",
                        "CryptAcquireContextA",
                        "CryptGetHashParam",
                        "CryptHashData",
                        "CryptDestroyHash",
                        "CryptCreateHash"
                    ],
                    "library_name": "ADVAPI32.DLL"
                },
                {
                    "imported_functions": [
                        "GetLastError",
                        "Sleep",
                        "GetModuleHandleA",
                        "SleepEx",
                        "SetUnhandledExceptionFilter",
                        "ExitProcess",
                        "FormatMessageA",
                        "GetVersionExA",
                        "GetTickCount",
                        "GetModuleFileNameA",
                        "GetProcAddress",
                        "ExpandEnvironmentStringsA",
                        "SetLastError"
                    ],
                    "library_name": "KERNEL32.dll"
                },
                {
                    "imported_functions": [
                        "strncmp",
                        "__p__fmode",
                        "malloc",
                        "srand",
                        "rand",
                        "__p__environ",
                        "realloc",
                        "fread",
                        "fclose",
                        "_stricmp",
                        "atexit",
                        "wcstombs",
                        "_setmode",
                        "strtoul",
                        "printf",
                        "fgets",
                        "sscanf",
                        "fflush",
                        "fopen",
                        "strncpy",
                        "_cexit",
                        "fputc",
                        "strtol",
                        "puts",
                        "_sys_nerr",
                        "fwrite",
                        "fseek",
                        "qsort",
                        "_onexit",
                        "fputs",
                        "ftell",
                        "_strdup",
                        "sprintf",
                        "memcmp",
                        "_unlink",
                        "mbstowcs",
                        "strchr",
                        "memset",
                        "tolower",
                        "_isctype",
                        "strrchr",
                        "_pctype",
                        "gmtime",
                        "free",
                        "getenv",
                        "_stati64",
                        "setlocale",
                        "__getmainargs",
                        "calloc",
                        "_write",
                        "memcpy",
                        "strstr",
                        "memmove",
                        "_read",
                        "_errno",
                        "strerror",
                        "strcmp",
                        "strcpy",
                        "time",
                        "__mb_cur_max",
                        "_strnicmp",
                        "fprintf",
                        "__set_app_type",
                        "signal",
                        "memchr",
                        "_iob"
                    ],
                    "library_name": "msvcrt.dll"
                },
                {
                    "imported_functions": [
                        "__WSAFDIsSet",
                        "recv",
                        "getsockopt",
                        "setsockopt",
                        "bind",
                        "send",
                        "WSACleanup",
                        "WSAStartup",
                        "gethostbyname",
                        "select",
                        "ioctlsocket",
                        "WSAGetLastError",
                        "getsockname",
                        "socket",
                        "ntohs",
                        "WSASetLastError",
                        "htons",
                        "closesocket",
                        "getpeername",
                        "WSAIoctl",
                        "connect"
                    ],
                    "library_name": "WS2_32.DLL"
                }
            ],
            "machine_type": 332,
            "sections": [
                {
                    "entropy": 6.24,
                    "md5": "72c929c72c063acb565f9c253df19e71",
                    "name": ".text",
                    "raw_size": 118784,
                    "virtual_address": 4096,
                    "virtual_size": 118320
                },
                {
                    "entropy": 0.4,
                    "md5": "d6d5c1a67b639d9ec249f68b4893d01d",
                    "name": ".data",
                    "raw_size": 512,
                    "virtual_address": 122880,
                    "virtual_size": 64
                },
                {
                    "entropy": 5.62,
                    "md5": "021cb5dcde637052bf87fb8bf01e9296",
                    "name": ".rdata",
                    "raw_size": 12800,
                    "virtual_address": 126976,
                    "virtual_size": 12628
                },
                {
                    "entropy": 0.0,
                    "md5": "d41d8cd98f00b204e9800998ecf8427e",
                    "name": ".bss",
                    "raw_size": 0,
                    "virtual_address": 143360,
                    "virtual_size": 312
                },
                {
                    "entropy": 4.44,
                    "md5": "1b1fc464b0aafa53120e893999defe06",
                    "name": ".edata",
                    "raw_size": 2048,
                    "virtual_address": 147456,
                    "virtual_size": 1588
                },
                {
                    "entropy": 4.68,
                    "md5": "b98a2008365342eb59761cc02815cb36",
                    "name": ".idata",
                    "raw_size": 3072,
                    "virtual_address": 151552,
                    "virtual_size": 2952
                },
                {
                    "entropy": 6.65,
                    "md5": "e9aefd1c57603fd3439c91f81448f75a",
                    "name": ".reloc",
                    "raw_size": 4096,
                    "virtual_address": 155648,
                    "virtual_size": 4096
                }
            ],
            "timestamp": 1404237733
        },
        "reputation": 0,
        "sha1": "1b83d3d0acca1195fcf85e83c5454deb406a76fc",
        "sha256": "00008c1b09e66b2e0f03be2f84233eaacd490d3703990f4d14339217da92731e",
        "size": 142336,
        "ssdeep": "3072:hs3o8A4M3riN6MhGkgS3PL6pb9t16n5OkhBOPC/R/Fnncrd5971cP:hDeM7iNEkgiOb31k1EC9Jy5Jy",
        "tags": [
            "peexe"
        ],
        "times_submitted": 1,
        "total_votes": {
            "harmless": 0,
            "malicious": 0
        },
        "trid": [
            {
                "file_type": "Win64 Executable (generic)",
                "probability": 61.7
            },
            {
                "file_type": "Win32 Dynamic Link Library (generic)",
                "probability": 14.6
            },
            {
                "file_type": "Win32 Executable (generic)",
                "probability": 10.0
            },
            {
                "file_type": "OS/2 Executable (generic)",
                "probability": 4.5
            },
            {
                "file_type": "Generic Win/DOS Executable",
                "probability": 4.4
            }
        ],
        "type_description": "Win32 EXE",
        "type_extension": "exe",
        "type_tag": "peexe",
        "unique_sources": 1,
        "vhash": "0150766d155c051d556069zd04sz155z39"
    },
    "id": "00008c1b09e66b2e0f03be2f84233eaacd490d3703990f4d14339217da92731e",
    "links": {
        "self": "https://www.virustotal.com/api/v3/files/00008c1b09e66b2e0f03be2f84233eaacd490d3703990f4d14339217da92731e"
    },
    "type": "file"
}