{
    "attributes": {
        "authentihash": "ce200771163740f44f4112ed14d6b4ef5e1b520f87cf02d12b2dcaaaa489008e",
        "creation_date": 995570997,
        "first_submission_date": 1525296045,
        "last_analysis_date": 1525296045,
        "last_analysis_results": {
            "ALYac": {
                "category": "malicious",
                "engine_name": "ALYac",
                "engine_update": "20180502",
                "engine_version": "1.1.1.5",
                "method": "blacklist",
                "result": "Win32.VJadtre.3"
            },
            "AVG": {
                "category": "malicious",
                "engine_name": "AVG",
                "engine_update": "20180502",
                "engine_version": "18.3.3860.0",
                "method": "blacklist",
                "result": "Win32:Malware-gen"
            },
            "AVware": {
                "category": "malicious",
                "engine_name": "AVware",
                "engine_update": "20180428",
                "engine_version": "1.5.0.42",
                "method": "blacklist",
                "result": "Virus.Win32.Otwycal.ab (v)"
            },
            "Ad-Aware": {
                "category": "malicious",
                "engine_name": "Ad-Aware",
                "engine_update": "20180502",
                "engine_version": "3.0.5.370",
                "method": "blacklist",
                "result": "Win32.VJadtre.3"
            },
            "AegisLab": {
                "category": "malicious",
                "engine_name": "AegisLab",
                "engine_update": "20180502",
                "engine_version": "4.2",
                "method": "blacklist",
                "result": "Troj.W32.Gen.lm34"
            },
            "AhnLab-V3": {
                "category": "malicious",
                "engine_name": "AhnLab-V3",
                "engine_update": "20180502",
                "engine_version": "3.12.1.20782",
                "method": "blacklist",
                "result": "Win32/Wampori"
            },
            "Alibaba": {
                "category": "type-unsupported",
                "engine_name": "Alibaba",
                "engine_update": "20180502",
                "engine_version": "1.0",
                "method": "blacklist",
                "result": null
            },
            "Antiy-AVL": {
                "category": "malicious",
                "engine_name": "Antiy-AVL",
                "engine_update": "20180502",
                "engine_version": "3.0.0.1",
                "method": "blacklist",
                "result": "Virus/Win32.Otwycal.a"
            },
            "Arcabit": {
                "category": "malicious",
                "engine_name": "Arcabit",
                "engine_update": "20180502",
                "engine_version": "1.0.0.831",
                "method": "blacklist",
                "result": "Win32.VJadtre.3"
            },
            "Avast": {
                "category": "malicious",
                "engine_name": "Avast",
                "engine_update": "20180502",
                "engine_version": "18.3.3860.0",
                "method": "blacklist",
                "result": "Win32:Malware-gen"
            },
            "Avast-Mobile": {
                "category": "undetected",
                "engine_name": "Avast-Mobile",
                "engine_update": "20180502",
                "engine_version": "180502-00",
                "method": "blacklist",
                "result": null
            },
            "Avira": {
                "category": "malicious",
                "engine_name": "Avira",
                "engine_update": "20180502",
                "engine_version": "8.3.3.6",
                "method": "blacklist",
                "result": "W32/Jadtre.C"
            },
            "Babable": {
                "category": "undetected",
                "engine_name": "Babable",
                "engine_update": "20180406",
                "engine_version": "9107201",
                "method": "blacklist",
                "result": null
            },
            "Baidu": {
                "category": "malicious",
                "engine_name": "Baidu",
                "engine_update": "20180502",
                "engine_version": "1.0.0.2",
                "method": "blacklist",
                "result": "Win32.Virus.Otwycal.a"
            },
            "BitDefender": {
                "category": "malicious",
                "engine_name": "BitDefender",
                "engine_update": "20180502",
                "engine_version": "7.2",
                "method": "blacklist",
                "result": "Win32.VJadtre.3"
            },
            "Bkav": {
                "category": "malicious",
                "engine_name": "Bkav",
                "engine_update": "20180502",
                "engine_version": "1.3.0.9466",
                "method": "blacklist",
                "result": "W32.excCloud16a.PE"
            },
            "CAT-QuickHeal": {
                "category": "malicious",
                "engine_name": "CAT-QuickHeal",
                "engine_update": "20180502",
                "engine_version": "14.00",
                "method": "blacklist",
                "result": "W32.Otwyacal.C"
            },
            "CMC": {
                "category": "malicious",
                "engine_name": "CMC",
                "engine_update": "20180502",
                "engine_version": "1.1.0.977",
                "method": "blacklist",
                "result": "Virus.Win32.Otwycal.1!O"
            },
            "ClamAV": {
                "category": "malicious",
                "engine_name": "ClamAV",
                "engine_update": "20180502",
                "engine_version": "0.99.2.0",
                "method": "blacklist",
                "result": "Win.Virus.Wapomi-138"
            },
            "Comodo": {
                "category": "malicious",
                "engine_name": "Comodo",
                "engine_update": "20180502",
                "engine_version": "28945",
                "method": "blacklist",
                "result": "Virus.Win32.Wapomi.AA"
            },
            "CrowdStrike": {
                "category": "malicious",
                "engine_name": "CrowdStrike",
                "engine_update": "20180418",
                "engine_version": "1.0",
                "method": "blacklist",
                "result": "malicious_confidence_100% (D)"
            },
            "Cybereason": {
                "category": "type-unsupported",
                "engine_name": "Cybereason",
                "engine_update": null,
                "engine_version": null,
                "method": "blacklist",
                "result": null
            },
            "Cylance": {
                "category": "malicious",
                "engine_name": "Cylance",
                "engine_update": "20180502",
                "engine_version": "2.3.1.101",
                "method": "blacklist",
                "result": "Unsafe"
            },
            "Cyren": {
                "category": "malicious",
                "engine_name": "Cyren",
                "engine_update": "20180502",
                "engine_version": "6.0.0.4",
                "method": "blacklist",
                "result": "W32/Injector.A.gen!Eldorado"
            },
            "DrWeb": {
                "category": "malicious",
                "engine_name": "DrWeb",
                "engine_update": "20180502",
                "engine_version": "7.0.28.2020",
                "method": "blacklist",
                "result": "Win32.HLLP.Protil.1"
            },
            "ESET-NOD32": {
                "category": "malicious",
                "engine_name": "ESET-NOD32",
                "engine_update": "20180502",
                "engine_version": "17318",
                "method": "blacklist",
                "result": "Win32/Wapomi.AA"
            },
            "Emsisoft": {
                "category": "malicious",
                "engine_name": "Emsisoft",
                "engine_update": "20180502",
                "engine_version": "4.0.2.899",
                "method": "blacklist",
                "result": "Win32.VJadtre.3 (B)"
            },
            "Endgame": {
                "category": "malicious",
                "engine_name": "Endgame",
                "engine_update": "20180403",
                "engine_version": "2.1.0",
                "method": "blacklist",
                "result": "malicious (high confidence)"
            },
            "F-Prot": {
                "category": "malicious",
                "engine_name": "F-Prot",
                "engine_update": "20180502",
                "engine_version": "4.7.1.166",
                "method": "blacklist",
                "result": "W32/Injector.A.gen!Eldorado"
            },
            "F-Secure": {
                "category": "malicious",
                "engine_name": "F-Secure",
                "engine_update": "20180502",
                "engine_version": "11.0.19100.45",
                "method": "blacklist",
                "result": "Win32.VJadtre.3"
            },
            "Fortinet": {
                "category": "malicious",
                "engine_name": "Fortinet",
                "engine_update": "20180502",
                "engine_version": "5.4.247.0",
                "method": "blacklist",
                "result": "W32/Agent.R!tr"
            },
            "GData": {
                "category": "malicious",
                "engine_name": "GData",
                "engine_update": "20180502",
                "engine_version": "A:25.16911B:25.12167",
                "method": "blacklist",
                "result": "Win32.Virus.Patched.N@susp"
            },
            "Ikarus": {
                "category": "malicious",
                "engine_name": "Ikarus",
                "engine_update": "20180502",
                "engine_version": "0.1.5.2",
                "method": "blacklist",
                "result": "Virus.Win32.Otwycal"
            },
            "Invincea": {
                "category": "malicious",
                "engine_name": "Invincea",
                "engine_update": "20180121",
                "engine_version": "6.3.4.26036",
                "method": "blacklist",
                "result": "heuristic"
            },
            "Jiangmin": {
                "category": "malicious",
                "engine_name": "Jiangmin",
                "engine_update": "20180502",
                "engine_version": "16.0.100",
                "method": "blacklist",
                "result": "Win32/PatchFile.gd"
            },
            "K7AntiVirus": {
                "category": "malicious",
                "engine_name": "K7AntiVirus",
                "engine_update": "20180502",
                "engine_version": "10.45.27010",
                "method": "blacklist",
                "result": "Virus ( 002401471 )"
            },
            "K7GW": {
                "category": "malicious",
                "engine_name": "K7GW",
                "engine_update": "20180502",
                "engine_version": "10.45.27014",
                "method": "blacklist",
                "result": "Virus ( 002401471 )"
            },
            "Kaspersky": {
                "category": "malicious",
                "engine_name": "Kaspersky",
                "engine_update": "20180502",
                "engine_version": "15.0.1.13",
                "method": "blacklist",
                "result": "Virus.Win32.Otwycal.a"
            },
            "Kingsoft": {
                "category": "malicious",
                "engine_name": "Kingsoft",
                "engine_update": "20180502",
                "engine_version": "2013.8.14.323",
                "method": "blacklist",
                "result": "Win32.Otwycal.xp.112128"
            },
            "MAX": {
                "category": "malicious",
                "engine_name": "MAX",
                "engine_update": "20180502",
                "engine_version": "2017.11.15.1",
                "method": "blacklist",
                "result": "malware (ai score=89)"
            },
            "Malwarebytes": {
                "category": "malicious",
                "engine_name": "Malwarebytes",
                "engine_update": "20180502",
                "engine_version": "2.1.1.1115",
                "method": "blacklist",
                "result": "Trojan.MalPack"
            },
            "McAfee": {
                "category": "malicious",
                "engine_name": "McAfee",
                "engine_update": "20180502",
                "engine_version": "6.0.6.653",
                "method": "blacklist",
                "result": "W32/Simfect"
            },
            "McAfee-GW-Edition": {
                "category": "malicious",
                "engine_name": "McAfee-GW-Edition",
                "engine_update": "20180502",
                "engine_version": "v2017.2786",
                "method": "blacklist",
                "result": "BehavesLike.Win32.Fujacks.ch"
            },
            "MicroWorld-eScan": {
                "category": "malicious",
                "engine_name": "MicroWorld-eScan",
                "engine_update": "20180502",
                "engine_version": "14.0.297.0",
                "method": "blacklist",
                "result": "Win32.VJadtre.3"
            },
            "Microsoft": {
                "category": "malicious",
                "engine_name": "Microsoft",
                "engine_update": "20180502",
                "engine_version": "1.1.14800.3",
                "method": "blacklist",
                "result": "Virus:Win32/Mikcer.A"
            },
            "NANO-Antivirus": {
                "category": "malicious",
                "engine_name": "NANO-Antivirus",
                "engine_update": "20180502",
                "engine_version": "1.0.106.22618",
                "method": "blacklist",
                "result": "Virus.Win32.Otwycal.dszex"
            },
            "Paloalto": {
                "category": "undetected",
                "engine_name": "Paloalto",
                "engine_update": "20180502",
                "engine_version": "1.0",
                "method": "blacklist",
                "result": null
            },
            "Panda": {
                "category": "undetected",
                "engine_name": "Panda",
                "engine_update": "20180502",
                "engine_version": "4.6.4.2",
                "method": "blacklist",
                "result": null
            },
            "Qihoo-360": {
                "category": "malicious",
                "engine_name": "Qihoo-360",
                "engine_update": "20180502",
                "engine_version": "1.0.0.1120",
                "method": "blacklist",
                "result": "Virus.Win32.Downloader.AB"
            },
            "Rising": {
                "category": "malicious",
                "engine_name": "Rising",
                "engine_update": "20180502",
                "engine_version": "25.0.0.1",
                "method": "blacklist",
                "result": "Virus.Wapomi!1.A102 (CLASSIC)"
            },
            "SUPERAntiSpyware": {
                "category": "undetected",
                "engine_name": "SUPERAntiSpyware",
                "engine_update": "20180502",
                "engine_version": "5.6.0.1032",
                "method": "blacklist",
                "result": null
            },
            "SentinelOne": {
                "category": "malicious",
                "engine_name": "SentinelOne",
                "engine_update": "20180225",
                "engine_version": "1.0.15.206",
                "method": "blacklist",
                "result": "static engine - malicious"
            },
            "Sophos": {
                "category": "malicious",
                "engine_name": "Sophos",
                "engine_update": "20180502",
                "engine_version": "4.98.0",
                "method": "blacklist",
                "result": "W32/Patched-AG"
            },
            "Symantec": {
                "category": "malicious",
                "engine_name": "Symantec",
                "engine_update": "20180502",
                "engine_version": "1.5.0.0",
                "method": "blacklist",
                "result": "W32.Wapomi.C!inf"
            },
            "SymantecMobileInsight": {
                "category": "type-unsupported",
                "engine_name": "SymantecMobileInsight",
                "engine_update": "20180501",
                "engine_version": "1.0.0.35_220",
                "method": "blacklist",
                "result": null
            },
            "Tencent": {
                "category": "malicious",
                "engine_name": "Tencent",
                "engine_update": "20180502",
                "engine_version": "1.0.0.1",
                "method": "blacklist",
                "result": "Virus.Win32.Dropper.a"
            },
            "TheHacker": {
                "category": "undetected",
                "engine_name": "TheHacker",
                "engine_update": "20180430",
                "engine_version": "6.8.0.5.2735",
                "method": "blacklist",
                "result": null
            },
            "TotalDefense": {
                "category": "malicious",
                "engine_name": "TotalDefense",
                "engine_update": "20180502",
                "engine_version": "37.1.62.1",
                "method": "blacklist",
                "result": "Win32/Wapomi.CD"
            },
            "TrendMicro": {
                "category": "malicious",
                "engine_name": "TrendMicro",
                "engine_update": "20180502",
                "engine_version": "10.0.0.1040",
                "method": "blacklist",
                "result": "PE_WAPOMI.SM"
            },
            "TrendMicro-HouseCall": {
                "category": "malicious",
                "engine_name": "TrendMicro-HouseCall",
                "engine_update": "20180502",
                "engine_version": "9.950.0.1006",
                "method": "blacklist",
                "result": "PE_WAPOMI.SM"
            },
            "Trustlook": {
                "category": "type-unsupported",
                "engine_name": "Trustlook",
                "engine_update": "20180502",
                "engine_version": "2",
                "method": "blacklist",
                "result": null
            },
            "VBA32": {
                "category": "malicious",
                "engine_name": "VBA32",
                "engine_update": "20180502",
                "engine_version": "3.12.28.0",
                "method": "blacklist",
                "result": "Virus.Otwycal.a"
            },
            "VIPRE": {
                "category": "malicious",
                "engine_name": "VIPRE",
                "engine_update": "20180502",
                "engine_version": "66390",
                "method": "blacklist",
                "result": "Virus.Win32.Otwycal.ab (v)"
            },
            "ViRobot": {
                "category": "malicious",
                "engine_name": "ViRobot",
                "engine_update": "20180502",
                "engine_version": "2014.3.20.0",
                "method": "blacklist",
                "result": "Win32.Otwycal.A"
            },
            "Webroot": {
                "category": "malicious",
                "engine_name": "Webroot",
                "engine_update": "20180502",
                "engine_version": "1.0.0.403",
                "method": "blacklist",
                "result": "W32.Luder.Gen"
            },
            "Yandex": {
                "category": "malicious",
                "engine_name": "Yandex",
                "engine_update": "20180428",
                "engine_version": "5.5.1.3",
                "method": "blacklist",
                "result": "Win32.Otwycal.Gen.2"
            },
            "Zillya": {
                "category": "malicious",
                "engine_name": "Zillya",
                "engine_update": "20180502",
                "engine_version": "2.0.0.3547",
                "method": "blacklist",
                "result": "Virus.Otwycal.Win32.1"
            },
            "ZoneAlarm": {
                "category": "malicious",
                "engine_name": "ZoneAlarm",
                "engine_update": "20180502",
                "engine_version": "1.0",
                "method": "blacklist",
                "result": "Virus.Win32.Otwycal.a"
            },
            "Zoner": {
                "category": "malicious",
                "engine_name": "Zoner",
                "engine_update": "20180502",
                "engine_version": "1.0",
                "method": "blacklist",
                "result": "Win32.Wapomi.A"
            },
            "eGambit": {
                "category": "malicious",
                "engine_name": "eGambit",
                "engine_update": "20180502",
                "engine_version": "v4.3.5",
                "method": "blacklist",
                "result": "Unsafe.AI_Score_94%"
            },
            "nProtect": {
                "category": "malicious",
                "engine_name": "nProtect",
                "engine_update": "20180502",
                "engine_version": "2018-05-02.02",
                "method": "blacklist",
                "result": "Virus/W32.Ramnit.C"
            }
        },
        "last_analysis_stats": {
            "confirmed-timeout": 0,
            "failure": 0,
            "harmless": 0,
            "malicious": 61,
            "suspicious": 0,
            "timeout": 0,
            "type-unsupported": 4,
            "undetected": 6
        },
        "last_modification_date": 1525433041,
        "last_submission_date": 1525296045,
        "magic": "PE32 executable for MS Windows (GUI) Intel 80386 32-bit",
        "md5": "654db021553b068dbf59ca068a163f24",
        "meaningful_name": "MSNUNIN.EXE",
        "names": [
            "654db021553b068dbf59ca068a163f24.virus",
            "MSNUNIN",
            "MSNUNIN.EXE"
        ],
        "pe_info": {
            "entry_point": 32768,
            "imphash": "2a1c59f2822a4b9e0435e5c824306502",
            "import_list": [
                {
                    "imported_functions": [
                        "GetTokenInformation",
                        "RegDeleteKeyA",
                        "LookupPrivilegeValueA",
                        "RegCloseKey",
                        "OpenProcessToken",
                        "AdjustTokenPrivileges",
                        "FreeSid",
                        "RegQueryValueExA",
                        "AllocateAndInitializeSid",
                        "RegSetValueExA",
                        "RegDeleteValueA",
                        "RegCreateKeyExA",
                        "RegOpenKeyExA",
                        "EqualSid",
                        "RegQueryInfoKeyA"
                    ],
                    "library_name": "ADVAPI32.dll"
                },
                {
                    "imported_functions": [
                        "GetLastError",
                        "ReleaseMutex",
                        "lstrcatA",
                        "lstrlenA",
                        "GetFileAttributesA",
                        "FreeLibrary",
                        "CopyFileA",
                        "ExitProcess",
                        "GetVersionExA",
                        "GetModuleFileNameA",
                        "LoadLibraryA",
                        "GetCurrentProcess",
                        "GetPrivateProfileStringA",
                        "WritePrivateProfileStringA",
                        "GetCurrentProcessId",
                        "OpenProcess",
                        "IsDBCSLeadByte",
                        "DeleteFileA",
                        "GetWindowsDirectoryA",
                        "MultiByteToWideChar",
                        "GetCommandLineA",
                        "GetProcAddress",
                        "CreateMutexA",
                        "GetTempPathA",
                        "WideCharToMultiByte",
                        "lstrcmpiA",
                        "GetModuleHandleA",
                        "lstrcmpA",
                        "FindFirstFileA",
                        "lstrcpyA",
                        "CloseHandle",
                        "GetTempFileNameA",
                        "lstrcpynA",
                        "FindNextFileA",
                        "GetSystemDirectoryA",
                        "SetFileAttributesA",
                        "GetExitCodeProcess",
                        "LocalFree",
                        "CreateProcessA",
                        "RemoveDirectoryA",
                        "FindClose",
                        "LocalAlloc"
                    ],
                    "library_name": "KERNEL32.dll"
                },
                {
                    "imported_functions": [
                        "CoUninitialize",
                        "CoCreateInstance",
                        "CLSIDFromString",
                        "CoInitialize"
                    ],
                    "library_name": "ole32.dll"
                },
                {
                    "imported_functions": [
                        "GetWindowThreadProcessId",
                        "wsprintfA",
                        "MsgWaitForMultipleObjects",
                        "LoadStringA",
                        "DispatchMessageA",
                        "PostMessageA",
                        "CharNextA",
                        "EnumChildWindows",
                        "MessageBoxA",
                        "PeekMessageA",
                        "CreateDialogParamA",
                        "TranslateMessage",
                        "FindWindowA",
                        "CharPrevA",
                        "CharUpperA",
                        "ExitWindowsEx",
                        "DestroyWindow"
                    ],
                    "library_name": "USER32.dll"
                },
                {
                    "imported_functions": [
                        "SysFreeString"
                    ],
                    "library_name": "OLEAUT32.dll"
                }
            ],
            "machine_type": 332,
            "resource_details": [
                {
                    "chi2": 17033.138671875,
                    "entropy": 3.2581286430358887,
                    "filetype": "data",
                    "lang": "ENGLISH US",
                    "sha256": "700d8f37ceaf3b7ee7ea1953aa1017632e1e24a2e1143a7709f097bd1e6f71a1",
                    "type": "RT_DIALOG"
                },
                {
                    "chi2": 19319.044921875,
                    "entropy": 3.219477653503418,
                    "filetype": "data",
                    "lang": "ENGLISH US",
                    "sha256": "b4f585af5f466279f041828e203b6139a868ccb2b44fdc0ab573e57738896389",
                    "type": "RT_DIALOG"
                },
                {
                    "chi2": 140896.0625,
                    "entropy": 3.3449275493621826,
                    "filetype": "data",
                    "lang": "ENGLISH US",
                    "sha256": "b5fb434af2224c2500642f869fee6c0d83e107157b7f7add290ebe793db4b888",
                    "type": "RT_STRING"
                },
                {
                    "chi2": 121401.125,
                    "entropy": 3.5286824703216553,
                    "filetype": "data",
                    "lang": "ENGLISH US",
                    "sha256": "2ca734691d56771607846c75818276064d557202bb045888b46d346d2e64203c",
                    "type": "RT_VERSION"
                }
            ],
            "resource_langs": {
                "ENGLISH US": 4
            },
            "resource_types": {
                "RT_DIALOG": 2,
                "RT_STRING": 1,
                "RT_VERSION": 1
            },
            "sections": [
                {
                    "entropy": 6.31,
                    "md5": "c02003b9f50c63f6a112afcee0c8057e",
                    "name": ".text",
                    "raw_size": 16384,
                    "virtual_address": 4096,
                    "virtual_size": 15618
                },
                {
                    "entropy": 0.02,
                    "md5": "2395a14b242238675b3a7322d039eb97",
                    "name": ".data",
                    "raw_size": 4096,
                    "virtual_address": 20480,
                    "virtual_size": 288
                },
                {
                    "entropy": 2.17,
                    "md5": "baabdff38152118699c72fc17e454372",
                    "name": ".rsrc",
                    "raw_size": 8192,
                    "virtual_address": 24576,
                    "virtual_size": 4488
                },
                {
                    "entropy": 7.66,
                    "md5": "530825aba01833d0f70d8db787432bb1",
                    "name": "!55Cm",
                    "raw_size": 86016,
                    "virtual_address": 32768,
                    "virtual_size": 86016
                }
            ],
            "timestamp": 995570997
        },
        "reputation": 0,
        "sha1": "643bdc3a7f20746e1929a5b930a31bcee3dbc493",
        "sha256": "00007577e00d851e7bc1f0a9ddcdd311738dedb50e42b62eaf66af4131f3ae03",
        "signature_info": {
            "copyright": "Copyright (C) Microsoft Corp. 1981-2000",
            "description": "MSN Uninstall Progman",
            "file version": "6.10.0016.1624",
            "internal name": "MSNUNIN",
            "original name": "MSNUNIN.EXE",
            "product": "Microsoft(R) MSN (R) Communications System"
        },
        "size": 118784,
        "ssdeep": "3072:Q3vO/wzdSH0RVNTUyV5EZUA9dHS2AVzH:ivPR60RV2tZdSNVz",
        "tags": [
            "peexe"
        ],
        "times_submitted": 1,
        "total_votes": {
            "harmless": 0,
            "malicious": 0
        },
        "trid": [
            {
                "file_type": "Win32 Executable MS Visual C++ (generic)",
                "probability": 41.3
            },
            {
                "file_type": "UPX compressed Win32 Executable",
                "probability": 35.9
            },
            {
                "file_type": "Win32 Dynamic Link Library (generic)",
                "probability": 8.7
            },
            {
                "file_type": "Win32 Executable (generic)",
                "probability": 5.9
            },
            {
                "file_type": "OS/2 Executable (generic)",
                "probability": 2.6
            }
        ],
        "type_description": "Win32 EXE",
        "type_extension": "exe",
        "type_tag": "peexe",
        "unique_sources": 1,
        "vhash": "0150466d151e70f8z2a7z401az11fz"
    },
    "id": "00007577e00d851e7bc1f0a9ddcdd311738dedb50e42b62eaf66af4131f3ae03",
    "links": {
        "self": "https://www.virustotal.com/api/v3/files/00007577e00d851e7bc1f0a9ddcdd311738dedb50e42b62eaf66af4131f3ae03"
    },
    "type": "file"
}