{
    "attributes": {
        "authentihash": "0b52f143d96f3bd5a38d691c41769218d4894528a67744e5bff9d576e69187f3",
        "first_submission_date": 1550815087,
        "last_analysis_date": 1550815087,
        "last_analysis_results": {
            "ALYac": {
                "category": "malicious",
                "engine_name": "ALYac",
                "engine_update": "20190222",
                "engine_version": "1.1.1.5",
                "method": "blacklist",
                "result": "Gen:Variant.Cerbu.25355"
            },
            "AVG": {
                "category": "malicious",
                "engine_name": "AVG",
                "engine_update": "20190222",
                "engine_version": "18.4.3895.0",
                "method": "blacklist",
                "result": "Sf:ShellCode-AO [Trj]"
            },
            "Acronis": {
                "category": "undetected",
                "engine_name": "Acronis",
                "engine_update": "20190221",
                "engine_version": "1.0.1.40",
                "method": "blacklist",
                "result": null
            },
            "Ad-Aware": {
                "category": "malicious",
                "engine_name": "Ad-Aware",
                "engine_update": "20190222",
                "engine_version": "3.0.5.370",
                "method": "blacklist",
                "result": "Gen:Variant.Cerbu.25355"
            },
            "AegisLab": {
                "category": "undetected",
                "engine_name": "AegisLab",
                "engine_update": "20190222",
                "engine_version": "4.2",
                "method": "blacklist",
                "result": null
            },
            "AhnLab-V3": {
                "category": "malicious",
                "engine_name": "AhnLab-V3",
                "engine_update": "20190222",
                "engine_version": "3.14.1.22785",
                "method": "blacklist",
                "result": "Trojan/Win32.Trasher.R222645"
            },
            "Alibaba": {
                "category": "undetected",
                "engine_name": "Alibaba",
                "engine_update": "20180921",
                "engine_version": "0.1.0.2",
                "method": "blacklist",
                "result": null
            },
            "Antiy-AVL": {
                "category": "malicious",
                "engine_name": "Antiy-AVL",
                "engine_update": "20190222",
                "engine_version": "3.0.0.1",
                "method": "blacklist",
                "result": "RiskWare/Win32.PEMalform.i"
            },
            "Arcabit": {
                "category": "malicious",
                "engine_name": "Arcabit",
                "engine_update": "20190222",
                "engine_version": "1.0.0.837",
                "method": "blacklist",
                "result": "Trojan.Cerbu.D630B"
            },
            "Avast": {
                "category": "malicious",
                "engine_name": "Avast",
                "engine_update": "20190222",
                "engine_version": "18.4.3895.0",
                "method": "blacklist",
                "result": "Sf:ShellCode-AO [Trj]"
            },
            "Avast-Mobile": {
                "category": "undetected",
                "engine_name": "Avast-Mobile",
                "engine_update": "20190221",
                "engine_version": "190221-00",
                "method": "blacklist",
                "result": null
            },
            "Avira": {
                "category": "malicious",
                "engine_name": "Avira",
                "engine_update": "20190222",
                "engine_version": "8.3.3.8",
                "method": "blacklist",
                "result": "TR/Trash.Gen"
            },
            "Babable": {
                "category": "undetected",
                "engine_name": "Babable",
                "engine_update": "20180918",
                "engine_version": "9107201",
                "method": "blacklist",
                "result": null
            },
            "Baidu": {
                "category": "malicious",
                "engine_name": "Baidu",
                "engine_update": "20190215",
                "engine_version": "1.0.0.2",
                "method": "blacklist",
                "result": "Win32.Trojan.Agent.awm"
            },
            "BitDefender": {
                "category": "malicious",
                "engine_name": "BitDefender",
                "engine_update": "20190222",
                "engine_version": "7.2",
                "method": "blacklist",
                "result": "Gen:Variant.Cerbu.25355"
            },
            "Bkav": {
                "category": "malicious",
                "engine_name": "Bkav",
                "engine_update": "20190221",
                "engine_version": "1.3.0.9899",
                "method": "blacklist",
                "result": "W32.FamVT.CoinmineraVDbA.Trojan"
            },
            "CAT-QuickHeal": {
                "category": "malicious",
                "engine_name": "CAT-QuickHeal",
                "engine_update": "20190221",
                "engine_version": "14.00",
                "method": "blacklist",
                "result": "Trojan.Dynamer.S18975"
            },
            "CMC": {
                "category": "undetected",
                "engine_name": "CMC",
                "engine_update": "20190221",
                "engine_version": "1.1.0.977",
                "method": "blacklist",
                "result": null
            },
            "ClamAV": {
                "category": "malicious",
                "engine_name": "ClamAV",
                "engine_update": "20190221",
                "engine_version": "0.101.1.0",
                "method": "blacklist",
                "result": "Win.Trojan.Kovter-6489152-1"
            },
            "Comodo": {
                "category": "undetected",
                "engine_name": "Comodo",
                "engine_update": "20190222",
                "engine_version": "30466",
                "method": "blacklist",
                "result": null
            },
            "CrowdStrike": {
                "category": "malicious",
                "engine_name": "CrowdStrike",
                "engine_update": "20181023",
                "engine_version": "1.0",
                "method": "blacklist",
                "result": "malicious_confidence_100% (W)"
            },
            "Cybereason": {
                "category": "malicious",
                "engine_name": "Cybereason",
                "engine_update": "20190109",
                "engine_version": "1.2.27",
                "method": "blacklist",
                "result": "malicious.fc3c23"
            },
            "Cylance": {
                "category": "malicious",
                "engine_name": "Cylance",
                "engine_update": "20190222",
                "engine_version": "2.3.1.101",
                "method": "blacklist",
                "result": "Unsafe"
            },
            "Cyren": {
                "category": "malicious",
                "engine_name": "Cyren",
                "engine_update": "20190222",
                "engine_version": "6.2.0.1",
                "method": "blacklist",
                "result": "W32/Kovter.Z.gen!Eldorado"
            },
            "DrWeb": {
                "category": "malicious",
                "engine_name": "DrWeb",
                "engine_update": "20190222",
                "engine_version": "7.0.34.11020",
                "method": "blacklist",
                "result": "Trojan.MulDrop6.64158"
            },
            "ESET-NOD32": {
                "category": "malicious",
                "engine_name": "ESET-NOD32",
                "engine_update": "20190222",
                "engine_version": "18915",
                "method": "blacklist",
                "result": "a variant of Win32/RiskWare.PEMalform.I"
            },
            "Emsisoft": {
                "category": "malicious",
                "engine_name": "Emsisoft",
                "engine_update": "20190222",
                "engine_version": "2018.4.0.1029",
                "method": "blacklist",
                "result": "Gen:Variant.Cerbu.25355 (B)"
            },
            "Endgame": {
                "category": "malicious",
                "engine_name": "Endgame",
                "engine_update": "20190215",
                "engine_version": "3.0.3",
                "method": "blacklist",
                "result": "malicious (high confidence)"
            },
            "F-Prot": {
                "category": "malicious",
                "engine_name": "F-Prot",
                "engine_update": "20190222",
                "engine_version": "4.7.1.166",
                "method": "blacklist",
                "result": "W32/Kovter.Z.gen!Eldorado"
            },
            "F-Secure": {
                "category": "malicious",
                "engine_name": "F-Secure",
                "engine_update": "20190222",
                "engine_version": "12.0.86.52",
                "method": "blacklist",
                "result": "Trojan.TR/Trash.Gen"
            },
            "Fortinet": {
                "category": "malicious",
                "engine_name": "Fortinet",
                "engine_update": "20190222",
                "engine_version": "5.4.247.0",
                "method": "blacklist",
                "result": "W32/Kovter.HF!tr"
            },
            "GData": {
                "category": "malicious",
                "engine_name": "GData",
                "engine_update": "20190222",
                "engine_version": "A:25.20781B:25.14441",
                "method": "blacklist",
                "result": "Win32.Trojan.Enistery.A"
            },
            "Ikarus": {
                "category": "malicious",
                "engine_name": "Ikarus",
                "engine_update": "20190221",
                "engine_version": "0.1.5.2",
                "method": "blacklist",
                "result": "PUA.RiskWare.PEMalform"
            },
            "Invincea": {
                "category": "malicious",
                "engine_name": "Invincea",
                "engine_update": "20181128",
                "engine_version": "6.3.6.26157",
                "method": "blacklist",
                "result": "heuristic"
            },
            "Jiangmin": {
                "category": "undetected",
                "engine_name": "Jiangmin",
                "engine_update": "20190222",
                "engine_version": "16.0.100",
                "method": "blacklist",
                "result": null
            },
            "K7AntiVirus": {
                "category": "malicious",
                "engine_name": "K7AntiVirus",
                "engine_update": "20190222",
                "engine_version": "11.30.30074",
                "method": "blacklist",
                "result": "Trojan ( 004f5da31 )"
            },
            "K7GW": {
                "category": "malicious",
                "engine_name": "K7GW",
                "engine_update": "20190222",
                "engine_version": "11.30.30074",
                "method": "blacklist",
                "result": "Trojan ( 004f5da31 )"
            },
            "Kaspersky": {
                "category": "malicious",
                "engine_name": "Kaspersky",
                "engine_update": "20190222",
                "engine_version": "15.0.1.13",
                "method": "blacklist",
                "result": "HEUR:Trojan.Win32.Generic"
            },
            "Kingsoft": {
                "category": "undetected",
                "engine_name": "Kingsoft",
                "engine_update": "20190222",
                "engine_version": "2013.8.14.323",
                "method": "blacklist",
                "result": null
            },
            "MAX": {
                "category": "malicious",
                "engine_name": "MAX",
                "engine_update": "20190222",
                "engine_version": "2018.9.12.1",
                "method": "blacklist",
                "result": "malware (ai score=89)"
            },
            "Malwarebytes": {
                "category": "malicious",
                "engine_name": "Malwarebytes",
                "engine_update": "20190222",
                "engine_version": "2.1.1.1115",
                "method": "blacklist",
                "result": "Trojan.Kovter"
            },
            "McAfee": {
                "category": "malicious",
                "engine_name": "McAfee",
                "engine_update": "20190222",
                "engine_version": "6.0.6.653",
                "method": "blacklist",
                "result": "Packed-LD!FCF6AFEFC3C2"
            },
            "McAfee-GW-Edition": {
                "category": "malicious",
                "engine_name": "McAfee-GW-Edition",
                "engine_update": "20190222",
                "engine_version": "v2017.3010",
                "method": "blacklist",
                "result": "BehavesLike.Win64.Trojan.tt"
            },
            "MicroWorld-eScan": {
                "category": "malicious",
                "engine_name": "MicroWorld-eScan",
                "engine_update": "20190222",
                "engine_version": "14.0.297.0",
                "method": "blacklist",
                "result": "Gen:Variant.Cerbu.25355"
            },
            "Microsoft": {
                "category": "malicious",
                "engine_name": "Microsoft",
                "engine_update": "20190222",
                "engine_version": "1.1.15700.8",
                "method": "blacklist",
                "result": "Trojan:Win32/Azden.A!cl"
            },
            "NANO-Antivirus": {
                "category": "malicious",
                "engine_name": "NANO-Antivirus",
                "engine_update": "20190222",
                "engine_version": "1.0.134.24576",
                "method": "blacklist",
                "result": "Trojan.Win64.Malformed.evafmt"
            },
            "Paloalto": {
                "category": "undetected",
                "engine_name": "Paloalto",
                "engine_update": "20190222",
                "engine_version": "1.0",
                "method": "blacklist",
                "result": null
            },
            "Panda": {
                "category": "undetected",
                "engine_name": "Panda",
                "engine_update": "20190221",
                "engine_version": "4.6.4.2",
                "method": "blacklist",
                "result": null
            },
            "Qihoo-360": {
                "category": "undetected",
                "engine_name": "Qihoo-360",
                "engine_update": "20190222",
                "engine_version": "1.0.0.1120",
                "method": "blacklist",
                "result": null
            },
            "Rising": {
                "category": "malicious",
                "engine_name": "Rising",
                "engine_update": "20190222",
                "engine_version": "25.0.0.24",
                "method": "blacklist",
                "result": "Trojan.Generic!8.C3 (C64:YzY0Oqt3dArXLDxB)"
            },
            "SUPERAntiSpyware": {
                "category": "undetected",
                "engine_name": "SUPERAntiSpyware",
                "engine_update": "20190220",
                "engine_version": "5.6.0.1032",
                "method": "blacklist",
                "result": null
            },
            "SentinelOne": {
                "category": "malicious",
                "engine_name": "SentinelOne",
                "engine_update": "20190203",
                "engine_version": "1.0.23.276",
                "method": "blacklist",
                "result": "static engine - malicious"
            },
            "Sophos": {
                "category": "malicious",
                "engine_name": "Sophos",
                "engine_update": "20190222",
                "engine_version": "4.98.0",
                "method": "blacklist",
                "result": "Troj/Agent-AVFQ"
            },
            "Symantec": {
                "category": "malicious",
                "engine_name": "Symantec",
                "engine_update": "20190222",
                "engine_version": "1.8.0.0",
                "method": "blacklist",
                "result": "Trojan.Kotver!gm2"
            },
            "SymantecMobileInsight": {
                "category": "type-unsupported",
                "engine_name": "SymantecMobileInsight",
                "engine_update": "20190220",
                "engine_version": "2.0",
                "method": "blacklist",
                "result": null
            },
            "TACHYON": {
                "category": "undetected",
                "engine_name": "TACHYON",
                "engine_update": "20190222",
                "engine_version": "2019-02-22.01",
                "method": "blacklist",
                "result": null
            },
            "Tencent": {
                "category": "malicious",
                "engine_name": "Tencent",
                "engine_update": "20190222",
                "engine_version": "1.0.0.1",
                "method": "blacklist",
                "result": "Win32.Trojan.Generic.Eili"
            },
            "TheHacker": {
                "category": "undetected",
                "engine_name": "TheHacker",
                "engine_update": "20190217",
                "engine_version": "6.8.0.5.4025",
                "method": "blacklist",
                "result": null
            },
            "TotalDefense": {
                "category": "undetected",
                "engine_name": "TotalDefense",
                "engine_update": "20190221",
                "engine_version": "37.1.62.1",
                "method": "blacklist",
                "result": null
            },
            "Trapmine": {
                "category": "malicious",
                "engine_name": "Trapmine",
                "engine_update": "20190123",
                "engine_version": "3.1.40.719",
                "method": "blacklist",
                "result": "malicious.high.ml.score"
            },
            "TrendMicro-HouseCall": {
                "category": "undetected",
                "engine_name": "TrendMicro-HouseCall",
                "engine_update": "20190222",
                "engine_version": "10.0.0.1040",
                "method": "blacklist",
                "result": null
            },
            "Trustlook": {
                "category": "undetected",
                "engine_name": "Trustlook",
                "engine_update": "20190222",
                "engine_version": "1.0",
                "method": "blacklist",
                "result": null
            },
            "VBA32": {
                "category": "undetected",
                "engine_name": "VBA32",
                "engine_update": "20190221",
                "engine_version": "3.35.1",
                "method": "blacklist",
                "result": null
            },
            "VIPRE": {
                "category": "malicious",
                "engine_name": "VIPRE",
                "engine_update": "20190221",
                "engine_version": "73248",
                "method": "blacklist",
                "result": "Trojan.Win32.Generic!BT"
            },
            "ViRobot": {
                "category": "undetected",
                "engine_name": "ViRobot",
                "engine_update": "20190222",
                "engine_version": "2014.3.20.0",
                "method": "blacklist",
                "result": null
            },
            "Yandex": {
                "category": "undetected",
                "engine_name": "Yandex",
                "engine_update": "20190221",
                "engine_version": "5.5.1.3",
                "method": "blacklist",
                "result": null
            },
            "Zillya": {
                "category": "malicious",
                "engine_name": "Zillya",
                "engine_update": "20190221",
                "engine_version": "2.0.0.3759",
                "method": "blacklist",
                "result": "Trojan.Generic.Win32.22012"
            },
            "ZoneAlarm": {
                "category": "malicious",
                "engine_name": "ZoneAlarm",
                "engine_update": "20190222",
                "engine_version": "1.0",
                "method": "blacklist",
                "result": "HEUR:Trojan.Win32.Generic"
            },
            "Zoner": {
                "category": "undetected",
                "engine_name": "Zoner",
                "engine_update": "20190222",
                "engine_version": "1.0",
                "method": "blacklist",
                "result": null
            },
            "eGambit": {
                "category": "undetected",
                "engine_name": "eGambit",
                "engine_update": "20190222",
                "engine_version": "v4.3.6",
                "method": "blacklist",
                "result": null
            }
        },
        "last_analysis_stats": {
            "confirmed-timeout": 0,
            "failure": 0,
            "harmless": 0,
            "malicious": 46,
            "suspicious": 0,
            "timeout": 0,
            "type-unsupported": 1,
            "undetected": 23
        },
        "last_modification_date": 1550815618,
        "last_submission_date": 1550815087,
        "magic": "MS-DOS executable",
        "md5": "fcf6afefc3c23cdde3d243d632417364",
        "meaningful_name": "fcf6afefc3c23cdde3d243d632417364.virus",
        "names": [
            "fcf6afefc3c23cdde3d243d632417364.virus"
        ],
        "packers": {
            "F-PROT": "embedded"
        },
        "pe_info": {
            "machine_type": 34404,
            "overlay": {
                "chi2": 2475.690673828125,
                "entropy": 4.307976245880127,
                "filetype": "ASCII text",
                "md5": "6c6558d87df20c9030bca4d536e94827",
                "offset": 1339904,
                "size": 104
            },
            "sections": [
                {
                    "entropy": 4.89,
                    "md5": "d06bb5081c350b2bc4811b8eceb51d7f",
                    "name": "",
                    "raw_size": 1339392,
                    "virtual_address": 4096,
                    "virtual_size": 1339392
                }
            ]
        },
        "reputation": 0,
        "sha1": "48bb159a5614f0e586f353d2d4393c2806f45fa6",
        "sha256": "0000e2b72deba164fc4d0b8fa426ea245d52fa53a94ff80aa6253f9e2f91af4b",
        "size": 1340008,
        "ssdeep": "12288:JoF3QJ+sjBfn0NQBWsEgV3DKi+JDMq29Puf4/vGe1W4q3mnPaO6pIn:JEg50NQBv3h1+iqfcvGe1vq2Px62",
        "tags": [
            "mz",
            "overlay"
        ],
        "times_submitted": 1,
        "total_votes": {
            "harmless": 0,
            "malicious": 0
        },
        "trid": [
            {
                "file_type": "DOS Borland compiled Executable (generic)",
                "probability": 46.2
            },
            {
                "file_type": "Win32 Executable (generic)",
                "probability": 20.8
            },
            {
                "file_type": "DOS Executable Borland Pascal 7.0x",
                "probability": 9.4
            },
            {
                "file_type": "Generic Win/DOS Executable",
                "probability": 9.2
            },
            {
                "file_type": "DOS Executable Generic",
                "probability": 9.2
            }
        ],
        "type_description": "DOS EXE",
        "type_extension": "exe",
        "type_tag": "mz",
        "unique_sources": 1,
        "vhash": "0160165\"z"
    },
    "id": "0000e2b72deba164fc4d0b8fa426ea245d52fa53a94ff80aa6253f9e2f91af4b",
    "links": {
        "self": "https://www.virustotal.com/api/v3/files/0000e2b72deba164fc4d0b8fa426ea245d52fa53a94ff80aa6253f9e2f91af4b"
    },
    "type": "file"
}