{
    "attributes": {
        "authentihash": "dc74fb2f3e5a3080e7d0ff71f73761f89453b5768d0101e4ffeb846868bd479c",
        "creation_date": 1414186563,
        "first_submission_date": 1498704955,
        "last_analysis_date": 1503337016,
        "last_analysis_results": {
            "ALYac": {
                "category": "malicious",
                "engine_name": "ALYac",
                "engine_update": "20170821",
                "engine_version": "1.1.1.2",
                "method": "blacklist",
                "result": "Trojan.Generic.21865080"
            },
            "AVG": {
                "category": "undetected",
                "engine_name": "AVG",
                "engine_update": "20170821",
                "engine_version": "17.5.3585.0",
                "method": "blacklist",
                "result": null
            },
            "AVware": {
                "category": "malicious",
                "engine_name": "AVware",
                "engine_update": "20170821",
                "engine_version": "1.5.0.42",
                "method": "blacklist",
                "result": "Trojan.Win32.Generic!BT"
            },
            "Ad-Aware": {
                "category": "malicious",
                "engine_name": "Ad-Aware",
                "engine_update": "20170821",
                "engine_version": "3.0.3.1010",
                "method": "blacklist",
                "result": "Trojan.Generic.21865080"
            },
            "AegisLab": {
                "category": "undetected",
                "engine_name": "AegisLab",
                "engine_update": "20170821",
                "engine_version": "4.2",
                "method": "blacklist",
                "result": null
            },
            "AhnLab-V3": {
                "category": "malicious",
                "engine_name": "AhnLab-V3",
                "engine_update": "20170821",
                "engine_version": "3.10.0.18405",
                "method": "blacklist",
                "result": "HackTool/Win32.Cheathappens.R123623"
            },
            "Alibaba": {
                "category": "type-unsupported",
                "engine_name": "Alibaba",
                "engine_update": "20170821",
                "engine_version": "1.0",
                "method": "blacklist",
                "result": null
            },
            "Antiy-AVL": {
                "category": "malicious",
                "engine_name": "Antiy-AVL",
                "engine_update": "20170821",
                "engine_version": "3.0.0.1",
                "method": "blacklist",
                "result": "Trojan/Win32.TSGeneric"
            },
            "Arcabit": {
                "category": "malicious",
                "engine_name": "Arcabit",
                "engine_update": "20170821",
                "engine_version": "1.0.0.817",
                "method": "blacklist",
                "result": "Trojan.Generic.D14DA278"
            },
            "Avast": {
                "category": "undetected",
                "engine_name": "Avast",
                "engine_update": "20170821",
                "engine_version": "17.5.3585.0",
                "method": "blacklist",
                "result": null
            },
            "Avira": {
                "category": "undetected",
                "engine_name": "Avira",
                "engine_update": "20170821",
                "engine_version": "8.3.3.4",
                "method": "blacklist",
                "result": null
            },
            "Baidu": {
                "category": "undetected",
                "engine_name": "Baidu",
                "engine_update": "20170817",
                "engine_version": "1.0.0.2",
                "method": "blacklist",
                "result": null
            },
            "BitDefender": {
                "category": "malicious",
                "engine_name": "BitDefender",
                "engine_update": "20170821",
                "engine_version": "7.2",
                "method": "blacklist",
                "result": "Trojan.Generic.21865080"
            },
            "Bkav": {
                "category": "undetected",
                "engine_name": "Bkav",
                "engine_update": "20170821",
                "engine_version": "1.3.0.9282",
                "method": "blacklist",
                "result": null
            },
            "CAT-QuickHeal": {
                "category": "malicious",
                "engine_name": "CAT-QuickHeal",
                "engine_update": "20170821",
                "engine_version": "14.00",
                "method": "blacklist",
                "result": "Hactool.Gamehuck.A5"
            },
            "CMC": {
                "category": "undetected",
                "engine_name": "CMC",
                "engine_update": "20170821",
                "engine_version": "1.1.0.977",
                "method": "blacklist",
                "result": null
            },
            "ClamAV": {
                "category": "undetected",
                "engine_name": "ClamAV",
                "engine_update": "20170821",
                "engine_version": "0.99.2.0",
                "method": "blacklist",
                "result": null
            },
            "Comodo": {
                "category": "malicious",
                "engine_name": "Comodo",
                "engine_update": "20170821",
                "engine_version": "27639",
                "method": "blacklist",
                "result": "TrojWare.Win32.GameHack.DC"
            },
            "CrowdStrike": {
                "category": "malicious",
                "engine_name": "CrowdStrike",
                "engine_update": "20170804",
                "engine_version": "1.0",
                "method": "blacklist",
                "result": "malicious_confidence_80% (D)"
            },
            "Cylance": {
                "category": "malicious",
                "engine_name": "Cylance",
                "engine_update": "20170821",
                "engine_version": "2.3.1.101",
                "method": "blacklist",
                "result": "Unsafe"
            },
            "Cyren": {
                "category": "malicious",
                "engine_name": "Cyren",
                "engine_update": "20170821",
                "engine_version": "5.4.30.7",
                "method": "blacklist",
                "result": "W32/GameHack.E.gen!Eldorado"
            },
            "DrWeb": {
                "category": "malicious",
                "engine_name": "DrWeb",
                "engine_update": "20170821",
                "engine_version": "7.0.28.2020",
                "method": "blacklist",
                "result": "Trojan.DownLoader11.40259"
            },
            "ESET-NOD32": {
                "category": "malicious",
                "engine_name": "ESET-NOD32",
                "engine_update": "20170821",
                "engine_version": "15950",
                "method": "blacklist",
                "result": "a variant of Win32/GameHack.BE potentially unsafe"
            },
            "Emsisoft": {
                "category": "malicious",
                "engine_name": "Emsisoft",
                "engine_update": "20170821",
                "engine_version": "4.0.1.883",
                "method": "blacklist",
                "result": "Trojan.Generic.21865080 (B)"
            },
            "Endgame": {
                "category": "malicious",
                "engine_name": "Endgame",
                "engine_update": "20170821",
                "engine_version": "1.0.1",
                "method": "blacklist",
                "result": "malicious (high confidence)"
            },
            "F-Prot": {
                "category": "malicious",
                "engine_name": "F-Prot",
                "engine_update": "20170821",
                "engine_version": "4.7.1.166",
                "method": "blacklist",
                "result": "W32/GameHack.E.gen!Eldorado"
            },
            "F-Secure": {
                "category": "malicious",
                "engine_name": "F-Secure",
                "engine_update": "20170821",
                "engine_version": "11.0.19100.45",
                "method": "blacklist",
                "result": "Trojan.Generic.21865080"
            },
            "Fortinet": {
                "category": "malicious",
                "engine_name": "Fortinet",
                "engine_update": "20170821",
                "engine_version": "5.4.247.0",
                "method": "blacklist",
                "result": "Riskware/GameHack"
            },
            "GData": {
                "category": "malicious",
                "engine_name": "GData",
                "engine_update": "20170821",
                "engine_version": "A:25.13936B:25.10251",
                "method": "blacklist",
                "result": "Win32.Riskware.GameHack.E"
            },
            "Ikarus": {
                "category": "malicious",
                "engine_name": "Ikarus",
                "engine_update": "20170821",
                "engine_version": "0.1.5.2",
                "method": "blacklist",
                "result": "possible-Threat.Skodna"
            },
            "Invincea": {
                "category": "malicious",
                "engine_name": "Invincea",
                "engine_update": "20170818",
                "engine_version": "6.3.0.25415",
                "method": "blacklist",
                "result": "heuristic"
            },
            "Jiangmin": {
                "category": "undetected",
                "engine_name": "Jiangmin",
                "engine_update": "20170821",
                "engine_version": "16.0.100",
                "method": "blacklist",
                "result": null
            },
            "K7AntiVirus": {
                "category": "malicious",
                "engine_name": "K7AntiVirus",
                "engine_update": "20170821",
                "engine_version": "10.22.24364",
                "method": "blacklist",
                "result": "Unwanted-Program ( 004b8c2c1 )"
            },
            "K7GW": {
                "category": "malicious",
                "engine_name": "K7GW",
                "engine_update": "20170821",
                "engine_version": "10.22.24356",
                "method": "blacklist",
                "result": "Unwanted-Program ( 004b8c2c1 )"
            },
            "Kaspersky": {
                "category": "undetected",
                "engine_name": "Kaspersky",
                "engine_update": "20170821",
                "engine_version": "15.0.1.13",
                "method": "blacklist",
                "result": null
            },
            "Kingsoft": {
                "category": "undetected",
                "engine_name": "Kingsoft",
                "engine_update": "20170821",
                "engine_version": "2013.8.14.323",
                "method": "blacklist",
                "result": null
            },
            "MAX": {
                "category": "malicious",
                "engine_name": "MAX",
                "engine_update": "20170821",
                "engine_version": "2017.6.26.1",
                "method": "blacklist",
                "result": "malware (ai score=82)"
            },
            "Malwarebytes": {
                "category": "undetected",
                "engine_name": "Malwarebytes",
                "engine_update": "20170821",
                "engine_version": "2.1.1.1115",
                "method": "blacklist",
                "result": null
            },
            "McAfee": {
                "category": "malicious",
                "engine_name": "McAfee",
                "engine_update": "20170821",
                "engine_version": "6.0.6.653",
                "method": "blacklist",
                "result": "RDN/Generic PUP.x"
            },
            "McAfee-GW-Edition": {
                "category": "malicious",
                "engine_name": "McAfee-GW-Edition",
                "engine_update": "20170821",
                "engine_version": "v2015",
                "method": "blacklist",
                "result": "BehavesLike.Win32.Injector.jc"
            },
            "MicroWorld-eScan": {
                "category": "malicious",
                "engine_name": "MicroWorld-eScan",
                "engine_update": "20170821",
                "engine_version": "12.0.250.0",
                "method": "blacklist",
                "result": "Trojan.Generic.21865080"
            },
            "Microsoft": {
                "category": "undetected",
                "engine_name": "Microsoft",
                "engine_update": "20170821",
                "engine_version": "1.1.14003.0",
                "method": "blacklist",
                "result": null
            },
            "NANO-Antivirus": {
                "category": "undetected",
                "engine_name": "NANO-Antivirus",
                "engine_update": "20170821",
                "engine_version": "1.0.94.18377",
                "method": "blacklist",
                "result": null
            },
            "Paloalto": {
                "category": "malicious",
                "engine_name": "Paloalto",
                "engine_update": "20170821",
                "engine_version": "1.0",
                "method": "blacklist",
                "result": "generic.ml"
            },
            "Panda": {
                "category": "malicious",
                "engine_name": "Panda",
                "engine_update": "20170821",
                "engine_version": "4.6.4.2",
                "method": "blacklist",
                "result": "Trj/CI.A"
            },
            "Qihoo-360": {
                "category": "undetected",
                "engine_name": "Qihoo-360",
                "engine_update": "20170821",
                "engine_version": "1.0.0.1120",
                "method": "blacklist",
                "result": null
            },
            "Rising": {
                "category": "malicious",
                "engine_name": "Rising",
                "engine_update": "20170821",
                "engine_version": "25.0.0.1",
                "method": "blacklist",
                "result": "Malware.Heuristic!ET#100% (rdm+)"
            },
            "SUPERAntiSpyware": {
                "category": "undetected",
                "engine_name": "SUPERAntiSpyware",
                "engine_update": "20170821",
                "engine_version": "5.6.0.1032",
                "method": "blacklist",
                "result": null
            },
            "SentinelOne": {
                "category": "malicious",
                "engine_name": "SentinelOne",
                "engine_update": "20170806",
                "engine_version": "1.0.2.235",
                "method": "blacklist",
                "result": "static engine - malicious"
            },
            "Sophos": {
                "category": "malicious",
                "engine_name": "Sophos",
                "engine_update": "20170821",
                "engine_version": "4.98.0",
                "method": "blacklist",
                "result": "Generic PUA LL (PUA)"
            },
            "Symantec": {
                "category": "malicious",
                "engine_name": "Symantec",
                "engine_update": "20170821",
                "engine_version": "1.4.0.0",
                "method": "blacklist",
                "result": "Trojan.Gen.2"
            },
            "SymantecMobileInsight": {
                "category": "type-unsupported",
                "engine_name": "SymantecMobileInsight",
                "engine_update": "20170818",
                "engine_version": "1.0.0.35_220",
                "method": "blacklist",
                "result": null
            },
            "Tencent": {
                "category": "undetected",
                "engine_name": "Tencent",
                "engine_update": "20170821",
                "engine_version": "1.0.0.1",
                "method": "blacklist",
                "result": null
            },
            "TheHacker": {
                "category": "undetected",
                "engine_name": "TheHacker",
                "engine_update": "20170821",
                "engine_version": "6.8.0.5.1865",
                "method": "blacklist",
                "result": null
            },
            "TrendMicro": {
                "category": "malicious",
                "engine_name": "TrendMicro",
                "engine_update": "20170821",
                "engine_version": "9.862.0.1074",
                "method": "blacklist",
                "result": "TROJ_GEN.R047C0OG917"
            },
            "TrendMicro-HouseCall": {
                "category": "malicious",
                "engine_name": "TrendMicro-HouseCall",
                "engine_update": "20170821",
                "engine_version": "9.950.0.1006",
                "method": "blacklist",
                "result": "TROJ_GEN.R047C0OG917"
            },
            "Trustlook": {
                "category": "type-unsupported",
                "engine_name": "Trustlook",
                "engine_update": "20170821",
                "engine_version": "2",
                "method": "blacklist",
                "result": null
            },
            "VBA32": {
                "category": "undetected",
                "engine_name": "VBA32",
                "engine_update": "20170821",
                "engine_version": "3.12.26.4",
                "method": "blacklist",
                "result": null
            },
            "VIPRE": {
                "category": "malicious",
                "engine_name": "VIPRE",
                "engine_update": "20170821",
                "engine_version": "60462",
                "method": "blacklist",
                "result": "Trojan.Win32.Generic!BT"
            },
            "ViRobot": {
                "category": "undetected",
                "engine_name": "ViRobot",
                "engine_update": "20170821",
                "engine_version": "2014.3.20.0",
                "method": "blacklist",
                "result": null
            },
            "Webroot": {
                "category": "undetected",
                "engine_name": "Webroot",
                "engine_update": "20170821",
                "engine_version": "1.0.0.207",
                "method": "blacklist",
                "result": null
            },
            "WhiteArmor": {
                "category": "undetected",
                "engine_name": "WhiteArmor",
                "engine_update": "20170817",
                "engine_version": null,
                "method": "blacklist",
                "result": null
            },
            "Yandex": {
                "category": "malicious",
                "engine_name": "Yandex",
                "engine_update": "20170818",
                "engine_version": "5.5.1.3",
                "method": "blacklist",
                "result": "Riskware.Agent!"
            },
            "Zillya": {
                "category": "malicious",
                "engine_name": "Zillya",
                "engine_update": "20170821",
                "engine_version": "2.0.0.3367",
                "method": "blacklist",
                "result": "Tool.GameHack.Win32.889"
            },
            "ZoneAlarm": {
                "category": "undetected",
                "engine_name": "ZoneAlarm",
                "engine_update": "20170821",
                "engine_version": "1.0",
                "method": "blacklist",
                "result": null
            },
            "Zoner": {
                "category": "undetected",
                "engine_name": "Zoner",
                "engine_update": "20170821",
                "engine_version": "1.0",
                "method": "blacklist",
                "result": null
            },
            "nProtect": {
                "category": "undetected",
                "engine_name": "nProtect",
                "engine_update": "20170821",
                "engine_version": "2017-08-21.02",
                "method": "blacklist",
                "result": null
            }
        },
        "last_analysis_stats": {
            "confirmed-timeout": 0,
            "failure": 0,
            "harmless": 0,
            "malicious": 39,
            "suspicious": 0,
            "timeout": 0,
            "type-unsupported": 3,
            "undetected": 25
        },
        "last_modification_date": 1503337034,
        "last_submission_date": 1498704955,
        "magic": "PE32 executable for MS Windows (GUI) Intel 80386 32-bit",
        "md5": "460bee10a7d87df86b466ebc14ac9181",
        "meaningful_name": "8f802628-5c75-11e7-b879-00044b179c9d",
        "names": [
            "8f802628-5c75-11e7-b879-00044b179c9d"
        ],
        "pe_info": {
            "entry_point": 4096,
            "imphash": "918749ce6ca80deffd4227d74e20da16",
            "import_list": [
                {
                    "imported_functions": [
                        "URLDownloadToFileA"
                    ],
                    "library_name": "URLMON.DLL"
                },
                {
                    "imported_functions": [
                        "timeEndPeriod",
                        "timeBeginPeriod"
                    ],
                    "library_name": "WINMM.DLL"
                },
                {
                    "imported_functions": [
                        "InternetGetConnectedState"
                    ],
                    "library_name": "WININET.DLL"
                },
                {
                    "imported_functions": [
                        "SetDIBits",
                        "TextOutA",
                        "CreateFontIndirectA",
                        "GetTextMetricsA",
                        "SetStretchBltMode",
                        "GetObjectType",
                        "GetObjectA",
                        "CreateDCA",
                        "DeleteDC",
                        "GdiGetBatchLimit",
                        "SetBkMode",
                        "SetPixel",
                        "GetPixel",
                        "IntersectClipRect",
                        "BitBlt",
                        "CreateDIBSection",
                        "GdiSetBatchLimit",
                        "SetTextColor",
                        "GetDeviceCaps",
                        "CreateBitmap",
                        "CreateFontA",
                        "GetStockObject",
                        "GetDIBits",
                        "SetTextAlign",
                        "CreateCompatibleDC",
                        "StretchBlt",
                        "SetBrushOrgEx",
                        "SelectObject",
                        "GetTextExtentPoint32A",
                        "SetBkColor",
                        "DeleteObject",
                        "CreateCompatibleBitmap"
                    ],
                    "library_name": "GDI32.DLL"
                },
                {
                    "imported_functions": [
                        "AdjustTokenPrivileges",
                        "LookupPrivilegeValueA",
                        "GetCurrentHwProfileA",
                        "OpenProcessToken"
                    ],
                    "library_name": "ADVAPI32.DLL"
                },
                {
                    "imported_functions": [
                        "CreateToolhelp32Snapshot",
                        "GetLastError",
                        "HeapFree",
                        "GetStdHandle",
                        "EnterCriticalSection",
                        "WriteProcessMemory",
                        "ReadFile",
                        "VirtualAllocEx",
                        "lstrlenA",
                        "GetFileAttributesA",
                        "GlobalFree",
                        "WaitForSingleObject",
                        "FreeLibrary",
                        "MulDiv",
                        "HeapDestroy",
                        "GetTickCount",
                        "TlsAlloc",
                        "GetVersionExA",
                        "GlobalUnlock",
                        "LoadLibraryA",
                        "GetModuleFileNameA",
                        "CreateRemoteThread",
                        "HeapAlloc",
                        "GetCurrentProcess",
                        "VirtualFreeEx",
                        "GetFileSize",
                        "ReleaseSemaphore",
                        "OpenProcess",
                        "FindClose",
                        "DeleteFileA",
                        "WideCharToMultiByte",
                        "Module32First",
                        "TlsGetValue",
                        "MultiByteToWideChar",
                        "ReadProcessMemory",
                        "GetProcAddress",
                        "DeleteCriticalSection",
                        "VirtualProtectEx",
                        "GetCurrentThread",
                        "GlobalSize",
                        "SetFilePointer",
                        "GetTempPathA",
                        "CreateSemaphoreA",
                        "CreateThread",
                        "TlsFree",
                        "GetModuleHandleA",
                        "CreatePipe",
                        "GetExitCodeThread",
                        "Module32Next",
                        "WriteFile",
                        "FindFirstFileA",
                        "CloseHandle",
                        "DuplicateHandle",
                        "HeapReAlloc",
                        "CopyFileA",
                        "GlobalLock",
                        "GetDriveTypeA",
                        "CreateProcessA",
                        "InitializeCriticalSection",
                        "HeapCreate",
                        "GlobalAlloc",
                        "WaitForMultipleObjects",
                        "VirtualQueryEx",
                        "IsDebuggerPresent",
                        "Sleep",
                        "TlsSetValue",
                        "CreateFileA",
                        "ExitProcess",
                        "GetCurrentThreadId",
                        "GetCurrentProcessId",
                        "SetLastError",
                        "LeaveCriticalSection"
                    ],
                    "library_name": "KERNEL32.dll"
                },
                {
                    "imported_functions": [
                        "strncmp",
                        "malloc",
                        "_CIcos",
                        "realloc",
                        "fread",
                        "fclose",
                        "strcat",
                        "ldexp",
                        "fprintf",
                        "_setjmp3",
                        "toupper",
                        "fopen",
                        "strlen",
                        "strncpy",
                        "fabs",
                        "floor",
                        "fseek",
                        "qsort",
                        "frexp",
                        "ftell",
                        "abs",
                        "_strdup",
                        "sprintf",
                        "memcmp",
                        "exit",
                        "log10",
                        "sin",
                        "__p__iob",
                        "__CxxFrameHandler",
                        "memset",
                        "longjmp",
                        "fmod",
                        "_CIsin",
                        "free",
                        "ceil",
                        "_CIlog",
                        "_CIsqrt",
                        "_CIatan",
                        "calloc",
                        "perror",
                        "atof",
                        "memcpy",
                        "cos",
                        "strstr",
                        "memmove",
                        "_errno",
                        "_CIpow",
                        "_CIexp",
                        "strcpy",
                        "memchr",
                        "modf",
                        "_strnicmp",
                        "strcmp",
                        "_CIacos"
                    ],
                    "library_name": "MSVCRT.dll"
                },
                {
                    "imported_functions": [
                        "SysFreeString",
                        "SysStringLen",
                        "SysAllocStringLen",
                        "VariantClear",
                        "DispGetParam",
                        "SysAllocString",
                        "VariantInit"
                    ],
                    "library_name": "OLEAUT32.DLL"
                },
                {
                    "imported_functions": [
                        "ShellExecuteExA"
                    ],
                    "library_name": "SHELL32.DLL"
                },
                {
                    "imported_functions": [
                        "CreateStreamOnHGlobal",
                        "CoInitialize",
                        "OleInitialize",
                        "RevokeDragDrop",
                        "GetHGlobalFromStream"
                    ],
                    "library_name": "OLE32.DLL"
                },
                {
                    "imported_functions": [
                        "SetFocus",
                        "GetCursorPos",
                        "TranslateAcceleratorA",
                        "GetForegroundWindow",
                        "GetParent",
                        "GetMessageA",
                        "SetPropA",
                        "SetCapture",
                        "BeginPaint",
                        "DrawStateA",
                        "EnumWindows",
                        "ReleaseCapture",
                        "LoadImageA",
                        "EmptyClipboard",
                        "RegisterWindowMessageA",
                        "DefWindowProcA",
                        "ShowWindow",
                        "GetSystemMetrics",
                        "GetPropA",
                        "SetWindowPos",
                        "GetWindowThreadProcessId",
                        "CharLowerA",
                        "DestroyIcon",
                        "GetWindowRect",
                        "DispatchMessageA",
                        "EndPaint",
                        "PostMessageA",
                        "MoveWindow",
                        "EnumChildWindows",
                        "MapWindowPoints",
                        "ScreenToClient",
                        "MessageBoxA",
                        "PeekMessageA",
                        "SetWindowLongA",
                        "AdjustWindowRectEx",
                        "TranslateMessage",
                        "IsWindowEnabled",
                        "GetWindow",
                        "CharUpperA",
                        "SetActiveWindow",
                        "RegisterClassExA",
                        "GetAsyncKeyState",
                        "SystemParametersInfoA",
                        "UpdateLayeredWindow",
                        "RemovePropA",
                        "GetIconInfo",
                        "GetKeyState",
                        "GetMenu",
                        "UnregisterClassA",
                        "SetClipboardData",
                        "DrawIconEx",
                        "IsWindowVisible",
                        "IsZoomed",
                        "SendMessageA",
                        "CloseClipboard",
                        "GetClientRect",
                        "SetCursorPos",
                        "SetCursor",
                        "IsIconic",
                        "RegisterClassA",
                        "InvalidateRect",
                        "GetWindowLongA",
                        "CreateWindowExA",
                        "LoadCursorA",
                        "LoadIconA",
                        "GetKeyboardState",
                        "GetActiveWindow",
                        "ClientToScreen",
                        "FillRect",
                        "OpenClipboard",
                        "DestroyAcceleratorTable",
                        "CreateIconFromResourceEx",
                        "CreateIconFromResource",
                        "CallWindowProcA",
                        "GetClassNameA",
                        "GetFocus",
                        "MsgWaitForMultipleObjects",
                        "EnableWindow",
                        "DefFrameProcA",
                        "CreateAcceleratorTableA",
                        "IsChild",
                        "DestroyWindow"
                    ],
                    "library_name": "USER32.DLL"
                },
                {
                    "imported_functions": [
                        "CreateStatusWindowA",
                        "InitCommonControlsEx"
                    ],
                    "library_name": "COMCTL32.DLL"
                }
            ],
            "machine_type": 332,
            "overlay": {
                "entropy": 4.023850303186989,
                "filetype": "data",
                "md5": "ddd8b367beb3e6ca1401e1cc94f27aa9",
                "offset": 693760,
                "size": 1063
            },
            "resource_details": [
                {
                    "filetype": "data",
                    "lang": "ENGLISH US",
                    "sha256": "34d14b3e686186835a78eb6f3560d5d357547eddd88b3440d411bea8a7bc615b",
                    "type": "RT_ICON"
                },
                {
                    "filetype": "data",
                    "lang": "ENGLISH US",
                    "sha256": "530d4319ae6aa9a11ebf65e7f51a9efff0fa9abb3ff27eafd6c1409e780e1e88",
                    "type": "RT_ICON"
                },
                {
                    "filetype": "data",
                    "lang": "ENGLISH US",
                    "sha256": "0b0e1046bcd887eb2cd256291543416ffc8a1612c6c3a37fb5d8eb908eb8668c",
                    "type": "RT_ICON"
                },
                {
                    "filetype": "image/x-png",
                    "lang": "ENGLISH US",
                    "sha256": "0f885fe9717868beef6fb3a0897a67c22db4a02b0b472481388d6454b9dd39e1",
                    "type": "RT_ICON"
                },
                {
                    "filetype": "data",
                    "lang": "ENGLISH US",
                    "sha256": "eba03c2798520c57f437a0a28510b56234737bcade321e8b75e99bf8a3463ff0",
                    "type": "RT_ICON"
                },
                {
                    "filetype": "data",
                    "lang": "ENGLISH US",
                    "sha256": "20bee17d8ac9918e9fce835dca6ea90591afc2045682d82b71a2d403648ad63a",
                    "type": "RT_ICON"
                },
                {
                    "filetype": "data",
                    "lang": "ENGLISH US",
                    "sha256": "7e5ccebd4f85e7557e7556f704eb6eb8dfea69d475cad116439c7e307e664691",
                    "type": "RT_ICON"
                },
                {
                    "filetype": "data",
                    "lang": "ENGLISH US",
                    "sha256": "a90014711d794ab077d1dfc33d1dee7fa6315cc2ea458ca4eefad24871223b91",
                    "type": "RT_GROUP_ICON"
                },
                {
                    "filetype": "data",
                    "lang": "ENGLISH US",
                    "sha256": "c1d9f76ff0473eecb9d4df81652cb88f4e168833e3cd696b23b49a0622098f51",
                    "type": "RT_VERSION"
                },
                {
                    "filetype": "ASCII text",
                    "lang": "ENGLISH US",
                    "sha256": "be809cba9d14bfb52a969d766992832b10e99e133babcdd99dc6d1bba5597cf7",
                    "type": "RT_MANIFEST"
                }
            ],
            "resource_langs": {
                "ENGLISH US": 10
            },
            "resource_types": {
                "RT_GROUP_ICON": 1,
                "RT_ICON": 7,
                "RT_MANIFEST": 1,
                "RT_VERSION": 1
            },
            "sections": [
                {
                    "entropy": 5.55,
                    "md5": "3733eb0d69454d699cbb58b8034317d4",
                    "name": ".code",
                    "raw_size": 43520,
                    "virtual_address": 4096,
                    "virtual_size": 43192
                },
                {
                    "entropy": 6.71,
                    "md5": "4e625df62516ee0d6f3e6eb5222676a0",
                    "name": ".text",
                    "raw_size": 255488,
                    "virtual_address": 49152,
                    "virtual_size": 255240
                },
                {
                    "entropy": 6.93,
                    "md5": "2fe1c6c1fc965b8c55fc66e34d4771e1",
                    "name": ".rdata",
                    "raw_size": 24064,
                    "virtual_address": 307200,
                    "virtual_size": 23848
                },
                {
                    "entropy": 7.73,
                    "md5": "67c40016876f555300082f7014b93ebe",
                    "name": ".data",
                    "raw_size": 294400,
                    "virtual_address": 331776,
                    "virtual_size": 298188
                },
                {
                    "entropy": 7.71,
                    "md5": "542e8a7703b3dd0257deefa2ebb65504",
                    "name": ".rsrc",
                    "raw_size": 75264,
                    "virtual_address": 630784,
                    "virtual_size": 74868
                }
            ],
            "timestamp": 1414186563
        },
        "reputation": 0,
        "sha1": "bbda3f6e97434060da501601474c53025b7b3c22",
        "sha256": "0001ec3e29279ac2d425aebe5adca175a561a8a316f33c2d7b2a18a90c32a696",
        "signature_info": {
            "file version": "1.0000",
            "product": "Civilization Beyond Earth Trainer"
        },
        "size": 694823,
        "ssdeep": "12288:Z8Q1AW8dK871brt6ExpTWxbyPHycxLHRMcEPJBV1Ls2LMpB8aZ:GQ1gdK8FtBTWxbaSc5HR2PJBV1Ls2wBB",
        "tags": [
            "peexe",
            "overlay"
        ],
        "times_submitted": 1,
        "total_votes": {
            "harmless": 0,
            "malicious": 0
        },
        "trid": [
            {
                "file_type": "Win64 Executable (generic)",
                "probability": 61.6
            },
            {
                "file_type": "Win32 Dynamic Link Library (generic)",
                "probability": 14.6
            },
            {
                "file_type": "Win32 Executable (generic)",
                "probability": 10.0
            },
            {
                "file_type": "Win16/32 Executable Delphi generic",
                "probability": 4.6
            },
            {
                "file_type": "Generic Win/DOS Executable",
                "probability": 4.4
            }
        ],
        "type_description": "Win32 EXE",
        "type_extension": "exe",
        "type_tag": "peexe",
        "unique_sources": 1,
        "vhash": "06505656656d75704022z21z48365z5075z11z1521z1029z"
    },
    "id": "0001ec3e29279ac2d425aebe5adca175a561a8a316f33c2d7b2a18a90c32a696",
    "links": {
        "self": "https://www.virustotal.com/api/v3/files/0001ec3e29279ac2d425aebe5adca175a561a8a316f33c2d7b2a18a90c32a696"
    },
    "type": "file"
}