{
    "attributes": {
        "authentihash": "6b931fdb0240b3d2e0c99e385f3968d3c7e0dece09b47ebf28ca107c022879a9",
        "creation_date": 1366099340,
        "first_submission_date": 1503440525,
        "last_analysis_date": 1503440525,
        "last_analysis_results": {
            "ALYac": {
                "category": "malicious",
                "engine_name": "ALYac",
                "engine_update": "20170822",
                "engine_version": "1.1.1.2",
                "method": "blacklist",
                "result": "Trojan.Lethic.Gen.11"
            },
            "AVG": {
                "category": "malicious",
                "engine_name": "AVG",
                "engine_update": "20170822",
                "engine_version": "17.5.3585.0",
                "method": "blacklist",
                "result": "Win32:Karagany"
            },
            "AVware": {
                "category": "malicious",
                "engine_name": "AVware",
                "engine_update": "20170822",
                "engine_version": "1.5.0.42",
                "method": "blacklist",
                "result": "Trojan.Win32.Zbot.m (v)"
            },
            "Ad-Aware": {
                "category": "malicious",
                "engine_name": "Ad-Aware",
                "engine_update": "20170822",
                "engine_version": "3.0.3.1010",
                "method": "blacklist",
                "result": "Trojan.Lethic.Gen.11"
            },
            "AegisLab": {
                "category": "malicious",
                "engine_name": "AegisLab",
                "engine_update": "20170822",
                "engine_version": "4.2",
                "method": "blacklist",
                "result": "Troj.W32.ShipUp.lISW"
            },
            "AhnLab-V3": {
                "category": "malicious",
                "engine_name": "AhnLab-V3",
                "engine_update": "20170822",
                "engine_version": "3.10.0.18405",
                "method": "blacklist",
                "result": "Trojan/Win32.Zbot.R64039"
            },
            "Alibaba": {
                "category": "type-unsupported",
                "engine_name": "Alibaba",
                "engine_update": "20170822",
                "engine_version": "1.0",
                "method": "blacklist",
                "result": null
            },
            "Antiy-AVL": {
                "category": "malicious",
                "engine_name": "Antiy-AVL",
                "engine_update": "20170822",
                "engine_version": "3.0.0.1",
                "method": "blacklist",
                "result": "Trojan/Win32.ShipUp"
            },
            "Arcabit": {
                "category": "malicious",
                "engine_name": "Arcabit",
                "engine_update": "20170822",
                "engine_version": "1.0.0.817",
                "method": "blacklist",
                "result": "Trojan.Lethic.Gen.11"
            },
            "Avast": {
                "category": "malicious",
                "engine_name": "Avast",
                "engine_update": "20170822",
                "engine_version": "17.5.3585.0",
                "method": "blacklist",
                "result": "Win32:Karagany"
            },
            "Avira": {
                "category": "malicious",
                "engine_name": "Avira",
                "engine_update": "20170822",
                "engine_version": "8.3.3.4",
                "method": "blacklist",
                "result": "TR/Drop.Gepys.A.11674"
            },
            "Baidu": {
                "category": "malicious",
                "engine_name": "Baidu",
                "engine_update": "20170822",
                "engine_version": "1.0.0.2",
                "method": "blacklist",
                "result": "Win32.Trojan.Agent.eq"
            },
            "BitDefender": {
                "category": "malicious",
                "engine_name": "BitDefender",
                "engine_update": "20170822",
                "engine_version": "7.2",
                "method": "blacklist",
                "result": "Trojan.Lethic.Gen.11"
            },
            "Bkav": {
                "category": "undetected",
                "engine_name": "Bkav",
                "engine_update": "20170822",
                "engine_version": "1.3.0.9282",
                "method": "blacklist",
                "result": null
            },
            "CAT-QuickHeal": {
                "category": "malicious",
                "engine_name": "CAT-QuickHeal",
                "engine_update": "20170822",
                "engine_version": "14.00",
                "method": "blacklist",
                "result": "TjnDroppr.Gepys.S619495"
            },
            "CMC": {
                "category": "undetected",
                "engine_name": "CMC",
                "engine_update": "20170822",
                "engine_version": "1.1.0.977",
                "method": "blacklist",
                "result": null
            },
            "ClamAV": {
                "category": "malicious",
                "engine_name": "ClamAV",
                "engine_update": "20170822",
                "engine_version": "0.99.2.0",
                "method": "blacklist",
                "result": "Win.Dropper.Gephys-6117417-0"
            },
            "Comodo": {
                "category": "malicious",
                "engine_name": "Comodo",
                "engine_update": "20170822",
                "engine_version": "27644",
                "method": "blacklist",
                "result": "TrojWare.Win32.Kryptik.AYQE"
            },
            "CrowdStrike": {
                "category": "malicious",
                "engine_name": "CrowdStrike",
                "engine_update": "20170804",
                "engine_version": "1.0",
                "method": "blacklist",
                "result": "malicious_confidence_100% (D)"
            },
            "Cylance": {
                "category": "malicious",
                "engine_name": "Cylance",
                "engine_update": "20170822",
                "engine_version": "2.3.1.101",
                "method": "blacklist",
                "result": "Unsafe"
            },
            "Cyren": {
                "category": "malicious",
                "engine_name": "Cyren",
                "engine_update": "20170822",
                "engine_version": "5.4.30.7",
                "method": "blacklist",
                "result": "W32/Zbot.JC.gen!Eldorado"
            },
            "DrWeb": {
                "category": "malicious",
                "engine_name": "DrWeb",
                "engine_update": "20170822",
                "engine_version": "7.0.28.2020",
                "method": "blacklist",
                "result": "Trojan.RedirectENT.140"
            },
            "ESET-NOD32": {
                "category": "malicious",
                "engine_name": "ESET-NOD32",
                "engine_update": "20170822",
                "engine_version": "15958",
                "method": "blacklist",
                "result": "a variant of Win32/Kryptik.AYUW"
            },
            "Emsisoft": {
                "category": "malicious",
                "engine_name": "Emsisoft",
                "engine_update": "20170822",
                "engine_version": "4.0.1.883",
                "method": "blacklist",
                "result": "Trojan.Lethic.Gen.11 (B)"
            },
            "Endgame": {
                "category": "malicious",
                "engine_name": "Endgame",
                "engine_update": "20170821",
                "engine_version": "1.0.1",
                "method": "blacklist",
                "result": "malicious (high confidence)"
            },
            "F-Prot": {
                "category": "malicious",
                "engine_name": "F-Prot",
                "engine_update": "20170822",
                "engine_version": "4.7.1.166",
                "method": "blacklist",
                "result": "W32/Zbot.JC.gen!Eldorado"
            },
            "F-Secure": {
                "category": "malicious",
                "engine_name": "F-Secure",
                "engine_update": "20170822",
                "engine_version": "11.0.19100.45",
                "method": "blacklist",
                "result": "Trojan.Lethic.Gen.11"
            },
            "Fortinet": {
                "category": "malicious",
                "engine_name": "Fortinet",
                "engine_update": "20170822",
                "engine_version": "5.4.247.0",
                "method": "blacklist",
                "result": "W32/Zbot.FG!tr"
            },
            "GData": {
                "category": "malicious",
                "engine_name": "GData",
                "engine_update": "20170822",
                "engine_version": "A:25.13945B:25.10260",
                "method": "blacklist",
                "result": "Trojan.Lethic.Gen.11"
            },
            "Ikarus": {
                "category": "malicious",
                "engine_name": "Ikarus",
                "engine_update": "20170822",
                "engine_version": "0.1.5.2",
                "method": "blacklist",
                "result": "Trojan-Dropper.Win32.Gepys"
            },
            "Invincea": {
                "category": "malicious",
                "engine_name": "Invincea",
                "engine_update": "20170822",
                "engine_version": "6.3.1.25473",
                "method": "blacklist",
                "result": "heuristic"
            },
            "Jiangmin": {
                "category": "malicious",
                "engine_name": "Jiangmin",
                "engine_update": "20170822",
                "engine_version": "16.0.100",
                "method": "blacklist",
                "result": "Trojan/Generic.avutd"
            },
            "K7AntiVirus": {
                "category": "malicious",
                "engine_name": "K7AntiVirus",
                "engine_update": "20170822",
                "engine_version": "10.22.24381",
                "method": "blacklist",
                "result": "Trojan ( 004cf6b81 )"
            },
            "K7GW": {
                "category": "malicious",
                "engine_name": "K7GW",
                "engine_update": "20170821",
                "engine_version": "10.22.24356",
                "method": "blacklist",
                "result": "Trojan ( 004cf6b81 )"
            },
            "Kaspersky": {
                "category": "malicious",
                "engine_name": "Kaspersky",
                "engine_update": "20170822",
                "engine_version": "15.0.1.13",
                "method": "blacklist",
                "result": "HEUR:Trojan.Win32.Generic"
            },
            "Kingsoft": {
                "category": "undetected",
                "engine_name": "Kingsoft",
                "engine_update": "20170822",
                "engine_version": "2013.8.14.323",
                "method": "blacklist",
                "result": null
            },
            "MAX": {
                "category": "malicious",
                "engine_name": "MAX",
                "engine_update": "20170822",
                "engine_version": "2017.6.26.1",
                "method": "blacklist",
                "result": "malware (ai score=87)"
            },
            "Malwarebytes": {
                "category": "malicious",
                "engine_name": "Malwarebytes",
                "engine_update": "20170822",
                "engine_version": "2.1.1.1115",
                "method": "blacklist",
                "result": "Rootkit.0Access.ED"
            },
            "McAfee": {
                "category": "malicious",
                "engine_name": "McAfee",
                "engine_update": "20170822",
                "engine_version": "6.0.6.653",
                "method": "blacklist",
                "result": "Generic-FAGO!D364B2B625C5"
            },
            "McAfee-GW-Edition": {
                "category": "malicious",
                "engine_name": "McAfee-GW-Edition",
                "engine_update": "20170822",
                "engine_version": "v2015",
                "method": "blacklist",
                "result": "BehavesLike.Win32.RansomCerber.dc"
            },
            "MicroWorld-eScan": {
                "category": "malicious",
                "engine_name": "MicroWorld-eScan",
                "engine_update": "20170822",
                "engine_version": "12.0.250.0",
                "method": "blacklist",
                "result": "Trojan.Lethic.Gen.11"
            },
            "Microsoft": {
                "category": "malicious",
                "engine_name": "Microsoft",
                "engine_update": "20170822",
                "engine_version": "1.1.14003.0",
                "method": "blacklist",
                "result": "TrojanDropper:Win32/Gepys.A"
            },
            "NANO-Antivirus": {
                "category": "malicious",
                "engine_name": "NANO-Antivirus",
                "engine_update": "20170822",
                "engine_version": "1.0.94.18377",
                "method": "blacklist",
                "result": "Trojan.Win32.ShipUp.broqxl"
            },
            "Paloalto": {
                "category": "undetected",
                "engine_name": "Paloalto",
                "engine_update": "20170822",
                "engine_version": "1.0",
                "method": "blacklist",
                "result": null
            },
            "Panda": {
                "category": "malicious",
                "engine_name": "Panda",
                "engine_update": "20170822",
                "engine_version": "4.6.4.2",
                "method": "blacklist",
                "result": "Trj/Genetic.gen"
            },
            "Qihoo-360": {
                "category": "malicious",
                "engine_name": "Qihoo-360",
                "engine_update": "20170822",
                "engine_version": "1.0.0.1120",
                "method": "blacklist",
                "result": "HEUR/QVM19.1.57CF.Malware.Gen"
            },
            "Rising": {
                "category": "malicious",
                "engine_name": "Rising",
                "engine_update": "20170822",
                "engine_version": "25.0.0.1",
                "method": "blacklist",
                "result": "Trojan.Kryptik!1.AB8B (classic)"
            },
            "SUPERAntiSpyware": {
                "category": "malicious",
                "engine_name": "SUPERAntiSpyware",
                "engine_update": "20170822",
                "engine_version": "5.6.0.1032",
                "method": "blacklist",
                "result": "Trojan.Agent/Gen-Gepys"
            },
            "SentinelOne": {
                "category": "malicious",
                "engine_name": "SentinelOne",
                "engine_update": "20170806",
                "engine_version": "1.0.2.235",
                "method": "blacklist",
                "result": "static engine - malicious"
            },
            "Sophos": {
                "category": "malicious",
                "engine_name": "Sophos",
                "engine_update": "20170822",
                "engine_version": "4.98.0",
                "method": "blacklist",
                "result": "Troj/Gyepis-A"
            },
            "Symantec": {
                "category": "malicious",
                "engine_name": "Symantec",
                "engine_update": "20170822",
                "engine_version": "1.4.0.0",
                "method": "blacklist",
                "result": "Packed.Generic.459"
            },
            "SymantecMobileInsight": {
                "category": "type-unsupported",
                "engine_name": "SymantecMobileInsight",
                "engine_update": "20170822",
                "engine_version": "1.0.0.35_220",
                "method": "blacklist",
                "result": null
            },
            "Tencent": {
                "category": "undetected",
                "engine_name": "Tencent",
                "engine_update": "20170822",
                "engine_version": "1.0.0.1",
                "method": "blacklist",
                "result": null
            },
            "TheHacker": {
                "category": "malicious",
                "engine_name": "TheHacker",
                "engine_update": "20170821",
                "engine_version": "6.8.0.5.1865",
                "method": "blacklist",
                "result": "Trojan/Kryptik.ayuw"
            },
            "TotalDefense": {
                "category": "malicious",
                "engine_name": "TotalDefense",
                "engine_update": "20170822",
                "engine_version": "37.1.62.1",
                "method": "blacklist",
                "result": "Win32/Gepys.VPaZfdD"
            },
            "TrendMicro": {
                "category": "malicious",
                "engine_name": "TrendMicro",
                "engine_update": "20170822",
                "engine_version": "9.862.0.1074",
                "method": "blacklist",
                "result": "TROJ_KRYPTK.SMAD"
            },
            "TrendMicro-HouseCall": {
                "category": "malicious",
                "engine_name": "TrendMicro-HouseCall",
                "engine_update": "20170822",
                "engine_version": "9.950.0.1006",
                "method": "blacklist",
                "result": "TROJ_KRYPTK.SMAD"
            },
            "Trustlook": {
                "category": "type-unsupported",
                "engine_name": "Trustlook",
                "engine_update": "20170822",
                "engine_version": "2",
                "method": "blacklist",
                "result": null
            },
            "VBA32": {
                "category": "malicious",
                "engine_name": "VBA32",
                "engine_update": "20170822",
                "engine_version": "3.12.26.4",
                "method": "blacklist",
                "result": "BScope.Malware-Cryptor.Zbot.2413"
            },
            "VIPRE": {
                "category": "malicious",
                "engine_name": "VIPRE",
                "engine_update": "20170822",
                "engine_version": "60488",
                "method": "blacklist",
                "result": "Trojan.Win32.Zbot.m (v)"
            },
            "ViRobot": {
                "category": "undetected",
                "engine_name": "ViRobot",
                "engine_update": "20170822",
                "engine_version": "2014.3.20.0",
                "method": "blacklist",
                "result": null
            },
            "Webroot": {
                "category": "malicious",
                "engine_name": "Webroot",
                "engine_update": "20170822",
                "engine_version": "1.0.0.207",
                "method": "blacklist",
                "result": "W32.Trojan.Genkdz"
            },
            "WhiteArmor": {
                "category": "malicious",
                "engine_name": "WhiteArmor",
                "engine_update": "20170817",
                "engine_version": null,
                "method": "blacklist",
                "result": "Malware.HighConfidence"
            },
            "Zillya": {
                "category": "malicious",
                "engine_name": "Zillya",
                "engine_update": "20170822",
                "engine_version": "2.0.0.3368",
                "method": "blacklist",
                "result": "Trojan.Kryptik.Win32.548615"
            },
            "ZoneAlarm": {
                "category": "malicious",
                "engine_name": "ZoneAlarm",
                "engine_update": "20170822",
                "engine_version": "1.0",
                "method": "blacklist",
                "result": "HEUR:Trojan.Win32.Generic"
            },
            "Zoner": {
                "category": "undetected",
                "engine_name": "Zoner",
                "engine_update": "20170822",
                "engine_version": "1.0",
                "method": "blacklist",
                "result": null
            },
            "nProtect": {
                "category": "undetected",
                "engine_name": "nProtect",
                "engine_update": "20170822",
                "engine_version": "2017-08-22.02",
                "method": "blacklist",
                "result": null
            }
        },
        "last_analysis_stats": {
            "confirmed-timeout": 0,
            "failure": 0,
            "harmless": 0,
            "malicious": 56,
            "suspicious": 0,
            "timeout": 0,
            "type-unsupported": 3,
            "undetected": 8
        },
        "last_modification_date": 1503440774,
        "last_submission_date": 1503440525,
        "magic": "PE32 executable for MS Windows (GUI) Intel 80386 32-bit",
        "md5": "d364b2b625c59cad7624f9f29b645330",
        "meaningful_name": "d364b2b625c59cad7624f9f29b645330.virus",
        "names": [
            "d364b2b625c59cad7624f9f29b645330.virus"
        ],
        "pe_info": {
            "entry_point": 7792,
            "imphash": "a5172bde6137239cca0773f01db5a84b",
            "import_list": [
                {
                    "imported_functions": [
                        "RegCreateKeyExW",
                        "RegOpenKeyA",
                        "RegCloseKey",
                        "GetTraceEnableLevel",
                        "RegSetValueExW",
                        "UnregisterTraceGuids",
                        "RegQueryValueExA",
                        "RegOpenKeyExW",
                        "GetTraceLoggerHandle",
                        "GetTraceEnableFlags",
                        "RegOpenKeyExA",
                        "TraceEvent",
                        "RegisterTraceGuidsW",
                        "RegQueryValueExW"
                    ],
                    "library_name": "ADVAPI32.dll"
                },
                {
                    "imported_functions": [
                        "HeapDestroy",
                        "GetFileAttributesW",
                        "DeleteCriticalSection",
                        "GetCurrentProcess",
                        "LocalAlloc",
                        "lstrcatA",
                        "ExitProcess",
                        "GetLocaleInfoW",
                        "GetFileTime",
                        "InterlockedExchange",
                        "WriteFile",
                        "GetSystemTimeAsFileTime",
                        "HeapReAlloc",
                        "LocalFree",
                        "FormatMessageW",
                        "InitializeCriticalSection",
                        "OutputDebugStringW",
                        "FindClose",
                        "TlsGetValue",
                        "GetFullPathNameW",
                        "OutputDebugStringA",
                        "SetLastError",
                        "GetUserDefaultUILanguage",
                        "LoadResource",
                        "GetModuleFileNameW",
                        "HeapAlloc",
                        "lstrcmpiW",
                        "SetProcessWorkingSetSize",
                        "UnhandledExceptionFilter",
                        "InterlockedDecrement",
                        "MultiByteToWideChar",
                        "FlushInstructionCache",
                        "InterlockedExchangeAdd",
                        "GetSystemDirectoryW",
                        "SetUnhandledExceptionFilter",
                        "MulDiv",
                        "GetSystemDirectoryA",
                        "FindAtomW",
                        "SetCurrentDirectoryW",
                        "GlobalAlloc",
                        "GetVersion",
                        "InterlockedIncrement",
                        "HeapFree",
                        "EnterCriticalSection",
                        "LoadLibraryW",
                        "GetVersionExW",
                        "FreeLibrary",
                        "QueryPerformanceCounter",
                        "GetTickCount",
                        "TlsAlloc",
                        "VirtualProtect",
                        "GetVersionExA",
                        "LoadLibraryA",
                        "GetWindowsDirectoryW",
                        "GetFileSize",
                        "GetStartupInfoW",
                        "CreateDirectoryW",
                        "DeleteFileW",
                        "GlobalLock",
                        "AddAtomW",
                        "GetProcessHeap",
                        "CompareStringW",
                        "lstrcpyW",
                        "GlobalReAlloc",
                        "ExpandEnvironmentStringsW",
                        "FindNextFileW",
                        "FindFirstFileW",
                        "TerminateProcess",
                        "lstrcmpW",
                        "GetProcAddress",
                        "CreateFileW",
                        "TlsSetValue",
                        "CreateFileA",
                        "GetCurrentThreadId",
                        "LeaveCriticalSection",
                        "GetLastError",
                        "GetSystemInfo",
                        "GlobalFree",
                        "GlobalUnlock",
                        "VirtualQuery",
                        "lstrlenW",
                        "CreateProcessW",
                        "SizeofResource",
                        "GetCurrentDirectoryW",
                        "GetCurrentProcessId",
                        "LockResource",
                        "GetCommandLineW",
                        "GetAtomNameW",
                        "GetCommandLineA",
                        "lstrcpynW",
                        "RaiseException",
                        "TlsFree",
                        "GetModuleHandleA",
                        "ReadFile",
                        "DeleteAtom",
                        "CloseHandle",
                        "GetModuleHandleW",
                        "GetLongPathNameW",
                        "HeapCreate",
                        "FindResourceW",
                        "VirtualFree",
                        "Sleep",
                        "VirtualAlloc"
                    ],
                    "library_name": "KERNEL32.dll"
                },
                {
                    "imported_functions": [
                        "_purecall",
                        "__wgetmainargs",
                        "malloc",
                        "__p__fmode",
                        "realloc",
                        "wcstoul",
                        "_wcsnicmp",
                        "__dllonexit",
                        "__wargv",
                        "__RTDynamicCast",
                        "_wcsicmp",
                        "_ultow",
                        "_vsnwprintf",
                        "_cexit",
                        "_c_exit",
                        "strtol",
                        "fwrite",
                        "qsort",
                        "_mbslen",
                        "_onexit",
                        "wcslen",
                        "wcscmp",
                        "exit",
                        "_XcptFilter",
                        "_itow",
                        "wcsrchr",
                        "__setusermatherr",
                        "wcsncpy",
                        "_adjust_fdiv",
                        "_wcmdln",
                        "__CxxFrameHandler",
                        "_CxxThrowException",
                        "_wtoi",
                        "wcschr",
                        "__p__commode",
                        "_mbsnbcnt",
                        "free",
                        "swprintf",
                        "atoi",
                        "wcsncmp",
                        "_except_handler3",
                        "_callnewh",
                        "_controlfp",
                        "_snwprintf",
                        "wcstol",
                        "memmove",
                        "swscanf",
                        "wcscpy",
                        "__argc",
                        "iswspace",
                        "wcsstr",
                        "_initterm",
                        "_exit",
                        "__set_app_type",
                        "_ltow",
                        "_iob"
                    ],
                    "library_name": "msvcrt.dll"
                },
                {
                    "imported_functions": [
                        "RedrawWindow",
                        "GetForegroundWindow",
                        "SetWindowRgn",
                        "DrawTextW",
                        "SetRectEmpty",
                        "DestroyMenu",
                        "PostQuitMessage",
                        "GetMessagePos",
                        "LoadBitmapA",
                        "SetWindowPos",
                        "IsWindow",
                        "GrayStringW",
                        "DispatchMessageA",
                        "ClientToScreen",
                        "CopyRect",
                        "GetMessageTime",
                        "SetMenuItemInfoW",
                        "SetActiveWindow",
                        "GetMenuItemID",
                        "GetCursorPos",
                        "ChildWindowFromPointEx",
                        "GetDlgCtrlID",
                        "SendMessageW",
                        "SendMessageA",
                        "GetClientRect",
                        "DefWindowProcW",
                        "SetMenuDefaultItem",
                        "GetNextDlgTabItem",
                        "CallNextHookEx",
                        "LoadImageW",
                        "GetWindowTextW",
                        "GetWindowTextLengthW",
                        "LoadAcceleratorsW",
                        "InvalidateRgn",
                        "CopyImage",
                        "PtInRect",
                        "DrawEdge",
                        "GetParent",
                        "UpdateWindow",
                        "EqualRect",
                        "RegisterClassExA",
                        "ShowWindow",
                        "DrawFrameControl",
                        "GetMenuState",
                        "PeekMessageW",
                        "EnableWindow",
                        "SetWindowPlacement",
                        "CharUpperW",
                        "LoadIconW",
                        "TranslateMessage",
                        "IsWindowEnabled",
                        "GetWindow",
                        "GetIconInfo",
                        "SetParent",
                        "DestroyWindow",
                        "IsZoomed",
                        "GetWindowPlacement",
                        "LoadStringW",
                        "IsIconic",
                        "TrackPopupMenuEx",
                        "GetWindowLongA",
                        "SetTimer",
                        "FillRect",
                        "EnumThreadWindows",
                        "MonitorFromPoint",
                        "CreateAcceleratorTableW",
                        "GetSysColorBrush",
                        "GetClassInfoW",
                        "CreateWindowExW",
                        "TabbedTextOutW",
                        "GetWindowLongW",
                        "GetMenuStringW",
                        "IsChild",
                        "MapWindowPoints",
                        "RegisterWindowMessageW",
                        "GetMonitorInfoW",
                        "GetMessageA",
                        "PostMessageA",
                        "BeginPaint",
                        "OffsetRect",
                        "SetFocus",
                        "CopyIcon",
                        "KillTimer",
                        "DefWindowProcA",
                        "DrawFocusRect",
                        "SetClipboardViewer",
                        "GetClassInfoExW",
                        "GetSystemMetrics",
                        "SetWindowLongW",
                        "GetWindowRect",
                        "InflateRect",
                        "SetCapture",
                        "ReleaseCapture",
                        "EnumChildWindows",
                        "CharLowerW",
                        "SetWindowLongA",
                        "PostMessageW",
                        "CreatePopupMenu",
                        "GetSubMenu",
                        "GetClassLongW",
                        "DrawIconEx",
                        "SetWindowTextW",
                        "CreateWindowExA",
                        "GetDlgItem",
                        "BringWindowToTop",
                        "ScreenToClient",
                        "LoadCursorA",
                        "LoadIconA",
                        "GetMenuItemCount",
                        "DestroyAcceleratorTable",
                        "GetDesktopWindow",
                        "SetWindowsHookExW",
                        "LoadCursorW",
                        "GetSystemMenu",
                        "FindWindowExW",
                        "GetDC",
                        "InsertMenuW",
                        "SetForegroundWindow",
                        "NotifyWinEvent",
                        "GetMenuItemInfoW",
                        "EndPaint",
                        "ReleaseDC",
                        "IntersectRect",
                        "LoadMenuA",
                        "CreateIconIndirect",
                        "GetCapture",
                        "MessageBeep",
                        "LoadMenuW",
                        "GetWindowThreadProcessId",
                        "DeferWindowPos",
                        "BeginDeferWindowPos",
                        "MessageBoxW",
                        "GetMenu",
                        "DestroyIcon",
                        "RegisterClassExW",
                        "UnhookWindowsHookEx",
                        "MoveWindow",
                        "AppendMenuW",
                        "ChangeClipboardChain",
                        "AdjustWindowRectEx",
                        "SendMessageTimeoutW",
                        "GetSysColor",
                        "GetKeyState",
                        "EndDeferWindowPos",
                        "SystemParametersInfoA",
                        "GetDoubleClickTime",
                        "EnableMenuItem",
                        "IsWindowVisible",
                        "WinHelpW",
                        "SystemParametersInfoW",
                        "UnionRect",
                        "SetRect",
                        "DeleteMenu",
                        "InvalidateRect",
                        "CharNextW",
                        "CallWindowProcW",
                        "GetClassNameW",
                        "ModifyMenuW",
                        "IsRectEmpty",
                        "IsMenu",
                        "GetFocus",
                        "wsprintfW",
                        "TranslateAcceleratorW",
                        "SetMenu",
                        "SetCursor"
                    ],
                    "library_name": "USER32.dll"
                },
                {
                    "imported_functions": [
                        "CreateDIBPatternBrushPt",
                        "CreatePolygonRgn",
                        "GetTextMetricsW",
                        "TextOutW",
                        "CreateFontIndirectW",
                        "CreateHalftonePalette",
                        "OffsetRgn",
                        "LPtoDP",
                        "SetStretchBltMode",
                        "DeleteEnhMetaFile",
                        "BitBlt",
                        "GetPixel",
                        "GetObjectA",
                        "GetBrushOrgEx",
                        "DeleteDC",
                        "SetBkMode",
                        "SetLayout",
                        "PtInRegion",
                        "GetObjectW",
                        "PatBlt",
                        "CreateDIBSection",
                        "GetLayout",
                        "RealizePalette",
                        "SetTextColor",
                        "CreatePatternBrush",
                        "GetDeviceCaps",
                        "SelectObject",
                        "FillRgn",
                        "ExtTextOutW",
                        "RectVisible",
                        "GetStockObject",
                        "PlayEnhMetaFile",
                        "SelectPalette",
                        "ExtTextOutA",
                        "PtVisible",
                        "GetDIBits",
                        "SetTextAlign",
                        "CreateCompatibleDC",
                        "StretchBlt",
                        "StretchDIBits",
                        "SetBrushOrgEx",
                        "CreateRectRgn",
                        "DeleteObject",
                        "CreateSolidBrush",
                        "Escape",
                        "SetBkColor",
                        "GetTextExtentPoint32W",
                        "CreateCompatibleBitmap"
                    ],
                    "library_name": "GDI32.dll"
                }
            ],
            "machine_type": 332,
            "overlay": {
                "entropy": 7.465532133862403,
                "filetype": "data",
                "md5": "ae7ac06f38ce4d9966aa277b284bfe75",
                "offset": 211968,
                "size": 360
            },
            "resource_details": [
                {
                    "filetype": "application/x-executable-file",
                    "lang": "RUSSIAN",
                    "sha256": "1e7ce9e78d2b62bca674c10c4eb2753b44fc786fbe58f126b343986505c56d24",
                    "type": "RT_VERSION"
                },
                {
                    "filetype": "image/x-bmp",
                    "lang": "RUSSIAN",
                    "sha256": "77752e9426d4cc0b6bbb245bb909a6cb943256612a5ed42759d7dc1a3fb5b3c8",
                    "type": "Struct(240)"
                },
                {
                    "filetype": "data",
                    "lang": "RUSSIAN",
                    "sha256": "abbd0bc5c8e22c896756b072fa246de406b2b7504d3437846501d4c3d4c6953d",
                    "type": "Struct(240)"
                }
            ],
            "resource_langs": {
                "RUSSIAN": 3
            },
            "resource_types": {
                "RT_VERSION": 1,
                "Struct(240)": 2
            },
            "sections": [
                {
                    "entropy": 7.6,
                    "md5": "d6ed1cef0be92fe6131ed2ad82c69e6f",
                    "name": ".text",
                    "raw_size": 183808,
                    "virtual_address": 4096,
                    "virtual_size": 183642
                },
                {
                    "entropy": 0.0,
                    "md5": "53e979547d8c2ea86560ac45de08ae25",
                    "name": ".rdata3",
                    "raw_size": 1536,
                    "virtual_address": 188416,
                    "virtual_size": 1313
                },
                {
                    "entropy": 0.0,
                    "md5": "d7eab96f074b593c3fc7139c6eb818bb",
                    "name": ".rdata2",
                    "raw_size": 13312,
                    "virtual_address": 192512,
                    "virtual_size": 13123
                },
                {
                    "entropy": 5.54,
                    "md5": "bb1b808904b932d9735e075fbc939389",
                    "name": ".rdata",
                    "raw_size": 9728,
                    "virtual_address": 208896,
                    "virtual_size": 9548
                },
                {
                    "entropy": 1.72,
                    "md5": "faef738a7efdb4b4b639504e0eba6059",
                    "name": ".data",
                    "raw_size": 512,
                    "virtual_address": 221184,
                    "virtual_size": 248
                },
                {
                    "entropy": 2.76,
                    "md5": "ea740de1123e2ace326696e9e4e04484",
                    "name": ".rsrc",
                    "raw_size": 2048,
                    "virtual_address": 225280,
                    "virtual_size": 145296
                }
            ],
            "timestamp": 1366099340
        },
        "reputation": 0,
        "sha1": "78a59b6a1730201eb6c0ebce49345cdcb9d9bd02",
        "sha256": "0001adbed87a1e263dabf2a3befd6f99b738241db4786eb4639a60747c17b21b",
        "signature_info": {
            "description": "\u0420\u0435\u0434\u0430\u043a\u0442\u043e\u0440 \u043b\u0438\u0447\u043d\u044b\u0445 \u0441\u0438\u043c\u0432\u043e\u043b\u043e\u0432"
        },
        "size": 212328,
        "ssdeep": "6144:Y/zfD2ApqVBzgIQ0FaBJbg9reqJ2jtUdmHW:wrD/YVB/gg9qqIO",
        "tags": [
            "peexe",
            "overlay"
        ],
        "times_submitted": 1,
        "total_votes": {
            "harmless": 0,
            "malicious": 0
        },
        "trid": [
            {
                "file_type": "Win32 Executable MS Visual C++ (generic)",
                "probability": 42.2
            },
            {
                "file_type": "Win64 Executable (generic)",
                "probability": 37.3
            },
            {
                "file_type": "Win32 Dynamic Link Library (generic)",
                "probability": 8.8
            },
            {
                "file_type": "Win32 Executable (generic)",
                "probability": 6.0
            },
            {
                "file_type": "Generic Win/DOS Executable",
                "probability": 2.7
            }
        ],
        "type_description": "Win32 EXE",
        "type_extension": "exe",
        "type_tag": "peexe",
        "unique_sources": 1,
        "vhash": "0250667c0c055d1510e4z31z6738kza5fz"
    },
    "id": "0001adbed87a1e263dabf2a3befd6f99b738241db4786eb4639a60747c17b21b",
    "links": {
        "self": "https://www.virustotal.com/api/v3/files/0001adbed87a1e263dabf2a3befd6f99b738241db4786eb4639a60747c17b21b"
    },
    "type": "file"
}