{
    "attributes": {
        "authentihash": "40a226e1384b2904df782d41f8c01ba69233956b382f488c2a3aaaee26fcb770",
        "first_submission_date": 1545153303,
        "last_analysis_date": 1545153303,
        "last_analysis_results": {
            "ALYac": {
                "category": "malicious",
                "engine_name": "ALYac",
                "engine_update": "20181218",
                "engine_version": "1.1.1.5",
                "method": "blacklist",
                "result": "Gen:Heur.FKP.17"
            },
            "AVG": {
                "category": "malicious",
                "engine_name": "AVG",
                "engine_update": "20181218",
                "engine_version": "18.4.3895.0",
                "method": "blacklist",
                "result": "Win32:Kryptik-LXC [Trj]"
            },
            "Acronis": {
                "category": "malicious",
                "engine_name": "Acronis",
                "engine_update": "20180726",
                "engine_version": "1.0.1.25",
                "method": "blacklist",
                "result": "malware"
            },
            "Ad-Aware": {
                "category": "malicious",
                "engine_name": "Ad-Aware",
                "engine_update": "20181218",
                "engine_version": "3.0.5.370",
                "method": "blacklist",
                "result": "Gen:Heur.FKP.17"
            },
            "AegisLab": {
                "category": "undetected",
                "engine_name": "AegisLab",
                "engine_update": "20181218",
                "engine_version": "4.2",
                "method": "blacklist",
                "result": null
            },
            "AhnLab-V3": {
                "category": "malicious",
                "engine_name": "AhnLab-V3",
                "engine_update": "20181218",
                "engine_version": "3.14.1.22785",
                "method": "blacklist",
                "result": "Trojan/Win32.Zbot.R69813"
            },
            "Alibaba": {
                "category": "undetected",
                "engine_name": "Alibaba",
                "engine_update": "20180921",
                "engine_version": "0.1.0.2",
                "method": "blacklist",
                "result": null
            },
            "Antiy-AVL": {
                "category": "malicious",
                "engine_name": "Antiy-AVL",
                "engine_update": "20181218",
                "engine_version": "3.0.0.1",
                "method": "blacklist",
                "result": "Trojan/Win32.ShipUp"
            },
            "Arcabit": {
                "category": "malicious",
                "engine_name": "Arcabit",
                "engine_update": "20181218",
                "engine_version": "1.0.0.837",
                "method": "blacklist",
                "result": "Trojan.FKP.17"
            },
            "Avast": {
                "category": "malicious",
                "engine_name": "Avast",
                "engine_update": "20181218",
                "engine_version": "18.4.3895.0",
                "method": "blacklist",
                "result": "Win32:Kryptik-LXC [Trj]"
            },
            "Avast-Mobile": {
                "category": "undetected",
                "engine_name": "Avast-Mobile",
                "engine_update": "20181218",
                "engine_version": "181218-00",
                "method": "blacklist",
                "result": null
            },
            "Avira": {
                "category": "malicious",
                "engine_name": "Avira",
                "engine_update": "20181218",
                "engine_version": "8.3.3.6",
                "method": "blacklist",
                "result": "TR/Crypt.ZPACK.Gen7"
            },
            "Babable": {
                "category": "undetected",
                "engine_name": "Babable",
                "engine_update": "20180918",
                "engine_version": "9107201",
                "method": "blacklist",
                "result": null
            },
            "Baidu": {
                "category": "undetected",
                "engine_name": "Baidu",
                "engine_update": "20181207",
                "engine_version": "1.0.0.2",
                "method": "blacklist",
                "result": null
            },
            "BitDefender": {
                "category": "malicious",
                "engine_name": "BitDefender",
                "engine_update": "20181218",
                "engine_version": "7.2",
                "method": "blacklist",
                "result": "Gen:Heur.FKP.17"
            },
            "Bkav": {
                "category": "malicious",
                "engine_name": "Bkav",
                "engine_update": "20181217",
                "engine_version": "1.3.0.9899",
                "method": "blacklist",
                "result": "HW32.Packed."
            },
            "CAT-QuickHeal": {
                "category": "malicious",
                "engine_name": "CAT-QuickHeal",
                "engine_update": "20181218",
                "engine_version": "14.00",
                "method": "blacklist",
                "result": "TrojanDropper.Gepys.A"
            },
            "CMC": {
                "category": "malicious",
                "engine_name": "CMC",
                "engine_update": "20181217",
                "engine_version": "1.1.0.977",
                "method": "blacklist",
                "result": "Trojan.Win32.ShipUp!O"
            },
            "ClamAV": {
                "category": "undetected",
                "engine_name": "ClamAV",
                "engine_update": "20181218",
                "engine_version": "0.101.0.0",
                "method": "blacklist",
                "result": null
            },
            "Comodo": {
                "category": "malicious",
                "engine_name": "Comodo",
                "engine_update": "20181218",
                "engine_version": "30139",
                "method": "blacklist",
                "result": "TrojWare.Win32.Kryptik.BCJE@4z0n54"
            },
            "CrowdStrike": {
                "category": "malicious",
                "engine_name": "CrowdStrike",
                "engine_update": "20181022",
                "engine_version": "1.0",
                "method": "blacklist",
                "result": "malicious_confidence_100% (D)"
            },
            "Cybereason": {
                "category": "malicious",
                "engine_name": "Cybereason",
                "engine_update": "20180225",
                "engine_version": "1.2.27",
                "method": "blacklist",
                "result": "malicious.485cd6"
            },
            "Cylance": {
                "category": "malicious",
                "engine_name": "Cylance",
                "engine_update": "20181218",
                "engine_version": "2.3.1.101",
                "method": "blacklist",
                "result": "Unsafe"
            },
            "Cyren": {
                "category": "malicious",
                "engine_name": "Cyren",
                "engine_update": "20181218",
                "engine_version": "6.2.0.1",
                "method": "blacklist",
                "result": "W32/Gepys.P.gen!Eldorado"
            },
            "DrWeb": {
                "category": "malicious",
                "engine_name": "DrWeb",
                "engine_update": "20181218",
                "engine_version": "7.0.34.11020",
                "method": "blacklist",
                "result": "Trojan.Mods.1"
            },
            "ESET-NOD32": {
                "category": "malicious",
                "engine_name": "ESET-NOD32",
                "engine_update": "20181218",
                "engine_version": "18564",
                "method": "blacklist",
                "result": "a variant of Win32/Kryptik.BCJE"
            },
            "Emsisoft": {
                "category": "malicious",
                "engine_name": "Emsisoft",
                "engine_update": "20181218",
                "engine_version": "2018.4.0.1029",
                "method": "blacklist",
                "result": "Gen:Heur.FKP.17 (B)"
            },
            "Endgame": {
                "category": "malicious",
                "engine_name": "Endgame",
                "engine_update": "20181108",
                "engine_version": "3.0.2",
                "method": "blacklist",
                "result": "malicious (high confidence)"
            },
            "F-Prot": {
                "category": "malicious",
                "engine_name": "F-Prot",
                "engine_update": "20181218",
                "engine_version": "4.7.1.166",
                "method": "blacklist",
                "result": "W32/Gepys.P.gen!Eldorado"
            },
            "F-Secure": {
                "category": "malicious",
                "engine_name": "F-Secure",
                "engine_update": "20181218",
                "engine_version": "11.0.19100.45",
                "method": "blacklist",
                "result": "Gen:Heur.FKP.17"
            },
            "Fortinet": {
                "category": "malicious",
                "engine_name": "Fortinet",
                "engine_update": "20181218",
                "engine_version": "5.4.247.0",
                "method": "blacklist",
                "result": "W32/Kryptik.BCLI!tr"
            },
            "GData": {
                "category": "malicious",
                "engine_name": "GData",
                "engine_update": "20181218",
                "engine_version": "A:25.19841B:25.13927",
                "method": "blacklist",
                "result": "Gen:Heur.FKP.17"
            },
            "Ikarus": {
                "category": "malicious",
                "engine_name": "Ikarus",
                "engine_update": "20181217",
                "engine_version": "0.1.5.2",
                "method": "blacklist",
                "result": "Trojan.Win32.ShipUp"
            },
            "Invincea": {
                "category": "malicious",
                "engine_name": "Invincea",
                "engine_update": "20181128",
                "engine_version": "6.3.6.26157",
                "method": "blacklist",
                "result": "heuristic"
            },
            "Jiangmin": {
                "category": "malicious",
                "engine_name": "Jiangmin",
                "engine_update": "20181218",
                "engine_version": "16.0.100",
                "method": "blacklist",
                "result": "Trojan/ShipUp.nq"
            },
            "K7AntiVirus": {
                "category": "malicious",
                "engine_name": "K7AntiVirus",
                "engine_update": "20181218",
                "engine_version": "11.18.29385",
                "method": "blacklist",
                "result": "Trojan ( 0050aa351 )"
            },
            "K7GW": {
                "category": "malicious",
                "engine_name": "K7GW",
                "engine_update": "20181218",
                "engine_version": "11.18.29384",
                "method": "blacklist",
                "result": "Trojan ( 0050aa351 )"
            },
            "Kaspersky": {
                "category": "malicious",
                "engine_name": "Kaspersky",
                "engine_update": "20181218",
                "engine_version": "15.0.1.13",
                "method": "blacklist",
                "result": "HEUR:Trojan.Win32.Generic"
            },
            "Kingsoft": {
                "category": "malicious",
                "engine_name": "Kingsoft",
                "engine_update": "20181218",
                "engine_version": "2013.8.14.323",
                "method": "blacklist",
                "result": "Win32.Troj.Generic.a.(kcloud)"
            },
            "MAX": {
                "category": "malicious",
                "engine_name": "MAX",
                "engine_update": "20181218",
                "engine_version": "2018.9.12.1",
                "method": "blacklist",
                "result": "malware (ai score=80)"
            },
            "Malwarebytes": {
                "category": "malicious",
                "engine_name": "Malwarebytes",
                "engine_update": "20181218",
                "engine_version": "2.1.1.1115",
                "method": "blacklist",
                "result": "Trojan.ShipUp"
            },
            "McAfee": {
                "category": "malicious",
                "engine_name": "McAfee",
                "engine_update": "20181218",
                "engine_version": "6.0.6.653",
                "method": "blacklist",
                "result": "Generic.atg-FAIF!A4FF9CA485CD"
            },
            "McAfee-GW-Edition": {
                "category": "malicious",
                "engine_name": "McAfee-GW-Edition",
                "engine_update": "20181218",
                "engine_version": "v2017.3010",
                "method": "blacklist",
                "result": "BehavesLike.Win32.Dropper.ch"
            },
            "MicroWorld-eScan": {
                "category": "malicious",
                "engine_name": "MicroWorld-eScan",
                "engine_update": "20181218",
                "engine_version": "14.0.297.0",
                "method": "blacklist",
                "result": "Gen:Heur.FKP.17"
            },
            "Microsoft": {
                "category": "malicious",
                "engine_name": "Microsoft",
                "engine_update": "20181218",
                "engine_version": "1.1.15500.2",
                "method": "blacklist",
                "result": "TrojanDropper:Win32/Gepys"
            },
            "NANO-Antivirus": {
                "category": "malicious",
                "engine_name": "NANO-Antivirus",
                "engine_update": "20181218",
                "engine_version": "1.0.134.24576",
                "method": "blacklist",
                "result": "Trojan.Win32.Mods.cqkuot"
            },
            "Paloalto": {
                "category": "undetected",
                "engine_name": "Paloalto",
                "engine_update": "20181218",
                "engine_version": "1.0",
                "method": "blacklist",
                "result": null
            },
            "Panda": {
                "category": "malicious",
                "engine_name": "Panda",
                "engine_update": "20181218",
                "engine_version": "4.6.4.2",
                "method": "blacklist",
                "result": "Generic Malware"
            },
            "Qihoo-360": {
                "category": "malicious",
                "engine_name": "Qihoo-360",
                "engine_update": "20181218",
                "engine_version": "1.0.0.1120",
                "method": "blacklist",
                "result": "HEUR/QVM20.1.F349.Malware.Gen"
            },
            "Rising": {
                "category": "malicious",
                "engine_name": "Rising",
                "engine_update": "20181218",
                "engine_version": "25.0.0.24",
                "method": "blacklist",
                "result": "Dropper.Gepys!8.15D (TFE:dGZlOgI1Rwe0vAIvGQ)"
            },
            "SUPERAntiSpyware": {
                "category": "malicious",
                "engine_name": "SUPERAntiSpyware",
                "engine_update": "20181212",
                "engine_version": "5.6.0.1032",
                "method": "blacklist",
                "result": "Trojan.Agent/Gen-Kryptik"
            },
            "SentinelOne": {
                "category": "malicious",
                "engine_name": "SentinelOne",
                "engine_update": "20181011",
                "engine_version": "1.0.19.245",
                "method": "blacklist",
                "result": "static engine - malicious"
            },
            "Sophos": {
                "category": "malicious",
                "engine_name": "Sophos",
                "engine_update": "20181218",
                "engine_version": "4.98.0",
                "method": "blacklist",
                "result": "Troj/Gepys-Q"
            },
            "Symantec": {
                "category": "malicious",
                "engine_name": "Symantec",
                "engine_update": "20181218",
                "engine_version": "1.8.0.0",
                "method": "blacklist",
                "result": "SMG.Heur!gen"
            },
            "SymantecMobileInsight": {
                "category": "type-unsupported",
                "engine_name": "SymantecMobileInsight",
                "engine_update": "20181215",
                "engine_version": "2.0",
                "method": "blacklist",
                "result": null
            },
            "TACHYON": {
                "category": "undetected",
                "engine_name": "TACHYON",
                "engine_update": "20181218",
                "engine_version": "2018-12-18.02",
                "method": "blacklist",
                "result": null
            },
            "Tencent": {
                "category": "malicious",
                "engine_name": "Tencent",
                "engine_update": "20181218",
                "engine_version": "1.0.0.1",
                "method": "blacklist",
                "result": "Trojan.Win32.Kryptik.bcig"
            },
            "TheHacker": {
                "category": "malicious",
                "engine_name": "TheHacker",
                "engine_update": "20181216",
                "engine_version": "6.8.0.5.3898",
                "method": "blacklist",
                "result": "Trojan/Kryptik.bcje"
            },
            "TotalDefense": {
                "category": "undetected",
                "engine_name": "TotalDefense",
                "engine_update": "20181218",
                "engine_version": "37.1.62.1",
                "method": "blacklist",
                "result": null
            },
            "Trapmine": {
                "category": "malicious",
                "engine_name": "Trapmine",
                "engine_update": "20181205",
                "engine_version": "3.0.29.679",
                "method": "blacklist",
                "result": "malicious.high.ml.score"
            },
            "TrendMicro": {
                "category": "malicious",
                "engine_name": "TrendMicro",
                "engine_update": "20181218",
                "engine_version": "10.0.0.1040",
                "method": "blacklist",
                "result": "TROJ_SPNR.15GB13"
            },
            "TrendMicro-HouseCall": {
                "category": "malicious",
                "engine_name": "TrendMicro-HouseCall",
                "engine_update": "20181218",
                "engine_version": "10.0.0.1040",
                "method": "blacklist",
                "result": "TROJ_SPNR.15GB13"
            },
            "Trustlook": {
                "category": "undetected",
                "engine_name": "Trustlook",
                "engine_update": "20181218",
                "engine_version": "1.0",
                "method": "blacklist",
                "result": null
            },
            "VBA32": {
                "category": "malicious",
                "engine_name": "VBA32",
                "engine_update": "20181218",
                "engine_version": "3.34.0",
                "method": "blacklist",
                "result": "BScope.Trojan.AET.11607"
            },
            "VIPRE": {
                "category": "malicious",
                "engine_name": "VIPRE",
                "engine_update": "20181218",
                "engine_version": "71740",
                "method": "blacklist",
                "result": "Trojan.Win32.Kryptik.bcje (v)"
            },
            "ViRobot": {
                "category": "undetected",
                "engine_name": "ViRobot",
                "engine_update": "20181218",
                "engine_version": "2014.3.20.0",
                "method": "blacklist",
                "result": null
            },
            "Webroot": {
                "category": "undetected",
                "engine_name": "Webroot",
                "engine_update": "20181218",
                "engine_version": "1.0.0.403",
                "method": "blacklist",
                "result": null
            },
            "Yandex": {
                "category": "malicious",
                "engine_name": "Yandex",
                "engine_update": "20181218",
                "engine_version": "5.5.1.3",
                "method": "blacklist",
                "result": "Trojan.ShipUp!En21F//F0ns"
            },
            "Zillya": {
                "category": "malicious",
                "engine_name": "Zillya",
                "engine_update": "20181217",
                "engine_version": "2.0.0.3715",
                "method": "blacklist",
                "result": "Trojan.Kryptik.Win32.378539"
            },
            "ZoneAlarm": {
                "category": "malicious",
                "engine_name": "ZoneAlarm",
                "engine_update": "20181218",
                "engine_version": "1.0",
                "method": "blacklist",
                "result": "HEUR:Trojan.Win32.Generic"
            },
            "Zoner": {
                "category": "undetected",
                "engine_name": "Zoner",
                "engine_update": "20181218",
                "engine_version": "1.0",
                "method": "blacklist",
                "result": null
            },
            "eGambit": {
                "category": "malicious",
                "engine_name": "eGambit",
                "engine_update": "20181218",
                "engine_version": "v4.3.5",
                "method": "blacklist",
                "result": "Unsafe.AI_Score_61%"
            }
        },
        "last_analysis_stats": {
            "confirmed-timeout": 0,
            "failure": 0,
            "harmless": 0,
            "malicious": 58,
            "suspicious": 0,
            "timeout": 0,
            "type-unsupported": 1,
            "undetected": 13
        },
        "last_modification_date": 1545185586,
        "last_submission_date": 1545153303,
        "magic": "PE32 executable for MS Windows (GUI) Intel 80386 32-bit",
        "md5": "a4ff9ca485cd6fd7a3432d736be4010c",
        "names": [
            "."
        ],
        "reputation": 0,
        "sha1": "c65934b8705c0c201b1178d31d05b053d61dc0b5",
        "sha256": "00013ddddbdcb0f141a9203d9653a14453497a580da1e469bb55cbf26c19778e",
        "size": 134840,
        "ssdeep": "3072:xa+b/xEwBxygI9vj0AT1smXA3HizrYZ6oXHqBNIr:o+LxBxULrsr3CffoXKByr",
        "tags": [
            "peexe"
        ],
        "times_submitted": 1,
        "total_votes": {
            "harmless": 0,
            "malicious": 0
        },
        "trid": [
            {
                "file_type": "Win32 Dynamic Link Library (generic)",
                "probability": 34.2
            },
            {
                "file_type": "Win32 Executable (generic)",
                "probability": 23.4
            },
            {
                "file_type": "Win16/32 Executable Delphi generic",
                "probability": 10.7
            },
            {
                "file_type": "OS/2 Executable (generic)",
                "probability": 10.5
            },
            {
                "file_type": "Generic Win/DOS Executable",
                "probability": 10.4
            }
        ],
        "type_description": "Win32 EXE",
        "type_extension": "exe",
        "type_tag": "peexe",
        "unique_sources": 1
    },
    "id": "00013ddddbdcb0f141a9203d9653a14453497a580da1e469bb55cbf26c19778e",
    "links": {
        "self": "https://www.virustotal.com/api/v3/files/00013ddddbdcb0f141a9203d9653a14453497a580da1e469bb55cbf26c19778e"
    },
    "type": "file"
}