{
    "attributes": {
        "authentihash": "ed69e39a29acba9a4068587823c35dbe2f1ab732e370e58587c2ac01db123fcb",
        "creation_date": 1208111732,
        "first_submission_date": 1531570598,
        "last_analysis_date": 1531570598,
        "last_analysis_results": {
            "ALYac": {
                "category": "malicious",
                "engine_name": "ALYac",
                "engine_update": "20180714",
                "engine_version": "1.1.1.5",
                "method": "blacklist",
                "result": "Gen:Win32.FileInfector.cm1@aKkjbIbi"
            },
            "AVG": {
                "category": "malicious",
                "engine_name": "AVG",
                "engine_update": "20180714",
                "engine_version": "18.4.3895.0",
                "method": "blacklist",
                "result": "Win32:Evo-gen [Susp]"
            },
            "AVware": {
                "category": "undetected",
                "engine_name": "AVware",
                "engine_update": "20180714",
                "engine_version": "1.6.0.52",
                "method": "blacklist",
                "result": null
            },
            "Ad-Aware": {
                "category": "malicious",
                "engine_name": "Ad-Aware",
                "engine_update": "20180714",
                "engine_version": "3.0.5.370",
                "method": "blacklist",
                "result": "Gen:Win32.FileInfector.cm1@aKkjbIbi"
            },
            "AegisLab": {
                "category": "undetected",
                "engine_name": "AegisLab",
                "engine_update": "20180714",
                "engine_version": "4.2",
                "method": "blacklist",
                "result": null
            },
            "AhnLab-V3": {
                "category": "malicious",
                "engine_name": "AhnLab-V3",
                "engine_update": "20180714",
                "engine_version": "3.13.1.21452",
                "method": "blacklist",
                "result": "Virus/Win32.Hematite.R198137"
            },
            "Alibaba": {
                "category": "type-unsupported",
                "engine_name": "Alibaba",
                "engine_update": "20180713",
                "engine_version": "1.0",
                "method": "blacklist",
                "result": null
            },
            "Antiy-AVL": {
                "category": "malicious",
                "engine_name": "Antiy-AVL",
                "engine_update": "20180714",
                "engine_version": "3.0.0.1",
                "method": "blacklist",
                "result": "Virus/Win32.Infector.gen"
            },
            "Arcabit": {
                "category": "malicious",
                "engine_name": "Arcabit",
                "engine_update": "20180714",
                "engine_version": "1.0.0.831",
                "method": "blacklist",
                "result": "Gen:Win32.FileInfector.EF4AD0"
            },
            "Avast": {
                "category": "malicious",
                "engine_name": "Avast",
                "engine_update": "20180714",
                "engine_version": "18.4.3895.0",
                "method": "blacklist",
                "result": "Win32:Evo-gen [Susp]"
            },
            "Avast-Mobile": {
                "category": "undetected",
                "engine_name": "Avast-Mobile",
                "engine_update": "20180714",
                "engine_version": "180713-04",
                "method": "blacklist",
                "result": null
            },
            "Avira": {
                "category": "malicious",
                "engine_name": "Avira",
                "engine_update": "20180714",
                "engine_version": "8.3.3.6",
                "method": "blacklist",
                "result": "TR/Patched.Gen"
            },
            "Babable": {
                "category": "undetected",
                "engine_name": "Babable",
                "engine_update": "20180406",
                "engine_version": "9107201",
                "method": "blacklist",
                "result": null
            },
            "Baidu": {
                "category": "malicious",
                "engine_name": "Baidu",
                "engine_update": "20180712",
                "engine_version": "1.0.0.2",
                "method": "blacklist",
                "result": "Win32.Trojan.WisdomEyes.16070401.9500.9998"
            },
            "BitDefender": {
                "category": "malicious",
                "engine_name": "BitDefender",
                "engine_update": "20180714",
                "engine_version": "7.2",
                "method": "blacklist",
                "result": "Gen:Win32.FileInfector.cm1@aKkjbIbi"
            },
            "Bkav": {
                "category": "undetected",
                "engine_name": "Bkav",
                "engine_update": "20180713",
                "engine_version": "1.3.0.9466",
                "method": "blacklist",
                "result": null
            },
            "CAT-QuickHeal": {
                "category": "malicious",
                "engine_name": "CAT-QuickHeal",
                "engine_update": "20180714",
                "engine_version": "14.00",
                "method": "blacklist",
                "result": "W32.Infector.A5"
            },
            "CMC": {
                "category": "undetected",
                "engine_name": "CMC",
                "engine_update": "20180713",
                "engine_version": "1.1.0.977",
                "method": "blacklist",
                "result": null
            },
            "ClamAV": {
                "category": "malicious",
                "engine_name": "ClamAV",
                "engine_update": "20180714",
                "engine_version": "0.100.1.0",
                "method": "blacklist",
                "result": "Win.Virus.Hematite-6232506-0"
            },
            "Comodo": {
                "category": "undetected",
                "engine_name": "Comodo",
                "engine_update": "20180714",
                "engine_version": null,
                "method": "blacklist",
                "result": null
            },
            "CrowdStrike": {
                "category": "malicious",
                "engine_name": "CrowdStrike",
                "engine_update": "20180530",
                "engine_version": "1.0",
                "method": "blacklist",
                "result": "malicious_confidence_100% (D)"
            },
            "Cybereason": {
                "category": "malicious",
                "engine_name": "Cybereason",
                "engine_update": "20180225",
                "engine_version": "1.2.27",
                "method": "blacklist",
                "result": "malicious.f1ceeb"
            },
            "Cylance": {
                "category": "malicious",
                "engine_name": "Cylance",
                "engine_update": "20180714",
                "engine_version": "2.3.1.101",
                "method": "blacklist",
                "result": "Unsafe"
            },
            "Cyren": {
                "category": "malicious",
                "engine_name": "Cyren",
                "engine_update": "20180714",
                "engine_version": "6.0.0.4",
                "method": "blacklist",
                "result": "W32/HWorld.A!Generic"
            },
            "DrWeb": {
                "category": "malicious",
                "engine_name": "DrWeb",
                "engine_update": "20180714",
                "engine_version": "7.0.33.6080",
                "method": "blacklist",
                "result": "Win32.Siggen.29"
            },
            "ESET-NOD32": {
                "category": "malicious",
                "engine_name": "ESET-NOD32",
                "engine_update": "20180714",
                "engine_version": "17714",
                "method": "blacklist",
                "result": "a variant of Win32/Agent.NDW"
            },
            "Emsisoft": {
                "category": "malicious",
                "engine_name": "Emsisoft",
                "engine_update": "20180714",
                "engine_version": "2018.4.0.1029",
                "method": "blacklist",
                "result": "Gen:Win32.FileInfector.cm1@aKkjbIbi (B)"
            },
            "Endgame": {
                "category": "malicious",
                "engine_name": "Endgame",
                "engine_update": "20180711",
                "engine_version": "3.0.0",
                "method": "blacklist",
                "result": "malicious (high confidence)"
            },
            "F-Prot": {
                "category": "malicious",
                "engine_name": "F-Prot",
                "engine_update": "20180714",
                "engine_version": "4.7.1.166",
                "method": "blacklist",
                "result": "W32/HWorld.A!Generic"
            },
            "F-Secure": {
                "category": "malicious",
                "engine_name": "F-Secure",
                "engine_update": "20180714",
                "engine_version": "11.0.19100.45",
                "method": "blacklist",
                "result": "Gen:Win32.FileInfector.cm1@aKkjbIbi"
            },
            "Fortinet": {
                "category": "malicious",
                "engine_name": "Fortinet",
                "engine_update": "20180714",
                "engine_version": "5.4.247.0",
                "method": "blacklist",
                "result": "W32/Agent.D17"
            },
            "GData": {
                "category": "malicious",
                "engine_name": "GData",
                "engine_update": "20180714",
                "engine_version": "A:25.17777B:25.12721",
                "method": "blacklist",
                "result": "Gen:Win32.FileInfector.cm1@aKkjbIbi"
            },
            "Ikarus": {
                "category": "malicious",
                "engine_name": "Ikarus",
                "engine_update": "20180714",
                "engine_version": "0.1.5.2",
                "method": "blacklist",
                "result": "Virus.Win32.Agent"
            },
            "Invincea": {
                "category": "malicious",
                "engine_name": "Invincea",
                "engine_update": "20180601",
                "engine_version": "6.3.5.26121",
                "method": "blacklist",
                "result": "heuristic"
            },
            "Jiangmin": {
                "category": "undetected",
                "engine_name": "Jiangmin",
                "engine_update": "20180714",
                "engine_version": "16.0.100",
                "method": "blacklist",
                "result": null
            },
            "K7AntiVirus": {
                "category": "malicious",
                "engine_name": "K7AntiVirus",
                "engine_update": "20180714",
                "engine_version": "10.53.27758",
                "method": "blacklist",
                "result": "Virus ( 00508e1d1 )"
            },
            "K7GW": {
                "category": "malicious",
                "engine_name": "K7GW",
                "engine_update": "20180714",
                "engine_version": "10.53.27758",
                "method": "blacklist",
                "result": "Virus ( 00508e1d1 )"
            },
            "Kaspersky": {
                "category": "malicious",
                "engine_name": "Kaspersky",
                "engine_update": "20180714",
                "engine_version": "15.0.1.13",
                "method": "blacklist",
                "result": "HEUR:Virus.Win32.Infector"
            },
            "Kingsoft": {
                "category": "undetected",
                "engine_name": "Kingsoft",
                "engine_update": "20180714",
                "engine_version": "2013.8.14.323",
                "method": "blacklist",
                "result": null
            },
            "MAX": {
                "category": "malicious",
                "engine_name": "MAX",
                "engine_update": "20180714",
                "engine_version": "2017.11.15.1",
                "method": "blacklist",
                "result": "malware (ai score=80)"
            },
            "Malwarebytes": {
                "category": "undetected",
                "engine_name": "Malwarebytes",
                "engine_update": "20180714",
                "engine_version": "2.1.1.1115",
                "method": "blacklist",
                "result": null
            },
            "McAfee": {
                "category": "malicious",
                "engine_name": "McAfee",
                "engine_update": "20180714",
                "engine_version": "6.0.6.653",
                "method": "blacklist",
                "result": "W32/HWorld!54157C2F1CEE"
            },
            "McAfee-GW-Edition": {
                "category": "malicious",
                "engine_name": "McAfee-GW-Edition",
                "engine_update": "20180714",
                "engine_version": "v2017.3010",
                "method": "blacklist",
                "result": "W32/HWorld!54157C2F1CEE"
            },
            "MicroWorld-eScan": {
                "category": "malicious",
                "engine_name": "MicroWorld-eScan",
                "engine_update": "20180714",
                "engine_version": "14.0.297.0",
                "method": "blacklist",
                "result": "Gen:Win32.FileInfector.cm1@aKkjbIbi"
            },
            "Microsoft": {
                "category": "malicious",
                "engine_name": "Microsoft",
                "engine_update": "20180714",
                "engine_version": "1.1.15000.2",
                "method": "blacklist",
                "result": "Virus:Win32/Hematite.A"
            },
            "NANO-Antivirus": {
                "category": "malicious",
                "engine_name": "NANO-Antivirus",
                "engine_update": "20180714",
                "engine_version": "1.0.116.23366",
                "method": "blacklist",
                "result": "Virus.Win32.Infector.emtrum"
            },
            "Paloalto": {
                "category": "undetected",
                "engine_name": "Paloalto",
                "engine_update": "20180714",
                "engine_version": "1.0",
                "method": "blacklist",
                "result": null
            },
            "Panda": {
                "category": "undetected",
                "engine_name": "Panda",
                "engine_update": "20180714",
                "engine_version": "4.6.4.2",
                "method": "blacklist",
                "result": null
            },
            "Qihoo-360": {
                "category": "malicious",
                "engine_name": "Qihoo-360",
                "engine_update": "20180714",
                "engine_version": "1.0.0.1120",
                "method": "blacklist",
                "result": "HEUR/QVM20.1.7F78.Malware.Gen"
            },
            "Rising": {
                "category": "undetected",
                "engine_name": "Rising",
                "engine_update": "20180714",
                "engine_version": "25.0.0.20",
                "method": "blacklist",
                "result": null
            },
            "SUPERAntiSpyware": {
                "category": "undetected",
                "engine_name": "SUPERAntiSpyware",
                "engine_update": "20180714",
                "engine_version": "5.6.0.1032",
                "method": "blacklist",
                "result": null
            },
            "SentinelOne": {
                "category": "malicious",
                "engine_name": "SentinelOne",
                "engine_update": "20180701",
                "engine_version": "1.0.17.227",
                "method": "blacklist",
                "result": "static engine - malicious"
            },
            "Sophos": {
                "category": "malicious",
                "engine_name": "Sophos",
                "engine_update": "20180714",
                "engine_version": "4.98.0",
                "method": "blacklist",
                "result": "W32/HWorld-A"
            },
            "Symantec": {
                "category": "malicious",
                "engine_name": "Symantec",
                "engine_update": "20180713",
                "engine_version": "1.6.0.0",
                "method": "blacklist",
                "result": "ML.Attribute.HighConfidence"
            },
            "TACHYON": {
                "category": "undetected",
                "engine_name": "TACHYON",
                "engine_update": "20180714",
                "engine_version": "2018-07-14.02",
                "method": "blacklist",
                "result": null
            },
            "Tencent": {
                "category": "malicious",
                "engine_name": "Tencent",
                "engine_update": "20180714",
                "engine_version": "1.0.0.1",
                "method": "blacklist",
                "result": "Virus.Win32.Infector.a"
            },
            "TheHacker": {
                "category": "undetected",
                "engine_name": "TheHacker",
                "engine_update": "20180712",
                "engine_version": "6.8.0.5.3314",
                "method": "blacklist",
                "result": null
            },
            "TotalDefense": {
                "category": "undetected",
                "engine_name": "TotalDefense",
                "engine_update": "20180714",
                "engine_version": "37.1.62.1",
                "method": "blacklist",
                "result": null
            },
            "TrendMicro": {
                "category": "undetected",
                "engine_name": "TrendMicro",
                "engine_update": "20180714",
                "engine_version": "10.0.0.1040",
                "method": "blacklist",
                "result": null
            },
            "TrendMicro-HouseCall": {
                "category": "undetected",
                "engine_name": "TrendMicro-HouseCall",
                "engine_update": "20180714",
                "engine_version": "9.950.0.1006",
                "method": "blacklist",
                "result": null
            },
            "Trustlook": {
                "category": "type-unsupported",
                "engine_name": "Trustlook",
                "engine_update": "20180714",
                "engine_version": "2",
                "method": "blacklist",
                "result": null
            },
            "VBA32": {
                "category": "malicious",
                "engine_name": "VBA32",
                "engine_update": "20180713",
                "engine_version": "3.12.32.0",
                "method": "blacklist",
                "result": "Win32.Virus.Unknown.Heur"
            },
            "VIPRE": {
                "category": "undetected",
                "engine_name": "VIPRE",
                "engine_update": "20180714",
                "engine_version": "68108",
                "method": "blacklist",
                "result": null
            },
            "ViRobot": {
                "category": "undetected",
                "engine_name": "ViRobot",
                "engine_update": "20180714",
                "engine_version": "2014.3.20.0",
                "method": "blacklist",
                "result": null
            },
            "Webroot": {
                "category": "undetected",
                "engine_name": "Webroot",
                "engine_update": "20180714",
                "engine_version": "1.0.0.403",
                "method": "blacklist",
                "result": null
            },
            "Yandex": {
                "category": "undetected",
                "engine_name": "Yandex",
                "engine_update": "20180713",
                "engine_version": "5.5.1.3",
                "method": "blacklist",
                "result": null
            },
            "Zillya": {
                "category": "undetected",
                "engine_name": "Zillya",
                "engine_update": "20180713",
                "engine_version": "2.0.0.3594",
                "method": "blacklist",
                "result": null
            },
            "ZoneAlarm": {
                "category": "malicious",
                "engine_name": "ZoneAlarm",
                "engine_update": "20180714",
                "engine_version": "1.0",
                "method": "blacklist",
                "result": "HEUR:Virus.Win32.Infector"
            },
            "Zoner": {
                "category": "undetected",
                "engine_name": "Zoner",
                "engine_update": "20180713",
                "engine_version": "1.0",
                "method": "blacklist",
                "result": null
            },
            "eGambit": {
                "category": "undetected",
                "engine_name": "eGambit",
                "engine_update": "20180714",
                "engine_version": null,
                "method": "blacklist",
                "result": null
            }
        },
        "last_analysis_stats": {
            "confirmed-timeout": 0,
            "failure": 0,
            "harmless": 0,
            "malicious": 42,
            "suspicious": 0,
            "timeout": 0,
            "type-unsupported": 2,
            "undetected": 26
        },
        "last_modification_date": 1531570916,
        "last_submission_date": 1531570598,
        "magic": "PE32 executable for MS Windows (GUI) Intel 80386 32-bit",
        "md5": "54157c2f1ceeb4fdb1a53e2da398427f",
        "meaningful_name": "GRPCONV.EXE",
        "names": [
            "grpconv.exe",
            "GrpConv",
            "GRPCONV.EXE"
        ],
        "pe_info": {
            "entry_point": 32857,
            "imphash": "2fb5c8d61922dd437c088d4799d715d2",
            "import_list": [
                {
                    "imported_functions": [
                        "VerQueryValueW",
                        "GetFileVersionInfoW",
                        "GetFileVersionInfoSizeW"
                    ],
                    "library_name": "VERSION.dll"
                },
                {
                    "imported_functions": [
                        "GetDeviceCaps",
                        "GetTextExtentExPointW",
                        "GetTextExtentPointW"
                    ],
                    "library_name": "GDI32.dll"
                },
                {
                    "imported_functions": [
                        "RegEnumValueW",
                        "RegCloseKey",
                        "RegSetValueExW",
                        "RegQueryInfoKeyW",
                        "RegEnumKeyExW",
                        "RegOpenKeyExW",
                        "RegCreateKeyW",
                        "RegEnumKeyW",
                        "RegDeleteKeyW",
                        "RegSetValueW",
                        "RegQueryValueExW",
                        "RegQueryValueW",
                        "RegOpenKeyW"
                    ],
                    "library_name": "ADVAPI32.dll"
                },
                {
                    "imported_functions": [
                        "GetLastError",
                        "LoadLibraryExW",
                        "lstrlenA",
                        "RemoveDirectoryW",
                        "GlobalFree",
                        "FreeLibrary",
                        "QueryPerformanceCounter",
                        "LocalAlloc",
                        "ExitProcess",
                        "GetThreadLocale",
                        "GlobalUnlock",
                        "lstrcmpiW",
                        "lstrlenW",
                        "WinExec",
                        "GlobalSize",
                        "GetCurrentProcess",
                        "GetWindowsDirectoryW",
                        "GetCurrentProcessId",
                        "LockResource",
                        "GetCommandLineW",
                        "UnhandledExceptionFilter",
                        "SetErrorMode",
                        "MultiByteToWideChar",
                        "GetStartupInfoW",
                        "DeleteFileW",
                        "GlobalLock",
                        "GetPrivateProfileStringW",
                        "WritePrivateProfileStringW",
                        "GetTempFileNameW",
                        "lstrcpynW",
                        "EnumResourceNamesW",
                        "ExpandEnvironmentStringsW",
                        "GlobalReAlloc",
                        "GetModuleFileNameW",
                        "SetFilePointer",
                        "ReadFile",
                        "SetUnhandledExceptionFilter",
                        "WriteFile",
                        "CloseHandle",
                        "GetSystemTimeAsFileTime",
                        "FindFirstFileW",
                        "lstrcmpW",
                        "GetModuleHandleW",
                        "GetProcAddress",
                        "FreeResource",
                        "GetPrivateProfileSectionW",
                        "LocalFree",
                        "TerminateProcess",
                        "LoadLibraryW",
                        "SearchPathW",
                        "LoadResource",
                        "FindResourceW",
                        "CreateFileW",
                        "GlobalAlloc",
                        "FindClose",
                        "MoveFileW",
                        "SetFileAttributesW",
                        "GetTickCount",
                        "GetCurrentThreadId",
                        "GetEnvironmentVariableW",
                        "SetLastError",
                        "MulDiv"
                    ],
                    "library_name": "KERNEL32.dll"
                },
                {
                    "imported_functions": [
                        "_vsnwprintf",
                        "memmove"
                    ],
                    "library_name": "msvcrt.dll"
                },
                {
                    "imported_functions": [
                        "SHChangeNotify",
                        "Ord(165)",
                        "Ord(58)",
                        "Ord(63)",
                        "FindExecutableW",
                        "Ord(37)",
                        "Ord(56)",
                        "Ord(39)",
                        "SHGetPathFromIDListW",
                        "Ord(196)",
                        "Ord(31)",
                        "ShellExecuteExW",
                        "Ord(119)",
                        "Ord(33)",
                        "Ord(195)",
                        "Ord(52)",
                        "Ord(35)",
                        "Ord(157)",
                        "Ord(94)",
                        "Ord(128)",
                        "Ord(49)",
                        "Ord(155)",
                        "Ord(175)",
                        "Ord(96)",
                        "Ord(34)",
                        "Ord(51)",
                        "Ord(25)",
                        "SHAddToRecentDocs",
                        "Ord(36)",
                        "Ord(57)",
                        "Ord(23)",
                        "Ord(164)",
                        "Ord(45)",
                        "SHGetSpecialFolderLocation",
                        "Ord(29)",
                        "Ord(32)",
                        "Ord(79)"
                    ],
                    "library_name": "SHELL32.dll"
                },
                {
                    "imported_functions": [
                        "GetSystemMetrics",
                        "MessageBoxW",
                        "PeekMessageW",
                        "LookupIconIdFromDirectory",
                        "SendDlgItemMessageW",
                        "SetDlgItemTextW",
                        "DispatchMessageW",
                        "CreateDialogParamW",
                        "ReleaseDC",
                        "GetLastActivePopup",
                        "LoadStringW",
                        "GetClientRect",
                        "GetDlgItem",
                        "SystemParametersInfoW",
                        "EnableMenuItem",
                        "CharNextW",
                        "CopyRect",
                        "LoadCursorW",
                        "GetSystemMenu",
                        "GetDC",
                        "SetForegroundWindow",
                        "SetCursor",
                        "DestroyWindow"
                    ],
                    "library_name": "USER32.dll"
                },
                {
                    "imported_functions": [
                        "Ord(324)",
                        "Ord(328)",
                        "Ord(332)",
                        "Ord(326)",
                        "Ord(334)",
                        "Ord(320)",
                        "Ord(321)",
                        "Ord(236)",
                        "Ord(17)",
                        "Ord(323)",
                        "Ord(73)",
                        "Ord(365)",
                        "Ord(235)",
                        "Ord(358)"
                    ],
                    "library_name": "COMCTL32.dll"
                }
            ],
            "machine_type": 332,
            "overlay": {
                "chi2": 387427.96875,
                "entropy": 2.703287363052368,
                "filetype": "data",
                "md5": "2c99d9f094ef777b0f310703b1cbcfce",
                "offset": 42496,
                "size": 3000
            },
            "resource_details": [
                {
                    "chi2": 21420.6328125,
                    "entropy": 2.9814417362213135,
                    "filetype": "data",
                    "lang": "ENGLISH US",
                    "sha256": "f877fa04d1d1887f5c365288ccabb5e6622623ba747fd74321c63dd9973cdf15",
                    "type": "RT_ICON"
                },
                {
                    "chi2": 46773.578125,
                    "entropy": 3.0636229515075684,
                    "filetype": "data",
                    "lang": "ENGLISH US",
                    "sha256": "171fcf3a6ebb272c3ccda6d2acbae75c4e39ccac0270f89fc600ab2b10ae8cb3",
                    "type": "RT_ICON"
                },
                {
                    "chi2": 36981.57421875,
                    "entropy": 3.3733386993408203,
                    "filetype": "data",
                    "lang": "ENGLISH US",
                    "sha256": "12e3b4b875c5a12ee67f933d0393cb882aaac3283a844d9a7a989ecb0ac3b9f7",
                    "type": "RT_ICON"
                },
                {
                    "chi2": 27680.61328125,
                    "entropy": 3.1093509197235107,
                    "filetype": "data",
                    "lang": "ENGLISH US",
                    "sha256": "e435e6b09c3032be790051d56e1b8524f7c19885e8d54d3ca347e7a72a4ec79b",
                    "type": "RT_DIALOG"
                },
                {
                    "chi2": 51831.24609375,
                    "entropy": 3.2834954261779785,
                    "filetype": "ASCII text",
                    "lang": "ENGLISH US",
                    "sha256": "ca4940e51219ef3cd6aa749cd4a9db820981b6208aa07fbad49308899a5523af",
                    "type": "RT_STRING"
                },
                {
                    "chi2": 18323.615234375,
                    "entropy": 3.368938446044922,
                    "filetype": "ASCII text",
                    "lang": "ENGLISH US",
                    "sha256": "f3d0016065cacf0859bbdcaae55bc00d9c331a282138edee6e35ea9b6660589d",
                    "type": "RT_STRING"
                },
                {
                    "chi2": 2435.64697265625,
                    "entropy": 2.2783517837524414,
                    "filetype": "data",
                    "lang": "ENGLISH US",
                    "sha256": "dbc3047f842848585370dd27cb6c7310a758c4be57311730593b0c93052af112",
                    "type": "RT_GROUP_ICON"
                },
                {
                    "chi2": 1490.400146484375,
                    "entropy": 2.3232197761535645,
                    "filetype": "data",
                    "lang": "ENGLISH US",
                    "sha256": "483aa261cce96256ff045257f2834d1cc43b6194f5d30533c0f18776aa7367f2",
                    "type": "RT_GROUP_ICON"
                },
                {
                    "chi2": 68226.5390625,
                    "entropy": 3.5877649784088135,
                    "filetype": "data",
                    "lang": "ENGLISH US",
                    "sha256": "8a0fad8f6199c178a82f5af7b4a54c589a157c1ea8c88d5934a151746ddddf05",
                    "type": "RT_VERSION"
                }
            ],
            "resource_langs": {
                "ENGLISH US": 9
            },
            "resource_types": {
                "RT_DIALOG": 1,
                "RT_GROUP_ICON": 2,
                "RT_ICON": 3,
                "RT_STRING": 2,
                "RT_VERSION": 1
            },
            "sections": [
                {
                    "entropy": 6.09,
                    "md5": "d09e8b2055be723f383de980f650a443",
                    "name": ".text",
                    "raw_size": 32768,
                    "virtual_address": 4096,
                    "virtual_size": 32492
                },
                {
                    "entropy": 0.27,
                    "md5": "0d3cc72677292895d139977a49d6fca8",
                    "name": ".data",
                    "raw_size": 512,
                    "virtual_address": 36864,
                    "virtual_size": 632
                },
                {
                    "entropy": 3.55,
                    "md5": "aa145f1e5e3dc7f9aaf3959f9d04717f",
                    "name": ".rsrc",
                    "raw_size": 5120,
                    "virtual_address": 40960,
                    "virtual_size": 4672
                }
            ],
            "timestamp": 1208111732
        },
        "reputation": 0,
        "sha1": "cfbf07e087839c47276f18b34a8a655e975e4963",
        "sha256": "000105a0662808d23748fcbc2c1f3b94dce71823e592e773e0626a3f034c00d4",
        "signature_info": {
            "copyright": "\u00a9 Microsoft Corporation. All rights reserved.",
            "description": "Windows Progman Group Converter",
            "file version": "5.1.2600.5512 (xpsp.080413-2105)",
            "internal name": "GrpConv",
            "original name": "GRPCONV.EXE",
            "product": "Microsoft\u00ae Windows\u00ae Operating System"
        },
        "size": 45496,
        "ssdeep": "768:1ygRI+obL1o/4jVHIK8+h+T7X5/0h7PVH7Ps1LIpHJO:byP31o/IH0+wnX1adP+I1JO",
        "tags": [
            "peexe",
            "overlay"
        ],
        "times_submitted": 1,
        "total_votes": {
            "harmless": 0,
            "malicious": 0
        },
        "trid": [
            {
                "file_type": "Win32 Executable MS Visual C++ (generic)",
                "probability": 41.0
            },
            {
                "file_type": "Win64 Executable (generic)",
                "probability": 36.3
            },
            {
                "file_type": "Win32 Dynamic Link Library (generic)",
                "probability": 8.6
            },
            {
                "file_type": "Win32 Executable (generic)",
                "probability": 5.9
            },
            {
                "file_type": "OS/2 Executable (generic)",
                "probability": 2.6
            }
        ],
        "type_description": "Win32 EXE",
        "type_extension": "exe",
        "type_tag": "peexe",
        "unique_sources": 1,
        "vhash": "0440366d1510d0e3z3003e02ez252z1703dz"
    },
    "id": "000105a0662808d23748fcbc2c1f3b94dce71823e592e773e0626a3f034c00d4",
    "links": {
        "self": "https://www.virustotal.com/api/v3/files/000105a0662808d23748fcbc2c1f3b94dce71823e592e773e0626a3f034c00d4"
    },
    "type": "file"
}