{
    "attributes": {
        "authentihash": "87bcb596cd7051ad688ca1e9729c92cd059330080b1bdfb7f6641f75533b7f9e",
        "creation_date": 708992537,
        "first_submission_date": 1503249092,
        "last_analysis_date": 1503249092,
        "last_analysis_results": {
            "ALYac": {
                "category": "malicious",
                "engine_name": "ALYac",
                "engine_update": "20170820",
                "engine_version": "1.1.1.2",
                "method": "blacklist",
                "result": "Adware.Generic.1893490"
            },
            "AVG": {
                "category": "malicious",
                "engine_name": "AVG",
                "engine_update": "20170820",
                "engine_version": "17.5.3585.0",
                "method": "blacklist",
                "result": "MacOS:Spigot-AA [Adw]"
            },
            "AVware": {
                "category": "malicious",
                "engine_name": "AVware",
                "engine_update": "20170820",
                "engine_version": "1.5.0.42",
                "method": "blacklist",
                "result": "Adware.Win32.DLBoost"
            },
            "Ad-Aware": {
                "category": "malicious",
                "engine_name": "Ad-Aware",
                "engine_update": "20170820",
                "engine_version": "3.0.3.1010",
                "method": "blacklist",
                "result": "Adware.Generic.1893490"
            },
            "AegisLab": {
                "category": "undetected",
                "engine_name": "AegisLab",
                "engine_update": "20170820",
                "engine_version": "4.2",
                "method": "blacklist",
                "result": null
            },
            "AhnLab-V3": {
                "category": "malicious",
                "engine_name": "AhnLab-V3",
                "engine_update": "20170820",
                "engine_version": "3.9.2.18278",
                "method": "blacklist",
                "result": "PUP/Win32.InstMonster.R205968"
            },
            "Alibaba": {
                "category": "type-unsupported",
                "engine_name": "Alibaba",
                "engine_update": "20170818",
                "engine_version": "1.0",
                "method": "blacklist",
                "result": null
            },
            "Antiy-AVL": {
                "category": "malicious",
                "engine_name": "Antiy-AVL",
                "engine_update": "20170820",
                "engine_version": "3.0.0.1",
                "method": "blacklist",
                "result": "GrayWare[AdWare]/Win32.DLBoost"
            },
            "Arcabit": {
                "category": "malicious",
                "engine_name": "Arcabit",
                "engine_update": "20170820",
                "engine_version": "1.0.0.817",
                "method": "blacklist",
                "result": "Adware.Generic.D1CE472"
            },
            "Avast": {
                "category": "malicious",
                "engine_name": "Avast",
                "engine_update": "20170820",
                "engine_version": "17.5.3585.0",
                "method": "blacklist",
                "result": "MacOS:Spigot-AA [Adw]"
            },
            "Avira": {
                "category": "malicious",
                "engine_name": "Avira",
                "engine_update": "20170820",
                "engine_version": "8.3.3.4",
                "method": "blacklist",
                "result": "ADWARE/InstMonster.mfjpv"
            },
            "Baidu": {
                "category": "undetected",
                "engine_name": "Baidu",
                "engine_update": "20170817",
                "engine_version": "1.0.0.2",
                "method": "blacklist",
                "result": null
            },
            "BitDefender": {
                "category": "malicious",
                "engine_name": "BitDefender",
                "engine_update": "20170820",
                "engine_version": "7.2",
                "method": "blacklist",
                "result": "Adware.Generic.1893490"
            },
            "CAT-QuickHeal": {
                "category": "malicious",
                "engine_name": "CAT-QuickHeal",
                "engine_update": "20170819",
                "engine_version": "14.00",
                "method": "blacklist",
                "result": "SoftwareBundler.InstallMonster"
            },
            "CMC": {
                "category": "undetected",
                "engine_name": "CMC",
                "engine_update": "20170820",
                "engine_version": "1.1.0.977",
                "method": "blacklist",
                "result": null
            },
            "ClamAV": {
                "category": "undetected",
                "engine_name": "ClamAV",
                "engine_update": "20170820",
                "engine_version": "0.99.2.0",
                "method": "blacklist",
                "result": null
            },
            "Comodo": {
                "category": "undetected",
                "engine_name": "Comodo",
                "engine_update": "20170820",
                "engine_version": "27633",
                "method": "blacklist",
                "result": null
            },
            "CrowdStrike": {
                "category": "malicious",
                "engine_name": "CrowdStrike",
                "engine_update": "20170804",
                "engine_version": "1.0",
                "method": "blacklist",
                "result": "malicious_confidence_100% (D)"
            },
            "Cylance": {
                "category": "malicious",
                "engine_name": "Cylance",
                "engine_update": "20170820",
                "engine_version": "2.3.1.101",
                "method": "blacklist",
                "result": "Unsafe"
            },
            "Cyren": {
                "category": "malicious",
                "engine_name": "Cyren",
                "engine_update": "20170820",
                "engine_version": "5.4.30.7",
                "method": "blacklist",
                "result": "W32/InstallMonster.IK.gen!Eldorado"
            },
            "DrWeb": {
                "category": "malicious",
                "engine_name": "DrWeb",
                "engine_update": "20170820",
                "engine_version": "7.0.28.2020",
                "method": "blacklist",
                "result": "Trojan.InstallMonster.2292"
            },
            "ESET-NOD32": {
                "category": "malicious",
                "engine_name": "ESET-NOD32",
                "engine_update": "20170820",
                "engine_version": "15946",
                "method": "blacklist",
                "result": "a variant of Win32/InstallMonstr.TN potentially unwanted"
            },
            "Emsisoft": {
                "category": "malicious",
                "engine_name": "Emsisoft",
                "engine_update": "20170820",
                "engine_version": "4.0.1.883",
                "method": "blacklist",
                "result": "Adware.Generic.1893490 (B)"
            },
            "Endgame": {
                "category": "malicious",
                "engine_name": "Endgame",
                "engine_update": "20170721",
                "engine_version": "0.7.6",
                "method": "blacklist",
                "result": "malicious (high confidence)"
            },
            "F-Prot": {
                "category": "malicious",
                "engine_name": "F-Prot",
                "engine_update": "20170820",
                "engine_version": "4.7.1.166",
                "method": "blacklist",
                "result": "W32/InstallMonster.IK.gen!Eldorado"
            },
            "F-Secure": {
                "category": "malicious",
                "engine_name": "F-Secure",
                "engine_update": "20170820",
                "engine_version": "11.0.19100.45",
                "method": "blacklist",
                "result": "Adware.Generic.1893490"
            },
            "Fortinet": {
                "category": "malicious",
                "engine_name": "Fortinet",
                "engine_update": "20170820",
                "engine_version": "5.4.247.0",
                "method": "blacklist",
                "result": "Adware/DLBoost"
            },
            "GData": {
                "category": "malicious",
                "engine_name": "GData",
                "engine_update": "20170820",
                "engine_version": "A:25.13919B:25.10243",
                "method": "blacklist",
                "result": "Win32.Application.InstallMonstr.S"
            },
            "Ikarus": {
                "category": "malicious",
                "engine_name": "Ikarus",
                "engine_update": "20170820",
                "engine_version": "0.1.5.2",
                "method": "blacklist",
                "result": "PUA.Installmonstr"
            },
            "Invincea": {
                "category": "malicious",
                "engine_name": "Invincea",
                "engine_update": "20170818",
                "engine_version": "6.3.0.25415",
                "method": "blacklist",
                "result": "heuristic"
            },
            "Jiangmin": {
                "category": "undetected",
                "engine_name": "Jiangmin",
                "engine_update": "20170820",
                "engine_version": "16.0.100",
                "method": "blacklist",
                "result": null
            },
            "K7AntiVirus": {
                "category": "malicious",
                "engine_name": "K7AntiVirus",
                "engine_update": "20170820",
                "engine_version": "10.22.24354",
                "method": "blacklist",
                "result": "Adware ( 0050c6701 )"
            },
            "K7GW": {
                "category": "malicious",
                "engine_name": "K7GW",
                "engine_update": "20170817",
                "engine_version": "10.22.24328",
                "method": "blacklist",
                "result": "Adware ( 0050c6701 )"
            },
            "Kaspersky": {
                "category": "malicious",
                "engine_name": "Kaspersky",
                "engine_update": "20170820",
                "engine_version": "15.0.1.13",
                "method": "blacklist",
                "result": "not-a-virus:HEUR:AdWare.Win32.DLBoost.gen"
            },
            "Kingsoft": {
                "category": "undetected",
                "engine_name": "Kingsoft",
                "engine_update": "20170820",
                "engine_version": "2013.8.14.323",
                "method": "blacklist",
                "result": null
            },
            "MAX": {
                "category": "malicious",
                "engine_name": "MAX",
                "engine_update": "20170820",
                "engine_version": "2017.6.26.1",
                "method": "blacklist",
                "result": "malware (ai score=48)"
            },
            "Malwarebytes": {
                "category": "malicious",
                "engine_name": "Malwarebytes",
                "engine_update": "20170820",
                "engine_version": "2.1.1.1115",
                "method": "blacklist",
                "result": "Adware.InstallMonster"
            },
            "McAfee": {
                "category": "malicious",
                "engine_name": "McAfee",
                "engine_update": "20170820",
                "engine_version": "6.0.6.653",
                "method": "blacklist",
                "result": "Adware-DLBoost"
            },
            "McAfee-GW-Edition": {
                "category": "malicious",
                "engine_name": "McAfee-GW-Edition",
                "engine_update": "20170820",
                "engine_version": "v2015",
                "method": "blacklist",
                "result": "BehavesLike.Win32.PUPXBT.rc"
            },
            "MicroWorld-eScan": {
                "category": "malicious",
                "engine_name": "MicroWorld-eScan",
                "engine_update": "20170820",
                "engine_version": "12.0.250.0",
                "method": "blacklist",
                "result": "Adware.Generic.1893490"
            },
            "Microsoft": {
                "category": "malicious",
                "engine_name": "Microsoft",
                "engine_update": "20170820",
                "engine_version": "1.1.14003.0",
                "method": "blacklist",
                "result": "SoftwareBundler:Win32/InstallMonster"
            },
            "NANO-Antivirus": {
                "category": "malicious",
                "engine_name": "NANO-Antivirus",
                "engine_update": "20170820",
                "engine_version": "1.0.94.18377",
                "method": "blacklist",
                "result": "Riskware.Win32.DLBoost.ernfad"
            },
            "Paloalto": {
                "category": "malicious",
                "engine_name": "Paloalto",
                "engine_update": "20170820",
                "engine_version": "1.0",
                "method": "blacklist",
                "result": "generic.ml"
            },
            "Panda": {
                "category": "malicious",
                "engine_name": "Panda",
                "engine_update": "20170820",
                "engine_version": "4.6.4.2",
                "method": "blacklist",
                "result": "Trj/Genetic.gen"
            },
            "Qihoo-360": {
                "category": "undetected",
                "engine_name": "Qihoo-360",
                "engine_update": "20170820",
                "engine_version": "1.0.0.1120",
                "method": "blacklist",
                "result": null
            },
            "SUPERAntiSpyware": {
                "category": "undetected",
                "engine_name": "SUPERAntiSpyware",
                "engine_update": "20170820",
                "engine_version": "5.6.0.1032",
                "method": "blacklist",
                "result": null
            },
            "SentinelOne": {
                "category": "malicious",
                "engine_name": "SentinelOne",
                "engine_update": "20170806",
                "engine_version": "1.0.2.235",
                "method": "blacklist",
                "result": "static engine - malicious"
            },
            "Sophos": {
                "category": "malicious",
                "engine_name": "Sophos",
                "engine_update": "20170820",
                "engine_version": "4.98.0",
                "method": "blacklist",
                "result": "Generic PUA EP (PUA)"
            },
            "Symantec": {
                "category": "malicious",
                "engine_name": "Symantec",
                "engine_update": "20170819",
                "engine_version": "1.4.0.0",
                "method": "blacklist",
                "result": "Trojan.Gen.2"
            },
            "SymantecMobileInsight": {
                "category": "type-unsupported",
                "engine_name": "SymantecMobileInsight",
                "engine_update": "20170818",
                "engine_version": "1.0.0.35_220",
                "method": "blacklist",
                "result": null
            },
            "Tencent": {
                "category": "undetected",
                "engine_name": "Tencent",
                "engine_update": "20170820",
                "engine_version": "1.0.0.1",
                "method": "blacklist",
                "result": null
            },
            "TheHacker": {
                "category": "undetected",
                "engine_name": "TheHacker",
                "engine_update": "20170817",
                "engine_version": "6.8.0.5.1851",
                "method": "blacklist",
                "result": null
            },
            "TotalDefense": {
                "category": "undetected",
                "engine_name": "TotalDefense",
                "engine_update": "20170820",
                "engine_version": "37.1.62.1",
                "method": "blacklist",
                "result": null
            },
            "TrendMicro": {
                "category": "undetected",
                "engine_name": "TrendMicro",
                "engine_update": "20170820",
                "engine_version": "9.862.0.1074",
                "method": "blacklist",
                "result": null
            },
            "TrendMicro-HouseCall": {
                "category": "malicious",
                "engine_name": "TrendMicro-HouseCall",
                "engine_update": "20170820",
                "engine_version": "9.950.0.1006",
                "method": "blacklist",
                "result": "TROJ_GEN.R00GH06H617"
            },
            "Trustlook": {
                "category": "type-unsupported",
                "engine_name": "Trustlook",
                "engine_update": "20170820",
                "engine_version": "2",
                "method": "blacklist",
                "result": null
            },
            "VBA32": {
                "category": "undetected",
                "engine_name": "VBA32",
                "engine_update": "20170818",
                "engine_version": "3.12.26.4",
                "method": "blacklist",
                "result": null
            },
            "VIPRE": {
                "category": "malicious",
                "engine_name": "VIPRE",
                "engine_update": "20170820",
                "engine_version": "60436",
                "method": "blacklist",
                "result": "Adware.Win32.DLBoost"
            },
            "ViRobot": {
                "category": "undetected",
                "engine_name": "ViRobot",
                "engine_update": "20170820",
                "engine_version": "2014.3.20.0",
                "method": "blacklist",
                "result": null
            },
            "Webroot": {
                "category": "undetected",
                "engine_name": "Webroot",
                "engine_update": "20170820",
                "engine_version": "1.0.0.207",
                "method": "blacklist",
                "result": null
            },
            "WhiteArmor": {
                "category": "undetected",
                "engine_name": "WhiteArmor",
                "engine_update": "20170817",
                "engine_version": null,
                "method": "blacklist",
                "result": null
            },
            "Yandex": {
                "category": "malicious",
                "engine_name": "Yandex",
                "engine_update": "20170818",
                "engine_version": "5.5.1.3",
                "method": "blacklist",
                "result": "PUA.DLBoost!"
            },
            "Zillya": {
                "category": "malicious",
                "engine_name": "Zillya",
                "engine_update": "20170819",
                "engine_version": "2.0.0.3366",
                "method": "blacklist",
                "result": "Adware.DLBoost.Win32.3280"
            },
            "ZoneAlarm": {
                "category": "malicious",
                "engine_name": "ZoneAlarm",
                "engine_update": "20170820",
                "engine_version": "1.0",
                "method": "blacklist",
                "result": "not-a-virus:HEUR:AdWare.Win32.DLBoost.gen"
            },
            "Zoner": {
                "category": "undetected",
                "engine_name": "Zoner",
                "engine_update": "20170820",
                "engine_version": "1.0",
                "method": "blacklist",
                "result": null
            },
            "nProtect": {
                "category": "undetected",
                "engine_name": "nProtect",
                "engine_update": "20170819",
                "engine_version": "2017-08-19.02",
                "method": "blacklist",
                "result": null
            }
        },
        "last_analysis_stats": {
            "confirmed-timeout": 0,
            "failure": 0,
            "harmless": 0,
            "malicious": 44,
            "suspicious": 0,
            "timeout": 0,
            "type-unsupported": 3,
            "undetected": 19
        },
        "last_modification_date": 1503249137,
        "last_submission_date": 1503249092,
        "magic": "PE32 executable for MS Windows (GUI) Intel 80386 32-bit",
        "md5": "d71edb75c87d45beae6dbc84a6e36a73",
        "meaningful_name": "Installer",
        "names": [
            "d71edb75c87d45beae6dbc84a6e36a73.virus",
            "Installer"
        ],
        "pe_info": {
            "entry_point": 1361096,
            "imphash": "dd2a5d98548fd90c919c7bfc8fc695d0",
            "import_list": [
                {
                    "imported_functions": [
                        "WNetGetLastErrorW"
                    ],
                    "library_name": "mpr.dll"
                },
                {
                    "imported_functions": [
                        "GetOpenFileNameA",
                        "GetSaveFileNameA"
                    ],
                    "library_name": "comdlg32.dll"
                },
                {
                    "imported_functions": [
                        "GetFileVersionInfoSizeA",
                        "GetFileVersionInfoW",
                        "GetFileVersionInfoSizeW",
                        "GetFileVersionInfoA",
                        "VerQueryValueA"
                    ],
                    "library_name": "version.dll"
                },
                {
                    "imported_functions": [
                        "GetWindowOrgEx",
                        "SetTextAlign",
                        "GetTextMetricsA",
                        "CopyEnhMetaFileW",
                        "SetPixel",
                        "IntersectClipRect",
                        "CopyEnhMetaFileA",
                        "CreatePalette",
                        "CreateDIBitmap",
                        "GetDIBits",
                        "GetEnhMetaFileBits",
                        "GetDCOrgEx",
                        "StretchBlt",
                        "Pie",
                        "Arc",
                        "ExtCreatePen",
                        "SetBkColor",
                        "SetWinMetaFileBits",
                        "GetBkColor",
                        "GetDIBColorTable",
                        "DeleteEnhMetaFile",
                        "GetSystemPaletteEntries",
                        "SetStretchBltMode",
                        "GetCurrentPositionEx",
                        "TextOutA",
                        "CreateFontIndirectA",
                        "LPtoDP",
                        "GetPixel",
                        "GetBrushOrgEx",
                        "ExcludeClipRect",
                        "SetBkMode",
                        "BitBlt",
                        "GetDeviceCaps",
                        "CreateBrushIndirect",
                        "SelectPalette",
                        "CreateEnhMetaFileA",
                        "ExtSelectClipRgn",
                        "CloseEnhMetaFile",
                        "SetROP2",
                        "SetDIBColorTable",
                        "DeleteObject",
                        "CreatePenIndirect",
                        "PatBlt",
                        "GetClipBox",
                        "Rectangle",
                        "GetObjectA",
                        "LineTo",
                        "DeleteDC",
                        "GetEnhMetaFileDescriptionA",
                        "RealizePalette",
                        "SetEnhMetaFileBits",
                        "CreateBitmap",
                        "RectVisible",
                        "DeleteColorSpace",
                        "GetStockObject",
                        "PlayEnhMetaFile",
                        "UnrealizeObject",
                        "SelectClipRgn",
                        "RoundRect",
                        "GetTextAlign",
                        "GetTextExtentPoint32A",
                        "GetWinMetaFileBits",
                        "GetEnhMetaFileHeader",
                        "GetPaletteEntries",
                        "SetWindowOrgEx",
                        "CreatePolygonRgn",
                        "Polygon",
                        "CreateHalftonePalette",
                        "GetBkMode",
                        "SaveDC",
                        "MaskBlt",
                        "GetEnhMetaFilePaletteEntries",
                        "RestoreDC",
                        "GetBitmapBits",
                        "CreateDIBSection",
                        "SetTextColor",
                        "MoveToEx",
                        "SetViewportOrgEx",
                        "CreateCompatibleDC",
                        "SetBrushOrgEx",
                        "CreateRectRgn",
                        "SelectObject",
                        "Ellipse",
                        "CreateSolidBrush",
                        "Polyline",
                        "CreateCompatibleBitmap"
                    ],
                    "library_name": "gdi32.dll"
                },
                {
                    "imported_functions": [
                        "SetThreadLocale",
                        "GetStdHandle",
                        "FileTimeToDosDateTime",
                        "ReleaseMutex",
                        "CreateFileMappingA",
                        "GetFileAttributesA",
                        "WaitForSingleObject",
                        "CreateIoCompletionPort",
                        "GetDriveTypeA",
                        "GetLocalTime",
                        "DeleteCriticalSection",
                        "GetCurrentProcess",
                        "GetLocaleInfoA",
                        "LocalAlloc",
                        "OpenFileMappingA",
                        "SetErrorMode",
                        "GetLogicalDrives",
                        "GetTempPathA",
                        "WideCharToMultiByte",
                        "InterlockedExchange",
                        "WriteFile",
                        "GetDiskFreeSpaceA",
                        "GetFullPathNameA",
                        "SetEvent",
                        "LocalFree",
                        "ResumeThread",
                        "InitializeCriticalSection",
                        "LoadResource",
                        "GlobalHandle",
                        "FindClose",
                        "TlsGetValue",
                        "FormatMessageA",
                        "GetStringTypeExA",
                        "SetLocaleInfoW",
                        "SetLastError",
                        "DeviceIoControl",
                        "GetEnvironmentVariableA",
                        "CopyFileW",
                        "GetModuleFileNameW",
                        "GlobalFindAtomA",
                        "HeapAlloc",
                        "GetModuleFileNameA",
                        "GetStringTypeExW",
                        "EnumCalendarInfoA",
                        "LoadLibraryExA",
                        "SetThreadPriority",
                        "UnhandledExceptionFilter",
                        "InterlockedDecrement",
                        "MultiByteToWideChar",
                        "CreateMutexA",
                        "GetModuleHandleA",
                        "CreateSemaphoreA",
                        "CreateThread",
                        "GetExitCodeThread",
                        "GlobalAddAtomA",
                        "ConvertDefaultLocale",
                        "MulDiv",
                        "ExitThread",
                        "MoveFileExA",
                        "GlobalAlloc",
                        "SetEndOfFile",
                        "GetCurrentThreadId",
                        "InterlockedIncrement",
                        "HeapFree",
                        "EnterCriticalSection",
                        "EnumResourceTypesW",
                        "FreeLibrary",
                        "QueryPerformanceCounter",
                        "GetTickCount",
                        "VirtualProtect",
                        "GetVersionExA",
                        "LoadLibraryA",
                        "RtlUnwind",
                        "GlobalSize",
                        "GetStartupInfoA",
                        "GetDateFormatA",
                        "GetFileSize",
                        "GetModuleHandleW",
                        "GetUserDefaultLCID",
                        "CompareStringW",
                        "GlobalReAlloc",
                        "FindFirstFileA",
                        "lstrcpyA",
                        "ResetEvent",
                        "GetComputerNameA",
                        "FindFirstFileW",
                        "IsValidLocale",
                        "GetProcAddress",
                        "GetTimeZoneInformation",
                        "CreateFileW",
                        "CreateEventA",
                        "GetFileType",
                        "TlsSetValue",
                        "CreateFileA",
                        "ExitProcess",
                        "LeaveCriticalSection",
                        "GetLastError",
                        "GlobalDeleteAtom",
                        "GetShortPathNameW",
                        "FindFirstChangeNotificationA",
                        "GetSystemInfo",
                        "lstrlenA",
                        "GlobalFree",
                        "GetThreadLocale",
                        "GlobalUnlock",
                        "VirtualQuery",
                        "GetShortPathNameA",
                        "FileTimeToLocalFileTime",
                        "SizeofResource",
                        "GetCurrentProcessId",
                        "LockResource",
                        "GetCPInfo",
                        "GetCommandLineA",
                        "InterlockedCompareExchange",
                        "GetCurrentThread",
                        "RaiseException",
                        "MapViewOfFile",
                        "SetFilePointer",
                        "ReadFile",
                        "CloseHandle",
                        "lstrcpynA",
                        "GetACP",
                        "GlobalLock",
                        "GetVersion",
                        "FreeResource",
                        "UnmapViewOfFile",
                        "VirtualFree",
                        "Sleep",
                        "FindResourceA",
                        "VirtualAlloc",
                        "CompareStringA"
                    ],
                    "library_name": "kernel32.dll"
                },
                {
                    "imported_functions": [
                        "SafeArrayCreate",
                        "VariantCopy",
                        "VariantInit",
                        "CreateErrorInfo",
                        "SafeArrayAccessData",
                        "SafeArrayGetLBound",
                        "SafeArrayUnaccessData",
                        "VariantCopyInd",
                        "GetActiveObject",
                        "SafeArrayGetUBound",
                        "LoadTypeLib",
                        "SysFreeString",
                        "VariantChangeType",
                        "SafeArrayGetElement",
                        "SafeArrayPtrOfIndex",
                        "SetErrorInfo",
                        "SysAllocStringLen",
                        "RegisterTypeLib",
                        "VariantClear",
                        "SysReAllocStringLen",
                        "GetErrorInfo",
                        "SafeArrayPutElement"
                    ],
                    "library_name": "oleaut32.dll"
                },
                {
                    "imported_functions": [
                        "Netbios"
                    ],
                    "library_name": "Netapi32.dll"
                },
                {
                    "imported_functions": [
                        "RegDeleteKeyA",
                        "GetSidSubAuthorityCount",
                        "RegFlushKey",
                        "GetSidSubAuthority",
                        "RegCloseKey",
                        "RegSetValueExW",
                        "GetSidIdentifierAuthority",
                        "RegCreateKeyExW",
                        "RegQueryValueExA",
                        "RegEnumKeyExW",
                        "RegOpenKeyExW",
                        "OpenThreadToken",
                        "RegSetValueExA",
                        "RegSetKeySecurity",
                        "RegCreateKeyExA",
                        "RegOpenKeyExA",
                        "RegEnumValueA",
                        "RegEnumKeyExA",
                        "RegQueryInfoKeyA",
                        "RegQueryValueExW"
                    ],
                    "library_name": "advapi32.dll"
                },
                {
                    "imported_functions": [
                        "CreateStreamOnHGlobal",
                        "OleUninitialize",
                        "OleDraw",
                        "CoInitialize",
                        "OleInitialize",
                        "CoRevokeClassObject",
                        "ProgIDFromCLSID",
                        "IsAccelerator",
                        "CoCreateInstance",
                        "CLSIDFromProgID",
                        "CoUninitialize",
                        "CoLockObjectExternal",
                        "StringFromCLSID",
                        "CoDisconnectObject",
                        "OleSetMenuDescriptor",
                        "IsEqualGUID",
                        "CoRegisterClassObject",
                        "CoTaskMemFree",
                        "CoGetClassObject",
                        "CoTaskMemAlloc"
                    ],
                    "library_name": "ole32.dll"
                },
                {
                    "imported_functions": [
                        "RedrawWindow",
                        "RegisterClipboardFormatA",
                        "GetForegroundWindow",
                        "EnableScrollBar",
                        "DestroyMenu",
                        "PostQuitMessage",
                        "LoadBitmapA",
                        "SetWindowPos",
                        "IsWindow",
                        "DispatchMessageA",
                        "EndPaint",
                        "SetMenuItemInfoA",
                        "CharUpperBuffA",
                        "WindowFromPoint",
                        "DrawIcon",
                        "GetMessageTime",
                        "SetActiveWindow",
                        "GetMenuItemID",
                        "GetCursorPos",
                        "ReleaseDC",
                        "GetClassInfoA",
                        "GetMenu",
                        "UnregisterClassA",
                        "SendMessageA",
                        "GetClientRect",
                        "CharLowerBuffA",
                        "SetScrollPos",
                        "CallNextHookEx",
                        "GetKeyboardState",
                        "ClientToScreen",
                        "GetTopWindow",
                        "ShowCursor",
                        "MsgWaitForMultipleObjects",
                        "ScrollWindow",
                        "GetWindowTextA",
                        "EnumPropsExA",
                        "GetKeyState",
                        "PtInRect",
                        "DrawEdge",
                        "GetParent",
                        "UpdateWindow",
                        "SetPropA",
                        "EqualRect",
                        "EnumWindows",
                        "DefMDIChildProcA",
                        "GetUserObjectInformationA",
                        "GetClassInfoExA",
                        "ShowWindow",
                        "SetClassLongA",
                        "GetPropA",
                        "GetNextDlgGroupItem",
                        "GetDesktopWindow",
                        "TranslateMDISysAccel",
                        "EnableWindow",
                        "SetWindowPlacement",
                        "CharUpperW",
                        "PeekMessageA",
                        "CharToOemBuffW",
                        "GetClipboardData",
                        "TranslateMessage",
                        "IsWindowEnabled",
                        "GetWindow",
                        "CharUpperA",
                        "ActivateKeyboardLayout",
                        "InsertMenuItemA",
                        "CreatePopupMenu",
                        "GetIconInfo",
                        "LoadStringA",
                        "SetParent",
                        "CharLowerA",
                        "IsZoomed",
                        "GetWindowPlacement",
                        "GetKeyboardLayoutList",
                        "DrawMenuBar",
                        "IsIconic",
                        "RegisterClassA",
                        "TrackPopupMenuEx",
                        "GetWindowLongA",
                        "SetTimer",
                        "OemToCharA",
                        "GetActiveWindow",
                        "ShowOwnedPopups",
                        "FillRect",
                        "EnumThreadWindows",
                        "CharNextA",
                        "GetSysColorBrush",
                        "CreateWindowExW",
                        "CreateMenu",
                        "DestroyWindow",
                        "IsChild",
                        "IsDialogMessageA",
                        "SetFocus",
                        "MapVirtualKeyA",
                        "SetCapture",
                        "BeginPaint",
                        "OffsetRect",
                        "GetScrollPos",
                        "KillTimer",
                        "RegisterWindowMessageA",
                        "DefWindowProcA",
                        "DrawFocusRect",
                        "MapWindowPoints",
                        "GetClassNameA",
                        "GetSystemMetrics",
                        "EnableMenuItem",
                        "SetScrollRange",
                        "GetWindowRect",
                        "InflateRect",
                        "PostMessageA",
                        "ReleaseCapture",
                        "GetScrollRange",
                        "SetWindowLongA",
                        "GetMenuItemCount",
                        "RemovePropA",
                        "SetWindowTextA",
                        "CheckMenuItem",
                        "GetSubMenu",
                        "GetLastActivePopup",
                        "DrawIconEx",
                        "CharUpperBuffW",
                        "CreateWindowExA",
                        "GetDlgItem",
                        "CharLowerBuffW",
                        "UnloadKeyboardLayout",
                        "ScreenToClient",
                        "InsertMenuA",
                        "LoadCursorA",
                        "LoadIconA",
                        "TrackPopupMenu",
                        "SetWindowsHookExA",
                        "GetMenuStringA",
                        "GetMenuState",
                        "GetKeyboardLayout",
                        "GetSystemMenu",
                        "GetDC",
                        "SetForegroundWindow",
                        "PostThreadMessageA",
                        "CharToOemA",
                        "DrawTextA",
                        "IntersectRect",
                        "GetScrollInfo",
                        "GetCapture",
                        "WaitMessage",
                        "FindWindowA",
                        "RemoveMenu",
                        "GetWindowThreadProcessId",
                        "ShowScrollBar",
                        "DrawFrameControl",
                        "UnhookWindowsHookEx",
                        "SendMessageCallbackA",
                        "CallWindowProcA",
                        "MessageBoxA",
                        "GetCursor",
                        "GetWindowDC",
                        "DestroyCursor",
                        "AdjustWindowRectEx",
                        "LoadKeyboardLayoutA",
                        "GetSysColor",
                        "SetScrollInfo",
                        "GetMenuItemInfoA",
                        "SystemParametersInfoA",
                        "DestroyIcon",
                        "GetKeyNameTextA",
                        "IsWindowVisible",
                        "GetDCEx",
                        "WinHelpA",
                        "FrameRect",
                        "SetRect",
                        "DeleteMenu",
                        "InvalidateRect",
                        "DefFrameProcA",
                        "CreateIcon",
                        "IsRectEmpty",
                        "IsMenu",
                        "GetFocus",
                        "GetKeyboardType",
                        "SetMenu",
                        "SetCursor"
                    ],
                    "library_name": "user32.dll"
                },
                {
                    "imported_functions": [
                        "ImageList_BeginDrag",
                        "ImageList_SetBkColor",
                        "InitCommonControls",
                        "ImageList_SetDragCursorImage",
                        "ImageList_Read",
                        "ImageList_GetDragImage",
                        "ImageList_Create",
                        "ImageList_DragMove",
                        "ImageList_DrawEx",
                        "ImageList_SetIconSize",
                        "ImageList_Write",
                        "ImageList_GetImageCount",
                        "ImageList_Destroy",
                        "ImageList_Draw",
                        "ImageList_GetIconSize",
                        "ImageList_DragLeave",
                        "ImageList_GetBkColor",
                        "ImageList_ReplaceIcon",
                        "ImageList_DragEnter",
                        "ImageList_Add",
                        "ImageList_DragShowNolock",
                        "ImageList_Remove",
                        "ImageList_EndDrag"
                    ],
                    "library_name": "comctl32.dll"
                }
            ],
            "machine_type": 332,
            "overlay": {
                "entropy": 7.721825220022078,
                "filetype": "data",
                "md5": "b47ce8eb07696c3e5c7450c1ee99d848",
                "offset": 4472832,
                "size": 2048
            },
            "resource_details": [
                {
                    "filetype": "audio/mpeg",
                    "lang": "NEUTRAL",
                    "sha256": "d24d10aa8999ac94dc60dd99cd4e2edb40358f1267f3c70723c1728c40c95271",
                    "type": "UNICODE"
                },
                {
                    "filetype": "audio/mpeg",
                    "lang": "NEUTRAL",
                    "sha256": "cfb8ec1f5a7e3b9160099e62537010127ede855e52f19278eccc7761da2dbdd1",
                    "type": "UNICODE"
                },
                {
                    "filetype": "audio/mpeg",
                    "lang": "NEUTRAL",
                    "sha256": "de0d03291d26cae44596e0aa34d165394ff65a044b83ee4dae2aac7196097180",
                    "type": "UNICODE"
                },
                {
                    "filetype": "audio/mpeg",
                    "lang": "NEUTRAL",
                    "sha256": "72ed1665ee6d5c3a862e163409afe9ec7952dda04e745baf7073fd7118770997",
                    "type": "UNICODE"
                },
                {
                    "filetype": "audio/mpeg",
                    "lang": "NEUTRAL",
                    "sha256": "1c23a98a45321c8ddf2c753e349f5330b96641b3f1cbe42dec35ea855895cb85",
                    "type": "UNICODE"
                },
                {
                    "filetype": "data",
                    "lang": "NEUTRAL",
                    "sha256": "26ad8bd8e5e67fa91f5e84623f14dfa392eba1b7742c1430f24039a16228f0a2",
                    "type": "UNICODEDATA"
                },
                {
                    "filetype": "data",
                    "lang": "NEUTRAL",
                    "sha256": "e0a16eb6441e280225f96b9fecb22f42ff8f3891f2c26121d96991b74f88e9c9",
                    "type": "UNICODEDATA"
                },
                {
                    "filetype": "data",
                    "lang": "NEUTRAL",
                    "sha256": "85090d58aceb2ef630709a15e01e216740e85279abd5022b20b388a07015c4db",
                    "type": "UNICODEDATA"
                },
                {
                    "filetype": "data",
                    "lang": "NEUTRAL",
                    "sha256": "5b94876780408f50c0e7a298f9cb060f5bbcbc2ddf8894fb0edfa3a6b24d35cd",
                    "type": "UNICODEDATA"
                },
                {
                    "filetype": "data",
                    "lang": "NEUTRAL",
                    "sha256": "4956615fe2817e88bbe53190d14a4b8f104706547b7eaf1852d686d86c7a9f2c",
                    "type": "UNICODEDATA"
                },
                {
                    "filetype": "data",
                    "lang": "NEUTRAL",
                    "sha256": "e0a96e22539e1496f5f9f3e47571d941ced573df20ea575ec0f426e05f1ea378",
                    "type": "UNICODEDATA"
                },
                {
                    "filetype": "data",
                    "lang": "NEUTRAL",
                    "sha256": "ca5fb93e25c64373eed51defacb8e88516b47982465fc6f17ddc423fdf72a7c3",
                    "type": "RT_CURSOR"
                },
                {
                    "filetype": "data",
                    "lang": "NEUTRAL",
                    "sha256": "ce19ace18e87b572e6912306776226af5b8e63959c61cde70a8ff05b3bbdcc41",
                    "type": "RT_CURSOR"
                },
                {
                    "filetype": "data",
                    "lang": "NEUTRAL",
                    "sha256": "ee1c9c194199c320c893b367602ccc7ee7270bd4395d029f727e097634f47f8c",
                    "type": "RT_CURSOR"
                },
                {
                    "filetype": "data",
                    "lang": "NEUTRAL",
                    "sha256": "9d9edf87ca203ecc60b246cc783d54218dd0ce77d3a025d0bafc580995a4abd8",
                    "type": "RT_CURSOR"
                },
                {
                    "filetype": "data",
                    "lang": "NEUTRAL",
                    "sha256": "99676c52310db365580965ea646ece86c62951bfd97ec0aae9f738a202a90593",
                    "type": "RT_CURSOR"
                },
                {
                    "filetype": "data",
                    "lang": "NEUTRAL",
                    "sha256": "11726dcf1eebe23a1df5eb0ee2af39196b702eddd69083d646e4475335130b28",
                    "type": "RT_CURSOR"
                },
                {
                    "filetype": "data",
                    "lang": "NEUTRAL",
                    "sha256": "6f938aab0a03120de4ef8b27aff6ba5146226c92a056a6f04e5ec8d513ce5f9d",
                    "type": "RT_CURSOR"
                },
                {
                    "filetype": "data",
                    "lang": "NEUTRAL",
                    "sha256": "b8e6fc93d423931acbddae3c27dd3c4eb2a394005d746951a971cb700e0ee510",
                    "type": "RT_CURSOR"
                },
                {
                    "filetype": "data",
                    "lang": "NEUTRAL",
                    "sha256": "c0ede68a98bd2bc58c78564dfb42f1640dc29766d3ab2782ab8b5ed28c6fd414",
                    "type": "RT_BITMAP"
                },
                {
                    "filetype": "data",
                    "lang": "NEUTRAL",
                    "sha256": "46cfc44afa8ab31ae3da35fa8346e4c085c441659d9992b09fc8ad517f2b289a",
                    "type": "RT_BITMAP"
                },
                {
                    "filetype": "data",
                    "lang": "NEUTRAL",
                    "sha256": "c0ede68a98bd2bc58c78564dfb42f1640dc29766d3ab2782ab8b5ed28c6fd414",
                    "type": "RT_BITMAP"
                },
                {
                    "filetype": "data",
                    "lang": "NEUTRAL",
                    "sha256": "f8e1696801fe89b88936ac4226cea03bfa5aa345aa33ca982822ae7fbc6557e2",
                    "type": "RT_BITMAP"
                },
                {
                    "filetype": "data",
                    "lang": "NEUTRAL",
                    "sha256": "cb7421b5c6af74c3159c361f3bb78bba8a488d8979d1250e106fa96cbf928789",
                    "type": "RT_BITMAP"
                },
                {
                    "filetype": "data",
                    "lang": "NEUTRAL",
                    "sha256": "41f05a4df5f42d92b879493d51941de342d36460fe15c0f3b63b2b706b928fef",
                    "type": "RT_BITMAP"
                },
                {
                    "filetype": "data",
                    "lang": "NEUTRAL",
                    "sha256": "81265e63c89ee5c2e5126452e22f84e9be9452449f3e5959ab6d346cb58b2bde",
                    "type": "RT_BITMAP"
                },
                {
                    "filetype": "data",
                    "lang": "NEUTRAL",
                    "sha256": "6b97877cdd547e6ba6467f86055f1fc7b06660b034439f0da4c137538ef14a83",
                    "type": "RT_BITMAP"
                },
                {
                    "filetype": "data",
                    "lang": "NEUTRAL",
                    "sha256": "c925e4a8cbf6d42dbb1220a510614df725558f8d843338982bab8c4e020f6429",
                    "type": "RT_BITMAP"
                },
                {
                    "filetype": "data",
                    "lang": "NEUTRAL",
                    "sha256": "6b97877cdd547e6ba6467f86055f1fc7b06660b034439f0da4c137538ef14a83",
                    "type": "RT_BITMAP"
                },
                {
                    "filetype": "data",
                    "lang": "NEUTRAL",
                    "sha256": "c8bbf55b62157560e4ec92e2d84c40a8c1a0dbe37d2801488d0062a411b33ae7",
                    "type": "RT_BITMAP"
                },
                {
                    "filetype": "data",
                    "lang": "NEUTRAL",
                    "sha256": "9c1dd1039d15645d4953fbc64859eea24749555784a129eb2a0921d76949b347",
                    "type": "RT_BITMAP"
                },
                {
                    "filetype": "data",
                    "lang": "NEUTRAL",
                    "sha256": "236aacf465f12fbea60cd329070c1b0f92fc6d131324895af1bbf005505c1d3c",
                    "type": "RT_BITMAP"
                },
                {
                    "filetype": "data",
                    "lang": "NEUTRAL",
                    "sha256": "d693797e8b41c94629f579096afbbaf161cdd326a9f5f5f380255ee591a52e1d",
                    "type": "RT_BITMAP"
                },
                {
                    "filetype": "data",
                    "lang": "NEUTRAL",
                    "sha256": "0abb5e9814fedfbf8b481cf7e4e447bc40788acbbe87d3872b596930a0305722",
                    "type": "RT_BITMAP"
                },
                {
                    "filetype": "data",
                    "lang": "NEUTRAL",
                    "sha256": "48383fe3651419567a4ff7098bc09b5c31f924eecb9adee51ff7d74fd614a199",
                    "type": "RT_BITMAP"
                },
                {
                    "filetype": "data",
                    "lang": "NEUTRAL",
                    "sha256": "ced2423aa4d3a9c68a6757eb70a260e0ff4edf74a6527c086da8134fd601e2b1",
                    "type": "RT_BITMAP"
                },
                {
                    "filetype": "data",
                    "lang": "NEUTRAL",
                    "sha256": "f5dafef55098f34d098f87641cba44376a422e333ba3639dea2ea57825ceb415",
                    "type": "RT_BITMAP"
                },
                {
                    "filetype": "data",
                    "lang": "NEUTRAL",
                    "sha256": "eadc46c79bfe0ed0b0aeed5750ac0bb64af4897a96875fa474ef43b7deefa306",
                    "type": "RT_BITMAP"
                },
                {
                    "filetype": "data",
                    "lang": "NEUTRAL",
                    "sha256": "e48ec1ff84e0be504dd8aea3e205e94e462208436dfccb4b29800c0af8a2c9ee",
                    "type": "RT_BITMAP"
                },
                {
                    "filetype": "data",
                    "lang": "NEUTRAL",
                    "sha256": "78507a772de646626b196a743cee75b298a68c33a0fd482842071519d59037b2",
                    "type": "RT_BITMAP"
                },
                {
                    "filetype": "data",
                    "lang": "NEUTRAL",
                    "sha256": "14699949d38d3adb3336e0dd7fd49545caa05cfac839a02ad59629a5fe63ae0c",
                    "type": "RT_ICON"
                },
                {
                    "filetype": "data",
                    "lang": "NEUTRAL",
                    "sha256": "771f64afb45a9edc8c4f6c5b2039f9b32623cea53bf0cab5bf1f371cc5d1abe4",
                    "type": "RT_DIALOG"
                },
                {
                    "filetype": "ASCII text",
                    "lang": "NEUTRAL",
                    "sha256": "fa588482a53a40b956bf63ee2f671b79378aa11f92710c281bfeb4412a4a4991",
                    "type": "RT_STRING"
                },
                {
                    "filetype": "ASCII text",
                    "lang": "NEUTRAL",
                    "sha256": "18ca825458592f5c5d7d0fade0445d9f33d58b35b8e91966a6b4ba5d68a0cef7",
                    "type": "RT_STRING"
                },
                {
                    "filetype": "ASCII text",
                    "lang": "NEUTRAL",
                    "sha256": "6c93a42056c45269c9ff3633cca1f37d1ec1128ac346fc11b99d925b9b419198",
                    "type": "RT_STRING"
                },
                {
                    "filetype": "ASCII text",
                    "lang": "NEUTRAL",
                    "sha256": "123efcd24020be5b618646b9fcf6cd88e33eb888f29569753581696f4f2f9eac",
                    "type": "RT_STRING"
                },
                {
                    "filetype": "ASCII text",
                    "lang": "NEUTRAL",
                    "sha256": "139d2aad11f0234cc20811dd81744ab189aa17cb661a3ffbca86bf05401d41e6",
                    "type": "RT_STRING"
                },
                {
                    "filetype": "ASCII text",
                    "lang": "NEUTRAL",
                    "sha256": "31c6e681c0d888888983fe3a874d685a55003403c7938ac71f3414afce2395d3",
                    "type": "RT_STRING"
                },
                {
                    "filetype": "ASCII text",
                    "lang": "NEUTRAL",
                    "sha256": "5de729bbf998f416dc0b89d99df830f1242d49589eb46ba82d6f487e3a3cb827",
                    "type": "RT_STRING"
                },
                {
                    "filetype": "ASCII text",
                    "lang": "NEUTRAL",
                    "sha256": "6e82ecd146a6ee54a725573c5d55555f4c3f32d5db60620e0f8429e4d9a85f7a",
                    "type": "RT_STRING"
                },
                {
                    "filetype": "ASCII text",
                    "lang": "NEUTRAL",
                    "sha256": "6eb30fe1aef4c8288c7aaf6f119fd154acfef3646d1a6602a744047c97b17358",
                    "type": "RT_STRING"
                },
                {
                    "filetype": "ASCII text",
                    "lang": "NEUTRAL",
                    "sha256": "7d781c9be9556b69347ff390d222282f3f4073738ee503540896263fef3aec51",
                    "type": "RT_STRING"
                },
                {
                    "filetype": "ASCII text",
                    "lang": "NEUTRAL",
                    "sha256": "1ad7d9b67c9f04c569438fe1334e08770b3c3fd17c24d0816d463f37d2323747",
                    "type": "RT_STRING"
                },
                {
                    "filetype": "ASCII text",
                    "lang": "NEUTRAL",
                    "sha256": "7e034fd64206e28f429ae8788815be03be8357a22634893beb42a380489e38e9",
                    "type": "RT_STRING"
                },
                {
                    "filetype": "ASCII text",
                    "lang": "NEUTRAL",
                    "sha256": "2d214baf6dc90b30cad939b5ebe55b111ea67b78785d21ff21a1ac5c68fdabd7",
                    "type": "RT_STRING"
                },
                {
                    "filetype": "data",
                    "lang": "NEUTRAL",
                    "sha256": "1c6d0634b94680f91ccbd2e55193e1de9e1e9fadcedd6aa53e0222975fba4848",
                    "type": "RT_STRING"
                },
                {
                    "filetype": "data",
                    "lang": "NEUTRAL",
                    "sha256": "b3035d7bbb5b9244171f33b01d1ae4ea478cd0ab856652718c514e7cb5bc1086",
                    "type": "RT_STRING"
                },
                {
                    "filetype": "data",
                    "lang": "NEUTRAL",
                    "sha256": "9d5c8a55ab6da35fcdf941fd9e555eb5a6181b427b8c1046aab2f96888487e0c",
                    "type": "RT_STRING"
                },
                {
                    "filetype": "ASCII text",
                    "lang": "NEUTRAL",
                    "sha256": "163b85c1bb55c8c5f437a0ccce982d7152e57667c95f87cbf274a3ef8edf8889",
                    "type": "RT_STRING"
                },
                {
                    "filetype": "ASCII text",
                    "lang": "NEUTRAL",
                    "sha256": "b1e144e92020d5ad5e13645c27ecf569489ac37922ab268f153588556a503b7f",
                    "type": "RT_STRING"
                },
                {
                    "filetype": "ASCII text",
                    "lang": "NEUTRAL",
                    "sha256": "5173a1c835add2cb272b952f6af1bb731293e45605d14fe5e6577ecf3ef33c22",
                    "type": "RT_STRING"
                },
                {
                    "filetype": "data",
                    "lang": "NEUTRAL",
                    "sha256": "f192ad12c8ba41855b93919b90e0264a099fd62ac8b193cc6ddc86978ab3953c",
                    "type": "RT_STRING"
                },
                {
                    "filetype": "ASCII text",
                    "lang": "NEUTRAL",
                    "sha256": "234d316495b61c14ad3c4124273e09b57daaff42036848dd645e7d993836659c",
                    "type": "RT_STRING"
                },
                {
                    "filetype": "ASCII text",
                    "lang": "NEUTRAL",
                    "sha256": "b4bcbf91ef6dda3b50469040df330f3b2d7cdd5d636d07c7093b8f1c34bc1cc9",
                    "type": "RT_STRING"
                },
                {
                    "filetype": "ASCII text",
                    "lang": "NEUTRAL",
                    "sha256": "4cb10f4c1c119675f930e019aee23f60ea8531e59560b8bad9c98a757ceacc0b",
                    "type": "RT_STRING"
                },
                {
                    "filetype": "ASCII text",
                    "lang": "NEUTRAL",
                    "sha256": "825989b97ab01ea8693f5cc274eef9fd78727291ecdbadc8746a06e01a3b7efc",
                    "type": "RT_STRING"
                },
                {
                    "filetype": "ASCII text",
                    "lang": "NEUTRAL",
                    "sha256": "f3b385af3acf12fa90edc35c093f71fb819ded60605922f7a0ac3f4a65f5f1ad",
                    "type": "RT_STRING"
                },
                {
                    "filetype": "ASCII text",
                    "lang": "NEUTRAL",
                    "sha256": "551c6f5c6f6b15714403d3d1dcc7374f820d8089f433d6a4f34cc7d3ce1909a7",
                    "type": "RT_STRING"
                },
                {
                    "filetype": "ASCII text",
                    "lang": "NEUTRAL",
                    "sha256": "8d13b09ce141bc8a91628840c30d96644ced79896b6482922022bd4c25a912b5",
                    "type": "RT_STRING"
                },
                {
                    "filetype": "ASCII text",
                    "lang": "NEUTRAL",
                    "sha256": "e7532b0fd57664a8741af938b254a70b6bf25c720626da8a43d4e85a69a17969",
                    "type": "RT_STRING"
                },
                {
                    "filetype": "ASCII text",
                    "lang": "NEUTRAL",
                    "sha256": "0cc4e567fc1f165236466cd9c61bfeed47e9f929642bbf73010b469ed9acbe07",
                    "type": "RT_STRING"
                },
                {
                    "filetype": "ASCII text",
                    "lang": "NEUTRAL",
                    "sha256": "0bb0da271ee02faa9afc29f407cefc0a99a929a4bfcb66869bf8ca31dbb496f9",
                    "type": "RT_STRING"
                },
                {
                    "filetype": "ASCII text",
                    "lang": "NEUTRAL",
                    "sha256": "d493014502b4d2da339f367f631f4b1d8e356c31d83adc5941946c45afbc5871",
                    "type": "RT_STRING"
                },
                {
                    "filetype": "ASCII text",
                    "lang": "NEUTRAL",
                    "sha256": "7c53f7b149d5fac691c031ec8f2474b74ea167c690814bbc651d3e6921fdc035",
                    "type": "RT_STRING"
                },
                {
                    "filetype": "ASCII text",
                    "lang": "NEUTRAL",
                    "sha256": "e01e8de9564e67ace940f80b516cb0dcfb2ab5e9cecbb2c2a9ad497809827898",
                    "type": "RT_STRING"
                },
                {
                    "filetype": "ASCII text",
                    "lang": "NEUTRAL",
                    "sha256": "89340556c4787f52ec90b3677efef2f8ccf3db293b9d4a0bc85a2289da8271bf",
                    "type": "RT_STRING"
                },
                {
                    "filetype": "ASCII text",
                    "lang": "NEUTRAL",
                    "sha256": "8dda5ad0b9ca0766584d8976543d5e143e6375496a7aea6e612563e05790a1b4",
                    "type": "RT_STRING"
                },
                {
                    "filetype": "ASCII text",
                    "lang": "NEUTRAL",
                    "sha256": "9a727bee2e57c7d9873ed9b3d53a444d4ab270e1d05358b7876e36d62e68543d",
                    "type": "RT_STRING"
                },
                {
                    "filetype": "ASCII text",
                    "lang": "NEUTRAL",
                    "sha256": "03457943b497630f6360d19cdff229000b7bc5bd811240aff4b7c61e6d443c6a",
                    "type": "RT_STRING"
                },
                {
                    "filetype": "ASCII text",
                    "lang": "NEUTRAL",
                    "sha256": "a699dc948dc4eb6a23f20de16b487d59d178a1bb25361b84c96092ecb367c820",
                    "type": "RT_STRING"
                },
                {
                    "filetype": "ASCII text",
                    "lang": "NEUTRAL",
                    "sha256": "901ed8dd9712ff5d2f9ecb082957444bc9b36a1744a5075e80438d1c2c616894",
                    "type": "RT_STRING"
                },
                {
                    "filetype": "ASCII text",
                    "lang": "NEUTRAL",
                    "sha256": "de1fdf20f5c0ca2895d58b861eb4b26d16ebabc2dac9e0452fe49c50f069ec16",
                    "type": "RT_STRING"
                },
                {
                    "filetype": "ASCII text",
                    "lang": "NEUTRAL",
                    "sha256": "99f9f6b37d9b7f0b6bf4601a2807960871c4e2bb10bc781c36bc57abb34eca79",
                    "type": "RT_STRING"
                },
                {
                    "filetype": "ASCII text",
                    "lang": "NEUTRAL",
                    "sha256": "d95714d4617620ce18d00b750e7e7499269eee11abb44f78ef782d1b5778d21c",
                    "type": "RT_STRING"
                },
                {
                    "filetype": "ASCII text",
                    "lang": "NEUTRAL",
                    "sha256": "61abfbcbe22fbb5d51758a2f948daab6e90261696713ec6b92ebce15a019e539",
                    "type": "RT_STRING"
                },
                {
                    "filetype": "ASCII text",
                    "lang": "NEUTRAL",
                    "sha256": "70d5daf1d42ac9206cd03e7814c9df0e951f60bdc786572c7227bbee617341e5",
                    "type": "RT_STRING"
                },
                {
                    "filetype": "data",
                    "lang": "NEUTRAL",
                    "sha256": "4ced9507eb8afb32e0a8c3bb98492876cabadbda831202a629e84f4de35cac8d",
                    "type": "RT_RCDATA"
                },
                {
                    "filetype": "data",
                    "lang": "NEUTRAL",
                    "sha256": "32de62e6b5e370883cc4c882e8c28048724e5bef76f2456278a38f6d5a7aa0ac",
                    "type": "RT_RCDATA"
                },
                {
                    "filetype": "data",
                    "lang": "NEUTRAL",
                    "sha256": "4e5728d0faff235d9b94df07cfb963dfa005d1481835331448b88fc3873eb6a5",
                    "type": "RT_RCDATA"
                },
                {
                    "filetype": "data",
                    "lang": "NEUTRAL",
                    "sha256": "eaee347360e05315ad7802aa18217870e50866dc212272486d5e1e81871af56c",
                    "type": "RT_RCDATA"
                },
                {
                    "filetype": "data",
                    "lang": "NEUTRAL",
                    "sha256": "eaee347360e05315ad7802aa18217870e50866dc212272486d5e1e81871af56c",
                    "type": "RT_RCDATA"
                },
                {
                    "filetype": "Lotus 1-2-3",
                    "lang": "NEUTRAL",
                    "sha256": "c53efa8085835ba129c1909beaff8a67b45f50837707f22dfff0f24d8cd26710",
                    "type": "RT_GROUP_CURSOR"
                },
                {
                    "filetype": "Lotus 1-2-3",
                    "lang": "NEUTRAL",
                    "sha256": "ec26c438d10e3e84ec855c47f07a176e6c11bbfae1557d526490711b80f087fe",
                    "type": "RT_GROUP_CURSOR"
                },
                {
                    "filetype": "Lotus 1-2-3",
                    "lang": "NEUTRAL",
                    "sha256": "b07e022f8ef0a8e5fd3f56986b2e5bf06df07054e9ea9177996b0a6c27d74d7c",
                    "type": "RT_GROUP_CURSOR"
                },
                {
                    "filetype": "Lotus 1-2-3",
                    "lang": "NEUTRAL",
                    "sha256": "43f40dd5140804309a4c901ec3c85b54481316e67a6fe18beb9d5c0ce3a42c3a",
                    "type": "RT_GROUP_CURSOR"
                },
                {
                    "filetype": "Lotus 1-2-3",
                    "lang": "NEUTRAL",
                    "sha256": "ff47a48c11c234903a7d625cb8b62101909f735ad84266c98dd4834549452c39",
                    "type": "RT_GROUP_CURSOR"
                },
                {
                    "filetype": "Lotus 1-2-3",
                    "lang": "NEUTRAL",
                    "sha256": "a0adcedb82b57089f64e2857f97cefd6cf25f4d27eefc6648bda83fd5fef66bb",
                    "type": "RT_GROUP_CURSOR"
                },
                {
                    "filetype": "Lotus 1-2-3",
                    "lang": "NEUTRAL",
                    "sha256": "6e1e7738a1b6373d8829f817915822ef415a1727bb5bb7cfe809e31b3c143ac5",
                    "type": "RT_GROUP_CURSOR"
                },
                {
                    "filetype": "Lotus 1-2-3",
                    "lang": "NEUTRAL",
                    "sha256": "326c048595bbc72e3f989cb3b95fbf09dc83739ced3cb13eb6f03336f95d74f1",
                    "type": "RT_GROUP_CURSOR"
                },
                {
                    "filetype": "ASCII text",
                    "lang": "NEUTRAL",
                    "sha256": "a244513898d8cb7b48e49939a6f604b26d3f4da8e82dd9ff3f8f2283f4e87bca",
                    "type": "RT_GROUP_ICON"
                },
                {
                    "filetype": "data",
                    "lang": "ENGLISH US",
                    "sha256": "fa5d93b88903a4e84a8cf3eb4fa703bd700f1a33af9a9f07dbedeca2d847397b",
                    "type": "RT_VERSION"
                },
                {
                    "filetype": "ASCII text",
                    "lang": "ENGLISH US",
                    "sha256": "1a3cff4ed06967147342d90f67154ce7ff61686d44ed5cff8ac39b422c6a4280",
                    "type": "RT_MANIFEST"
                }
            ],
            "resource_langs": {
                "ENGLISH US": 2,
                "NEUTRAL": 100
            },
            "resource_types": {
                "RT_BITMAP": 21,
                "RT_CURSOR": 8,
                "RT_DIALOG": 1,
                "RT_GROUP_CURSOR": 8,
                "RT_GROUP_ICON": 1,
                "RT_ICON": 1,
                "RT_MANIFEST": 1,
                "RT_RCDATA": 5,
                "RT_STRING": 44,
                "RT_VERSION": 1,
                "UNICODE": 5,
                "UNICODEDATA": 6
            },
            "sections": [
                {
                    "entropy": 6.56,
                    "md5": "d42e25a600d9e2e68e6bed64183d84b8",
                    "name": "CODE",
                    "raw_size": 1358336,
                    "virtual_address": 4096,
                    "virtual_size": 1358120
                },
                {
                    "entropy": 7.63,
                    "md5": "05348374574fb5ac432d17bbab72a7e0",
                    "name": "DATA",
                    "raw_size": 839680,
                    "virtual_address": 1363968,
                    "virtual_size": 839360
                },
                {
                    "entropy": 0.0,
                    "md5": "d41d8cd98f00b204e9800998ecf8427e",
                    "name": "BSS",
                    "raw_size": 0,
                    "virtual_address": 2203648,
                    "virtual_size": 35141
                },
                {
                    "entropy": 4.89,
                    "md5": "5219b0959aa45ac150ee69ad2f079633",
                    "name": ".idata",
                    "raw_size": 12800,
                    "virtual_address": 2240512,
                    "virtual_size": 12330
                },
                {
                    "entropy": 0.0,
                    "md5": "d41d8cd98f00b204e9800998ecf8427e",
                    "name": ".tls",
                    "raw_size": 0,
                    "virtual_address": 2256896,
                    "virtual_size": 48
                },
                {
                    "entropy": 0.21,
                    "md5": "307c15e78313b1cdcc176378b9ef4b9a",
                    "name": ".rdata",
                    "raw_size": 512,
                    "virtual_address": 2260992,
                    "virtual_size": 24
                },
                {
                    "entropy": 6.73,
                    "md5": "6bf355b763fe3c0d799bf81e810167d9",
                    "name": ".reloc",
                    "raw_size": 96256,
                    "virtual_address": 2265088,
                    "virtual_size": 95992
                },
                {
                    "entropy": 7.79,
                    "md5": "3fd03c222e1708d2af3e93e1e8a770fe",
                    "name": ".rsrc",
                    "raw_size": 2164224,
                    "virtual_address": 2363392,
                    "virtual_size": 2163925
                }
            ],
            "timestamp": 708992537
        },
        "reputation": 0,
        "sha1": "4faf9a89e3fc28da60d6158189bbc43a9d1f8254",
        "sha256": "00018c7e5c3ffca6b2705136063e117505cbc8cb47fe7ddc0bdee649b715dadd",
        "signature_info": {
            "description": "Installer",
            "file version": "1.0.0.0",
            "internal name": "Installer",
            "original name": "Installer",
            "product": "Installer"
        },
        "size": 4474880,
        "ssdeep": "98304:Fb9vAZWAIvR9dJg1r3rmNmWoYSieAkTuiWoYSieAkTup:kZWpE3rmNj3SQ3Se",
        "tags": [
            "peexe",
            "overlay"
        ],
        "times_submitted": 1,
        "total_votes": {
            "harmless": 0,
            "malicious": 0
        },
        "trid": [
            {
                "file_type": "Win32 Executable Delphi generic",
                "probability": 57.2
            },
            {
                "file_type": "Win32 Executable (generic)",
                "probability": 18.2
            },
            {
                "file_type": "Win16/32 Executable Delphi generic",
                "probability": 8.3
            },
            {
                "file_type": "Generic Win/DOS Executable",
                "probability": 8.0
            },
            {
                "file_type": "DOS Executable Generic",
                "probability": 8.0
            }
        ],
        "type_description": "Win32 EXE",
        "type_extension": "exe",
        "type_tag": "peexe",
        "unique_sources": 1,
        "vhash": "0460866d7c0d5c05156570317020056002f1z13z203bz405dz"
    },
    "id": "00018c7e5c3ffca6b2705136063e117505cbc8cb47fe7ddc0bdee649b715dadd",
    "links": {
        "self": "https://www.virustotal.com/api/v3/files/00018c7e5c3ffca6b2705136063e117505cbc8cb47fe7ddc0bdee649b715dadd"
    },
    "type": "file"
}