{
    "attributes": {
        "authentihash": "0e5ad60f889bdc66ba8b9197c1efce220915c8368beae5bc58617803812926fc",
        "creation_date": 1309305934,
        "first_submission_date": 1548032790,
        "last_analysis_date": 1548612393,
        "last_analysis_results": {
            "ALYac": {
                "category": "malicious",
                "engine_name": "ALYac",
                "engine_update": "20190127",
                "engine_version": "1.1.1.5",
                "method": "blacklist",
                "result": "Trojan.GenericKD.40203996"
            },
            "AVG": {
                "category": "malicious",
                "engine_name": "AVG",
                "engine_update": "20190127",
                "engine_version": "18.4.3895.0",
                "method": "blacklist",
                "result": "Win32:Banker-IZK [Trj]"
            },
            "AVware": {
                "category": "malicious",
                "engine_name": "AVware",
                "engine_update": "20180925",
                "engine_version": "1.6.0.52",
                "method": "blacklist",
                "result": "Trojan.Win32.Generic!BT"
            },
            "Acronis": {
                "category": "malicious",
                "engine_name": "Acronis",
                "engine_update": "20190124",
                "engine_version": "1.0.1.37",
                "method": "blacklist",
                "result": "suspicious"
            },
            "Ad-Aware": {
                "category": "malicious",
                "engine_name": "Ad-Aware",
                "engine_update": "20190127",
                "engine_version": "3.0.5.370",
                "method": "blacklist",
                "result": "Trojan.GenericKD.40203996"
            },
            "AegisLab": {
                "category": "undetected",
                "engine_name": "AegisLab",
                "engine_update": "20190127",
                "engine_version": "4.2",
                "method": "blacklist",
                "result": null
            },
            "AhnLab-V3": {
                "category": "undetected",
                "engine_name": "AhnLab-V3",
                "engine_update": "20190127",
                "engine_version": "3.14.1.22785",
                "method": "blacklist",
                "result": null
            },
            "Alibaba": {
                "category": "undetected",
                "engine_name": "Alibaba",
                "engine_update": "20180921",
                "engine_version": "0.1.0.2",
                "method": "blacklist",
                "result": null
            },
            "Antiy-AVL": {
                "category": "malicious",
                "engine_name": "Antiy-AVL",
                "engine_update": "20190127",
                "engine_version": "3.0.0.1",
                "method": "blacklist",
                "result": "Worm/Win32.VBNA"
            },
            "Arcabit": {
                "category": "malicious",
                "engine_name": "Arcabit",
                "engine_update": "20190127",
                "engine_version": "1.0.0.837",
                "method": "blacklist",
                "result": "Trojan.Generic.D26576DC"
            },
            "Avast": {
                "category": "malicious",
                "engine_name": "Avast",
                "engine_update": "20190127",
                "engine_version": "18.4.3895.0",
                "method": "blacklist",
                "result": "Win32:Banker-IZK [Trj]"
            },
            "Avast-Mobile": {
                "category": "undetected",
                "engine_name": "Avast-Mobile",
                "engine_update": "20190127",
                "engine_version": "190127-00",
                "method": "blacklist",
                "result": null
            },
            "Avira": {
                "category": "malicious",
                "engine_name": "Avira",
                "engine_update": "20190127",
                "engine_version": "8.3.3.8",
                "method": "blacklist",
                "result": "WORM/Cambot.K"
            },
            "Babable": {
                "category": "undetected",
                "engine_name": "Babable",
                "engine_update": "20180918",
                "engine_version": "9107201",
                "method": "blacklist",
                "result": null
            },
            "Baidu": {
                "category": "undetected",
                "engine_name": "Baidu",
                "engine_update": "20190125",
                "engine_version": "1.0.0.2",
                "method": "blacklist",
                "result": null
            },
            "BitDefender": {
                "category": "malicious",
                "engine_name": "BitDefender",
                "engine_update": "20190127",
                "engine_version": "7.2",
                "method": "blacklist",
                "result": "Trojan.GenericKD.40203996"
            },
            "Bkav": {
                "category": "malicious",
                "engine_name": "Bkav",
                "engine_update": "20190125",
                "engine_version": "1.3.0.9899",
                "method": "blacklist",
                "result": "W32.OverlayVM.PE"
            },
            "CAT-QuickHeal": {
                "category": "malicious",
                "engine_name": "CAT-QuickHeal",
                "engine_update": "20190127",
                "engine_version": "14.00",
                "method": "blacklist",
                "result": "Worm.Cambot.A3"
            },
            "CMC": {
                "category": "malicious",
                "engine_name": "CMC",
                "engine_update": "20190127",
                "engine_version": "1.1.0.977",
                "method": "blacklist",
                "result": "Worm.Win32.VBNA!O"
            },
            "ClamAV": {
                "category": "malicious",
                "engine_name": "ClamAV",
                "engine_update": "20190127",
                "engine_version": "0.101.1.0",
                "method": "blacklist",
                "result": "Win.Trojan.Blackshades-6327385-1"
            },
            "Comodo": {
                "category": "malicious",
                "engine_name": "Comodo",
                "engine_update": "20190127",
                "engine_version": "30339",
                "method": "blacklist",
                "result": "Packed.Win32.MUPX.Gen@24tbus"
            },
            "CrowdStrike": {
                "category": "malicious",
                "engine_name": "CrowdStrike",
                "engine_update": "20181023",
                "engine_version": "1.0",
                "method": "blacklist",
                "result": "malicious_confidence_100% (W)"
            },
            "Cybereason": {
                "category": "malicious",
                "engine_name": "Cybereason",
                "engine_update": "20190109",
                "engine_version": "1.2.27",
                "method": "blacklist",
                "result": "malicious.b4e559"
            },
            "Cyren": {
                "category": "malicious",
                "engine_name": "Cyren",
                "engine_update": "20190127",
                "engine_version": "6.2.0.1",
                "method": "blacklist",
                "result": "W32/VBInject.AM.gen!Eldorado"
            },
            "DrWeb": {
                "category": "malicious",
                "engine_name": "DrWeb",
                "engine_update": "20190127",
                "engine_version": "7.0.34.11020",
                "method": "blacklist",
                "result": "BackDoor.BotSiggen.51"
            },
            "ESET-NOD32": {
                "category": "malicious",
                "engine_name": "ESET-NOD32",
                "engine_update": "20190127",
                "engine_version": "18776",
                "method": "blacklist",
                "result": "Win32/Spy.VB.NNI"
            },
            "Emsisoft": {
                "category": "malicious",
                "engine_name": "Emsisoft",
                "engine_update": "20190127",
                "engine_version": "2018.4.0.1029",
                "method": "blacklist",
                "result": "Trojan.GenericKD.40203996 (B)"
            },
            "Endgame": {
                "category": "type-unsupported",
                "engine_name": "Endgame",
                "engine_update": "20181108",
                "engine_version": "3.0.2",
                "method": "blacklist",
                "result": null
            },
            "F-Prot": {
                "category": "malicious",
                "engine_name": "F-Prot",
                "engine_update": "20190127",
                "engine_version": "4.7.1.166",
                "method": "blacklist",
                "result": "W32/VBInject.AM.gen!Eldorado"
            },
            "F-Secure": {
                "category": "malicious",
                "engine_name": "F-Secure",
                "engine_update": "20190127",
                "engine_version": "11.0.19100.45",
                "method": "blacklist",
                "result": "Trojan.GenericKD.40203996"
            },
            "Fortinet": {
                "category": "malicious",
                "engine_name": "Fortinet",
                "engine_update": "20190127",
                "engine_version": "5.4.247.0",
                "method": "blacklist",
                "result": "W32/BotSiggen.AQO!tr"
            },
            "GData": {
                "category": "malicious",
                "engine_name": "GData",
                "engine_update": "20190127",
                "engine_version": "A:25.20356B:25.14242",
                "method": "blacklist",
                "result": "Win32.Backdoor.Ainslot.C"
            },
            "Ikarus": {
                "category": "malicious",
                "engine_name": "Ikarus",
                "engine_update": "20190127",
                "engine_version": "0.1.5.2",
                "method": "blacklist",
                "result": "P2P-Worm.Win32.BlackControl"
            },
            "Invincea": {
                "category": "malicious",
                "engine_name": "Invincea",
                "engine_update": "20181128",
                "engine_version": "6.3.6.26157",
                "method": "blacklist",
                "result": "heuristic"
            },
            "Jiangmin": {
                "category": "malicious",
                "engine_name": "Jiangmin",
                "engine_update": "20190127",
                "engine_version": "16.0.100",
                "method": "blacklist",
                "result": "Worm/VBNA.hbyc"
            },
            "K7AntiVirus": {
                "category": "malicious",
                "engine_name": "K7AntiVirus",
                "engine_update": "20190127",
                "engine_version": "11.24.29798",
                "method": "blacklist",
                "result": "Trojan ( 004bcce41 )"
            },
            "K7GW": {
                "category": "malicious",
                "engine_name": "K7GW",
                "engine_update": "20190127",
                "engine_version": "11.24.29798",
                "method": "blacklist",
                "result": "Trojan ( 004bcce41 )"
            },
            "Kaspersky": {
                "category": "malicious",
                "engine_name": "Kaspersky",
                "engine_update": "20190127",
                "engine_version": "15.0.1.13",
                "method": "blacklist",
                "result": "Trojan.Win32.Llac.llzl"
            },
            "Kingsoft": {
                "category": "undetected",
                "engine_name": "Kingsoft",
                "engine_update": "20190127",
                "engine_version": "2013.8.14.323",
                "method": "blacklist",
                "result": null
            },
            "MAX": {
                "category": "malicious",
                "engine_name": "MAX",
                "engine_update": "20190127",
                "engine_version": "2018.9.12.1",
                "method": "blacklist",
                "result": "malware (ai score=85)"
            },
            "Malwarebytes": {
                "category": "malicious",
                "engine_name": "Malwarebytes",
                "engine_update": "20190127",
                "engine_version": "2.1.1.1115",
                "method": "blacklist",
                "result": "Trojan.BlackShades"
            },
            "McAfee": {
                "category": "malicious",
                "engine_name": "McAfee",
                "engine_update": "20190127",
                "engine_version": "6.0.6.653",
                "method": "blacklist",
                "result": "W32/Generic.worm!p2p"
            },
            "McAfee-GW-Edition": {
                "category": "malicious",
                "engine_name": "McAfee-GW-Edition",
                "engine_update": "20190127",
                "engine_version": "v2017.3010",
                "method": "blacklist",
                "result": "BehavesLike.Win32.VBObfus.dh"
            },
            "MicroWorld-eScan": {
                "category": "malicious",
                "engine_name": "MicroWorld-eScan",
                "engine_update": "20190127",
                "engine_version": "14.0.297.0",
                "method": "blacklist",
                "result": "Trojan.GenericKD.40203996"
            },
            "Microsoft": {
                "category": "malicious",
                "engine_name": "Microsoft",
                "engine_update": "20190127",
                "engine_version": "1.1.15600.4",
                "method": "blacklist",
                "result": "Worm:Win32/Cambot!rfn"
            },
            "NANO-Antivirus": {
                "category": "malicious",
                "engine_name": "NANO-Antivirus",
                "engine_update": "20190127",
                "engine_version": "1.0.134.24576",
                "method": "blacklist",
                "result": "Trojan.Win32.VB.eccndn"
            },
            "Paloalto": {
                "category": "malicious",
                "engine_name": "Paloalto",
                "engine_update": "20190127",
                "engine_version": "1.0",
                "method": "blacklist",
                "result": "generic.ml"
            },
            "Panda": {
                "category": "undetected",
                "engine_name": "Panda",
                "engine_update": "20190127",
                "engine_version": "4.6.4.2",
                "method": "blacklist",
                "result": null
            },
            "Qihoo-360": {
                "category": "malicious",
                "engine_name": "Qihoo-360",
                "engine_update": "20190127",
                "engine_version": "1.0.0.1120",
                "method": "blacklist",
                "result": "Win32/Trojan.VBNA.A"
            },
            "Rising": {
                "category": "undetected",
                "engine_name": "Rising",
                "engine_update": "20190127",
                "engine_version": "25.0.0.24",
                "method": "blacklist",
                "result": null
            },
            "SUPERAntiSpyware": {
                "category": "undetected",
                "engine_name": "SUPERAntiSpyware",
                "engine_update": "20190123",
                "engine_version": "5.6.0.1032",
                "method": "blacklist",
                "result": null
            },
            "SentinelOne": {
                "category": "malicious",
                "engine_name": "SentinelOne",
                "engine_update": "20190124",
                "engine_version": "1.0.21.269",
                "method": "blacklist",
                "result": "static engine - malicious"
            },
            "Sophos": {
                "category": "malicious",
                "engine_name": "Sophos",
                "engine_update": "20190127",
                "engine_version": "4.98.0",
                "method": "blacklist",
                "result": "Mal/VB-AQO"
            },
            "Symantec": {
                "category": "malicious",
                "engine_name": "Symantec",
                "engine_update": "20190126",
                "engine_version": "1.8.0.0",
                "method": "blacklist",
                "result": "W32.Cambot"
            },
            "TACHYON": {
                "category": "undetected",
                "engine_name": "TACHYON",
                "engine_update": "20190127",
                "engine_version": "2019-01-27.02",
                "method": "blacklist",
                "result": null
            },
            "Tencent": {
                "category": "malicious",
                "engine_name": "Tencent",
                "engine_update": "20190127",
                "engine_version": "1.0.0.1",
                "method": "blacklist",
                "result": "Win32.Trojan.Llac.Apwp"
            },
            "TheHacker": {
                "category": "malicious",
                "engine_name": "TheHacker",
                "engine_update": "20190125",
                "engine_version": "6.8.0.5.3981",
                "method": "blacklist",
                "result": "Trojan/Spy.VB.nni"
            },
            "TotalDefense": {
                "category": "malicious",
                "engine_name": "TotalDefense",
                "engine_update": "20190127",
                "engine_version": "37.1.62.1",
                "method": "blacklist",
                "result": "Win32/BsBot!generic"
            },
            "Trapmine": {
                "category": "malicious",
                "engine_name": "Trapmine",
                "engine_update": "20190123",
                "engine_version": "3.1.40.719",
                "method": "blacklist",
                "result": "malicious.high.ml.score"
            },
            "TrendMicro": {
                "category": "malicious",
                "engine_name": "TrendMicro",
                "engine_update": "20190127",
                "engine_version": "10.0.0.1040",
                "method": "blacklist",
                "result": "TSPY_VB_GA250A05.UVPM"
            },
            "TrendMicro-HouseCall": {
                "category": "malicious",
                "engine_name": "TrendMicro-HouseCall",
                "engine_update": "20190127",
                "engine_version": "10.0.0.1040",
                "method": "blacklist",
                "result": "TSPY_VB_GA250A05.UVPM"
            },
            "Trustlook": {
                "category": "undetected",
                "engine_name": "Trustlook",
                "engine_update": "20190127",
                "engine_version": "1.0",
                "method": "blacklist",
                "result": null
            },
            "VBA32": {
                "category": "malicious",
                "engine_name": "VBA32",
                "engine_update": "20190125",
                "engine_version": "3.35.1",
                "method": "blacklist",
                "result": "Worm.VB.BlackControl"
            },
            "ViRobot": {
                "category": "malicious",
                "engine_name": "ViRobot",
                "engine_update": "20190127",
                "engine_version": "2014.3.20.0",
                "method": "blacklist",
                "result": "Worm.Win32.A.VBNA.218120"
            },
            "Webroot": {
                "category": "malicious",
                "engine_name": "Webroot",
                "engine_update": "20190127",
                "engine_version": "1.0.0.403",
                "method": "blacklist",
                "result": "W32.Trojan.Gen"
            },
            "Yandex": {
                "category": "undetected",
                "engine_name": "Yandex",
                "engine_update": "20190125",
                "engine_version": "5.5.1.3",
                "method": "blacklist",
                "result": null
            },
            "Zillya": {
                "category": "malicious",
                "engine_name": "Zillya",
                "engine_update": "20190125",
                "engine_version": "2.0.0.3739",
                "method": "blacklist",
                "result": "Worm.VBNA.Win32.107271"
            },
            "ZoneAlarm": {
                "category": "malicious",
                "engine_name": "ZoneAlarm",
                "engine_update": "20190127",
                "engine_version": "1.0",
                "method": "blacklist",
                "result": "Trojan.Win32.Llac.llzl"
            },
            "Zoner": {
                "category": "malicious",
                "engine_name": "Zoner",
                "engine_update": "20190125",
                "engine_version": "1.0",
                "method": "blacklist",
                "result": "Trojan.Win32.71058"
            },
            "eGambit": {
                "category": "malicious",
                "engine_name": "eGambit",
                "engine_update": "20190127",
                "engine_version": "v4.3.5",
                "method": "blacklist",
                "result": "Unsafe.AI_Score_98%"
            }
        },
        "last_analysis_stats": {
            "confirmed-timeout": 0,
            "failure": 0,
            "harmless": 0,
            "malicious": 56,
            "suspicious": 0,
            "timeout": 0,
            "type-unsupported": 1,
            "undetected": 13
        },
        "last_modification_date": 1548612508,
        "last_submission_date": 1548032790,
        "magic": "PE32 executable for MS Windows (GUI) Intel 80386 32-bit",
        "md5": "efd7f3bb4e559724ca3eb045acbd7acb",
        "meaningful_name": "efd7f3bb4e559724ca3eb045acbd7acb.vir",
        "names": [
            "efd7f3bb4e559724ca3eb045acbd7acb.vir"
        ],
        "pe_info": {
            "entry_point": 4724,
            "imphash": "3e8ae3bc85823ef9afa9731fe8e9fda0",
            "import_list": [
                {
                    "imported_functions": [
                        "Ord(610)",
                        "EVENT_SINK_QueryInterface",
                        "Ord(712)",
                        "Ord(518)",
                        "Ord(537)",
                        "Ord(648)",
                        "Ord(516)",
                        "EVENT_SINK_Invoke",
                        "Ord(320)",
                        "Ord(558)",
                        "EVENT_SINK_AddRef",
                        "Ord(710)",
                        "Ord(525)",
                        "Ord(594)",
                        "Ord(681)",
                        "Ord(576)",
                        "Ord(665)",
                        "EVENT_SINK_GetIDsOfNames",
                        "Ord(717)",
                        "Ord(666)",
                        "Ord(307)",
                        "Ord(632)",
                        "MethCallEngine",
                        "DllFunctionCall",
                        "Zombie_GetTypeInfoCount",
                        "Ord(626)",
                        "Ord(578)",
                        "Ord(618)",
                        "Ord(100)",
                        "Zombie_GetTypeInfo",
                        "Ord(599)",
                        "Ord(608)",
                        "Ord(570)",
                        "Ord(301)",
                        "Ord(519)",
                        "Ord(536)",
                        "Ord(571)",
                        "Ord(526)",
                        "Ord(321)",
                        "Ord(319)",
                        "ProcCallEngine",
                        "Ord(711)",
                        "Ord(660)",
                        "Ord(612)",
                        "EVENT_SINK_Release",
                        "Ord(616)",
                        "Ord(600)",
                        "Ord(617)",
                        "Ord(573)",
                        "Ord(569)",
                        "Ord(593)",
                        "Ord(581)",
                        "Ord(528)",
                        "Ord(529)",
                        "Ord(572)",
                        "Ord(716)",
                        "__vbaExceptHandler",
                        "Ord(607)",
                        "Ord(644)",
                        "Ord(631)",
                        "Ord(579)",
                        "Ord(598)"
                    ],
                    "library_name": "MSVBVM60.DLL"
                }
            ],
            "machine_type": 332,
            "overlay": {
                "chi2": 49232.0,
                "entropy": 5.165561199188232,
                "filetype": "ASCII text",
                "md5": "bcd87d51cfb9c07637467bd009ef73cb",
                "offset": 218112,
                "size": 8000
            },
            "sections": [
                {
                    "entropy": 6.8,
                    "md5": "effa6aeaa48b968ccf3625d367abf428",
                    "name": "UPX0",
                    "raw_size": 131072,
                    "virtual_address": 4096,
                    "virtual_size": 131072
                },
                {
                    "entropy": 4.75,
                    "md5": "f417f2ee9a78c2cc4051b17a76acfe92",
                    "name": "UPX1",
                    "raw_size": 84992,
                    "virtual_address": 135168,
                    "virtual_size": 86016
                },
                {
                    "entropy": 1.26,
                    "md5": "186081b5271815f59d2c2c5278284482",
                    "name": "UPX2",
                    "raw_size": 1024,
                    "virtual_address": 221184,
                    "virtual_size": 4096
                }
            ],
            "timestamp": 1309305934
        },
        "reputation": 0,
        "sha1": "8cfccda447d350ea56a71921b16aafc37743d1c7",
        "sha256": "0001d86c928cb20683ec48ba42a44e876f1fc2a1d5325c04d4310d216bd48194",
        "size": 226112,
        "ssdeep": "3072:vHjk+0oLnWFnzBHv/xWFsg8WatFBGFVWPE5ac0pG/1z+QVMbg1jm0+J2C:Po/BHng5HaVG4G/1z+QVMbg1jv+MC",
        "tags": [
            "peexe",
            "overlay"
        ],
        "times_submitted": 1,
        "total_votes": {
            "harmless": 0,
            "malicious": 0
        },
        "trid": [
            {
                "file_type": "Win32 Executable Microsoft Visual Basic 6",
                "probability": 47.2
            },
            {
                "file_type": "Win64 Executable (generic)",
                "probability": 15.8
            },
            {
                "file_type": "UPX compressed Win32 Executable",
                "probability": 15.5
            },
            {
                "file_type": "Win32 EXE Yoda's Crypter",
                "probability": 15.2
            },
            {
                "file_type": "Win32 Executable (generic)",
                "probability": 2.5
            }
        ],
        "type_description": "Win32 EXE",
        "type_extension": "exe",
        "type_tag": "peexe",
        "unique_sources": 1,
        "vhash": "02503e6f5d1)z3e3z"
    },
    "id": "0001d86c928cb20683ec48ba42a44e876f1fc2a1d5325c04d4310d216bd48194",
    "links": {
        "self": "https://www.virustotal.com/api/v3/files/0001d86c928cb20683ec48ba42a44e876f1fc2a1d5325c04d4310d216bd48194"
    },
    "type": "file"
}