{
    "attributes": {
        "authentihash": "f3b557e231e5876e347c6315f77a3c9324d84ac87e3c44b9d752854adc2740fc",
        "creation_date": 1502128002,
        "first_submission_date": 1502214564,
        "last_analysis_date": 1504582843,
        "last_analysis_results": {
            "ALYac": {
                "category": "malicious",
                "engine_name": "ALYac",
                "engine_update": "20170905",
                "engine_version": "1.1.1.2",
                "method": "blacklist",
                "result": "Win32.Virlock.Gen.8"
            },
            "AVG": {
                "category": "malicious",
                "engine_name": "AVG",
                "engine_update": "20170905",
                "engine_version": "17.6.3625.0",
                "method": "blacklist",
                "result": "Win32:Cryptor"
            },
            "AVware": {
                "category": "malicious",
                "engine_name": "AVware",
                "engine_update": "20170905",
                "engine_version": "1.5.0.42",
                "method": "blacklist",
                "result": "Virus.Win32.Nabucur.c (v)"
            },
            "Ad-Aware": {
                "category": "malicious",
                "engine_name": "Ad-Aware",
                "engine_update": "20170905",
                "engine_version": "3.0.3.1010",
                "method": "blacklist",
                "result": "Win32.Virlock.Gen.8"
            },
            "AegisLab": {
                "category": "malicious",
                "engine_name": "AegisLab",
                "engine_update": "20170905",
                "engine_version": "4.2",
                "method": "blacklist",
                "result": "Virus.W32.Gen!c"
            },
            "AhnLab-V3": {
                "category": "malicious",
                "engine_name": "AhnLab-V3",
                "engine_update": "20170904",
                "engine_version": "3.10.0.18405",
                "method": "blacklist",
                "result": "Win32/Nabucur.D"
            },
            "Alibaba": {
                "category": "type-unsupported",
                "engine_name": "Alibaba",
                "engine_update": "20170905",
                "engine_version": "1.0",
                "method": "blacklist",
                "result": null
            },
            "Antiy-AVL": {
                "category": "malicious",
                "engine_name": "Antiy-AVL",
                "engine_update": "20170905",
                "engine_version": "3.0.0.1",
                "method": "blacklist",
                "result": "Virus/Win32.Virlock.j"
            },
            "Arcabit": {
                "category": "malicious",
                "engine_name": "Arcabit",
                "engine_update": "20170905",
                "engine_version": "1.0.0.817",
                "method": "blacklist",
                "result": "Win32.Virlock.Gen.8"
            },
            "Avast": {
                "category": "malicious",
                "engine_name": "Avast",
                "engine_update": "20170905",
                "engine_version": "17.6.3625.0",
                "method": "blacklist",
                "result": "Win32:Cryptor"
            },
            "Avira": {
                "category": "malicious",
                "engine_name": "Avira",
                "engine_update": "20170904",
                "engine_version": "8.3.3.4",
                "method": "blacklist",
                "result": "TR/Crypt.XPACK.Gen"
            },
            "Baidu": {
                "category": "malicious",
                "engine_name": "Baidu",
                "engine_update": "20170831",
                "engine_version": "1.0.0.2",
                "method": "blacklist",
                "result": "Win32.Virus.Virlock.e"
            },
            "BitDefender": {
                "category": "malicious",
                "engine_name": "BitDefender",
                "engine_update": "20170905",
                "engine_version": "7.2",
                "method": "blacklist",
                "result": "Win32.Virlock.Gen.8"
            },
            "Bkav": {
                "category": "malicious",
                "engine_name": "Bkav",
                "engine_update": "20170901",
                "engine_version": "1.3.0.9330",
                "method": "blacklist",
                "result": "W32.FamVT.Virlock"
            },
            "CAT-QuickHeal": {
                "category": "malicious",
                "engine_name": "CAT-QuickHeal",
                "engine_update": "20170904",
                "engine_version": "14.00",
                "method": "blacklist",
                "result": "Ransom.PolyRansom.F3"
            },
            "CMC": {
                "category": "undetected",
                "engine_name": "CMC",
                "engine_update": "20170902",
                "engine_version": "1.1.0.977",
                "method": "blacklist",
                "result": null
            },
            "ClamAV": {
                "category": "malicious",
                "engine_name": "ClamAV",
                "engine_update": "20170905",
                "engine_version": "0.99.2.0",
                "method": "blacklist",
                "result": "Win.Virus.PolyRansom-5704625-0"
            },
            "Comodo": {
                "category": "malicious",
                "engine_name": "Comodo",
                "engine_update": "20170904",
                "engine_version": "27710",
                "method": "blacklist",
                "result": "Virus.Win32.Virlock.cs"
            },
            "CrowdStrike": {
                "category": "malicious",
                "engine_name": "CrowdStrike",
                "engine_update": "20170804",
                "engine_version": "1.0",
                "method": "blacklist",
                "result": "malicious_confidence_100% (W)"
            },
            "Cylance": {
                "category": "malicious",
                "engine_name": "Cylance",
                "engine_update": "20170905",
                "engine_version": "2.3.1.101",
                "method": "blacklist",
                "result": "Unsafe"
            },
            "Cyren": {
                "category": "malicious",
                "engine_name": "Cyren",
                "engine_update": "20170905",
                "engine_version": "5.4.30.7",
                "method": "blacklist",
                "result": "W32/Nabucur.C.gen!Eldorado"
            },
            "DrWeb": {
                "category": "malicious",
                "engine_name": "DrWeb",
                "engine_update": "20170905",
                "engine_version": "7.0.28.2020",
                "method": "blacklist",
                "result": "Win32.VirLock.16"
            },
            "ESET-NOD32": {
                "category": "malicious",
                "engine_name": "ESET-NOD32",
                "engine_update": "20170905",
                "engine_version": "16029",
                "method": "blacklist",
                "result": "a variant of Win32/Virlock.J"
            },
            "Emsisoft": {
                "category": "malicious",
                "engine_name": "Emsisoft",
                "engine_update": "20170905",
                "engine_version": "4.0.1.883",
                "method": "blacklist",
                "result": "Win32.Virlock.Gen.8 (B)"
            },
            "Endgame": {
                "category": "malicious",
                "engine_name": "Endgame",
                "engine_update": "20170821",
                "engine_version": "1.0.1",
                "method": "blacklist",
                "result": "malicious (high confidence)"
            },
            "F-Prot": {
                "category": "malicious",
                "engine_name": "F-Prot",
                "engine_update": "20170905",
                "engine_version": "4.7.1.166",
                "method": "blacklist",
                "result": "W32/Nabucur.C.gen!Eldorado"
            },
            "F-Secure": {
                "category": "malicious",
                "engine_name": "F-Secure",
                "engine_update": "20170905",
                "engine_version": "11.0.19100.45",
                "method": "blacklist",
                "result": "Win32.Virlock.Gen.8"
            },
            "Fortinet": {
                "category": "malicious",
                "engine_name": "Fortinet",
                "engine_update": "20170905",
                "engine_version": "5.4.247.0",
                "method": "blacklist",
                "result": "W32/Virlock.J"
            },
            "GData": {
                "category": "malicious",
                "engine_name": "GData",
                "engine_update": "20170905",
                "engine_version": "A:25.14079B:25.10361",
                "method": "blacklist",
                "result": "Win32.Virus.Virlock.B"
            },
            "Ikarus": {
                "category": "malicious",
                "engine_name": "Ikarus",
                "engine_update": "20170904",
                "engine_version": "0.1.5.2",
                "method": "blacklist",
                "result": "Virus.Win32.Virlock"
            },
            "Invincea": {
                "category": "malicious",
                "engine_name": "Invincea",
                "engine_update": "20170822",
                "engine_version": "6.3.1.25473",
                "method": "blacklist",
                "result": "heuristic"
            },
            "Jiangmin": {
                "category": "undetected",
                "engine_name": "Jiangmin",
                "engine_update": "20170905",
                "engine_version": "16.0.100",
                "method": "blacklist",
                "result": null
            },
            "K7AntiVirus": {
                "category": "malicious",
                "engine_name": "K7AntiVirus",
                "engine_update": "20170904",
                "engine_version": "10.23.24512",
                "method": "blacklist",
                "result": "Trojan ( 004d48ee1 )"
            },
            "K7GW": {
                "category": "malicious",
                "engine_name": "K7GW",
                "engine_update": "20170905",
                "engine_version": "10.23.24512",
                "method": "blacklist",
                "result": "Trojan ( 004d48ee1 )"
            },
            "Kaspersky": {
                "category": "malicious",
                "engine_name": "Kaspersky",
                "engine_update": "20170905",
                "engine_version": "15.0.1.13",
                "method": "blacklist",
                "result": "Virus.Win32.PolyRansom.k"
            },
            "Kingsoft": {
                "category": "undetected",
                "engine_name": "Kingsoft",
                "engine_update": "20170905",
                "engine_version": "2013.8.14.323",
                "method": "blacklist",
                "result": null
            },
            "MAX": {
                "category": "malicious",
                "engine_name": "MAX",
                "engine_update": "20170905",
                "engine_version": "2017.6.26.1",
                "method": "blacklist",
                "result": "malware (ai score=100)"
            },
            "McAfee": {
                "category": "malicious",
                "engine_name": "McAfee",
                "engine_update": "20170905",
                "engine_version": "6.0.6.653",
                "method": "blacklist",
                "result": "Trojan-FNET!AE796971A87D"
            },
            "McAfee-GW-Edition": {
                "category": "malicious",
                "engine_name": "McAfee-GW-Edition",
                "engine_update": "20170904",
                "engine_version": "v2015",
                "method": "blacklist",
                "result": "BehavesLike.Win32.VirRansom.vh"
            },
            "MicroWorld-eScan": {
                "category": "malicious",
                "engine_name": "MicroWorld-eScan",
                "engine_update": "20170904",
                "engine_version": "12.0.250.0",
                "method": "blacklist",
                "result": "Win32.Virlock.Gen.8"
            },
            "Microsoft": {
                "category": "malicious",
                "engine_name": "Microsoft",
                "engine_update": "20170905",
                "engine_version": "1.1.14104.0",
                "method": "blacklist",
                "result": "Virus:Win32/Nabucur.D"
            },
            "NANO-Antivirus": {
                "category": "malicious",
                "engine_name": "NANO-Antivirus",
                "engine_update": "20170905",
                "engine_version": "1.0.98.18944",
                "method": "blacklist",
                "result": "Virus.Win32.Virlock.ejooci"
            },
            "Paloalto": {
                "category": "malicious",
                "engine_name": "Paloalto",
                "engine_update": "20170905",
                "engine_version": "1.0",
                "method": "blacklist",
                "result": "generic.ml"
            },
            "Panda": {
                "category": "malicious",
                "engine_name": "Panda",
                "engine_update": "20170904",
                "engine_version": "4.6.4.2",
                "method": "blacklist",
                "result": "Trj/Genetic.gen"
            },
            "Qihoo-360": {
                "category": "malicious",
                "engine_name": "Qihoo-360",
                "engine_update": "20170905",
                "engine_version": "1.0.0.1120",
                "method": "blacklist",
                "result": "Win32/Virus.VirLock.H"
            },
            "Rising": {
                "category": "malicious",
                "engine_name": "Rising",
                "engine_update": "20170901",
                "engine_version": "25.0.0.1",
                "method": "blacklist",
                "result": "Virus.VirLock@EP!1.A247 (classic)"
            },
            "SUPERAntiSpyware": {
                "category": "undetected",
                "engine_name": "SUPERAntiSpyware",
                "engine_update": "20170904",
                "engine_version": "5.6.0.1032",
                "method": "blacklist",
                "result": null
            },
            "SentinelOne": {
                "category": "malicious",
                "engine_name": "SentinelOne",
                "engine_update": "20170806",
                "engine_version": "1.0.2.235",
                "method": "blacklist",
                "result": "static engine - malicious"
            },
            "Sophos": {
                "category": "malicious",
                "engine_name": "Sophos",
                "engine_update": "20170905",
                "engine_version": "4.98.0",
                "method": "blacklist",
                "result": "W32/VirRnsm-F"
            },
            "Symantec": {
                "category": "malicious",
                "engine_name": "Symantec",
                "engine_update": "20170904",
                "engine_version": "1.4.0.0",
                "method": "blacklist",
                "result": "W32.Virlock!inf7"
            },
            "SymantecMobileInsight": {
                "category": "type-unsupported",
                "engine_name": "SymantecMobileInsight",
                "engine_update": "20170901",
                "engine_version": "1.0.0.35_220",
                "method": "blacklist",
                "result": null
            },
            "Tencent": {
                "category": "malicious",
                "engine_name": "Tencent",
                "engine_update": "20170905",
                "engine_version": "1.0.0.1",
                "method": "blacklist",
                "result": "Virus.Win32.VirLocker.a"
            },
            "TheHacker": {
                "category": "undetected",
                "engine_name": "TheHacker",
                "engine_update": "20170904",
                "engine_version": "6.8.0.5.1889",
                "method": "blacklist",
                "result": null
            },
            "TotalDefense": {
                "category": "undetected",
                "engine_name": "TotalDefense",
                "engine_update": "20170904",
                "engine_version": "37.1.62.1",
                "method": "blacklist",
                "result": null
            },
            "TrendMicro": {
                "category": "malicious",
                "engine_name": "TrendMicro",
                "engine_update": "20170905",
                "engine_version": "9.862.0.1074",
                "method": "blacklist",
                "result": "PE_VIRLOCK.K"
            },
            "TrendMicro-HouseCall": {
                "category": "malicious",
                "engine_name": "TrendMicro-HouseCall",
                "engine_update": "20170905",
                "engine_version": "9.950.0.1006",
                "method": "blacklist",
                "result": "PE_VIRLOCK.K"
            },
            "Trustlook": {
                "category": "type-unsupported",
                "engine_name": "Trustlook",
                "engine_update": "20170905",
                "engine_version": "2",
                "method": "blacklist",
                "result": null
            },
            "VBA32": {
                "category": "malicious",
                "engine_name": "VBA32",
                "engine_update": "20170904",
                "engine_version": "3.12.26.4",
                "method": "blacklist",
                "result": "Virus.PolyRansom.k"
            },
            "VIPRE": {
                "category": "malicious",
                "engine_name": "VIPRE",
                "engine_update": "20170905",
                "engine_version": "60804",
                "method": "blacklist",
                "result": "Virus.Win32.Nabucur.c (v)"
            },
            "ViRobot": {
                "category": "malicious",
                "engine_name": "ViRobot",
                "engine_update": "20170905",
                "engine_version": "2014.3.20.0",
                "method": "blacklist",
                "result": "Trojan.Win32.Virlock.Gen.A"
            },
            "Webroot": {
                "category": "malicious",
                "engine_name": "Webroot",
                "engine_update": "20170905",
                "engine_version": "1.0.0.207",
                "method": "blacklist",
                "result": "W32.Malware.gen"
            },
            "WhiteArmor": {
                "category": "malicious",
                "engine_name": "WhiteArmor",
                "engine_update": "20170829",
                "engine_version": null,
                "method": "blacklist",
                "result": "Malware.HighConfidence"
            },
            "Yandex": {
                "category": "undetected",
                "engine_name": "Yandex",
                "engine_update": "20170904",
                "engine_version": "5.5.1.3",
                "method": "blacklist",
                "result": null
            },
            "Zillya": {
                "category": "malicious",
                "engine_name": "Zillya",
                "engine_update": "20170902",
                "engine_version": "2.0.0.3376",
                "method": "blacklist",
                "result": "Virus.Virlock.Win32.6"
            },
            "ZoneAlarm": {
                "category": "malicious",
                "engine_name": "ZoneAlarm",
                "engine_update": "20170905",
                "engine_version": "1.0",
                "method": "blacklist",
                "result": "Virus.Win32.PolyRansom.k"
            },
            "Zoner": {
                "category": "undetected",
                "engine_name": "Zoner",
                "engine_update": "20170905",
                "engine_version": "1.0",
                "method": "blacklist",
                "result": null
            },
            "nProtect": {
                "category": "undetected",
                "engine_name": "nProtect",
                "engine_update": "20170905",
                "engine_version": "2017-09-05.01",
                "method": "blacklist",
                "result": null
            }
        },
        "last_analysis_stats": {
            "confirmed-timeout": 0,
            "failure": 0,
            "harmless": 0,
            "malicious": 55,
            "suspicious": 0,
            "timeout": 0,
            "type-unsupported": 3,
            "undetected": 9
        },
        "last_modification_date": 1504582963,
        "last_submission_date": 1504582843,
        "magic": "PE32 executable for MS Windows (GUI) Intel 80386 32-bit",
        "md5": "ae796971a87dab38a34591eec9e3b86e",
        "names": [
            "ae796971a87dab38a34591eec9e3b86e"
        ],
        "pe_info": {
            "entry_point": 4096,
            "imphash": "0929976c70009a2b58972fe3d5bcfbe6",
            "import_list": [
                {
                    "imported_functions": [
                        "VirtualAlloc",
                        "GetProcessHeap"
                    ],
                    "library_name": "kernel32.dll"
                },
                {
                    "imported_functions": [
                        "GetMessageExtraInfo",
                        "GetDialogBaseUnits"
                    ],
                    "library_name": "user32.dll"
                }
            ],
            "machine_type": 332,
            "resource_details": [
                {
                    "filetype": "data",
                    "lang": "ENGLISH US",
                    "sha256": "57254eb07f471b8c94362ad86a877682e4adb3d3751257190fc56e1a960c1970",
                    "type": "RT_ICON"
                },
                {
                    "filetype": "data",
                    "lang": "ENGLISH US",
                    "sha256": "bd7b891000b776021bd2d3790a165561c6134cea734f0d70a52a9b9c0b363321",
                    "type": "RT_GROUP_ICON"
                }
            ],
            "resource_langs": {
                "ENGLISH US": 2
            },
            "resource_types": {
                "RT_GROUP_ICON": 1,
                "RT_ICON": 1
            },
            "sections": [
                {
                    "entropy": 7.09,
                    "md5": "a892b1a425f667459db6309abcd92635",
                    "name": ".text",
                    "raw_size": 692224,
                    "virtual_address": 4096,
                    "virtual_size": 692224
                },
                {
                    "entropy": 0.23,
                    "md5": "f51e79f4b2ac9bfbe7b88642373c5f05",
                    "name": ".rdata",
                    "raw_size": 10240,
                    "virtual_address": 696320,
                    "virtual_size": 8192
                },
                {
                    "entropy": 5.74,
                    "md5": "bd7ef1c0864b280cc64564bf29e1e78d",
                    "name": ".data",
                    "raw_size": 1413120,
                    "virtual_address": 704512,
                    "virtual_size": 1413120
                },
                {
                    "entropy": 4.89,
                    "md5": "425de9a83616a17b35b469ba2a0027b8",
                    "name": ".rsrc",
                    "raw_size": 4608,
                    "virtual_address": 2117632,
                    "virtual_size": 4608
                }
            ],
            "timestamp": 1502128002
        },
        "reputation": 0,
        "sha1": "97a498b9bf30e7fa10e1e8c0b38a358fa2d7be48",
        "sha256": "0001e9e43a782df68ce09f1a0d69990d3351930dbd86d10b1bec1cdbf64fc024",
        "size": 2121728,
        "ssdeep": "24576:9e+O+9ndK5ldgiR3YumQ77nFdP6/hODP3YpgVME28sX5uTvq9uUs3W1SJnL9GASg:4odK2imanFlChODY5XFrpCi0bm",
        "tags": [
            "peexe"
        ],
        "times_submitted": 48,
        "total_votes": {
            "harmless": 0,
            "malicious": 0
        },
        "trid": [
            {
                "file_type": "Win32 Dynamic Link Library (generic)",
                "probability": 43.5
            },
            {
                "file_type": "Win32 Executable (generic)",
                "probability": 29.8
            },
            {
                "file_type": "Generic Win/DOS Executable",
                "probability": 13.2
            },
            {
                "file_type": "DOS Executable Generic",
                "probability": 13.2
            }
        ],
        "type_description": "Win32 EXE",
        "type_extension": "exe",
        "type_tag": "peexe",
        "unique_sources": 2,
        "vhash": "026046751d5c5bz2nz2fz"
    },
    "id": "0001e9e43a782df68ce09f1a0d69990d3351930dbd86d10b1bec1cdbf64fc024",
    "links": {
        "self": "https://www.virustotal.com/api/v3/files/0001e9e43a782df68ce09f1a0d69990d3351930dbd86d10b1bec1cdbf64fc024"
    },
    "type": "file"
}