{
    "attributes": {
        "authentihash": "1f2524edb13013f20df430a2e2e4195aa13465390f0d28103a5d7292b13219cf",
        "creation_date": 1542344584,
        "first_submission_date": 1550354246,
        "last_analysis_date": 1550540232,
        "last_analysis_results": {
            "AVG": {
                "category": "malicious",
                "engine_name": "AVG",
                "engine_update": "20190219",
                "engine_version": "18.4.3895.0",
                "method": "blacklist",
                "result": "FileRepMalware [PUP]"
            },
            "Acronis": {
                "category": "undetected",
                "engine_name": "Acronis",
                "engine_update": "20190213",
                "engine_version": "1.0.1.40",
                "method": "blacklist",
                "result": null
            },
            "Ad-Aware": {
                "category": "malicious",
                "engine_name": "Ad-Aware",
                "engine_update": "20190219",
                "engine_version": "3.0.5.370",
                "method": "blacklist",
                "result": "Gen:Variant.Application.Bundler.DownloadGuide.24"
            },
            "AegisLab": {
                "category": "undetected",
                "engine_name": "AegisLab",
                "engine_update": "20190219",
                "engine_version": "4.2",
                "method": "blacklist",
                "result": null
            },
            "AhnLab-V3": {
                "category": "malicious",
                "engine_name": "AhnLab-V3",
                "engine_update": "20190218",
                "engine_version": "3.14.1.22785",
                "method": "blacklist",
                "result": "PUP/Win32.DownloadGuide.R245289"
            },
            "Alibaba": {
                "category": "undetected",
                "engine_name": "Alibaba",
                "engine_update": "20180921",
                "engine_version": "0.1.0.2",
                "method": "blacklist",
                "result": null
            },
            "Antiy-AVL": {
                "category": "malicious",
                "engine_name": "Antiy-AVL",
                "engine_update": "20190219",
                "engine_version": "3.0.0.1",
                "method": "blacklist",
                "result": "GrayWare[AdWare]/Win32.DownloadGuide.dd"
            },
            "Arcabit": {
                "category": "malicious",
                "engine_name": "Arcabit",
                "engine_update": "20190218",
                "engine_version": "1.0.0.837",
                "method": "blacklist",
                "result": "Trojan.Application.Bundler.DownloadGuide.24"
            },
            "Avast": {
                "category": "malicious",
                "engine_name": "Avast",
                "engine_update": "20190219",
                "engine_version": "18.4.3895.0",
                "method": "blacklist",
                "result": "Win32:BundlerX-gen [PUP]"
            },
            "Avast-Mobile": {
                "category": "undetected",
                "engine_name": "Avast-Mobile",
                "engine_update": "20190218",
                "engine_version": "190218-00",
                "method": "blacklist",
                "result": null
            },
            "Avira": {
                "category": "undetected",
                "engine_name": "Avira",
                "engine_update": "20190218",
                "engine_version": "8.3.3.8",
                "method": "blacklist",
                "result": null
            },
            "Babable": {
                "category": "undetected",
                "engine_name": "Babable",
                "engine_update": "20180918",
                "engine_version": "9107201",
                "method": "blacklist",
                "result": null
            },
            "Baidu": {
                "category": "undetected",
                "engine_name": "Baidu",
                "engine_update": "20190215",
                "engine_version": "1.0.0.2",
                "method": "blacklist",
                "result": null
            },
            "BitDefender": {
                "category": "malicious",
                "engine_name": "BitDefender",
                "engine_update": "20190218",
                "engine_version": "7.2",
                "method": "blacklist",
                "result": "Gen:Variant.Application.Bundler.DownloadGuide.24"
            },
            "CAT-QuickHeal": {
                "category": "malicious",
                "engine_name": "CAT-QuickHeal",
                "engine_update": "20190218",
                "engine_version": "14.00",
                "method": "blacklist",
                "result": "PUA.Freemiumgm2.Gen"
            },
            "CMC": {
                "category": "undetected",
                "engine_name": "CMC",
                "engine_update": "20190218",
                "engine_version": "1.1.0.977",
                "method": "blacklist",
                "result": null
            },
            "ClamAV": {
                "category": "malicious",
                "engine_name": "ClamAV",
                "engine_update": "20190218",
                "engine_version": "0.101.1.0",
                "method": "blacklist",
                "result": "Win.Malware.Downloadguide-6803841-0"
            },
            "Comodo": {
                "category": "malicious",
                "engine_name": "Comodo",
                "engine_update": "20190219",
                "engine_version": "30451",
                "method": "blacklist",
                "result": "Application.Win32.DownloadGuide.A@7y5gwx"
            },
            "CrowdStrike": {
                "category": "malicious",
                "engine_name": "CrowdStrike",
                "engine_update": "20181023",
                "engine_version": "1.0",
                "method": "blacklist",
                "result": "malicious_confidence_100% (D)"
            },
            "Cybereason": {
                "category": "malicious",
                "engine_name": "Cybereason",
                "engine_update": "20190109",
                "engine_version": "1.2.27",
                "method": "blacklist",
                "result": "malicious.7aca38"
            },
            "Cylance": {
                "category": "malicious",
                "engine_name": "Cylance",
                "engine_update": "20190219",
                "engine_version": "2.3.1.101",
                "method": "blacklist",
                "result": "Unsafe"
            },
            "Cyren": {
                "category": "malicious",
                "engine_name": "Cyren",
                "engine_update": "20190218",
                "engine_version": "6.2.0.1",
                "method": "blacklist",
                "result": "W32/S-58b25de1!Eldorado"
            },
            "DrWeb": {
                "category": "malicious",
                "engine_name": "DrWeb",
                "engine_update": "20190219",
                "engine_version": "7.0.34.11020",
                "method": "blacklist",
                "result": "Adware.ClickMeIn.9588"
            },
            "ESET-NOD32": {
                "category": "malicious",
                "engine_name": "ESET-NOD32",
                "engine_update": "20190218",
                "engine_version": "18896",
                "method": "blacklist",
                "result": "a variant of Win32/DownloadGuide.D potentially unwanted"
            },
            "Emsisoft": {
                "category": "malicious",
                "engine_name": "Emsisoft",
                "engine_update": "20190219",
                "engine_version": "2018.4.0.1029",
                "method": "blacklist",
                "result": "Application.Downloader (A)"
            },
            "Endgame": {
                "category": "malicious",
                "engine_name": "Endgame",
                "engine_update": "20190215",
                "engine_version": "3.0.3",
                "method": "blacklist",
                "result": "malicious (high confidence)"
            },
            "F-Secure": {
                "category": "undetected",
                "engine_name": "F-Secure",
                "engine_update": "20190218",
                "engine_version": "12.0.86.52",
                "method": "blacklist",
                "result": null
            },
            "Fortinet": {
                "category": "malicious",
                "engine_name": "Fortinet",
                "engine_update": "20190218",
                "engine_version": "5.4.247.0",
                "method": "blacklist",
                "result": "Riskware/DownloaderGuide"
            },
            "GData": {
                "category": "malicious",
                "engine_name": "GData",
                "engine_update": "20190219",
                "engine_version": "A:25.20726B:25.14415",
                "method": "blacklist",
                "result": "Win32.Application.DownloadGuide.T"
            },
            "Ikarus": {
                "category": "malicious",
                "engine_name": "Ikarus",
                "engine_update": "20190218",
                "engine_version": "0.1.5.2",
                "method": "blacklist",
                "result": "PUA.DownloadGuide"
            },
            "Invincea": {
                "category": "malicious",
                "engine_name": "Invincea",
                "engine_update": "20181128",
                "engine_version": "6.3.6.26157",
                "method": "blacklist",
                "result": "heuristic"
            },
            "Jiangmin": {
                "category": "malicious",
                "engine_name": "Jiangmin",
                "engine_update": "20190218",
                "engine_version": "16.0.100",
                "method": "blacklist",
                "result": "Downloader.DownloaderGuide.aqk"
            },
            "K7AntiVirus": {
                "category": "malicious",
                "engine_name": "K7AntiVirus",
                "engine_update": "20190218",
                "engine_version": "11.30.30031",
                "method": "blacklist",
                "result": "Adware ( 004b92681 )"
            },
            "K7GW": {
                "category": "malicious",
                "engine_name": "K7GW",
                "engine_update": "20190218",
                "engine_version": "11.30.30031",
                "method": "blacklist",
                "result": "Adware ( 004b92681 )"
            },
            "Kaspersky": {
                "category": "malicious",
                "engine_name": "Kaspersky",
                "engine_update": "20190218",
                "engine_version": "15.0.1.13",
                "method": "blacklist",
                "result": "not-a-virus:HEUR:Downloader.Win32.DownloaderGuide.gen"
            },
            "Kingsoft": {
                "category": "undetected",
                "engine_name": "Kingsoft",
                "engine_update": "20190219",
                "engine_version": "2013.8.14.323",
                "method": "blacklist",
                "result": null
            },
            "MAX": {
                "category": "confirmed-timeout",
                "engine_name": "MAX",
                "engine_update": "20190219",
                "engine_version": "2018.9.12.1",
                "method": "blacklist",
                "result": null
            },
            "Malwarebytes": {
                "category": "malicious",
                "engine_name": "Malwarebytes",
                "engine_update": "20190218",
                "engine_version": "2.1.1.1115",
                "method": "blacklist",
                "result": "Adware.Downloader"
            },
            "McAfee": {
                "category": "malicious",
                "engine_name": "McAfee",
                "engine_update": "20190218",
                "engine_version": "6.0.6.653",
                "method": "blacklist",
                "result": "PUP-FXK"
            },
            "McAfee-GW-Edition": {
                "category": "malicious",
                "engine_name": "McAfee-GW-Edition",
                "engine_update": "20190218",
                "engine_version": "v2017.3010",
                "method": "blacklist",
                "result": "BehavesLike.Win32.Downloader.hh"
            },
            "MicroWorld-eScan": {
                "category": "malicious",
                "engine_name": "MicroWorld-eScan",
                "engine_update": "20190218",
                "engine_version": "14.0.297.0",
                "method": "blacklist",
                "result": "Gen:Variant.Application.Bundler.DownloadGuide.24"
            },
            "Microsoft": {
                "category": "malicious",
                "engine_name": "Microsoft",
                "engine_update": "20190219",
                "engine_version": "1.1.15700.8",
                "method": "blacklist",
                "result": "PUA:Win32/DownloadGuide"
            },
            "NANO-Antivirus": {
                "category": "malicious",
                "engine_name": "NANO-Antivirus",
                "engine_update": "20190218",
                "engine_version": "1.0.134.24576",
                "method": "blacklist",
                "result": "Trojan.Win32.Covus.fkfkjs"
            },
            "Paloalto": {
                "category": "undetected",
                "engine_name": "Paloalto",
                "engine_update": "20190219",
                "engine_version": "1.0",
                "method": "blacklist",
                "result": null
            },
            "Panda": {
                "category": "malicious",
                "engine_name": "Panda",
                "engine_update": "20190218",
                "engine_version": "4.6.4.2",
                "method": "blacklist",
                "result": "Trj/CI.A"
            },
            "Qihoo-360": {
                "category": "malicious",
                "engine_name": "Qihoo-360",
                "engine_update": "20190219",
                "engine_version": "1.0.0.1120",
                "method": "blacklist",
                "result": "Win32/Virus.Downloader.27f"
            },
            "Rising": {
                "category": "malicious",
                "engine_name": "Rising",
                "engine_update": "20190218",
                "engine_version": "25.0.0.24",
                "method": "blacklist",
                "result": "PUA.DownloadGuide!8.1C2 (TFE:dGZlOgUNxY5qTScKrQ)"
            },
            "SUPERAntiSpyware": {
                "category": "malicious",
                "engine_name": "SUPERAntiSpyware",
                "engine_update": "20190213",
                "engine_version": "5.6.0.1032",
                "method": "blacklist",
                "result": "Adware.Downloader/Variant"
            },
            "SentinelOne": {
                "category": "malicious",
                "engine_name": "SentinelOne",
                "engine_update": "20190203",
                "engine_version": "1.0.23.276",
                "method": "blacklist",
                "result": "static engine - malicious"
            },
            "Sophos": {
                "category": "undetected",
                "engine_name": "Sophos",
                "engine_update": "20190219",
                "engine_version": "4.98.0",
                "method": "blacklist",
                "result": null
            },
            "Symantec": {
                "category": "malicious",
                "engine_name": "Symantec",
                "engine_update": "20190218",
                "engine_version": "1.8.0.0",
                "method": "blacklist",
                "result": "PUA.Downloader"
            },
            "SymantecMobileInsight": {
                "category": "type-unsupported",
                "engine_name": "SymantecMobileInsight",
                "engine_update": "20190207",
                "engine_version": "2.0",
                "method": "blacklist",
                "result": null
            },
            "TACHYON": {
                "category": "undetected",
                "engine_name": "TACHYON",
                "engine_update": "20190218",
                "engine_version": "2019-02-18.02",
                "method": "blacklist",
                "result": null
            },
            "Tencent": {
                "category": "undetected",
                "engine_name": "Tencent",
                "engine_update": "20190219",
                "engine_version": "1.0.0.1",
                "method": "blacklist",
                "result": null
            },
            "TheHacker": {
                "category": "undetected",
                "engine_name": "TheHacker",
                "engine_update": "20190217",
                "engine_version": "6.8.0.5.4025",
                "method": "blacklist",
                "result": null
            },
            "TotalDefense": {
                "category": "undetected",
                "engine_name": "TotalDefense",
                "engine_update": "20190218",
                "engine_version": "37.1.62.1",
                "method": "blacklist",
                "result": null
            },
            "Trapmine": {
                "category": "undetected",
                "engine_name": "Trapmine",
                "engine_update": "20190123",
                "engine_version": "3.1.40.719",
                "method": "blacklist",
                "result": null
            },
            "Trustlook": {
                "category": "undetected",
                "engine_name": "Trustlook",
                "engine_update": "20190219",
                "engine_version": "1.0",
                "method": "blacklist",
                "result": null
            },
            "VBA32": {
                "category": "malicious",
                "engine_name": "VBA32",
                "engine_update": "20190218",
                "engine_version": "3.35.1",
                "method": "blacklist",
                "result": "Downloader.DownloaderGuide"
            },
            "ViRobot": {
                "category": "malicious",
                "engine_name": "ViRobot",
                "engine_update": "20190218",
                "engine_version": "2014.3.20.0",
                "method": "blacklist",
                "result": "Adware.Downloadguide.559840.AAMN"
            },
            "Webroot": {
                "category": "malicious",
                "engine_name": "Webroot",
                "engine_update": "20190219",
                "engine_version": "1.0.0.403",
                "method": "blacklist",
                "result": "Pua.Freemium"
            },
            "Yandex": {
                "category": "malicious",
                "engine_name": "Yandex",
                "engine_update": "20190215",
                "engine_version": "5.5.1.3",
                "method": "blacklist",
                "result": "PUA.Downloader!"
            },
            "ZoneAlarm": {
                "category": "malicious",
                "engine_name": "ZoneAlarm",
                "engine_update": "20190219",
                "engine_version": "1.0",
                "method": "blacklist",
                "result": "not-a-virus:HEUR:Downloader.Win32.DownloaderGuide.gen"
            },
            "Zoner": {
                "category": "undetected",
                "engine_name": "Zoner",
                "engine_update": "20190218",
                "engine_version": "1.0",
                "method": "blacklist",
                "result": null
            },
            "eGambit": {
                "category": "malicious",
                "engine_name": "eGambit",
                "engine_update": "20190219",
                "engine_version": "v4.3.6",
                "method": "blacklist",
                "result": "Unsafe.AI_Score_99%"
            }
        },
        "last_analysis_stats": {
            "confirmed-timeout": 1,
            "failure": 0,
            "harmless": 0,
            "malicious": 44,
            "suspicious": 0,
            "timeout": 0,
            "type-unsupported": 1,
            "undetected": 19
        },
        "last_modification_date": 1550540678,
        "last_submission_date": 1550540232,
        "magic": "PE32 executable for MS Windows (GUI) Intel 80386 32-bit",
        "md5": "13532a17aca38616c5def9a3467c9630",
        "meaningful_name": "13532a17aca38616c5def9a3467c9630.virobj",
        "names": [
            "13532a17aca38616c5def9a3467c9630.virobj",
            "13532a17aca38616c5def9a3467c9630.virus"
        ],
        "pe_info": {
            "entry_point": 85052,
            "imphash": "c581e778ba559d8e6a1073ed4b145b6f",
            "import_list": [
                {
                    "imported_functions": [
                        "GetSaveFileNameW",
                        "GetOpenFileNameW"
                    ],
                    "library_name": "COMDLG32.dll"
                },
                {
                    "imported_functions": [
                        "GetDeviceCaps",
                        "DeleteDC",
                        "SelectObject",
                        "GetStockObject",
                        "CreateSolidBrush",
                        "GetObjectW",
                        "CreateCompatibleDC",
                        "DeleteObject"
                    ],
                    "library_name": "GDI32.dll"
                },
                {
                    "imported_functions": [
                        "Shell_NotifyIconW",
                        "CommandLineToArgvW",
                        "DoEnvironmentSubstW"
                    ],
                    "library_name": "SHELL32.dll"
                },
                {
                    "imported_functions": [
                        "GetStdHandle",
                        "InterlockedPopEntrySList",
                        "WaitForSingleObject",
                        "EncodePointer",
                        "DeleteCriticalSection",
                        "GetCurrentProcess",
                        "GetConsoleMode",
                        "LocalAlloc",
                        "FreeEnvironmentStringsW",
                        "SetStdHandle",
                        "GetCPInfo",
                        "WriteFile",
                        "GetSystemTimeAsFileTime",
                        "HeapReAlloc",
                        "GetStringTypeW",
                        "FreeLibrary",
                        "InterlockedPushEntrySList",
                        "LoadResource",
                        "FindClose",
                        "InterlockedDecrement",
                        "GetFullPathNameW",
                        "DebugBreak",
                        "SetLastError",
                        "TlsGetValue",
                        "OutputDebugStringW",
                        "GetModuleFileNameW",
                        "IsDebuggerPresent",
                        "HeapAlloc",
                        "lstrcmpiW",
                        "HeapSetInformation",
                        "UnhandledExceptionFilter",
                        "LoadLibraryExW",
                        "MultiByteToWideChar",
                        "SetFilePointerEx",
                        "FlushInstructionCache",
                        "SetUnhandledExceptionFilter",
                        "MulDiv",
                        "IsProcessorFeaturePresent",
                        "DecodePointer",
                        "TerminateProcess",
                        "GlobalAlloc",
                        "SetEndOfFile",
                        "GetCurrentThreadId",
                        "LeaveCriticalSection",
                        "WriteConsoleW",
                        "InitializeCriticalSectionAndSpinCount",
                        "HeapFree",
                        "EnterCriticalSection",
                        "SetHandleCount",
                        "LoadLibraryW",
                        "GetOEMCP",
                        "QueryPerformanceCounter",
                        "GetTickCount",
                        "TlsAlloc",
                        "FlushFileBuffers",
                        "LoadLibraryA",
                        "RtlUnwind",
                        "GetFileSize",
                        "GetStartupInfoW",
                        "GlobalLock",
                        "GetProcessHeap",
                        "GetTempFileNameW",
                        "FindNextFileW",
                        "FindFirstFileW",
                        "lstrcmpW",
                        "GetProcAddress",
                        "CreateEventW",
                        "CreateFileW",
                        "GetFileType",
                        "TlsSetValue",
                        "ExitProcess",
                        "InterlockedIncrement",
                        "GetLastError",
                        "LCMapStringW",
                        "lstrlenA",
                        "GetConsoleCP",
                        "GetEnvironmentStringsW",
                        "GlobalUnlock",
                        "lstrlenW",
                        "SizeofResource",
                        "GetCurrentProcessId",
                        "GetCommandLineW",
                        "WideCharToMultiByte",
                        "HeapSize",
                        "InterlockedCompareExchange",
                        "RaiseException",
                        "MapViewOfFile",
                        "TlsFree",
                        "SetFilePointer",
                        "ReadFile",
                        "CloseHandle",
                        "GetACP",
                        "GetModuleHandleW",
                        "GetFileAttributesExW",
                        "IsValidCodePage",
                        "HeapCreate",
                        "FindResourceW",
                        "VirtualFree",
                        "Sleep",
                        "VirtualAlloc"
                    ],
                    "library_name": "KERNEL32.dll"
                },
                {
                    "imported_functions": [
                        "LoadRegTypeLib",
                        "VariantChangeType",
                        "SysStringLen",
                        "SysStringByteLen",
                        "VarBstrCat",
                        "VariantClear",
                        "SysAllocString",
                        "OleCreateFontIndirect",
                        "DispCallFunc",
                        "VariantCopy",
                        "LoadTypeLib",
                        "SysFreeString",
                        "SysAllocStringByteLen",
                        "VariantInit",
                        "VarUI4FromStr"
                    ],
                    "library_name": "OLEAUT32.dll"
                },
                {
                    "imported_functions": [
                        "RegCreateKeyExW",
                        "RegDeleteValueW",
                        "RegCloseKey",
                        "RegSetValueExW",
                        "RegQueryInfoKeyW",
                        "RegEnumKeyExW",
                        "RegOpenKeyExW",
                        "RegDeleteKeyW",
                        "RegQueryValueExW"
                    ],
                    "library_name": "ADVAPI32.dll"
                },
                {
                    "imported_functions": [
                        "CreateStreamOnHGlobal",
                        "OleLockRunning",
                        "OleInitialize",
                        "CoTaskMemRealloc",
                        "CoCreateInstance",
                        "OleUninitialize",
                        "CoTaskMemFree",
                        "CoTaskMemAlloc"
                    ],
                    "library_name": "ole32.dll"
                },
                {
                    "imported_functions": [
                        "PathFileExistsW"
                    ],
                    "library_name": "SHLWAPI.dll"
                },
                {
                    "imported_functions": [
                        "SetFocus",
                        "RegisterWindowMessageW",
                        "GetMonitorInfoW",
                        "GetClassInfoExW",
                        "RedrawWindow",
                        "BeginPaint",
                        "DefWindowProcW",
                        "KillTimer",
                        "GetMessageW",
                        "ShowWindow",
                        "MapWindowPoints",
                        "GetParent",
                        "SetWindowLongW",
                        "IsWindow",
                        "PeekMessageW",
                        "GetWindowRect",
                        "EndPaint",
                        "UpdateWindow",
                        "MoveWindow",
                        "SetWindowPos",
                        "TranslateMessage",
                        "GetWindowTextLengthW",
                        "PostMessageW",
                        "GetSysColor",
                        "DispatchMessageW",
                        "GetDC",
                        "ReleaseDC",
                        "SendMessageW",
                        "UnregisterClassA",
                        "GetWindowLongW",
                        "IsWindowVisible",
                        "SetWindowTextW",
                        "GetDlgItem",
                        "GetWindow",
                        "LoadImageW",
                        "MonitorFromWindow",
                        "ClientToScreen",
                        "InvalidateRect",
                        "SetTimer",
                        "CallWindowProcW",
                        "GetClassNameW",
                        "FillRect",
                        "CreateAcceleratorTableW",
                        "GetWindowTextW",
                        "GetDesktopWindow",
                        "LoadCursorW",
                        "LoadIconW",
                        "GetFocus",
                        "CreateWindowExW",
                        "RegisterClassExW",
                        "GetClientRect",
                        "CharNextW",
                        "IsChild",
                        "DestroyWindow"
                    ],
                    "library_name": "USER32.dll"
                }
            ],
            "machine_type": 332,
            "overlay": {
                "chi2": 6085.35009765625,
                "entropy": 7.60132360458374,
                "filetype": "data",
                "md5": "c3ade44466727bf77701c7937bdaedd1",
                "offset": 552960,
                "size": 6880
            },
            "resource_details": [
                {
                    "chi2": 206692.8125,
                    "entropy": 5.394310474395752,
                    "filetype": "data",
                    "lang": "NEUTRAL",
                    "sha256": "abcb0193ed76d190556c3748136be9e0230f2bf5e244d104d00ac77d921068ac",
                    "type": "RT_ICON"
                },
                {
                    "chi2": 80781.078125,
                    "entropy": 5.588585376739502,
                    "filetype": "data",
                    "lang": "NEUTRAL",
                    "sha256": "cd664a1691a50e28a0fac9b54318be7be51d6d1ec383b777e32b654e04ab5305",
                    "type": "RT_ICON"
                },
                {
                    "chi2": 15863.7744140625,
                    "entropy": 5.9216437339782715,
                    "filetype": "data",
                    "lang": "NEUTRAL",
                    "sha256": "149e1228109b9cd360242bfe031c26f4954628287c7b78c7578ba69a878aff49",
                    "type": "RT_ICON"
                },
                {
                    "chi2": 3685.33251953125,
                    "entropy": 2.4584920406341553,
                    "filetype": "data",
                    "lang": "NEUTRAL",
                    "sha256": "77a1efb6136f52dd2372987b13bf486aa75baeacb93bad009aa3e284c57b8694",
                    "type": "RT_GROUP_ICON"
                },
                {
                    "chi2": 19078.84765625,
                    "entropy": 2.966618061065674,
                    "filetype": "data",
                    "lang": "NEUTRAL",
                    "sha256": "ddee19afcc2b01d589ef6ffda1a4f3d29b7edfcb9ae22ca4d39ce46f6ba76752",
                    "type": "RT_VERSION"
                },
                {
                    "chi2": 3945.591796875,
                    "entropy": 4.884516716003418,
                    "filetype": "ASCII text",
                    "lang": "NEUTRAL",
                    "sha256": "82816c86a72cc9cc615c7a4835862ce780b83379b32a917a65b59c2b2a13b94f",
                    "type": "RT_MANIFEST"
                }
            ],
            "resource_langs": {
                "NEUTRAL": 6
            },
            "resource_types": {
                "RT_GROUP_ICON": 1,
                "RT_ICON": 3,
                "RT_MANIFEST": 1,
                "RT_VERSION": 1
            },
            "sections": [
                {
                    "entropy": 6.56,
                    "md5": "66fb890b6815e40e6282ea451878b382",
                    "name": ".text",
                    "raw_size": 361472,
                    "virtual_address": 4096,
                    "virtual_size": 361286
                },
                {
                    "entropy": 7.29,
                    "md5": "d8a20660cb464e3dff63f62da0282331",
                    "name": ".rdata",
                    "raw_size": 138240,
                    "virtual_address": 368640,
                    "virtual_size": 137808
                },
                {
                    "entropy": 3.94,
                    "md5": "7b335a4c050ac3f0c981d08e158d44de",
                    "name": ".data",
                    "raw_size": 8704,
                    "virtual_address": 507904,
                    "virtual_size": 18560
                },
                {
                    "entropy": 5.49,
                    "md5": "7bbdecccc0cf96f0d75021077ab6b110",
                    "name": ".rsrc",
                    "raw_size": 16384,
                    "virtual_address": 528384,
                    "virtual_size": 16064
                },
                {
                    "entropy": 5.83,
                    "md5": "37fa0adc7813e1f2f485deec07d8b5eb",
                    "name": ".reloc",
                    "raw_size": 27136,
                    "virtual_address": 544768,
                    "virtual_size": 26894
                }
            ],
            "timestamp": 1542344584
        },
        "reputation": 0,
        "sha1": "abe504068d2745484fb186a5e6cc9eb14d1ba465",
        "sha256": "00014adda55550f1f08cbcd75da0843e07b9bdc75c031c9f022437b43aee56bc",
        "signature_info": {
            "signers": "Freemium GmbH; COMODO RSA Code Signing CA; COMODO SECURE\u2122",
            "signers details": [
                {
                    "algorithm": "sha256RSA",
                    "cert issuer": "COMODO RSA Code Signing CA",
                    "name": "Freemium GmbH",
                    "serial number": "48 EC 05 2D AD 94 98 23 D9 66 E3 F7 7E C8 1E 59",
                    "status": "Valid",
                    "thumbprint": "6B4A319B4850994C36BB2136BD7823B56EF6A221",
                    "valid from": "12:00 AM 05/23/2018",
                    "valid to": "11:59 PM 05/23/2019",
                    "valid usage": "Code Signing"
                },
                {
                    "algorithm": "sha384RSA",
                    "cert issuer": "COMODO RSA Certification Authority",
                    "name": "COMODO RSA Code Signing CA",
                    "serial number": "2E 7C 87 CC 0E 93 4A 52 FE 94 FD 1C B7 CD 34 AF",
                    "status": "Valid",
                    "thumbprint": "B69E752BBE88B4458200A7C0F4F5B3CCE6F35B47",
                    "valid from": "12:00 AM 05/09/2013",
                    "valid to": "11:59 PM 05/08/2028",
                    "valid usage": "Code Signing"
                },
                {
                    "algorithm": "sha384RSA",
                    "cert issuer": "COMODO RSA Certification Authority",
                    "name": "COMODO SECURE\u2122",
                    "serial number": "4C AA F9 CA DB 63 6F E0 1F F7 4E D8 5B 03 86 9D",
                    "status": "Valid",
                    "thumbprint": "AFE5D244A8D1194230FF479FE2F897BBCD7A8CB4",
                    "valid from": "12:00 AM 01/19/2010",
                    "valid to": "11:59 PM 01/18/2038",
                    "valid usage": "Server Auth, Client Auth, Email Protection, Code Signing, Timestamp Signing, EFS, IPSEC Tunnel, IPSEC User"
                }
            ],
            "signing date": "1:42 AM 2/19/2019",
            "verified": "Signed",
            "x509": [
                {
                    "algorithm": "sha1RSA",
                    "cert issuer": "AddTrust External CA Root",
                    "name": "AddTrust External CA Root",
                    "serial number": "01",
                    "thumbprint": "02FAF3E291435468607857694DF5E45B68851868",
                    "valid from": "10:48 AM 5/30/2000",
                    "valid to": "10:48 AM 5/30/2020",
                    "valid_usage": null
                },
                {
                    "algorithm": "sha256RSA",
                    "cert issuer": "COMODO RSA Code Signing CA",
                    "name": "Freemium GmbH",
                    "serial number": "48 EC 05 2D AD 94 98 23 D9 66 E3 F7 7E C8 1E 59",
                    "thumbprint": "6B4A319B4850994C36BB2136BD7823B56EF6A221",
                    "valid from": "12:00 AM 5/23/2018",
                    "valid to": "11:59 PM 5/23/2019",
                    "valid_usage": "Code Signing"
                },
                {
                    "algorithm": "sha384RSA",
                    "cert issuer": "AddTrust External CA Root",
                    "name": "COMODO RSA Certification Authority",
                    "serial number": "27 66 EE 56 EB 49 F3 8E AB D7 70 A2 FC 84 DE 22",
                    "thumbprint": "F5AD0BCC1AD56CD150725B1C866C30AD92EF21B0",
                    "valid from": "10:48 AM 5/30/2000",
                    "valid to": "10:48 AM 5/30/2020",
                    "valid_usage": null
                },
                {
                    "algorithm": "sha384RSA",
                    "cert issuer": "COMODO RSA Certification Authority",
                    "name": "COMODO RSA Code Signing CA",
                    "serial number": "2E 7C 87 CC 0E 93 4A 52 FE 94 FD 1C B7 CD 34 AF",
                    "thumbprint": "B69E752BBE88B4458200A7C0F4F5B3CCE6F35B47",
                    "valid from": "12:00 AM 5/9/2013",
                    "valid to": "11:59 PM 5/8/2028",
                    "valid_usage": "Code Signing"
                }
            ]
        },
        "size": 559840,
        "ssdeep": "12288:w4fmuV/2SlI1MCAHab5I0WozQsmknY87Z1EPclMkc9A7Z2z:w42DMCA6b5fWQmknY87LEPcl9nlq",
        "tags": [
            "peexe",
            "signed",
            "overlay"
        ],
        "times_submitted": 2,
        "total_votes": {
            "harmless": 0,
            "malicious": 0
        },
        "trid": [
            {
                "file_type": "Win32 Executable MS Visual C++ (generic)",
                "probability": 41.0
            },
            {
                "file_type": "Win64 Executable (generic)",
                "probability": 36.3
            },
            {
                "file_type": "Win32 Dynamic Link Library (generic)",
                "probability": 8.6
            },
            {
                "file_type": "Win32 Executable (generic)",
                "probability": 5.9
            },
            {
                "file_type": "OS/2 Executable (generic)",
                "probability": 2.6
            }
        ],
        "type_description": "Win32 EXE",
        "type_extension": "exe",
        "type_tag": "peexe",
        "unique_sources": 2,
        "vhash": "055056657d15555091z21z800647z80f5z3010036fz"
    },
    "id": "00014adda55550f1f08cbcd75da0843e07b9bdc75c031c9f022437b43aee56bc",
    "links": {
        "self": "https://www.virustotal.com/api/v3/files/00014adda55550f1f08cbcd75da0843e07b9bdc75c031c9f022437b43aee56bc"
    },
    "type": "file"
}