{
    "attributes": {
        "authentihash": "2ea46ed8531260f83b45d32886f0f3a136e4eeb74ff0fe2ae13519703cecace2",
        "creation_date": 1334095149,
        "first_submission_date": 1520530415,
        "last_analysis_date": 1520530415,
        "last_analysis_results": {
            "ALYac": {
                "category": "malicious",
                "engine_name": "ALYac",
                "engine_update": "20180308",
                "engine_version": "1.1.1.5",
                "method": "blacklist",
                "result": "Trojan.VBRan.Gen.2"
            },
            "AVG": {
                "category": "malicious",
                "engine_name": "AVG",
                "engine_update": "20180308",
                "engine_version": "18.2.3827.0",
                "method": "blacklist",
                "result": "Win32:VB-ACGX [Trj]"
            },
            "AVware": {
                "category": "malicious",
                "engine_name": "AVware",
                "engine_update": "20180308",
                "engine_version": "1.5.0.42",
                "method": "blacklist",
                "result": "Worm.Win32.Vobfus.ek (v)"
            },
            "Ad-Aware": {
                "category": "malicious",
                "engine_name": "Ad-Aware",
                "engine_update": "20180308",
                "engine_version": "3.0.3.1010",
                "method": "blacklist",
                "result": "Trojan.VBRan.Gen.2"
            },
            "AegisLab": {
                "category": "undetected",
                "engine_name": "AegisLab",
                "engine_update": "20180308",
                "engine_version": "4.2",
                "method": "blacklist",
                "result": null
            },
            "AhnLab-V3": {
                "category": "malicious",
                "engine_name": "AhnLab-V3",
                "engine_update": "20180308",
                "engine_version": "3.12.0.20130",
                "method": "blacklist",
                "result": "Trojan/Win32.Jorik.R131999"
            },
            "Alibaba": {
                "category": "type-unsupported",
                "engine_name": "Alibaba",
                "engine_update": "20180308",
                "engine_version": "1.0",
                "method": "blacklist",
                "result": null
            },
            "Antiy-AVL": {
                "category": "malicious",
                "engine_name": "Antiy-AVL",
                "engine_update": "20180308",
                "engine_version": "3.0.0.1",
                "method": "blacklist",
                "result": "Worm/Win32.WBNA.gen"
            },
            "Arcabit": {
                "category": "malicious",
                "engine_name": "Arcabit",
                "engine_update": "20180308",
                "engine_version": "1.0.0.830",
                "method": "blacklist",
                "result": "Trojan.VBRan.Gen.2"
            },
            "Avast": {
                "category": "malicious",
                "engine_name": "Avast",
                "engine_update": "20180308",
                "engine_version": "18.2.3827.0",
                "method": "blacklist",
                "result": "Win32:VB-ACGX [Trj]"
            },
            "Avast-Mobile": {
                "category": "undetected",
                "engine_name": "Avast-Mobile",
                "engine_update": "20180308",
                "engine_version": "180308-12",
                "method": "blacklist",
                "result": null
            },
            "Avira": {
                "category": "malicious",
                "engine_name": "Avira",
                "engine_update": "20180308",
                "engine_version": "8.3.3.6",
                "method": "blacklist",
                "result": "TR/Jorik.Vobfus.ajr"
            },
            "Baidu": {
                "category": "malicious",
                "engine_name": "Baidu",
                "engine_update": "20180308",
                "engine_version": "1.0.0.2",
                "method": "blacklist",
                "result": "Win32.Worm.Autorun.u"
            },
            "BitDefender": {
                "category": "malicious",
                "engine_name": "BitDefender",
                "engine_update": "20180308",
                "engine_version": "7.2",
                "method": "blacklist",
                "result": "Trojan.VBRan.Gen.2"
            },
            "Bkav": {
                "category": "malicious",
                "engine_name": "Bkav",
                "engine_update": "20180308",
                "engine_version": "1.3.0.9466",
                "method": "blacklist",
                "result": "W32.UsernameHuinogA.Trojan"
            },
            "CAT-QuickHeal": {
                "category": "malicious",
                "engine_name": "CAT-QuickHeal",
                "engine_update": "20180308",
                "engine_version": "14.00",
                "method": "blacklist",
                "result": "Worm.Vobfus.Gen"
            },
            "CMC": {
                "category": "malicious",
                "engine_name": "CMC",
                "engine_update": "20180308",
                "engine_version": "1.1.0.977",
                "method": "blacklist",
                "result": "Trojan.Win32.Jorik.Vobfus!O"
            },
            "ClamAV": {
                "category": "malicious",
                "engine_name": "ClamAV",
                "engine_update": "20180308",
                "engine_version": "0.99.2.0",
                "method": "blacklist",
                "result": "Win.Trojan.Vobfus-70344"
            },
            "Comodo": {
                "category": "malicious",
                "engine_name": "Comodo",
                "engine_update": "20180308",
                "engine_version": "28643",
                "method": "blacklist",
                "result": "Worm.Win32.AutoRun.AMH"
            },
            "CrowdStrike": {
                "category": "malicious",
                "engine_name": "CrowdStrike",
                "engine_update": "20170201",
                "engine_version": "1.0",
                "method": "blacklist",
                "result": "malicious_confidence_100% (D)"
            },
            "Cybereason": {
                "category": "malicious",
                "engine_name": "Cybereason",
                "engine_update": "20180225",
                "engine_version": "1.2.27",
                "method": "blacklist",
                "result": "malicious.510baf"
            },
            "Cylance": {
                "category": "malicious",
                "engine_name": "Cylance",
                "engine_update": "20180308",
                "engine_version": "2.3.1.101",
                "method": "blacklist",
                "result": "Unsafe"
            },
            "Cyren": {
                "category": "malicious",
                "engine_name": "Cyren",
                "engine_update": "20180308",
                "engine_version": "5.4.30.7",
                "method": "blacklist",
                "result": "W32/Vobfus.AM.gen!Eldorado"
            },
            "DrWeb": {
                "category": "malicious",
                "engine_name": "DrWeb",
                "engine_update": "20180308",
                "engine_version": "7.0.28.2020",
                "method": "blacklist",
                "result": "Win32.HLLW.Autoruner2.29121"
            },
            "ESET-NOD32": {
                "category": "malicious",
                "engine_name": "ESET-NOD32",
                "engine_update": "20180308",
                "engine_version": "17023",
                "method": "blacklist",
                "result": "a variant of Win32/AutoRun.VB.AUM"
            },
            "Emsisoft": {
                "category": "malicious",
                "engine_name": "Emsisoft",
                "engine_update": "20180308",
                "engine_version": "4.0.2.899",
                "method": "blacklist",
                "result": "Trojan.VBRan.Gen.2 (B)"
            },
            "Endgame": {
                "category": "malicious",
                "engine_name": "Endgame",
                "engine_update": "20180308",
                "engine_version": "2.0.4",
                "method": "blacklist",
                "result": "malicious (high confidence)"
            },
            "F-Prot": {
                "category": "malicious",
                "engine_name": "F-Prot",
                "engine_update": "20180308",
                "engine_version": "4.7.1.166",
                "method": "blacklist",
                "result": "W32/Vobfus.AM.gen!Eldorado"
            },
            "F-Secure": {
                "category": "undetected",
                "engine_name": "F-Secure",
                "engine_update": "20180308",
                "engine_version": "11.0.19100.45",
                "method": "blacklist",
                "result": null
            },
            "Fortinet": {
                "category": "malicious",
                "engine_name": "Fortinet",
                "engine_update": "20180308",
                "engine_version": "5.4.247.0",
                "method": "blacklist",
                "result": "W32/VBObfus.C!tr"
            },
            "GData": {
                "category": "malicious",
                "engine_name": "GData",
                "engine_update": "20180308",
                "engine_version": "A:25.16277B:25.11741",
                "method": "blacklist",
                "result": "Trojan.VBRan.Gen.2"
            },
            "Ikarus": {
                "category": "malicious",
                "engine_name": "Ikarus",
                "engine_update": "20180308",
                "engine_version": "0.1.5.2",
                "method": "blacklist",
                "result": "Worm.Win32.VBNA"
            },
            "Invincea": {
                "category": "malicious",
                "engine_name": "Invincea",
                "engine_update": "20180121",
                "engine_version": "6.3.4.26036",
                "method": "blacklist",
                "result": "heuristic"
            },
            "Jiangmin": {
                "category": "malicious",
                "engine_name": "Jiangmin",
                "engine_update": "20180308",
                "engine_version": "16.0.100",
                "method": "blacklist",
                "result": "Trojan/Jorik.gjym"
            },
            "K7AntiVirus": {
                "category": "malicious",
                "engine_name": "K7AntiVirus",
                "engine_update": "20180308",
                "engine_version": "10.41.26436",
                "method": "blacklist",
                "result": "EmailWorm ( 0040f0951 )"
            },
            "K7GW": {
                "category": "malicious",
                "engine_name": "K7GW",
                "engine_update": "20180308",
                "engine_version": "10.41.26437",
                "method": "blacklist",
                "result": "EmailWorm ( 0040f0951 )"
            },
            "Kaspersky": {
                "category": "malicious",
                "engine_name": "Kaspersky",
                "engine_update": "20180308",
                "engine_version": "15.0.1.13",
                "method": "blacklist",
                "result": "Worm.Win32.Vobfus.aiez"
            },
            "Kingsoft": {
                "category": "undetected",
                "engine_name": "Kingsoft",
                "engine_update": "20180308",
                "engine_version": "2013.8.14.323",
                "method": "blacklist",
                "result": null
            },
            "MAX": {
                "category": "malicious",
                "engine_name": "MAX",
                "engine_update": "20180308",
                "engine_version": "2017.11.15.1",
                "method": "blacklist",
                "result": "malware (ai score=88)"
            },
            "Malwarebytes": {
                "category": "undetected",
                "engine_name": "Malwarebytes",
                "engine_update": "20180308",
                "engine_version": "2.1.1.1115",
                "method": "blacklist",
                "result": null
            },
            "McAfee": {
                "category": "malicious",
                "engine_name": "McAfee",
                "engine_update": "20180308",
                "engine_version": "6.0.6.653",
                "method": "blacklist",
                "result": "VBObfus.ds"
            },
            "McAfee-GW-Edition": {
                "category": "malicious",
                "engine_name": "McAfee-GW-Edition",
                "engine_update": "20180308",
                "engine_version": "v2015",
                "method": "blacklist",
                "result": "BehavesLike.Win32.Vilsel.cm"
            },
            "MicroWorld-eScan": {
                "category": "malicious",
                "engine_name": "MicroWorld-eScan",
                "engine_update": "20180308",
                "engine_version": "14.0.297.0",
                "method": "blacklist",
                "result": "Trojan.VBRan.Gen.2"
            },
            "Microsoft": {
                "category": "malicious",
                "engine_name": "Microsoft",
                "engine_update": "20180308",
                "engine_version": "1.1.14600.4",
                "method": "blacklist",
                "result": "Worm:Win32/Vobfus"
            },
            "NANO-Antivirus": {
                "category": "malicious",
                "engine_name": "NANO-Antivirus",
                "engine_update": "20180308",
                "engine_version": "1.0.100.21498",
                "method": "blacklist",
                "result": "Trojan.Win32.Autoruner.cihufu"
            },
            "Paloalto": {
                "category": "undetected",
                "engine_name": "Paloalto",
                "engine_update": "20180308",
                "engine_version": "1.0",
                "method": "blacklist",
                "result": null
            },
            "Panda": {
                "category": "malicious",
                "engine_name": "Panda",
                "engine_update": "20180308",
                "engine_version": "4.6.4.2",
                "method": "blacklist",
                "result": "W32/Vobfus.GEW.worm"
            },
            "Qihoo-360": {
                "category": "malicious",
                "engine_name": "Qihoo-360",
                "engine_update": "20180308",
                "engine_version": "1.0.0.1120",
                "method": "blacklist",
                "result": "Trojan.Win32.VB.M"
            },
            "Rising": {
                "category": "malicious",
                "engine_name": "Rising",
                "engine_update": "20180308",
                "engine_version": "25.0.0.1",
                "method": "blacklist",
                "result": "Worm.Vobfus!1.99C6 (CLASSIC)"
            },
            "SUPERAntiSpyware": {
                "category": "malicious",
                "engine_name": "SUPERAntiSpyware",
                "engine_update": "20180308",
                "engine_version": "5.6.0.1032",
                "method": "blacklist",
                "result": "Worm.Vobfus"
            },
            "SentinelOne": {
                "category": "malicious",
                "engine_name": "SentinelOne",
                "engine_update": "20180225",
                "engine_version": "1.0.15.206",
                "method": "blacklist",
                "result": "static engine - malicious"
            },
            "Sophos": {
                "category": "malicious",
                "engine_name": "Sophos",
                "engine_update": "20180308",
                "engine_version": "4.98.0",
                "method": "blacklist",
                "result": "Troj/Vb-FWD"
            },
            "Symantec": {
                "category": "malicious",
                "engine_name": "Symantec",
                "engine_update": "20180308",
                "engine_version": "1.5.0.0",
                "method": "blacklist",
                "result": "W32.Changeup"
            },
            "SymantecMobileInsight": {
                "category": "type-unsupported",
                "engine_name": "SymantecMobileInsight",
                "engine_update": "20180306",
                "engine_version": "1.0.0.35_220",
                "method": "blacklist",
                "result": null
            },
            "Tencent": {
                "category": "malicious",
                "engine_name": "Tencent",
                "engine_update": "20180308",
                "engine_version": "1.0.0.1",
                "method": "blacklist",
                "result": "Worm.Win32.Vobfus.n"
            },
            "TheHacker": {
                "category": "malicious",
                "engine_name": "TheHacker",
                "engine_update": "20180307",
                "engine_version": "6.8.0.5.2507",
                "method": "blacklist",
                "result": "Trojan/Jorik.Vobfus.aijw"
            },
            "TotalDefense": {
                "category": "malicious",
                "engine_name": "TotalDefense",
                "engine_update": "20180308",
                "engine_version": "37.1.62.1",
                "method": "blacklist",
                "result": "Win32/Vobfus.O!generic"
            },
            "TrendMicro": {
                "category": "malicious",
                "engine_name": "TrendMicro",
                "engine_update": "20180308",
                "engine_version": "9.862.0.1074",
                "method": "blacklist",
                "result": "WORM_VOBFUS.SMC"
            },
            "TrendMicro-HouseCall": {
                "category": "malicious",
                "engine_name": "TrendMicro-HouseCall",
                "engine_update": "20180308",
                "engine_version": "9.950.0.1006",
                "method": "blacklist",
                "result": "WORM_VOBFUS.SMC"
            },
            "Trustlook": {
                "category": "type-unsupported",
                "engine_name": "Trustlook",
                "engine_update": "20180308",
                "engine_version": "2",
                "method": "blacklist",
                "result": null
            },
            "VBA32": {
                "category": "malicious",
                "engine_name": "VBA32",
                "engine_update": "20180307",
                "engine_version": "3.12.28.0",
                "method": "blacklist",
                "result": "SScope.Malware-Cryptor.VBCR.1141"
            },
            "VIPRE": {
                "category": "malicious",
                "engine_name": "VIPRE",
                "engine_update": "20180308",
                "engine_version": "65116",
                "method": "blacklist",
                "result": "Worm.Win32.Vobfus.ek (v)"
            },
            "ViRobot": {
                "category": "malicious",
                "engine_name": "ViRobot",
                "engine_update": "20180308",
                "engine_version": "2014.3.20.0",
                "method": "blacklist",
                "result": "Trojan.Win32.Vobfus.126976"
            },
            "Webroot": {
                "category": "undetected",
                "engine_name": "Webroot",
                "engine_update": "20180308",
                "engine_version": "1.0.0.400",
                "method": "blacklist",
                "result": null
            },
            "WhiteArmor": {
                "category": "undetected",
                "engine_name": "WhiteArmor",
                "engine_update": "20180223",
                "engine_version": null,
                "method": "blacklist",
                "result": null
            },
            "Yandex": {
                "category": "malicious",
                "engine_name": "Yandex",
                "engine_update": "20180308",
                "engine_version": "5.5.1.3",
                "method": "blacklist",
                "result": "Trojan.VBGent.Gen.1203"
            },
            "Zillya": {
                "category": "malicious",
                "engine_name": "Zillya",
                "engine_update": "20180307",
                "engine_version": "2.0.0.3507",
                "method": "blacklist",
                "result": "Trojan.JorikGen.Win32.1"
            },
            "ZoneAlarm": {
                "category": "malicious",
                "engine_name": "ZoneAlarm",
                "engine_update": "20180308",
                "engine_version": "1.0",
                "method": "blacklist",
                "result": "Worm.Win32.Vobfus.aiez"
            },
            "Zoner": {
                "category": "undetected",
                "engine_name": "Zoner",
                "engine_update": "20180308",
                "engine_version": "1.0",
                "method": "blacklist",
                "result": null
            },
            "eGambit": {
                "category": "undetected",
                "engine_name": "eGambit",
                "engine_update": "20180308",
                "engine_version": "v4.3.5",
                "method": "blacklist",
                "result": null
            },
            "nProtect": {
                "category": "malicious",
                "engine_name": "nProtect",
                "engine_update": "20180308",
                "engine_version": "2018-03-08.02",
                "method": "blacklist",
                "result": "Worm/W32.Agent.126976.BG"
            }
        },
        "last_analysis_stats": {
            "confirmed-timeout": 0,
            "failure": 0,
            "harmless": 0,
            "malicious": 58,
            "suspicious": 0,
            "timeout": 0,
            "type-unsupported": 3,
            "undetected": 10
        },
        "last_modification_date": 1520530464,
        "last_submission_date": 1520530415,
        "magic": "PE32 executable for MS Windows (GUI) Intel 80386 32-bit",
        "md5": "be9833a510bafbaf8ca55a1a66b9c477",
        "names": [
            "be9833a510bafbaf8ca55a1a66b9c477"
        ],
        "pe_info": {
            "entry_point": 4452,
            "imphash": "ba398901428cdfa54a3035f39002b466",
            "import_list": [
                {
                    "imported_functions": [
                        "EVENT_SINK_QueryInterface",
                        "Ord(645)",
                        "Ord(535)",
                        "Ord(648)",
                        "Ord(516)",
                        "Ord(527)",
                        "EVENT_SINK_AddRef",
                        "Ord(709)",
                        "Ord(712)",
                        "Ord(681)",
                        "Ord(717)",
                        "__vbaExceptHandler",
                        "Ord(632)",
                        "DllFunctionCall",
                        "Ord(578)",
                        "Ord(618)",
                        "Ord(100)",
                        "Ord(608)",
                        "Ord(519)",
                        "Ord(520)",
                        "Ord(517)",
                        "Ord(526)",
                        "ProcCallEngine",
                        "Ord(711)",
                        "EVENT_SINK_Release",
                        "Ord(616)",
                        "Ord(617)",
                        "Ord(528)",
                        "Ord(607)",
                        "Ord(669)",
                        "Ord(644)",
                        "Ord(631)",
                        "Ord(187)",
                        "Ord(619)",
                        "Ord(537)"
                    ],
                    "library_name": "MSVBVM60.DLL"
                }
            ],
            "machine_type": 332,
            "resource_details": [
                {
                    "chi2": 187761.5625,
                    "entropy": 4.91224479675293,
                    "filetype": "data",
                    "lang": "ENGLISH US",
                    "sha256": "3877483d59c3d61fcf48e65a92655d4b490039930436d241bcd26fad6b218717",
                    "type": "RT_ICON"
                },
                {
                    "chi2": 93734.7890625,
                    "entropy": 5.894078731536865,
                    "filetype": "data",
                    "lang": "ENGLISH US",
                    "sha256": "fb47e1dc870ca533ae9b0ddded32e8db83bcd0b37b7bb9f5f200094138c3c609",
                    "type": "RT_ICON"
                },
                {
                    "chi2": 61240.66015625,
                    "entropy": 6.283708572387695,
                    "filetype": "data",
                    "lang": "ENGLISH US",
                    "sha256": "1f652a0ee77321ab7724f2f2469f1a88c13eb078189db31f624bc49453a0fbff",
                    "type": "RT_ICON"
                },
                {
                    "chi2": 162866.890625,
                    "entropy": 5.080571174621582,
                    "filetype": "data",
                    "lang": "ENGLISH US",
                    "sha256": "a06d7473197dd24a58332ddfbe8a5d34c11b13724aaa48227af46c29e73ecead",
                    "type": "RT_ICON"
                },
                {
                    "chi2": 22468.2109375,
                    "entropy": 2.5796501636505127,
                    "filetype": "data",
                    "lang": "NEUTRAL",
                    "sha256": "2d3915cdc82e909357d44c4de1b8890bd753605c28df11b10299e3fd09d930b9",
                    "type": "RT_ICON"
                },
                {
                    "chi2": 87606.9609375,
                    "entropy": 1.769866943359375,
                    "filetype": "data",
                    "lang": "NEUTRAL",
                    "sha256": "a32e750bc1b0315530097434a7e1d324b843e1f5ffd95238b49d3a8aa8e6fe09",
                    "type": "RT_ICON"
                },
                {
                    "chi2": 33544.4296875,
                    "entropy": 2.0717668533325195,
                    "filetype": "data",
                    "lang": "NEUTRAL",
                    "sha256": "46dc088910439dad6a0d69da5e64227d04a640845fd1c31e90a7d4340c539fe0",
                    "type": "RT_ICON"
                },
                {
                    "chi2": 1720.80029296875,
                    "entropy": 2.1814963817596436,
                    "filetype": "data",
                    "lang": "ENGLISH US",
                    "sha256": "16de00d1f78b74505a6bbf2d38da1420d73ce08b24180d0dca4c8d19a1a043f9",
                    "type": "RT_GROUP_ICON"
                },
                {
                    "chi2": 1720.80029296875,
                    "entropy": 2.1814963817596436,
                    "filetype": "data",
                    "lang": "ENGLISH US",
                    "sha256": "4df77d9f8099b7a9beeeeb7bd528c1feca329b7be726cf585b8d548c34ccac6e",
                    "type": "RT_GROUP_ICON"
                },
                {
                    "chi2": 2437.33251953125,
                    "entropy": 2.9783577919006348,
                    "filetype": "data",
                    "lang": "NEUTRAL",
                    "sha256": "cbdcb84268fcf2a25b844c1dca787de835c0376e82c1a2e62814a3c940a26cfb",
                    "type": "RT_GROUP_ICON"
                }
            ],
            "resource_langs": {
                "ENGLISH US": 6,
                "NEUTRAL": 4
            },
            "resource_types": {
                "RT_GROUP_ICON": 3,
                "RT_ICON": 7
            },
            "sections": [
                {
                    "entropy": 5.03,
                    "md5": "ae40f430b975d0d6f185c8ab7b205122",
                    "name": ".text",
                    "raw_size": 102400,
                    "virtual_address": 4096,
                    "virtual_size": 102332
                },
                {
                    "entropy": 0.0,
                    "md5": "d41d8cd98f00b204e9800998ecf8427e",
                    "name": ".data",
                    "raw_size": 0,
                    "virtual_address": 106496,
                    "virtual_size": 4084
                },
                {
                    "entropy": 5.67,
                    "md5": "1fb3c7619cd167d03c90f7a3f26918da",
                    "name": ".rsrc",
                    "raw_size": 20480,
                    "virtual_address": 110592,
                    "virtual_size": 17008
                }
            ],
            "timestamp": 1334095149
        },
        "reputation": 0,
        "sha1": "722eb321f2790381f91ae1352cc417aa9efeab1f",
        "sha256": "0001d3b88c06de4e7f2411c99a85e7f982057fe2d3f2e8e4527ba4b5f8a4946a",
        "size": 126976,
        "ssdeep": "1536:DTsz05YlUhRO/N69BH3OoGa+FLHjKceRgrkOSoINeGUmE:HGWYlUhkFoN3Oo1+FvfSW",
        "tags": [
            "peexe"
        ],
        "times_submitted": 1,
        "total_votes": {
            "harmless": 0,
            "malicious": 0
        },
        "trid": [
            {
                "file_type": "Win32 Dynamic Link Library (generic)",
                "probability": 38.4
            },
            {
                "file_type": "Win32 Executable (generic)",
                "probability": 26.3
            },
            {
                "file_type": "OS/2 Executable (generic)",
                "probability": 11.8
            },
            {
                "file_type": "Generic Win/DOS Executable",
                "probability": 11.6
            },
            {
                "file_type": "DOS Executable Generic",
                "probability": 11.6
            }
        ],
        "type_description": "Win32 EXE",
        "type_extension": "exe",
        "type_tag": "peexe",
        "unique_sources": 1,
        "vhash": "0150365d055)z233z"
    },
    "id": "0001d3b88c06de4e7f2411c99a85e7f982057fe2d3f2e8e4527ba4b5f8a4946a",
    "links": {
        "self": "https://www.virustotal.com/api/v3/files/0001d3b88c06de4e7f2411c99a85e7f982057fe2d3f2e8e4527ba4b5f8a4946a"
    },
    "type": "file"
}