{
    "attributes": {
        "authentihash": "2550d019a5d4ba0c5c512508ffbd4ecb3303bdf0f7ad053aa3efb15cde6f61a7",
        "creation_date": 1422330987,
        "first_submission_date": 1553886821,
        "last_analysis_date": 1553886821,
        "last_analysis_results": {
            "ALYac": {
                "category": "malicious",
                "engine_name": "ALYac",
                "engine_update": "20190329",
                "engine_version": "1.1.1.5",
                "method": "blacklist",
                "result": "DeepScan:Generic.Nimda.57EDAF37"
            },
            "AVG": {
                "category": "malicious",
                "engine_name": "AVG",
                "engine_update": "20190329",
                "engine_version": "18.4.3895.0",
                "method": "blacklist",
                "result": "Win32:Banker-NBH [Trj]"
            },
            "Acronis": {
                "category": "malicious",
                "engine_name": "Acronis",
                "engine_update": "20190327",
                "engine_version": "1.0.1.44",
                "method": "blacklist",
                "result": "suspicious"
            },
            "Ad-Aware": {
                "category": "malicious",
                "engine_name": "Ad-Aware",
                "engine_update": "20190329",
                "engine_version": "3.0.5.370",
                "method": "blacklist",
                "result": "DeepScan:Generic.Nimda.57EDAF37"
            },
            "AegisLab": {
                "category": "malicious",
                "engine_name": "AegisLab",
                "engine_update": "20190329",
                "engine_version": "4.2",
                "method": "blacklist",
                "result": "Trojan.Win32.Dinwod.tn6p"
            },
            "AhnLab-V3": {
                "category": "malicious",
                "engine_name": "AhnLab-V3",
                "engine_update": "20190329",
                "engine_version": "3.15.0.23609",
                "method": "blacklist",
                "result": "Trojan/Win32.OnlineGameHack.C33730"
            },
            "Alibaba": {
                "category": "undetected",
                "engine_name": "Alibaba",
                "engine_update": "20190306",
                "engine_version": "0.2.0.3",
                "method": "blacklist",
                "result": null
            },
            "Antiy-AVL": {
                "category": "malicious",
                "engine_name": "Antiy-AVL",
                "engine_update": "20190329",
                "engine_version": "3.0.0.1",
                "method": "blacklist",
                "result": "Worm[NET]/Win32.Nimda.gic"
            },
            "Arcabit": {
                "category": "malicious",
                "engine_name": "Arcabit",
                "engine_update": "20190329",
                "engine_version": "1.0.0.844",
                "method": "blacklist",
                "result": "DeepScan:Generic.Nimda.57EDAF37"
            },
            "Avast": {
                "category": "malicious",
                "engine_name": "Avast",
                "engine_update": "20190329",
                "engine_version": "18.4.3895.0",
                "method": "blacklist",
                "result": "Win32:Banker-NBH [Trj]"
            },
            "Avast-Mobile": {
                "category": "undetected",
                "engine_name": "Avast-Mobile",
                "engine_update": "20190329",
                "engine_version": "190329-00",
                "method": "blacklist",
                "result": null
            },
            "Avira": {
                "category": "malicious",
                "engine_name": "Avira",
                "engine_update": "20190329",
                "engine_version": "8.3.3.8",
                "method": "blacklist",
                "result": "TR/Spy.Gen"
            },
            "Babable": {
                "category": "undetected",
                "engine_name": "Babable",
                "engine_update": "20180918",
                "engine_version": "9107201",
                "method": "blacklist",
                "result": null
            },
            "Baidu": {
                "category": "malicious",
                "engine_name": "Baidu",
                "engine_update": "20190318",
                "engine_version": "1.0.0.2",
                "method": "blacklist",
                "result": "Win32.Trojan.Agent.acb"
            },
            "BitDefender": {
                "category": "malicious",
                "engine_name": "BitDefender",
                "engine_update": "20190329",
                "engine_version": "7.2",
                "method": "blacklist",
                "result": "DeepScan:Generic.Nimda.57EDAF37"
            },
            "Bkav": {
                "category": "malicious",
                "engine_name": "Bkav",
                "engine_update": "20190329",
                "engine_version": "1.3.0.9899",
                "method": "blacklist",
                "result": "W32.FamVT.DinwoodAATTC.Worm"
            },
            "CAT-QuickHeal": {
                "category": "malicious",
                "engine_name": "CAT-QuickHeal",
                "engine_update": "20190329",
                "engine_version": "14.00",
                "method": "blacklist",
                "result": "Trojan.Zenshirsh.SL7"
            },
            "CMC": {
                "category": "undetected",
                "engine_name": "CMC",
                "engine_update": "20190321",
                "engine_version": "1.1.0.977",
                "method": "blacklist",
                "result": null
            },
            "ClamAV": {
                "category": "malicious",
                "engine_name": "ClamAV",
                "engine_update": "20190329",
                "engine_version": "0.101.2.0",
                "method": "blacklist",
                "result": "Win.Worm.Allaple-5"
            },
            "Comodo": {
                "category": "malicious",
                "engine_name": "Comodo",
                "engine_update": "20190329",
                "engine_version": "30644",
                "method": "blacklist",
                "result": "TrojWare.Win32.TrojanDropper.Dinwod.A@5vqtjo"
            },
            "CrowdStrike": {
                "category": "malicious",
                "engine_name": "CrowdStrike",
                "engine_update": "20190212",
                "engine_version": "1.0",
                "method": "blacklist",
                "result": "win/malicious_confidence_100% (D)"
            },
            "Cybereason": {
                "category": "malicious",
                "engine_name": "Cybereason",
                "engine_update": "20190327",
                "engine_version": "1.2.449",
                "method": "blacklist",
                "result": "malicious.59f772"
            },
            "Cylance": {
                "category": "malicious",
                "engine_name": "Cylance",
                "engine_update": "20190329",
                "engine_version": "2.3.1.101",
                "method": "blacklist",
                "result": "Unsafe"
            },
            "Cyren": {
                "category": "malicious",
                "engine_name": "Cyren",
                "engine_update": "20190329",
                "engine_version": "6.2.0.1",
                "method": "blacklist",
                "result": "W32/S-f9cb8831!Eldorado"
            },
            "DrWeb": {
                "category": "malicious",
                "engine_name": "DrWeb",
                "engine_update": "20190329",
                "engine_version": "7.0.34.11020",
                "method": "blacklist",
                "result": "Trojan.Inject1.58305"
            },
            "ESET-NOD32": {
                "category": "malicious",
                "engine_name": "ESET-NOD32",
                "engine_update": "20190329",
                "engine_version": "19109",
                "method": "blacklist",
                "result": "a variant of Win32/Agent.XFC"
            },
            "Emsisoft": {
                "category": "malicious",
                "engine_name": "Emsisoft",
                "engine_update": "20190329",
                "engine_version": "2018.4.0.1029",
                "method": "blacklist",
                "result": "DeepScan:Generic.Nimda.57EDAF37 (B)"
            },
            "Endgame": {
                "category": "malicious",
                "engine_name": "Endgame",
                "engine_update": "20190322",
                "engine_version": "3.0.8",
                "method": "blacklist",
                "result": "malicious (moderate confidence)"
            },
            "F-Prot": {
                "category": "malicious",
                "engine_name": "F-Prot",
                "engine_update": "20190329",
                "engine_version": "4.7.1.166",
                "method": "blacklist",
                "result": "W32/S-f9cb8831!Eldorado"
            },
            "F-Secure": {
                "category": "malicious",
                "engine_name": "F-Secure",
                "engine_update": "20190329",
                "engine_version": "12.0.86.52",
                "method": "blacklist",
                "result": "Trojan.TR/Spy.Gen"
            },
            "FireEye": {
                "category": "malicious",
                "engine_name": "FireEye",
                "engine_update": "20190329",
                "engine_version": "29.7.0.0",
                "method": "blacklist",
                "result": "Generic.mg.20236c659f77214e"
            },
            "Fortinet": {
                "category": "malicious",
                "engine_name": "Fortinet",
                "engine_update": "20190329",
                "engine_version": "5.4.247.0",
                "method": "blacklist",
                "result": "W32/Agent.ZXF!tr"
            },
            "GData": {
                "category": "malicious",
                "engine_name": "GData",
                "engine_update": "20190329",
                "engine_version": "A:25.21322B:25.14721",
                "method": "blacklist",
                "result": "Win32.Trojan.Agent.WP"
            },
            "Ikarus": {
                "category": "malicious",
                "engine_name": "Ikarus",
                "engine_update": "20190329",
                "engine_version": "0.1.5.2",
                "method": "blacklist",
                "result": "Trojan.Win32.Agent"
            },
            "Invincea": {
                "category": "malicious",
                "engine_name": "Invincea",
                "engine_update": "20190313",
                "engine_version": "6.3.6.26157",
                "method": "blacklist",
                "result": "heuristic"
            },
            "Jiangmin": {
                "category": "malicious",
                "engine_name": "Jiangmin",
                "engine_update": "20190329",
                "engine_version": "16.0.100",
                "method": "blacklist",
                "result": "TrojanDropper.Dinwod.ale"
            },
            "K7AntiVirus": {
                "category": "malicious",
                "engine_name": "K7AntiVirus",
                "engine_update": "20190329",
                "engine_version": "11.35.30444",
                "method": "blacklist",
                "result": "Trojan ( 000aef511 )"
            },
            "K7GW": {
                "category": "malicious",
                "engine_name": "K7GW",
                "engine_update": "20190329",
                "engine_version": "11.35.30444",
                "method": "blacklist",
                "result": "Trojan ( 000aef511 )"
            },
            "Kaspersky": {
                "category": "malicious",
                "engine_name": "Kaspersky",
                "engine_update": "20190329",
                "engine_version": "15.0.1.13",
                "method": "blacklist",
                "result": "Trojan-Dropper.Win32.Dinwod.acqn"
            },
            "Kingsoft": {
                "category": "undetected",
                "engine_name": "Kingsoft",
                "engine_update": "20190329",
                "engine_version": "2013.8.14.323",
                "method": "blacklist",
                "result": null
            },
            "MAX": {
                "category": "malicious",
                "engine_name": "MAX",
                "engine_update": "20190329",
                "engine_version": "2018.9.12.1",
                "method": "blacklist",
                "result": "malware (ai score=89)"
            },
            "Malwarebytes": {
                "category": "malicious",
                "engine_name": "Malwarebytes",
                "engine_update": "20190329",
                "engine_version": "2.1.1.1115",
                "method": "blacklist",
                "result": "Trojan.Dropper"
            },
            "McAfee": {
                "category": "malicious",
                "engine_name": "McAfee",
                "engine_update": "20190329",
                "engine_version": "6.0.6.653",
                "method": "blacklist",
                "result": "Dropper-FVF!20236C659F77"
            },
            "McAfee-GW-Edition": {
                "category": "malicious",
                "engine_name": "McAfee-GW-Edition",
                "engine_update": "20190329",
                "engine_version": "v2017.3010",
                "method": "blacklist",
                "result": "BehavesLike.Win32.Dropper.th"
            },
            "MicroWorld-eScan": {
                "category": "malicious",
                "engine_name": "MicroWorld-eScan",
                "engine_update": "20190329",
                "engine_version": "14.0.297.0",
                "method": "blacklist",
                "result": "DeepScan:Generic.Nimda.57EDAF37"
            },
            "Microsoft": {
                "category": "malicious",
                "engine_name": "Microsoft",
                "engine_update": "20190329",
                "engine_version": "1.1.15800.1",
                "method": "blacklist",
                "result": "Backdoor:MSIL/Bladabindi.AJ"
            },
            "NANO-Antivirus": {
                "category": "malicious",
                "engine_name": "NANO-Antivirus",
                "engine_update": "20190329",
                "engine_version": "1.0.134.24576",
                "method": "blacklist",
                "result": "Trojan.Win32.Dinwod.ejafor"
            },
            "Paloalto": {
                "category": "undetected",
                "engine_name": "Paloalto",
                "engine_update": "20190329",
                "engine_version": "1.0",
                "method": "blacklist",
                "result": null
            },
            "Panda": {
                "category": "undetected",
                "engine_name": "Panda",
                "engine_update": "20190329",
                "engine_version": "4.6.4.2",
                "method": "blacklist",
                "result": null
            },
            "Qihoo-360": {
                "category": "malicious",
                "engine_name": "Qihoo-360",
                "engine_update": "20190329",
                "engine_version": "1.0.0.1120",
                "method": "blacklist",
                "result": "HEUR/QVM18.1.2C47.Malware.Gen"
            },
            "Rising": {
                "category": "malicious",
                "engine_name": "Rising",
                "engine_update": "20190329",
                "engine_version": "25.0.0.24",
                "method": "blacklist",
                "result": "Trojan.Waski!1.A489 (RDM+:cmRtazqREQIWeIs9yfGMzonwXFEj)"
            },
            "SUPERAntiSpyware": {
                "category": "malicious",
                "engine_name": "SUPERAntiSpyware",
                "engine_update": "20190327",
                "engine_version": "5.6.0.1032",
                "method": "blacklist",
                "result": "Trojan.Agent/Gen-Dropper"
            },
            "SentinelOne": {
                "category": "malicious",
                "engine_name": "SentinelOne",
                "engine_update": "20190317",
                "engine_version": "1.0.24.302",
                "method": "blacklist",
                "result": "DFI - Malicious PE"
            },
            "Sophos": {
                "category": "malicious",
                "engine_name": "Sophos",
                "engine_update": "20190329",
                "engine_version": "4.98.0",
                "method": "blacklist",
                "result": "Troj/Eydrop-A"
            },
            "Symantec": {
                "category": "malicious",
                "engine_name": "Symantec",
                "engine_update": "20190329",
                "engine_version": "1.8.0.0",
                "method": "blacklist",
                "result": "Trojan.Gen"
            },
            "SymantecMobileInsight": {
                "category": "type-unsupported",
                "engine_name": "SymantecMobileInsight",
                "engine_update": "20190325",
                "engine_version": "2.0",
                "method": "blacklist",
                "result": null
            },
            "TACHYON": {
                "category": "malicious",
                "engine_name": "TACHYON",
                "engine_update": "20190329",
                "engine_version": "2019-03-29.02",
                "method": "blacklist",
                "result": "Trojan-Dropper/W32.Dinwod.Zen"
            },
            "Tencent": {
                "category": "malicious",
                "engine_name": "Tencent",
                "engine_update": "20190329",
                "engine_version": "1.0.0.1",
                "method": "blacklist",
                "result": "Trojan.Win32.GameteaSpy.a"
            },
            "TheHacker": {
                "category": "malicious",
                "engine_name": "TheHacker",
                "engine_update": "20190327",
                "engine_version": "6.8.0.5.4106",
                "method": "blacklist",
                "result": "Trojan/Agent.xfc"
            },
            "TotalDefense": {
                "category": "malicious",
                "engine_name": "TotalDefense",
                "engine_update": "20190327",
                "engine_version": "37.1.62.1",
                "method": "blacklist",
                "result": "Win32/Oflwr.A!crypt"
            },
            "Trapmine": {
                "category": "malicious",
                "engine_name": "Trapmine",
                "engine_update": "20190325",
                "engine_version": "3.1.52.760",
                "method": "blacklist",
                "result": "malicious.high.ml.score"
            },
            "TrendMicro": {
                "category": "malicious",
                "engine_name": "TrendMicro",
                "engine_update": "20190329",
                "engine_version": "10.0.0.1040",
                "method": "blacklist",
                "result": "TSPY_EYDROP.SMA"
            },
            "TrendMicro-HouseCall": {
                "category": "malicious",
                "engine_name": "TrendMicro-HouseCall",
                "engine_update": "20190329",
                "engine_version": "10.0.0.1040",
                "method": "blacklist",
                "result": "TSPY_EYDROP.SMA"
            },
            "Trustlook": {
                "category": "undetected",
                "engine_name": "Trustlook",
                "engine_update": "20190329",
                "engine_version": "1.0",
                "method": "blacklist",
                "result": null
            },
            "VBA32": {
                "category": "malicious",
                "engine_name": "VBA32",
                "engine_update": "20190329",
                "engine_version": "4.0.0",
                "method": "blacklist",
                "result": "TrojanDropper.Dinwod"
            },
            "VIPRE": {
                "category": "malicious",
                "engine_name": "VIPRE",
                "engine_update": "20190329",
                "engine_version": "74058",
                "method": "blacklist",
                "result": "Trojan.Win32.Agent.xfc (v)"
            },
            "ViRobot": {
                "category": "malicious",
                "engine_name": "ViRobot",
                "engine_update": "20190329",
                "engine_version": "2014.3.20.0",
                "method": "blacklist",
                "result": "Trojan.Win32.Agent.69310"
            },
            "Webroot": {
                "category": "malicious",
                "engine_name": "Webroot",
                "engine_update": "20190329",
                "engine_version": "1.0.0.403",
                "method": "blacklist",
                "result": "W32.Trojan.Agent.Gen"
            },
            "Yandex": {
                "category": "malicious",
                "engine_name": "Yandex",
                "engine_update": "20190329",
                "engine_version": "5.5.1.3",
                "method": "blacklist",
                "result": "Trojan.DR.Dinwod!dCCk6/8cSJk"
            },
            "Zillya": {
                "category": "malicious",
                "engine_name": "Zillya",
                "engine_update": "20190329",
                "engine_version": "2.0.0.3785",
                "method": "blacklist",
                "result": "Dropper.DinwodGen.Win32.1"
            },
            "ZoneAlarm": {
                "category": "malicious",
                "engine_name": "ZoneAlarm",
                "engine_update": "20190329",
                "engine_version": "1.0",
                "method": "blacklist",
                "result": "Trojan-Dropper.Win32.Dinwod.acqn"
            },
            "Zoner": {
                "category": "undetected",
                "engine_name": "Zoner",
                "engine_update": "20190328",
                "engine_version": "1.0",
                "method": "blacklist",
                "result": null
            },
            "eGambit": {
                "category": "malicious",
                "engine_name": "eGambit",
                "engine_update": "20190329",
                "engine_version": "v4.3.6",
                "method": "blacklist",
                "result": "Unsafe.AI_Score_91%"
            }
        },
        "last_analysis_stats": {
            "confirmed-timeout": 0,
            "failure": 0,
            "harmless": 0,
            "malicious": 63,
            "suspicious": 0,
            "timeout": 0,
            "type-unsupported": 1,
            "undetected": 9
        },
        "last_modification_date": 1553887236,
        "last_submission_date": 1553886821,
        "magic": "PE32 executable for MS Windows (GUI) Intel 80386 32-bit",
        "md5": "20236c659f77214e0d6f488d77cd7fcb",
        "names": [],
        "packers": {
            "F-PROT": "UPX_LZMA",
            "PEiD": "UPX 2.93 [LZMA] -> Markus Oberhumer, Laszlo Molnar & John Reiser"
        },
        "pe_info": {
            "entry_point": 149056,
            "imphash": "406c785a6e2c6970c1e8ed62877e197b",
            "import_list": [
                {
                    "imported_functions": [
                        "atoi"
                    ],
                    "library_name": "MSVCRT.dll"
                },
                {
                    "imported_functions": [
                        "VirtualFree",
                        "ExitProcess",
                        "VirtualProtect",
                        "LoadLibraryA",
                        "VirtualAlloc",
                        "GetProcAddress"
                    ],
                    "library_name": "KERNEL32.DLL"
                },
                {
                    "imported_functions": [
                        "PathFileExistsA"
                    ],
                    "library_name": "SHLWAPI.dll"
                },
                {
                    "imported_functions": [
                        "wsprintfA"
                    ],
                    "library_name": "USER32.dll"
                }
            ],
            "machine_type": 332,
            "overlay": {
                "chi2": 21668806.0,
                "entropy": 6.6339521408081055,
                "filetype": "data",
                "md5": "ec515228d27a154f730b6e6af71decbe",
                "offset": 43008,
                "size": 1977149
            },
            "sections": [
                {
                    "entropy": 0.0,
                    "md5": "d41d8cd98f00b204e9800998ecf8427e",
                    "name": "UPX0",
                    "raw_size": 0,
                    "virtual_address": 4096,
                    "virtual_size": 106496
                },
                {
                    "entropy": 7.97,
                    "md5": "f7aa81250ba37869900138a6b59a55ec",
                    "name": "UPX1",
                    "raw_size": 41472,
                    "virtual_address": 110592,
                    "virtual_size": 45056
                },
                {
                    "entropy": 2.93,
                    "md5": "acb8e418c691779c7059b0a8588cc9c4",
                    "name": "UPX2",
                    "raw_size": 512,
                    "virtual_address": 155648,
                    "virtual_size": 4096
                }
            ],
            "timestamp": 1422330987
        },
        "reputation": 0,
        "sha1": "c5075e50510acee55df8fcea13a00b7bf80292a4",
        "sha256": "00012ea8546e57fe3d0e72d9808b70aa52c77090b2128495d38889f906741462",
        "size": 2020157,
        "ssdeep": "24576:gC8d36kLBXlnB8j7v5Ta+hLLQ20JmXSeWwa1oWJQjk0svTS/PPsbb1hwRj2:gCOfN6X5tLLQTg20ITS/PPs/1ky",
        "tags": [
            "peexe",
            "upx",
            "overlay"
        ],
        "times_submitted": 1,
        "total_votes": {
            "harmless": 0,
            "malicious": 0
        },
        "trid": [
            {
                "file_type": "Windows ActiveX control",
                "probability": 39.1
            },
            {
                "file_type": "InstallShield setup",
                "probability": 14.4
            },
            {
                "file_type": "Win64 Executable (generic)",
                "probability": 9.2
            },
            {
                "file_type": "UPX compressed Win32 Executable",
                "probability": 9.0
            },
            {
                "file_type": "Win32 EXE Yoda's Crypter",
                "probability": 8.9
            }
        ],
        "type_description": "Win32 EXE",
        "type_extension": "exe",
        "type_tag": "peexe",
        "unique_sources": 1,
        "vhash": "02603e0f7d1bz601hz11z1fz"
    },
    "id": "00012ea8546e57fe3d0e72d9808b70aa52c77090b2128495d38889f906741462",
    "links": {
        "self": "https://www.virustotal.com/api/v3/files/00012ea8546e57fe3d0e72d9808b70aa52c77090b2128495d38889f906741462"
    },
    "type": "file"
}