{
    "attributes": {
        "authentihash": "bbcc0e3a48e86900017b4a0108b7ac20eee8c775c1468d49d3f53102e9808f50",
        "creation_date": 708992537,
        "first_submission_date": 1536874891,
        "last_analysis_date": 1536874891,
        "last_analysis_results": {
            "ALYac": {
                "category": "undetected",
                "engine_name": "ALYac",
                "engine_update": "20180913",
                "engine_version": "1.1.1.5",
                "method": "blacklist",
                "result": null
            },
            "AVG": {
                "category": "undetected",
                "engine_name": "AVG",
                "engine_update": "20180913",
                "engine_version": "18.4.3895.0",
                "method": "blacklist",
                "result": null
            },
            "AVware": {
                "category": "malicious",
                "engine_name": "AVware",
                "engine_update": "20180913",
                "engine_version": "1.6.0.52",
                "method": "blacklist",
                "result": "Trojan.Win32.Generic!BT"
            },
            "Ad-Aware": {
                "category": "malicious",
                "engine_name": "Ad-Aware",
                "engine_update": "20180913",
                "engine_version": "3.0.5.370",
                "method": "blacklist",
                "result": "Application.DealAgent.AAQN"
            },
            "AegisLab": {
                "category": "undetected",
                "engine_name": "AegisLab",
                "engine_update": "20180913",
                "engine_version": "4.2",
                "method": "blacklist",
                "result": null
            },
            "AhnLab-V3": {
                "category": "malicious",
                "engine_name": "AhnLab-V3",
                "engine_update": "20180913",
                "engine_version": "3.13.1.21616",
                "method": "blacklist",
                "result": "PUP/Win32.DealPly.R236087"
            },
            "Alibaba": {
                "category": "type-unsupported",
                "engine_name": "Alibaba",
                "engine_update": "20180713",
                "engine_version": "1.0",
                "method": "blacklist",
                "result": null
            },
            "Antiy-AVL": {
                "category": "undetected",
                "engine_name": "Antiy-AVL",
                "engine_update": "20180913",
                "engine_version": "3.0.0.1",
                "method": "blacklist",
                "result": null
            },
            "Arcabit": {
                "category": "malicious",
                "engine_name": "Arcabit",
                "engine_update": "20180913",
                "engine_version": "1.0.0.833",
                "method": "blacklist",
                "result": "Application.DealAgent.AAQN"
            },
            "Avast": {
                "category": "undetected",
                "engine_name": "Avast",
                "engine_update": "20180913",
                "engine_version": "18.4.3895.0",
                "method": "blacklist",
                "result": null
            },
            "Avast-Mobile": {
                "category": "undetected",
                "engine_name": "Avast-Mobile",
                "engine_update": "20180913",
                "engine_version": "180912-06",
                "method": "blacklist",
                "result": null
            },
            "Avira": {
                "category": "undetected",
                "engine_name": "Avira",
                "engine_update": "20180913",
                "engine_version": "8.3.3.6",
                "method": "blacklist",
                "result": null
            },
            "Babable": {
                "category": "undetected",
                "engine_name": "Babable",
                "engine_update": "20180907",
                "engine_version": "9107201",
                "method": "blacklist",
                "result": null
            },
            "Baidu": {
                "category": "undetected",
                "engine_name": "Baidu",
                "engine_update": "20180912",
                "engine_version": "1.0.0.2",
                "method": "blacklist",
                "result": null
            },
            "BitDefender": {
                "category": "malicious",
                "engine_name": "BitDefender",
                "engine_update": "20180913",
                "engine_version": "7.2",
                "method": "blacklist",
                "result": "Application.DealAgent.AAQN"
            },
            "Bkav": {
                "category": "malicious",
                "engine_name": "Bkav",
                "engine_update": "20180912",
                "engine_version": "1.3.0.8876",
                "method": "blacklist",
                "result": "W32.HfsAdware.2FEB"
            },
            "CAT-QuickHeal": {
                "category": "malicious",
                "engine_name": "CAT-QuickHeal",
                "engine_update": "20180912",
                "engine_version": "14.00",
                "method": "blacklist",
                "result": "PUA.Echangneti3.Gen"
            },
            "CMC": {
                "category": "undetected",
                "engine_name": "CMC",
                "engine_update": "20180913",
                "engine_version": "1.1.0.977",
                "method": "blacklist",
                "result": null
            },
            "ClamAV": {
                "category": "undetected",
                "engine_name": "ClamAV",
                "engine_update": "20180913",
                "engine_version": "0.100.1.0",
                "method": "blacklist",
                "result": null
            },
            "Comodo": {
                "category": "undetected",
                "engine_name": "Comodo",
                "engine_update": "20180913",
                "engine_version": null,
                "method": "blacklist",
                "result": null
            },
            "CrowdStrike": {
                "category": "malicious",
                "engine_name": "CrowdStrike",
                "engine_update": "20180723",
                "engine_version": "1.0",
                "method": "blacklist",
                "result": "malicious_confidence_100% (D)"
            },
            "Cybereason": {
                "category": "malicious",
                "engine_name": "Cybereason",
                "engine_update": "20180225",
                "engine_version": "1.2.27",
                "method": "blacklist",
                "result": "malicious.ba7b83"
            },
            "Cylance": {
                "category": "undetected",
                "engine_name": "Cylance",
                "engine_update": "20180913",
                "engine_version": "2.3.1.101",
                "method": "blacklist",
                "result": null
            },
            "Cyren": {
                "category": "malicious",
                "engine_name": "Cyren",
                "engine_update": "20180913",
                "engine_version": "6.0.0.4",
                "method": "blacklist",
                "result": "W32/Application.AYRA-0382"
            },
            "DrWeb": {
                "category": "undetected",
                "engine_name": "DrWeb",
                "engine_update": "20180913",
                "engine_version": "7.0.33.6080",
                "method": "blacklist",
                "result": null
            },
            "ESET-NOD32": {
                "category": "malicious",
                "engine_name": "ESET-NOD32",
                "engine_update": "20180913",
                "engine_version": "18046",
                "method": "blacklist",
                "result": "Win32/InstallCore.Gen.A potentially unwanted"
            },
            "Emsisoft": {
                "category": "malicious",
                "engine_name": "Emsisoft",
                "engine_update": "20180913",
                "engine_version": "2018.4.0.1029",
                "method": "blacklist",
                "result": "Application.InstallCore (A)"
            },
            "Endgame": {
                "category": "malicious",
                "engine_name": "Endgame",
                "engine_update": "20180730",
                "engine_version": "3.0.1",
                "method": "blacklist",
                "result": "malicious (high confidence)"
            },
            "F-Prot": {
                "category": "undetected",
                "engine_name": "F-Prot",
                "engine_update": "20180913",
                "engine_version": "4.7.1.166",
                "method": "blacklist",
                "result": null
            },
            "F-Secure": {
                "category": "malicious",
                "engine_name": "F-Secure",
                "engine_update": "20180913",
                "engine_version": "11.0.19100.45",
                "method": "blacklist",
                "result": "Application.DealAgent.AAQN"
            },
            "Fortinet": {
                "category": "malicious",
                "engine_name": "Fortinet",
                "engine_update": "20180913",
                "engine_version": "5.4.247.0",
                "method": "blacklist",
                "result": "W32/Install_Core.A"
            },
            "GData": {
                "category": "malicious",
                "engine_name": "GData",
                "engine_update": "20180913",
                "engine_version": "A:25.18492B:25.13205",
                "method": "blacklist",
                "result": "Win32.Application.InstallCore.CR"
            },
            "Ikarus": {
                "category": "undetected",
                "engine_name": "Ikarus",
                "engine_update": "20180913",
                "engine_version": "0.1.5.2",
                "method": "blacklist",
                "result": null
            },
            "Invincea": {
                "category": "malicious",
                "engine_name": "Invincea",
                "engine_update": "20180717",
                "engine_version": "6.3.5.26121",
                "method": "blacklist",
                "result": "heuristic"
            },
            "Jiangmin": {
                "category": "undetected",
                "engine_name": "Jiangmin",
                "engine_update": "20180912",
                "engine_version": "16.0.100",
                "method": "blacklist",
                "result": null
            },
            "K7AntiVirus": {
                "category": "malicious",
                "engine_name": "K7AntiVirus",
                "engine_update": "20180913",
                "engine_version": "11.2.28386",
                "method": "blacklist",
                "result": "Adware ( 0053accc1 )"
            },
            "K7GW": {
                "category": "malicious",
                "engine_name": "K7GW",
                "engine_update": "20180913",
                "engine_version": "11.2.28379",
                "method": "blacklist",
                "result": "Adware ( 0053accc1 )"
            },
            "Kaspersky": {
                "category": "malicious",
                "engine_name": "Kaspersky",
                "engine_update": "20180913",
                "engine_version": "15.0.1.13",
                "method": "blacklist",
                "result": "not-a-virus:AdWare.Win32.DealPly.drywb"
            },
            "Kingsoft": {
                "category": "undetected",
                "engine_name": "Kingsoft",
                "engine_update": "20180913",
                "engine_version": "2013.8.14.323",
                "method": "blacklist",
                "result": null
            },
            "MAX": {
                "category": "malicious",
                "engine_name": "MAX",
                "engine_update": "20180913",
                "engine_version": "2018.9.12.1",
                "method": "blacklist",
                "result": "malware (ai score=73)"
            },
            "Malwarebytes": {
                "category": "malicious",
                "engine_name": "Malwarebytes",
                "engine_update": "20180913",
                "engine_version": "2.1.1.1115",
                "method": "blacklist",
                "result": "PUP.Optional.InstallCore.Generic"
            },
            "McAfee": {
                "category": "malicious",
                "engine_name": "McAfee",
                "engine_update": "20180913",
                "engine_version": "6.0.6.653",
                "method": "blacklist",
                "result": "Artemis!7665A94AE9D0"
            },
            "McAfee-GW-Edition": {
                "category": "malicious",
                "engine_name": "McAfee-GW-Edition",
                "engine_update": "20180913",
                "engine_version": "v2017.3010",
                "method": "blacklist",
                "result": "Artemis"
            },
            "MicroWorld-eScan": {
                "category": "malicious",
                "engine_name": "MicroWorld-eScan",
                "engine_update": "20180913",
                "engine_version": "14.0.297.0",
                "method": "blacklist",
                "result": "Application.DealAgent.AAQN"
            },
            "Microsoft": {
                "category": "malicious",
                "engine_name": "Microsoft",
                "engine_update": "20180913",
                "engine_version": "1.1.15200.1",
                "method": "blacklist",
                "result": "PUA:Win32/InstallCore"
            },
            "NANO-Antivirus": {
                "category": "malicious",
                "engine_name": "NANO-Antivirus",
                "engine_update": "20180913",
                "engine_version": "1.0.126.23745",
                "method": "blacklist",
                "result": "Virus.Win32.Gen.ccmw"
            },
            "Paloalto": {
                "category": "undetected",
                "engine_name": "Paloalto",
                "engine_update": "20180913",
                "engine_version": "1.0",
                "method": "blacklist",
                "result": null
            },
            "Panda": {
                "category": "malicious",
                "engine_name": "Panda",
                "engine_update": "20180913",
                "engine_version": "4.6.4.2",
                "method": "blacklist",
                "result": "PUP/DownloadAssistant"
            },
            "Qihoo-360": {
                "category": "malicious",
                "engine_name": "Qihoo-360",
                "engine_update": "20180913",
                "engine_version": "1.0.0.1120",
                "method": "blacklist",
                "result": "HEUR/QVM06.1.D8B5.Malware.Gen"
            },
            "Rising": {
                "category": "malicious",
                "engine_name": "Rising",
                "engine_update": "20180913",
                "engine_version": "25.0.0.24",
                "method": "blacklist",
                "result": "Adware.InstallCore!1.A30C (CLOUD)"
            },
            "SUPERAntiSpyware": {
                "category": "malicious",
                "engine_name": "SUPERAntiSpyware",
                "engine_update": "20180907",
                "engine_version": "5.6.0.1032",
                "method": "blacklist",
                "result": "PUP.Bundler/Variant"
            },
            "SentinelOne": {
                "category": "malicious",
                "engine_name": "SentinelOne",
                "engine_update": "20180830",
                "engine_version": "1.0.19.234",
                "method": "blacklist",
                "result": "static engine - malicious"
            },
            "Sophos": {
                "category": "malicious",
                "engine_name": "Sophos",
                "engine_update": "20180913",
                "engine_version": "4.98.0",
                "method": "blacklist",
                "result": "Install Core (PUA)"
            },
            "Symantec": {
                "category": "malicious",
                "engine_name": "Symantec",
                "engine_update": "20180913",
                "engine_version": "1.7.0.0",
                "method": "blacklist",
                "result": "ML.Attribute.HighConfidence"
            },
            "SymantecMobileInsight": {
                "category": "type-unsupported",
                "engine_name": "SymantecMobileInsight",
                "engine_update": "20180911",
                "engine_version": "2.0",
                "method": "blacklist",
                "result": null
            },
            "TACHYON": {
                "category": "undetected",
                "engine_name": "TACHYON",
                "engine_update": "20180913",
                "engine_version": "2018-09-13.02",
                "method": "blacklist",
                "result": null
            },
            "Tencent": {
                "category": "undetected",
                "engine_name": "Tencent",
                "engine_update": "20180913",
                "engine_version": "1.0.0.1",
                "method": "blacklist",
                "result": null
            },
            "TheHacker": {
                "category": "undetected",
                "engine_name": "TheHacker",
                "engine_update": "20180913",
                "engine_version": "6.8.0.5.3692",
                "method": "blacklist",
                "result": null
            },
            "TotalDefense": {
                "category": "undetected",
                "engine_name": "TotalDefense",
                "engine_update": "20180913",
                "engine_version": "37.1.62.1",
                "method": "blacklist",
                "result": null
            },
            "TrendMicro": {
                "category": "undetected",
                "engine_name": "TrendMicro",
                "engine_update": "20180913",
                "engine_version": "10.0.0.1040",
                "method": "blacklist",
                "result": null
            },
            "TrendMicro-HouseCall": {
                "category": "malicious",
                "engine_name": "TrendMicro-HouseCall",
                "engine_update": "20180913",
                "engine_version": "9.950.0.1006",
                "method": "blacklist",
                "result": "TROJ_GEN.R004H0CID18"
            },
            "Trustlook": {
                "category": "type-unsupported",
                "engine_name": "Trustlook",
                "engine_update": "20180913",
                "engine_version": "2",
                "method": "blacklist",
                "result": null
            },
            "VBA32": {
                "category": "undetected",
                "engine_name": "VBA32",
                "engine_update": "20180913",
                "engine_version": "3.33.0",
                "method": "blacklist",
                "result": null
            },
            "VIPRE": {
                "category": "malicious",
                "engine_name": "VIPRE",
                "engine_update": "20180913",
                "engine_version": "69560",
                "method": "blacklist",
                "result": "Trojan.Win32.Generic!BT"
            },
            "ViRobot": {
                "category": "undetected",
                "engine_name": "ViRobot",
                "engine_update": "20180913",
                "engine_version": "2014.3.20.0",
                "method": "blacklist",
                "result": null
            },
            "Webroot": {
                "category": "malicious",
                "engine_name": "Webroot",
                "engine_update": "20180913",
                "engine_version": "1.0.0.403",
                "method": "blacklist",
                "result": "W32.Adware.Gen"
            },
            "Yandex": {
                "category": "malicious",
                "engine_name": "Yandex",
                "engine_update": "20180912",
                "engine_version": "5.5.1.3",
                "method": "blacklist",
                "result": "PUA.DealPly!"
            },
            "Zillya": {
                "category": "malicious",
                "engine_name": "Zillya",
                "engine_update": "20180913",
                "engine_version": "2.0.0.3638",
                "method": "blacklist",
                "result": "Dropper.Injector.Win32.84874"
            },
            "ZoneAlarm": {
                "category": "malicious",
                "engine_name": "ZoneAlarm",
                "engine_update": "20180913",
                "engine_version": "1.0",
                "method": "blacklist",
                "result": "not-a-virus:AdWare.Win32.DealPly.drywb"
            },
            "Zoner": {
                "category": "undetected",
                "engine_name": "Zoner",
                "engine_update": "20180913",
                "engine_version": "1.0",
                "method": "blacklist",
                "result": null
            },
            "eGambit": {
                "category": "undetected",
                "engine_name": "eGambit",
                "engine_update": "20180913",
                "engine_version": null,
                "method": "blacklist",
                "result": null
            }
        },
        "last_analysis_stats": {
            "confirmed-timeout": 0,
            "failure": 0,
            "harmless": 0,
            "malicious": 40,
            "suspicious": 0,
            "timeout": 0,
            "type-unsupported": 3,
            "undetected": 28
        },
        "last_modification_date": 1536998416,
        "last_submission_date": 1536874891,
        "magic": "PE32 executable for MS Windows (GUI) Intel 80386 32-bit",
        "md5": "7665a94ae9d0ea0c7e556f76628719f0",
        "meaningful_name": "7665a94ae9d0ea0c7e556f76628719f0.virus",
        "names": [
            "7665a94ae9d0ea0c7e556f76628719f0.virus"
        ],
        "packers": {
            "F-PROT": "INNO, appended"
        },
        "pe_info": {
            "entry_point": 43672,
            "imphash": "2fb819a19fe4dee5c03e8c6a79342f79",
            "import_list": [
                {
                    "imported_functions": [
                        "LookupPrivilegeValueA",
                        "RegCloseKey",
                        "OpenProcessToken",
                        "RegQueryValueExA",
                        "AdjustTokenPrivileges",
                        "RegOpenKeyExA"
                    ],
                    "library_name": "advapi32.dll"
                },
                {
                    "imported_functions": [
                        "GetSystemTime",
                        "GetLastError",
                        "GetEnvironmentVariableA",
                        "GetStdHandle",
                        "EnterCriticalSection",
                        "GetUserDefaultLangID",
                        "GetSystemInfo",
                        "GetFileAttributesA",
                        "GetExitCodeProcess",
                        "ExitProcess",
                        "CreateDirectoryA",
                        "VirtualProtect",
                        "GetVersionExA",
                        "RemoveDirectoryA",
                        "RtlUnwind",
                        "LoadLibraryA",
                        "GetACP",
                        "DeleteCriticalSection",
                        "GetCurrentProcess",
                        "SizeofResource",
                        "GetLocaleInfoA",
                        "LocalAlloc",
                        "LockResource",
                        "IsDBCSLeadByte",
                        "DeleteFileA",
                        "GetWindowsDirectoryA",
                        "GetSystemDefaultLCID",
                        "SetErrorMode",
                        "MultiByteToWideChar",
                        "GetCommandLineA",
                        "GetProcAddress",
                        "FormatMessageA",
                        "SetFilePointer",
                        "RaiseException",
                        "WideCharToMultiByte",
                        "GetModuleHandleA",
                        "ReadFile",
                        "InterlockedExchange",
                        "WriteFile",
                        "CloseHandle",
                        "GetSystemDirectoryA",
                        "GetFullPathNameA",
                        "LocalFree",
                        "CreateProcessA",
                        "GetModuleFileNameA",
                        "InitializeCriticalSection",
                        "LoadResource",
                        "VirtualQuery",
                        "VirtualFree",
                        "TlsGetValue",
                        "Sleep",
                        "GetFileType",
                        "SetEndOfFile",
                        "TlsSetValue",
                        "CreateFileA",
                        "GetVersion",
                        "FindResourceA",
                        "VirtualAlloc",
                        "GetFileSize",
                        "SetLastError",
                        "LeaveCriticalSection"
                    ],
                    "library_name": "kernel32.dll"
                },
                {
                    "imported_functions": [
                        "SysStringLen",
                        "SysAllocStringLen",
                        "VariantCopyInd",
                        "VariantClear",
                        "VariantChangeTypeEx"
                    ],
                    "library_name": "oleaut32.dll"
                },
                {
                    "imported_functions": [
                        "CharPrevA",
                        "CreateWindowExA",
                        "LoadStringA",
                        "DispatchMessageA",
                        "CallWindowProcA",
                        "MessageBoxA",
                        "PeekMessageA",
                        "SetWindowLongA",
                        "MsgWaitForMultipleObjects",
                        "TranslateMessage",
                        "ExitWindowsEx",
                        "DestroyWindow"
                    ],
                    "library_name": "user32.dll"
                },
                {
                    "imported_functions": [
                        "InitCommonControls"
                    ],
                    "library_name": "comctl32.dll"
                }
            ],
            "machine_type": 332,
            "overlay": {
                "chi2": 495.469970703125,
                "entropy": 7.999772071838379,
                "filetype": "data",
                "md5": "d2f490a20b8e1e6e9cd3e329e6e30abc",
                "offset": 164352,
                "size": 1529384
            },
            "resource_details": [
                {
                    "chi2": 12058.2802734375,
                    "entropy": 5.905205249786377,
                    "filetype": "data",
                    "lang": "ENGLISH US",
                    "sha256": "25dec5695d2031dfc49d7fc5ef73f5402aec12d0a6df6414b5088a1d0d3b13fc",
                    "type": "RT_ICON"
                },
                {
                    "chi2": 27794.1953125,
                    "entropy": 5.878968715667725,
                    "filetype": "data",
                    "lang": "ENGLISH US",
                    "sha256": "858d573c985b23fce52bdb954ab727fd553638d0bfb08b4e70e3b70c968cfe67",
                    "type": "RT_ICON"
                },
                {
                    "chi2": 131551.828125,
                    "entropy": 5.551814556121826,
                    "filetype": "data",
                    "lang": "ENGLISH US",
                    "sha256": "d8bb3bc99864513a3dfdc2606bccdfa62ad440ed7a73b8999f5bdd54c8e7aff2",
                    "type": "RT_ICON"
                },
                {
                    "chi2": 179853.296875,
                    "entropy": 5.523332595825195,
                    "filetype": "data",
                    "lang": "ENGLISH US",
                    "sha256": "62bca2ac61ce58c75189ae0a21913da1606850855840b2b42371f7cef3da271b",
                    "type": "RT_ICON"
                },
                {
                    "chi2": 292420.53125,
                    "entropy": 5.044492721557617,
                    "filetype": "data",
                    "lang": "ENGLISH US",
                    "sha256": "aea095766943b4c521cbf5b4beb3187339946df735884958a20c5ede90e69710",
                    "type": "RT_ICON"
                },
                {
                    "chi2": 973059.9375,
                    "entropy": 5.461164474487305,
                    "filetype": "data",
                    "lang": "ENGLISH US",
                    "sha256": "190424e5d0736951d972b0ae51795bacd919a9e0820b94723c1542bf9194b696",
                    "type": "RT_ICON"
                },
                {
                    "chi2": 50619.171875,
                    "entropy": 3.2182302474975586,
                    "filetype": "ASCII text",
                    "lang": "NEUTRAL",
                    "sha256": "2c0d32398e3c95657a577c044cc32fe24fa058d0c32e13099b26fd678de8354f",
                    "type": "RT_STRING"
                },
                {
                    "chi2": 51892.32421875,
                    "entropy": 3.3151519298553467,
                    "filetype": "ASCII text",
                    "lang": "NEUTRAL",
                    "sha256": "840989e0a92f2746ae60b8e3efc1a39bcca17e82df3634c1643d76141fc75bb3",
                    "type": "RT_STRING"
                },
                {
                    "chi2": 48819.046875,
                    "entropy": 3.2502353191375732,
                    "filetype": "ASCII text",
                    "lang": "NEUTRAL",
                    "sha256": "26bda4da3649a575157a6466468a0a86944756643855954120fd715f3c9c7f78",
                    "type": "RT_STRING"
                },
                {
                    "chi2": 8147.07568359375,
                    "entropy": 2.861488103866577,
                    "filetype": "ASCII text",
                    "lang": "NEUTRAL",
                    "sha256": "d786490af7fe66042fb4a7d52023f5a1442f9b5e65d067b9093d1a128a6af34c",
                    "type": "RT_STRING"
                },
                {
                    "chi2": 12952.791015625,
                    "entropy": 3.2073094844818115,
                    "filetype": "ASCII text",
                    "lang": "NEUTRAL",
                    "sha256": "00a0794f0a493c167f64ed8b119d49bdc59f76bb35e5c295dc047095958ee2fd",
                    "type": "RT_STRING"
                },
                {
                    "chi2": 12155.1923828125,
                    "entropy": 3.0459179878234863,
                    "filetype": "ASCII text",
                    "lang": "NEUTRAL",
                    "sha256": "34973a8a33b90ec734bd328198311f579666d5aeb04c94f469ebb822689de3c3",
                    "type": "RT_STRING"
                },
                {
                    "chi2": 793.8179931640625,
                    "entropy": 4.505472660064697,
                    "filetype": "data",
                    "lang": "NEUTRAL",
                    "sha256": "0aa7e685402b9c29322a8fbe1102916f539f240a0e13d78c21a1481f35a09320",
                    "type": "RT_RCDATA"
                },
                {
                    "chi2": 6139.33203125,
                    "entropy": 3.05660343170166,
                    "filetype": "data",
                    "lang": "ENGLISH US",
                    "sha256": "3bc16d0db2393c9e7f2ffd96a7442621e54f6f6d4312e1eb6cf5abab44a171f1",
                    "type": "RT_GROUP_ICON"
                },
                {
                    "chi2": 113423.1953125,
                    "entropy": 2.6014091968536377,
                    "filetype": "data",
                    "lang": "ENGLISH US",
                    "sha256": "cf825a2bde2e522d00c0e04831065dde56a3e1328e80b7e9f59cef9285130227",
                    "type": "RT_VERSION"
                },
                {
                    "chi2": 16758.3515625,
                    "entropy": 5.139651775360107,
                    "filetype": "ASCII text",
                    "lang": "NEUTRAL",
                    "sha256": "356ca8abf11d97bf9dcbff47c04bf1ddcb8685ef84d38e6850ec6c28a37655b9",
                    "type": "RT_MANIFEST"
                }
            ],
            "resource_langs": {
                "ENGLISH US": 8,
                "NEUTRAL": 8
            },
            "resource_types": {
                "RT_GROUP_ICON": 1,
                "RT_ICON": 6,
                "RT_MANIFEST": 1,
                "RT_RCDATA": 1,
                "RT_STRING": 6,
                "RT_VERSION": 1
            },
            "sections": [
                {
                    "entropy": 6.63,
                    "md5": "ec3f09f4d6e96b1c0b58f371fabc0e18",
                    "name": "CODE",
                    "raw_size": 41472,
                    "virtual_address": 4096,
                    "virtual_size": 41424
                },
                {
                    "entropy": 2.74,
                    "md5": "9b2268ed5360951559d8041925d025fb",
                    "name": "DATA",
                    "raw_size": 1024,
                    "virtual_address": 49152,
                    "virtual_size": 592
                },
                {
                    "entropy": 0.0,
                    "md5": "d41d8cd98f00b204e9800998ecf8427e",
                    "name": "BSS",
                    "raw_size": 0,
                    "virtual_address": 53248,
                    "virtual_size": 3732
                },
                {
                    "entropy": 4.49,
                    "md5": "df5f31e62e05c787fd29eed7071bf556",
                    "name": ".idata",
                    "raw_size": 2560,
                    "virtual_address": 57344,
                    "virtual_size": 2428
                },
                {
                    "entropy": 0.0,
                    "md5": "d41d8cd98f00b204e9800998ecf8427e",
                    "name": ".tls",
                    "raw_size": 0,
                    "virtual_address": 61440,
                    "virtual_size": 8
                },
                {
                    "entropy": 0.19,
                    "md5": "14dfa4128117e7f94fe2f8d7dea374a0",
                    "name": ".rdata",
                    "raw_size": 512,
                    "virtual_address": 65536,
                    "virtual_size": 24
                },
                {
                    "entropy": 0.0,
                    "md5": "d41d8cd98f00b204e9800998ecf8427e",
                    "name": ".reloc",
                    "raw_size": 0,
                    "virtual_address": 69632,
                    "virtual_size": 2332
                },
                {
                    "entropy": 5.52,
                    "md5": "d2d5010afaf2f6ca160ff0a7fec62742",
                    "name": ".rsrc",
                    "raw_size": 117760,
                    "virtual_address": 73728,
                    "virtual_size": 117448
                }
            ],
            "timestamp": 708992537
        },
        "reputation": 0,
        "sha1": "50b8f17ba7b832920f24be3249121e9696b19dc6",
        "sha256": "0001332613218ba5589e48dd866f4ac6a580a1e3d6c842338a099a6fab426381",
        "signature_info": {
            "comments": "This installation was built with Inno Setup.",
            "copyright": "Buhona                                                                                              ",
            "description": "Hibabihok Setup                                             ",
            "file version": "1.8.5.5             ",
            "product": "Hibabihok                                                   ",
            "signers": "eCHANG Net Inc.; thawte SHA256 Code Signing CA; thawte",
            "signers details": [
                {
                    "algorithm": "sha256RSA",
                    "cert issuer": "thawte SHA256 Code Signing CA",
                    "name": "eCHANG Net Inc.",
                    "serial number": "51 8C 1B 6A 2A 0A E2 EF 0C 65 51 01 B0 D8 66 19",
                    "status": "Valid",
                    "thumbprint": "6225B9F0F3B6669CD869FEE2510B3795EF484D6D",
                    "valid from": "1:00 AM 2/22/2018",
                    "valid to": "12:59 AM 2/23/2019",
                    "valid usage": "Code Signing"
                },
                {
                    "algorithm": "sha256RSA",
                    "cert issuer": "thawte Primary Root CA",
                    "name": "thawte SHA256 Code Signing CA",
                    "serial number": "71 A0 B7 36 95 DD B1 AF C2 3B 2B 9A 18 EE 54 CB",
                    "status": "Valid",
                    "thumbprint": "D00CFDBF46C98A838BC10DC4E097AE0152C461BC",
                    "valid from": "1:00 AM 12/10/2013",
                    "valid to": "12:59 AM 12/10/2023",
                    "valid usage": "Client Auth, Code Signing"
                },
                {
                    "algorithm": "sha1RSA",
                    "cert issuer": "thawte Primary Root CA",
                    "name": "thawte",
                    "serial number": "34 4E D5 57 20 D5 ED EC 49 F4 2F CE 37 DB 2B 6D",
                    "status": "Valid",
                    "thumbprint": "91C6D6EE3E8AC86384E548C299295C756C817B81",
                    "valid from": "1:00 AM 11/17/2006",
                    "valid to": "12:59 AM 7/17/2036",
                    "valid usage": "Server Auth, Client Auth, Email Protection, Code Signing"
                }
            ],
            "verified": "Signed"
        },
        "size": 1693736,
        "ssdeep": "49152:975EBwJJTk8K4/gsaPHvZstVd8KCjg4D20pMeLh:l5EBwJJTk8jgtPHGtVdmD9pLLh",
        "tags": [
            "peexe",
            "signed",
            "overlay"
        ],
        "times_submitted": 1,
        "total_votes": {
            "harmless": 0,
            "malicious": 0
        },
        "trid": [
            {
                "file_type": "Inno Setup installer",
                "probability": 80.3
            },
            {
                "file_type": "Win32 Executable Delphi generic",
                "probability": 10.3
            },
            {
                "file_type": "Win32 Executable (generic)",
                "probability": 3.3
            },
            {
                "file_type": "Win16/32 Executable Delphi generic",
                "probability": 1.5
            },
            {
                "file_type": "OS/2 Executable (generic)",
                "probability": 1.4
            }
        ],
        "type_description": "Win32 EXE",
        "type_extension": "exe",
        "type_tag": "peexe",
        "unique_sources": 1,
        "vhash": "0160866d1c0d1c051505505016z1c9z5bz1fz"
    },
    "id": "0001332613218ba5589e48dd866f4ac6a580a1e3d6c842338a099a6fab426381",
    "links": {
        "self": "https://www.virustotal.com/api/v3/files/0001332613218ba5589e48dd866f4ac6a580a1e3d6c842338a099a6fab426381"
    },
    "type": "file"
}