{
    "attributes": {
        "authentihash": "a3d6b66d2f8c5f28b8f8657602b23f4f0520e9d09150d5b12ef348c75d82dbf8",
        "creation_date": 1389936969,
        "first_submission_date": 1548207667,
        "last_analysis_date": 1548207667,
        "last_analysis_results": {
            "ALYac": {
                "category": "malicious",
                "engine_name": "ALYac",
                "engine_update": "20190122",
                "engine_version": "1.1.1.5",
                "method": "blacklist",
                "result": "Gen:Variant.Ulise.902"
            },
            "AVG": {
                "category": "malicious",
                "engine_name": "AVG",
                "engine_update": "20190122",
                "engine_version": "18.4.3895.0",
                "method": "blacklist",
                "result": "Win32:Agent-ATFY [Trj]"
            },
            "AVware": {
                "category": "undetected",
                "engine_name": "AVware",
                "engine_update": "20180925",
                "engine_version": "1.6.0.52",
                "method": "blacklist",
                "result": null
            },
            "Acronis": {
                "category": "malicious",
                "engine_name": "Acronis",
                "engine_update": "20190119",
                "engine_version": "1.0.1.37",
                "method": "blacklist",
                "result": "suspicious"
            },
            "Ad-Aware": {
                "category": "malicious",
                "engine_name": "Ad-Aware",
                "engine_update": "20190122",
                "engine_version": "3.0.5.370",
                "method": "blacklist",
                "result": "Gen:Variant.Ulise.902"
            },
            "AegisLab": {
                "category": "undetected",
                "engine_name": "AegisLab",
                "engine_update": "20190122",
                "engine_version": "4.2",
                "method": "blacklist",
                "result": null
            },
            "AhnLab-V3": {
                "category": "malicious",
                "engine_name": "AhnLab-V3",
                "engine_update": "20190122",
                "engine_version": "3.14.1.22785",
                "method": "blacklist",
                "result": "Trojan/Win32.Fsysna.R97433"
            },
            "Alibaba": {
                "category": "undetected",
                "engine_name": "Alibaba",
                "engine_update": "20180921",
                "engine_version": "0.1.0.2",
                "method": "blacklist",
                "result": null
            },
            "Antiy-AVL": {
                "category": "malicious",
                "engine_name": "Antiy-AVL",
                "engine_update": "20190122",
                "engine_version": "3.0.0.1",
                "method": "blacklist",
                "result": "Trojan/Win32.Fsysna"
            },
            "Arcabit": {
                "category": "malicious",
                "engine_name": "Arcabit",
                "engine_update": "20190122",
                "engine_version": "1.0.0.837",
                "method": "blacklist",
                "result": "Trojan.Ulise.902"
            },
            "Avast": {
                "category": "malicious",
                "engine_name": "Avast",
                "engine_update": "20190122",
                "engine_version": "18.4.3895.0",
                "method": "blacklist",
                "result": "Win32:Agent-ATFY [Trj]"
            },
            "Avast-Mobile": {
                "category": "undetected",
                "engine_name": "Avast-Mobile",
                "engine_update": "20190122",
                "engine_version": "190122-00",
                "method": "blacklist",
                "result": null
            },
            "Avira": {
                "category": "malicious",
                "engine_name": "Avira",
                "engine_update": "20190122",
                "engine_version": "8.3.3.8",
                "method": "blacklist",
                "result": "TR/Dldr.Delphi.Gen3"
            },
            "Babable": {
                "category": "undetected",
                "engine_name": "Babable",
                "engine_update": "20180917",
                "engine_version": "9107201",
                "method": "blacklist",
                "result": null
            },
            "Baidu": {
                "category": "undetected",
                "engine_name": "Baidu",
                "engine_update": "20190121",
                "engine_version": "1.0.0.2",
                "method": "blacklist",
                "result": null
            },
            "BitDefender": {
                "category": "malicious",
                "engine_name": "BitDefender",
                "engine_update": "20190122",
                "engine_version": "7.2",
                "method": "blacklist",
                "result": "Gen:Variant.Ulise.902"
            },
            "Bkav": {
                "category": "malicious",
                "engine_name": "Bkav",
                "engine_update": "20190122",
                "engine_version": "1.3.0.9899",
                "method": "blacklist",
                "result": "W32.LodWondiwMV.PE"
            },
            "CAT-QuickHeal": {
                "category": "malicious",
                "engine_name": "CAT-QuickHeal",
                "engine_update": "20190122",
                "engine_version": "14.00",
                "method": "blacklist",
                "result": "Trojan.Dynamer.S2039290"
            },
            "CMC": {
                "category": "undetected",
                "engine_name": "CMC",
                "engine_update": "20190122",
                "engine_version": "1.1.0.977",
                "method": "blacklist",
                "result": null
            },
            "ClamAV": {
                "category": "malicious",
                "engine_name": "ClamAV",
                "engine_update": "20190122",
                "engine_version": "0.101.1.0",
                "method": "blacklist",
                "result": "Win.Malware.Ulise-6804628-0"
            },
            "Comodo": {
                "category": "malicious",
                "engine_name": "Comodo",
                "engine_update": "20190122",
                "engine_version": "30315",
                "method": "blacklist",
                "result": "TrojWare.Win32.PSW.Delf.OJX@7y59yi"
            },
            "CrowdStrike": {
                "category": "malicious",
                "engine_name": "CrowdStrike",
                "engine_update": "20181023",
                "engine_version": "1.0",
                "method": "blacklist",
                "result": "malicious_confidence_100% (D)"
            },
            "Cybereason": {
                "category": "malicious",
                "engine_name": "Cybereason",
                "engine_update": "20190109",
                "engine_version": "1.2.27",
                "method": "blacklist",
                "result": "malicious.c9fac9"
            },
            "Cylance": {
                "category": "malicious",
                "engine_name": "Cylance",
                "engine_update": "20190122",
                "engine_version": "2.3.1.101",
                "method": "blacklist",
                "result": "Unsafe"
            },
            "Cyren": {
                "category": "malicious",
                "engine_name": "Cyren",
                "engine_update": "20190122",
                "engine_version": "6.2.0.1",
                "method": "blacklist",
                "result": "W32/Delfo.A.gen!Eldorado"
            },
            "DrWeb": {
                "category": "malicious",
                "engine_name": "DrWeb",
                "engine_update": "20190122",
                "engine_version": "7.0.34.11020",
                "method": "blacklist",
                "result": "Trojan.Siggen6.6048"
            },
            "ESET-NOD32": {
                "category": "malicious",
                "engine_name": "ESET-NOD32",
                "engine_update": "20190122",
                "engine_version": "18751",
                "method": "blacklist",
                "result": "a variant of Win32/PSW.Delf.OJX"
            },
            "Emsisoft": {
                "category": "malicious",
                "engine_name": "Emsisoft",
                "engine_update": "20190122",
                "engine_version": "2018.4.0.1029",
                "method": "blacklist",
                "result": "Gen:Variant.Ulise.902 (B)"
            },
            "Endgame": {
                "category": "malicious",
                "engine_name": "Endgame",
                "engine_update": "20181108",
                "engine_version": "3.0.2",
                "method": "blacklist",
                "result": "malicious (high confidence)"
            },
            "F-Prot": {
                "category": "malicious",
                "engine_name": "F-Prot",
                "engine_update": "20190122",
                "engine_version": "4.7.1.166",
                "method": "blacklist",
                "result": "W32/Delfo.A.gen!Eldorado"
            },
            "F-Secure": {
                "category": "malicious",
                "engine_name": "F-Secure",
                "engine_update": "20190122",
                "engine_version": "11.0.19100.45",
                "method": "blacklist",
                "result": "Gen:Variant.Ulise.902"
            },
            "Fortinet": {
                "category": "malicious",
                "engine_name": "Fortinet",
                "engine_update": "20190122",
                "engine_version": "5.4.247.0",
                "method": "blacklist",
                "result": "W32/Delf.OJX!tr.pws"
            },
            "GData": {
                "category": "malicious",
                "engine_name": "GData",
                "engine_update": "20190122",
                "engine_version": "A:25.20286B:25.14206",
                "method": "blacklist",
                "result": "Gen:Variant.Ulise.902"
            },
            "Ikarus": {
                "category": "malicious",
                "engine_name": "Ikarus",
                "engine_update": "20190122",
                "engine_version": "0.1.5.2",
                "method": "blacklist",
                "result": "Trojan.Win32.Fsysna"
            },
            "Invincea": {
                "category": "malicious",
                "engine_name": "Invincea",
                "engine_update": "20181128",
                "engine_version": "6.3.6.26157",
                "method": "blacklist",
                "result": "heuristic"
            },
            "Jiangmin": {
                "category": "malicious",
                "engine_name": "Jiangmin",
                "engine_update": "20190122",
                "engine_version": "16.0.100",
                "method": "blacklist",
                "result": "Trojan.Generic.cadsn"
            },
            "K7AntiVirus": {
                "category": "malicious",
                "engine_name": "K7AntiVirus",
                "engine_update": "20190122",
                "engine_version": "11.24.29754",
                "method": "blacklist",
                "result": "Password-Stealer ( 004d80a21 )"
            },
            "K7GW": {
                "category": "malicious",
                "engine_name": "K7GW",
                "engine_update": "20190122",
                "engine_version": "11.24.29754",
                "method": "blacklist",
                "result": "Password-Stealer ( 004d80a21 )"
            },
            "Kaspersky": {
                "category": "malicious",
                "engine_name": "Kaspersky",
                "engine_update": "20190122",
                "engine_version": "15.0.1.13",
                "method": "blacklist",
                "result": "HEUR:Trojan.Win32.Generic"
            },
            "Kingsoft": {
                "category": "malicious",
                "engine_name": "Kingsoft",
                "engine_update": "20190122",
                "engine_version": "2013.8.14.323",
                "method": "blacklist",
                "result": "Win32.Troj.Fsysna.j.(kcloud)"
            },
            "MAX": {
                "category": "malicious",
                "engine_name": "MAX",
                "engine_update": "20190122",
                "engine_version": "2018.9.12.1",
                "method": "blacklist",
                "result": "malware (ai score=87)"
            },
            "Malwarebytes": {
                "category": "malicious",
                "engine_name": "Malwarebytes",
                "engine_update": "20190122",
                "engine_version": "2.1.1.1115",
                "method": "blacklist",
                "result": "Trojan.Injector"
            },
            "McAfee": {
                "category": "malicious",
                "engine_name": "McAfee",
                "engine_update": "20190122",
                "engine_version": "6.0.6.653",
                "method": "blacklist",
                "result": "GenericRXGG-UX!D1EBDD8C9FAC"
            },
            "McAfee-GW-Edition": {
                "category": "malicious",
                "engine_name": "McAfee-GW-Edition",
                "engine_update": "20190122",
                "engine_version": "v2017.3010",
                "method": "blacklist",
                "result": "BehavesLike.Win32.Generic.th"
            },
            "MicroWorld-eScan": {
                "category": "malicious",
                "engine_name": "MicroWorld-eScan",
                "engine_update": "20190122",
                "engine_version": "14.0.297.0",
                "method": "blacklist",
                "result": "Gen:Variant.Ulise.902"
            },
            "Microsoft": {
                "category": "malicious",
                "engine_name": "Microsoft",
                "engine_update": "20190122",
                "engine_version": "1.1.15500.2",
                "method": "blacklist",
                "result": "Trojan:Win32/Fuerboos.D!cl"
            },
            "NANO-Antivirus": {
                "category": "malicious",
                "engine_name": "NANO-Antivirus",
                "engine_update": "20190122",
                "engine_version": "1.0.134.24576",
                "method": "blacklist",
                "result": "Trojan.Win32.Fsysna.csrqtx"
            },
            "Paloalto": {
                "category": "undetected",
                "engine_name": "Paloalto",
                "engine_update": "20190122",
                "engine_version": "1.0",
                "method": "blacklist",
                "result": null
            },
            "Panda": {
                "category": "malicious",
                "engine_name": "Panda",
                "engine_update": "20190122",
                "engine_version": "4.6.4.2",
                "method": "blacklist",
                "result": "Trj/Genetic.gen"
            },
            "Qihoo-360": {
                "category": "malicious",
                "engine_name": "Qihoo-360",
                "engine_update": "20190122",
                "engine_version": "1.0.0.1120",
                "method": "blacklist",
                "result": "HEUR/QVM05.1.BA93.Malware.Gen"
            },
            "Rising": {
                "category": "malicious",
                "engine_name": "Rising",
                "engine_update": "20190122",
                "engine_version": "25.0.0.24",
                "method": "blacklist",
                "result": "Stealer.Delf!8.415 (RDM+:cmRtazpivNwSoem+WbFq4npbdRyq)"
            },
            "SUPERAntiSpyware": {
                "category": "malicious",
                "engine_name": "SUPERAntiSpyware",
                "engine_update": "20190116",
                "engine_version": "5.6.0.1032",
                "method": "blacklist",
                "result": "Trojan.Agent/Gen-Siggen"
            },
            "SentinelOne": {
                "category": "undetected",
                "engine_name": "SentinelOne",
                "engine_update": "20190118",
                "engine_version": "1.0.21.268",
                "method": "blacklist",
                "result": null
            },
            "Sophos": {
                "category": "malicious",
                "engine_name": "Sophos",
                "engine_update": "20190122",
                "engine_version": "4.98.0",
                "method": "blacklist",
                "result": "Troj/Agent-AZWH"
            },
            "Symantec": {
                "category": "malicious",
                "engine_name": "Symantec",
                "engine_update": "20190122",
                "engine_version": "1.8.0.0",
                "method": "blacklist",
                "result": "ML.Attribute.HighConfidence"
            },
            "TACHYON": {
                "category": "malicious",
                "engine_name": "TACHYON",
                "engine_update": "20190122",
                "engine_version": "2019-01-23.01",
                "method": "blacklist",
                "result": "Trojan/W32.DP-Agent.1572864.E"
            },
            "Tencent": {
                "category": "undetected",
                "engine_name": "Tencent",
                "engine_update": "20190122",
                "engine_version": "1.0.0.1",
                "method": "blacklist",
                "result": null
            },
            "TheHacker": {
                "category": "malicious",
                "engine_name": "TheHacker",
                "engine_update": "20190118",
                "engine_version": "6.8.0.5.3962",
                "method": "blacklist",
                "result": "Trojan/Delf.ojx"
            },
            "TotalDefense": {
                "category": "undetected",
                "engine_name": "TotalDefense",
                "engine_update": "20190122",
                "engine_version": "37.1.62.1",
                "method": "blacklist",
                "result": null
            },
            "Trapmine": {
                "category": "malicious",
                "engine_name": "Trapmine",
                "engine_update": "20190102",
                "engine_version": "3.0.34.707",
                "method": "blacklist",
                "result": "malicious.moderate.ml.score"
            },
            "TrendMicro": {
                "category": "malicious",
                "engine_name": "TrendMicro",
                "engine_update": "20190122",
                "engine_version": "10.0.0.1040",
                "method": "blacklist",
                "result": "TROJ_GEN.R002C0PAC19"
            },
            "TrendMicro-HouseCall": {
                "category": "malicious",
                "engine_name": "TrendMicro-HouseCall",
                "engine_update": "20190122",
                "engine_version": "10.0.0.1040",
                "method": "blacklist",
                "result": "TROJ_GEN.R002C0PAC19"
            },
            "Trustlook": {
                "category": "undetected",
                "engine_name": "Trustlook",
                "engine_update": "20190122",
                "engine_version": "1.0",
                "method": "blacklist",
                "result": null
            },
            "VBA32": {
                "category": "malicious",
                "engine_name": "VBA32",
                "engine_update": "20190122",
                "engine_version": "3.35.1",
                "method": "blacklist",
                "result": "Trojan.Fsysna"
            },
            "ViRobot": {
                "category": "undetected",
                "engine_name": "ViRobot",
                "engine_update": "20190122",
                "engine_version": "2014.3.20.0",
                "method": "blacklist",
                "result": null
            },
            "Webroot": {
                "category": "undetected",
                "engine_name": "Webroot",
                "engine_update": "20190122",
                "engine_version": "1.0.0.403",
                "method": "blacklist",
                "result": null
            },
            "Yandex": {
                "category": "undetected",
                "engine_name": "Yandex",
                "engine_update": "20190122",
                "engine_version": "5.5.1.3",
                "method": "blacklist",
                "result": null
            },
            "Zillya": {
                "category": "malicious",
                "engine_name": "Zillya",
                "engine_update": "20190122",
                "engine_version": "2.0.0.3735",
                "method": "blacklist",
                "result": "Trojan.Delf.Win32.67775"
            },
            "ZoneAlarm": {
                "category": "malicious",
                "engine_name": "ZoneAlarm",
                "engine_update": "20190122",
                "engine_version": "1.0",
                "method": "blacklist",
                "result": "HEUR:Trojan.Win32.Generic"
            },
            "Zoner": {
                "category": "undetected",
                "engine_name": "Zoner",
                "engine_update": "20190122",
                "engine_version": "1.0",
                "method": "blacklist",
                "result": null
            },
            "eGambit": {
                "category": "undetected",
                "engine_name": "eGambit",
                "engine_update": "20190122",
                "engine_version": "v4.3.5",
                "method": "blacklist",
                "result": null
            }
        },
        "last_analysis_stats": {
            "confirmed-timeout": 0,
            "failure": 0,
            "harmless": 0,
            "malicious": 54,
            "suspicious": 0,
            "timeout": 0,
            "type-unsupported": 0,
            "undetected": 17
        },
        "last_modification_date": 1548207832,
        "last_submission_date": 1548207667,
        "magic": "PE32 executable for MS Windows (GUI) Intel 80386 32-bit",
        "md5": "d1ebdd8c9fac9e2be3d879a1857c6be0",
        "meaningful_name": "d1ebdd8c9fac9e2be3d879a1857c6be0.virus",
        "names": [
            "d1ebdd8c9fac9e2be3d879a1857c6be0.virus"
        ],
        "packers": {
            "PEiD": "BobSoft Mini Delphi -> BoB / BobSoft"
        },
        "pe_info": {
            "entry_point": 1172440,
            "imphash": "90488dd1d2c66b8c42e6abbfcbb47a3d",
            "import_list": [
                {
                    "imported_functions": [
                        "VariantChangeType",
                        "SafeArrayGetLBound",
                        "SafeArrayPtrOfIndex",
                        "SysAllocStringLen",
                        "VariantClear",
                        "GetActiveObject",
                        "SafeArrayCreate",
                        "SysReAllocStringLen",
                        "SafeArrayGetUBound",
                        "VariantCopy",
                        "GetErrorInfo",
                        "SysFreeString",
                        "VariantInit"
                    ],
                    "library_name": "oleaut32.dll"
                },
                {
                    "imported_functions": [
                        "URLDownloadToFileW"
                    ],
                    "library_name": "URLMON.DLL"
                },
                {
                    "imported_functions": [
                        "VerQueryValueW",
                        "GetFileVersionInfoW",
                        "GetFileVersionInfoSizeW"
                    ],
                    "library_name": "version.dll"
                },
                {
                    "imported_functions": [
                        "CheckSumMappedFile"
                    ],
                    "library_name": "IMAGEHLP.DLL"
                },
                {
                    "imported_functions": [
                        "DeleteUrlCacheEntryW"
                    ],
                    "library_name": "wininet.dll"
                },
                {
                    "imported_functions": [
                        "SetDIBits",
                        "GetTextMetricsW",
                        "SetMapMode",
                        "GetWindowOrgEx",
                        "GetPaletteEntries",
                        "CopyEnhMetaFileW",
                        "SetPixel",
                        "EndDoc",
                        "IntersectClipRect",
                        "CreatePalette",
                        "CreateDIBitmap",
                        "GetDIBits",
                        "GetEnhMetaFileBits",
                        "GetDCOrgEx",
                        "StretchBlt",
                        "StretchDIBits",
                        "Pie",
                        "Arc",
                        "SetBkColor",
                        "SetWinMetaFileBits",
                        "GetDIBColorTable",
                        "DeleteEnhMetaFile",
                        "CreateFontIndirectW",
                        "SetStretchBltMode",
                        "EnumFontsW",
                        "GetCurrentPositionEx",
                        "LPtoDP",
                        "GetPixel",
                        "GetBrushOrgEx",
                        "ExcludeClipRect",
                        "SetBkMode",
                        "BitBlt",
                        "CreateEnhMetaFileW",
                        "SetAbortProc",
                        "FrameRgn",
                        "CreateBrushIndirect",
                        "SelectPalette",
                        "CloseEnhMetaFile",
                        "SetROP2",
                        "EndPage",
                        "AbortDoc",
                        "SetDIBColorTable",
                        "DeleteObject",
                        "CreatePenIndirect",
                        "PatBlt",
                        "GetClipBox",
                        "Rectangle",
                        "GetDeviceCaps",
                        "LineTo",
                        "DeleteDC",
                        "GetSystemPaletteEntries",
                        "StartPage",
                        "GetObjectW",
                        "CreateDCW",
                        "RealizePalette",
                        "SetEnhMetaFileBits",
                        "CreateBitmap",
                        "RectVisible",
                        "GetStockObject",
                        "PlayEnhMetaFile",
                        "UnrealizeObject",
                        "GdiFlush",
                        "RoundRect",
                        "GetWinMetaFileBits",
                        "GetEnhMetaFileDescriptionW",
                        "GetEnhMetaFileHeader",
                        "SetWindowOrgEx",
                        "GetTextExtentPoint32W",
                        "Polygon",
                        "CreateHalftonePalette",
                        "GetRgnBox",
                        "SaveDC",
                        "CreateICW",
                        "MaskBlt",
                        "GetEnhMetaFilePaletteEntries",
                        "RestoreDC",
                        "GetBitmapBits",
                        "CreateDIBSection",
                        "SetTextColor",
                        "ExtFloodFill",
                        "MoveToEx",
                        "EnumFontFamiliesExW",
                        "SetViewportOrgEx",
                        "ExtTextOutW",
                        "CreateCompatibleDC",
                        "PolyBezierTo",
                        "PolyBezier",
                        "Chord",
                        "SetBrushOrgEx",
                        "CreateRectRgn",
                        "SelectObject",
                        "CreateCompatibleBitmap",
                        "CreateSolidBrush",
                        "Polyline",
                        "StartDocW",
                        "Ellipse"
                    ],
                    "library_name": "gdi32.dll"
                },
                {
                    "imported_functions": [
                        "SHGetSpecialFolderLocation",
                        "ShellExecuteW",
                        "SHGetPathFromIDListW",
                        "SHGetFileInfoW",
                        "ExtractAssociatedIconW"
                    ],
                    "library_name": "shell32.dll"
                },
                {
                    "imported_functions": [
                        "SetThreadLocale",
                        "GetStdHandle",
                        "FileTimeToDosDateTime",
                        "ReleaseMutex",
                        "WaitForSingleObject",
                        "SignalObjectAndWait",
                        "GetFileAttributesW",
                        "GetLocalTime",
                        "DeleteCriticalSection",
                        "GetCurrentProcess",
                        "OpenFileMappingW",
                        "LocalAlloc",
                        "MapViewOfFileEx",
                        "SetErrorMode",
                        "GetLocaleInfoW",
                        "EnumResourceLanguagesW",
                        "WideCharToMultiByte",
                        "LoadLibraryW",
                        "GetDiskFreeSpaceW",
                        "InterlockedExchange",
                        "WriteFile",
                        "GetThreadPriority",
                        "SetEvent",
                        "LocalFree",
                        "FormatMessageW",
                        "ResumeThread",
                        "InitializeCriticalSection",
                        "LoadResource",
                        "GetStringTypeExW",
                        "FindClose",
                        "TlsGetValue",
                        "MoveFileW",
                        "SetFileAttributesW",
                        "GetStringTypeExA",
                        "GetCurrentThread",
                        "SetLastError",
                        "GetUserDefaultUILanguage",
                        "InterlockedDecrement",
                        "GlobalFindAtomW",
                        "lstrcpynW",
                        "UpdateResourceW",
                        "GetModuleFileNameW",
                        "TryEnterCriticalSection",
                        "IsDebuggerPresent",
                        "ExitProcess",
                        "FlushViewOfFile",
                        "InterlockedExchangeAdd",
                        "SetThreadPriority",
                        "GetUserDefaultLCID",
                        "UnhandledExceptionFilter",
                        "LoadLibraryExW",
                        "MultiByteToWideChar",
                        "EnumCalendarInfoW",
                        "GetFullPathNameW",
                        "GlobalAddAtomW",
                        "CreateThread",
                        "GetSystemDefaultUILanguage",
                        "GetExitCodeThread",
                        "CreateMutexW",
                        "MulDiv",
                        "ExitThread",
                        "WaitForMultipleObjectsEx",
                        "TerminateProcess",
                        "GetVersion",
                        "VirtualQuery",
                        "VirtualQueryEx",
                        "SetEndOfFile",
                        "GetCurrentThreadId",
                        "InterlockedIncrement",
                        "EnterCriticalSection",
                        "lstrcmpiA",
                        "EndUpdateResourceW",
                        "GetVersionExW",
                        "FreeLibrary",
                        "QueryPerformanceCounter",
                        "GetTickCount",
                        "LoadLibraryA",
                        "RtlUnwind",
                        "CopyFileW",
                        "GlobalSize",
                        "GetStartupInfoA",
                        "GetFileSize",
                        "OpenProcess",
                        "GetDateFormatW",
                        "CreateDirectoryW",
                        "DeleteFileW",
                        "GetProcAddress",
                        "GetComputerNameW",
                        "EnumResourceNamesW",
                        "CompareStringW",
                        "lstrcpyW",
                        "BeginUpdateResourceW",
                        "FindNextFileW",
                        "ResetEvent",
                        "FindFirstFileW",
                        "IsValidLocale",
                        "GlobalLock",
                        "CreateFileMappingW",
                        "GlobalAlloc",
                        "GetTempPathW",
                        "CreateEventW",
                        "CreateFileW",
                        "TlsSetValue",
                        "LeaveCriticalSection",
                        "GetLastError",
                        "GlobalDeleteAtom",
                        "GetSystemInfo",
                        "lstrlenA",
                        "GlobalFree",
                        "FindResourceW",
                        "GetThreadLocale",
                        "GlobalUnlock",
                        "WaitForSingleObjectEx",
                        "lstrlenW",
                        "WinExec",
                        "SwitchToThread",
                        "SizeofResource",
                        "GetCurrentProcessId",
                        "LockResource",
                        "GetCommandLineW",
                        "GetCPInfo",
                        "InterlockedCompareExchange",
                        "WritePrivateProfileStringW",
                        "SuspendThread",
                        "RaiseException",
                        "MapViewOfFile",
                        "SetFilePointer",
                        "ReadFile",
                        "PulseEvent",
                        "CloseHandle",
                        "OpenMutexW",
                        "EnumResourceTypesW",
                        "GetACP",
                        "GetModuleHandleW",
                        "FreeResource",
                        "FileTimeToLocalFileTime",
                        "UnmapViewOfFile",
                        "OpenEventW",
                        "VirtualFree",
                        "Sleep",
                        "VirtualAlloc",
                        "CompareStringA"
                    ],
                    "library_name": "kernel32.dll"
                },
                {
                    "imported_functions": [
                        "ClosePrinter",
                        "DocumentPropertiesW",
                        "GetDefaultPrinterW",
                        "EnumPrintersW",
                        "OpenPrinterW"
                    ],
                    "library_name": "winspool.drv"
                },
                {
                    "imported_functions": [
                        "SetSecurityDescriptorOwner",
                        "RegCreateKeyExW",
                        "RegCloseKey",
                        "RegDeleteKeyW",
                        "InitializeAcl",
                        "RegRestoreKeyW",
                        "RegQueryValueExW",
                        "LookupAccountSidW",
                        "SetSecurityDescriptorDacl",
                        "GetSidSubAuthorityCount",
                        "RegFlushKey",
                        "GetSidSubAuthority",
                        "OpenProcessToken",
                        "RegConnectRegistryW",
                        "AddAccessAllowedAce",
                        "RegOpenKeyExW",
                        "RegReplaceKeyW",
                        "SetSecurityDescriptorSacl",
                        "GetTokenInformation",
                        "GetUserNameW",
                        "IsValidSid",
                        "GetSidIdentifierAuthority",
                        "RegQueryInfoKeyW",
                        "RegEnumValueW",
                        "RegEnumKeyExW",
                        "OpenThreadToken",
                        "RegLoadKeyW",
                        "GetLengthSid",
                        "RegDeleteValueW",
                        "RegSetValueExW",
                        "FreeSid",
                        "AllocateAndInitializeSid",
                        "InitializeSecurityDescriptor",
                        "RegSaveKeyW",
                        "RegUnLoadKeyW",
                        "SetSecurityDescriptorGroup"
                    ],
                    "library_name": "advapi32.dll"
                },
                {
                    "imported_functions": [
                        "CreateStreamOnHGlobal",
                        "OleUninitialize",
                        "OleDraw",
                        "CoInitialize",
                        "OleInitialize",
                        "ProgIDFromCLSID",
                        "IsAccelerator",
                        "CoCreateInstance",
                        "OleRegEnumVerbs",
                        "StringFromCLSID",
                        "CoUninitialize",
                        "OleSetMenuDescriptor",
                        "IsEqualGUID",
                        "CoTaskMemFree",
                        "CoGetClassObject"
                    ],
                    "library_name": "ole32.dll"
                },
                {
                    "imported_functions": [
                        "ImageList_BeginDrag",
                        "ImageList_GetImageCount",
                        "ImageList_SetBkColor",
                        "ImageList_GetImageInfo",
                        "FlatSB_SetScrollInfo",
                        "ImageList_SetImageCount",
                        "FlatSB_GetScrollInfo",
                        "ImageList_GetDragImage",
                        "FlatSB_SetScrollProp",
                        "ImageList_Create",
                        "ImageList_DragMove",
                        "ImageList_DrawEx",
                        "ImageList_SetIconSize",
                        "ImageList_Write",
                        "ImageList_Read",
                        "ImageList_Replace",
                        "ImageList_SetOverlayImage",
                        "ImageList_Destroy",
                        "_TrackMouseEvent",
                        "ImageList_Draw",
                        "ImageList_GetIconSize",
                        "ImageList_DragLeave",
                        "ImageList_GetBkColor",
                        "ImageList_GetIcon",
                        "FlatSB_SetScrollPos",
                        "ImageList_ReplaceIcon",
                        "ImageList_DragEnter",
                        "ImageList_Add",
                        "InitializeFlatSB",
                        "FlatSB_GetScrollPos",
                        "ImageList_DragShowNolock",
                        "ImageList_Remove",
                        "ImageList_Copy",
                        "ImageList_LoadImageW",
                        "ImageList_EndDrag"
                    ],
                    "library_name": "comctl32.dll"
                },
                {
                    "imported_functions": [
                        "MapWindowPoints",
                        "GetMessagePos",
                        "RedrawWindow",
                        "LoadBitmapW",
                        "EnableScrollBar",
                        "DestroyMenu",
                        "PostQuitMessage",
                        "GetForegroundWindow",
                        "SetWindowPos",
                        "IsWindow",
                        "CountClipboardFormats",
                        "DispatchMessageA",
                        "EndPaint",
                        "CharUpperBuffA",
                        "WindowFromPoint",
                        "DrawIcon",
                        "GetMessageTime",
                        "SetMenuItemInfoW",
                        "SetActiveWindow",
                        "GetMenuItemID",
                        "GetCursorPos",
                        "ReleaseDC",
                        "GetMenuStringW",
                        "SendMessageW",
                        "SendMessageA",
                        "UnregisterClassW",
                        "GetClientRect",
                        "GetMenuItemInfoW",
                        "DefMDIChildProcW",
                        "DrawTextW",
                        "SetScrollPos",
                        "CallNextHookEx",
                        "IsClipboardFormatAvailable",
                        "GetSysColor",
                        "GetKeyboardState",
                        "ClientToScreen",
                        "GetTopWindow",
                        "GetWindowTextW",
                        "EnumClipboardFormats",
                        "GetWindowTextLengthW",
                        "MsgWaitForMultipleObjects",
                        "ScrollWindow",
                        "DestroyWindow",
                        "DrawEdge",
                        "GetParent",
                        "UpdateWindow",
                        "GetPropW",
                        "SetClassLongW",
                        "EnumWindows",
                        "ShowWindow",
                        "DrawFrameControl",
                        "SetPropW",
                        "GetDesktopWindow",
                        "PeekMessageW",
                        "TranslateMDISysAccel",
                        "InsertMenuItemW",
                        "SetWindowPlacement",
                        "PeekMessageA",
                        "TranslateMessage",
                        "IsWindowEnabled",
                        "GetWindow",
                        "ActivateKeyboardLayout",
                        "RegisterClassW",
                        "GetIconInfo",
                        "SetParent",
                        "SetClipboardData",
                        "IsZoomed",
                        "GetWindowPlacement",
                        "LoadStringW",
                        "GetKeyboardLayoutList",
                        "DrawMenuBar",
                        "IsIconic",
                        "GetSubMenu",
                        "SetTimer",
                        "GetActiveWindow",
                        "IsDialogMessageW",
                        "FillRect",
                        "EnumThreadWindows",
                        "CreateAcceleratorTableW",
                        "GetSysColorBrush",
                        "IsWindowUnicode",
                        "CreateWindowExW",
                        "GetWindowLongW",
                        "CharNextW",
                        "IsChild",
                        "IsDialogMessageA",
                        "SetFocus",
                        "RegisterWindowMessageW",
                        "EmptyClipboard",
                        "BeginPaint",
                        "OffsetRect",
                        "DefWindowProcW",
                        "GetScrollPos",
                        "CopyIcon",
                        "GetKeyboardLayoutNameW",
                        "KillTimer",
                        "MapVirtualKeyW",
                        "SendNotifyMessageW",
                        "GetClipboardData",
                        "GetSystemMetrics",
                        "SetWindowLongW",
                        "SetScrollRange",
                        "GetWindowRect",
                        "InflateRect",
                        "SetCapture",
                        "ReleaseCapture",
                        "EnumChildWindows",
                        "GetScrollRange",
                        "GetMessageExtraInfo",
                        "CharLowerW",
                        "PostMessageW",
                        "GetKeyNameTextW",
                        "DrawTextExW",
                        "WaitMessage",
                        "CreatePopupMenu",
                        "CheckMenuItem",
                        "DrawFocusRect",
                        "GetClassLongW",
                        "GetLastActivePopup",
                        "DrawIconEx",
                        "CharUpperBuffW",
                        "SetWindowTextW",
                        "GetDCEx",
                        "RemovePropW",
                        "GetSystemMenu",
                        "ScreenToClient",
                        "TrackPopupMenu",
                        "PostThreadMessageW",
                        "GetMenuItemCount",
                        "AttachThreadInput",
                        "GetMenuState",
                        "ShowOwnedPopups",
                        "LoadCursorW",
                        "LoadIconW",
                        "FindWindowExW",
                        "GetDC",
                        "InsertMenuW",
                        "SetForegroundWindow",
                        "OpenClipboard",
                        "GetAsyncKeyState",
                        "CharLowerBuffW",
                        "IntersectRect",
                        "GetScrollInfo",
                        "GetKeyboardLayout",
                        "FindWindowW",
                        "GetCapture",
                        "RemoveMenu",
                        "GetWindowThreadProcessId",
                        "ShowScrollBar",
                        "MessageBoxW",
                        "GetMenu",
                        "DestroyIcon",
                        "UnhookWindowsHookEx",
                        "LoadKeyboardLayoutW",
                        "MessageBoxA",
                        "GetWindowDC",
                        "DestroyCursor",
                        "AdjustWindowRectEx",
                        "MsgWaitForMultipleObjectsEx",
                        "RegisterClipboardFormatW",
                        "SetScrollInfo",
                        "GetKeyState",
                        "EnableMenuItem",
                        "DefFrameProcW",
                        "IsWindowVisible",
                        "SetCursorPos",
                        "SystemParametersInfoW",
                        "DispatchMessageW",
                        "FrameRect",
                        "SetRect",
                        "DeleteMenu",
                        "InvalidateRect",
                        "CreateIcon",
                        "CallWindowProcW",
                        "GetClassNameW",
                        "CharLowerBuffA",
                        "GetClassInfoW",
                        "SetWindowsHookExW",
                        "GetCursor",
                        "GetFocus",
                        "CreateMenu",
                        "EnableWindow",
                        "CloseClipboard",
                        "SetMenu",
                        "SetCursor"
                    ],
                    "library_name": "user32.dll"
                },
                {
                    "imported_functions": [
                        "AlphaBlend"
                    ],
                    "library_name": "msimg32.dll"
                }
            ],
            "machine_type": 332,
            "resource_details": [
                {
                    "chi2": 1344588.75,
                    "entropy": 4.425973892211914,
                    "filetype": "data",
                    "lang": "NEUTRAL",
                    "sha256": "26ad8bd8e5e67fa91f5e84623f14dfa392eba1b7742c1430f24039a16228f0a2",
                    "type": "UNICODEDATA"
                },
                {
                    "chi2": 857141.5,
                    "entropy": 5.8267645835876465,
                    "filetype": "data",
                    "lang": "NEUTRAL",
                    "sha256": "e0a16eb6441e280225f96b9fecb22f42ff8f3891f2c26121d96991b74f88e9c9",
                    "type": "UNICODEDATA"
                },
                {
                    "chi2": 39383.62890625,
                    "entropy": 5.647915840148926,
                    "filetype": "data",
                    "lang": "NEUTRAL",
                    "sha256": "85090d58aceb2ef630709a15e01e216740e85279abd5022b20b388a07015c4db",
                    "type": "UNICODEDATA"
                },
                {
                    "chi2": 1419150.0,
                    "entropy": 5.130107402801514,
                    "filetype": "data",
                    "lang": "NEUTRAL",
                    "sha256": "5b94876780408f50c0e7a298f9cb060f5bbcbc2ddf8894fb0edfa3a6b24d35cd",
                    "type": "UNICODEDATA"
                },
                {
                    "chi2": 1660242.5,
                    "entropy": 5.252612113952637,
                    "filetype": "data",
                    "lang": "NEUTRAL",
                    "sha256": "4956615fe2817e88bbe53190d14a4b8f104706547b7eaf1852d686d86c7a9f2c",
                    "type": "UNICODEDATA"
                },
                {
                    "chi2": 123020.875,
                    "entropy": 5.43720817565918,
                    "filetype": "data",
                    "lang": "NEUTRAL",
                    "sha256": "e0a96e22539e1496f5f9f3e47571d941ced573df20ea575ec0f426e05f1ea378",
                    "type": "UNICODEDATA"
                },
                {
                    "chi2": 22078.701171875,
                    "entropy": 2.663296699523926,
                    "filetype": "data",
                    "lang": "ENGLISH US",
                    "sha256": "b8e6fc93d423931acbddae3c27dd3c4eb2a394005d746951a971cb700e0ee510",
                    "type": "RT_CURSOR"
                },
                {
                    "chi2": 23204.11328125,
                    "entropy": 2.8023130893707275,
                    "filetype": "data",
                    "lang": "ENGLISH US",
                    "sha256": "ce19ace18e87b572e6912306776226af5b8e63959c61cde70a8ff05b3bbdcc41",
                    "type": "RT_CURSOR"
                },
                {
                    "chi2": 19787.994140625,
                    "entropy": 3.000459671020508,
                    "filetype": "data",
                    "lang": "ENGLISH US",
                    "sha256": "ee1c9c194199c320c893b367602ccc7ee7270bd4395d029f727e097634f47f8c",
                    "type": "RT_CURSOR"
                },
                {
                    "chi2": 23586.439453125,
                    "entropy": 2.563183546066284,
                    "filetype": "data",
                    "lang": "ENGLISH US",
                    "sha256": "9d9edf87ca203ecc60b246cc783d54218dd0ce77d3a025d0bafc580995a4abd8",
                    "type": "RT_CURSOR"
                },
                {
                    "chi2": 22751.939453125,
                    "entropy": 2.6949045658111572,
                    "filetype": "data",
                    "lang": "ENGLISH US",
                    "sha256": "99676c52310db365580965ea646ece86c62951bfd97ec0aae9f738a202a90593",
                    "type": "RT_CURSOR"
                },
                {
                    "chi2": 23076.10546875,
                    "entropy": 2.625270366668701,
                    "filetype": "data",
                    "lang": "ENGLISH US",
                    "sha256": "11726dcf1eebe23a1df5eb0ee2af39196b702eddd69083d646e4475335130b28",
                    "type": "RT_CURSOR"
                },
                {
                    "chi2": 22065.396484375,
                    "entropy": 2.9160430431365967,
                    "filetype": "data",
                    "lang": "ENGLISH US",
                    "sha256": "6f938aab0a03120de4ef8b27aff6ba5146226c92a056a6f04e5ec8d513ce5f9d",
                    "type": "RT_CURSOR"
                },
                {
                    "chi2": 155939.28125,
                    "entropy": 3.8515076637268066,
                    "filetype": "data",
                    "lang": "NEUTRAL",
                    "sha256": "aa36690e5fc5457cc80565cac20bf9cac7b26812f219bd9c01b9137a45365587",
                    "type": "RT_ICON"
                },
                {
                    "chi2": 204632.59375,
                    "entropy": 3.1807329654693604,
                    "filetype": "data",
                    "lang": "ENGLISH US",
                    "sha256": "72d1858e2477a69e326666fcbfb0fea0e415bbf3eaf40ceb740b7be68dbaaff9",
                    "type": "RT_ICON"
                },
                {
                    "chi2": 39522.453125,
                    "entropy": 3.3208141326904297,
                    "filetype": "ASCII text",
                    "lang": "NEUTRAL",
                    "sha256": "eb669f04ee7b95a785f3fb8b2b390a41459dfc1fd6bfec188c3ce8821d826ebf",
                    "type": "RT_STRING"
                },
                {
                    "chi2": 57696.24609375,
                    "entropy": 3.2127938270568848,
                    "filetype": "ASCII text",
                    "lang": "NEUTRAL",
                    "sha256": "6f5c52c9b4357e1ee7cd03cb4f95911e0c21c9f9f6ebd8ca4641b989941eac5b",
                    "type": "RT_STRING"
                },
                {
                    "chi2": 61312.69921875,
                    "entropy": 3.226844072341919,
                    "filetype": "ASCII text",
                    "lang": "NEUTRAL",
                    "sha256": "95859b2bd694164a4b9806a1ae094bc79e0c54f69123072b59121e53aac6ad78",
                    "type": "RT_STRING"
                },
                {
                    "chi2": 60948.5078125,
                    "entropy": 3.4199395179748535,
                    "filetype": "ASCII text",
                    "lang": "NEUTRAL",
                    "sha256": "f0ec49d223a4e0d8080cb4b2d32e1de12b6afd7b7b921f311007c615e792fcda",
                    "type": "RT_STRING"
                },
                {
                    "chi2": 81792.8515625,
                    "entropy": 3.3286209106445312,
                    "filetype": "ASCII text",
                    "lang": "NEUTRAL",
                    "sha256": "98ac8aa8640d61fe1d320eccda22ed6c69c58457dc90abdce6e4e72061c60a25",
                    "type": "RT_STRING"
                },
                {
                    "chi2": 122855.578125,
                    "entropy": 3.3573925495147705,
                    "filetype": "ASCII text",
                    "lang": "NEUTRAL",
                    "sha256": "532b35d0d06951778205bdb3b25b6ca285c5c5421bb711cc9735b62ef8433559",
                    "type": "RT_STRING"
                },
                {
                    "chi2": 144125.296875,
                    "entropy": 3.2878830432891846,
                    "filetype": "ASCII text",
                    "lang": "NEUTRAL",
                    "sha256": "9a0c248561f90cdf0c6d90cb0e972d034fb9d5d981882b80d1d70a6046096589",
                    "type": "RT_STRING"
                },
                {
                    "chi2": 143943.6875,
                    "entropy": 3.2724437713623047,
                    "filetype": "ASCII text",
                    "lang": "NEUTRAL",
                    "sha256": "2a35d72317ae84a8ec810e14f6e3f9c89bab1f3975cb10d5e87a7919ad45021c",
                    "type": "RT_STRING"
                },
                {
                    "chi2": 133669.859375,
                    "entropy": 3.321643829345703,
                    "filetype": "ASCII text",
                    "lang": "NEUTRAL",
                    "sha256": "73675aad5572c4ff8e88824ca9a473a0985e4fac5ba126c4bfd462b790acb38f",
                    "type": "RT_STRING"
                },
                {
                    "chi2": 151592.984375,
                    "entropy": 3.23319673538208,
                    "filetype": "ASCII text",
                    "lang": "NEUTRAL",
                    "sha256": "90f53f0116380cf5c9a3b2c00ec45f55d1548c073ec6887524051404778f3390",
                    "type": "RT_STRING"
                },
                {
                    "chi2": 174460.015625,
                    "entropy": 3.2242226600646973,
                    "filetype": "ASCII text",
                    "lang": "NEUTRAL",
                    "sha256": "4ca12cb4add9432f6c0a559e85207f05963ed40abd439e3de8cceceb8065a44a",
                    "type": "RT_STRING"
                },
                {
                    "chi2": 103528.0546875,
                    "entropy": 3.3099210262298584,
                    "filetype": "ASCII text",
                    "lang": "NEUTRAL",
                    "sha256": "0fced8e04f9c23e080e6f3dd0d4f06ee43256ccab1cff8ca46c417a98dc56306",
                    "type": "RT_STRING"
                },
                {
                    "chi2": 86364.1328125,
                    "entropy": 3.293464183807373,
                    "filetype": "ASCII text",
                    "lang": "NEUTRAL",
                    "sha256": "19b0d143547f810c91839df93f0141829ba2355c7e21abbb5bebb44e0f99c2e1",
                    "type": "RT_STRING"
                },
                {
                    "chi2": 10508.798828125,
                    "entropy": 3.405538558959961,
                    "filetype": "ASCII text",
                    "lang": "NEUTRAL",
                    "sha256": "e81916c486503ea8f1a5688c827360c05117575d5f5b01782511fc8c9fb319b6",
                    "type": "RT_STRING"
                },
                {
                    "chi2": 13943.37890625,
                    "entropy": 3.4147896766662598,
                    "filetype": "ASCII text",
                    "lang": "NEUTRAL",
                    "sha256": "2225c14ec8e9368ac9f207aeb859b20ae7c7adb68f6dbf67ef81931c57f71939",
                    "type": "RT_STRING"
                },
                {
                    "chi2": 46905.7734375,
                    "entropy": 3.3119332790374756,
                    "filetype": "ASCII text",
                    "lang": "NEUTRAL",
                    "sha256": "85dd9ca7cfd85d72dfa52dfb219298d5c0f9a6aeb4f5799701cfdfc14947ad05",
                    "type": "RT_STRING"
                },
                {
                    "chi2": 70135.5859375,
                    "entropy": 3.2796132564544678,
                    "filetype": "ASCII text",
                    "lang": "NEUTRAL",
                    "sha256": "e45a3729afd2966cf7b534ba912738828068d2a08e43c4c38a9d38c0e69ee868",
                    "type": "RT_STRING"
                },
                {
                    "chi2": 56324.7265625,
                    "entropy": 3.3110270500183105,
                    "filetype": "ASCII text",
                    "lang": "NEUTRAL",
                    "sha256": "32497b6157cf9e5c06b9ce065c6917a872011111ac73021b1d12a461ee9f024a",
                    "type": "RT_STRING"
                },
                {
                    "chi2": 72917.4921875,
                    "entropy": 3.254286527633667,
                    "filetype": "ASCII text",
                    "lang": "NEUTRAL",
                    "sha256": "83369d85f576c00c5cce3c8a34f215c834050d69a53f547411c0ca7cb5ad2949",
                    "type": "RT_STRING"
                },
                {
                    "chi2": 60553.16015625,
                    "entropy": 3.2167372703552246,
                    "filetype": "ASCII text",
                    "lang": "NEUTRAL",
                    "sha256": "3c56c5e05f2ba7ded1f3745fa098c1f615ef9d62235d5fb7ada75f5ee7c7ccaf",
                    "type": "RT_STRING"
                },
                {
                    "chi2": 63894.9140625,
                    "entropy": 3.3227477073669434,
                    "filetype": "ASCII text",
                    "lang": "NEUTRAL",
                    "sha256": "82585995bd03ece0ec057a5f664fd6443c054fd3ba7cb16773ad0fb621e4ed40",
                    "type": "RT_STRING"
                },
                {
                    "chi2": 58624.2578125,
                    "entropy": 3.3412575721740723,
                    "filetype": "ASCII text",
                    "lang": "NEUTRAL",
                    "sha256": "01a036553ac02ec655961fcf638772e046fe354cc4f435e6422984830a0992e6",
                    "type": "RT_STRING"
                },
                {
                    "chi2": 14322.0390625,
                    "entropy": 3.252868413925171,
                    "filetype": "ASCII text",
                    "lang": "NEUTRAL",
                    "sha256": "e1d818d622875ce2cf81883816ef982aa05a724c46f82b3e67875e0bc24228b1",
                    "type": "RT_STRING"
                },
                {
                    "chi2": 10906.435546875,
                    "entropy": 3.2691922187805176,
                    "filetype": "ASCII text",
                    "lang": "NEUTRAL",
                    "sha256": "80bc91470ef70d527d0c4e0824945bc3b17ff84f464bca425661c3e7e1972ce7",
                    "type": "RT_STRING"
                },
                {
                    "chi2": 47234.1640625,
                    "entropy": 3.362025260925293,
                    "filetype": "ASCII text",
                    "lang": "NEUTRAL",
                    "sha256": "7afcc13187cf5f82e749e4bdc590afe483cf8b8bcd2d8a52168e6d45878b4944",
                    "type": "RT_STRING"
                },
                {
                    "chi2": 78122.2734375,
                    "entropy": 3.297989845275879,
                    "filetype": "ASCII text",
                    "lang": "NEUTRAL",
                    "sha256": "34293f52fe143fedf882429cc25c8e47cb1fae3a2fb3a17c0adf6d2f45d120de",
                    "type": "RT_STRING"
                },
                {
                    "chi2": 54500.98828125,
                    "entropy": 3.3441693782806396,
                    "filetype": "ASCII text",
                    "lang": "NEUTRAL",
                    "sha256": "87d56590f004aacd57ee45ce99dabfdaa1622e07fdb4fcb008ea2519d23c64bd",
                    "type": "RT_STRING"
                },
                {
                    "chi2": 47237.77734375,
                    "entropy": 3.2952206134796143,
                    "filetype": "ASCII text",
                    "lang": "NEUTRAL",
                    "sha256": "63d9f2eaeb1d96e60b0d7de5db9a9bd40f757e021d604ac0a2d153211e38e5da",
                    "type": "RT_STRING"
                },
                {
                    "chi2": 1722441.375,
                    "entropy": 3.507193088531494,
                    "filetype": "data",
                    "lang": "ENGLISH US",
                    "sha256": "677245e2a6b2eb5495b4965b8c26025a4b26e8b8c21a825f658cb390b493b9a0",
                    "type": "RT_RCDATA"
                },
                {
                    "chi2": 240.0,
                    "entropy": 4.0,
                    "filetype": "data",
                    "lang": "NEUTRAL",
                    "sha256": "88d14cc6638af8a0836f6d868dfab60df92907a2d7becaefbbd7e007acb75610",
                    "type": "RT_RCDATA"
                },
                {
                    "chi2": 15206.26171875,
                    "entropy": 5.400228977203369,
                    "filetype": "data",
                    "lang": "NEUTRAL",
                    "sha256": "10b8bb08191b2f84b2c10c248e7a4ac53a222a3b4abbaea3b87ee49b27ee0145",
                    "type": "RT_RCDATA"
                },
                {
                    "chi2": 5036.72509765625,
                    "entropy": 5.404643535614014,
                    "filetype": "data",
                    "lang": "NEUTRAL",
                    "sha256": "6dd3ab8e62eb1be524e7a0291a20f7a39689a659125ab6932d05f6da8f87c985",
                    "type": "RT_RCDATA"
                },
                {
                    "chi2": 1900.000244140625,
                    "entropy": 1.8387587070465088,
                    "filetype": "Lotus 1-2-3",
                    "lang": "ENGLISH US",
                    "sha256": "c53efa8085835ba129c1909beaff8a67b45f50837707f22dfff0f24d8cd26710",
                    "type": "RT_GROUP_CURSOR"
                },
                {
                    "chi2": 1823.2001953125,
                    "entropy": 1.9192407131195068,
                    "filetype": "Lotus 1-2-3",
                    "lang": "ENGLISH US",
                    "sha256": "b07e022f8ef0a8e5fd3f56986b2e5bf06df07054e9ea9177996b0a6c27d74d7c",
                    "type": "RT_GROUP_CURSOR"
                },
                {
                    "chi2": 1797.600341796875,
                    "entropy": 2.0192408561706543,
                    "filetype": "Lotus 1-2-3",
                    "lang": "ENGLISH US",
                    "sha256": "43f40dd5140804309a4c901ec3c85b54481316e67a6fe18beb9d5c0ce3a42c3a",
                    "type": "RT_GROUP_CURSOR"
                },
                {
                    "chi2": 1797.600341796875,
                    "entropy": 2.0192408561706543,
                    "filetype": "Lotus 1-2-3",
                    "lang": "ENGLISH US",
                    "sha256": "ff47a48c11c234903a7d625cb8b62101909f735ad84266c98dd4834549452c39",
                    "type": "RT_GROUP_CURSOR"
                },
                {
                    "chi2": 1797.600341796875,
                    "entropy": 2.0192408561706543,
                    "filetype": "Lotus 1-2-3",
                    "lang": "ENGLISH US",
                    "sha256": "a0adcedb82b57089f64e2857f97cefd6cf25f4d27eefc6648bda83fd5fef66bb",
                    "type": "RT_GROUP_CURSOR"
                },
                {
                    "chi2": 1797.600341796875,
                    "entropy": 2.0192408561706543,
                    "filetype": "Lotus 1-2-3",
                    "lang": "ENGLISH US",
                    "sha256": "6e1e7738a1b6373d8829f817915822ef415a1727bb5bb7cfe809e31b3c143ac5",
                    "type": "RT_GROUP_CURSOR"
                },
                {
                    "chi2": 1797.600341796875,
                    "entropy": 2.0192408561706543,
                    "filetype": "Lotus 1-2-3",
                    "lang": "ENGLISH US",
                    "sha256": "326c048595bbc72e3f989cb3b95fbf09dc83739ced3cb13eb6f03336f95d74f1",
                    "type": "RT_GROUP_CURSOR"
                },
                {
                    "chi2": 1695.2001953125,
                    "entropy": 1.860964059829712,
                    "filetype": "data",
                    "lang": "ENGLISH US",
                    "sha256": "af4ffa8e39ac2f72dc0efe9e0bb90413bb45d92209fd2279900b4628f5cf6aba",
                    "type": "RT_GROUP_ICON"
                },
                {
                    "chi2": 59879.7890625,
                    "entropy": 3.271918535232544,
                    "filetype": "data",
                    "lang": "ENGLISH US",
                    "sha256": "182ef00764f5301ca1871802e543bff4c4516024650f52736c56a2e86194f6bb",
                    "type": "RT_VERSION"
                },
                {
                    "chi2": 11341.021484375,
                    "entropy": 4.920068264007568,
                    "filetype": "ASCII text",
                    "lang": "ENGLISH US",
                    "sha256": "c05256f12f488c063a7f7d6f5c129225050451ad6600bc5caea46079e560efff",
                    "type": "RT_MANIFEST"
                }
            ],
            "resource_langs": {
                "ENGLISH US": 19,
                "NEUTRAL": 38
            },
            "resource_types": {
                "RT_CURSOR": 7,
                "RT_GROUP_CURSOR": 7,
                "RT_GROUP_ICON": 1,
                "RT_ICON": 2,
                "RT_MANIFEST": 1,
                "RT_RCDATA": 4,
                "RT_STRING": 28,
                "RT_VERSION": 1,
                "UNICODEDATA": 6
            },
            "sections": [
                {
                    "entropy": 6.42,
                    "md5": "dea86291e8340ef0d7539a7c22d4ae07",
                    "name": ".text",
                    "raw_size": 1163264,
                    "virtual_address": 4096,
                    "virtual_size": 1163140
                },
                {
                    "entropy": 5.95,
                    "md5": "101236e4430d1adbb594f29f735b0c38",
                    "name": ".itext",
                    "raw_size": 5632,
                    "virtual_address": 1167360,
                    "virtual_size": 5196
                },
                {
                    "entropy": 5.92,
                    "md5": "d9015afa689dec3e85be99fc11568f9b",
                    "name": ".data",
                    "raw_size": 38400,
                    "virtual_address": 1175552,
                    "virtual_size": 38072
                },
                {
                    "entropy": 0.0,
                    "md5": "d41d8cd98f00b204e9800998ecf8427e",
                    "name": ".bss",
                    "raw_size": 0,
                    "virtual_address": 1216512,
                    "virtual_size": 551616
                },
                {
                    "entropy": 5.19,
                    "md5": "a3e4e9bd2b86d7571ee69de853b5ee57",
                    "name": ".idata",
                    "raw_size": 16384,
                    "virtual_address": 1769472,
                    "virtual_size": 15982
                },
                {
                    "entropy": 3.24,
                    "md5": "4660336550b92cfe7624599335665a38",
                    "name": ".didata",
                    "raw_size": 1024,
                    "virtual_address": 1785856,
                    "virtual_size": 806
                },
                {
                    "entropy": 0.0,
                    "md5": "d41d8cd98f00b204e9800998ecf8427e",
                    "name": ".tls",
                    "raw_size": 0,
                    "virtual_address": 1789952,
                    "virtual_size": 60
                },
                {
                    "entropy": 0.21,
                    "md5": "df86a3320bf6a33fc85dff627de03b5a",
                    "name": ".rdata",
                    "raw_size": 512,
                    "virtual_address": 1794048,
                    "virtual_size": 24
                },
                {
                    "entropy": 6.7,
                    "md5": "3f51b737d66c1a81212e9105a990057f",
                    "name": ".reloc",
                    "raw_size": 96256,
                    "virtual_address": 1798144,
                    "virtual_size": 96172
                },
                {
                    "entropy": 5.23,
                    "md5": "f76b2fbac59494c7aeddcd09890ff294",
                    "name": ".rsrc",
                    "raw_size": 250368,
                    "virtual_address": 1896448,
                    "virtual_size": 250192
                }
            ],
            "timestamp": 1389936969
        },
        "reputation": 0,
        "sha1": "5b147826474d2154d7c5c8188442e70ed5d3766c",
        "sha256": "0001fd9cb121eb579e6c804762a9a4ee935727f74a3bc5cbb0f87fdd1e5181f0",
        "signature_info": {
            "comments": "w[b@.6F7@ 8.\u00a6}\u0081\u00d4\u00a9\u00a4\u00da\u00b2\u2014w}Z\u00e6\u00c4\u00a9",
            "file version": "1.0.0.0"
        },
        "size": 1572864,
        "ssdeep": "24576:oGOdqSUIYzcaF8yg/uOwABQSxGBq0v+QNYNVZktmTcX2ZCaIvuJnX:xIHww7ySYqYaNVhTcXGC9+",
        "tags": [
            "peexe",
            "bobsoft"
        ],
        "times_submitted": 1,
        "total_votes": {
            "harmless": 0,
            "malicious": 0
        },
        "trid": [
            {
                "file_type": "Win32 EXE PECompact compressed (generic)",
                "probability": 64.7
            },
            {
                "file_type": "DOS Borland compiled Executable (generic)",
                "probability": 15.5
            },
            {
                "file_type": "Win32 Executable (generic)",
                "probability": 7.0
            },
            {
                "file_type": "Win16/32 Executable Delphi generic",
                "probability": 3.2
            },
            {
                "file_type": "OS/2 Executable (generic)",
                "probability": 3.1
            }
        ],
        "type_description": "Win32 EXE",
        "type_extension": "exe",
        "type_tag": "peexe",
        "unique_sources": 1,
        "vhash": "0160a6665d5c0d5d1c05103232z61z2e7zf035z31z1030301bz"
    },
    "id": "0001fd9cb121eb579e6c804762a9a4ee935727f74a3bc5cbb0f87fdd1e5181f0",
    "links": {
        "self": "https://www.virustotal.com/api/v3/files/0001fd9cb121eb579e6c804762a9a4ee935727f74a3bc5cbb0f87fdd1e5181f0"
    },
    "type": "file"
}