{
    "attributes": {
        "authentihash": "9941441fac739c22f0bbfa76727b36dea91b9484528c64106ca05b68e38b4af9",
        "creation_date": 1276615715,
        "first_submission_date": 1497558213,
        "last_analysis_date": 1507505071,
        "last_analysis_results": {
            "ALYac": {
                "category": "malicious",
                "engine_name": "ALYac",
                "engine_update": "20171007",
                "engine_version": "1.1.1.2",
                "method": "blacklist",
                "result": "Trojan.Generic.21826805"
            },
            "AVG": {
                "category": "malicious",
                "engine_name": "AVG",
                "engine_update": "20171008",
                "engine_version": "17.7.3660.0",
                "method": "blacklist",
                "result": "FileRepMetagen [PUP]"
            },
            "AVware": {
                "category": "malicious",
                "engine_name": "AVware",
                "engine_update": "20171008",
                "engine_version": "1.5.0.42",
                "method": "blacklist",
                "result": "Trojan.Win32.Generic!BT"
            },
            "Ad-Aware": {
                "category": "malicious",
                "engine_name": "Ad-Aware",
                "engine_update": "20171008",
                "engine_version": "3.0.3.1010",
                "method": "blacklist",
                "result": "Trojan.Generic.21826805"
            },
            "AegisLab": {
                "category": "undetected",
                "engine_name": "AegisLab",
                "engine_update": "20171008",
                "engine_version": "4.2",
                "method": "blacklist",
                "result": null
            },
            "AhnLab-V3": {
                "category": "malicious",
                "engine_name": "AhnLab-V3",
                "engine_update": "20171008",
                "engine_version": "3.10.0.18797",
                "method": "blacklist",
                "result": "Unwanted/Win32.HackKMS.R206549"
            },
            "Alibaba": {
                "category": "type-unsupported",
                "engine_name": "Alibaba",
                "engine_update": "20170911",
                "engine_version": "1.0",
                "method": "blacklist",
                "result": null
            },
            "Antiy-AVL": {
                "category": "malicious",
                "engine_name": "Antiy-AVL",
                "engine_update": "20171008",
                "engine_version": "3.0.0.1",
                "method": "blacklist",
                "result": "RiskWare/Win32.HackKMS.g"
            },
            "Arcabit": {
                "category": "malicious",
                "engine_name": "Arcabit",
                "engine_update": "20171008",
                "engine_version": "1.0.0.827",
                "method": "blacklist",
                "result": "Trojan.Generic.D14D0CF5"
            },
            "Avast": {
                "category": "malicious",
                "engine_name": "Avast",
                "engine_update": "20171008",
                "engine_version": "17.7.3660.0",
                "method": "blacklist",
                "result": "FileRepMetagen [PUP]"
            },
            "Avast-Mobile": {
                "category": "undetected",
                "engine_name": "Avast-Mobile",
                "engine_update": "20171008",
                "engine_version": "171008-00",
                "method": "blacklist",
                "result": null
            },
            "Avira": {
                "category": "undetected",
                "engine_name": "Avira",
                "engine_update": "20171008",
                "engine_version": "8.3.3.4",
                "method": "blacklist",
                "result": null
            },
            "Baidu": {
                "category": "undetected",
                "engine_name": "Baidu",
                "engine_update": "20170930",
                "engine_version": "1.0.0.2",
                "method": "blacklist",
                "result": null
            },
            "BitDefender": {
                "category": "malicious",
                "engine_name": "BitDefender",
                "engine_update": "20171008",
                "engine_version": "7.2",
                "method": "blacklist",
                "result": "Trojan.Generic.21826805"
            },
            "Bkav": {
                "category": "undetected",
                "engine_name": "Bkav",
                "engine_update": "20171007",
                "engine_version": "1.3.0.9367",
                "method": "blacklist",
                "result": null
            },
            "CAT-QuickHeal": {
                "category": "malicious",
                "engine_name": "CAT-QuickHeal",
                "engine_update": "20171007",
                "engine_version": "14.00",
                "method": "blacklist",
                "result": "RiskTool.HackKMS"
            },
            "CMC": {
                "category": "undetected",
                "engine_name": "CMC",
                "engine_update": "20171008",
                "engine_version": "1.1.0.977",
                "method": "blacklist",
                "result": null
            },
            "ClamAV": {
                "category": "malicious",
                "engine_name": "ClamAV",
                "engine_update": "20171008",
                "engine_version": "0.99.2.0",
                "method": "blacklist",
                "result": "Win.Trojan.Generic-6260333-0"
            },
            "Comodo": {
                "category": "undetected",
                "engine_name": "Comodo",
                "engine_update": "20171008",
                "engine_version": null,
                "method": "blacklist",
                "result": null
            },
            "CrowdStrike": {
                "category": "malicious",
                "engine_name": "CrowdStrike",
                "engine_update": "20170804",
                "engine_version": "1.0",
                "method": "blacklist",
                "result": "malicious_confidence_100% (D)"
            },
            "Cylance": {
                "category": "undetected",
                "engine_name": "Cylance",
                "engine_update": "20171009",
                "engine_version": "2.3.1.101",
                "method": "blacklist",
                "result": null
            },
            "Cyren": {
                "category": "malicious",
                "engine_name": "Cyren",
                "engine_update": "20171008",
                "engine_version": "5.4.30.7",
                "method": "blacklist",
                "result": "W32/S-1ab44e89!Eldorado"
            },
            "DrWeb": {
                "category": "undetected",
                "engine_name": "DrWeb",
                "engine_update": "20171008",
                "engine_version": "7.0.28.2020",
                "method": "blacklist",
                "result": null
            },
            "ESET-NOD32": {
                "category": "malicious",
                "engine_name": "ESET-NOD32",
                "engine_update": "20171008",
                "engine_version": "16208",
                "method": "blacklist",
                "result": "Win32/HackKMS.M potentially unsafe"
            },
            "Emsisoft": {
                "category": "malicious",
                "engine_name": "Emsisoft",
                "engine_update": "20171008",
                "engine_version": "4.0.1.883",
                "method": "blacklist",
                "result": "Application.Generic (A)"
            },
            "Endgame": {
                "category": "malicious",
                "engine_name": "Endgame",
                "engine_update": "20170821",
                "engine_version": "1.0.1",
                "method": "blacklist",
                "result": "malicious (high confidence)"
            },
            "F-Prot": {
                "category": "malicious",
                "engine_name": "F-Prot",
                "engine_update": "20171008",
                "engine_version": "4.7.1.166",
                "method": "blacklist",
                "result": "W32/S-1ab44e89!Eldorado"
            },
            "F-Secure": {
                "category": "malicious",
                "engine_name": "F-Secure",
                "engine_update": "20171008",
                "engine_version": "11.0.19100.45",
                "method": "blacklist",
                "result": "Trojan.Generic.21826805"
            },
            "Fortinet": {
                "category": "malicious",
                "engine_name": "Fortinet",
                "engine_update": "20171008",
                "engine_version": "5.4.247.0",
                "method": "blacklist",
                "result": "Riskware/HackKMS"
            },
            "GData": {
                "category": "malicious",
                "engine_name": "GData",
                "engine_update": "20171008",
                "engine_version": "A:25.14415B:25.10608",
                "method": "blacklist",
                "result": "Win32.Riskware.HackKMS.W"
            },
            "Ikarus": {
                "category": "malicious",
                "engine_name": "Ikarus",
                "engine_update": "20171008",
                "engine_version": "0.1.5.2",
                "method": "blacklist",
                "result": "not-a-virus:KMSActivation"
            },
            "Invincea": {
                "category": "malicious",
                "engine_name": "Invincea",
                "engine_update": "20170914",
                "engine_version": "6.3.1.25473",
                "method": "blacklist",
                "result": "heuristic"
            },
            "Jiangmin": {
                "category": "malicious",
                "engine_name": "Jiangmin",
                "engine_update": "20171008",
                "engine_version": "16.0.100",
                "method": "blacklist",
                "result": "RiskTool.HackKMS.ag"
            },
            "K7AntiVirus": {
                "category": "malicious",
                "engine_name": "K7AntiVirus",
                "engine_update": "20171008",
                "engine_version": "10.28.24856",
                "method": "blacklist",
                "result": "Unwanted-Program ( 004bdfc31 )"
            },
            "K7GW": {
                "category": "malicious",
                "engine_name": "K7GW",
                "engine_update": "20171008",
                "engine_version": "10.28.24856",
                "method": "blacklist",
                "result": "Unwanted-Program ( 004bdfc31 )"
            },
            "Kaspersky": {
                "category": "malicious",
                "engine_name": "Kaspersky",
                "engine_update": "20171008",
                "engine_version": "15.0.1.13",
                "method": "blacklist",
                "result": "not-a-virus:RiskTool.Win32.HackKMS.g"
            },
            "Kingsoft": {
                "category": "undetected",
                "engine_name": "Kingsoft",
                "engine_update": "20171009",
                "engine_version": "2013.8.14.323",
                "method": "blacklist",
                "result": null
            },
            "MAX": {
                "category": "malicious",
                "engine_name": "MAX",
                "engine_update": "20171008",
                "engine_version": "2017.6.26.1",
                "method": "blacklist",
                "result": "malware (ai score=86)"
            },
            "Malwarebytes": {
                "category": "undetected",
                "engine_name": "Malwarebytes",
                "engine_update": "20171008",
                "engine_version": "2.1.1.1115",
                "method": "blacklist",
                "result": null
            },
            "McAfee": {
                "category": "malicious",
                "engine_name": "McAfee",
                "engine_update": "20171008",
                "engine_version": "6.0.6.653",
                "method": "blacklist",
                "result": "Artemis!B2F5BE2F9C2F"
            },
            "McAfee-GW-Edition": {
                "category": "malicious",
                "engine_name": "McAfee-GW-Edition",
                "engine_update": "20171008",
                "engine_version": "v2015",
                "method": "blacklist",
                "result": "BehavesLike.Win32.Generic.mh"
            },
            "MicroWorld-eScan": {
                "category": "malicious",
                "engine_name": "MicroWorld-eScan",
                "engine_update": "20171008",
                "engine_version": "12.0.250.0",
                "method": "blacklist",
                "result": "Trojan.Generic.21826805"
            },
            "Microsoft": {
                "category": "undetected",
                "engine_name": "Microsoft",
                "engine_update": "20171008",
                "engine_version": "1.1.14202.0",
                "method": "blacklist",
                "result": null
            },
            "NANO-Antivirus": {
                "category": "undetected",
                "engine_name": "NANO-Antivirus",
                "engine_update": "20171008",
                "engine_version": "1.0.100.19529",
                "method": "blacklist",
                "result": null
            },
            "Paloalto": {
                "category": "undetected",
                "engine_name": "Paloalto",
                "engine_update": "20171009",
                "engine_version": "1.0",
                "method": "blacklist",
                "result": null
            },
            "Panda": {
                "category": "malicious",
                "engine_name": "Panda",
                "engine_update": "20171008",
                "engine_version": "4.6.4.2",
                "method": "blacklist",
                "result": "Trj/CI.A"
            },
            "Qihoo-360": {
                "category": "malicious",
                "engine_name": "Qihoo-360",
                "engine_update": "20171009",
                "engine_version": "1.0.0.1120",
                "method": "blacklist",
                "result": "Win32/Sorter.AVE.PackerVMPNotinEntry.A"
            },
            "Rising": {
                "category": "malicious",
                "engine_name": "Rising",
                "engine_update": "20171008",
                "engine_version": "25.0.0.1",
                "method": "blacklist",
                "result": "PUF.HackKMS!1.AA79 (CLASSIC)"
            },
            "SUPERAntiSpyware": {
                "category": "undetected",
                "engine_name": "SUPERAntiSpyware",
                "engine_update": "20171008",
                "engine_version": "5.6.0.1032",
                "method": "blacklist",
                "result": null
            },
            "SentinelOne": {
                "category": "malicious",
                "engine_name": "SentinelOne",
                "engine_update": "20171001",
                "engine_version": "1.0.6.154",
                "method": "blacklist",
                "result": "static engine - malicious"
            },
            "Sophos": {
                "category": "malicious",
                "engine_name": "Sophos",
                "engine_update": "20171008",
                "engine_version": "4.98.0",
                "method": "blacklist",
                "result": "KMS Activator (PUA)"
            },
            "Symantec": {
                "category": "malicious",
                "engine_name": "Symantec",
                "engine_update": "20171008",
                "engine_version": "1.4.0.0",
                "method": "blacklist",
                "result": "Trojan.Gen.2"
            },
            "SymantecMobileInsight": {
                "category": "type-unsupported",
                "engine_name": "SymantecMobileInsight",
                "engine_update": "20171006",
                "engine_version": "1.0.0.35_220",
                "method": "blacklist",
                "result": null
            },
            "Tencent": {
                "category": "undetected",
                "engine_name": "Tencent",
                "engine_update": "20171009",
                "engine_version": "1.0.0.1",
                "method": "blacklist",
                "result": null
            },
            "TheHacker": {
                "category": "undetected",
                "engine_name": "TheHacker",
                "engine_update": "20171007",
                "engine_version": "6.8.0.5.1991",
                "method": "blacklist",
                "result": null
            },
            "TotalDefense": {
                "category": "undetected",
                "engine_name": "TotalDefense",
                "engine_update": "20171008",
                "engine_version": "37.1.62.1",
                "method": "blacklist",
                "result": null
            },
            "TrendMicro": {
                "category": "malicious",
                "engine_name": "TrendMicro",
                "engine_update": "20171008",
                "engine_version": "9.862.0.1074",
                "method": "blacklist",
                "result": "TROJ_GEN.R00XC0PFF17"
            },
            "TrendMicro-HouseCall": {
                "category": "malicious",
                "engine_name": "TrendMicro-HouseCall",
                "engine_update": "20171008",
                "engine_version": "9.950.0.1006",
                "method": "blacklist",
                "result": "TROJ_GEN.R00XC0PFF17"
            },
            "Trustlook": {
                "category": "type-unsupported",
                "engine_name": "Trustlook",
                "engine_update": "20171009",
                "engine_version": "2",
                "method": "blacklist",
                "result": null
            },
            "VBA32": {
                "category": "undetected",
                "engine_name": "VBA32",
                "engine_update": "20171006",
                "engine_version": "3.12.26.4",
                "method": "blacklist",
                "result": null
            },
            "VIPRE": {
                "category": "malicious",
                "engine_name": "VIPRE",
                "engine_update": "20171008",
                "engine_version": "61578",
                "method": "blacklist",
                "result": "Trojan.Win32.Generic!BT"
            },
            "ViRobot": {
                "category": "malicious",
                "engine_name": "ViRobot",
                "engine_update": "20171009",
                "engine_version": "2014.3.20.0",
                "method": "blacklist",
                "result": "Adware.Hackkms.28160.EMVX"
            },
            "Webroot": {
                "category": "undetected",
                "engine_name": "Webroot",
                "engine_update": "20171009",
                "engine_version": "1.0.0.207",
                "method": "blacklist",
                "result": null
            },
            "WhiteArmor": {
                "category": "undetected",
                "engine_name": "WhiteArmor",
                "engine_update": "20170927",
                "engine_version": null,
                "method": "blacklist",
                "result": null
            },
            "Yandex": {
                "category": "undetected",
                "engine_name": "Yandex",
                "engine_update": "20171006",
                "engine_version": "5.5.1.3",
                "method": "blacklist",
                "result": null
            },
            "Zillya": {
                "category": "undetected",
                "engine_name": "Zillya",
                "engine_update": "20171006",
                "engine_version": "2.0.0.3400",
                "method": "blacklist",
                "result": null
            },
            "ZoneAlarm": {
                "category": "malicious",
                "engine_name": "ZoneAlarm",
                "engine_update": "20171008",
                "engine_version": "1.0",
                "method": "blacklist",
                "result": "not-a-virus:RiskTool.Win32.HackKMS.g"
            },
            "Zoner": {
                "category": "undetected",
                "engine_name": "Zoner",
                "engine_update": "20171008",
                "engine_version": "1.0",
                "method": "blacklist",
                "result": null
            },
            "nProtect": {
                "category": "undetected",
                "engine_name": "nProtect",
                "engine_update": "20171008",
                "engine_version": "2017-10-08.02",
                "method": "blacklist",
                "result": null
            }
        },
        "last_analysis_stats": {
            "confirmed-timeout": 0,
            "failure": 0,
            "harmless": 0,
            "malicious": 41,
            "suspicious": 0,
            "timeout": 0,
            "type-unsupported": 3,
            "undetected": 25
        },
        "last_modification_date": 1507505134,
        "last_submission_date": 1507505071,
        "magic": "PE32 executable for MS Windows (native) Intel 80386 32-bit",
        "md5": "b2f5be2f9c2f65820a0f052c73c3ad00",
        "meaningful_name": "oem-drv.sys",
        "names": [
            "b2f5be2f9c2f65820a0f052c73c3ad00.virobj",
            "oem-drv.sys",
            "b2f5be2f9c2f65820a0f052c73c3ad00.virus"
        ],
        "pe_info": {
            "entry_point": 45300,
            "imphash": "374095e6782b89ee46c48ba80e2606ec",
            "import_list": [
                {
                    "imported_functions": [
                        "x86BiosCall"
                    ],
                    "library_name": "HAL.dll"
                },
                {
                    "imported_functions": [
                        "MmUnmapIoSpace",
                        "RtlInitUnicodeString",
                        "ZwOpenKey",
                        "RtlImageNtHeader",
                        "ZwReadFile",
                        "ZwQuerySystemInformation",
                        "ZwCreateFile",
                        "ZwEnumerateKey",
                        "RtlCopyUnicodeString",
                        "RtlUnwind",
                        "ZwWriteFile",
                        "KeTickCount",
                        "RtlRandomEx",
                        "ExAllocatePoolWithQuotaTag",
                        "PsGetVersion",
                        "ZwQueryFullAttributesFile",
                        "ExAllocatePoolWithTag",
                        "MmMapIoSpace",
                        "memset",
                        "ZwQueryValueKey",
                        "MmGetPhysicalAddress",
                        "ExFreePoolWithTag",
                        "MmGetSystemRoutineAddress",
                        "memcpy",
                        "KeBugCheckEx",
                        "IoRegisterBootDriverReinitialization",
                        "ZwClose"
                    ],
                    "library_name": "ntoskrnl.exe"
                }
            ],
            "machine_type": 332,
            "resource_details": [
                {
                    "filetype": "data",
                    "lang": "ENGLISH US",
                    "sha256": "c86eab0862f706e43d331570538ecca2fd82bcf08a3964ed612a9ede199442da",
                    "type": "RT_VERSION"
                }
            ],
            "resource_langs": {
                "ENGLISH US": 1
            },
            "resource_types": {
                "RT_VERSION": 1
            },
            "sections": [
                {
                    "entropy": 6.21,
                    "md5": "d3b47d74053423775186702bbe7b48e0",
                    "name": ".text",
                    "raw_size": 8192,
                    "virtual_address": 4096,
                    "virtual_size": 7741
                },
                {
                    "entropy": 3.31,
                    "md5": "6ee25de78256e69ef5c5717f613aceed",
                    "name": ".rdata",
                    "raw_size": 512,
                    "virtual_address": 12288,
                    "virtual_size": 468
                },
                {
                    "entropy": 0.24,
                    "md5": "312651a6f76490d97aff95c683a68247",
                    "name": ".data",
                    "raw_size": 512,
                    "virtual_address": 16384,
                    "virtual_size": 80
                },
                {
                    "entropy": 7.63,
                    "md5": "c5e6aca12e5698c0bc7f639e744a5112",
                    "name": "seg1",
                    "raw_size": 12800,
                    "virtual_address": 20480,
                    "virtual_size": 12302
                },
                {
                    "entropy": 0.65,
                    "md5": "4c07b8d6cca1b1f2c8450520d0f0ac90",
                    "name": "seg2",
                    "raw_size": 512,
                    "virtual_address": 36864,
                    "virtual_size": 32
                },
                {
                    "entropy": 4.16,
                    "md5": "93eaf4796dec89794fe3e600dce9266e",
                    "name": "PAGE",
                    "raw_size": 1024,
                    "virtual_address": 40960,
                    "virtual_size": 614
                },
                {
                    "entropy": 5.59,
                    "md5": "37a6b9706e8fb4c027a14035d2327ee8",
                    "name": "INIT",
                    "raw_size": 1024,
                    "virtual_address": 45056,
                    "virtual_size": 994
                },
                {
                    "entropy": 2.54,
                    "md5": "279ce4b1ac1ed45a1248ecc22de3d771",
                    "name": ".rsrc",
                    "raw_size": 1536,
                    "virtual_address": 49152,
                    "virtual_size": 1048
                },
                {
                    "entropy": 4.41,
                    "md5": "69344ab819096345dcf3779e4c714c5f",
                    "name": ".reloc",
                    "raw_size": 1024,
                    "virtual_address": 53248,
                    "virtual_size": 720
                }
            ],
            "timestamp": 1276615715
        },
        "reputation": 0,
        "sha1": "eafd9b652f4d0c44f2da2f795ff4b45848933db3",
        "sha256": "00025e38119824693ba41b93b038decc9c854a13479875f8de49ec1738363952",
        "signature_info": {
            "copyright": "Copyright \u00a9 secr9tos",
            "description": "oem-drv.sys is used to privode SLIC2.1 support for OEM activation of WindowsNT6.1 based systems.",
            "file version": "1.2.0.4 built by: WinDDK",
            "internal name": "oem-drv.sys",
            "original name": "oem-drv.sys",
            "product": "OEM-SLP2.1 ACPI Patch Driver (HPD86)"
        },
        "size": 28160,
        "ssdeep": "384:/xtbSurrveEptIEqggHw/FpHxmqRESgl0wDz9GFSBV2hFiyFMB:/Tb9rvjUEqVHmFpRmqVzTtFM",
        "tags": [
            "peexe",
            "native"
        ],
        "times_submitted": 2,
        "total_votes": {
            "harmless": 0,
            "malicious": 0
        },
        "trid": [
            {
                "file_type": "Win32 Dynamic Link Library (generic)",
                "probability": 43.5
            },
            {
                "file_type": "Win32 Executable (generic)",
                "probability": 29.8
            },
            {
                "file_type": "Generic Win/DOS Executable",
                "probability": 13.2
            },
            {
                "file_type": "DOS Executable Generic",
                "probability": 13.2
            }
        ],
        "type_description": "Win32 EXE",
        "type_extension": "exe",
        "type_tag": "peexe",
        "unique_sources": 2,
        "vhash": "024096651d1575161e5519z16z1bxz"
    },
    "id": "00025e38119824693ba41b93b038decc9c854a13479875f8de49ec1738363952",
    "links": {
        "self": "https://www.virustotal.com/api/v3/files/00025e38119824693ba41b93b038decc9c854a13479875f8de49ec1738363952"
    },
    "type": "file"
}