{
    "attributes": {
        "authentihash": "0c6ac76be416ad4e97b988e99609a2a36d8cbdd21193e1d1a8547194a2d5f85d",
        "creation_date": 1392837630,
        "first_submission_date": 1551109729,
        "last_analysis_date": 1551109729,
        "last_analysis_results": {
            "ALYac": {
                "category": "malicious",
                "engine_name": "ALYac",
                "engine_update": "20190225",
                "engine_version": "1.1.1.5",
                "method": "blacklist",
                "result": "Trojan.GenericKD.1801883"
            },
            "AVG": {
                "category": "malicious",
                "engine_name": "AVG",
                "engine_update": "20190225",
                "engine_version": "18.4.3895.0",
                "method": "blacklist",
                "result": "Win32:Malware-gen"
            },
            "Acronis": {
                "category": "malicious",
                "engine_name": "Acronis",
                "engine_update": "20190222",
                "engine_version": "1.0.1.40",
                "method": "blacklist",
                "result": "suspicious"
            },
            "Ad-Aware": {
                "category": "malicious",
                "engine_name": "Ad-Aware",
                "engine_update": "20190225",
                "engine_version": "3.0.5.370",
                "method": "blacklist",
                "result": "Trojan.GenericKD.1801883"
            },
            "AegisLab": {
                "category": "undetected",
                "engine_name": "AegisLab",
                "engine_update": "20190225",
                "engine_version": "4.2",
                "method": "blacklist",
                "result": null
            },
            "AhnLab-V3": {
                "category": "malicious",
                "engine_name": "AhnLab-V3",
                "engine_update": "20190225",
                "engine_version": "3.14.1.22785",
                "method": "blacklist",
                "result": "Trojan/Win32.Necurs.R115578"
            },
            "Alibaba": {
                "category": "undetected",
                "engine_name": "Alibaba",
                "engine_update": "20180921",
                "engine_version": "0.1.0.2",
                "method": "blacklist",
                "result": null
            },
            "Antiy-AVL": {
                "category": "malicious",
                "engine_name": "Antiy-AVL",
                "engine_update": "20190225",
                "engine_version": "3.0.0.1",
                "method": "blacklist",
                "result": "Trojan[Backdoor]/Win32.Androm"
            },
            "Arcabit": {
                "category": "malicious",
                "engine_name": "Arcabit",
                "engine_update": "20190225",
                "engine_version": "1.0.0.837",
                "method": "blacklist",
                "result": "Trojan.Generic.D1B7E9B"
            },
            "Avast": {
                "category": "malicious",
                "engine_name": "Avast",
                "engine_update": "20190225",
                "engine_version": "18.4.3895.0",
                "method": "blacklist",
                "result": "Win32:Malware-gen"
            },
            "Avast-Mobile": {
                "category": "undetected",
                "engine_name": "Avast-Mobile",
                "engine_update": "20190225",
                "engine_version": "190225-00",
                "method": "blacklist",
                "result": null
            },
            "Avira": {
                "category": "malicious",
                "engine_name": "Avira",
                "engine_update": "20190225",
                "engine_version": "8.3.3.8",
                "method": "blacklist",
                "result": "TR/Katusha.uaws"
            },
            "Babable": {
                "category": "undetected",
                "engine_name": "Babable",
                "engine_update": "20180918",
                "engine_version": "9107201",
                "method": "blacklist",
                "result": null
            },
            "Baidu": {
                "category": "malicious",
                "engine_name": "Baidu",
                "engine_update": "20190215",
                "engine_version": "1.0.0.2",
                "method": "blacklist",
                "result": "Win32.Trojan-Downloader.Agent.kj"
            },
            "BitDefender": {
                "category": "malicious",
                "engine_name": "BitDefender",
                "engine_update": "20190225",
                "engine_version": "7.2",
                "method": "blacklist",
                "result": "Trojan.GenericKD.1801883"
            },
            "CAT-QuickHeal": {
                "category": "malicious",
                "engine_name": "CAT-QuickHeal",
                "engine_update": "20190225",
                "engine_version": "14.00",
                "method": "blacklist",
                "result": "TrojanDwnldr.Upatre.AB4"
            },
            "CMC": {
                "category": "undetected",
                "engine_name": "CMC",
                "engine_update": "20190225",
                "engine_version": "1.1.0.977",
                "method": "blacklist",
                "result": null
            },
            "ClamAV": {
                "category": "malicious",
                "engine_name": "ClamAV",
                "engine_update": "20190225",
                "engine_version": "0.101.1.0",
                "method": "blacklist",
                "result": "Win.Malware.Upatre-6726345-0"
            },
            "Comodo": {
                "category": "malicious",
                "engine_name": "Comodo",
                "engine_update": "20190225",
                "engine_version": "30483",
                "method": "blacklist",
                "result": "TrojWare.Win32.TrojanDownloader.Waski.FDA@5s4u0d"
            },
            "CrowdStrike": {
                "category": "malicious",
                "engine_name": "CrowdStrike",
                "engine_update": "20181023",
                "engine_version": "1.0",
                "method": "blacklist",
                "result": "win/malicious_confidence_100% (D)"
            },
            "Cybereason": {
                "category": "malicious",
                "engine_name": "Cybereason",
                "engine_update": "20190109",
                "engine_version": "1.2.27",
                "method": "blacklist",
                "result": "malicious.342e47"
            },
            "Cylance": {
                "category": "malicious",
                "engine_name": "Cylance",
                "engine_update": "20190225",
                "engine_version": "2.3.1.101",
                "method": "blacklist",
                "result": "Unsafe"
            },
            "Cyren": {
                "category": "malicious",
                "engine_name": "Cyren",
                "engine_update": "20190225",
                "engine_version": "6.2.0.1",
                "method": "blacklist",
                "result": "W32/Trojan.PBPB-2165"
            },
            "DrWeb": {
                "category": "malicious",
                "engine_name": "DrWeb",
                "engine_update": "20190225",
                "engine_version": "7.0.34.11020",
                "method": "blacklist",
                "result": "Trojan.DownLoad3.33795"
            },
            "ESET-NOD32": {
                "category": "malicious",
                "engine_name": "ESET-NOD32",
                "engine_update": "20190225",
                "engine_version": "18932",
                "method": "blacklist",
                "result": "Win32/TrojanDownloader.Waski.F"
            },
            "Emsisoft": {
                "category": "malicious",
                "engine_name": "Emsisoft",
                "engine_update": "20190225",
                "engine_version": "2018.4.0.1029",
                "method": "blacklist",
                "result": "Trojan.GenericKD.1801883 (B)"
            },
            "Endgame": {
                "category": "malicious",
                "engine_name": "Endgame",
                "engine_update": "20190215",
                "engine_version": "3.0.3",
                "method": "blacklist",
                "result": "malicious (high confidence)"
            },
            "F-Secure": {
                "category": "malicious",
                "engine_name": "F-Secure",
                "engine_update": "20190225",
                "engine_version": "12.0.86.52",
                "method": "blacklist",
                "result": "Trojan.TR/Katusha.uaws"
            },
            "Fortinet": {
                "category": "malicious",
                "engine_name": "Fortinet",
                "engine_update": "20190225",
                "engine_version": "5.4.247.0",
                "method": "blacklist",
                "result": "W32/Kryptik.CKUG!tr"
            },
            "GData": {
                "category": "malicious",
                "engine_name": "GData",
                "engine_update": "20190225",
                "engine_version": "A:25.20833B:25.14469",
                "method": "blacklist",
                "result": "Trojan.GenericKD.1801883"
            },
            "Ikarus": {
                "category": "malicious",
                "engine_name": "Ikarus",
                "engine_update": "20190225",
                "engine_version": "0.1.5.2",
                "method": "blacklist",
                "result": "Backdoor.Win32.Androm"
            },
            "Invincea": {
                "category": "malicious",
                "engine_name": "Invincea",
                "engine_update": "20181128",
                "engine_version": "6.3.6.26157",
                "method": "blacklist",
                "result": "heuristic"
            },
            "Jiangmin": {
                "category": "malicious",
                "engine_name": "Jiangmin",
                "engine_update": "20190225",
                "engine_version": "16.0.100",
                "method": "blacklist",
                "result": "Backdoor/Androm.gxn"
            },
            "K7AntiVirus": {
                "category": "malicious",
                "engine_name": "K7AntiVirus",
                "engine_update": "20190225",
                "engine_version": "11.31.30100",
                "method": "blacklist",
                "result": "Trojan-Downloader ( 004b8d561 )"
            },
            "K7GW": {
                "category": "malicious",
                "engine_name": "K7GW",
                "engine_update": "20190225",
                "engine_version": "11.30.30096",
                "method": "blacklist",
                "result": "Trojan-Downloader ( 004b8d561 )"
            },
            "Kaspersky": {
                "category": "malicious",
                "engine_name": "Kaspersky",
                "engine_update": "20190225",
                "engine_version": "15.0.1.13",
                "method": "blacklist",
                "result": "HEUR:Trojan.Win32.Generic"
            },
            "Kingsoft": {
                "category": "malicious",
                "engine_name": "Kingsoft",
                "engine_update": "20190225",
                "engine_version": "2013.8.14.323",
                "method": "blacklist",
                "result": "Win32.Troj.Undef.(kcloud)"
            },
            "MAX": {
                "category": "malicious",
                "engine_name": "MAX",
                "engine_update": "20190225",
                "engine_version": "2018.9.12.1",
                "method": "blacklist",
                "result": "malware (ai score=85)"
            },
            "Malwarebytes": {
                "category": "malicious",
                "engine_name": "Malwarebytes",
                "engine_update": "20190225",
                "engine_version": "2.1.1.1115",
                "method": "blacklist",
                "result": "Trojan.Upatre"
            },
            "McAfee": {
                "category": "malicious",
                "engine_name": "McAfee",
                "engine_update": "20190225",
                "engine_version": "6.0.6.653",
                "method": "blacklist",
                "result": "GenericRXAT-KR!AF7EFFA342E4"
            },
            "McAfee-GW-Edition": {
                "category": "malicious",
                "engine_name": "McAfee-GW-Edition",
                "engine_update": "20190225",
                "engine_version": "v2017.3010",
                "method": "blacklist",
                "result": "BehavesLike.Win32.Generic.nm"
            },
            "MicroWorld-eScan": {
                "category": "malicious",
                "engine_name": "MicroWorld-eScan",
                "engine_update": "20190225",
                "engine_version": "14.0.297.0",
                "method": "blacklist",
                "result": "Trojan.GenericKD.1801883"
            },
            "Microsoft": {
                "category": "malicious",
                "engine_name": "Microsoft",
                "engine_update": "20190225",
                "engine_version": "1.1.15700.8",
                "method": "blacklist",
                "result": "VirTool:Win32/Obfuscator.ARL!esh"
            },
            "NANO-Antivirus": {
                "category": "malicious",
                "engine_name": "NANO-Antivirus",
                "engine_update": "20190225",
                "engine_version": "1.0.134.24576",
                "method": "blacklist",
                "result": "Trojan.Win32.Dwn.ddtmhv"
            },
            "Paloalto": {
                "category": "undetected",
                "engine_name": "Paloalto",
                "engine_update": "20190225",
                "engine_version": "1.0",
                "method": "blacklist",
                "result": null
            },
            "Panda": {
                "category": "malicious",
                "engine_name": "Panda",
                "engine_update": "20190224",
                "engine_version": "4.6.4.2",
                "method": "blacklist",
                "result": "Trj/Genetic.gen"
            },
            "Qihoo-360": {
                "category": "malicious",
                "engine_name": "Qihoo-360",
                "engine_update": "20190225",
                "engine_version": "1.0.0.1120",
                "method": "blacklist",
                "result": "HEUR/QVM20.1.777F.Malware.Gen"
            },
            "Rising": {
                "category": "malicious",
                "engine_name": "Rising",
                "engine_update": "20190225",
                "engine_version": "25.0.0.24",
                "method": "blacklist",
                "result": "Dropper.Generic!8.35E (TFE:dGZlOgVa91ImNHJf8g)"
            },
            "SUPERAntiSpyware": {
                "category": "malicious",
                "engine_name": "SUPERAntiSpyware",
                "engine_update": "20190220",
                "engine_version": "5.6.0.1032",
                "method": "blacklist",
                "result": "Trojan.Agent/Gen-Upatre"
            },
            "SentinelOne": {
                "category": "malicious",
                "engine_name": "SentinelOne",
                "engine_update": "20190203",
                "engine_version": "1.0.23.276",
                "method": "blacklist",
                "result": "static engine - malicious"
            },
            "Sophos": {
                "category": "malicious",
                "engine_name": "Sophos",
                "engine_update": "20190225",
                "engine_version": "4.98.0",
                "method": "blacklist",
                "result": "Troj/Kegotip-D"
            },
            "Symantec": {
                "category": "malicious",
                "engine_name": "Symantec",
                "engine_update": "20190225",
                "engine_version": "1.8.0.0",
                "method": "blacklist",
                "result": "Infostealer.Dyre"
            },
            "SymantecMobileInsight": {
                "category": "type-unsupported",
                "engine_name": "SymantecMobileInsight",
                "engine_update": "20190220",
                "engine_version": "2.0",
                "method": "blacklist",
                "result": null
            },
            "TACHYON": {
                "category": "undetected",
                "engine_name": "TACHYON",
                "engine_update": "20190225",
                "engine_version": "2019-02-25.02",
                "method": "blacklist",
                "result": null
            },
            "Tencent": {
                "category": "undetected",
                "engine_name": "Tencent",
                "engine_update": "20190225",
                "engine_version": "1.0.0.1",
                "method": "blacklist",
                "result": null
            },
            "TheHacker": {
                "category": "malicious",
                "engine_name": "TheHacker",
                "engine_update": "20190225",
                "engine_version": "6.8.0.5.4029",
                "method": "blacklist",
                "result": "Trojan/Downloader.Waski.f"
            },
            "TotalDefense": {
                "category": "malicious",
                "engine_name": "TotalDefense",
                "engine_update": "20190225",
                "engine_version": "37.1.62.1",
                "method": "blacklist",
                "result": "Win32/Kegotip.YWLbfUD"
            },
            "Trapmine": {
                "category": "malicious",
                "engine_name": "Trapmine",
                "engine_update": "20190123",
                "engine_version": "3.1.40.719",
                "method": "blacklist",
                "result": "malicious.high.ml.score"
            },
            "TrendMicro": {
                "category": "malicious",
                "engine_name": "TrendMicro",
                "engine_update": "20190225",
                "engine_version": "10.0.0.1040",
                "method": "blacklist",
                "result": "Mal_Dalexis"
            },
            "TrendMicro-HouseCall": {
                "category": "malicious",
                "engine_name": "TrendMicro-HouseCall",
                "engine_update": "20190225",
                "engine_version": "10.0.0.1040",
                "method": "blacklist",
                "result": "Mal_Dalexis"
            },
            "Trustlook": {
                "category": "undetected",
                "engine_name": "Trustlook",
                "engine_update": "20190225",
                "engine_version": "1.0",
                "method": "blacklist",
                "result": null
            },
            "VBA32": {
                "category": "malicious",
                "engine_name": "VBA32",
                "engine_update": "20190225",
                "engine_version": "3.35.1",
                "method": "blacklist",
                "result": "BScope.Trojan.Download"
            },
            "ViRobot": {
                "category": "malicious",
                "engine_name": "ViRobot",
                "engine_update": "20190225",
                "engine_version": "2014.3.20.0",
                "method": "blacklist",
                "result": "Trojan.Win32.Agent.32590"
            },
            "Webroot": {
                "category": "malicious",
                "engine_name": "Webroot",
                "engine_update": "20190225",
                "engine_version": "1.0.0.403",
                "method": "blacklist",
                "result": "W32.Trojan.Genkd"
            },
            "Yandex": {
                "category": "malicious",
                "engine_name": "Yandex",
                "engine_update": "20190222",
                "engine_version": "5.5.1.3",
                "method": "blacklist",
                "result": "Backdoor.Androm!dhtY5uX9n60"
            },
            "Zillya": {
                "category": "undetected",
                "engine_name": "Zillya",
                "engine_update": "20190225",
                "engine_version": "2.0.0.3761",
                "method": "blacklist",
                "result": null
            },
            "ZoneAlarm": {
                "category": "malicious",
                "engine_name": "ZoneAlarm",
                "engine_update": "20190225",
                "engine_version": "1.0",
                "method": "blacklist",
                "result": "HEUR:Trojan.Win32.Generic"
            },
            "Zoner": {
                "category": "malicious",
                "engine_name": "Zoner",
                "engine_update": "20190225",
                "engine_version": "1.0",
                "method": "blacklist",
                "result": "Trojan.Win32.25572"
            },
            "eGambit": {
                "category": "undetected",
                "engine_name": "eGambit",
                "engine_update": "20190225",
                "engine_version": "v4.3.6",
                "method": "blacklist",
                "result": null
            }
        },
        "last_analysis_stats": {
            "confirmed-timeout": 0,
            "failure": 0,
            "harmless": 0,
            "malicious": 57,
            "suspicious": 0,
            "timeout": 0,
            "type-unsupported": 1,
            "undetected": 11
        },
        "last_modification_date": 1551274085,
        "last_submission_date": 1551109729,
        "magic": "PE32 executable for MS Windows (GUI) Intel 80386 32-bit",
        "md5": "af7effa342e47117c2e10816c9a02f5f",
        "names": [],
        "pe_info": {
            "entry_point": 6546,
            "imphash": "222e7b320f36011feb1642000d8fa826",
            "import_list": [
                {
                    "imported_functions": [
                        "SHGetFileInfoA",
                        "SHCreateShellItem",
                        "ShellMessageBoxW",
                        "FindExecutableA",
                        "ShellAboutA",
                        "DragAcceptFiles",
                        "SHGetDesktopFolder",
                        "FreeIconList",
                        "SHGetDiskFreeSpaceA",
                        "SHGetFolderPathA",
                        "DragFinish",
                        "StrChrA",
                        "SHGetDataFromIDListA",
                        "DragQueryFileA",
                        "SHGetMalloc",
                        "SHFileOperationA"
                    ],
                    "library_name": "shell32.dll"
                },
                {
                    "imported_functions": [
                        "CDLocateRng",
                        "CDBuildVect",
                        "MD5Init",
                        "MD5Update"
                    ],
                    "library_name": "cryptdll.dll"
                },
                {
                    "imported_functions": [
                        "DeviceIoControl",
                        "IsValidCodePage",
                        "FileTimeToSystemTime",
                        "lstrcmpiA",
                        "GetLastError",
                        "GetTickCount",
                        "GetLocalTime",
                        "GetCurrentDirectoryW",
                        "CreateDirectoryA",
                        "SetErrorMode",
                        "IsBadStringPtrA",
                        "GetProcAddress",
                        "GetPrivateProfileIntW",
                        "OpenMutexA",
                        "lstrcpynW",
                        "CompareStringW",
                        "GetFullPathNameW",
                        "SetEnvironmentVariableW",
                        "lstrcmpA",
                        "FindFirstFileA",
                        "InterlockedDecrement",
                        "GetStringTypeW",
                        "GetModuleHandleW",
                        "WriteConsoleA",
                        "GetEnvironmentVariableA",
                        "SearchPathA",
                        "TlsGetValue",
                        "ReadConsoleW",
                        "SleepEx"
                    ],
                    "library_name": "kernel32.dll"
                },
                {
                    "imported_functions": [
                        "ConnectionWrite",
                        "ConnectionClose",
                        "ConnectionError"
                    ],
                    "library_name": "dbnmpntw.dll"
                }
            ],
            "machine_type": 332,
            "overlay": {
                "chi2": 798505.9375,
                "entropy": 3.530862808227539,
                "filetype": "ASCII text",
                "md5": "a1a6dba4df28197dcac6aaec5804efbb",
                "offset": 27136,
                "size": 10986
            },
            "resource_details": [
                {
                    "chi2": 658594.5,
                    "entropy": 3.199275255203247,
                    "filetype": "data",
                    "lang": "NEUTRAL",
                    "sha256": "66a0ed942a9b6126629d25fcbd1f98cc287a5a4b0f88144485a70ceccabe48bc",
                    "type": "RT_ICON"
                },
                {
                    "chi2": 391680.0,
                    "entropy": 0.0,
                    "filetype": "ASCII text",
                    "lang": "ENGLISH US",
                    "sha256": "80422bc3d307b4a25bdafcc84ac7fb01cb55a09810e8b0f37bb12e0edb5c48ca",
                    "type": "RT_MENU"
                },
                {
                    "chi2": 2212.18212890625,
                    "entropy": 1.8182626962661743,
                    "filetype": "data",
                    "lang": "NEUTRAL",
                    "sha256": "a185012574b465b2ffe29f14de54d978f9741811e545a7150dd3dd7f18534e38",
                    "type": "RT_GROUP_ICON"
                }
            ],
            "resource_langs": {
                "ENGLISH US": 1,
                "NEUTRAL": 2
            },
            "resource_types": {
                "RT_GROUP_ICON": 1,
                "RT_ICON": 1,
                "RT_MENU": 1
            },
            "sections": [
                {
                    "entropy": 6.98,
                    "md5": "fc391ac2428ea7a24e76dace0b3cc772",
                    "name": ".text",
                    "raw_size": 8704,
                    "virtual_address": 4096,
                    "virtual_size": 8458
                },
                {
                    "entropy": 4.11,
                    "md5": "e2c015386d3acdf3e3be1cf07c78b6c9",
                    "name": ".rdata",
                    "raw_size": 2048,
                    "virtual_address": 16384,
                    "virtual_size": 1800
                },
                {
                    "entropy": 5.18,
                    "md5": "445311e3d98def7677fed58bcfc67ced",
                    "name": ".data",
                    "raw_size": 3584,
                    "virtual_address": 20480,
                    "virtual_size": 3395
                },
                {
                    "entropy": 3.12,
                    "md5": "73ac533e806ceda7018daed83926d654",
                    "name": ".rsrc",
                    "raw_size": 11776,
                    "virtual_address": 24576,
                    "virtual_size": 11438
                }
            ],
            "timestamp": 1392837630
        },
        "reputation": 0,
        "sha1": "0b85dd177eed71827bde458f883788591a7ed799",
        "sha256": "0002301bd1d2d8a90ec4d12417c12f1678586d8c59613ce6d714f024fa2f46d1",
        "size": 38122,
        "ssdeep": "768:kf1Y9RRw/dUT6vurGd/pkUOyGAv+rCBsPGTWikPc:GY9jw/dUT62rGdiUOWWrC6P6Tsc",
        "tags": [
            "peexe",
            "overlay"
        ],
        "times_submitted": 1,
        "total_votes": {
            "harmless": 0,
            "malicious": 0
        },
        "trid": [
            {
                "file_type": "Win32 Dynamic Link Library (generic)",
                "probability": 34.2
            },
            {
                "file_type": "Win32 Executable (generic)",
                "probability": 23.4
            },
            {
                "file_type": "Win16/32 Executable Delphi generic",
                "probability": 10.7
            },
            {
                "file_type": "OS/2 Executable (generic)",
                "probability": 10.5
            },
            {
                "file_type": "Generic Win/DOS Executable",
                "probability": 10.4
            }
        ],
        "type_description": "Win32 EXE",
        "type_extension": "exe",
        "type_tag": "peexe",
        "unique_sources": 1,
        "vhash": "034046651d551az1egz1mz"
    },
    "id": "0002301bd1d2d8a90ec4d12417c12f1678586d8c59613ce6d714f024fa2f46d1",
    "links": {
        "self": "https://www.virustotal.com/api/v3/files/0002301bd1d2d8a90ec4d12417c12f1678586d8c59613ce6d714f024fa2f46d1"
    },
    "type": "file"
}