{
    "attributes": {
        "authentihash": "b10617107ef680e5839a897090ab142f949e35c0a932e45dea9e9ce7c39db7d6",
        "creation_date": 1422330987,
        "first_submission_date": 1505909346,
        "last_analysis_date": 1505909346,
        "last_analysis_results": {
            "ALYac": {
                "category": "malicious",
                "engine_name": "ALYac",
                "engine_update": "20170920",
                "engine_version": "1.1.1.2",
                "method": "blacklist",
                "result": "DeepScan:Generic.Nimda.57EDAF37"
            },
            "AVG": {
                "category": "malicious",
                "engine_name": "AVG",
                "engine_update": "20170920",
                "engine_version": "17.6.3625.0",
                "method": "blacklist",
                "result": "Win32:Banker-NBH [Trj]"
            },
            "AVware": {
                "category": "malicious",
                "engine_name": "AVware",
                "engine_update": "20170919",
                "engine_version": "1.5.0.42",
                "method": "blacklist",
                "result": "Trojan.Win32.Agent.xfc (v)"
            },
            "Ad-Aware": {
                "category": "malicious",
                "engine_name": "Ad-Aware",
                "engine_update": "20170920",
                "engine_version": "3.0.3.1010",
                "method": "blacklist",
                "result": "DeepScan:Generic.Nimda.57EDAF37"
            },
            "AegisLab": {
                "category": "malicious",
                "engine_name": "AegisLab",
                "engine_update": "20170920",
                "engine_version": "4.2",
                "method": "blacklist",
                "result": "Troj.Dropper.W32.Dinwod.toVw"
            },
            "AhnLab-V3": {
                "category": "malicious",
                "engine_name": "AhnLab-V3",
                "engine_update": "20170920",
                "engine_version": "3.10.0.18405",
                "method": "blacklist",
                "result": "Trojan/Win32.OnlineGameHack.C33730"
            },
            "Alibaba": {
                "category": "type-unsupported",
                "engine_name": "Alibaba",
                "engine_update": "20170911",
                "engine_version": "1.0",
                "method": "blacklist",
                "result": null
            },
            "Arcabit": {
                "category": "malicious",
                "engine_name": "Arcabit",
                "engine_update": "20170920",
                "engine_version": "1.0.0.817",
                "method": "blacklist",
                "result": "DeepScan:Generic.Nimda.57EDAF37"
            },
            "Avast": {
                "category": "malicious",
                "engine_name": "Avast",
                "engine_update": "20170920",
                "engine_version": "17.6.3625.0",
                "method": "blacklist",
                "result": "Win32:Banker-NBH [Trj]"
            },
            "Avast-Mobile": {
                "category": "undetected",
                "engine_name": "Avast-Mobile",
                "engine_update": "20170829",
                "engine_version": "170828-04",
                "method": "blacklist",
                "result": null
            },
            "Avira": {
                "category": "malicious",
                "engine_name": "Avira",
                "engine_update": "20170920",
                "engine_version": "8.3.3.4",
                "method": "blacklist",
                "result": "TR/Spy.Gen"
            },
            "Baidu": {
                "category": "malicious",
                "engine_name": "Baidu",
                "engine_update": "20170920",
                "engine_version": "1.0.0.2",
                "method": "blacklist",
                "result": "Win32.Trojan.Agent.acb"
            },
            "BitDefender": {
                "category": "malicious",
                "engine_name": "BitDefender",
                "engine_update": "20170920",
                "engine_version": "7.2",
                "method": "blacklist",
                "result": "DeepScan:Generic.Nimda.57EDAF37"
            },
            "CAT-QuickHeal": {
                "category": "malicious",
                "engine_name": "CAT-QuickHeal",
                "engine_update": "20170920",
                "engine_version": "14.00",
                "method": "blacklist",
                "result": "Trojan.Zenshirsh.SL7"
            },
            "CMC": {
                "category": "undetected",
                "engine_name": "CMC",
                "engine_update": "20170920",
                "engine_version": "1.1.0.977",
                "method": "blacklist",
                "result": null
            },
            "ClamAV": {
                "category": "malicious",
                "engine_name": "ClamAV",
                "engine_update": "20170920",
                "engine_version": "0.99.2.0",
                "method": "blacklist",
                "result": "Win.Worm.Allaple-5"
            },
            "Comodo": {
                "category": "malicious",
                "engine_name": "Comodo",
                "engine_update": "20170920",
                "engine_version": "27782",
                "method": "blacklist",
                "result": "TrojWare.Win32.TrojanDropper.Dinwod.A"
            },
            "CrowdStrike": {
                "category": "malicious",
                "engine_name": "CrowdStrike",
                "engine_update": "20170804",
                "engine_version": "1.0",
                "method": "blacklist",
                "result": "malicious_confidence_100% (D)"
            },
            "Cylance": {
                "category": "malicious",
                "engine_name": "Cylance",
                "engine_update": "20170920",
                "engine_version": "2.3.1.101",
                "method": "blacklist",
                "result": "Unsafe"
            },
            "Cyren": {
                "category": "malicious",
                "engine_name": "Cyren",
                "engine_update": "20170920",
                "engine_version": "5.4.30.7",
                "method": "blacklist",
                "result": "W32/S-f9cb8831!Eldorado"
            },
            "DrWeb": {
                "category": "malicious",
                "engine_name": "DrWeb",
                "engine_update": "20170920",
                "engine_version": "7.0.28.2020",
                "method": "blacklist",
                "result": "Trojan.Inject1.58305"
            },
            "ESET-NOD32": {
                "category": "malicious",
                "engine_name": "ESET-NOD32",
                "engine_update": "20170920",
                "engine_version": "16110",
                "method": "blacklist",
                "result": "a variant of Win32/Agent.XFC"
            },
            "Emsisoft": {
                "category": "malicious",
                "engine_name": "Emsisoft",
                "engine_update": "20170920",
                "engine_version": "4.0.1.883",
                "method": "blacklist",
                "result": "DeepScan:Generic.Nimda.57EDAF37 (B)"
            },
            "Endgame": {
                "category": "malicious",
                "engine_name": "Endgame",
                "engine_update": "20170821",
                "engine_version": "1.0.1",
                "method": "blacklist",
                "result": "malicious (moderate confidence)"
            },
            "F-Prot": {
                "category": "malicious",
                "engine_name": "F-Prot",
                "engine_update": "20170920",
                "engine_version": "4.7.1.166",
                "method": "blacklist",
                "result": "W32/S-f9cb8831!Eldorado"
            },
            "F-Secure": {
                "category": "malicious",
                "engine_name": "F-Secure",
                "engine_update": "20170920",
                "engine_version": "11.0.19100.45",
                "method": "blacklist",
                "result": "DeepScan:Generic.Nimda.57EDAF37"
            },
            "Fortinet": {
                "category": "malicious",
                "engine_name": "Fortinet",
                "engine_update": "20170920",
                "engine_version": "5.4.247.0",
                "method": "blacklist",
                "result": "W32/Injector.BBYK!tr"
            },
            "GData": {
                "category": "malicious",
                "engine_name": "GData",
                "engine_update": "20170920",
                "engine_version": "A:25.14255B:25.10477",
                "method": "blacklist",
                "result": "Win32.Trojan.Agent.WP"
            },
            "Ikarus": {
                "category": "malicious",
                "engine_name": "Ikarus",
                "engine_update": "20170920",
                "engine_version": "0.1.5.2",
                "method": "blacklist",
                "result": "Trojan.Win32.Agent"
            },
            "Invincea": {
                "category": "malicious",
                "engine_name": "Invincea",
                "engine_update": "20170914",
                "engine_version": "6.3.1.25473",
                "method": "blacklist",
                "result": "heuristic"
            },
            "Jiangmin": {
                "category": "malicious",
                "engine_name": "Jiangmin",
                "engine_update": "20170920",
                "engine_version": "16.0.100",
                "method": "blacklist",
                "result": "TrojanDropper.Dinwod.ale"
            },
            "K7AntiVirus": {
                "category": "malicious",
                "engine_name": "K7AntiVirus",
                "engine_update": "20170920",
                "engine_version": "10.26.24672",
                "method": "blacklist",
                "result": "Trojan ( 000aef511 )"
            },
            "K7GW": {
                "category": "malicious",
                "engine_name": "K7GW",
                "engine_update": "20170920",
                "engine_version": "10.26.24671",
                "method": "blacklist",
                "result": "Trojan ( 000aef511 )"
            },
            "Kaspersky": {
                "category": "malicious",
                "engine_name": "Kaspersky",
                "engine_update": "20170920",
                "engine_version": "15.0.1.13",
                "method": "blacklist",
                "result": "Trojan-Dropper.Win32.Dinwod.unm"
            },
            "Kingsoft": {
                "category": "undetected",
                "engine_name": "Kingsoft",
                "engine_update": "20170920",
                "engine_version": "2013.8.14.323",
                "method": "blacklist",
                "result": null
            },
            "MAX": {
                "category": "malicious",
                "engine_name": "MAX",
                "engine_update": "20170920",
                "engine_version": "2017.6.26.1",
                "method": "blacklist",
                "result": "malware (ai score=83)"
            },
            "Malwarebytes": {
                "category": "malicious",
                "engine_name": "Malwarebytes",
                "engine_update": "20170920",
                "engine_version": "2.1.1.1115",
                "method": "blacklist",
                "result": "Trojan.Dropper"
            },
            "McAfee": {
                "category": "malicious",
                "engine_name": "McAfee",
                "engine_update": "20170920",
                "engine_version": "6.0.6.653",
                "method": "blacklist",
                "result": "Dropper-FOU!81C91A30FC04"
            },
            "McAfee-GW-Edition": {
                "category": "malicious",
                "engine_name": "McAfee-GW-Edition",
                "engine_update": "20170920",
                "engine_version": "v2015",
                "method": "blacklist",
                "result": "BehavesLike.Win32.Dropper.th"
            },
            "MicroWorld-eScan": {
                "category": "malicious",
                "engine_name": "MicroWorld-eScan",
                "engine_update": "20170920",
                "engine_version": "12.0.250.0",
                "method": "blacklist",
                "result": "DeepScan:Generic.Nimda.57EDAF37"
            },
            "Microsoft": {
                "category": "malicious",
                "engine_name": "Microsoft",
                "engine_update": "20170920",
                "engine_version": "1.1.14104.0",
                "method": "blacklist",
                "result": "Backdoor:MSIL/Bladabindi"
            },
            "NANO-Antivirus": {
                "category": "malicious",
                "engine_name": "NANO-Antivirus",
                "engine_update": "20170920",
                "engine_version": "1.0.98.19134",
                "method": "blacklist",
                "result": "Trojan.Win32.Dinwod.ejafor"
            },
            "Paloalto": {
                "category": "undetected",
                "engine_name": "Paloalto",
                "engine_update": "20170920",
                "engine_version": "1.0",
                "method": "blacklist",
                "result": null
            },
            "Panda": {
                "category": "undetected",
                "engine_name": "Panda",
                "engine_update": "20170919",
                "engine_version": "4.6.4.2",
                "method": "blacklist",
                "result": null
            },
            "Qihoo-360": {
                "category": "malicious",
                "engine_name": "Qihoo-360",
                "engine_update": "20170920",
                "engine_version": "1.0.0.1120",
                "method": "blacklist",
                "result": "HEUR/QVM18.1.F897.Malware.Gen"
            },
            "Rising": {
                "category": "malicious",
                "engine_name": "Rising",
                "engine_update": "20170920",
                "engine_version": "25.0.0.1",
                "method": "blacklist",
                "result": "Trojan.Waski!1.A489 (RDM+:cmRtazqREQIWeIs9yfGMzonwXFEj)"
            },
            "SUPERAntiSpyware": {
                "category": "undetected",
                "engine_name": "SUPERAntiSpyware",
                "engine_update": "20170920",
                "engine_version": "5.6.0.1032",
                "method": "blacklist",
                "result": null
            },
            "SentinelOne": {
                "category": "malicious",
                "engine_name": "SentinelOne",
                "engine_update": "20170806",
                "engine_version": "1.0.2.235",
                "method": "blacklist",
                "result": "static engine - malicious"
            },
            "Sophos": {
                "category": "malicious",
                "engine_name": "Sophos",
                "engine_update": "20170920",
                "engine_version": "4.98.0",
                "method": "blacklist",
                "result": "Troj/Eydrop-A"
            },
            "Symantec": {
                "category": "malicious",
                "engine_name": "Symantec",
                "engine_update": "20170920",
                "engine_version": "1.4.0.0",
                "method": "blacklist",
                "result": "Trojan.Gen"
            },
            "SymantecMobileInsight": {
                "category": "type-unsupported",
                "engine_name": "SymantecMobileInsight",
                "engine_update": "20170920",
                "engine_version": "1.0.0.35_220",
                "method": "blacklist",
                "result": null
            },
            "Tencent": {
                "category": "undetected",
                "engine_name": "Tencent",
                "engine_update": "20170920",
                "engine_version": "1.0.0.1",
                "method": "blacklist",
                "result": null
            },
            "TheHacker": {
                "category": "malicious",
                "engine_name": "TheHacker",
                "engine_update": "20170916",
                "engine_version": "6.8.0.5.1914",
                "method": "blacklist",
                "result": "Trojan/Agent.xfc"
            },
            "TotalDefense": {
                "category": "malicious",
                "engine_name": "TotalDefense",
                "engine_update": "20170920",
                "engine_version": "37.1.62.1",
                "method": "blacklist",
                "result": "Win32/Oflwr.A!crypt"
            },
            "TrendMicro": {
                "category": "malicious",
                "engine_name": "TrendMicro",
                "engine_update": "20170920",
                "engine_version": "9.862.0.1074",
                "method": "blacklist",
                "result": "TSPY_EYDROP.SMA"
            },
            "TrendMicro-HouseCall": {
                "category": "malicious",
                "engine_name": "TrendMicro-HouseCall",
                "engine_update": "20170920",
                "engine_version": "9.950.0.1006",
                "method": "blacklist",
                "result": "TSPY_EYDROP.SMA"
            },
            "Trustlook": {
                "category": "type-unsupported",
                "engine_name": "Trustlook",
                "engine_update": "20170920",
                "engine_version": "2",
                "method": "blacklist",
                "result": null
            },
            "VBA32": {
                "category": "malicious",
                "engine_name": "VBA32",
                "engine_update": "20170920",
                "engine_version": "3.12.26.4",
                "method": "blacklist",
                "result": "TrojanDropper.Dinwod"
            },
            "VIPRE": {
                "category": "malicious",
                "engine_name": "VIPRE",
                "engine_update": "20170920",
                "engine_version": "61148",
                "method": "blacklist",
                "result": "Trojan.Win32.Agent.xfc (v)"
            },
            "ViRobot": {
                "category": "malicious",
                "engine_name": "ViRobot",
                "engine_update": "20170920",
                "engine_version": "2014.3.20.0",
                "method": "blacklist",
                "result": "Trojan.Win32.Agent.69310"
            },
            "Webroot": {
                "category": "malicious",
                "engine_name": "Webroot",
                "engine_update": "20170920",
                "engine_version": "1.0.0.207",
                "method": "blacklist",
                "result": "W32.Trojan.Agent.Gen"
            },
            "WhiteArmor": {
                "category": "malicious",
                "engine_name": "WhiteArmor",
                "engine_update": "20170829",
                "engine_version": null,
                "method": "blacklist",
                "result": "Malware.HighConfidence"
            },
            "Yandex": {
                "category": "malicious",
                "engine_name": "Yandex",
                "engine_update": "20170908",
                "engine_version": "5.5.1.3",
                "method": "blacklist",
                "result": "Trojan.DR.Dinwod!dCCk6/8cSJk"
            },
            "Zillya": {
                "category": "undetected",
                "engine_name": "Zillya",
                "engine_update": "20170920",
                "engine_version": "2.0.0.3389",
                "method": "blacklist",
                "result": null
            },
            "ZoneAlarm": {
                "category": "malicious",
                "engine_name": "ZoneAlarm",
                "engine_update": "20170920",
                "engine_version": "1.0",
                "method": "blacklist",
                "result": "Trojan-Dropper.Win32.Dinwod.unm"
            },
            "Zoner": {
                "category": "undetected",
                "engine_name": "Zoner",
                "engine_update": "20170920",
                "engine_version": "1.0",
                "method": "blacklist",
                "result": null
            },
            "nProtect": {
                "category": "undetected",
                "engine_name": "nProtect",
                "engine_update": "20170920",
                "engine_version": "2017-09-20.02",
                "method": "blacklist",
                "result": null
            }
        },
        "last_analysis_stats": {
            "confirmed-timeout": 0,
            "failure": 0,
            "harmless": 0,
            "malicious": 54,
            "suspicious": 0,
            "timeout": 0,
            "type-unsupported": 3,
            "undetected": 10
        },
        "last_modification_date": 1505909585,
        "last_submission_date": 1505909346,
        "magic": "PE32 executable for MS Windows (GUI) Intel 80386 32-bit",
        "md5": "54e4cd483dbcb61c47672ddecf689b54",
        "meaningful_name": "00029249215bee0b_i64qv2q.exe",
        "names": [
            "00029249215bee0b_i64qv2q.exe"
        ],
        "packers": {
            "F-PROT": "UPX_LZMA",
            "PEiD": "UPX 2.93 [LZMA] -> Markus Oberhumer, Laszlo Molnar & John Reiser"
        },
        "pe_info": {
            "entry_point": 149056,
            "imphash": "406c785a6e2c6970c1e8ed62877e197b",
            "import_list": [
                {
                    "imported_functions": [
                        "atoi"
                    ],
                    "library_name": "MSVCRT.dll"
                },
                {
                    "imported_functions": [
                        "VirtualFree",
                        "ExitProcess",
                        "VirtualProtect",
                        "LoadLibraryA",
                        "VirtualAlloc",
                        "GetProcAddress"
                    ],
                    "library_name": "KERNEL32.DLL"
                },
                {
                    "imported_functions": [
                        "PathFileExistsA"
                    ],
                    "library_name": "SHLWAPI.dll"
                },
                {
                    "imported_functions": [
                        "wsprintfA"
                    ],
                    "library_name": "USER32.dll"
                }
            ],
            "machine_type": 332,
            "overlay": {
                "entropy": 6.632425205838515,
                "filetype": "data",
                "md5": "afbea8c3b0c42f29638799012dc93702",
                "offset": 43008,
                "size": 1973780
            },
            "sections": [
                {
                    "entropy": 0.0,
                    "md5": "d41d8cd98f00b204e9800998ecf8427e",
                    "name": "UPX0",
                    "raw_size": 0,
                    "virtual_address": 4096,
                    "virtual_size": 106496
                },
                {
                    "entropy": 7.97,
                    "md5": "f7aa81250ba37869900138a6b59a55ec",
                    "name": "UPX1",
                    "raw_size": 41472,
                    "virtual_address": 110592,
                    "virtual_size": 45056
                },
                {
                    "entropy": 2.93,
                    "md5": "acb8e418c691779c7059b0a8588cc9c4",
                    "name": "UPX2",
                    "raw_size": 512,
                    "virtual_address": 155648,
                    "virtual_size": 4096
                }
            ],
            "timestamp": 1422330987
        },
        "reputation": 0,
        "sha1": "892cfdecf11bc4b343b3d683b78b05cdc98d3530",
        "sha256": "00029249215bee0bd6b11d4927458692f4f25ba93af6dbfdea7c1a9ee7200e58",
        "size": 2016788,
        "ssdeep": "24576:gC8d36kLBXlnB8j7v5Ta+hLLQ20JmXSeWwa1oWJQjk0svTS/PPsbb1hwRM:gCOfN6X5tLLQTg20ITS/PPs/1kM",
        "tags": [
            "peexe",
            "upx",
            "overlay"
        ],
        "times_submitted": 1,
        "total_votes": {
            "harmless": 0,
            "malicious": 0
        },
        "trid": [
            {
                "file_type": "Windows ActiveX control",
                "probability": 43.3
            },
            {
                "file_type": "InstallShield setup",
                "probability": 16.0
            },
            {
                "file_type": "Win64 Executable (generic)",
                "probability": 10.2
            },
            {
                "file_type": "UPX compressed Win32 Executable",
                "probability": 10.0
            },
            {
                "file_type": "Win32 EXE Yoda's Crypter",
                "probability": 9.8
            }
        ],
        "type_description": "Win32 EXE",
        "type_extension": "exe",
        "type_tag": "peexe",
        "unique_sources": 1,
        "vhash": "02603e0f7d1bz601hz11z1fz"
    },
    "id": "00029249215bee0bd6b11d4927458692f4f25ba93af6dbfdea7c1a9ee7200e58",
    "links": {
        "self": "https://www.virustotal.com/api/v3/files/00029249215bee0bd6b11d4927458692f4f25ba93af6dbfdea7c1a9ee7200e58"
    },
    "type": "file"
}