{
    "attributes": {
        "authentihash": "c57df9c75c7cc7f358cfe4488629cb51e28867fddca4f4554163250080f48afb",
        "creation_date": 1343478955,
        "first_submission_date": 1528107714,
        "last_analysis_date": 1534639105,
        "last_analysis_results": {
            "ALYac": {
                "category": "malicious",
                "engine_name": "ALYac",
                "engine_update": "20180819",
                "engine_version": "1.1.1.5",
                "method": "blacklist",
                "result": "Trojan.GenericKD.30921960"
            },
            "AVG": {
                "category": "malicious",
                "engine_name": "AVG",
                "engine_update": "20180818",
                "engine_version": "18.4.3895.0",
                "method": "blacklist",
                "result": "FileRepMalware"
            },
            "AVware": {
                "category": "malicious",
                "engine_name": "AVware",
                "engine_update": "20180819",
                "engine_version": "1.6.0.52",
                "method": "blacklist",
                "result": "Trojan.Win32.Generic.pak!cobra"
            },
            "Ad-Aware": {
                "category": "malicious",
                "engine_name": "Ad-Aware",
                "engine_update": "20180818",
                "engine_version": "3.0.5.370",
                "method": "blacklist",
                "result": "Trojan.GenericKD.30921960"
            },
            "AegisLab": {
                "category": "malicious",
                "engine_name": "AegisLab",
                "engine_update": "20180818",
                "engine_version": "4.2",
                "method": "blacklist",
                "result": "Troj.PSW.PHP.AccPhish.togk"
            },
            "AhnLab-V3": {
                "category": "undetected",
                "engine_name": "AhnLab-V3",
                "engine_update": "20180818",
                "engine_version": "3.13.1.21616",
                "method": "blacklist",
                "result": null
            },
            "Alibaba": {
                "category": "type-unsupported",
                "engine_name": "Alibaba",
                "engine_update": "20180713",
                "engine_version": "1.0",
                "method": "blacklist",
                "result": null
            },
            "Antiy-AVL": {
                "category": "undetected",
                "engine_name": "Antiy-AVL",
                "engine_update": "20180819",
                "engine_version": "3.0.0.1",
                "method": "blacklist",
                "result": null
            },
            "Arcabit": {
                "category": "malicious",
                "engine_name": "Arcabit",
                "engine_update": "20180819",
                "engine_version": "1.0.0.831",
                "method": "blacklist",
                "result": "Trojan.Generic.D1D7D4E8"
            },
            "Avast": {
                "category": "malicious",
                "engine_name": "Avast",
                "engine_update": "20180818",
                "engine_version": "18.4.3895.0",
                "method": "blacklist",
                "result": "FileRepMalware"
            },
            "Avast-Mobile": {
                "category": "undetected",
                "engine_name": "Avast-Mobile",
                "engine_update": "20180818",
                "engine_version": "180817-04",
                "method": "blacklist",
                "result": null
            },
            "Avira": {
                "category": "malicious",
                "engine_name": "Avira",
                "engine_update": "20180818",
                "engine_version": "8.3.3.6",
                "method": "blacklist",
                "result": "TR/PHP.Gen"
            },
            "Babable": {
                "category": "undetected",
                "engine_name": "Babable",
                "engine_update": "20180725",
                "engine_version": "9107201",
                "method": "blacklist",
                "result": null
            },
            "Baidu": {
                "category": "malicious",
                "engine_name": "Baidu",
                "engine_update": "20180818",
                "engine_version": "1.0.0.2",
                "method": "blacklist",
                "result": "Win32.Trojan.WisdomEyes.16070401.9500.9871"
            },
            "BitDefender": {
                "category": "malicious",
                "engine_name": "BitDefender",
                "engine_update": "20180819",
                "engine_version": "7.2",
                "method": "blacklist",
                "result": "Trojan.GenericKD.30921960"
            },
            "Bkav": {
                "category": "undetected",
                "engine_name": "Bkav",
                "engine_update": "20180817",
                "engine_version": "1.3.0.8876",
                "method": "blacklist",
                "result": null
            },
            "CAT-QuickHeal": {
                "category": "malicious",
                "engine_name": "CAT-QuickHeal",
                "engine_update": "20180818",
                "engine_version": "14.00",
                "method": "blacklist",
                "result": "Trojan.IGENERIC"
            },
            "CMC": {
                "category": "undetected",
                "engine_name": "CMC",
                "engine_update": "20180817",
                "engine_version": "1.1.0.977",
                "method": "blacklist",
                "result": null
            },
            "ClamAV": {
                "category": "malicious",
                "engine_name": "ClamAV",
                "engine_update": "20180818",
                "engine_version": "0.100.1.0",
                "method": "blacklist",
                "result": "Win.Trojan.Agent-1109381"
            },
            "Comodo": {
                "category": "undetected",
                "engine_name": "Comodo",
                "engine_update": "20180818",
                "engine_version": null,
                "method": "blacklist",
                "result": null
            },
            "CrowdStrike": {
                "category": "malicious",
                "engine_name": "CrowdStrike",
                "engine_update": "20180723",
                "engine_version": "1.0",
                "method": "blacklist",
                "result": "malicious_confidence_80% (D)"
            },
            "Cybereason": {
                "category": "undetected",
                "engine_name": "Cybereason",
                "engine_update": "20180225",
                "engine_version": "1.2.27",
                "method": "blacklist",
                "result": null
            },
            "Cylance": {
                "category": "malicious",
                "engine_name": "Cylance",
                "engine_update": "20180819",
                "engine_version": "2.3.1.101",
                "method": "blacklist",
                "result": "Unsafe"
            },
            "Cyren": {
                "category": "malicious",
                "engine_name": "Cyren",
                "engine_update": "20180819",
                "engine_version": "6.0.0.4",
                "method": "blacklist",
                "result": "W32/A-653ff890!Eldorado"
            },
            "DrWeb": {
                "category": "undetected",
                "engine_name": "DrWeb",
                "engine_update": "20180818",
                "engine_version": "7.0.33.6080",
                "method": "blacklist",
                "result": null
            },
            "ESET-NOD32": {
                "category": "malicious",
                "engine_name": "ESET-NOD32",
                "engine_update": "20180818",
                "engine_version": "17906",
                "method": "blacklist",
                "result": "PHP/LockScreen.GH"
            },
            "Emsisoft": {
                "category": "malicious",
                "engine_name": "Emsisoft",
                "engine_update": "20180818",
                "engine_version": "2018.4.0.1029",
                "method": "blacklist",
                "result": "Trojan.GenericKD.30921960 (B)"
            },
            "Endgame": {
                "category": "malicious",
                "engine_name": "Endgame",
                "engine_update": "20180730",
                "engine_version": "3.0.1",
                "method": "blacklist",
                "result": "malicious (high confidence)"
            },
            "F-Prot": {
                "category": "malicious",
                "engine_name": "F-Prot",
                "engine_update": "20180818",
                "engine_version": "4.7.1.166",
                "method": "blacklist",
                "result": "W32/A-653ff890!Eldorado"
            },
            "F-Secure": {
                "category": "malicious",
                "engine_name": "F-Secure",
                "engine_update": "20180818",
                "engine_version": "11.0.19100.45",
                "method": "blacklist",
                "result": "Trojan.GenericKD.30921960"
            },
            "Fortinet": {
                "category": "malicious",
                "engine_name": "Fortinet",
                "engine_update": "20180818",
                "engine_version": "5.4.247.0",
                "method": "blacklist",
                "result": "W32/GenericR.CPZ!tr"
            },
            "GData": {
                "category": "malicious",
                "engine_name": "GData",
                "engine_update": "20180818",
                "engine_version": "A:25.18170B:25.12999",
                "method": "blacklist",
                "result": "Trojan.GenericKD.30921960"
            },
            "Ikarus": {
                "category": "malicious",
                "engine_name": "Ikarus",
                "engine_update": "20180818",
                "engine_version": "0.1.5.2",
                "method": "blacklist",
                "result": "Trojan.PHP.LockScreen"
            },
            "Invincea": {
                "category": "malicious",
                "engine_name": "Invincea",
                "engine_update": "20180717",
                "engine_version": "6.3.5.26121",
                "method": "blacklist",
                "result": "heuristic"
            },
            "Jiangmin": {
                "category": "malicious",
                "engine_name": "Jiangmin",
                "engine_update": "20180818",
                "engine_version": "16.0.100",
                "method": "blacklist",
                "result": "Hoax.BadJoke.dbf"
            },
            "K7AntiVirus": {
                "category": "malicious",
                "engine_name": "K7AntiVirus",
                "engine_update": "20180818",
                "engine_version": "10.59.28115",
                "method": "blacklist",
                "result": "Trojan ( 0053383a1 )"
            },
            "K7GW": {
                "category": "malicious",
                "engine_name": "K7GW",
                "engine_update": "20180819",
                "engine_version": "10.59.28115",
                "method": "blacklist",
                "result": "Trojan ( 0053383a1 )"
            },
            "Kaspersky": {
                "category": "undetected",
                "engine_name": "Kaspersky",
                "engine_update": "20180818",
                "engine_version": "15.0.1.13",
                "method": "blacklist",
                "result": null
            },
            "Kingsoft": {
                "category": "undetected",
                "engine_name": "Kingsoft",
                "engine_update": "20180819",
                "engine_version": "2013.8.14.323",
                "method": "blacklist",
                "result": null
            },
            "MAX": {
                "category": "malicious",
                "engine_name": "MAX",
                "engine_update": "20180819",
                "engine_version": "2017.11.15.1",
                "method": "blacklist",
                "result": "malware (ai score=95)"
            },
            "Malwarebytes": {
                "category": "malicious",
                "engine_name": "Malwarebytes",
                "engine_update": "20180819",
                "engine_version": "2.1.1.1115",
                "method": "blacklist",
                "result": "Trojan.Winlock.PHP"
            },
            "McAfee": {
                "category": "malicious",
                "engine_name": "McAfee",
                "engine_update": "20180818",
                "engine_version": "6.0.6.653",
                "method": "blacklist",
                "result": "GenericR-CPZ!C3E01E375EFF"
            },
            "McAfee-GW-Edition": {
                "category": "malicious",
                "engine_name": "McAfee-GW-Edition",
                "engine_update": "20180818",
                "engine_version": "v2017.3010",
                "method": "blacklist",
                "result": "BehavesLike.Win32.PWSMmorpg.wc"
            },
            "MicroWorld-eScan": {
                "category": "malicious",
                "engine_name": "MicroWorld-eScan",
                "engine_update": "20180818",
                "engine_version": "14.0.297.0",
                "method": "blacklist",
                "result": "Trojan.GenericKD.30921960"
            },
            "Microsoft": {
                "category": "malicious",
                "engine_name": "Microsoft",
                "engine_update": "20180818",
                "engine_version": "1.1.15100.1",
                "method": "blacklist",
                "result": "Trojan:Win32/Fuerboos.A!cl"
            },
            "NANO-Antivirus": {
                "category": "malicious",
                "engine_name": "NANO-Antivirus",
                "engine_update": "20180819",
                "engine_version": "1.0.116.23366",
                "method": "blacklist",
                "result": "Trojan.Win32.LockScreen.fdofzh"
            },
            "Paloalto": {
                "category": "malicious",
                "engine_name": "Paloalto",
                "engine_update": "20180819",
                "engine_version": "1.0",
                "method": "blacklist",
                "result": "generic.ml"
            },
            "Panda": {
                "category": "undetected",
                "engine_name": "Panda",
                "engine_update": "20180818",
                "engine_version": "4.6.4.2",
                "method": "blacklist",
                "result": null
            },
            "Qihoo-360": {
                "category": "malicious",
                "engine_name": "Qihoo-360",
                "engine_update": "20180819",
                "engine_version": "1.0.0.1120",
                "method": "blacklist",
                "result": "HEUR/QVM05.1.9EFF.Malware.Gen"
            },
            "Rising": {
                "category": "undetected",
                "engine_name": "Rising",
                "engine_update": "20180818",
                "engine_version": "25.0.0.24",
                "method": "blacklist",
                "result": null
            },
            "SUPERAntiSpyware": {
                "category": "undetected",
                "engine_name": "SUPERAntiSpyware",
                "engine_update": "20180818",
                "engine_version": "5.6.0.1032",
                "method": "blacklist",
                "result": null
            },
            "SentinelOne": {
                "category": "undetected",
                "engine_name": "SentinelOne",
                "engine_update": "20180701",
                "engine_version": "1.0.17.227",
                "method": "blacklist",
                "result": null
            },
            "Sophos": {
                "category": "malicious",
                "engine_name": "Sophos",
                "engine_update": "20180818",
                "engine_version": "4.98.0",
                "method": "blacklist",
                "result": "Mal/Generic-S"
            },
            "Symantec": {
                "category": "malicious",
                "engine_name": "Symantec",
                "engine_update": "20180818",
                "engine_version": "1.7.0.0",
                "method": "blacklist",
                "result": "ML.Attribute.HighConfidence"
            },
            "SymantecMobileInsight": {
                "category": "type-unsupported",
                "engine_name": "SymantecMobileInsight",
                "engine_update": "20180814",
                "engine_version": "2.0",
                "method": "blacklist",
                "result": null
            },
            "TACHYON": {
                "category": "undetected",
                "engine_name": "TACHYON",
                "engine_update": "20180818",
                "engine_version": "2018-08-18.02",
                "method": "blacklist",
                "result": null
            },
            "Tencent": {
                "category": "undetected",
                "engine_name": "Tencent",
                "engine_update": "20180819",
                "engine_version": "1.0.0.1",
                "method": "blacklist",
                "result": null
            },
            "TheHacker": {
                "category": "undetected",
                "engine_name": "TheHacker",
                "engine_update": "20180818",
                "engine_version": "6.8.0.5.3560",
                "method": "blacklist",
                "result": null
            },
            "TotalDefense": {
                "category": "undetected",
                "engine_name": "TotalDefense",
                "engine_update": "20180818",
                "engine_version": "37.1.62.1",
                "method": "blacklist",
                "result": null
            },
            "TrendMicro": {
                "category": "malicious",
                "engine_name": "TrendMicro",
                "engine_update": "20180818",
                "engine_version": "10.0.0.1040",
                "method": "blacklist",
                "result": "TROJ_GEN.R002C0PF418"
            },
            "TrendMicro-HouseCall": {
                "category": "malicious",
                "engine_name": "TrendMicro-HouseCall",
                "engine_update": "20180818",
                "engine_version": "9.950.0.1006",
                "method": "blacklist",
                "result": "TROJ_GEN.R002C0PF418"
            },
            "Trustlook": {
                "category": "type-unsupported",
                "engine_name": "Trustlook",
                "engine_update": "20180819",
                "engine_version": "2",
                "method": "blacklist",
                "result": null
            },
            "VBA32": {
                "category": "undetected",
                "engine_name": "VBA32",
                "engine_update": "20180817",
                "engine_version": "3.33.0",
                "method": "blacklist",
                "result": null
            },
            "VIPRE": {
                "category": "malicious",
                "engine_name": "VIPRE",
                "engine_update": "20180818",
                "engine_version": "68932",
                "method": "blacklist",
                "result": "Trojan.Win32.Generic.pak!cobra"
            },
            "ViRobot": {
                "category": "undetected",
                "engine_name": "ViRobot",
                "engine_update": "20180818",
                "engine_version": "2014.3.20.0",
                "method": "blacklist",
                "result": null
            },
            "Webroot": {
                "category": "undetected",
                "engine_name": "Webroot",
                "engine_update": "20180819",
                "engine_version": "1.0.0.403",
                "method": "blacklist",
                "result": null
            },
            "Yandex": {
                "category": "malicious",
                "engine_name": "Yandex",
                "engine_update": "20180818",
                "engine_version": "5.5.1.3",
                "method": "blacklist",
                "result": "Trojan.PHP!Hs+bR1JyWK8"
            },
            "Zillya": {
                "category": "undetected",
                "engine_name": "Zillya",
                "engine_update": "20180817",
                "engine_version": "2.0.0.3620",
                "method": "blacklist",
                "result": null
            },
            "ZoneAlarm": {
                "category": "undetected",
                "engine_name": "ZoneAlarm",
                "engine_update": "20180818",
                "engine_version": "1.0",
                "method": "blacklist",
                "result": null
            },
            "Zoner": {
                "category": "undetected",
                "engine_name": "Zoner",
                "engine_update": "20180818",
                "engine_version": "1.0",
                "method": "blacklist",
                "result": null
            },
            "eGambit": {
                "category": "undetected",
                "engine_name": "eGambit",
                "engine_update": "20180819",
                "engine_version": null,
                "method": "blacklist",
                "result": null
            }
        },
        "last_analysis_stats": {
            "confirmed-timeout": 0,
            "failure": 0,
            "harmless": 0,
            "malicious": 42,
            "suspicious": 0,
            "timeout": 0,
            "type-unsupported": 3,
            "undetected": 26
        },
        "last_modification_date": 1534639274,
        "last_submission_date": 1528107714,
        "magic": "PE32 executable for MS Windows (GUI) Intel 80386 32-bit",
        "md5": "c3e01e375eff58a82072595d76fac2ef",
        "meaningful_name": "gaylocker.exe",
        "names": [
            "gaylocker.exe"
        ],
        "pe_info": {
            "entry_point": 1994864,
            "exports": [
                "get_module"
            ],
            "imphash": "b0ee5f3ba44c825e73d37304e54fc889",
            "import_list": [
                {
                    "imported_functions": [
                        "EnumPrintersA",
                        "OpenPrinterA",
                        "DocumentPropertiesA",
                        "ClosePrinter"
                    ],
                    "library_name": "winspool.drv"
                },
                {
                    "imported_functions": [
                        "PrintDlgA",
                        "ReplaceTextA",
                        "FindTextA",
                        "PageSetupDlgA",
                        "GetOpenFileNameA",
                        "ChooseColorA",
                        "GetSaveFileNameA",
                        "ChooseFontA"
                    ],
                    "library_name": "comdlg32.dll"
                },
                {
                    "imported_functions": [
                        "RedrawWindow",
                        "GetMessagePos",
                        "SetWindowRgn",
                        "UnregisterHotKey",
                        "CharLowerBuffA",
                        "DrawStateA",
                        "EnableScrollBar",
                        "DestroyMenu",
                        "PostQuitMessage",
                        "GetForegroundWindow",
                        "LoadBitmapA",
                        "SetWindowPos",
                        "IsWindow",
                        "DispatchMessageA",
                        "EndPaint",
                        "ScrollWindowEx",
                        "VkKeyScanA",
                        "SetMenuItemInfoA",
                        "CharUpperBuffA",
                        "WindowFromPoint",
                        "DrawIcon",
                        "GetMessageTime",
                        "CopyImage",
                        "SetActiveWindow",
                        "GetMenuItemID",
                        "GetCursorPos",
                        "ReleaseDC",
                        "GetClassInfoA",
                        "wvsprintfA",
                        "SendMessageW",
                        "UnregisterClassA",
                        "SendMessageA",
                        "GetClientRect",
                        "DrawTextW",
                        "SetScrollPos",
                        "CallNextHookEx",
                        "IsClipboardFormatAvailable",
                        "GetKeyboardState",
                        "ClientToScreen",
                        "GetTopWindow",
                        "RegisterHotKey",
                        "GetWindowTextW",
                        "EnumClipboardFormats",
                        "LockWindowUpdate",
                        "MsgWaitForMultipleObjects",
                        "ScrollWindow",
                        "GetWindowTextA",
                        "GetKeyState",
                        "PtInRect",
                        "DrawEdge",
                        "GetParent",
                        "UpdateWindow",
                        "SetPropA",
                        "EqualRect",
                        "EnumWindows",
                        "DefMDIChildProcA",
                        "CreateCaret",
                        "ShowWindow",
                        "SetClassLongA",
                        "GetPropA",
                        "GetMenuState",
                        "PeekMessageW",
                        "TranslateMDISysAccel",
                        "EnableWindow",
                        "SetWindowPlacement",
                        "PeekMessageA",
                        "ChildWindowFromPoint",
                        "IsCharAlphaA",
                        "TranslateMessage",
                        "IsWindowEnabled",
                        "GetWindow",
                        "DestroyCaret",
                        "ActivateKeyboardLayout",
                        "InsertMenuItemA",
                        "CreatePopupMenu",
                        "GetIconInfo",
                        "LoadStringA",
                        "SetParent",
                        "SetClipboardData",
                        "GetSystemMetrics",
                        "IsZoomed",
                        "GetWindowPlacement",
                        "GetKeyboardLayoutList",
                        "DrawMenuBar",
                        "CharLowerA",
                        "IsIconic",
                        "RegisterClassA",
                        "GetMenuItemCount",
                        "GetWindowLongA",
                        "SetTimer",
                        "OemToCharA",
                        "GetActiveWindow",
                        "ShowOwnedPopups",
                        "FillRect",
                        "EnumThreadWindows",
                        "CharNextA",
                        "GetSysColorBrush",
                        "IsWindowUnicode",
                        "GetWindowLongW",
                        "GetUpdateRect",
                        "DestroyWindow",
                        "IsChild",
                        "IsDialogMessageA",
                        "SetFocus",
                        "MapVirtualKeyA",
                        "GetKeyboardLayoutNameA",
                        "PostMessageA",
                        "BeginPaint",
                        "OffsetRect",
                        "SetCaretPos",
                        "GetScrollPos",
                        "keybd_event",
                        "KillTimer",
                        "TrackMouseEvent",
                        "ClipCursor",
                        "RegisterWindowMessageA",
                        "DefWindowProcA",
                        "DrawFocusRect",
                        "MapWindowPoints",
                        "SendDlgItemMessageA",
                        "IsCharAlphaNumericA",
                        "SetWindowLongW",
                        "SetScrollRange",
                        "GetWindowRect",
                        "InflateRect",
                        "SetCapture",
                        "ReleaseCapture",
                        "EnumChildWindows",
                        "GetScrollRange",
                        "SetWindowLongA",
                        "SetKeyboardState",
                        "DrawTextExW",
                        "RemovePropA",
                        "SetWindowTextA",
                        "ShowCaret",
                        "GetSubMenu",
                        "GetLastActivePopup",
                        "DrawIconEx",
                        "CreateWindowExA",
                        "GetDlgItem",
                        "BringWindowToTop",
                        "ScreenToClient",
                        "GetClassLongA",
                        "InsertMenuA",
                        "LoadCursorA",
                        "LoadIconA",
                        "TrackPopupMenu",
                        "SetWindowsHookExA",
                        "GetMenuStringA",
                        "BeginDeferWindowPos",
                        "ValidateRect",
                        "IsDialogMessageW",
                        "GetSystemMenu",
                        "GetDC",
                        "CheckMenuItem",
                        "SetForegroundWindow",
                        "ExitWindowsEx",
                        "OpenClipboard",
                        "GetAsyncKeyState",
                        "DrawTextA",
                        "IntersectRect",
                        "GetScrollInfo",
                        "HideCaret",
                        "GetKeyboardLayout",
                        "GetCapture",
                        "WaitMessage",
                        "FindWindowA",
                        "MessageBeep",
                        "GetCaretPos",
                        "DrawTextExA",
                        "RemoveMenu",
                        "GetWindowThreadProcessId",
                        "DeferWindowPos",
                        "ShowScrollBar",
                        "GetMenu",
                        "DestroyIcon",
                        "DrawFrameControl",
                        "UnhookWindowsHookEx",
                        "RegisterClipboardFormatA",
                        "SetRectEmpty",
                        "CallWindowProcA",
                        "MessageBoxA",
                        "GetClassNameA",
                        "GetWindowDC",
                        "DestroyCursor",
                        "AdjustWindowRectEx",
                        "mouse_event",
                        "LoadKeyboardLayoutA",
                        "GetSysColor",
                        "SetScrollInfo",
                        "GetMenuItemInfoA",
                        "EndDeferWindowPos",
                        "SystemParametersInfoA",
                        "GetDoubleClickTime",
                        "EnableMenuItem",
                        "GetKeyNameTextA",
                        "IsWindowVisible",
                        "EmptyClipboard",
                        "GetDesktopWindow",
                        "GetClipboardData",
                        "CharToOemA",
                        "SetCursorPos",
                        "GetDCEx",
                        "UnionRect",
                        "DispatchMessageW",
                        "FrameRect",
                        "SetRect",
                        "DeleteMenu",
                        "InvalidateRect",
                        "DefFrameProcA",
                        "CreateIcon",
                        "IsRectEmpty",
                        "GetCursor",
                        "GetFocus",
                        "CreateMenu",
                        "CloseClipboard",
                        "GetKeyboardType",
                        "SetMenu",
                        "SetCursor"
                    ],
                    "library_name": "user32.dll"
                },
                {
                    "imported_functions": [
                        "WSAStartup",
                        "gethostbyname",
                        "inet_ntoa",
                        "gethostname",
                        "WSACleanup"
                    ],
                    "library_name": "wsock32.dll"
                },
                {
                    "imported_functions": [
                        "GetFileVersionInfoSizeA",
                        "GetFileVersionInfoA",
                        "VerQueryValueA"
                    ],
                    "library_name": "version.dll"
                },
                {
                    "imported_functions": [
                        "timeGetTime"
                    ],
                    "library_name": "winmm.dll"
                },
                {
                    "imported_functions": [
                        "PolyPolyline",
                        "SetMapMode",
                        "GetWindowOrgEx",
                        "ResizePalette",
                        "GetTextMetricsA",
                        "GetCharABCWidthsA",
                        "CombineRgn",
                        "GetObjectType",
                        "GetTextExtentPointA",
                        "SetPixel",
                        "EndDoc",
                        "SetPaletteEntries",
                        "GetFontLanguageInfo",
                        "CopyEnhMetaFileA",
                        "CreateEllipticRgn",
                        "CreatePalette",
                        "CreateDIBitmap",
                        "GetDIBits",
                        "GetEnhMetaFileBits",
                        "GetDCOrgEx",
                        "StretchBlt",
                        "StretchDIBits",
                        "GetPaletteEntries",
                        "SetWindowExtEx",
                        "SetViewportExtEx",
                        "ExtCreatePen",
                        "SetBkColor",
                        "SetWinMetaFileBits",
                        "GetDIBColorTable",
                        "DeleteEnhMetaFile",
                        "GetSystemPaletteEntries",
                        "SetStretchBltMode",
                        "GetCurrentPositionEx",
                        "TextOutA",
                        "CreateFontIndirectA",
                        "CreateRectRgnIndirect",
                        "EndPath",
                        "GetPixel",
                        "GetBrushOrgEx",
                        "ExcludeClipRect",
                        "SetBkMode",
                        "BitBlt",
                        "GetDeviceCaps",
                        "SetAbortProc",
                        "CreateBrushIndirect",
                        "SelectPalette",
                        "CloseEnhMetaFile",
                        "SetROP2",
                        "EndPage",
                        "GetNearestPaletteIndex",
                        "SetDIBColorTable",
                        "BeginPath",
                        "DeleteObject",
                        "CreatePenIndirect",
                        "AddFontResourceA",
                        "PatBlt",
                        "CreatePen",
                        "GetClipBox",
                        "Rectangle",
                        "GetObjectA",
                        "CreateDCA",
                        "LineTo",
                        "DeleteDC",
                        "StartPage",
                        "GetCharWidthA",
                        "RealizePalette",
                        "SetEnhMetaFileBits",
                        "IntersectClipRect",
                        "SelectClipPath",
                        "RectVisible",
                        "GetStockObject",
                        "PlayEnhMetaFile",
                        "ExtTextOutA",
                        "UnrealizeObject",
                        "GdiFlush",
                        "SelectClipRgn",
                        "RoundRect",
                        "CreateCompatibleDC",
                        "GetTextExtentPoint32A",
                        "GetWinMetaFileBits",
                        "GetEnhMetaFileHeader",
                        "SetWindowOrgEx",
                        "SelectObject",
                        "SetTextCharacterExtra",
                        "CreatePolygonRgn",
                        "CreateICA",
                        "Polygon",
                        "CreateHalftonePalette",
                        "GetRgnBox",
                        "SaveDC",
                        "MaskBlt",
                        "GetEnhMetaFilePaletteEntries",
                        "RestoreDC",
                        "GetBitmapBits",
                        "CreateBitmap",
                        "CreateDIBSection",
                        "SetTextColor",
                        "MoveToEx",
                        "SetViewportOrgEx",
                        "EnumFontFamiliesExA",
                        "SetBrushOrgEx",
                        "CreateRectRgn",
                        "RemoveFontResourceA",
                        "GetClipRgn",
                        "StartDocA",
                        "CreateCompatibleBitmap",
                        "CreateSolidBrush",
                        "Polyline",
                        "Ellipse"
                    ],
                    "library_name": "gdi32.dll"
                },
                {
                    "imported_functions": [
                        "SHBrowseForFolderA",
                        "DragFinish",
                        "DragAcceptFiles",
                        "SHGetDesktopFolder",
                        "DragQueryPoint",
                        "SHGetSpecialFolderLocation",
                        "DragQueryFileA",
                        "SHGetPathFromIDListA",
                        "SHGetMalloc",
                        "ShellExecuteA",
                        "Shell_NotifyIconA"
                    ],
                    "library_name": "shell32.dll"
                },
                {
                    "imported_functions": [
                        "SetThreadLocale",
                        "GetStdHandle",
                        "FileTimeToDosDateTime",
                        "GetFileAttributesA",
                        "WaitForSingleObject",
                        "GetLocalTime",
                        "DeleteCriticalSection",
                        "GetCurrentProcess",
                        "GetLocaleInfoA",
                        "LocalAlloc",
                        "SetErrorMode",
                        "GetTempPathA",
                        "WideCharToMultiByte",
                        "InterlockedExchange",
                        "WriteFile",
                        "GetDiskFreeSpaceA",
                        "ResumeThread",
                        "GetFullPathNameA",
                        "GetExitCodeProcess",
                        "GetThreadPriority",
                        "InitializeCriticalSection",
                        "LoadResource",
                        "GlobalHandle",
                        "FindClose",
                        "TlsGetValue",
                        "FormatMessageA",
                        "SetLastError",
                        "GlobalFindAtomA",
                        "ExitProcess",
                        "GetModuleFileNameA",
                        "EnumCalendarInfoA",
                        "LoadLibraryExA",
                        "SetThreadPriority",
                        "UnhandledExceptionFilter",
                        "InterlockedDecrement",
                        "MultiByteToWideChar",
                        "SystemTimeToTzSpecificLocalTime",
                        "GetModuleHandleA",
                        "CreateThread",
                        "GetExitCodeThread",
                        "GlobalAddAtomA",
                        "MulDiv",
                        "ExitThread",
                        "TerminateProcess",
                        "GlobalAlloc",
                        "SetEndOfFile",
                        "GetVersion",
                        "InterlockedIncrement",
                        "SetCurrentDirectoryA",
                        "EnterCriticalSection",
                        "FreeLibrary",
                        "QueryPerformanceCounter",
                        "GetTickCount",
                        "GetVersionExA",
                        "LoadLibraryA",
                        "RtlUnwind",
                        "GlobalSize",
                        "GetStartupInfoA",
                        "GetDateFormatA",
                        "OpenProcess",
                        "CreateDirectoryA",
                        "SetEvent",
                        "GetProcAddress",
                        "CompareStringW",
                        "lstrcmpA",
                        "FindFirstFileA",
                        "lstrcpyA",
                        "GetProfileStringA",
                        "CompareStringA",
                        "FindNextFileA",
                        "GlobalLock",
                        "CreateEventA",
                        "TlsSetValue",
                        "CreateFileA",
                        "LeaveCriticalSection",
                        "GetLastError",
                        "GlobalDeleteAtom",
                        "GetSystemInfo",
                        "lstrlenA",
                        "GlobalFree",
                        "GetThreadLocale",
                        "GlobalUnlock",
                        "VirtualQuery",
                        "FileTimeToLocalFileTime",
                        "SizeofResource",
                        "GetCurrentProcessId",
                        "LockResource",
                        "GetCPInfo",
                        "SetSystemPowerState",
                        "GetCommandLineA",
                        "SuspendThread",
                        "RaiseException",
                        "SetFilePointer",
                        "ReadFile",
                        "CloseHandle",
                        "lstrcpynA",
                        "GetACP",
                        "GetCurrentThreadId",
                        "FreeResource",
                        "CreateProcessA",
                        "VirtualFree",
                        "Sleep",
                        "FindResourceA",
                        "VirtualAlloc",
                        "ResetEvent"
                    ],
                    "library_name": "kernel32.dll"
                },
                {
                    "imported_functions": [
                        "VariantChangeType",
                        "SafeArrayAccessData",
                        "SafeArrayGetLBound",
                        "SafeArrayGetElement",
                        "SafeArrayPtrOfIndex",
                        "SysAllocStringLen",
                        "SafeArrayUnaccessData",
                        "VariantCopyInd",
                        "VariantClear",
                        "SafeArrayCreate",
                        "SysReAllocStringLen",
                        "SafeArrayGetUBound",
                        "VariantCopy",
                        "GetErrorInfo",
                        "SysFreeString",
                        "SafeArrayPutElement",
                        "VariantInit"
                    ],
                    "library_name": "oleaut32.dll"
                },
                {
                    "imported_functions": [
                        "RegUnLoadKeyA",
                        "RegRestoreKeyA",
                        "RegFlushKey",
                        "RegLoadKeyA",
                        "RegSaveKeyA",
                        "OpenProcessToken",
                        "AdjustTokenPrivileges",
                        "RegQueryValueExA",
                        "LookupPrivilegeValueA",
                        "RegSetValueExA",
                        "RegDeleteKeyA",
                        "RegDeleteValueA",
                        "RegCreateKeyExA",
                        "RegOpenKeyExA",
                        "RegCloseKey",
                        "RegEnumKeyExA",
                        "RegQueryInfoKeyA"
                    ],
                    "library_name": "advapi32.dll"
                },
                {
                    "imported_functions": [
                        "CoInitializeEx",
                        "CoUninitialize",
                        "CoInitialize",
                        "CoTaskMemAlloc",
                        "CLSIDFromString",
                        "CoCreateInstance",
                        "CoTaskMemFree"
                    ],
                    "library_name": "ole32.dll"
                },
                {
                    "imported_functions": [
                        "GradientFill"
                    ],
                    "library_name": "msimg32.dll"
                },
                {
                    "imported_functions": [
                        "ImageList_BeginDrag",
                        "ImageList_SetBkColor",
                        "ImageList_Replace",
                        "InitCommonControls",
                        "ImageList_Read",
                        "ImageList_GetDragImage",
                        "ImageList_Create",
                        "ImageList_DragMove",
                        "ImageList_DrawEx",
                        "ImageList_SetIconSize",
                        "ImageList_Write",
                        "ImageList_GetImageCount",
                        "ImageList_Destroy",
                        "_TrackMouseEvent",
                        "ImageList_Draw",
                        "ImageList_GetIconSize",
                        "ImageList_DragLeave",
                        "ImageList_GetBkColor",
                        "ImageList_GetIcon",
                        "ImageList_DragEnter",
                        "ImageList_Add",
                        "ImageList_DragShowNolock",
                        "ImageList_Remove",
                        "ImageList_EndDrag"
                    ],
                    "library_name": "comctl32.dll"
                },
                {
                    "imported_functions": [
                        "ImmReleaseContext",
                        "ImmGetCompositionStringA",
                        "ImmSetCompositionFontA",
                        "ImmSetCompositionWindow",
                        "ImmGetContext"
                    ],
                    "library_name": "imm32.dll"
                }
            ],
            "machine_type": 332,
            "overlay": {
                "chi2": 11581.1943359375,
                "entropy": 7.993762016296387,
                "filetype": "data",
                "md5": "240ec2fd3205b5ce089c12f72e3a2084",
                "offset": 2370048,
                "size": 1324955
            },
            "resource_details": [
                {
                    "chi2": 23561.51171875,
                    "entropy": 2.616791248321533,
                    "filetype": "data",
                    "lang": "ENGLISH US",
                    "sha256": "30df4ddb7d7ff020b05c161b16bafa7002c89871d8b05d132b9c06af0a21b693",
                    "type": "RT_CURSOR"
                },
                {
                    "chi2": 23204.11328125,
                    "entropy": 2.8023130893707275,
                    "filetype": "data",
                    "lang": "ENGLISH US",
                    "sha256": "ce19ace18e87b572e6912306776226af5b8e63959c61cde70a8ff05b3bbdcc41",
                    "type": "RT_CURSOR"
                },
                {
                    "chi2": 19787.994140625,
                    "entropy": 3.000459671020508,
                    "filetype": "data",
                    "lang": "ENGLISH US",
                    "sha256": "ee1c9c194199c320c893b367602ccc7ee7270bd4395d029f727e097634f47f8c",
                    "type": "RT_CURSOR"
                },
                {
                    "chi2": 23586.439453125,
                    "entropy": 2.563183546066284,
                    "filetype": "data",
                    "lang": "ENGLISH US",
                    "sha256": "9d9edf87ca203ecc60b246cc783d54218dd0ce77d3a025d0bafc580995a4abd8",
                    "type": "RT_CURSOR"
                },
                {
                    "chi2": 22751.939453125,
                    "entropy": 2.6949045658111572,
                    "filetype": "data",
                    "lang": "ENGLISH US",
                    "sha256": "99676c52310db365580965ea646ece86c62951bfd97ec0aae9f738a202a90593",
                    "type": "RT_CURSOR"
                },
                {
                    "chi2": 23076.10546875,
                    "entropy": 2.625270366668701,
                    "filetype": "data",
                    "lang": "ENGLISH US",
                    "sha256": "11726dcf1eebe23a1df5eb0ee2af39196b702eddd69083d646e4475335130b28",
                    "type": "RT_CURSOR"
                },
                {
                    "chi2": 22065.396484375,
                    "entropy": 2.9160430431365967,
                    "filetype": "data",
                    "lang": "ENGLISH US",
                    "sha256": "6f938aab0a03120de4ef8b27aff6ba5146226c92a056a6f04e5ec8d513ce5f9d",
                    "type": "RT_CURSOR"
                },
                {
                    "chi2": 24793.30078125,
                    "entropy": 2.472771644592285,
                    "filetype": "data",
                    "lang": "ENGLISH US",
                    "sha256": "11f098697506abaabc258dba94161e0b79d5659ee40f691c6624f5abad09d0c7",
                    "type": "RT_CURSOR"
                },
                {
                    "chi2": 32223.947265625,
                    "entropy": 1.8657671213150024,
                    "filetype": "data",
                    "lang": "ENGLISH US",
                    "sha256": "f97cf93e15106430fd340b9b91735a313b4caa6ba9ad433e1ac932562cc877ff",
                    "type": "RT_CURSOR"
                },
                {
                    "chi2": 34180.53125,
                    "entropy": 1.6400339603424072,
                    "filetype": "data",
                    "lang": "ENGLISH US",
                    "sha256": "afb7a6466c977c7abda247ce0722676394e5f5c29a721a56561921040dbda43c",
                    "type": "RT_CURSOR"
                },
                {
                    "chi2": 34180.53125,
                    "entropy": 1.6400339603424072,
                    "filetype": "data",
                    "lang": "ENGLISH US",
                    "sha256": "d96d98035dfd86ce76c444b86071cf156c4c040e906b893fbe3a1dcd90abae8d",
                    "type": "RT_CURSOR"
                },
                {
                    "chi2": 22078.701171875,
                    "entropy": 2.663296699523926,
                    "filetype": "data",
                    "lang": "ENGLISH US",
                    "sha256": "b8e6fc93d423931acbddae3c27dd3c4eb2a394005d746951a971cb700e0ee510",
                    "type": "RT_CURSOR"
                },
                {
                    "chi2": 21706.759765625,
                    "entropy": 1.8647819757461548,
                    "filetype": "data",
                    "lang": "ENGLISH US",
                    "sha256": "8f534a1157277c28e9e086cb2923a02c083359332fe402a7b20b714ea4eb34cd",
                    "type": "RT_BITMAP"
                },
                {
                    "chi2": 19411.5859375,
                    "entropy": 2.044623613357544,
                    "filetype": "data",
                    "lang": "ENGLISH US",
                    "sha256": "afbde55f479b0f04945f08be452c5b61e3f4a027bf293fcb889aac106fdd3c95",
                    "type": "RT_BITMAP"
                },
                {
                    "chi2": 19676.4140625,
                    "entropy": 2.0365657806396484,
                    "filetype": "data",
                    "lang": "ENGLISH US",
                    "sha256": "489a521585312d5f95e36eba36b7aa98dc54ea4604ff0baf8d3a9d7b28196eef",
                    "type": "RT_BITMAP"
                },
                {
                    "chi2": 19411.5859375,
                    "entropy": 2.044623613357544,
                    "filetype": "data",
                    "lang": "ENGLISH US",
                    "sha256": "b9ea010c0ca28f91b2d9e8f93bc8010065d6481c94871cb6c1fbf6e1b43607b4",
                    "type": "RT_BITMAP"
                },
                {
                    "chi2": 21706.759765625,
                    "entropy": 1.8647819757461548,
                    "filetype": "data",
                    "lang": "ENGLISH US",
                    "sha256": "9cf1f50c7b4ec816d5e1c8ef9d9c7643622405af8349706b888b01efabd39ca9",
                    "type": "RT_BITMAP"
                },
                {
                    "chi2": 19411.5859375,
                    "entropy": 2.044623613357544,
                    "filetype": "data",
                    "lang": "ENGLISH US",
                    "sha256": "31307129226139136adcd5bf41d6f5c4d60e9301111ea0214b79536d96f627b0",
                    "type": "RT_BITMAP"
                },
                {
                    "chi2": 21706.759765625,
                    "entropy": 1.8647819757461548,
                    "filetype": "data",
                    "lang": "ENGLISH US",
                    "sha256": "59ba5ce31fab8feceba43780d0619ee474138c9a377c6cec4cbb91407cae5c1d",
                    "type": "RT_BITMAP"
                },
                {
                    "chi2": 28032.556640625,
                    "entropy": 2.9207894802093506,
                    "filetype": "data",
                    "lang": "ENGLISH US",
                    "sha256": "c0ede68a98bd2bc58c78564dfb42f1640dc29766d3ab2782ab8b5ed28c6fd414",
                    "type": "RT_BITMAP"
                },
                {
                    "chi2": 24840.955078125,
                    "entropy": 3.169954538345337,
                    "filetype": "data",
                    "lang": "ENGLISH US",
                    "sha256": "46cfc44afa8ab31ae3da35fa8346e4c085c441659d9992b09fc8ad517f2b289a",
                    "type": "RT_BITMAP"
                },
                {
                    "chi2": 28032.556640625,
                    "entropy": 2.9207894802093506,
                    "filetype": "data",
                    "lang": "ENGLISH US",
                    "sha256": "c0ede68a98bd2bc58c78564dfb42f1640dc29766d3ab2782ab8b5ed28c6fd414",
                    "type": "RT_BITMAP"
                },
                {
                    "chi2": 16957.240234375,
                    "entropy": 3.684924602508545,
                    "filetype": "data",
                    "lang": "ENGLISH US",
                    "sha256": "f8e1696801fe89b88936ac4226cea03bfa5aa345aa33ca982822ae7fbc6557e2",
                    "type": "RT_BITMAP"
                },
                {
                    "chi2": 30431.443359375,
                    "entropy": 2.8808481693267822,
                    "filetype": "data",
                    "lang": "ENGLISH US",
                    "sha256": "cb7421b5c6af74c3159c361f3bb78bba8a488d8979d1250e106fa96cbf928789",
                    "type": "RT_BITMAP"
                },
                {
                    "chi2": 24627.3046875,
                    "entropy": 3.297182321548462,
                    "filetype": "data",
                    "lang": "ENGLISH US",
                    "sha256": "41f05a4df5f42d92b879493d51941de342d36460fe15c0f3b63b2b706b928fef",
                    "type": "RT_BITMAP"
                },
                {
                    "chi2": 16285.2412109375,
                    "entropy": 3.5880351066589355,
                    "filetype": "data",
                    "lang": "ENGLISH US",
                    "sha256": "81265e63c89ee5c2e5126452e22f84e9be9452449f3e5959ab6d346cb58b2bde",
                    "type": "RT_BITMAP"
                },
                {
                    "chi2": 34303.44921875,
                    "entropy": 2.6745853424072266,
                    "filetype": "data",
                    "lang": "ENGLISH US",
                    "sha256": "6b97877cdd547e6ba6467f86055f1fc7b06660b034439f0da4c137538ef14a83",
                    "type": "RT_BITMAP"
                },
                {
                    "chi2": 17493.517578125,
                    "entropy": 3.5334391593933105,
                    "filetype": "data",
                    "lang": "ENGLISH US",
                    "sha256": "c925e4a8cbf6d42dbb1220a510614df725558f8d843338982bab8c4e020f6429",
                    "type": "RT_BITMAP"
                },
                {
                    "chi2": 34303.44921875,
                    "entropy": 2.6745853424072266,
                    "filetype": "data",
                    "lang": "ENGLISH US",
                    "sha256": "6b97877cdd547e6ba6467f86055f1fc7b06660b034439f0da4c137538ef14a83",
                    "type": "RT_BITMAP"
                },
                {
                    "chi2": 12943.99609375,
                    "entropy": 2.78824520111084,
                    "filetype": "data",
                    "lang": "ENGLISH US",
                    "sha256": "4f72c53f3bac49ce0b7c248152479a14e383a90c9fe95edbddec9f03784ca698",
                    "type": "RT_BITMAP"
                },
                {
                    "chi2": 11676.802734375,
                    "entropy": 4.239711284637451,
                    "filetype": "data",
                    "lang": "NEUTRAL",
                    "sha256": "fac3c0900a295cae07bd81c7966f3deded85bb050e7106bc4562e171f3e3ab49",
                    "type": "RT_BITMAP"
                },
                {
                    "chi2": 11676.802734375,
                    "entropy": 4.239711284637451,
                    "filetype": "data",
                    "lang": "NEUTRAL",
                    "sha256": "3c6b03fdc8bef0ac797902d03f6a2f085814a28305bfe5db7f62d2c6816b9903",
                    "type": "RT_BITMAP"
                },
                {
                    "chi2": 11676.802734375,
                    "entropy": 4.239711284637451,
                    "filetype": "data",
                    "lang": "NEUTRAL",
                    "sha256": "fac3c0900a295cae07bd81c7966f3deded85bb050e7106bc4562e171f3e3ab49",
                    "type": "RT_BITMAP"
                },
                {
                    "chi2": 12035.19921875,
                    "entropy": 4.631690502166748,
                    "filetype": "data",
                    "lang": "NEUTRAL",
                    "sha256": "798497a52d94ea9221f650da52c896d5c3030d5e1bbf499ecba523cde7d4dadd",
                    "type": "RT_BITMAP"
                },
                {
                    "chi2": 11815.7705078125,
                    "entropy": 4.680596828460693,
                    "filetype": "data",
                    "lang": "NEUTRAL",
                    "sha256": "dbeacac51d6d8f2284f29c3b464ea2332133f94845e27539abef0ca7aa6a01c6",
                    "type": "RT_BITMAP"
                },
                {
                    "chi2": 18135.30859375,
                    "entropy": 4.273035049438477,
                    "filetype": "data",
                    "lang": "NEUTRAL",
                    "sha256": "aab91d8233502530e3b96e638bb4625a150279c9c14a75f431f9051b54f157b3",
                    "type": "RT_BITMAP"
                },
                {
                    "chi2": 7891.654296875,
                    "entropy": 4.858275413513184,
                    "filetype": "data",
                    "lang": "NEUTRAL",
                    "sha256": "b566f8b437160373cdc0584e74cec11b6ca5fde96cad6a3b6a8d013598621359",
                    "type": "RT_BITMAP"
                },
                {
                    "chi2": 11585.369140625,
                    "entropy": 4.637381076812744,
                    "filetype": "data",
                    "lang": "ENGLISH US",
                    "sha256": "20cad67f80284bc81dd777f35a070f463397b6377b9722e42a4694a5bba49425",
                    "type": "RT_BITMAP"
                },
                {
                    "chi2": 18036.564453125,
                    "entropy": 4.214430809020996,
                    "filetype": "data",
                    "lang": "NEUTRAL",
                    "sha256": "9f8089ac2254542c873be17ff40200f075b78371745851ca872213ed17be7e35",
                    "type": "RT_BITMAP"
                },
                {
                    "chi2": 5530.9697265625,
                    "entropy": 5.581699371337891,
                    "filetype": "data",
                    "lang": "NEUTRAL",
                    "sha256": "5f3a66e381fdc3500dedd71dee5109c82e0d3909100a52b01dc9e605506b7262",
                    "type": "RT_BITMAP"
                },
                {
                    "chi2": 5838.171875,
                    "entropy": 5.473839282989502,
                    "filetype": "data",
                    "lang": "NEUTRAL",
                    "sha256": "b7b0f94fbd2ee54abb339d7993dd05c3abbbf0d0db765b1bccc3505534e05944",
                    "type": "RT_BITMAP"
                },
                {
                    "chi2": 11982.1552734375,
                    "entropy": 5.10824728012085,
                    "filetype": "data",
                    "lang": "NEUTRAL",
                    "sha256": "ebb20a44291c1dd92825baad3f2b78d1aa84ced7ec9b9a330cbd8028aca4ddce",
                    "type": "RT_BITMAP"
                },
                {
                    "chi2": 10977.3720703125,
                    "entropy": 4.71038818359375,
                    "filetype": "data",
                    "lang": "NEUTRAL",
                    "sha256": "73f7ebbfcbdceeca693bd77b06bc98f5f53674e45dd64489f257c63c1db3f66a",
                    "type": "RT_BITMAP"
                },
                {
                    "chi2": 11152.916015625,
                    "entropy": 4.667120933532715,
                    "filetype": "data",
                    "lang": "NEUTRAL",
                    "sha256": "1f8f3887efaa8ea9465c0448ad93c6c882c2153b442c896f20afff11819f2a8a",
                    "type": "RT_BITMAP"
                },
                {
                    "chi2": 10977.3720703125,
                    "entropy": 4.71038818359375,
                    "filetype": "data",
                    "lang": "NEUTRAL",
                    "sha256": "73f7ebbfcbdceeca693bd77b06bc98f5f53674e45dd64489f257c63c1db3f66a",
                    "type": "RT_BITMAP"
                },
                {
                    "chi2": 8781.25390625,
                    "entropy": 5.194143295288086,
                    "filetype": "data",
                    "lang": "NEUTRAL",
                    "sha256": "e65a2c1d58507d1df30dc15e5671cb3bc2e58c6d4ac1b8f4419a536d94c38469",
                    "type": "RT_BITMAP"
                },
                {
                    "chi2": 8517.94140625,
                    "entropy": 5.244568347930908,
                    "filetype": "data",
                    "lang": "NEUTRAL",
                    "sha256": "6c032a1d861e3e5bcfc653926932ba3e0f3b8c045fa470e17439a700dcc8e4cd",
                    "type": "RT_BITMAP"
                },
                {
                    "chi2": 14749.701171875,
                    "entropy": 4.858639240264893,
                    "filetype": "data",
                    "lang": "NEUTRAL",
                    "sha256": "2ed05dcf32d19077817b774757048fbf976aaf0f544ce0bfda49beff30ca3e19",
                    "type": "RT_BITMAP"
                },
                {
                    "chi2": 6117.93994140625,
                    "entropy": 5.370043754577637,
                    "filetype": "data",
                    "lang": "NEUTRAL",
                    "sha256": "83c308fb8b8bc3ff6be527cc3082f07765e7aa4aaeee15af378f72da0bc24f08",
                    "type": "RT_BITMAP"
                },
                {
                    "chi2": 8274.7412109375,
                    "entropy": 5.182522296905518,
                    "filetype": "data",
                    "lang": "NEUTRAL",
                    "sha256": "34e253648717e5c29a16c05219f175e49cb7c56b2a5f95dc2a62fc504988fb7a",
                    "type": "RT_BITMAP"
                },
                {
                    "chi2": 14682.0419921875,
                    "entropy": 4.772148609161377,
                    "filetype": "data",
                    "lang": "NEUTRAL",
                    "sha256": "b56c06eb7e04437fc235d0d3aadc751d67775447f0ab04be47cc73d32e494c36",
                    "type": "RT_BITMAP"
                },
                {
                    "chi2": 5530.9697265625,
                    "entropy": 5.581699371337891,
                    "filetype": "data",
                    "lang": "NEUTRAL",
                    "sha256": "5f3a66e381fdc3500dedd71dee5109c82e0d3909100a52b01dc9e605506b7262",
                    "type": "RT_BITMAP"
                },
                {
                    "chi2": 5838.171875,
                    "entropy": 5.473839282989502,
                    "filetype": "data",
                    "lang": "NEUTRAL",
                    "sha256": "b7b0f94fbd2ee54abb339d7993dd05c3abbbf0d0db765b1bccc3505534e05944",
                    "type": "RT_BITMAP"
                },
                {
                    "chi2": 11982.1552734375,
                    "entropy": 5.10824728012085,
                    "filetype": "data",
                    "lang": "NEUTRAL",
                    "sha256": "ebb20a44291c1dd92825baad3f2b78d1aa84ced7ec9b9a330cbd8028aca4ddce",
                    "type": "RT_BITMAP"
                },
                {
                    "chi2": 88897.3828125,
                    "entropy": 2.5886080265045166,
                    "filetype": "data",
                    "lang": "ENGLISH US",
                    "sha256": "4ed92ccdf262563848ce879a1dc1e76e3ceed97fc6ca318c5d4511dd31cd2745",
                    "type": "RT_BITMAP"
                },
                {
                    "chi2": 20649.65625,
                    "entropy": 1.9682294130325317,
                    "filetype": "data",
                    "lang": "ENGLISH US",
                    "sha256": "bfceca99f17e529e819a16be5d8b3b8aabbb085bb33aaad90b8dc60985a041ba",
                    "type": "RT_BITMAP"
                },
                {
                    "chi2": 10843.4287109375,
                    "entropy": 3.0147716999053955,
                    "filetype": "data",
                    "lang": "ENGLISH US",
                    "sha256": "d20c1e7cdff419e1efe08e1b91b4c0d772f7436de618045f7e0fdb3afb662849",
                    "type": "RT_BITMAP"
                },
                {
                    "chi2": 221917.71875,
                    "entropy": 5.087067127227783,
                    "filetype": "data",
                    "lang": "ENGLISH US",
                    "sha256": "878a580e684048c457aa85ff2d38ebb1d349d885e751cb69b95d463dd1891912",
                    "type": "RT_BITMAP"
                },
                {
                    "chi2": 12340.5703125,
                    "entropy": 2.979858160018921,
                    "filetype": "data",
                    "lang": "ENGLISH US",
                    "sha256": "0f5248f16fe2b1e73aa9be760a6f0bef933dc09e3cc6d8a8958eae1ce0bd0f97",
                    "type": "RT_BITMAP"
                },
                {
                    "chi2": 12116.572265625,
                    "entropy": 2.9639294147491455,
                    "filetype": "data",
                    "lang": "ENGLISH US",
                    "sha256": "4a217ca811d9c29363ead1d67b7ffa0f6e8b8e1d1a068730f4f7d557c3710b44",
                    "type": "RT_BITMAP"
                },
                {
                    "chi2": 13541.330078125,
                    "entropy": 2.638123035430908,
                    "filetype": "data",
                    "lang": "ENGLISH US",
                    "sha256": "2cb60d7d674640457497f54b82b42afaa8a2cbd7c28a1aae35f128b4471cfaaa",
                    "type": "RT_BITMAP"
                },
                {
                    "chi2": 215665.015625,
                    "entropy": 0.9064878225326538,
                    "filetype": "data",
                    "lang": "ENGLISH US",
                    "sha256": "318422ce99c9e62f4c2141c34f586055aa3bc33090048f435caf70e3ded01686",
                    "type": "RT_BITMAP"
                },
                {
                    "chi2": 249425.234375,
                    "entropy": 0.5451321601867676,
                    "filetype": "data",
                    "lang": "ENGLISH US",
                    "sha256": "afa3b6ab1ac972703282f7981941f70c3da19a2e277102f1fda067939713c389",
                    "type": "RT_BITMAP"
                },
                {
                    "chi2": 228073.328125,
                    "entropy": 0.80637127161026,
                    "filetype": "data",
                    "lang": "ENGLISH US",
                    "sha256": "4acf7df75af8152c27ddb9106d83b64843239589b12bfcfefad421a53dcb9a08",
                    "type": "RT_BITMAP"
                },
                {
                    "chi2": 13578.6630859375,
                    "entropy": 2.620432138442993,
                    "filetype": "data",
                    "lang": "ENGLISH US",
                    "sha256": "a36fee3ac0a24b86169997e112d55de38ae2080815d2104c73bc90ad4eff5cbe",
                    "type": "RT_BITMAP"
                },
                {
                    "chi2": 11922.2861328125,
                    "entropy": 2.8321659564971924,
                    "filetype": "data",
                    "lang": "ENGLISH US",
                    "sha256": "d8444a0e4c91df51a151d4c64256e5d5f62a3e4a5b17ccb9778422f0e01223c3",
                    "type": "RT_BITMAP"
                },
                {
                    "chi2": 43760.6796875,
                    "entropy": 1.9493730068206787,
                    "filetype": "data",
                    "lang": "ENGLISH US",
                    "sha256": "cabd7bf41f3a80fd8b4ce350f4216bd3686f1dd8bc3d98857ab701104f5646f6",
                    "type": "RT_BITMAP"
                },
                {
                    "chi2": 12487.99609375,
                    "entropy": 2.7345664501190186,
                    "filetype": "data",
                    "lang": "ENGLISH US",
                    "sha256": "caf10784d936136cddde6b4489d7ffdc6098f8050a81c7e02d1ebdd9878cff15",
                    "type": "RT_BITMAP"
                },
                {
                    "chi2": 13956.0,
                    "entropy": 2.360942840576172,
                    "filetype": "data",
                    "lang": "ENGLISH US",
                    "sha256": "51b9f5137c5be548dc865eaf0f5f12d22b5f5acc9d3e4ee2352e40b9721153aa",
                    "type": "RT_BITMAP"
                },
                {
                    "chi2": 43017.06640625,
                    "entropy": 1.6414546966552734,
                    "filetype": "data",
                    "lang": "ENGLISH US",
                    "sha256": "d59ebc8c2c9fa43ed70045173e9622605efb2a298938d7bac4029de9b5ee3922",
                    "type": "RT_BITMAP"
                },
                {
                    "chi2": 13825.7138671875,
                    "entropy": 3.4976916313171387,
                    "filetype": "data",
                    "lang": "ENGLISH US",
                    "sha256": "ffd6713369a826c064cf54b2f61a19a1be224c366613202f1de2596d405ee89c",
                    "type": "RT_BITMAP"
                },
                {
                    "chi2": 13520.484375,
                    "entropy": 3.493750810623169,
                    "filetype": "data",
                    "lang": "ENGLISH US",
                    "sha256": "a18621aa3dd90a7dba914d8718d376a583aea5ca292ba8f8d680b6e1ebcee262",
                    "type": "RT_BITMAP"
                },
                {
                    "chi2": 11186.2861328125,
                    "entropy": 3.0518975257873535,
                    "filetype": "data",
                    "lang": "ENGLISH US",
                    "sha256": "e086586402b8c51192766a01a37dd2f2b4b657bbd4d5b721f1eed692678f6ef6",
                    "type": "RT_BITMAP"
                },
                {
                    "chi2": 13038.0693359375,
                    "entropy": 2.851717948913574,
                    "filetype": "data",
                    "lang": "ENGLISH US",
                    "sha256": "78507a772de646626b196a743cee75b298a68c33a0fd482842071519d59037b2",
                    "type": "RT_BITMAP"
                },
                {
                    "chi2": 12938.6630859375,
                    "entropy": 2.7321324348449707,
                    "filetype": "data",
                    "lang": "ENGLISH US",
                    "sha256": "5bea8ae9edb158f767d478703ce5153b8773e1e0390fa2c4af83f063c6c2f1fa",
                    "type": "RT_BITMAP"
                },
                {
                    "chi2": 18106.5546875,
                    "entropy": 2.287052631378174,
                    "filetype": "data",
                    "lang": "ENGLISH US",
                    "sha256": "3c7f5cac97792de3f170817f22f39e5b445fba8d8145955b23c935182c8e4298",
                    "type": "RT_BITMAP"
                },
                {
                    "chi2": 15851.201171875,
                    "entropy": 2.5509347915649414,
                    "filetype": "data",
                    "lang": "ENGLISH US",
                    "sha256": "29c983e34fc768f686c16900a24ad9dca799eca387e71199fbea774b3944d832",
                    "type": "RT_BITMAP"
                },
                {
                    "chi2": 68255.7265625,
                    "entropy": 2.8477485179901123,
                    "filetype": "data",
                    "lang": "ENGLISH US",
                    "sha256": "680e6da5d4a113df2627287a0bf6915991c6aa539d962c2ed1c2421b18178406",
                    "type": "RT_BITMAP"
                },
                {
                    "chi2": 11725.53515625,
                    "entropy": 3.018404006958008,
                    "filetype": "data",
                    "lang": "ENGLISH US",
                    "sha256": "37e98a6df94b14c92da5eb339a3365e669786f34196649ec5fe6e04505fa0a19",
                    "type": "RT_BITMAP"
                },
                {
                    "chi2": 13256.6142578125,
                    "entropy": 2.7955427169799805,
                    "filetype": "data",
                    "lang": "ENGLISH US",
                    "sha256": "7da4bb3fe703b367e7f0a01c0dcf43cdf578ed8f1a07a0f594a22718c0ad4a62",
                    "type": "RT_BITMAP"
                },
                {
                    "chi2": 13903.9970703125,
                    "entropy": 2.4072139263153076,
                    "filetype": "data",
                    "lang": "ENGLISH US",
                    "sha256": "42d747007b6d8ab3a9380ee243049c6ef572adf9277935e7418f357935d1b1ca",
                    "type": "RT_BITMAP"
                },
                {
                    "chi2": 11853.53515625,
                    "entropy": 3.004552125930786,
                    "filetype": "data",
                    "lang": "ENGLISH US",
                    "sha256": "66332d4088b908862bfbaf05c7991e4e3acd8df08f7abb408255f6e4b735b8db",
                    "type": "RT_BITMAP"
                },
                {
                    "chi2": 11617.228515625,
                    "entropy": 2.868133068084717,
                    "filetype": "data",
                    "lang": "ENGLISH US",
                    "sha256": "843699413d07bbbb7a562c65050eeb594656c90d0d22a643ce5f3296ee8389cb",
                    "type": "RT_BITMAP"
                },
                {
                    "chi2": 12646.150390625,
                    "entropy": 3.003108501434326,
                    "filetype": "data",
                    "lang": "ENGLISH US",
                    "sha256": "97bec1fa4bb509ac16a0d8a542724f28767957ae485101c4e050f5424dad2619",
                    "type": "RT_BITMAP"
                },
                {
                    "chi2": 67988.71875,
                    "entropy": 2.8681788444519043,
                    "filetype": "data",
                    "lang": "ENGLISH US",
                    "sha256": "0b762a6b66676f0a0fa7ba53320c7d3409ca493e9bcc7351f43228e22e8ec57b",
                    "type": "RT_BITMAP"
                },
                {
                    "chi2": 63651.41015625,
                    "entropy": 2.9418046474456787,
                    "filetype": "data",
                    "lang": "ENGLISH US",
                    "sha256": "06e4c223c6f0962a7b28f6ad379a6c423974a2bb4044ef2049c4ede23d949bb9",
                    "type": "RT_BITMAP"
                },
                {
                    "chi2": 68255.7265625,
                    "entropy": 2.8477485179901123,
                    "filetype": "data",
                    "lang": "ENGLISH US",
                    "sha256": "f491aceaf96e418dc8f5be46c97945af59cc2ecd9e5bf6baa5b70125c758db07",
                    "type": "RT_BITMAP"
                },
                {
                    "chi2": 41010.08203125,
                    "entropy": 3.0535686016082764,
                    "filetype": "data",
                    "lang": "NEUTRAL",
                    "sha256": "09ca4922eaee535b078b39480b70a84ca826d478e0626c5c26cd5af4f3965adf",
                    "type": "RT_BITMAP"
                },
                {
                    "chi2": 12135.9990234375,
                    "entropy": 2.7958855628967285,
                    "filetype": "data",
                    "lang": "NEUTRAL",
                    "sha256": "47e934a97c88099505484ceb73650026a3ccbb85c3afdb46964098637650a733",
                    "type": "RT_BITMAP"
                },
                {
                    "chi2": 92305.765625,
                    "entropy": 2.4530718326568604,
                    "filetype": "data",
                    "lang": "ENGLISH US",
                    "sha256": "f75653332a5c9ddb8c5ad27621000f52a0d91ad63447c2f80eea3b761eea0e25",
                    "type": "RT_BITMAP"
                },
                {
                    "chi2": 13316.572265625,
                    "entropy": 2.5097527503967285,
                    "filetype": "data",
                    "lang": "ENGLISH US",
                    "sha256": "6af26f85073e8fce3b9ab49acbde0b702f68ec078be72e8aeca66086947a885e",
                    "type": "RT_BITMAP"
                },
                {
                    "chi2": 15632.736328125,
                    "entropy": 5.157761096954346,
                    "filetype": "data",
                    "lang": "RUSSIAN",
                    "sha256": "89595d8e46f795c74f7646998d7d7e3916e65c8e5badc9bb4360c8ba8232398d",
                    "type": "RT_ICON"
                },
                {
                    "chi2": 80330.7734375,
                    "entropy": 5.229928493499756,
                    "filetype": "data",
                    "lang": "RUSSIAN",
                    "sha256": "e87e70780f5969d8f3da7cd79952da4a705dd0a41377298c459aa934b409d270",
                    "type": "RT_ICON"
                },
                {
                    "chi2": 278901.375,
                    "entropy": 4.869234085083008,
                    "filetype": "data",
                    "lang": "RUSSIAN",
                    "sha256": "1eed4fba72faf01e26695a65c372471c58432181d2e0c26df8a51f16775c9321",
                    "type": "RT_ICON"
                },
                {
                    "chi2": 17332.59375,
                    "entropy": 4.82857084274292,
                    "filetype": "data",
                    "lang": "NEUTRAL",
                    "sha256": "893934a98ff62fd9f5ac11b514b748dd8c82f09cb5e320bcf2df69f8f074c292",
                    "type": "RT_ICON"
                },
                {
                    "chi2": 68645.6875,
                    "entropy": 5.147640228271484,
                    "filetype": "data",
                    "lang": "NEUTRAL",
                    "sha256": "4867de2bf0d2e86d7dd46df3781cf897088649c1ce46e105db6154c78358a8de",
                    "type": "RT_ICON"
                },
                {
                    "chi2": 158119.921875,
                    "entropy": 5.295171737670898,
                    "filetype": "data",
                    "lang": "NEUTRAL",
                    "sha256": "1e328b391a88b724cb38cd88bdecea089a8a5ff27807b4ee0aa98eca5496727f",
                    "type": "RT_ICON"
                },
                {
                    "chi2": 357664.25,
                    "entropy": 4.9748005867004395,
                    "filetype": "data",
                    "lang": "NEUTRAL",
                    "sha256": "a7c96067d8c8429fda99acbe0a932976a32b5809f06f730c913228bd1fc74f83",
                    "type": "RT_ICON"
                },
                {
                    "chi2": 8503.3701171875,
                    "entropy": 2.5627009868621826,
                    "filetype": "data",
                    "lang": "NEUTRAL",
                    "sha256": "771f64afb45a9edc8c4f6c5b2039f9b32623cea53bf0cab5bf1f371cc5d1abe4",
                    "type": "RT_DIALOG"
                },
                {
                    "chi2": 8197.4169921875,
                    "entropy": 2.6160459518432617,
                    "filetype": "data",
                    "lang": "NEUTRAL",
                    "sha256": "26be3f5d9e8788884e3d857861b2666da59e7e80dfaa6e7e52832428980204fc",
                    "type": "RT_DIALOG"
                },
                {
                    "chi2": 24310.40625,
                    "entropy": 3.248375654220581,
                    "filetype": "ASCII text",
                    "lang": "NEUTRAL",
                    "sha256": "37919cd50605d902d77c92befa006ae6f4baa1cd2b26fd8a45b6bf730ddd24eb",
                    "type": "RT_STRING"
                },
                {
                    "chi2": 70071.1015625,
                    "entropy": 3.297847032546997,
                    "filetype": "ASCII text",
                    "lang": "NEUTRAL",
                    "sha256": "d5e1329552b3c195dead79e001ae382e0ada6649a42e96167abccbbee838b751",
                    "type": "RT_STRING"
                },
                {
                    "chi2": 65723.265625,
                    "entropy": 3.3485469818115234,
                    "filetype": "ASCII text",
                    "lang": "NEUTRAL",
                    "sha256": "b43b82833c19bd179b172053e48a234be14347201fe28c61d25eab7fc63cc429",
                    "type": "RT_STRING"
                },
                {
                    "chi2": 205901.59375,
                    "entropy": 3.252720594406128,
                    "filetype": "data",
                    "lang": "NEUTRAL",
                    "sha256": "c09d9c316f6b2dcdb54dc98f2fb44db42f86ad441b5f926ea6eb6179f4d69546",
                    "type": "RT_STRING"
                },
                {
                    "chi2": 97060.7265625,
                    "entropy": 3.305330276489258,
                    "filetype": "ASCII text",
                    "lang": "NEUTRAL",
                    "sha256": "91d8463c40bf5f7006a70a93b6eae2208d8f078f75b32f2a117778e8bfce47d1",
                    "type": "RT_STRING"
                },
                {
                    "chi2": 68189.2109375,
                    "entropy": 3.1934142112731934,
                    "filetype": "ASCII text",
                    "lang": "NEUTRAL",
                    "sha256": "a0f8b0b2168653d77a5918f86c6e776f4e6924b97725c94077af79917dd0abd4",
                    "type": "RT_STRING"
                },
                {
                    "chi2": 53093.29296875,
                    "entropy": 3.5237467288970947,
                    "filetype": "ASCII text",
                    "lang": "NEUTRAL",
                    "sha256": "8d7c35a66511662b99bf1986bdfa0591d912628a77d7a3923d1f7c7bbe287195",
                    "type": "RT_STRING"
                },
                {
                    "chi2": 32614.697265625,
                    "entropy": 3.5855231285095215,
                    "filetype": "ASCII text",
                    "lang": "NEUTRAL",
                    "sha256": "e834ad0ccafe246e022a1555e49b49925b6be460c831e6e5466ca0b12f5cc912",
                    "type": "RT_STRING"
                },
                {
                    "chi2": 240.0,
                    "entropy": 4.0,
                    "filetype": "data",
                    "lang": "NEUTRAL",
                    "sha256": "e7dbe99baa5c1045cdf7004edb037018b2e0f639a5edcf800ec4514d5c8e35b5",
                    "type": "RT_RCDATA"
                },
                {
                    "chi2": 1900.000244140625,
                    "entropy": 1.8387587070465088,
                    "filetype": "Lotus 1-2-3",
                    "lang": "ENGLISH US",
                    "sha256": "c53efa8085835ba129c1909beaff8a67b45f50837707f22dfff0f24d8cd26710",
                    "type": "RT_GROUP_CURSOR"
                },
                {
                    "chi2": 5578.25634765625,
                    "entropy": 2.4964230060577393,
                    "filetype": "data",
                    "lang": "NEUTRAL",
                    "sha256": "839efaf47ce451adf076fdc73886efc924599815756b7e6e5894b9f9cf8f1436",
                    "type": "RT_GROUP_ICON"
                },
                {
                    "chi2": 56977.36328125,
                    "entropy": 3.0302019119262695,
                    "filetype": "MS Windows COFF Motorola 68000 object file",
                    "lang": "ENGLISH US",
                    "sha256": "5892cbfdb233b6bb1bf8ceb42de4e5881069cf0eb4a0fb7e1dc88da43416ffd4",
                    "type": "RT_VERSION"
                },
                {
                    "chi2": 6415.38671875,
                    "entropy": 5.14642333984375,
                    "filetype": "ASCII text",
                    "lang": "ENGLISH US",
                    "sha256": "e0936300d1c78ef112e074c63d60ee6680d0aa3c81cb2d399cc37156850c65d7",
                    "type": "RT_MANIFEST"
                }
            ],
            "resource_langs": {
                "ENGLISH US": 80,
                "NEUTRAL": 71,
                "RUSSIAN": 4
            },
            "resource_types": {
                "RT_BITMAP": 79,
                "RT_CURSOR": 12,
                "RT_DIALOG": 2,
                "RT_GROUP_CURSOR": 12,
                "RT_GROUP_ICON": 2,
                "RT_ICON": 7,
                "RT_MANIFEST": 1,
                "RT_RCDATA": 8,
                "RT_STRING": 31,
                "RT_VERSION": 1
            },
            "sections": [
                {
                    "entropy": 6.58,
                    "md5": "02b4294769c1b0f3d076ba8c590ad4eb",
                    "name": ".text",
                    "raw_size": 1984000,
                    "virtual_address": 4096,
                    "virtual_size": 1983516
                },
                {
                    "entropy": 6.24,
                    "md5": "31937f484acdbccb2020e4499013ac55",
                    "name": ".itext",
                    "raw_size": 4608,
                    "virtual_address": 1990656,
                    "virtual_size": 4420
                },
                {
                    "entropy": 5.83,
                    "md5": "894683a8b4b0a410434b14e246746eaa",
                    "name": ".data",
                    "raw_size": 34816,
                    "virtual_address": 1998848,
                    "virtual_size": 34396
                },
                {
                    "entropy": 0.0,
                    "md5": "d41d8cd98f00b204e9800998ecf8427e",
                    "name": ".bss",
                    "raw_size": 0,
                    "virtual_address": 2035712,
                    "virtual_size": 36456
                },
                {
                    "entropy": 5.19,
                    "md5": "06f47473f4154664e15c923095bd1f1a",
                    "name": ".idata",
                    "raw_size": 15872,
                    "virtual_address": 2072576,
                    "virtual_size": 15502
                },
                {
                    "entropy": 0.82,
                    "md5": "352c2e0809799425e008aba4dc00d6ab",
                    "name": ".edata",
                    "raw_size": 512,
                    "virtual_address": 2088960,
                    "virtual_size": 76
                },
                {
                    "entropy": 0.0,
                    "md5": "d41d8cd98f00b204e9800998ecf8427e",
                    "name": ".tls",
                    "raw_size": 0,
                    "virtual_address": 2093056,
                    "virtual_size": 64
                },
                {
                    "entropy": 0.2,
                    "md5": "8808ffe59789f6f0c2fd95571f0e8310",
                    "name": ".rdata",
                    "raw_size": 512,
                    "virtual_address": 2097152,
                    "virtual_size": 24
                },
                {
                    "entropy": 6.66,
                    "md5": "94d80af51547c79e3df48d88446e47dc",
                    "name": ".reloc",
                    "raw_size": 127488,
                    "virtual_address": 2101248,
                    "virtual_size": 127188
                },
                {
                    "entropy": 6.04,
                    "md5": "ed9343afd3e163c7c49b7d36e841dbdd",
                    "name": ".rsrc",
                    "raw_size": 201216,
                    "virtual_address": 2232320,
                    "virtual_size": 200760
                }
            ],
            "timestamp": 1343478955
        },
        "reputation": 0,
        "sha1": "0a876c73bfed06f2b7d2af463df2d1b0d5627c0e",
        "sha256": "000288f0d1a857922e0581c129bb2ff9eba77d4bcb06bfdb8d15dfd311880f75",
        "size": 3695003,
        "ssdeep": "49152:gP0vfTi05cfHQDVaztRT5hvky87QSFscsSK3IG1aEeoReJHOCv+m9UvB0O+2FM7:gPOCQQdGQSOIGEBoRefv59Uvb5M7",
        "tags": [
            "peexe",
            "overlay"
        ],
        "times_submitted": 1,
        "total_votes": {
            "harmless": 0,
            "malicious": 0
        },
        "trid": [
            {
                "file_type": "InstallShield setup",
                "probability": 40.1
            },
            {
                "file_type": "Win32 EXE PECompact compressed (generic)",
                "probability": 38.7
            },
            {
                "file_type": "DOS Borland compiled Executable (generic)",
                "probability": 9.3
            },
            {
                "file_type": "Win32 Executable (generic)",
                "probability": 4.2
            },
            {
                "file_type": "Win16/32 Executable Delphi generic",
                "probability": 1.9
            }
        ],
        "type_description": "Win32 EXE",
        "type_extension": "exe",
        "type_tag": "peexe",
        "unique_sources": 1,
        "vhash": "0360a6666d5c0d551c051031808006d00227z6035z63z5031z18z1"
    },
    "id": "000288f0d1a857922e0581c129bb2ff9eba77d4bcb06bfdb8d15dfd311880f75",
    "links": {
        "self": "https://www.virustotal.com/api/v3/files/000288f0d1a857922e0581c129bb2ff9eba77d4bcb06bfdb8d15dfd311880f75"
    },
    "type": "file"
}