{
    "attributes": {
        "authentihash": "93d0d43fcc0695449262a99b4a5e704d0e2fdea231e82b97579a06d0efc2ba60",
        "creation_date": 1508844283,
        "first_submission_date": 1514718848,
        "last_analysis_date": 1514718848,
        "last_analysis_results": {
            "ALYac": {
                "category": "undetected",
                "engine_name": "ALYac",
                "engine_update": "20171231",
                "engine_version": "1.1.1.3",
                "method": "blacklist",
                "result": null
            },
            "AVG": {
                "category": "undetected",
                "engine_name": "AVG",
                "engine_update": "20171231",
                "engine_version": "17.8.3705.0",
                "method": "blacklist",
                "result": null
            },
            "AVware": {
                "category": "undetected",
                "engine_name": "AVware",
                "engine_update": "20171231",
                "engine_version": "1.5.0.42",
                "method": "blacklist",
                "result": null
            },
            "Ad-Aware": {
                "category": "malicious",
                "engine_name": "Ad-Aware",
                "engine_update": "20171225",
                "engine_version": "3.0.3.1010",
                "method": "blacklist",
                "result": "Gen:Trojan.Heur.GZ.JvW@buCfn@b"
            },
            "AegisLab": {
                "category": "undetected",
                "engine_name": "AegisLab",
                "engine_update": "20171231",
                "engine_version": "4.2",
                "method": "blacklist",
                "result": null
            },
            "Alibaba": {
                "category": "type-unsupported",
                "engine_name": "Alibaba",
                "engine_update": "20171229",
                "engine_version": "1.0",
                "method": "blacklist",
                "result": null
            },
            "Antiy-AVL": {
                "category": "undetected",
                "engine_name": "Antiy-AVL",
                "engine_update": "20171231",
                "engine_version": "3.0.0.1",
                "method": "blacklist",
                "result": null
            },
            "Arcabit": {
                "category": "malicious",
                "engine_name": "Arcabit",
                "engine_update": "20171231",
                "engine_version": "1.0.0.827",
                "method": "blacklist",
                "result": "Trojan.Razy.D38C16"
            },
            "Avast": {
                "category": "undetected",
                "engine_name": "Avast",
                "engine_update": "20171231",
                "engine_version": "17.8.3705.0",
                "method": "blacklist",
                "result": null
            },
            "Avast-Mobile": {
                "category": "undetected",
                "engine_name": "Avast-Mobile",
                "engine_update": "20171230",
                "engine_version": "171230-06",
                "method": "blacklist",
                "result": null
            },
            "Avira": {
                "category": "undetected",
                "engine_name": "Avira",
                "engine_update": "20171230",
                "engine_version": "8.3.3.6",
                "method": "blacklist",
                "result": null
            },
            "Baidu": {
                "category": "undetected",
                "engine_name": "Baidu",
                "engine_update": "20171227",
                "engine_version": "1.0.0.2",
                "method": "blacklist",
                "result": null
            },
            "BitDefender": {
                "category": "malicious",
                "engine_name": "BitDefender",
                "engine_update": "20171231",
                "engine_version": "7.2",
                "method": "blacklist",
                "result": "Gen:Variant.Razy.232470"
            },
            "Bkav": {
                "category": "undetected",
                "engine_name": "Bkav",
                "engine_update": "20171229",
                "engine_version": "1.3.0.9466",
                "method": "blacklist",
                "result": null
            },
            "CAT-QuickHeal": {
                "category": "undetected",
                "engine_name": "CAT-QuickHeal",
                "engine_update": "20171230",
                "engine_version": "14.00",
                "method": "blacklist",
                "result": null
            },
            "CMC": {
                "category": "undetected",
                "engine_name": "CMC",
                "engine_update": "20171229",
                "engine_version": "1.1.0.977",
                "method": "blacklist",
                "result": null
            },
            "ClamAV": {
                "category": "undetected",
                "engine_name": "ClamAV",
                "engine_update": "20171231",
                "engine_version": "0.99.2.0",
                "method": "blacklist",
                "result": null
            },
            "Comodo": {
                "category": "undetected",
                "engine_name": "Comodo",
                "engine_update": "20171231",
                "engine_version": "28264",
                "method": "blacklist",
                "result": null
            },
            "CrowdStrike": {
                "category": "malicious",
                "engine_name": "CrowdStrike",
                "engine_update": "20171016",
                "engine_version": "1.0",
                "method": "blacklist",
                "result": "malicious_confidence_100% (D)"
            },
            "Cybereason": {
                "category": "malicious",
                "engine_name": "Cybereason",
                "engine_update": "20171103",
                "engine_version": "0.0.914",
                "method": "blacklist",
                "result": "malicious.1b8fb7"
            },
            "Cylance": {
                "category": "malicious",
                "engine_name": "Cylance",
                "engine_update": "20171231",
                "engine_version": "2.3.1.101",
                "method": "blacklist",
                "result": "Unsafe"
            },
            "Cyren": {
                "category": "undetected",
                "engine_name": "Cyren",
                "engine_update": "20171231",
                "engine_version": "5.4.30.7",
                "method": "blacklist",
                "result": null
            },
            "DrWeb": {
                "category": "malicious",
                "engine_name": "DrWeb",
                "engine_update": "20171231",
                "engine_version": "7.0.28.2020",
                "method": "blacklist",
                "result": "Trojan.PackedENT.50"
            },
            "ESET-NOD32": {
                "category": "malicious",
                "engine_name": "ESET-NOD32",
                "engine_update": "20171231",
                "engine_version": "16659",
                "method": "blacklist",
                "result": "a variant of Win32/Kryptik.FVWK"
            },
            "Emsisoft": {
                "category": "malicious",
                "engine_name": "Emsisoft",
                "engine_update": "20171231",
                "engine_version": "4.0.2.899",
                "method": "blacklist",
                "result": "Gen:Variant.Razy.232470 (B)"
            },
            "Endgame": {
                "category": "malicious",
                "engine_name": "Endgame",
                "engine_update": "20171130",
                "engine_version": "1.1.4",
                "method": "blacklist",
                "result": "malicious (high confidence)"
            },
            "F-Prot": {
                "category": "undetected",
                "engine_name": "F-Prot",
                "engine_update": "20171231",
                "engine_version": "4.7.1.166",
                "method": "blacklist",
                "result": null
            },
            "F-Secure": {
                "category": "malicious",
                "engine_name": "F-Secure",
                "engine_update": "20171231",
                "engine_version": "11.0.19100.45",
                "method": "blacklist",
                "result": "Gen:Variant.Razy.232470"
            },
            "Fortinet": {
                "category": "undetected",
                "engine_name": "Fortinet",
                "engine_update": "20171231",
                "engine_version": "5.4.247.0",
                "method": "blacklist",
                "result": null
            },
            "GData": {
                "category": "malicious",
                "engine_name": "GData",
                "engine_update": "20171231",
                "engine_version": "A:25.15458B:25.11241",
                "method": "blacklist",
                "result": "Gen:Variant.Razy.232470"
            },
            "Ikarus": {
                "category": "undetected",
                "engine_name": "Ikarus",
                "engine_update": "20171231",
                "engine_version": "0.1.5.2",
                "method": "blacklist",
                "result": null
            },
            "Invincea": {
                "category": "malicious",
                "engine_name": "Invincea",
                "engine_update": "20170914",
                "engine_version": "6.3.1.25473",
                "method": "blacklist",
                "result": "heuristic"
            },
            "Jiangmin": {
                "category": "malicious",
                "engine_name": "Jiangmin",
                "engine_update": "20171231",
                "engine_version": "16.0.100",
                "method": "blacklist",
                "result": "AdWare.Adposhel.mg"
            },
            "K7AntiVirus": {
                "category": "undetected",
                "engine_name": "K7AntiVirus",
                "engine_update": "20171231",
                "engine_version": "10.36.25734",
                "method": "blacklist",
                "result": null
            },
            "K7GW": {
                "category": "malicious",
                "engine_name": "K7GW",
                "engine_update": "20171231",
                "engine_version": "10.36.25734",
                "method": "blacklist",
                "result": "Trojan ( 005153df1 )"
            },
            "Kaspersky": {
                "category": "undetected",
                "engine_name": "Kaspersky",
                "engine_update": "20171231",
                "engine_version": "15.0.1.13",
                "method": "blacklist",
                "result": null
            },
            "Kingsoft": {
                "category": "undetected",
                "engine_name": "Kingsoft",
                "engine_update": "20171231",
                "engine_version": "2013.8.14.323",
                "method": "blacklist",
                "result": null
            },
            "MAX": {
                "category": "malicious",
                "engine_name": "MAX",
                "engine_update": "20171231",
                "engine_version": "2017.11.15.1",
                "method": "blacklist",
                "result": "malware (ai score=80)"
            },
            "Malwarebytes": {
                "category": "undetected",
                "engine_name": "Malwarebytes",
                "engine_update": "20171231",
                "engine_version": "2.1.1.1115",
                "method": "blacklist",
                "result": null
            },
            "McAfee": {
                "category": "undetected",
                "engine_name": "McAfee",
                "engine_update": "20171231",
                "engine_version": "6.0.6.653",
                "method": "blacklist",
                "result": null
            },
            "McAfee-GW-Edition": {
                "category": "undetected",
                "engine_name": "McAfee-GW-Edition",
                "engine_update": "20171231",
                "engine_version": "v2015",
                "method": "blacklist",
                "result": null
            },
            "MicroWorld-eScan": {
                "category": "malicious",
                "engine_name": "MicroWorld-eScan",
                "engine_update": "20171231",
                "engine_version": "14.0.297.0",
                "method": "blacklist",
                "result": "Gen:Variant.Razy.232470"
            },
            "Microsoft": {
                "category": "undetected",
                "engine_name": "Microsoft",
                "engine_update": "20171231",
                "engine_version": "1.1.14405.2",
                "method": "blacklist",
                "result": null
            },
            "NANO-Antivirus": {
                "category": "malicious",
                "engine_name": "NANO-Antivirus",
                "engine_update": "20171231",
                "engine_version": "1.0.100.20834",
                "method": "blacklist",
                "result": "Trojan.Win32.Adposhel.ewmuna"
            },
            "Paloalto": {
                "category": "undetected",
                "engine_name": "Paloalto",
                "engine_update": "20171231",
                "engine_version": "1.0",
                "method": "blacklist",
                "result": null
            },
            "Panda": {
                "category": "undetected",
                "engine_name": "Panda",
                "engine_update": "20171231",
                "engine_version": "4.6.4.2",
                "method": "blacklist",
                "result": null
            },
            "Qihoo-360": {
                "category": "malicious",
                "engine_name": "Qihoo-360",
                "engine_update": "20171231",
                "engine_version": "1.0.0.1120",
                "method": "blacklist",
                "result": "HEUR/QVM20.1.365D.Malware.Gen"
            },
            "Rising": {
                "category": "malicious",
                "engine_name": "Rising",
                "engine_update": "20171230",
                "engine_version": "25.0.0.1",
                "method": "blacklist",
                "result": "Trojan.Kryptik!8.8 (TFE:1:GUM9mRh998E)"
            },
            "SUPERAntiSpyware": {
                "category": "undetected",
                "engine_name": "SUPERAntiSpyware",
                "engine_update": "20171231",
                "engine_version": "5.6.0.1032",
                "method": "blacklist",
                "result": null
            },
            "SentinelOne": {
                "category": "undetected",
                "engine_name": "SentinelOne",
                "engine_update": "20171224",
                "engine_version": "1.0.11.201",
                "method": "blacklist",
                "result": null
            },
            "Sophos": {
                "category": "undetected",
                "engine_name": "Sophos",
                "engine_update": "20171231",
                "engine_version": "4.98.0",
                "method": "blacklist",
                "result": null
            },
            "Symantec": {
                "category": "undetected",
                "engine_name": "Symantec",
                "engine_update": "20171230",
                "engine_version": "1.5.0.0",
                "method": "blacklist",
                "result": null
            },
            "SymantecMobileInsight": {
                "category": "type-unsupported",
                "engine_name": "SymantecMobileInsight",
                "engine_update": "20171230",
                "engine_version": "1.0.0.35_220",
                "method": "blacklist",
                "result": null
            },
            "Tencent": {
                "category": "undetected",
                "engine_name": "Tencent",
                "engine_update": "20171231",
                "engine_version": "1.0.0.1",
                "method": "blacklist",
                "result": null
            },
            "TheHacker": {
                "category": "undetected",
                "engine_name": "TheHacker",
                "engine_update": "20171229",
                "engine_version": "6.8.0.5.2257",
                "method": "blacklist",
                "result": null
            },
            "TotalDefense": {
                "category": "undetected",
                "engine_name": "TotalDefense",
                "engine_update": "20171231",
                "engine_version": "37.1.62.1",
                "method": "blacklist",
                "result": null
            },
            "TrendMicro": {
                "category": "undetected",
                "engine_name": "TrendMicro",
                "engine_update": "20171231",
                "engine_version": "9.862.0.1074",
                "method": "blacklist",
                "result": null
            },
            "TrendMicro-HouseCall": {
                "category": "malicious",
                "engine_name": "TrendMicro-HouseCall",
                "engine_update": "20171231",
                "engine_version": "9.950.0.1006",
                "method": "blacklist",
                "result": "Possible_Virus"
            },
            "Trustlook": {
                "category": "type-unsupported",
                "engine_name": "Trustlook",
                "engine_update": "20171231",
                "engine_version": "2",
                "method": "blacklist",
                "result": null
            },
            "VBA32": {
                "category": "undetected",
                "engine_name": "VBA32",
                "engine_update": "20171229",
                "engine_version": "3.12.28.0 usb",
                "method": "blacklist",
                "result": null
            },
            "VIPRE": {
                "category": "undetected",
                "engine_name": "VIPRE",
                "engine_update": "20171231",
                "engine_version": "63534",
                "method": "blacklist",
                "result": null
            },
            "ViRobot": {
                "category": "undetected",
                "engine_name": "ViRobot",
                "engine_update": "20171230",
                "engine_version": "2014.3.20.0",
                "method": "blacklist",
                "result": null
            },
            "Webroot": {
                "category": "malicious",
                "engine_name": "Webroot",
                "engine_update": "20171231",
                "engine_version": "1.0.0.207",
                "method": "blacklist",
                "result": "W32.Adware.Gen"
            },
            "WhiteArmor": {
                "category": "undetected",
                "engine_name": "WhiteArmor",
                "engine_update": "20171226",
                "engine_version": null,
                "method": "blacklist",
                "result": null
            },
            "Yandex": {
                "category": "undetected",
                "engine_name": "Yandex",
                "engine_update": "20171229",
                "engine_version": "5.5.1.3",
                "method": "blacklist",
                "result": null
            },
            "Zillya": {
                "category": "undetected",
                "engine_name": "Zillya",
                "engine_update": "20171229",
                "engine_version": "2.0.0.3457",
                "method": "blacklist",
                "result": null
            },
            "ZoneAlarm": {
                "category": "undetected",
                "engine_name": "ZoneAlarm",
                "engine_update": "20171231",
                "engine_version": "1.0",
                "method": "blacklist",
                "result": null
            },
            "Zoner": {
                "category": "undetected",
                "engine_name": "Zoner",
                "engine_update": "20171231",
                "engine_version": "1.0",
                "method": "blacklist",
                "result": null
            },
            "eGambit": {
                "category": "undetected",
                "engine_name": "eGambit",
                "engine_update": "20171231",
                "engine_version": "v4.2.7",
                "method": "blacklist",
                "result": null
            },
            "nProtect": {
                "category": "undetected",
                "engine_name": "nProtect",
                "engine_update": "20171231",
                "engine_version": "2017-12-31.01",
                "method": "blacklist",
                "result": null
            }
        },
        "last_analysis_stats": {
            "confirmed-timeout": 0,
            "failure": 0,
            "harmless": 0,
            "malicious": 22,
            "suspicious": 0,
            "timeout": 0,
            "type-unsupported": 3,
            "undetected": 45
        },
        "last_modification_date": 1523287619,
        "last_submission_date": 1514718848,
        "magic": "PE32 executable for MS Windows (GUI) Intel 80386 32-bit",
        "md5": "d746852b7648eb13b6b303d335042ffc",
        "names": [
            "b8767d6ed31df05deaa012707ffd1eee47ca58ef"
        ],
        "pe_info": {
            "entry_point": 139982,
            "imphash": "4a87b6c8c0c92de3c8913abfbc0a45f3",
            "import_list": [
                {
                    "imported_functions": [
                        "GetAdaptersInfo"
                    ],
                    "library_name": "IPHLPAPI.DLL"
                },
                {
                    "imported_functions": [
                        "SHGetFolderPathW"
                    ],
                    "library_name": "SHELL32.dll"
                },
                {
                    "imported_functions": [
                        "GetStdHandle",
                        "ReleaseMutex",
                        "FileTimeToSystemTime",
                        "WaitForSingleObject",
                        "Thread32Next",
                        "GetFileAttributesW",
                        "GetLocalTime",
                        "DeleteCriticalSection",
                        "GetCurrentProcess",
                        "GetConsoleMode",
                        "LocalAlloc",
                        "UnhandledExceptionFilter",
                        "FreeEnvironmentStringsW",
                        "InitializeSListHead",
                        "GetLocaleInfoW",
                        "SetStdHandle",
                        "WideCharToMultiByte",
                        "WriteFile",
                        "GetSystemTimeAsFileTime",
                        "Thread32First",
                        "HeapReAlloc",
                        "GetStringTypeW",
                        "GetOEMCP",
                        "LocalFree",
                        "CreateEventW",
                        "OutputDebugStringW",
                        "GetLogicalDriveStringsW",
                        "FindClose",
                        "TlsGetValue",
                        "QueryDosDeviceW",
                        "GetFullPathNameW",
                        "GetEnvironmentVariableW",
                        "SetLastError",
                        "GetModuleFileNameW",
                        "IsDebuggerPresent",
                        "HeapAlloc",
                        "GetModuleFileNameA",
                        "GetVolumeInformationA",
                        "EnumSystemLocalesW",
                        "LoadLibraryExW",
                        "MultiByteToWideChar",
                        "SetFilePointerEx",
                        "GetModuleHandleA",
                        "MoveFileExW",
                        "GetSystemDirectoryW",
                        "SetUnhandledExceptionFilter",
                        "CreateMutexW",
                        "IsProcessorFeaturePresent",
                        "SetEnvironmentVariableA",
                        "TerminateProcess",
                        "GetModuleHandleExW",
                        "GetCurrentThreadId",
                        "WriteConsoleW",
                        "CreateToolhelp32Snapshot",
                        "GetSystemWow64DirectoryW",
                        "InitializeCriticalSectionAndSpinCount",
                        "HeapFree",
                        "EnterCriticalSection",
                        "GetVersionExW",
                        "FreeLibrary",
                        "QueryPerformanceCounter",
                        "GetTickCount",
                        "TlsAlloc",
                        "VirtualProtect",
                        "FlushFileBuffers",
                        "LoadLibraryA",
                        "RtlUnwind",
                        "GetWindowsDirectoryW",
                        "GetFileSize",
                        "OpenProcess",
                        "GetDateFormatW",
                        "GetStartupInfoW",
                        "CreateDirectoryW",
                        "DeleteFileW",
                        "GetUserDefaultLCID",
                        "GetProcessHeap",
                        "GetTimeFormatW",
                        "FindFirstFileExA",
                        "ResetEvent",
                        "FindNextFileA",
                        "IsValidLocale",
                        "DuplicateHandle",
                        "GetProcAddress",
                        "SetEvent",
                        "GetTimeZoneInformation",
                        "CreateFileW",
                        "CreateEventA",
                        "GetFileType",
                        "TlsSetValue",
                        "ExitProcess",
                        "LeaveCriticalSection",
                        "GetNativeSystemInfo",
                        "GetLastError",
                        "SystemTimeToFileTime",
                        "LCMapStringW",
                        "GetConsoleCP",
                        "CompareStringW",
                        "GetEnvironmentStringsW",
                        "WaitForSingleObjectEx",
                        "Process32NextW",
                        "CreateProcessW",
                        "Module32FirstW",
                        "GetCurrentDirectoryW",
                        "GetCurrentProcessId",
                        "SetFileTime",
                        "GetCommandLineW",
                        "GetCPInfo",
                        "HeapSize",
                        "GetCommandLineA",
                        "Process32FirstW",
                        "RaiseException",
                        "MapViewOfFile",
                        "TlsFree",
                        "SetFilePointer",
                        "ReadFile",
                        "CloseHandle",
                        "GetACP",
                        "GetModuleHandleW",
                        "GetFileAttributesExW",
                        "GetLongPathNameW",
                        "IsValidCodePage",
                        "UnmapViewOfFile",
                        "GetTempPathW",
                        "VirtualFree",
                        "Sleep",
                        "VirtualAlloc"
                    ],
                    "library_name": "KERNEL32.dll"
                },
                {
                    "imported_functions": [
                        "SysFreeString",
                        "SysAllocStringLen"
                    ],
                    "library_name": "OLEAUT32.dll"
                },
                {
                    "imported_functions": [
                        "VerQueryValueW",
                        "GetFileVersionInfoW",
                        "GetFileVersionInfoSizeW"
                    ],
                    "library_name": "VERSION.dll"
                },
                {
                    "imported_functions": [
                        "RegCreateKeyExW",
                        "RegCloseKey",
                        "CheckTokenMembership",
                        "RegQueryValueExW",
                        "SetSecurityDescriptorDacl",
                        "GetSidSubAuthorityCount",
                        "GetSidSubAuthority",
                        "OpenProcessToken",
                        "RegOpenKeyExW",
                        "ConvertStringSecurityDescriptorToSecurityDescriptorA",
                        "SetSecurityDescriptorSacl",
                        "GetTokenInformation",
                        "GetUserNameW",
                        "SetEntriesInAclW",
                        "RegEnumKeyExW",
                        "CryptAcquireContextW",
                        "GetSecurityDescriptorSacl",
                        "RegEnumValueW",
                        "RegSetValueExW",
                        "FreeSid",
                        "AllocateAndInitializeSid",
                        "InitializeSecurityDescriptor",
                        "CryptGenRandom"
                    ],
                    "library_name": "ADVAPI32.dll"
                },
                {
                    "imported_functions": [
                        "CoInitializeEx",
                        "CoCreateInstance",
                        "CoTaskMemFree"
                    ],
                    "library_name": "ole32.dll"
                },
                {
                    "imported_functions": [
                        "getaddrinfo",
                        "htonl",
                        "accept",
                        "WSAStartup",
                        "freeaddrinfo",
                        "connect",
                        "shutdown",
                        "htons",
                        "select",
                        "gethostname",
                        "recv",
                        "ntohl",
                        "inet_addr",
                        "send",
                        "ntohs",
                        "WSAGetLastError",
                        "listen",
                        "WSAEventSelect",
                        "gethostbyname",
                        "getpeername",
                        "closesocket",
                        "socket",
                        "bind"
                    ],
                    "library_name": "WS2_32.dll"
                },
                {
                    "imported_functions": [
                        "GetWindowThreadProcessId",
                        "InternalGetWindowText",
                        "GetForegroundWindow",
                        "GetWindowRect",
                        "EnumThreadWindows",
                        "GetDesktopWindow",
                        "GetWindow",
                        "GetLastInputInfo"
                    ],
                    "library_name": "USER32.dll"
                }
            ],
            "machine_type": 332,
            "sections": [
                {
                    "entropy": 7.85,
                    "md5": "36a36a9dfeda5fc419ddcf60bae10f1a",
                    "name": ".text",
                    "raw_size": 618496,
                    "virtual_address": 4096,
                    "virtual_size": 618490
                },
                {
                    "entropy": 0.0,
                    "md5": "d41d8cd98f00b204e9800998ecf8427e",
                    "name": "BSS",
                    "raw_size": 0,
                    "virtual_address": 622592,
                    "virtual_size": 6080
                },
                {
                    "entropy": 7.2,
                    "md5": "17a981c35af81979b53947ab17b09bfc",
                    "name": ".rdata",
                    "raw_size": 126976,
                    "virtual_address": 630784,
                    "virtual_size": 126648
                },
                {
                    "entropy": 2.32,
                    "md5": "27e926daa08bb5b04f17f5dc42438965",
                    "name": ".data",
                    "raw_size": 860160,
                    "virtual_address": 757760,
                    "virtual_size": 859760
                },
                {
                    "entropy": 5.59,
                    "md5": "c20513e7f75b9b7846e3b96544763b11",
                    "name": ".reloc",
                    "raw_size": 29696,
                    "virtual_address": 1617920,
                    "virtual_size": 29196
                }
            ],
            "timestamp": 1508844283
        },
        "reputation": 0,
        "sha1": "b8767d6ed31df05deaa012707ffd1eee47ca58ef",
        "sha256": "0002af754d1280455028c2a96803f334e983fbef82da851f4f45a0fd95cd5094",
        "size": 1636352,
        "ssdeep": "49152:pVDpCx3icol1yb3t5nnmYU82seXmQ3u9:pxM3ic2C2gwu",
        "tags": [
            "peexe"
        ],
        "times_submitted": 1,
        "total_votes": {
            "harmless": 0,
            "malicious": 0
        },
        "trid": [
            {
                "file_type": "Win32 Executable (generic)",
                "probability": 52.9
            },
            {
                "file_type": "Generic Win/DOS Executable",
                "probability": 23.5
            },
            {
                "file_type": "DOS Executable Generic",
                "probability": 23.5
            }
        ],
        "type_description": "Win32 EXE",
        "type_extension": "exe",
        "type_tag": "peexe",
        "unique_sources": 1,
        "vhash": "0160567c057d155178z7e7z3025z13z8032z177z"
    },
    "id": "0002af754d1280455028c2a96803f334e983fbef82da851f4f45a0fd95cd5094",
    "links": {
        "self": "https://www.virustotal.com/api/v3/files/0002af754d1280455028c2a96803f334e983fbef82da851f4f45a0fd95cd5094"
    },
    "type": "file"
}