{
    "attributes": {
        "authentihash": "f90d9c981608c505acc9d783b66850ee7a17681bb67b699094bc4a6f7436d019",
        "creation_date": 1496076148,
        "first_submission_date": 1526152667,
        "last_analysis_date": 1526152667,
        "last_analysis_results": {
            "ALYac": {
                "category": "malicious",
                "engine_name": "ALYac",
                "engine_update": "20180512",
                "engine_version": "1.1.1.5",
                "method": "blacklist",
                "result": "Dropped:Generic.Malware.Fdld.85679D2E"
            },
            "AVG": {
                "category": "malicious",
                "engine_name": "AVG",
                "engine_update": "20180512",
                "engine_version": "18.4.3895.0",
                "method": "blacklist",
                "result": "Win32:Nitol-B [Trj]"
            },
            "AVware": {
                "category": "malicious",
                "engine_name": "AVware",
                "engine_update": "20180428",
                "engine_version": "1.5.0.42",
                "method": "blacklist",
                "result": "Trojan.Win32.Nitol.b (v)"
            },
            "Ad-Aware": {
                "category": "malicious",
                "engine_name": "Ad-Aware",
                "engine_update": "20180512",
                "engine_version": "3.0.5.370",
                "method": "blacklist",
                "result": "Dropped:Generic.Malware.Fdld.85679D2E"
            },
            "AegisLab": {
                "category": "malicious",
                "engine_name": "AegisLab",
                "engine_update": "20180512",
                "engine_version": "4.2",
                "method": "blacklist",
                "result": "Troj.W32.Gen.m2Bz"
            },
            "AhnLab-V3": {
                "category": "malicious",
                "engine_name": "AhnLab-V3",
                "engine_update": "20180512",
                "engine_version": "3.12.1.20782",
                "method": "blacklist",
                "result": "Trojan/Win32.Nitol.R201779"
            },
            "Alibaba": {
                "category": "type-unsupported",
                "engine_name": "Alibaba",
                "engine_update": "20180511",
                "engine_version": "1.0",
                "method": "blacklist",
                "result": null
            },
            "Antiy-AVL": {
                "category": "malicious",
                "engine_name": "Antiy-AVL",
                "engine_update": "20180512",
                "engine_version": "3.0.0.1",
                "method": "blacklist",
                "result": "Trojan/Win32.AGeneric"
            },
            "Arcabit": {
                "category": "malicious",
                "engine_name": "Arcabit",
                "engine_update": "20180512",
                "engine_version": "1.0.0.831",
                "method": "blacklist",
                "result": "Generic.Malware.Fdld.85679D2E"
            },
            "Avast": {
                "category": "malicious",
                "engine_name": "Avast",
                "engine_update": "20180512",
                "engine_version": "18.4.3895.0",
                "method": "blacklist",
                "result": "Win32:Nitol-B [Trj]"
            },
            "Avast-Mobile": {
                "category": "undetected",
                "engine_name": "Avast-Mobile",
                "engine_update": "20180512",
                "engine_version": "180512-04",
                "method": "blacklist",
                "result": null
            },
            "Avira": {
                "category": "malicious",
                "engine_name": "Avira",
                "engine_update": "20180512",
                "engine_version": "8.3.3.6",
                "method": "blacklist",
                "result": "TR/Crypt.Xpack.qcvui"
            },
            "Babable": {
                "category": "undetected",
                "engine_name": "Babable",
                "engine_update": "20180406",
                "engine_version": "9107201",
                "method": "blacklist",
                "result": null
            },
            "Baidu": {
                "category": "malicious",
                "engine_name": "Baidu",
                "engine_update": "20180511",
                "engine_version": "1.0.0.2",
                "method": "blacklist",
                "result": "Win32.Trojan.WisdomEyes.16070401.9500.9999"
            },
            "BitDefender": {
                "category": "malicious",
                "engine_name": "BitDefender",
                "engine_update": "20180512",
                "engine_version": "7.2",
                "method": "blacklist",
                "result": "Dropped:Generic.Malware.Fdld.85679D2E"
            },
            "Bkav": {
                "category": "malicious",
                "engine_name": "Bkav",
                "engine_update": "20180511",
                "engine_version": "1.3.0.9466",
                "method": "blacklist",
                "result": "W32.eHeur.Malware10"
            },
            "CAT-QuickHeal": {
                "category": "malicious",
                "engine_name": "CAT-QuickHeal",
                "engine_update": "20180512",
                "engine_version": "14.00",
                "method": "blacklist",
                "result": "Trojan.Nitol.A"
            },
            "CMC": {
                "category": "undetected",
                "engine_name": "CMC",
                "engine_update": "20180512",
                "engine_version": "1.1.0.977",
                "method": "blacklist",
                "result": null
            },
            "ClamAV": {
                "category": "malicious",
                "engine_name": "ClamAV",
                "engine_update": "20180512",
                "engine_version": "0.99.2.0",
                "method": "blacklist",
                "result": "Win.Trojan.Nitol-6335025-0"
            },
            "Comodo": {
                "category": "malicious",
                "engine_name": "Comodo",
                "engine_update": "20180512",
                "engine_version": "29000",
                "method": "blacklist",
                "result": "TrojWare.Win32.GameThief.Magania.~NWABI"
            },
            "CrowdStrike": {
                "category": "malicious",
                "engine_name": "CrowdStrike",
                "engine_update": "20180418",
                "engine_version": "1.0",
                "method": "blacklist",
                "result": "malicious_confidence_100% (D)"
            },
            "Cybereason": {
                "category": "type-unsupported",
                "engine_name": "Cybereason",
                "engine_update": null,
                "engine_version": null,
                "method": "blacklist",
                "result": null
            },
            "Cylance": {
                "category": "malicious",
                "engine_name": "Cylance",
                "engine_update": "20180512",
                "engine_version": "2.3.1.101",
                "method": "blacklist",
                "result": "Unsafe"
            },
            "Cyren": {
                "category": "malicious",
                "engine_name": "Cyren",
                "engine_update": "20180512",
                "engine_version": "6.0.0.4",
                "method": "blacklist",
                "result": "W32/S-a7b53705!Eldorado"
            },
            "ESET-NOD32": {
                "category": "malicious",
                "engine_name": "ESET-NOD32",
                "engine_update": "20180512",
                "engine_version": "17374",
                "method": "blacklist",
                "result": "a variant of Win32/ServStart.IK"
            },
            "Emsisoft": {
                "category": "malicious",
                "engine_name": "Emsisoft",
                "engine_update": "20180512",
                "engine_version": "4.0.2.899",
                "method": "blacklist",
                "result": "Dropped:Generic.Malware.Fdld.85679D2E (B)"
            },
            "Endgame": {
                "category": "malicious",
                "engine_name": "Endgame",
                "engine_update": "20180507",
                "engine_version": "2.1.2",
                "method": "blacklist",
                "result": "malicious (high confidence)"
            },
            "F-Prot": {
                "category": "malicious",
                "engine_name": "F-Prot",
                "engine_update": "20180512",
                "engine_version": "4.7.1.166",
                "method": "blacklist",
                "result": "W32/S-a7b53705!Eldorado"
            },
            "F-Secure": {
                "category": "malicious",
                "engine_name": "F-Secure",
                "engine_update": "20180512",
                "engine_version": "11.0.19100.45",
                "method": "blacklist",
                "result": "Dropped:Generic.Malware.Fdld.85679D2E"
            },
            "Fortinet": {
                "category": "malicious",
                "engine_name": "Fortinet",
                "engine_update": "20180512",
                "engine_version": "5.4.247.0",
                "method": "blacklist",
                "result": "W32/Generic.AC.2D85!tr"
            },
            "GData": {
                "category": "malicious",
                "engine_name": "GData",
                "engine_update": "20180512",
                "engine_version": "A:25.17023B:25.12240",
                "method": "blacklist",
                "result": "Dropped:Generic.Malware.Fdld.85679D2E"
            },
            "Ikarus": {
                "category": "malicious",
                "engine_name": "Ikarus",
                "engine_update": "20180512",
                "engine_version": "0.1.5.2",
                "method": "blacklist",
                "result": "Trojan.Win32.Agent"
            },
            "Invincea": {
                "category": "malicious",
                "engine_name": "Invincea",
                "engine_update": "20180503",
                "engine_version": "6.3.4.26036",
                "method": "blacklist",
                "result": "heuristic"
            },
            "Jiangmin": {
                "category": "malicious",
                "engine_name": "Jiangmin",
                "engine_update": "20180512",
                "engine_version": "16.0.100",
                "method": "blacklist",
                "result": "Trojan.Generic.brsmj"
            },
            "K7AntiVirus": {
                "category": "malicious",
                "engine_name": "K7AntiVirus",
                "engine_update": "20180512",
                "engine_version": "10.47.27121",
                "method": "blacklist",
                "result": "Trojan-Downloader ( 0040f8ad1 )"
            },
            "K7GW": {
                "category": "malicious",
                "engine_name": "K7GW",
                "engine_update": "20180512",
                "engine_version": "10.47.27121",
                "method": "blacklist",
                "result": "Trojan ( 0040f8ad1 )"
            },
            "Kaspersky": {
                "category": "malicious",
                "engine_name": "Kaspersky",
                "engine_update": "20180512",
                "engine_version": "15.0.1.13",
                "method": "blacklist",
                "result": "HEUR:Trojan.Win32.Generic"
            },
            "Kingsoft": {
                "category": "undetected",
                "engine_name": "Kingsoft",
                "engine_update": "20180512",
                "engine_version": "2013.8.14.323",
                "method": "blacklist",
                "result": null
            },
            "MAX": {
                "category": "malicious",
                "engine_name": "MAX",
                "engine_update": "20180512",
                "engine_version": "2017.11.15.1",
                "method": "blacklist",
                "result": "malware (ai score=80)"
            },
            "Malwarebytes": {
                "category": "malicious",
                "engine_name": "Malwarebytes",
                "engine_update": "20180512",
                "engine_version": "2.1.1.1115",
                "method": "blacklist",
                "result": "Trojan.ServStart"
            },
            "McAfee": {
                "category": "malicious",
                "engine_name": "McAfee",
                "engine_update": "20180512",
                "engine_version": "6.0.6.653",
                "method": "blacklist",
                "result": "GenericRXBM-KE!DBF0D5ADB286"
            },
            "McAfee-GW-Edition": {
                "category": "malicious",
                "engine_name": "McAfee-GW-Edition",
                "engine_update": "20180512",
                "engine_version": "v2017.2786",
                "method": "blacklist",
                "result": "BehavesLike.Win32.Generic.pm"
            },
            "MicroWorld-eScan": {
                "category": "malicious",
                "engine_name": "MicroWorld-eScan",
                "engine_update": "20180512",
                "engine_version": "14.0.297.0",
                "method": "blacklist",
                "result": "Dropped:Generic.Malware.Fdld.85679D2E"
            },
            "Microsoft": {
                "category": "malicious",
                "engine_name": "Microsoft",
                "engine_update": "20180512",
                "engine_version": "1.1.14800.3",
                "method": "blacklist",
                "result": "DDoS:Win32/Nitol.A"
            },
            "NANO-Antivirus": {
                "category": "malicious",
                "engine_name": "NANO-Antivirus",
                "engine_update": "20180512",
                "engine_version": "1.0.106.22618",
                "method": "blacklist",
                "result": "Trojan.Win32.ServStart.epnptq"
            },
            "Paloalto": {
                "category": "undetected",
                "engine_name": "Paloalto",
                "engine_update": "20180512",
                "engine_version": "1.0",
                "method": "blacklist",
                "result": null
            },
            "Panda": {
                "category": "malicious",
                "engine_name": "Panda",
                "engine_update": "20180512",
                "engine_version": "4.6.4.2",
                "method": "blacklist",
                "result": "Trj/Genetic.gen"
            },
            "Qihoo-360": {
                "category": "malicious",
                "engine_name": "Qihoo-360",
                "engine_update": "20180512",
                "engine_version": "1.0.0.1120",
                "method": "blacklist",
                "result": "HEUR/QVM07.1.1E05.Malware.Gen"
            },
            "Rising": {
                "category": "malicious",
                "engine_name": "Rising",
                "engine_update": "20180512",
                "engine_version": "25.0.0.1",
                "method": "blacklist",
                "result": "Backdoor.Overie!1.64BD (RDM+:cmRtazqAwxAZMc8BN0+4tbNwlrZN)"
            },
            "SUPERAntiSpyware": {
                "category": "malicious",
                "engine_name": "SUPERAntiSpyware",
                "engine_update": "20180512",
                "engine_version": "5.6.0.1032",
                "method": "blacklist",
                "result": "Trojan.Agent/Gen-ServStart"
            },
            "SentinelOne": {
                "category": "malicious",
                "engine_name": "SentinelOne",
                "engine_update": "20180225",
                "engine_version": "1.0.15.206",
                "method": "blacklist",
                "result": "static engine - malicious"
            },
            "Sophos": {
                "category": "malicious",
                "engine_name": "Sophos",
                "engine_update": "20180512",
                "engine_version": "4.98.0",
                "method": "blacklist",
                "result": "Troj/Agent-AYVZ"
            },
            "Symantec": {
                "category": "malicious",
                "engine_name": "Symantec",
                "engine_update": "20180512",
                "engine_version": "1.5.0.0",
                "method": "blacklist",
                "result": "Trojan.Gen.2"
            },
            "SymantecMobileInsight": {
                "category": "type-unsupported",
                "engine_name": "SymantecMobileInsight",
                "engine_update": "20180511",
                "engine_version": "1.0.0.35_220",
                "method": "blacklist",
                "result": null
            },
            "Tencent": {
                "category": "undetected",
                "engine_name": "Tencent",
                "engine_update": "20180512",
                "engine_version": "1.0.0.1",
                "method": "blacklist",
                "result": null
            },
            "TheHacker": {
                "category": "malicious",
                "engine_name": "TheHacker",
                "engine_update": "20180509",
                "engine_version": "6.8.0.5.2791",
                "method": "blacklist",
                "result": "Trojan/ServStart.ik"
            },
            "TotalDefense": {
                "category": "undetected",
                "engine_name": "TotalDefense",
                "engine_update": "20180512",
                "engine_version": "37.1.62.1",
                "method": "blacklist",
                "result": null
            },
            "TrendMicro": {
                "category": "malicious",
                "engine_name": "TrendMicro",
                "engine_update": "20180512",
                "engine_version": "10.0.0.1040",
                "method": "blacklist",
                "result": "DDOS_NITOL.SMC"
            },
            "TrendMicro-HouseCall": {
                "category": "malicious",
                "engine_name": "TrendMicro-HouseCall",
                "engine_update": "20180512",
                "engine_version": "9.950.0.1006",
                "method": "blacklist",
                "result": "DDOS_NITOL.SMC"
            },
            "Trustlook": {
                "category": "type-unsupported",
                "engine_name": "Trustlook",
                "engine_update": "20180512",
                "engine_version": "2",
                "method": "blacklist",
                "result": null
            },
            "VBA32": {
                "category": "malicious",
                "engine_name": "VBA32",
                "engine_update": "20180511",
                "engine_version": "3.12.28.0",
                "method": "blacklist",
                "result": "Trojan.Downloader"
            },
            "VIPRE": {
                "category": "malicious",
                "engine_name": "VIPRE",
                "engine_update": "20180512",
                "engine_version": "66626",
                "method": "blacklist",
                "result": "Trojan.Win32.Nitol.b (v)"
            },
            "ViRobot": {
                "category": "malicious",
                "engine_name": "ViRobot",
                "engine_update": "20180512",
                "engine_version": "2014.3.20.0",
                "method": "blacklist",
                "result": "Dropper.Agent.54110"
            },
            "Webroot": {
                "category": "undetected",
                "engine_name": "Webroot",
                "engine_update": "20180512",
                "engine_version": "1.0.0.403",
                "method": "blacklist",
                "result": null
            },
            "Yandex": {
                "category": "malicious",
                "engine_name": "Yandex",
                "engine_update": "20180511",
                "engine_version": "5.5.1.3",
                "method": "blacklist",
                "result": "Trojan.Agent!bGserAaTiB0"
            },
            "Zillya": {
                "category": "malicious",
                "engine_name": "Zillya",
                "engine_update": "20180511",
                "engine_version": "2.0.0.3553",
                "method": "blacklist",
                "result": "Trojan.ServStart.Win32.16461"
            },
            "ZoneAlarm": {
                "category": "malicious",
                "engine_name": "ZoneAlarm",
                "engine_update": "20180512",
                "engine_version": "1.0",
                "method": "blacklist",
                "result": "HEUR:Trojan.Win32.Generic"
            },
            "Zoner": {
                "category": "undetected",
                "engine_name": "Zoner",
                "engine_update": "20180511",
                "engine_version": "1.0",
                "method": "blacklist",
                "result": null
            },
            "eGambit": {
                "category": "malicious",
                "engine_name": "eGambit",
                "engine_update": "20180512",
                "engine_version": "v4.3.5",
                "method": "blacklist",
                "result": "Trojan.Generic"
            },
            "nProtect": {
                "category": "undetected",
                "engine_name": "nProtect",
                "engine_update": "20180512",
                "engine_version": "2018-05-12.02",
                "method": "blacklist",
                "result": null
            }
        },
        "last_analysis_stats": {
            "confirmed-timeout": 0,
            "failure": 0,
            "harmless": 0,
            "malicious": 56,
            "suspicious": 0,
            "timeout": 0,
            "type-unsupported": 4,
            "undetected": 10
        },
        "last_modification_date": 1526287637,
        "last_submission_date": 1526152667,
        "magic": "PE32 executable for MS Windows (GUI) Intel 80386 32-bit",
        "md5": "dbf0d5adb2862a7ab0f550d000793f49",
        "meaningful_name": "Yagu Music",
        "names": [
            "dbf0d5adb2862a7ab0f550d000793f49.virus",
            "hello.exe",
            "Yagu Music"
        ],
        "pe_info": {
            "entry_point": 14662,
            "imphash": "286870a926664a5129b8b68ed0d4a8eb",
            "import_list": [
                {
                    "imported_functions": [
                        "GetAdaptersInfo",
                        "GetIfTable"
                    ],
                    "library_name": "iphlpapi.dll"
                },
                {
                    "imported_functions": [
                        "ReleaseMutex",
                        "lstrlenA",
                        "WaitForSingleObject",
                        "ExitProcess",
                        "GetModuleFileNameA",
                        "LoadLibraryA",
                        "GetStartupInfoA",
                        "GetProcAddress",
                        "GetCurrentThread",
                        "OpenMutexA",
                        "SetFilePointer",
                        "lstrcpynA",
                        "CreateThread",
                        "GetModuleHandleA",
                        "GetSystemDefaultUILanguage",
                        "WriteFile",
                        "GetCurrentProcess",
                        "CloseHandle",
                        "GetComputerNameA",
                        "ExitThread",
                        "TerminateProcess",
                        "CreateProcessA",
                        "lstrcpyA",
                        "Sleep",
                        "CreateFileA",
                        "GetTickCount"
                    ],
                    "library_name": "KERNEL32.dll"
                },
                {
                    "imported_functions": [
                        "__p__fmode",
                        "malloc",
                        "rand",
                        "realloc",
                        "srand",
                        "_controlfp",
                        "strncpy",
                        "_except_handler3",
                        "exit",
                        "_XcptFilter",
                        "__setusermatherr",
                        "__p__commode",
                        "sprintf",
                        "_acmdln",
                        "strcspn",
                        "_adjust_fdiv",
                        "free",
                        "atoi",
                        "__getmainargs",
                        "_initterm",
                        "strstr",
                        "time",
                        "_exit",
                        "__set_app_type"
                    ],
                    "library_name": "MSVCRT.dll"
                },
                {
                    "imported_functions": [
                        "SHChangeNotify",
                        "ShellExecuteExA",
                        "ShellExecuteA"
                    ],
                    "library_name": "SHELL32.dll"
                },
                {
                    "imported_functions": [
                        "Ord(823)",
                        "Ord(825)"
                    ],
                    "library_name": "MFC42.DLL"
                },
                {
                    "imported_functions": [
                        "SHDeleteKeyA"
                    ],
                    "library_name": "SHLWAPI.dll"
                },
                {
                    "imported_functions": [
                        "setsockopt",
                        "htonl",
                        "socket",
                        "__WSAFDIsSet",
                        "closesocket",
                        "inet_addr",
                        "send",
                        "WSACleanup",
                        "WSAStartup",
                        "select",
                        "sendto",
                        "inet_ntoa",
                        "htons",
                        "recv",
                        "WSAIoctl",
                        "connect"
                    ],
                    "library_name": "WS2_32.dll"
                },
                {
                    "imported_functions": [
                        "wsprintfA"
                    ],
                    "library_name": "USER32.dll"
                }
            ],
            "machine_type": 332,
            "overlay": {
                "chi2": 18974.791015625,
                "entropy": 5.874324321746826,
                "filetype": "ASCII text",
                "md5": "433e4f791c0974432988438da2f8d856",
                "offset": 40960,
                "size": 5350
            },
            "resource_details": [
                {
                    "chi2": 521596.84375,
                    "entropy": 0.9055554270744324,
                    "filetype": "data",
                    "lang": "CHINESE SIMPLIFIED",
                    "sha256": "c6b0e7c0843dff8c1828fa1b77e4007abbba0c31807f7d5516f9d22d4f6943f9",
                    "type": "RT_BITMAP"
                },
                {
                    "chi2": 207533.46875,
                    "entropy": 2.6302993297576904,
                    "filetype": "data",
                    "lang": "ENGLISH EIRE",
                    "sha256": "43bdf5014995c3c55fdb906b66b57b349e0d4ba13cf380496a999a292bbd915c",
                    "type": "RT_DIALOG"
                },
                {
                    "chi2": 110437.4375,
                    "entropy": 2.967634439468384,
                    "filetype": "data",
                    "lang": "ENGLISH NZ",
                    "sha256": "d3992ca3f872acd96c8f72d94fc66f0bc9f16c708fa44f2b10da275d0aa13e1e",
                    "type": "RT_DIALOG"
                },
                {
                    "chi2": 12732.7294921875,
                    "entropy": 3.120657444000244,
                    "filetype": "data",
                    "lang": "ENGLISH US",
                    "sha256": "52864252cc5e2efd59f3708eadc3a8cbbb8b38d0fd73f22a5d6b6ad1a20b9e07",
                    "type": "RT_DIALOG"
                },
                {
                    "chi2": 23209.328125,
                    "entropy": 3.0239129066467285,
                    "filetype": "ASCII text",
                    "lang": "ENGLISH US",
                    "sha256": "89e2bfefdc11a107690e1601fa10c05fae868d4c6701bfb8ca7ecff91f49281e",
                    "type": "RT_STRING"
                },
                {
                    "chi2": 75986.6640625,
                    "entropy": 3.460486650466919,
                    "filetype": "data",
                    "lang": "ENGLISH US",
                    "sha256": "905f6926cd6503da4d1e72dd7613d4e98336d76322991438dec8265068f6a2e7",
                    "type": "RT_VERSION"
                }
            ],
            "resource_langs": {
                "CHINESE SIMPLIFIED": 1,
                "ENGLISH EIRE": 1,
                "ENGLISH NZ": 1,
                "ENGLISH US": 3
            },
            "resource_types": {
                "RT_BITMAP": 1,
                "RT_DIALOG": 3,
                "RT_STRING": 1,
                "RT_VERSION": 1
            },
            "sections": [
                {
                    "entropy": 6.43,
                    "md5": "1e7da471f86cf7b1a39d89929714dc1d",
                    "name": ".text",
                    "raw_size": 20480,
                    "virtual_address": 4096,
                    "virtual_size": 20380
                },
                {
                    "entropy": 4.05,
                    "md5": "fb3e6f7c0ae0a9f32d10e5837264d325",
                    "name": ".rdata",
                    "raw_size": 4096,
                    "virtual_address": 24576,
                    "virtual_size": 2876
                },
                {
                    "entropy": 4.92,
                    "md5": "ef67db1b9bbb59c81b160befb267b2e5",
                    "name": ".data",
                    "raw_size": 4096,
                    "virtual_address": 28672,
                    "virtual_size": 5304
                },
                {
                    "entropy": 3.03,
                    "md5": "4ece7ee926b1b885269875877cde3a03",
                    "name": ".rsrc",
                    "raw_size": 8192,
                    "virtual_address": 36864,
                    "virtual_size": 7960
                }
            ],
            "timestamp": 1496076148
        },
        "reputation": 0,
        "sha1": "22b43889e3769e2ccaa096b3feceb0300f7451bb",
        "sha256": "0002a94198b2807e84923726345236906f67a3587522bf038e16aae59403ac56",
        "signature_info": {
            "copyright": "All rights reserved.",
            "description": "Clien RunProcess Local",
            "file version": "10.0.14393.0 (rs1_release.160715-1616)",
            "internal name": "hello.exe",
            "original name": "Yagu Music",
            "product": "Yagu Music\u00ae Operating System"
        },
        "size": 46310,
        "ssdeep": "768:EvQ5qDLHRdw2iPSMEk/6KMvu571xuEMs96cyX1869zllllu:EvQoLHjw2iWPKMvw71sMLyXud",
        "tags": [
            "peexe",
            "overlay"
        ],
        "times_submitted": 1,
        "total_votes": {
            "harmless": 0,
            "malicious": 0
        },
        "trid": [
            {
                "file_type": "Win32 Executable MS Visual C++ (generic)",
                "probability": 41.0
            },
            {
                "file_type": "Win64 Executable (generic)",
                "probability": 36.3
            },
            {
                "file_type": "Win32 Dynamic Link Library (generic)",
                "probability": 8.6
            },
            {
                "file_type": "Win32 Executable (generic)",
                "probability": 5.9
            },
            {
                "file_type": "OS/2 Executable (generic)",
                "probability": 2.6
            }
        ],
        "type_description": "Win32 EXE",
        "type_extension": "exe",
        "type_tag": "peexe",
        "unique_sources": 1,
        "vhash": "044046651d551az1a18fz3011z14z18z"
    },
    "id": "0002a94198b2807e84923726345236906f67a3587522bf038e16aae59403ac56",
    "links": {
        "self": "https://www.virustotal.com/api/v3/files/0002a94198b2807e84923726345236906f67a3587522bf038e16aae59403ac56"
    },
    "type": "file"
}