{
    "attributes": {
        "authentihash": "944b96bc8ed57ef19ab89dbc1bfaa742e9e863f2ef66c367b80f6c4cddc5b4c3",
        "creation_date": 2099200,
        "first_submission_date": 1497777936,
        "last_analysis_date": 1500354308,
        "last_analysis_results": {
            "ALYac": {
                "category": "malicious",
                "engine_name": "ALYac",
                "engine_update": "20170718",
                "engine_version": "1.0.1.9",
                "method": "blacklist",
                "result": "Win32.Worm.Allaple.Gen"
            },
            "AVG": {
                "category": "malicious",
                "engine_name": "AVG",
                "engine_update": "20170718",
                "engine_version": "8.0.1489.320",
                "method": "blacklist",
                "result": "Win32:Allaple [Wrm]"
            },
            "AVware": {
                "category": "malicious",
                "engine_name": "AVware",
                "engine_update": "20170718",
                "engine_version": "1.5.0.42",
                "method": "blacklist",
                "result": "Net-Worm.Win32.Allaple.gen (v)"
            },
            "Ad-Aware": {
                "category": "malicious",
                "engine_name": "Ad-Aware",
                "engine_update": "20170718",
                "engine_version": "3.0.3.1010",
                "method": "blacklist",
                "result": "Win32.Worm.Allaple.Gen"
            },
            "AegisLab": {
                "category": "malicious",
                "engine_name": "AegisLab",
                "engine_update": "20170718",
                "engine_version": "4.2",
                "method": "blacklist",
                "result": "W32.W.Allaple.kYJb"
            },
            "AhnLab-V3": {
                "category": "malicious",
                "engine_name": "AhnLab-V3",
                "engine_update": "20170718",
                "engine_version": "3.9.1.17914",
                "method": "blacklist",
                "result": "Win32/Allaple.worm.B"
            },
            "Alibaba": {
                "category": "type-unsupported",
                "engine_name": "Alibaba",
                "engine_update": "20170718",
                "engine_version": "1.0",
                "method": "blacklist",
                "result": null
            },
            "Antiy-AVL": {
                "category": "malicious",
                "engine_name": "Antiy-AVL",
                "engine_update": "20170718",
                "engine_version": "3.0.0.1",
                "method": "blacklist",
                "result": "Worm[Net]/Win32.Allaple.gen"
            },
            "Arcabit": {
                "category": "malicious",
                "engine_name": "Arcabit",
                "engine_update": "20170718",
                "engine_version": "1.0.0.817",
                "method": "blacklist",
                "result": "Win32.Worm.Allaple.Gen"
            },
            "Avast": {
                "category": "malicious",
                "engine_name": "Avast",
                "engine_update": "20170718",
                "engine_version": "8.0.1489.320",
                "method": "blacklist",
                "result": "Win32:Allaple [Wrm]"
            },
            "Avira": {
                "category": "malicious",
                "engine_name": "Avira",
                "engine_update": "20170718",
                "engine_version": "8.3.3.4",
                "method": "blacklist",
                "result": "WORM/Allaple.Gen"
            },
            "Baidu": {
                "category": "malicious",
                "engine_name": "Baidu",
                "engine_update": "20170718",
                "engine_version": "1.0.0.2",
                "method": "blacklist",
                "result": "Win32.Trojan.Kryptik.gf"
            },
            "BitDefender": {
                "category": "malicious",
                "engine_name": "BitDefender",
                "engine_update": "20170718",
                "engine_version": "7.2",
                "method": "blacklist",
                "result": "Win32.Worm.Allaple.Gen"
            },
            "Bkav": {
                "category": "malicious",
                "engine_name": "Bkav",
                "engine_update": "20170717",
                "engine_version": "1.3.0.9227",
                "method": "blacklist",
                "result": "W32.CrypticB.Trojan"
            },
            "CAT-QuickHeal": {
                "category": "malicious",
                "engine_name": "CAT-QuickHeal",
                "engine_update": "20170717",
                "engine_version": "14.00",
                "method": "blacklist",
                "result": "I-Worm.Allaple.gen"
            },
            "CMC": {
                "category": "malicious",
                "engine_name": "CMC",
                "engine_update": "20170718",
                "engine_version": "1.1.0.977",
                "method": "blacklist",
                "result": "Net-Worm.Win32.Allaple.1!O"
            },
            "ClamAV": {
                "category": "malicious",
                "engine_name": "ClamAV",
                "engine_update": "20170718",
                "engine_version": "0.99.2.0",
                "method": "blacklist",
                "result": "Win.Worm.Allaple-273"
            },
            "Comodo": {
                "category": "malicious",
                "engine_name": "Comodo",
                "engine_update": "20170718",
                "engine_version": "27470",
                "method": "blacklist",
                "result": "NetWorm.Win32.Allaple.GEN"
            },
            "CrowdStrike": {
                "category": "malicious",
                "engine_name": "CrowdStrike",
                "engine_update": "20170710",
                "engine_version": "1.0",
                "method": "blacklist",
                "result": "malicious_confidence_100% (W)"
            },
            "Cylance": {
                "category": "malicious",
                "engine_name": "Cylance",
                "engine_update": "20170718",
                "engine_version": "2.3.1.101",
                "method": "blacklist",
                "result": "Unsafe"
            },
            "Cyren": {
                "category": "malicious",
                "engine_name": "Cyren",
                "engine_update": "20170718",
                "engine_version": "5.4.30.7",
                "method": "blacklist",
                "result": "W32/Allaple.C"
            },
            "DrWeb": {
                "category": "malicious",
                "engine_name": "DrWeb",
                "engine_update": "20170718",
                "engine_version": "7.0.28.2020",
                "method": "blacklist",
                "result": "Trojan.Starman.6712"
            },
            "ESET-NOD32": {
                "category": "malicious",
                "engine_name": "ESET-NOD32",
                "engine_update": "20170718",
                "engine_version": "15763",
                "method": "blacklist",
                "result": "Win32/Allaple"
            },
            "Emsisoft": {
                "category": "malicious",
                "engine_name": "Emsisoft",
                "engine_update": "20170718",
                "engine_version": "4.0.1.883",
                "method": "blacklist",
                "result": "Win32.Worm.Allaple.Gen (B)"
            },
            "Endgame": {
                "category": "malicious",
                "engine_name": "Endgame",
                "engine_update": "20170713",
                "engine_version": "0.7.5",
                "method": "blacklist",
                "result": "malicious (high confidence)"
            },
            "F-Prot": {
                "category": "malicious",
                "engine_name": "F-Prot",
                "engine_update": "20170718",
                "engine_version": "4.7.1.166",
                "method": "blacklist",
                "result": "W32/Allaple.C"
            },
            "F-Secure": {
                "category": "malicious",
                "engine_name": "F-Secure",
                "engine_update": "20170718",
                "engine_version": "11.0.19100.45",
                "method": "blacklist",
                "result": "Net-Worm:W32/Allaple.gen!B"
            },
            "Fortinet": {
                "category": "malicious",
                "engine_name": "Fortinet",
                "engine_update": "20170629",
                "engine_version": "5.4.247.0",
                "method": "blacklist",
                "result": "W32/Allaple.gen!tr"
            },
            "GData": {
                "category": "malicious",
                "engine_name": "GData",
                "engine_update": "20170718",
                "engine_version": "A:25.13430B:25.10025",
                "method": "blacklist",
                "result": "Win32.Worm.Allaple.Gen"
            },
            "Invincea": {
                "category": "malicious",
                "engine_name": "Invincea",
                "engine_update": "20170607",
                "engine_version": "6.3.0.25415",
                "method": "blacklist",
                "result": "heuristic"
            },
            "Jiangmin": {
                "category": "malicious",
                "engine_name": "Jiangmin",
                "engine_update": "20170718",
                "engine_version": "16.0.100",
                "method": "blacklist",
                "result": "Worm/Allaple.Gen"
            },
            "K7AntiVirus": {
                "category": "malicious",
                "engine_name": "K7AntiVirus",
                "engine_update": "20170717",
                "engine_version": "10.18.24007",
                "method": "blacklist",
                "result": "Trojan ( 004d4ed01 )"
            },
            "K7GW": {
                "category": "malicious",
                "engine_name": "K7GW",
                "engine_update": "20170718",
                "engine_version": "10.18.24008",
                "method": "blacklist",
                "result": "Trojan ( 004d4ed01 )"
            },
            "Kaspersky": {
                "category": "malicious",
                "engine_name": "Kaspersky",
                "engine_update": "20170718",
                "engine_version": "15.0.1.13",
                "method": "blacklist",
                "result": "Net-Worm.Win32.Allaple.b"
            },
            "Kingsoft": {
                "category": "malicious",
                "engine_name": "Kingsoft",
                "engine_update": "20170718",
                "engine_version": "2013.8.14.323",
                "method": "blacklist",
                "result": "Worm.AllApleT.cz.67868"
            },
            "MAX": {
                "category": "malicious",
                "engine_name": "MAX",
                "engine_update": "20170718",
                "engine_version": "2017.6.26.1",
                "method": "blacklist",
                "result": "malware (ai score=86)"
            },
            "Malwarebytes": {
                "category": "malicious",
                "engine_name": "Malwarebytes",
                "engine_update": "20170718",
                "engine_version": "2.1.1.1115",
                "method": "blacklist",
                "result": "Worm.Allaple"
            },
            "McAfee": {
                "category": "malicious",
                "engine_name": "McAfee",
                "engine_update": "20170718",
                "engine_version": "6.0.6.653",
                "method": "blacklist",
                "result": "W32/RAHack"
            },
            "McAfee-GW-Edition": {
                "category": "malicious",
                "engine_name": "McAfee-GW-Edition",
                "engine_update": "20170718",
                "engine_version": "v2015",
                "method": "blacklist",
                "result": "BehavesLike.Win32.RAHack.qc"
            },
            "MicroWorld-eScan": {
                "category": "malicious",
                "engine_name": "MicroWorld-eScan",
                "engine_update": "20170718",
                "engine_version": "12.0.250.0",
                "method": "blacklist",
                "result": "Win32.Worm.Allaple.Gen"
            },
            "Microsoft": {
                "category": "malicious",
                "engine_name": "Microsoft",
                "engine_update": "20170718",
                "engine_version": "1.1.13903.0",
                "method": "blacklist",
                "result": "Worm:Win32/Allaple.A"
            },
            "NANO-Antivirus": {
                "category": "malicious",
                "engine_name": "NANO-Antivirus",
                "engine_update": "20170718",
                "engine_version": "1.0.76.17587",
                "method": "blacklist",
                "result": "Virus.Win32.Allaple.bkbmt"
            },
            "Paloalto": {
                "category": "malicious",
                "engine_name": "Paloalto",
                "engine_update": "20170718",
                "engine_version": "1.0",
                "method": "blacklist",
                "result": "generic.ml"
            },
            "Panda": {
                "category": "malicious",
                "engine_name": "Panda",
                "engine_update": "20170717",
                "engine_version": "4.6.4.2",
                "method": "blacklist",
                "result": "W32/Rahack.gen.worm"
            },
            "Qihoo-360": {
                "category": "malicious",
                "engine_name": "Qihoo-360",
                "engine_update": "20170718",
                "engine_version": "1.0.0.1120",
                "method": "blacklist",
                "result": "Worm.Win32.Allaple.P"
            },
            "Rising": {
                "category": "malicious",
                "engine_name": "Rising",
                "engine_update": "20170718",
                "engine_version": "25.0.0.1",
                "method": "blacklist",
                "result": "Worm.Allaple!1.AB29 (classic)"
            },
            "SUPERAntiSpyware": {
                "category": "malicious",
                "engine_name": "SUPERAntiSpyware",
                "engine_update": "20170718",
                "engine_version": "5.6.0.1032",
                "method": "blacklist",
                "result": "Worm.Allaple"
            },
            "SentinelOne": {
                "category": "malicious",
                "engine_name": "SentinelOne",
                "engine_update": "20170516",
                "engine_version": "1.0.0.12",
                "method": "blacklist",
                "result": "static engine - malicious"
            },
            "Sophos": {
                "category": "malicious",
                "engine_name": "Sophos",
                "engine_update": "20170717",
                "engine_version": "4.98.0",
                "method": "blacklist",
                "result": "W32/Allaple-F"
            },
            "Symantec": {
                "category": "malicious",
                "engine_name": "Symantec",
                "engine_update": "20170717",
                "engine_version": "1.4.0.0",
                "method": "blacklist",
                "result": "W32.Rahack.W"
            },
            "SymantecMobileInsight": {
                "category": "type-unsupported",
                "engine_name": "SymantecMobileInsight",
                "engine_update": "20170718",
                "engine_version": "1.0.0.35_220",
                "method": "blacklist",
                "result": null
            },
            "Tencent": {
                "category": "undetected",
                "engine_name": "Tencent",
                "engine_update": "20170718",
                "engine_version": "1.0.0.1",
                "method": "blacklist",
                "result": null
            },
            "TheHacker": {
                "category": "malicious",
                "engine_name": "TheHacker",
                "engine_update": "20170717",
                "engine_version": "6.8.0.5.1741",
                "method": "blacklist",
                "result": "W32/RAHack.gen"
            },
            "TotalDefense": {
                "category": "malicious",
                "engine_name": "TotalDefense",
                "engine_update": "20170718",
                "engine_version": "37.1.62.1",
                "method": "blacklist",
                "result": "Win32/Mallar"
            },
            "TrendMicro": {
                "category": "malicious",
                "engine_name": "TrendMicro",
                "engine_update": "20170718",
                "engine_version": "9.862.0.1074",
                "method": "blacklist",
                "result": "WORM_ALLAPLE.IK"
            },
            "TrendMicro-HouseCall": {
                "category": "malicious",
                "engine_name": "TrendMicro-HouseCall",
                "engine_update": "20170718",
                "engine_version": "9.950.0.1006",
                "method": "blacklist",
                "result": "WORM_ALLAPLE.IK"
            },
            "Trustlook": {
                "category": "type-unsupported",
                "engine_name": "Trustlook",
                "engine_update": "20170718",
                "engine_version": "2",
                "method": "blacklist",
                "result": null
            },
            "VBA32": {
                "category": "malicious",
                "engine_name": "VBA32",
                "engine_update": "20170717",
                "engine_version": "3.12.26.4",
                "method": "blacklist",
                "result": "OScope.Malware-Cryptor.Win32.Allaple"
            },
            "VIPRE": {
                "category": "malicious",
                "engine_name": "VIPRE",
                "engine_update": "20170718",
                "engine_version": "59612",
                "method": "blacklist",
                "result": "Net-Worm.Win32.Allaple.gen (v)"
            },
            "ViRobot": {
                "category": "malicious",
                "engine_name": "ViRobot",
                "engine_update": "20170718",
                "engine_version": "2014.3.20.0",
                "method": "blacklist",
                "result": "Worm.Win32.Allaple.Gen"
            },
            "Webroot": {
                "category": "undetected",
                "engine_name": "Webroot",
                "engine_update": "20170718",
                "engine_version": "1.0.0.207",
                "method": "blacklist",
                "result": null
            },
            "WhiteArmor": {
                "category": "type-unsupported",
                "engine_name": "WhiteArmor",
                "engine_update": "20170713",
                "engine_version": "9101276",
                "method": "blacklist",
                "result": null
            },
            "Yandex": {
                "category": "malicious",
                "engine_name": "Yandex",
                "engine_update": "20170717",
                "engine_version": "5.5.1.3",
                "method": "blacklist",
                "result": "Worm.Allaple.Gen"
            },
            "Zillya": {
                "category": "malicious",
                "engine_name": "Zillya",
                "engine_update": "20170717",
                "engine_version": "2.0.0.3338",
                "method": "blacklist",
                "result": "Worm.Allaple.Win32.1"
            },
            "ZoneAlarm": {
                "category": "malicious",
                "engine_name": "ZoneAlarm",
                "engine_update": "20170718",
                "engine_version": "1.0",
                "method": "blacklist",
                "result": "Net-Worm.Win32.Allaple.b"
            },
            "Zoner": {
                "category": "malicious",
                "engine_name": "Zoner",
                "engine_update": "20170718",
                "engine_version": "1.0",
                "method": "blacklist",
                "result": "I-Worm.Allaple"
            },
            "nProtect": {
                "category": "malicious",
                "engine_name": "nProtect",
                "engine_update": "20170718",
                "engine_version": "2017-07-18.01",
                "method": "blacklist",
                "result": "Worm/W32.Allaple.Gen"
            }
        },
        "last_analysis_stats": {
            "confirmed-timeout": 0,
            "failure": 0,
            "harmless": 0,
            "malicious": 61,
            "suspicious": 0,
            "timeout": 0,
            "type-unsupported": 4,
            "undetected": 2
        },
        "last_modification_date": 1500354628,
        "last_submission_date": 1497777936,
        "magic": "PE32 executable for MS Windows (GUI) Intel 80386 32-bit",
        "md5": "ca3fcefbe29c9873a58b66f779f0dc16",
        "names": [],
        "pe_info": {
            "entry_point": 7298,
            "imphash": "9122e6678f408b8ecc756b05143ae40c",
            "import_list": [
                {
                    "imported_functions": [
                        "SetVolumeLabelW",
                        "EnumSystemLocalesA",
                        "FileTimeToDosDateTime",
                        "ExitVDM",
                        "DebugSetProcessKillOnExit",
                        "FindVolumeClose",
                        "SetConsoleDisplayMode",
                        "CreateJobSet",
                        "IsProcessInJob",
                        "SetFileApisToANSI",
                        "GetProcAddress"
                    ],
                    "library_name": "KERNEL32.dll"
                }
            ],
            "machine_type": 332,
            "sections": [
                {
                    "entropy": 6.87,
                    "md5": "fe70e9c26f5026153894d777a2532cc3",
                    "name": ".text",
                    "raw_size": 13824,
                    "virtual_address": 4096,
                    "virtual_size": 13352
                },
                {
                    "entropy": 0.0,
                    "md5": "d41d8cd98f00b204e9800998ecf8427e",
                    "name": "rdata",
                    "raw_size": 0,
                    "virtual_address": 20480,
                    "virtual_size": 65536
                },
                {
                    "entropy": 8.0,
                    "md5": "b7c81218eb5dcf938dbd1a3f24b5f9fb",
                    "name": ".data",
                    "raw_size": 43008,
                    "virtual_address": 86016,
                    "virtual_size": 42992
                }
            ],
            "timestamp": 2099200
        },
        "reputation": 0,
        "sha1": "91e64c1f8fd96c7c8e26df8c7c06c6ea1db28067",
        "sha256": "000244927b01d158ea2cd3d6bb1be38d85dd144020ab687d89af6fca74509869",
        "size": 57856,
        "ssdeep": "1536:YCnODZ5pAOcx795K/C0FxOJBXm3det1QpQay/Y4S/Wg:CDrSOcx79gjP+x/mdj",
        "tags": [
            "peexe"
        ],
        "times_submitted": 1,
        "total_votes": {
            "harmless": 0,
            "malicious": 0
        },
        "trid": [
            {
                "file_type": "Win32 Dynamic Link Library (generic)",
                "probability": 43.5
            },
            {
                "file_type": "Win32 Executable (generic)",
                "probability": 29.8
            },
            {
                "file_type": "Generic Win/DOS Executable",
                "probability": 13.2
            },
            {
                "file_type": "DOS Executable Generic",
                "probability": 13.2
            }
        ],
        "type_description": "Win32 EXE",
        "type_extension": "exe",
        "type_tag": "peexe",
        "unique_sources": 1,
        "vhash": "0540366c0d7bzb!z"
    },
    "id": "000244927b01d158ea2cd3d6bb1be38d85dd144020ab687d89af6fca74509869",
    "links": {
        "self": "https://www.virustotal.com/api/v3/files/000244927b01d158ea2cd3d6bb1be38d85dd144020ab687d89af6fca74509869"
    },
    "type": "file"
}