{
    "attributes": {
        "authentihash": "482dc1f7cf292b4b16c952907a8007eee74794287bc5959eb3d7d0c5bbe85548",
        "creation_date": 708992537,
        "first_submission_date": 1540985646,
        "last_analysis_date": 1540985646,
        "last_analysis_results": {
            "ALYac": {
                "category": "malicious",
                "engine_name": "ALYac",
                "engine_update": "20181031",
                "engine_version": "1.1.1.5",
                "method": "blacklist",
                "result": "Gen:Variant.Symmi.86951"
            },
            "AVG": {
                "category": "malicious",
                "engine_name": "AVG",
                "engine_update": "20181031",
                "engine_version": "18.4.3895.0",
                "method": "blacklist",
                "result": "Win32:Delf-JLS [Trj]"
            },
            "Ad-Aware": {
                "category": "malicious",
                "engine_name": "Ad-Aware",
                "engine_update": "20181031",
                "engine_version": "3.0.5.370",
                "method": "blacklist",
                "result": "Gen:Variant.Symmi.86951"
            },
            "AegisLab": {
                "category": "undetected",
                "engine_name": "AegisLab",
                "engine_update": "20181031",
                "engine_version": "4.2",
                "method": "blacklist",
                "result": null
            },
            "AhnLab-V3": {
                "category": "undetected",
                "engine_name": "AhnLab-V3",
                "engine_update": "20181031",
                "engine_version": "3.13.1.22397",
                "method": "blacklist",
                "result": null
            },
            "Alibaba": {
                "category": "undetected",
                "engine_name": "Alibaba",
                "engine_update": "20180921",
                "engine_version": "0.1.0.2",
                "method": "blacklist",
                "result": null
            },
            "Antiy-AVL": {
                "category": "malicious",
                "engine_name": "Antiy-AVL",
                "engine_update": "20181031",
                "engine_version": "3.0.0.1",
                "method": "blacklist",
                "result": "Worm[Email]/Win32.Fearso"
            },
            "Arcabit": {
                "category": "malicious",
                "engine_name": "Arcabit",
                "engine_update": "20181031",
                "engine_version": "1.0.0.833",
                "method": "blacklist",
                "result": "Trojan.Symmi.D153A7"
            },
            "Avast": {
                "category": "malicious",
                "engine_name": "Avast",
                "engine_update": "20181031",
                "engine_version": "18.4.3895.0",
                "method": "blacklist",
                "result": "Win32:Delf-JLS [Trj]"
            },
            "Avast-Mobile": {
                "category": "undetected",
                "engine_name": "Avast-Mobile",
                "engine_update": "20181031",
                "engine_version": "181031-02",
                "method": "blacklist",
                "result": null
            },
            "Avira": {
                "category": "malicious",
                "engine_name": "Avira",
                "engine_update": "20181031",
                "engine_version": "8.3.3.6",
                "method": "blacklist",
                "result": "DR/Delphi.Gen"
            },
            "Babable": {
                "category": "undetected",
                "engine_name": "Babable",
                "engine_update": "20180918",
                "engine_version": "9107201",
                "method": "blacklist",
                "result": null
            },
            "Baidu": {
                "category": "malicious",
                "engine_name": "Baidu",
                "engine_update": "20181031",
                "engine_version": "1.0.0.2",
                "method": "blacklist",
                "result": "Win32.Worm.Eggnog.a"
            },
            "BitDefender": {
                "category": "malicious",
                "engine_name": "BitDefender",
                "engine_update": "20181031",
                "engine_version": "7.2",
                "method": "blacklist",
                "result": "Gen:Variant.Symmi.86951"
            },
            "Bkav": {
                "category": "undetected",
                "engine_name": "Bkav",
                "engine_update": "20181031",
                "engine_version": "1.3.0.9898",
                "method": "blacklist",
                "result": null
            },
            "CAT-QuickHeal": {
                "category": "malicious",
                "engine_name": "CAT-QuickHeal",
                "engine_update": "20181028",
                "engine_version": "14.00",
                "method": "blacklist",
                "result": "Trojan.IGENERIC"
            },
            "CMC": {
                "category": "malicious",
                "engine_name": "CMC",
                "engine_update": "20181031",
                "engine_version": "1.1.0.977",
                "method": "blacklist",
                "result": "Email-Worm.Win32.Fearso!O"
            },
            "ClamAV": {
                "category": "undetected",
                "engine_name": "ClamAV",
                "engine_update": "20181031",
                "engine_version": "0.100.2.0",
                "method": "blacklist",
                "result": null
            },
            "CrowdStrike": {
                "category": "malicious",
                "engine_name": "CrowdStrike",
                "engine_update": "20181022",
                "engine_version": "1.0",
                "method": "blacklist",
                "result": "malicious_confidence_100% (D)"
            },
            "Cybereason": {
                "category": "malicious",
                "engine_name": "Cybereason",
                "engine_update": "20180225",
                "engine_version": "1.2.27",
                "method": "blacklist",
                "result": "malicious.162c33"
            },
            "Cylance": {
                "category": "malicious",
                "engine_name": "Cylance",
                "engine_update": "20181031",
                "engine_version": "2.3.1.101",
                "method": "blacklist",
                "result": "Unsafe"
            },
            "Cyren": {
                "category": "undetected",
                "engine_name": "Cyren",
                "engine_update": "20181031",
                "engine_version": "6.0.0.4",
                "method": "blacklist",
                "result": null
            },
            "DrWeb": {
                "category": "malicious",
                "engine_name": "DrWeb",
                "engine_update": "20181031",
                "engine_version": "7.0.33.6080",
                "method": "blacklist",
                "result": "Win32.HLLW.Fearso"
            },
            "ESET-NOD32": {
                "category": "malicious",
                "engine_name": "ESET-NOD32",
                "engine_update": "20181031",
                "engine_version": "18304",
                "method": "blacklist",
                "result": "Win32/Farex.W"
            },
            "Emsisoft": {
                "category": "malicious",
                "engine_name": "Emsisoft",
                "engine_update": "20181031",
                "engine_version": "2018.4.0.1029",
                "method": "blacklist",
                "result": "Gen:Variant.Symmi.86951 (B)"
            },
            "Endgame": {
                "category": "malicious",
                "engine_name": "Endgame",
                "engine_update": "20180730",
                "engine_version": "3.0.1",
                "method": "blacklist",
                "result": "malicious (high confidence)"
            },
            "F-Prot": {
                "category": "undetected",
                "engine_name": "F-Prot",
                "engine_update": "20181031",
                "engine_version": "4.7.1.166",
                "method": "blacklist",
                "result": null
            },
            "F-Secure": {
                "category": "malicious",
                "engine_name": "F-Secure",
                "engine_update": "20181031",
                "engine_version": "11.0.19100.45",
                "method": "blacklist",
                "result": "Gen:Variant.Symmi.86951"
            },
            "Fortinet": {
                "category": "malicious",
                "engine_name": "Fortinet",
                "engine_update": "20181031",
                "engine_version": "5.4.247.0",
                "method": "blacklist",
                "result": "W32/Fearso.V@mm"
            },
            "GData": {
                "category": "malicious",
                "engine_name": "GData",
                "engine_update": "20181031",
                "engine_version": "A:25.19161B:25.13568",
                "method": "blacklist",
                "result": "Gen:Variant.Symmi.86951"
            },
            "Ikarus": {
                "category": "malicious",
                "engine_name": "Ikarus",
                "engine_update": "20181031",
                "engine_version": "0.1.5.2",
                "method": "blacklist",
                "result": "Trojan-Dropper.Delf"
            },
            "Invincea": {
                "category": "malicious",
                "engine_name": "Invincea",
                "engine_update": "20180717",
                "engine_version": "6.3.5.26121",
                "method": "blacklist",
                "result": "heuristic"
            },
            "Jiangmin": {
                "category": "malicious",
                "engine_name": "Jiangmin",
                "engine_update": "20181031",
                "engine_version": "16.0.100",
                "method": "blacklist",
                "result": "Worm/Sramota.ajx"
            },
            "K7AntiVirus": {
                "category": "malicious",
                "engine_name": "K7AntiVirus",
                "engine_update": "20181031",
                "engine_version": "11.9.28881",
                "method": "blacklist",
                "result": "Trojan ( 000ef7c51 )"
            },
            "K7GW": {
                "category": "malicious",
                "engine_name": "K7GW",
                "engine_update": "20181031",
                "engine_version": "11.9.28880",
                "method": "blacklist",
                "result": "Trojan ( 000ef7c51 )"
            },
            "Kaspersky": {
                "category": "malicious",
                "engine_name": "Kaspersky",
                "engine_update": "20181031",
                "engine_version": "15.0.1.13",
                "method": "blacklist",
                "result": "Email-Worm.Win32.Fearso.v"
            },
            "Kingsoft": {
                "category": "undetected",
                "engine_name": "Kingsoft",
                "engine_update": "20181031",
                "engine_version": "2013.8.14.323",
                "method": "blacklist",
                "result": null
            },
            "MAX": {
                "category": "malicious",
                "engine_name": "MAX",
                "engine_update": "20181031",
                "engine_version": "2018.9.12.1",
                "method": "blacklist",
                "result": "malware (ai score=85)"
            },
            "Malwarebytes": {
                "category": "undetected",
                "engine_name": "Malwarebytes",
                "engine_update": "20181031",
                "engine_version": "2.1.1.1115",
                "method": "blacklist",
                "result": null
            },
            "McAfee": {
                "category": "malicious",
                "engine_name": "McAfee",
                "engine_update": "20181031",
                "engine_version": "6.0.6.653",
                "method": "blacklist",
                "result": "W32/Fearso!p2p"
            },
            "McAfee-GW-Edition": {
                "category": "malicious",
                "engine_name": "McAfee-GW-Edition",
                "engine_update": "20181031",
                "engine_version": "v2017.3010",
                "method": "blacklist",
                "result": "BehavesLike.Win32.Morefi.lm"
            },
            "MicroWorld-eScan": {
                "category": "malicious",
                "engine_name": "MicroWorld-eScan",
                "engine_update": "20181031",
                "engine_version": "14.0.297.0",
                "method": "blacklist",
                "result": "Gen:Variant.Symmi.86951"
            },
            "Microsoft": {
                "category": "malicious",
                "engine_name": "Microsoft",
                "engine_update": "20181031",
                "engine_version": "1.1.15400.4",
                "method": "blacklist",
                "result": "Worm:Win32/Fearso.V@mm"
            },
            "NANO-Antivirus": {
                "category": "malicious",
                "engine_name": "NANO-Antivirus",
                "engine_update": "20181031",
                "engine_version": "1.0.134.24299",
                "method": "blacklist",
                "result": "Trojan.Win32.Fearso.dgzsfs"
            },
            "Paloalto": {
                "category": "undetected",
                "engine_name": "Paloalto",
                "engine_update": "20181031",
                "engine_version": "1.0",
                "method": "blacklist",
                "result": null
            },
            "Panda": {
                "category": "malicious",
                "engine_name": "Panda",
                "engine_update": "20181030",
                "engine_version": "4.6.4.2",
                "method": "blacklist",
                "result": "Worm Generic"
            },
            "Qihoo-360": {
                "category": "malicious",
                "engine_name": "Qihoo-360",
                "engine_update": "20181031",
                "engine_version": "1.0.0.1120",
                "method": "blacklist",
                "result": "HEUR/QVM05.1.E459.Malware.Gen"
            },
            "Rising": {
                "category": "malicious",
                "engine_name": "Rising",
                "engine_update": "20181031",
                "engine_version": "25.0.0.24",
                "method": "blacklist",
                "result": "Worm.Farex!8.7C1 (RDM+:cmRtazrSiJqSFeGFXDg4KJMGS5vz)"
            },
            "SUPERAntiSpyware": {
                "category": "undetected",
                "engine_name": "SUPERAntiSpyware",
                "engine_update": "20181031",
                "engine_version": "5.6.0.1032",
                "method": "blacklist",
                "result": null
            },
            "SentinelOne": {
                "category": "malicious",
                "engine_name": "SentinelOne",
                "engine_update": "20181011",
                "engine_version": "1.0.19.245",
                "method": "blacklist",
                "result": "static engine - malicious"
            },
            "Sophos": {
                "category": "malicious",
                "engine_name": "Sophos",
                "engine_update": "20181031",
                "engine_version": "4.98.0",
                "method": "blacklist",
                "result": "W32/Eggnog-Fam"
            },
            "Symantec": {
                "category": "malicious",
                "engine_name": "Symantec",
                "engine_update": "20181031",
                "engine_version": "1.8.0.0",
                "method": "blacklist",
                "result": "ML.Attribute.HighConfidence"
            },
            "SymantecMobileInsight": {
                "category": "type-unsupported",
                "engine_name": "SymantecMobileInsight",
                "engine_update": "20181030",
                "engine_version": "2.0",
                "method": "blacklist",
                "result": null
            },
            "TACHYON": {
                "category": "undetected",
                "engine_name": "TACHYON",
                "engine_update": "20181031",
                "engine_version": "2018-10-31.02",
                "method": "blacklist",
                "result": null
            },
            "Tencent": {
                "category": "undetected",
                "engine_name": "Tencent",
                "engine_update": "20181031",
                "engine_version": "1.0.0.1",
                "method": "blacklist",
                "result": null
            },
            "TheHacker": {
                "category": "undetected",
                "engine_name": "TheHacker",
                "engine_update": "20181025",
                "engine_version": "6.8.0.5.3789",
                "method": "blacklist",
                "result": null
            },
            "TrendMicro": {
                "category": "undetected",
                "engine_name": "TrendMicro",
                "engine_update": "20181031",
                "engine_version": "10.0.0.1040",
                "method": "blacklist",
                "result": null
            },
            "TrendMicro-HouseCall": {
                "category": "undetected",
                "engine_name": "TrendMicro-HouseCall",
                "engine_update": "20181031",
                "engine_version": "10.0.0.1040",
                "method": "blacklist",
                "result": null
            },
            "Trustlook": {
                "category": "undetected",
                "engine_name": "Trustlook",
                "engine_update": "20181031",
                "engine_version": "1.0",
                "method": "blacklist",
                "result": null
            },
            "VBA32": {
                "category": "malicious",
                "engine_name": "VBA32",
                "engine_update": "20181031",
                "engine_version": "3.33.0",
                "method": "blacklist",
                "result": "Worm.Fearso"
            },
            "ViRobot": {
                "category": "undetected",
                "engine_name": "ViRobot",
                "engine_update": "20181031",
                "engine_version": "2014.3.20.0",
                "method": "blacklist",
                "result": null
            },
            "Webroot": {
                "category": "undetected",
                "engine_name": "Webroot",
                "engine_update": "20181031",
                "engine_version": "1.0.0.403",
                "method": "blacklist",
                "result": null
            },
            "Yandex": {
                "category": "malicious",
                "engine_name": "Yandex",
                "engine_update": "20181030",
                "engine_version": "5.5.1.3",
                "method": "blacklist",
                "result": "I-Worm.Fearso!5dmeE+ABZsg"
            },
            "Zillya": {
                "category": "malicious",
                "engine_name": "Zillya",
                "engine_update": "20181030",
                "engine_version": "2.0.0.3680",
                "method": "blacklist",
                "result": "Worm.Fearso.Win32.56"
            },
            "ZoneAlarm": {
                "category": "malicious",
                "engine_name": "ZoneAlarm",
                "engine_update": "20181031",
                "engine_version": "1.0",
                "method": "blacklist",
                "result": "Email-Worm.Win32.Fearso.v"
            },
            "Zoner": {
                "category": "undetected",
                "engine_name": "Zoner",
                "engine_update": "20181031",
                "engine_version": "1.0",
                "method": "blacklist",
                "result": null
            },
            "eGambit": {
                "category": "undetected",
                "engine_name": "eGambit",
                "engine_update": "20181031",
                "engine_version": null,
                "method": "blacklist",
                "result": null
            }
        },
        "last_analysis_stats": {
            "confirmed-timeout": 0,
            "failure": 0,
            "harmless": 0,
            "malicious": 43,
            "suspicious": 0,
            "timeout": 0,
            "type-unsupported": 1,
            "undetected": 23
        },
        "last_modification_date": 1540985762,
        "last_submission_date": 1540985646,
        "magic": "PE32 executable for MS Windows (GUI) Intel 80386 32-bit",
        "md5": "f3b285a162c33ad902ef019acd3faabf",
        "meaningful_name": "Austerlitz Napoleons Greatest Victory Full Downloader.exe",
        "names": [
            "Austerlitz Napoleons Greatest Victory Full Downloader.exe"
        ],
        "packers": {
            "PEiD": "BobSoft Mini Delphi -> BoB / BobSoft"
        },
        "pe_info": {
            "entry_point": 45840,
            "imphash": "92b12327221555d8d2aaaa401ba4e088",
            "import_list": [
                {
                    "imported_functions": [
                        "RegFlushKey",
                        "RegCloseKey",
                        "RegQueryValueExA",
                        "RegSetValueExA",
                        "RegCreateKeyExA",
                        "RegOpenKeyExA"
                    ],
                    "library_name": "advapi32.dll"
                },
                {
                    "imported_functions": [
                        "GetSystemTime",
                        "GetLastError",
                        "GetStdHandle",
                        "EnterCriticalSection",
                        "lstrlenA",
                        "WaitForSingleObject",
                        "FreeLibrary",
                        "ExitProcess",
                        "GetThreadLocale",
                        "GetVersionExA",
                        "GetModuleFileNameA",
                        "RtlUnwind",
                        "LoadLibraryA",
                        "DeleteCriticalSection",
                        "EnumCalendarInfoA",
                        "LoadLibraryExA",
                        "GetLocaleInfoA",
                        "LocalAlloc",
                        "WideCharToMultiByte",
                        "UnhandledExceptionFilter",
                        "GetCommandLineA",
                        "GetProcAddress",
                        "CreateMutexA",
                        "SetFilePointer",
                        "RaiseException",
                        "CloseHandle",
                        "GetCPInfo",
                        "GetModuleHandleA",
                        "FindFirstFileA",
                        "WriteFile",
                        "GetStartupInfoA",
                        "ReadFile",
                        "lstrcpynA",
                        "GetACP",
                        "GetDiskFreeSpaceA",
                        "LocalFree",
                        "InitializeCriticalSection",
                        "VirtualQuery",
                        "VirtualFree",
                        "FindClose",
                        "TlsGetValue",
                        "GetFileType",
                        "SetEndOfFile",
                        "TlsSetValue",
                        "CreateFileA",
                        "GetStringTypeExA",
                        "GetCurrentThreadId",
                        "VirtualAlloc",
                        "GetFileSize",
                        "LeaveCriticalSection"
                    ],
                    "library_name": "KERNEL32.DLL"
                },
                {
                    "imported_functions": [
                        "SysFreeString"
                    ],
                    "library_name": "oleaut32.dll"
                },
                {
                    "imported_functions": [
                        "GetWindowLongA",
                        "GetSystemMetrics",
                        "LoadStringA",
                        "CharNextA",
                        "MessageBoxA",
                        "SetWindowLongA",
                        "ShowWindow",
                        "GetKeyboardType"
                    ],
                    "library_name": "user32.dll"
                }
            ],
            "machine_type": 332,
            "overlay": {
                "chi2": 311.1416320800781,
                "entropy": 7.947348117828369,
                "filetype": "data",
                "md5": "2d0a80d2a5dd591969d6f07256a0a913",
                "offset": 76288,
                "size": 4534
            },
            "resource_details": [
                {
                    "chi2": 18854.328125,
                    "entropy": 2.8421125411987305,
                    "filetype": "ASCII text",
                    "lang": "NEUTRAL",
                    "sha256": "7a4ca7e141cfb149b85b75cf3d7bd3d678be6f6e6823f6123a0a569f78b5fc07",
                    "type": "RT_STRING"
                },
                {
                    "chi2": 19526.681640625,
                    "entropy": 2.997854471206665,
                    "filetype": "ASCII text",
                    "lang": "NEUTRAL",
                    "sha256": "d1e4f67dfdac88a2667aef19c9e56fc6d0deaca637f10b941f1724a4466f9225",
                    "type": "RT_STRING"
                },
                {
                    "chi2": 42510.109375,
                    "entropy": 3.1919829845428467,
                    "filetype": "ASCII text",
                    "lang": "NEUTRAL",
                    "sha256": "bb4f5943dff55c4cb4b3ac76c7ae2b48845f558c9aac4a8df4d39864a4c1ddd2",
                    "type": "RT_STRING"
                },
                {
                    "chi2": 61938.7578125,
                    "entropy": 3.2287380695343018,
                    "filetype": "ASCII text",
                    "lang": "NEUTRAL",
                    "sha256": "606d934d092152b25e6a9b1aa532a329efd1045e0966b1cb3a400ae18cf4badf",
                    "type": "RT_STRING"
                },
                {
                    "chi2": 48775.6484375,
                    "entropy": 3.184415340423584,
                    "filetype": "ASCII text",
                    "lang": "NEUTRAL",
                    "sha256": "49273389801a1f2231e5dd94be7ba0b019b4939ff4689134e11dd0e0d9f98a04",
                    "type": "RT_STRING"
                },
                {
                    "chi2": 240.0,
                    "entropy": 4.0,
                    "filetype": "data",
                    "lang": "NEUTRAL",
                    "sha256": "88d14cc6638af8a0836f6d868dfab60df92907a2d7becaefbbd7e007acb75610",
                    "type": "RT_RCDATA"
                },
                {
                    "chi2": 3128.843994140625,
                    "entropy": 4.552131652832031,
                    "filetype": "data",
                    "lang": "NEUTRAL",
                    "sha256": "b3435b719e8ed1b025f8c0a01eb53c9c42b43e4c5eb306e99231784b5271fdff",
                    "type": "RT_RCDATA"
                }
            ],
            "resource_langs": {
                "NEUTRAL": 7
            },
            "resource_types": {
                "RT_RCDATA": 2,
                "RT_STRING": 5
            },
            "sections": [
                {
                    "entropy": 6.26,
                    "md5": "43f3199203017ee8634c98998a84c2da",
                    "name": "UPX0",
                    "raw_size": 46592,
                    "virtual_address": 4096,
                    "virtual_size": 61440
                },
                {
                    "entropy": 2.31,
                    "md5": "e0cc4e261ba9864b39e1d6f00bb1e65c",
                    "name": "UPX1",
                    "raw_size": 25600,
                    "virtual_address": 65536,
                    "virtual_size": 28672
                },
                {
                    "entropy": 2.57,
                    "md5": "61e5869e699e7d31e85ca076332db2a4",
                    "name": ".rsrc",
                    "raw_size": 1024,
                    "virtual_address": 94208,
                    "virtual_size": 4096
                },
                {
                    "entropy": 4.01,
                    "md5": "d1fd00fffafceed91a6335928e238d08",
                    "name": ".imports",
                    "raw_size": 2048,
                    "virtual_address": 98304,
                    "virtual_size": 4096
                }
            ],
            "timestamp": 708992537
        },
        "reputation": 0,
        "sha1": "a27fec4d5e255d08d4f083431086891266937281",
        "sha256": "0002c6d201827db77a48af73831defffab856f065fa10d0387e9da7ee21bcdea",
        "size": 80822,
        "ssdeep": "768:LOHqQJVszvdrqxQUwaRxdLJ4qtV+9yblF3H8ZXpfIKu7RIXaCmAL3KiNhMTXvBtT:iHqoVsLtyBlW8yWFKuzUbDEXvD8paL3Z",
        "tags": [
            "peexe",
            "bobsoft",
            "overlay"
        ],
        "times_submitted": 1,
        "total_votes": {
            "harmless": 0,
            "malicious": 0
        },
        "trid": [
            {
                "file_type": "UPX compressed Win32 Executable",
                "probability": 31.1
            },
            {
                "file_type": "Win32 EXE Yoda's Crypter",
                "probability": 30.5
            },
            {
                "file_type": "Win32 Executable Delphi generic",
                "probability": 16.3
            },
            {
                "file_type": "Win32 Dynamic Link Library (generic)",
                "probability": 7.5
            },
            {
                "file_type": "Win32 Executable (generic)",
                "probability": 5.1
            }
        ],
        "type_description": "Win32 EXE",
        "type_extension": "exe",
        "type_tag": "peexe",
        "unique_sources": 1,
        "vhash": "08404e6f1d1d1068z1az1bz7fz"
    },
    "id": "0002c6d201827db77a48af73831defffab856f065fa10d0387e9da7ee21bcdea",
    "links": {
        "self": "https://www.virustotal.com/api/v3/files/0002c6d201827db77a48af73831defffab856f065fa10d0387e9da7ee21bcdea"
    },
    "type": "file"
}