{
    "attributes": {
        "authentihash": "0e48f291dd524259716b2a133a43cb23c4f48858418b75ca2a865a3374fb3dc5",
        "creation_date": 1364793360,
        "first_submission_date": 1513530314,
        "last_analysis_date": 1513530314,
        "last_analysis_results": {
            "ALYac": {
                "category": "malicious",
                "engine_name": "ALYac",
                "engine_update": "20171217",
                "engine_version": "1.1.1.2",
                "method": "blacklist",
                "result": "Trojan.Lethic.Gen.11"
            },
            "AVG": {
                "category": "malicious",
                "engine_name": "AVG",
                "engine_update": "20171217",
                "engine_version": "17.8.3705.0",
                "method": "blacklist",
                "result": "Win32:Agent-ARAC [Trj]"
            },
            "AVware": {
                "category": "malicious",
                "engine_name": "AVware",
                "engine_update": "20171217",
                "engine_version": "1.5.0.42",
                "method": "blacklist",
                "result": "Trojan.Win32.Zbot.m (v)"
            },
            "Ad-Aware": {
                "category": "malicious",
                "engine_name": "Ad-Aware",
                "engine_update": "20171217",
                "engine_version": "3.0.3.1010",
                "method": "blacklist",
                "result": "Trojan.Lethic.Gen.11"
            },
            "AegisLab": {
                "category": "malicious",
                "engine_name": "AegisLab",
                "engine_update": "20171217",
                "engine_version": "4.2",
                "method": "blacklist",
                "result": "Troj.W32.ShipUp.toEE"
            },
            "AhnLab-V3": {
                "category": "malicious",
                "engine_name": "AhnLab-V3",
                "engine_update": "20171217",
                "engine_version": "3.11.3.19504",
                "method": "blacklist",
                "result": "Dropper/Win32.Injector.R59840"
            },
            "Alibaba": {
                "category": "type-unsupported",
                "engine_name": "Alibaba",
                "engine_update": "20171215",
                "engine_version": "1.0",
                "method": "blacklist",
                "result": null
            },
            "Antiy-AVL": {
                "category": "malicious",
                "engine_name": "Antiy-AVL",
                "engine_update": "20171217",
                "engine_version": "3.0.0.1",
                "method": "blacklist",
                "result": "Trojan/Win32.ShipUp"
            },
            "Arcabit": {
                "category": "malicious",
                "engine_name": "Arcabit",
                "engine_update": "20171217",
                "engine_version": "1.0.0.827",
                "method": "blacklist",
                "result": "Trojan.Lethic.Gen.11"
            },
            "Avast": {
                "category": "malicious",
                "engine_name": "Avast",
                "engine_update": "20171217",
                "engine_version": "17.8.3705.0",
                "method": "blacklist",
                "result": "Win32:Agent-ARAC [Trj]"
            },
            "Avast-Mobile": {
                "category": "undetected",
                "engine_name": "Avast-Mobile",
                "engine_update": "20171217",
                "engine_version": "171217-00",
                "method": "blacklist",
                "result": null
            },
            "Avira": {
                "category": "malicious",
                "engine_name": "Avira",
                "engine_update": "20171217",
                "engine_version": "8.3.3.6",
                "method": "blacklist",
                "result": "JS/BlacoleRef.DD.45"
            },
            "Baidu": {
                "category": "malicious",
                "engine_name": "Baidu",
                "engine_update": "20171216",
                "engine_version": "1.0.0.2",
                "method": "blacklist",
                "result": "Win32.Trojan.Agent.eq"
            },
            "BitDefender": {
                "category": "malicious",
                "engine_name": "BitDefender",
                "engine_update": "20171217",
                "engine_version": "7.2",
                "method": "blacklist",
                "result": "Trojan.Lethic.Gen.11"
            },
            "Bkav": {
                "category": "undetected",
                "engine_name": "Bkav",
                "engine_update": "20171216",
                "engine_version": "1.3.0.9410",
                "method": "blacklist",
                "result": null
            },
            "CAT-QuickHeal": {
                "category": "malicious",
                "engine_name": "CAT-QuickHeal",
                "engine_update": "20171216",
                "engine_version": "14.00",
                "method": "blacklist",
                "result": "TrojanPWS.Zbot.Y"
            },
            "CMC": {
                "category": "undetected",
                "engine_name": "CMC",
                "engine_update": "20171217",
                "engine_version": "1.1.0.977",
                "method": "blacklist",
                "result": null
            },
            "ClamAV": {
                "category": "malicious",
                "engine_name": "ClamAV",
                "engine_update": "20171217",
                "engine_version": "0.99.2.0",
                "method": "blacklist",
                "result": "Win.Trojan.Redirect-6055402-0"
            },
            "Comodo": {
                "category": "undetected",
                "engine_name": "Comodo",
                "engine_update": "20171217",
                "engine_version": null,
                "method": "blacklist",
                "result": null
            },
            "CrowdStrike": {
                "category": "malicious",
                "engine_name": "CrowdStrike",
                "engine_update": "20171016",
                "engine_version": "1.0",
                "method": "blacklist",
                "result": "malicious_confidence_100% (D)"
            },
            "Cybereason": {
                "category": "malicious",
                "engine_name": "Cybereason",
                "engine_update": "20171103",
                "engine_version": "0.0.914",
                "method": "blacklist",
                "result": "malicious.1b8fb7"
            },
            "Cylance": {
                "category": "malicious",
                "engine_name": "Cylance",
                "engine_update": "20171217",
                "engine_version": "2.3.1.101",
                "method": "blacklist",
                "result": "Unsafe"
            },
            "Cyren": {
                "category": "malicious",
                "engine_name": "Cyren",
                "engine_update": "20171217",
                "engine_version": "5.4.30.7",
                "method": "blacklist",
                "result": "W32/Zbot.JC.gen!Eldorado"
            },
            "DrWeb": {
                "category": "malicious",
                "engine_name": "DrWeb",
                "engine_update": "20171217",
                "engine_version": "7.0.28.2020",
                "method": "blacklist",
                "result": "Trojan.Packed.24096"
            },
            "ESET-NOD32": {
                "category": "malicious",
                "engine_name": "ESET-NOD32",
                "engine_update": "20171217",
                "engine_version": "16587",
                "method": "blacklist",
                "result": "a variant of Win32/Kryptik.AXVE"
            },
            "Emsisoft": {
                "category": "malicious",
                "engine_name": "Emsisoft",
                "engine_update": "20171217",
                "engine_version": "4.0.2.899",
                "method": "blacklist",
                "result": "Trojan.Lethic.Gen.11 (B)"
            },
            "Endgame": {
                "category": "malicious",
                "engine_name": "Endgame",
                "engine_update": "20171130",
                "engine_version": "1.1.4",
                "method": "blacklist",
                "result": "malicious (high confidence)"
            },
            "F-Prot": {
                "category": "malicious",
                "engine_name": "F-Prot",
                "engine_update": "20171217",
                "engine_version": "4.7.1.166",
                "method": "blacklist",
                "result": "W32/Zbot.JC.gen!Eldorado"
            },
            "F-Secure": {
                "category": "malicious",
                "engine_name": "F-Secure",
                "engine_update": "20171217",
                "engine_version": "11.0.19100.45",
                "method": "blacklist",
                "result": "Trojan.Lethic.Gen.11"
            },
            "Fortinet": {
                "category": "malicious",
                "engine_name": "Fortinet",
                "engine_update": "20171217",
                "engine_version": "5.4.247.0",
                "method": "blacklist",
                "result": "W32/Kryptik.AYTK!tr"
            },
            "GData": {
                "category": "malicious",
                "engine_name": "GData",
                "engine_update": "20171217",
                "engine_version": "A:25.15224B:25.11135",
                "method": "blacklist",
                "result": "Trojan.Lethic.Gen.11"
            },
            "Ikarus": {
                "category": "malicious",
                "engine_name": "Ikarus",
                "engine_update": "20171217",
                "engine_version": "0.1.5.2",
                "method": "blacklist",
                "result": "Trojan.Win32.ShipUp"
            },
            "Invincea": {
                "category": "malicious",
                "engine_name": "Invincea",
                "engine_update": "20170914",
                "engine_version": "6.3.1.25473",
                "method": "blacklist",
                "result": "heuristic"
            },
            "Jiangmin": {
                "category": "malicious",
                "engine_name": "Jiangmin",
                "engine_update": "20171217",
                "engine_version": "16.0.100",
                "method": "blacklist",
                "result": "Trojan/ShipUp.it"
            },
            "K7AntiVirus": {
                "category": "malicious",
                "engine_name": "K7AntiVirus",
                "engine_update": "20171217",
                "engine_version": "10.35.25585",
                "method": "blacklist",
                "result": "Backdoor ( 04c500771 )"
            },
            "K7GW": {
                "category": "malicious",
                "engine_name": "K7GW",
                "engine_update": "20171214",
                "engine_version": "10.35.25564",
                "method": "blacklist",
                "result": "Backdoor ( 04c500771 )"
            },
            "Kaspersky": {
                "category": "malicious",
                "engine_name": "Kaspersky",
                "engine_update": "20171217",
                "engine_version": "15.0.1.13",
                "method": "blacklist",
                "result": "Trojan.Win32.ShipUp.bqa"
            },
            "Kingsoft": {
                "category": "malicious",
                "engine_name": "Kingsoft",
                "engine_update": "20171217",
                "engine_version": "2013.8.14.323",
                "method": "blacklist",
                "result": "Win32.Troj.ShipUp.b.(kcloud)"
            },
            "MAX": {
                "category": "malicious",
                "engine_name": "MAX",
                "engine_update": "20171217",
                "engine_version": "2017.11.15.1",
                "method": "blacklist",
                "result": "malware (ai score=84)"
            },
            "Malwarebytes": {
                "category": "malicious",
                "engine_name": "Malwarebytes",
                "engine_update": "20171217",
                "engine_version": "2.1.1.1115",
                "method": "blacklist",
                "result": "Trojan.Packed.RD2"
            },
            "McAfee": {
                "category": "malicious",
                "engine_name": "McAfee",
                "engine_update": "20171217",
                "engine_version": "6.0.6.653",
                "method": "blacklist",
                "result": "PWS-Zbot-FATG!B0F3FC7747A7"
            },
            "McAfee-GW-Edition": {
                "category": "malicious",
                "engine_name": "McAfee-GW-Edition",
                "engine_update": "20171217",
                "engine_version": "v2015",
                "method": "blacklist",
                "result": "BehavesLike.Win32.PWSZbot.dh"
            },
            "MicroWorld-eScan": {
                "category": "malicious",
                "engine_name": "MicroWorld-eScan",
                "engine_update": "20171217",
                "engine_version": "14.0.297.0",
                "method": "blacklist",
                "result": "Trojan.Lethic.Gen.11"
            },
            "Microsoft": {
                "category": "malicious",
                "engine_name": "Microsoft",
                "engine_update": "20171217",
                "engine_version": "1.1.14405.2",
                "method": "blacklist",
                "result": "TrojanDropper:Win32/Gepys.A"
            },
            "NANO-Antivirus": {
                "category": "malicious",
                "engine_name": "NANO-Antivirus",
                "engine_update": "20171217",
                "engine_version": "1.0.100.20558",
                "method": "blacklist",
                "result": "Trojan.Win32.ShipUp.bqpsur"
            },
            "Paloalto": {
                "category": "undetected",
                "engine_name": "Paloalto",
                "engine_update": "20171217",
                "engine_version": "1.0",
                "method": "blacklist",
                "result": null
            },
            "Panda": {
                "category": "malicious",
                "engine_name": "Panda",
                "engine_update": "20171217",
                "engine_version": "4.6.4.2",
                "method": "blacklist",
                "result": "Trj/Hexas.HEU"
            },
            "Qihoo-360": {
                "category": "malicious",
                "engine_name": "Qihoo-360",
                "engine_update": "20171217",
                "engine_version": "1.0.0.1120",
                "method": "blacklist",
                "result": "HEUR/QVM19.1.E8C1.Malware.Gen"
            },
            "Rising": {
                "category": "malicious",
                "engine_name": "Rising",
                "engine_update": "20171217",
                "engine_version": "25.0.0.1",
                "method": "blacklist",
                "result": "Trojan.Kryptik!1.AB8B (CLASSIC)"
            },
            "SUPERAntiSpyware": {
                "category": "malicious",
                "engine_name": "SUPERAntiSpyware",
                "engine_update": "20171217",
                "engine_version": "5.6.0.1032",
                "method": "blacklist",
                "result": "Trojan.Agent/Gen-Injector"
            },
            "SentinelOne": {
                "category": "malicious",
                "engine_name": "SentinelOne",
                "engine_update": "20171207",
                "engine_version": "1.0.10.199",
                "method": "blacklist",
                "result": "static engine - malicious"
            },
            "Sophos": {
                "category": "malicious",
                "engine_name": "Sophos",
                "engine_update": "20171217",
                "engine_version": "4.98.0",
                "method": "blacklist",
                "result": "Troj/Zbot-EKW"
            },
            "Symantec": {
                "category": "malicious",
                "engine_name": "Symantec",
                "engine_update": "20171216",
                "engine_version": "1.5.0.0",
                "method": "blacklist",
                "result": "Packed.Generic.459"
            },
            "SymantecMobileInsight": {
                "category": "type-unsupported",
                "engine_name": "SymantecMobileInsight",
                "engine_update": "20171215",
                "engine_version": "1.0.0.35_220",
                "method": "blacklist",
                "result": null
            },
            "Tencent": {
                "category": "undetected",
                "engine_name": "Tencent",
                "engine_update": "20171217",
                "engine_version": "1.0.0.1",
                "method": "blacklist",
                "result": null
            },
            "TheHacker": {
                "category": "malicious",
                "engine_name": "TheHacker",
                "engine_update": "20171210",
                "engine_version": "6.8.0.5.2206",
                "method": "blacklist",
                "result": "Trojan/Kryptik.axve"
            },
            "TotalDefense": {
                "category": "malicious",
                "engine_name": "TotalDefense",
                "engine_update": "20171217",
                "engine_version": "37.1.62.1",
                "method": "blacklist",
                "result": "Win32/Gepys.LRDdIeB"
            },
            "TrendMicro": {
                "category": "malicious",
                "engine_name": "TrendMicro",
                "engine_update": "20171217",
                "engine_version": "9.862.0.1074",
                "method": "blacklist",
                "result": "TROJ_SPNR.35E013"
            },
            "TrendMicro-HouseCall": {
                "category": "malicious",
                "engine_name": "TrendMicro-HouseCall",
                "engine_update": "20171217",
                "engine_version": "9.950.0.1006",
                "method": "blacklist",
                "result": "TROJ_SPNR.35E013"
            },
            "Trustlook": {
                "category": "type-unsupported",
                "engine_name": "Trustlook",
                "engine_update": "20171217",
                "engine_version": "2",
                "method": "blacklist",
                "result": null
            },
            "VBA32": {
                "category": "malicious",
                "engine_name": "VBA32",
                "engine_update": "20171215",
                "engine_version": "3.12.26.4",
                "method": "blacklist",
                "result": "Trojan.ShipUp"
            },
            "VIPRE": {
                "category": "malicious",
                "engine_name": "VIPRE",
                "engine_update": "20171217",
                "engine_version": "63216",
                "method": "blacklist",
                "result": "Trojan.Win32.Zbot.m (v)"
            },
            "ViRobot": {
                "category": "undetected",
                "engine_name": "ViRobot",
                "engine_update": "20171217",
                "engine_version": "2014.3.20.0",
                "method": "blacklist",
                "result": null
            },
            "Webroot": {
                "category": "malicious",
                "engine_name": "Webroot",
                "engine_update": "20171217",
                "engine_version": "1.0.0.207",
                "method": "blacklist",
                "result": "W32.Malware.Gen"
            },
            "WhiteArmor": {
                "category": "malicious",
                "engine_name": "WhiteArmor",
                "engine_update": "20171204",
                "engine_version": null,
                "method": "blacklist",
                "result": "Malware.HighConfidence"
            },
            "Yandex": {
                "category": "malicious",
                "engine_name": "Yandex",
                "engine_update": "20171216",
                "engine_version": "5.5.1.3",
                "method": "blacklist",
                "result": "Trojan.ShipUp!DEOTVWvxOlU"
            },
            "Zillya": {
                "category": "malicious",
                "engine_name": "Zillya",
                "engine_update": "20171217",
                "engine_version": "2.0.0.3449",
                "method": "blacklist",
                "result": "Trojan.ShipUp.Win32.1220"
            },
            "ZoneAlarm": {
                "category": "malicious",
                "engine_name": "ZoneAlarm",
                "engine_update": "20171217",
                "engine_version": "1.0",
                "method": "blacklist",
                "result": "Trojan.Win32.ShipUp.bqa"
            },
            "Zoner": {
                "category": "undetected",
                "engine_name": "Zoner",
                "engine_update": "20171217",
                "engine_version": "1.0",
                "method": "blacklist",
                "result": null
            },
            "eGambit": {
                "category": "malicious",
                "engine_name": "eGambit",
                "engine_update": "20171217",
                "engine_version": "v4.2.7",
                "method": "blacklist",
                "result": "Unsafe.AI_Score_59%"
            },
            "nProtect": {
                "category": "malicious",
                "engine_name": "nProtect",
                "engine_update": "20171217",
                "engine_version": "2017-12-17.02",
                "method": "blacklist",
                "result": "Trojan/W32.ShipUp.271333"
            }
        },
        "last_analysis_stats": {
            "confirmed-timeout": 0,
            "failure": 0,
            "harmless": 0,
            "malicious": 60,
            "suspicious": 0,
            "timeout": 0,
            "type-unsupported": 3,
            "undetected": 8
        },
        "last_modification_date": 1513531092,
        "last_submission_date": 1513530314,
        "magic": "PE32 executable for MS Windows (GUI) Intel 80386 32-bit",
        "md5": "b0f3fc7747a7b196d4e69ad2b02adaed",
        "names": [
            "b0f3fc7747a7b196d4e69ad2b02adaed"
        ],
        "pe_info": {
            "entry_point": 6000,
            "imphash": "2b3fe42b59a6c54c1699187a146367d7",
            "import_list": [
                {
                    "imported_functions": [
                        "GetTokenInformation",
                        "RegCloseKey",
                        "LookupAccountSidW",
                        "OpenProcessToken",
                        "RegSetValueExW",
                        "RegConnectRegistryW",
                        "RegOpenKeyExW",
                        "AdjustTokenPrivileges",
                        "LookupPrivilegeValueW",
                        "RegQueryValueExW"
                    ],
                    "library_name": "ADVAPI32.dll"
                },
                {
                    "imported_functions": [
                        "GetLastError",
                        "ReleaseMutex",
                        "lstrlenA",
                        "GetFileAttributesA",
                        "WaitForSingleObject",
                        "FreeLibrary",
                        "QueryPerformanceCounter",
                        "GetTickCount",
                        "GetVersionExA",
                        "LoadLibraryA",
                        "GetModuleFileNameA",
                        "GetCurrentProcess",
                        "GetCurrentProcessId",
                        "lstrcatA",
                        "GetCommandLineW",
                        "UnhandledExceptionFilter",
                        "SetErrorMode",
                        "lstrlenW",
                        "GetProcAddress",
                        "CreateMutexA",
                        "GetCPInfo",
                        "GetModuleHandleA",
                        "ReadFile",
                        "SetUnhandledExceptionFilter",
                        "GetStartupInfoA",
                        "CloseHandle",
                        "GetSystemTimeAsFileTime",
                        "lstrcpynA",
                        "GetSystemDirectoryA",
                        "TerminateProcess",
                        "GetEnvironmentVariableA",
                        "CreateFileA",
                        "ExitProcess",
                        "GetCurrentThreadId",
                        "VirtualAlloc"
                    ],
                    "library_name": "KERNEL32.dll"
                },
                {
                    "imported_functions": [
                        "__p__fmode",
                        "malloc",
                        "__wgetmainargs",
                        "realloc",
                        "_wcsnicmp",
                        "_wgetcwd",
                        "wcstok",
                        "fprintf",
                        "fflush",
                        "wcstod",
                        "__winitenv",
                        "_cexit",
                        "_c_exit",
                        "strtok",
                        "wcslen",
                        "exit",
                        "_XcptFilter",
                        "__setusermatherr",
                        "wcsncpy",
                        "_controlfp",
                        "sprintf",
                        "_adjust_fdiv",
                        "__CxxFrameHandler",
                        "_wcsicmp",
                        "wcschr",
                        "__p__commode",
                        "free",
                        "wcsncmp",
                        "_except_handler3",
                        "calloc",
                        "_wtol",
                        "wcstol",
                        "wcsstr",
                        "_initterm",
                        "_exit",
                        "__set_app_type",
                        "_iob"
                    ],
                    "library_name": "msvcrt.dll"
                },
                {
                    "imported_functions": [
                        "LoadIconW",
                        "LoadIconA"
                    ],
                    "library_name": "USER32.dll"
                }
            ],
            "machine_type": 332,
            "overlay": {
                "entropy": 6.105413566027855,
                "filetype": "data",
                "md5": "57bdedce5da7d180ea87f2a42a7af9bc",
                "offset": 263680,
                "size": 7653
            },
            "resource_details": [
                {
                    "filetype": "application/x-executable-file",
                    "lang": "RUSSIAN",
                    "sha256": "1e7ce9e78d2b62bca674c10c4eb2753b44fc786fbe58f126b343986505c56d24",
                    "type": "RT_VERSION"
                },
                {
                    "filetype": "data",
                    "lang": "RUSSIAN",
                    "sha256": "abbd0bc5c8e22c896756b072fa246de406b2b7504d3437846501d4c3d4c6953d",
                    "type": "Struct(240)"
                }
            ],
            "resource_langs": {
                "RUSSIAN": 2
            },
            "resource_types": {
                "RT_VERSION": 1,
                "Struct(240)": 1
            },
            "sections": [
                {
                    "entropy": 5.45,
                    "md5": "643a992e67bffc8607a868bcde0f957f",
                    "name": ".text",
                    "raw_size": 3072,
                    "virtual_address": 4096,
                    "virtual_size": 2986
                },
                {
                    "entropy": 1.1,
                    "md5": "afb9785ee8859db2a3134de1e59cea04",
                    "name": ".text",
                    "raw_size": 30720,
                    "virtual_address": 8192,
                    "virtual_size": 30304
                },
                {
                    "entropy": 1.62,
                    "md5": "64012553ec667d0c5def310c320cfeed",
                    "name": ".rdata",
                    "raw_size": 12288,
                    "virtual_address": 40960,
                    "virtual_size": 12160
                },
                {
                    "entropy": 7.38,
                    "md5": "a859808af43108adf78c825eba69982f",
                    "name": ".data",
                    "raw_size": 212480,
                    "virtual_address": 53248,
                    "virtual_size": 212312
                },
                {
                    "entropy": 0.16,
                    "md5": "c41e4355d71a4e9eaa4559d29ac18bdf",
                    "name": ".rdata4",
                    "raw_size": 1024,
                    "virtual_address": 266240,
                    "virtual_size": 1000
                },
                {
                    "entropy": 0.16,
                    "md5": "c41e4355d71a4e9eaa4559d29ac18bdf",
                    "name": ".rdata3",
                    "raw_size": 1024,
                    "virtual_address": 270336,
                    "virtual_size": 1000
                },
                {
                    "entropy": 0.16,
                    "md5": "c41e4355d71a4e9eaa4559d29ac18bdf",
                    "name": ".rdata2",
                    "raw_size": 1024,
                    "virtual_address": 274432,
                    "virtual_size": 1000
                },
                {
                    "entropy": 2.11,
                    "md5": "c843c576f06ae438be27398c9e154c1d",
                    "name": ".rsrc",
                    "raw_size": 1024,
                    "virtual_address": 278528,
                    "virtual_size": 90680
                }
            ],
            "timestamp": 1364793360
        },
        "reputation": 0,
        "sha1": "ebead380db7ffabe0b10ba782413d2218c84d424",
        "sha256": "00020ea5faf1ef36fec06011b80079c2609d3145f2aee06bf8546880b940f192",
        "signature_info": {
            "description": "\u0420\u0435\u0434\u0430\u043a\u0442\u043e\u0440 \u043b\u0438\u0447\u043d\u044b\u0445 \u0441\u0438\u043c\u0432\u043e\u043b\u043e\u0432"
        },
        "size": 271333,
        "ssdeep": "6144:fST2k0YujF59B+SNiT1SRws339pnPJ7Imc2To:OFxujX9B+lAb9ImZTo",
        "tags": [
            "peexe",
            "overlay"
        ],
        "times_submitted": 1,
        "total_votes": {
            "harmless": 0,
            "malicious": 0
        },
        "trid": [
            {
                "file_type": "Win32 Executable MS Visual C++ (generic)",
                "probability": 67.4
            },
            {
                "file_type": "Win32 Dynamic Link Library (generic)",
                "probability": 14.2
            },
            {
                "file_type": "Win32 Executable (generic)",
                "probability": 9.7
            },
            {
                "file_type": "Generic Win/DOS Executable",
                "probability": 4.3
            },
            {
                "file_type": "DOS Executable Generic",
                "probability": 4.3
            }
        ],
        "type_description": "Win32 EXE",
        "type_extension": "exe",
        "type_tag": "peexe",
        "unique_sources": 1,
        "vhash": "0250865c151d7515151510a8z2325lz2fz"
    },
    "id": "00020ea5faf1ef36fec06011b80079c2609d3145f2aee06bf8546880b940f192",
    "links": {
        "self": "https://www.virustotal.com/api/v3/files/00020ea5faf1ef36fec06011b80079c2609d3145f2aee06bf8546880b940f192"
    },
    "type": "file"
}