{
    "attributes": {
        "authentihash": "cfad9b8a749847996eb8a5562cb3a405dcccec28b498055d3cc178b2fa31597a",
        "creation_date": 1379918555,
        "first_submission_date": 1517161815,
        "last_analysis_date": 1517161815,
        "last_analysis_results": {
            "ALYac": {
                "category": "malicious",
                "engine_name": "ALYac",
                "engine_update": "20180127",
                "engine_version": "1.1.1.3",
                "method": "blacklist",
                "result": "Trojan.GenericKD.1286104"
            },
            "AVG": {
                "category": "malicious",
                "engine_name": "AVG",
                "engine_update": "20180128",
                "engine_version": "17.9.3761.0",
                "method": "blacklist",
                "result": "Win32:Malware-gen"
            },
            "AVware": {
                "category": "malicious",
                "engine_name": "AVware",
                "engine_update": "20180124",
                "engine_version": "1.5.0.42",
                "method": "blacklist",
                "result": "Trojan.Win32.Cutwail.c (v)"
            },
            "Ad-Aware": {
                "category": "malicious",
                "engine_name": "Ad-Aware",
                "engine_update": "20180128",
                "engine_version": "3.0.3.1010",
                "method": "blacklist",
                "result": "Trojan.GenericKD.1286104"
            },
            "AegisLab": {
                "category": "malicious",
                "engine_name": "AegisLab",
                "engine_update": "20180128",
                "engine_version": "4.2",
                "method": "blacklist",
                "result": "Troj.W32.Gen.lKQM"
            },
            "AhnLab-V3": {
                "category": "malicious",
                "engine_name": "AhnLab-V3",
                "engine_update": "20180128",
                "engine_version": "3.11.3.19504",
                "method": "blacklist",
                "result": "Worm/Win32.Palevo.C199836"
            },
            "Alibaba": {
                "category": "type-unsupported",
                "engine_name": "Alibaba",
                "engine_update": "20180126",
                "engine_version": "1.0",
                "method": "blacklist",
                "result": null
            },
            "Antiy-AVL": {
                "category": "malicious",
                "engine_name": "Antiy-AVL",
                "engine_update": "20180128",
                "engine_version": "3.0.0.1",
                "method": "blacklist",
                "result": "Trojan/Win32.Bublik"
            },
            "Arcabit": {
                "category": "malicious",
                "engine_name": "Arcabit",
                "engine_update": "20180128",
                "engine_version": "1.0.0.827",
                "method": "blacklist",
                "result": "Trojan.Generic.D139FD8"
            },
            "Avast": {
                "category": "malicious",
                "engine_name": "Avast",
                "engine_update": "20180128",
                "engine_version": "17.9.3761.0",
                "method": "blacklist",
                "result": "Win32:Malware-gen"
            },
            "Avast-Mobile": {
                "category": "undetected",
                "engine_name": "Avast-Mobile",
                "engine_update": "20180127",
                "engine_version": "180127-00",
                "method": "blacklist",
                "result": null
            },
            "Avira": {
                "category": "malicious",
                "engine_name": "Avira",
                "engine_update": "20180128",
                "engine_version": "8.3.3.6",
                "method": "blacklist",
                "result": "TR/Crypt.XPACK.Gen7"
            },
            "Baidu": {
                "category": "malicious",
                "engine_name": "Baidu",
                "engine_update": "20180126",
                "engine_version": "1.0.0.2",
                "method": "blacklist",
                "result": "Win32.Trojan.Inject.bm"
            },
            "BitDefender": {
                "category": "malicious",
                "engine_name": "BitDefender",
                "engine_update": "20180128",
                "engine_version": "7.2",
                "method": "blacklist",
                "result": "Trojan.GenericKD.1286104"
            },
            "Bkav": {
                "category": "malicious",
                "engine_name": "Bkav",
                "engine_update": "20180126",
                "engine_version": "1.3.0.9466",
                "method": "blacklist",
                "result": "W32.FakelsasLTD1.Trojan"
            },
            "CAT-QuickHeal": {
                "category": "malicious",
                "engine_name": "CAT-QuickHeal",
                "engine_update": "20180127",
                "engine_version": "14.00",
                "method": "blacklist",
                "result": "Trojan.Upatre.S1164383"
            },
            "CMC": {
                "category": "malicious",
                "engine_name": "CMC",
                "engine_update": "20180128",
                "engine_version": "1.1.0.977",
                "method": "blacklist",
                "result": "Trojan.Win32.Small!O"
            },
            "ClamAV": {
                "category": "malicious",
                "engine_name": "ClamAV",
                "engine_update": "20180128",
                "engine_version": "0.99.2.0",
                "method": "blacklist",
                "result": "Win.Trojan.Rubinurd-67"
            },
            "Comodo": {
                "category": "malicious",
                "engine_name": "Comodo",
                "engine_update": "20180128",
                "engine_version": "28432",
                "method": "blacklist",
                "result": "TrojWare.Win32.Injector.AH"
            },
            "CrowdStrike": {
                "category": "malicious",
                "engine_name": "CrowdStrike",
                "engine_update": "20171016",
                "engine_version": "1.0",
                "method": "blacklist",
                "result": "malicious_confidence_100% (D)"
            },
            "Cybereason": {
                "category": "malicious",
                "engine_name": "Cybereason",
                "engine_update": "20171103",
                "engine_version": "0.0.914",
                "method": "blacklist",
                "result": "malicious.1b8fb7"
            },
            "Cylance": {
                "category": "malicious",
                "engine_name": "Cylance",
                "engine_update": "20180128",
                "engine_version": "2.3.1.101",
                "method": "blacklist",
                "result": "Unsafe"
            },
            "Cyren": {
                "category": "malicious",
                "engine_name": "Cyren",
                "engine_update": "20180128",
                "engine_version": "5.4.30.7",
                "method": "blacklist",
                "result": "W32/Trojan.TBSZ-0334"
            },
            "DrWeb": {
                "category": "malicious",
                "engine_name": "DrWeb",
                "engine_update": "20180128",
                "engine_version": "7.0.28.2020",
                "method": "blacklist",
                "result": "Trojan.DownLoad3.28161"
            },
            "ESET-NOD32": {
                "category": "malicious",
                "engine_name": "ESET-NOD32",
                "engine_update": "20180128",
                "engine_version": "16810",
                "method": "blacklist",
                "result": "Win32/TrojanDownloader.Small.AAB"
            },
            "Emsisoft": {
                "category": "malicious",
                "engine_name": "Emsisoft",
                "engine_update": "20180128",
                "engine_version": "4.0.2.899",
                "method": "blacklist",
                "result": "Trojan.GenericKD.1286104 (B)"
            },
            "Endgame": {
                "category": "malicious",
                "engine_name": "Endgame",
                "engine_update": "20171130",
                "engine_version": "1.1.4",
                "method": "blacklist",
                "result": "malicious (high confidence)"
            },
            "F-Prot": {
                "category": "malicious",
                "engine_name": "F-Prot",
                "engine_update": "20180128",
                "engine_version": "4.7.1.166",
                "method": "blacklist",
                "result": "W32/Trojan3.GBH"
            },
            "F-Secure": {
                "category": "malicious",
                "engine_name": "F-Secure",
                "engine_update": "20180128",
                "engine_version": "11.0.19100.45",
                "method": "blacklist",
                "result": "Trojan.GenericKD.1286104"
            },
            "Fortinet": {
                "category": "undetected",
                "engine_name": "Fortinet",
                "engine_update": "20180128",
                "engine_version": "5.4.247.0",
                "method": "blacklist",
                "result": null
            },
            "GData": {
                "category": "malicious",
                "engine_name": "GData",
                "engine_update": "20180128",
                "engine_version": "A:25.15847B:25.11457",
                "method": "blacklist",
                "result": "Trojan.GenericKD.1286104"
            },
            "Ikarus": {
                "category": "malicious",
                "engine_name": "Ikarus",
                "engine_update": "20180128",
                "engine_version": "0.1.5.2",
                "method": "blacklist",
                "result": "Backdoor.Win32.Androm"
            },
            "Invincea": {
                "category": "malicious",
                "engine_name": "Invincea",
                "engine_update": "20180121",
                "engine_version": "6.3.4.26036",
                "method": "blacklist",
                "result": "heuristic"
            },
            "Jiangmin": {
                "category": "malicious",
                "engine_name": "Jiangmin",
                "engine_update": "20180128",
                "engine_version": "16.0.100",
                "method": "blacklist",
                "result": "Trojan/Small.oxi"
            },
            "K7AntiVirus": {
                "category": "malicious",
                "engine_name": "K7AntiVirus",
                "engine_update": "20180128",
                "engine_version": "10.38.26029",
                "method": "blacklist",
                "result": "Trojan-Downloader ( 00457c511 )"
            },
            "K7GW": {
                "category": "malicious",
                "engine_name": "K7GW",
                "engine_update": "20180128",
                "engine_version": "10.38.26029",
                "method": "blacklist",
                "result": "Trojan-Downloader ( 00457c511 )"
            },
            "Kaspersky": {
                "category": "malicious",
                "engine_name": "Kaspersky",
                "engine_update": "20180128",
                "engine_version": "15.0.1.13",
                "method": "blacklist",
                "result": "Trojan.Win32.Small.cpl"
            },
            "Kingsoft": {
                "category": "undetected",
                "engine_name": "Kingsoft",
                "engine_update": "20180128",
                "engine_version": "2013.8.14.323",
                "method": "blacklist",
                "result": null
            },
            "MAX": {
                "category": "malicious",
                "engine_name": "MAX",
                "engine_update": "20180128",
                "engine_version": "2017.11.15.1",
                "method": "blacklist",
                "result": "malware (ai score=84)"
            },
            "Malwarebytes": {
                "category": "malicious",
                "engine_name": "Malwarebytes",
                "engine_update": "20180128",
                "engine_version": "2.1.1.1115",
                "method": "blacklist",
                "result": "Trojan.Email.FA"
            },
            "McAfee": {
                "category": "malicious",
                "engine_name": "McAfee",
                "engine_update": "20180128",
                "engine_version": "6.0.6.653",
                "method": "blacklist",
                "result": "PWSZbot-FFA!FB122EF20266"
            },
            "McAfee-GW-Edition": {
                "category": "malicious",
                "engine_name": "McAfee-GW-Edition",
                "engine_update": "20180128",
                "engine_version": "v2015",
                "method": "blacklist",
                "result": "BehavesLike.Win32.PWSZbot.dh"
            },
            "MicroWorld-eScan": {
                "category": "malicious",
                "engine_name": "MicroWorld-eScan",
                "engine_update": "20180128",
                "engine_version": "14.0.297.0",
                "method": "blacklist",
                "result": "Trojan.GenericKD.1286104"
            },
            "Microsoft": {
                "category": "malicious",
                "engine_name": "Microsoft",
                "engine_update": "20180128",
                "engine_version": "1.1.14500.5",
                "method": "blacklist",
                "result": "TrojanDownloader:Win32/Upatre"
            },
            "NANO-Antivirus": {
                "category": "malicious",
                "engine_name": "NANO-Antivirus",
                "engine_update": "20180128",
                "engine_version": "1.0.100.21015",
                "method": "blacklist",
                "result": "Trojan.Win32.Small.ciwsuw"
            },
            "Paloalto": {
                "category": "undetected",
                "engine_name": "Paloalto",
                "engine_update": "20180128",
                "engine_version": "1.0",
                "method": "blacklist",
                "result": null
            },
            "Panda": {
                "category": "malicious",
                "engine_name": "Panda",
                "engine_update": "20180128",
                "engine_version": "4.6.4.2",
                "method": "blacklist",
                "result": "Generic Suspicious"
            },
            "Qihoo-360": {
                "category": "malicious",
                "engine_name": "Qihoo-360",
                "engine_update": "20180128",
                "engine_version": "1.0.0.1120",
                "method": "blacklist",
                "result": "HEUR/QVM20.1.D52E.Malware.Gen"
            },
            "Rising": {
                "category": "malicious",
                "engine_name": "Rising",
                "engine_update": "20180128",
                "engine_version": "25.0.0.1",
                "method": "blacklist",
                "result": "Trojan.Waski!1.A489 (CLASSIC)"
            },
            "SUPERAntiSpyware": {
                "category": "undetected",
                "engine_name": "SUPERAntiSpyware",
                "engine_update": "20180128",
                "engine_version": "5.6.0.1032",
                "method": "blacklist",
                "result": null
            },
            "SentinelOne": {
                "category": "malicious",
                "engine_name": "SentinelOne",
                "engine_update": "20180115",
                "engine_version": "1.0.12.202",
                "method": "blacklist",
                "result": "static engine - malicious"
            },
            "Sophos": {
                "category": "malicious",
                "engine_name": "Sophos",
                "engine_update": "20180128",
                "engine_version": "4.98.0",
                "method": "blacklist",
                "result": "Troj/Zbot-GJC"
            },
            "Symantec": {
                "category": "malicious",
                "engine_name": "Symantec",
                "engine_update": "20180127",
                "engine_version": "1.5.0.0",
                "method": "blacklist",
                "result": "Downloader"
            },
            "SymantecMobileInsight": {
                "category": "type-unsupported",
                "engine_name": "SymantecMobileInsight",
                "engine_update": "20180126",
                "engine_version": "1.0.0.35_220",
                "method": "blacklist",
                "result": null
            },
            "Tencent": {
                "category": "undetected",
                "engine_name": "Tencent",
                "engine_update": "20180128",
                "engine_version": "1.0.0.1",
                "method": "blacklist",
                "result": null
            },
            "TheHacker": {
                "category": "malicious",
                "engine_name": "TheHacker",
                "engine_update": "20180125",
                "engine_version": "6.8.0.5.2346",
                "method": "blacklist",
                "result": "Trojan/Downloader.Small.aab"
            },
            "TotalDefense": {
                "category": "malicious",
                "engine_name": "TotalDefense",
                "engine_update": "20180128",
                "engine_version": "37.1.62.1",
                "method": "blacklist",
                "result": "Win32/Upatre.Q"
            },
            "TrendMicro": {
                "category": "undetected",
                "engine_name": "TrendMicro",
                "engine_update": "20180128",
                "engine_version": "9.862.0.1074",
                "method": "blacklist",
                "result": null
            },
            "TrendMicro-HouseCall": {
                "category": "undetected",
                "engine_name": "TrendMicro-HouseCall",
                "engine_update": "20180128",
                "engine_version": "9.950.0.1006",
                "method": "blacklist",
                "result": null
            },
            "Trustlook": {
                "category": "type-unsupported",
                "engine_name": "Trustlook",
                "engine_update": "20180128",
                "engine_version": "2",
                "method": "blacklist",
                "result": null
            },
            "VBA32": {
                "category": "malicious",
                "engine_name": "VBA32",
                "engine_update": "20180126",
                "engine_version": "3.12.28.0",
                "method": "blacklist",
                "result": "Trojan.Small"
            },
            "VIPRE": {
                "category": "malicious",
                "engine_name": "VIPRE",
                "engine_update": "20180128",
                "engine_version": "64184",
                "method": "blacklist",
                "result": "Trojan.Win32.Cutwail.c (v)"
            },
            "ViRobot": {
                "category": "undetected",
                "engine_name": "ViRobot",
                "engine_update": "20180128",
                "engine_version": "2014.3.20.0",
                "method": "blacklist",
                "result": null
            },
            "Webroot": {
                "category": "undetected",
                "engine_name": "Webroot",
                "engine_update": "20180128",
                "engine_version": "1.0.0.207",
                "method": "blacklist",
                "result": null
            },
            "Yandex": {
                "category": "malicious",
                "engine_name": "Yandex",
                "engine_update": "20180112",
                "engine_version": "5.5.1.3",
                "method": "blacklist",
                "result": "Trojan.Bublik!BrbaRvXyIc8"
            },
            "Zillya": {
                "category": "malicious",
                "engine_name": "Zillya",
                "engine_update": "20180126",
                "engine_version": "2.0.0.3478",
                "method": "blacklist",
                "result": "Trojan.Bublik.Win32.12106"
            },
            "ZoneAlarm": {
                "category": "malicious",
                "engine_name": "ZoneAlarm",
                "engine_update": "20180128",
                "engine_version": "1.0",
                "method": "blacklist",
                "result": "Trojan.Win32.Small.cpl"
            },
            "Zoner": {
                "category": "malicious",
                "engine_name": "Zoner",
                "engine_update": "20180128",
                "engine_version": "1.0",
                "method": "blacklist",
                "result": "Trojan.Small.AAB"
            },
            "eGambit": {
                "category": "malicious",
                "engine_name": "eGambit",
                "engine_update": "20180128",
                "engine_version": "v4.2.7",
                "method": "blacklist",
                "result": "Trojan.Generic"
            },
            "nProtect": {
                "category": "undetected",
                "engine_name": "nProtect",
                "engine_update": "20180128",
                "engine_version": "2018-01-28.02",
                "method": "blacklist",
                "result": null
            }
        },
        "last_analysis_stats": {
            "confirmed-timeout": 0,
            "failure": 0,
            "harmless": 0,
            "malicious": 56,
            "suspicious": 0,
            "timeout": 0,
            "type-unsupported": 3,
            "undetected": 11
        },
        "last_modification_date": 1517162683,
        "last_submission_date": 1517161815,
        "magic": "PE32 executable for MS Windows (GUI) Intel 80386 32-bit",
        "md5": "fb122ef2026607534e9f9f6aedbdbf25",
        "meaningful_name": "fb122ef2026607534e9f9f6aedbdbf25.virus",
        "names": [
            "fb122ef2026607534e9f9f6aedbdbf25.virus"
        ],
        "pe_info": {
            "entry_point": 9512,
            "imphash": "be934b29d9a83548878d0187178aaf03",
            "import_list": [
                {
                    "imported_functions": [
                        "GetLastError",
                        "lstrlenA",
                        "GetCurrentProcessId",
                        "GetModuleHandleA",
                        "lstrcmpA",
                        "GetCurrentDirectoryA",
                        "GetCurrentProcess",
                        "GetTickCount",
                        "GetSystemTimeAsFileTime",
                        "CreateFileA",
                        "GetCommandLineA"
                    ],
                    "library_name": "kernel32.dll"
                },
                {
                    "imported_functions": [
                        "GetMessageA",
                        "CreateWindowExA",
                        "LoadCursorA",
                        "LoadIconA",
                        "UpdateWindow",
                        "DispatchMessageA",
                        "EndPaint",
                        "BeginPaint",
                        "TranslateMessage",
                        "MoveWindow",
                        "SendMessageA",
                        "MessageBoxA",
                        "PostQuitMessage",
                        "DefWindowProcA",
                        "ShowWindow",
                        "DestroyWindow",
                        "RegisterClassExA"
                    ],
                    "library_name": "user32.dll"
                },
                {
                    "imported_functions": [
                        "CreateCompatibleDC",
                        "DeleteObject",
                        "CreateCompatibleBitmap"
                    ],
                    "library_name": "gdi32.dll"
                }
            ],
            "machine_type": 332,
            "overlay": {
                "chi2": 4961616.5,
                "entropy": 6.201047420501709,
                "filetype": "data",
                "md5": "d2f9ee9c2fbb8a611bd1446d950ba603",
                "offset": 23552,
                "size": 259268
            },
            "resource_details": [
                {
                    "chi2": 161285.109375,
                    "entropy": 5.539515018463135,
                    "filetype": "data",
                    "lang": "ENGLISH US",
                    "sha256": "0e6e728b2a274f241288eafbf1e8ab37fe70bbaddf8a85878ebb9440d9a2816d",
                    "type": "RT_ICON"
                },
                {
                    "chi2": 1823.2001953125,
                    "entropy": 1.9192407131195068,
                    "filetype": "ASCII text",
                    "lang": "ENGLISH US",
                    "sha256": "e5e8859028aaac0fddf6ec4c8ab6a76f9b800b625c8602498089efeac01d4f78",
                    "type": "RT_GROUP_ICON"
                },
                {
                    "chi2": 3958.6474609375,
                    "entropy": 4.795973777770996,
                    "filetype": "ASCII text",
                    "lang": "ENGLISH US",
                    "sha256": "49a60be4b95b6d30da355a0c124af82b35000bce8f24f957d1c09ead47544a1e",
                    "type": "RT_MANIFEST"
                }
            ],
            "resource_langs": {
                "ENGLISH US": 3
            },
            "resource_types": {
                "RT_GROUP_ICON": 1,
                "RT_ICON": 1,
                "RT_MANIFEST": 1
            },
            "sections": [
                {
                    "entropy": 6.59,
                    "md5": "6c907bf4d99e0b3b2455d8806ccd7f64",
                    "name": ".text",
                    "raw_size": 8192,
                    "virtual_address": 4096,
                    "virtual_size": 8032
                },
                {
                    "entropy": 5.88,
                    "md5": "23168cd3b8f09c376ead895416648835",
                    "name": ".rdata",
                    "raw_size": 3072,
                    "virtual_address": 12288,
                    "virtual_size": 3002
                },
                {
                    "entropy": 3.74,
                    "md5": "92194b0fcb816fb892fc1ee3af6b36e9",
                    "name": ".data",
                    "raw_size": 512,
                    "virtual_address": 16384,
                    "virtual_size": 2977
                },
                {
                    "entropy": 5.62,
                    "md5": "fa4680a7498813b8381df1c2056de105",
                    "name": ".rsrc",
                    "raw_size": 10752,
                    "virtual_address": 20480,
                    "virtual_size": 10656
                }
            ],
            "timestamp": 1379918555
        },
        "reputation": 0,
        "sha1": "c8283fde9628fce116be6d35d7bf68028b2fc12b",
        "sha256": "000375ccd8e442e9e631c2c45790aadbba49c5d3dc8c0021e0ab645b8bb06d71",
        "size": 282820,
        "ssdeep": "6144:D3etdgI2MyzNORQtOfl1qNVo7R+S+NlTXNW7mvIRF83TkmNagF2R1Xrj1WHBAGtk:bnW7SIRO3TkmQ/Y1TsioE6",
        "tags": [
            "peexe",
            "overlay"
        ],
        "times_submitted": 1,
        "total_votes": {
            "harmless": 0,
            "malicious": 0
        },
        "trid": [
            {
                "file_type": "Win32 Executable MS Visual C++ (generic)",
                "probability": 24.4
            },
            {
                "file_type": "Win64 Executable (generic)",
                "probability": 21.6
            },
            {
                "file_type": "UPX compressed Win32 Executable",
                "probability": 21.2
            },
            {
                "file_type": "Win32 EXE Yoda's Crypter",
                "probability": 20.8
            },
            {
                "file_type": "Win32 Dynamic Link Library (generic)",
                "probability": 5.1
            }
        ],
        "type_description": "Win32 EXE",
        "type_extension": "exe",
        "type_tag": "peexe",
        "unique_sources": 1,
        "vhash": "025046655d1557z31zbmz11fz"
    },
    "id": "000375ccd8e442e9e631c2c45790aadbba49c5d3dc8c0021e0ab645b8bb06d71",
    "links": {
        "self": "https://www.virustotal.com/api/v3/files/000375ccd8e442e9e631c2c45790aadbba49c5d3dc8c0021e0ab645b8bb06d71"
    },
    "type": "file"
}