{
    "attributes": {
        "authentihash": "cde768d3533c408f3f194650b1c90286ad9b730f4b6852ec2c30438270fe4786",
        "creation_date": 1280658757,
        "first_submission_date": 1540356582,
        "last_analysis_date": 1540356582,
        "last_analysis_results": {
            "ALYac": {
                "category": "malicious",
                "engine_name": "ALYac",
                "engine_update": "20181024",
                "engine_version": "1.1.1.5",
                "method": "blacklist",
                "result": "Trojan.GenericKD.40586504"
            },
            "AVG": {
                "category": "malicious",
                "engine_name": "AVG",
                "engine_update": "20181024",
                "engine_version": "18.4.3895.0",
                "method": "blacklist",
                "result": "Win32:Sankei"
            },
            "Ad-Aware": {
                "category": "malicious",
                "engine_name": "Ad-Aware",
                "engine_update": "20181024",
                "engine_version": "3.0.5.370",
                "method": "blacklist",
                "result": "Trojan.GenericKD.40586504"
            },
            "AegisLab": {
                "category": "undetected",
                "engine_name": "AegisLab",
                "engine_update": "20181024",
                "engine_version": "4.2",
                "method": "blacklist",
                "result": null
            },
            "AhnLab-V3": {
                "category": "malicious",
                "engine_name": "AhnLab-V3",
                "engine_update": "20181023",
                "engine_version": "3.13.1.21616",
                "method": "blacklist",
                "result": "Trojan/Win32.Ransom.R213603"
            },
            "Alibaba": {
                "category": "undetected",
                "engine_name": "Alibaba",
                "engine_update": "20180921",
                "engine_version": "0.1.0.2",
                "method": "blacklist",
                "result": null
            },
            "Antiy-AVL": {
                "category": "malicious",
                "engine_name": "Antiy-AVL",
                "engine_update": "20181023",
                "engine_version": "3.0.0.1",
                "method": "blacklist",
                "result": "Trojan[Packed]/Win32.Krap"
            },
            "Arcabit": {
                "category": "malicious",
                "engine_name": "Arcabit",
                "engine_update": "20181024",
                "engine_version": "1.0.0.833",
                "method": "blacklist",
                "result": "Trojan.Generic.D26B4D08"
            },
            "Avast": {
                "category": "malicious",
                "engine_name": "Avast",
                "engine_update": "20181024",
                "engine_version": "18.4.3895.0",
                "method": "blacklist",
                "result": "Win32:Sankei"
            },
            "Avast-Mobile": {
                "category": "undetected",
                "engine_name": "Avast-Mobile",
                "engine_update": "20181023",
                "engine_version": "181023-02",
                "method": "blacklist",
                "result": null
            },
            "Avira": {
                "category": "malicious",
                "engine_name": "Avira",
                "engine_update": "20181023",
                "engine_version": "8.3.3.6",
                "method": "blacklist",
                "result": "TR/ATRAPS.Gen2"
            },
            "Babable": {
                "category": "undetected",
                "engine_name": "Babable",
                "engine_update": "20180918",
                "engine_version": "9107201",
                "method": "blacklist",
                "result": null
            },
            "Baidu": {
                "category": "undetected",
                "engine_name": "Baidu",
                "engine_update": "20181023",
                "engine_version": "1.0.0.2",
                "method": "blacklist",
                "result": null
            },
            "BitDefender": {
                "category": "malicious",
                "engine_name": "BitDefender",
                "engine_update": "20181024",
                "engine_version": "7.2",
                "method": "blacklist",
                "result": "Trojan.GenericKD.40586504"
            },
            "Bkav": {
                "category": "malicious",
                "engine_name": "Bkav",
                "engine_update": "20181023",
                "engine_version": "1.3.0.9898",
                "method": "blacklist",
                "result": "W32.OverlayND.PE"
            },
            "CAT-QuickHeal": {
                "category": "malicious",
                "engine_name": "CAT-QuickHeal",
                "engine_update": "20181022",
                "engine_version": "14.00",
                "method": "blacklist",
                "result": "W32.Sivis.A5"
            },
            "CMC": {
                "category": "undetected",
                "engine_name": "CMC",
                "engine_update": "20181023",
                "engine_version": "1.1.0.977",
                "method": "blacklist",
                "result": null
            },
            "ClamAV": {
                "category": "malicious",
                "engine_name": "ClamAV",
                "engine_update": "20181023",
                "engine_version": "0.100.2.0",
                "method": "blacklist",
                "result": "Win.Trojan.Fileinfector-2"
            },
            "CrowdStrike": {
                "category": "malicious",
                "engine_name": "CrowdStrike",
                "engine_update": "20180723",
                "engine_version": "1.0",
                "method": "blacklist",
                "result": "malicious_confidence_100% (D)"
            },
            "Cybereason": {
                "category": "malicious",
                "engine_name": "Cybereason",
                "engine_update": "20180225",
                "engine_version": "1.2.27",
                "method": "blacklist",
                "result": "malicious.2d8ade"
            },
            "Cylance": {
                "category": "malicious",
                "engine_name": "Cylance",
                "engine_update": "20181024",
                "engine_version": "2.3.1.101",
                "method": "blacklist",
                "result": "Unsafe"
            },
            "Cyren": {
                "category": "malicious",
                "engine_name": "Cyren",
                "engine_update": "20181024",
                "engine_version": "6.0.0.4",
                "method": "blacklist",
                "result": "W32/S-a846205f!Eldorado"
            },
            "DrWeb": {
                "category": "malicious",
                "engine_name": "DrWeb",
                "engine_update": "20181024",
                "engine_version": "7.0.33.6080",
                "method": "blacklist",
                "result": "Trojan.Encoder.14453"
            },
            "ESET-NOD32": {
                "category": "malicious",
                "engine_name": "ESET-NOD32",
                "engine_update": "20181024",
                "engine_version": "18264",
                "method": "blacklist",
                "result": "Win32/Kryptik.FWWY.Gen"
            },
            "Emsisoft": {
                "category": "malicious",
                "engine_name": "Emsisoft",
                "engine_update": "20181024",
                "engine_version": "2018.4.0.1029",
                "method": "blacklist",
                "result": "Trojan.GenericKD.40586504 (B)"
            },
            "Endgame": {
                "category": "malicious",
                "engine_name": "Endgame",
                "engine_update": "20180730",
                "engine_version": "3.0.1",
                "method": "blacklist",
                "result": "malicious (high confidence)"
            },
            "F-Prot": {
                "category": "malicious",
                "engine_name": "F-Prot",
                "engine_update": "20181024",
                "engine_version": "4.7.1.166",
                "method": "blacklist",
                "result": "W32/S-a846205f!Eldorado"
            },
            "F-Secure": {
                "category": "malicious",
                "engine_name": "F-Secure",
                "engine_update": "20181024",
                "engine_version": "11.0.19100.45",
                "method": "blacklist",
                "result": "Trojan.GenericKD.40586504"
            },
            "Fortinet": {
                "category": "malicious",
                "engine_name": "Fortinet",
                "engine_update": "20181024",
                "engine_version": "5.4.247.0",
                "method": "blacklist",
                "result": "W32/Krap.JC!tr"
            },
            "GData": {
                "category": "malicious",
                "engine_name": "GData",
                "engine_update": "20181024",
                "engine_version": "A:25.19066B:25.13517",
                "method": "blacklist",
                "result": "Trojan.GenericKD.40586504"
            },
            "Ikarus": {
                "category": "malicious",
                "engine_name": "Ikarus",
                "engine_update": "20181023",
                "engine_version": "0.1.5.2",
                "method": "blacklist",
                "result": "Trojan.Win32.Ausiv"
            },
            "Invincea": {
                "category": "malicious",
                "engine_name": "Invincea",
                "engine_update": "20180717",
                "engine_version": "6.3.5.26121",
                "method": "blacklist",
                "result": "heuristic"
            },
            "Jiangmin": {
                "category": "malicious",
                "engine_name": "Jiangmin",
                "engine_update": "20181024",
                "engine_version": "16.0.100",
                "method": "blacklist",
                "result": "Packed.Krap.fyig"
            },
            "K7AntiVirus": {
                "category": "malicious",
                "engine_name": "K7AntiVirus",
                "engine_update": "20181023",
                "engine_version": "11.9.28801",
                "method": "blacklist",
                "result": "Trojan ( 005205011 )"
            },
            "K7GW": {
                "category": "malicious",
                "engine_name": "K7GW",
                "engine_update": "20181023",
                "engine_version": "11.9.28789",
                "method": "blacklist",
                "result": "Trojan ( 00517a0d1 )"
            },
            "Kaspersky": {
                "category": "malicious",
                "engine_name": "Kaspersky",
                "engine_update": "20181024",
                "engine_version": "15.0.1.13",
                "method": "blacklist",
                "result": "Packed.Win32.Krap.jc"
            },
            "Kingsoft": {
                "category": "undetected",
                "engine_name": "Kingsoft",
                "engine_update": "20181024",
                "engine_version": "2013.8.14.323",
                "method": "blacklist",
                "result": null
            },
            "MAX": {
                "category": "malicious",
                "engine_name": "MAX",
                "engine_update": "20181024",
                "engine_version": "2018.9.12.1",
                "method": "blacklist",
                "result": "malware (ai score=84)"
            },
            "Malwarebytes": {
                "category": "malicious",
                "engine_name": "Malwarebytes",
                "engine_update": "20181024",
                "engine_version": "2.1.1.1115",
                "method": "blacklist",
                "result": "Ransom.Winlock"
            },
            "McAfee": {
                "category": "malicious",
                "engine_name": "McAfee",
                "engine_update": "20181024",
                "engine_version": "6.0.6.653",
                "method": "blacklist",
                "result": "Packed-SU!6B29E752D8AD"
            },
            "McAfee-GW-Edition": {
                "category": "malicious",
                "engine_name": "McAfee-GW-Edition",
                "engine_update": "20181024",
                "engine_version": "v2017.3010",
                "method": "blacklist",
                "result": "BehavesLike.Win32.Sivis.fm"
            },
            "MicroWorld-eScan": {
                "category": "malicious",
                "engine_name": "MicroWorld-eScan",
                "engine_update": "20181024",
                "engine_version": "14.0.297.0",
                "method": "blacklist",
                "result": "Trojan.GenericKD.40586504"
            },
            "Microsoft": {
                "category": "malicious",
                "engine_name": "Microsoft",
                "engine_update": "20181024",
                "engine_version": "1.1.15400.4",
                "method": "blacklist",
                "result": "Trojan:Win32/Ausiv"
            },
            "NANO-Antivirus": {
                "category": "malicious",
                "engine_name": "NANO-Antivirus",
                "engine_update": "20181024",
                "engine_version": "1.0.134.24036",
                "method": "blacklist",
                "result": "Trojan.Win32.Krap.espnuv"
            },
            "Paloalto": {
                "category": "undetected",
                "engine_name": "Paloalto",
                "engine_update": "20181024",
                "engine_version": "1.0",
                "method": "blacklist",
                "result": null
            },
            "Panda": {
                "category": "undetected",
                "engine_name": "Panda",
                "engine_update": "20181023",
                "engine_version": "4.6.4.2",
                "method": "blacklist",
                "result": null
            },
            "Qihoo-360": {
                "category": "malicious",
                "engine_name": "Qihoo-360",
                "engine_update": "20181024",
                "engine_version": "1.0.0.1120",
                "method": "blacklist",
                "result": "HEUR/QVM19.1.BB69.Malware.Gen"
            },
            "Rising": {
                "category": "malicious",
                "engine_name": "Rising",
                "engine_update": "20181024",
                "engine_version": "25.0.0.24",
                "method": "blacklist",
                "result": "Virus.Sivis!1.A647 (CLASSIC)"
            },
            "SUPERAntiSpyware": {
                "category": "malicious",
                "engine_name": "SUPERAntiSpyware",
                "engine_update": "20181022",
                "engine_version": "5.6.0.1032",
                "method": "blacklist",
                "result": "Ransom.Winlock/Variant"
            },
            "SentinelOne": {
                "category": "malicious",
                "engine_name": "SentinelOne",
                "engine_update": "20181011",
                "engine_version": "1.0.19.245",
                "method": "blacklist",
                "result": "static engine - malicious"
            },
            "Sophos": {
                "category": "malicious",
                "engine_name": "Sophos",
                "engine_update": "20181023",
                "engine_version": "4.98.0",
                "method": "blacklist",
                "result": "W32/Sivis-B"
            },
            "Symantec": {
                "category": "malicious",
                "engine_name": "Symantec",
                "engine_update": "20181024",
                "engine_version": "1.7.0.0",
                "method": "blacklist",
                "result": "W32.Suviapen"
            },
            "SymantecMobileInsight": {
                "category": "type-unsupported",
                "engine_name": "SymantecMobileInsight",
                "engine_update": "20181001",
                "engine_version": "2.0",
                "method": "blacklist",
                "result": null
            },
            "TACHYON": {
                "category": "malicious",
                "engine_name": "TACHYON",
                "engine_update": "20181024",
                "engine_version": "2018-10-24.01",
                "method": "blacklist",
                "result": "Trojan/W32.Agent.Zen.EOR"
            },
            "Tencent": {
                "category": "malicious",
                "engine_name": "Tencent",
                "engine_update": "20181024",
                "engine_version": "1.0.0.1",
                "method": "blacklist",
                "result": "Trojan.Win32.Kryptik.fwwy"
            },
            "TheHacker": {
                "category": "malicious",
                "engine_name": "TheHacker",
                "engine_update": "20181023",
                "engine_version": "6.8.0.5.3781",
                "method": "blacklist",
                "result": "Trojan/Kryptik.FWWY.gen"
            },
            "TotalDefense": {
                "category": "undetected",
                "engine_name": "TotalDefense",
                "engine_update": "20181023",
                "engine_version": "37.1.62.1",
                "method": "blacklist",
                "result": null
            },
            "TrendMicro": {
                "category": "malicious",
                "engine_name": "TrendMicro",
                "engine_update": "20181024",
                "engine_version": "10.0.0.1040",
                "method": "blacklist",
                "result": "PE_LUMER.MR"
            },
            "TrendMicro-HouseCall": {
                "category": "malicious",
                "engine_name": "TrendMicro-HouseCall",
                "engine_update": "20181024",
                "engine_version": "10.0.0.1040",
                "method": "blacklist",
                "result": "PE_LUMER.MR"
            },
            "Trustlook": {
                "category": "undetected",
                "engine_name": "Trustlook",
                "engine_update": "20181024",
                "engine_version": "1.0",
                "method": "blacklist",
                "result": null
            },
            "VBA32": {
                "category": "malicious",
                "engine_name": "VBA32",
                "engine_update": "20181023",
                "engine_version": "3.33.0",
                "method": "blacklist",
                "result": "Malware-Cryptor.General.3"
            },
            "ViRobot": {
                "category": "undetected",
                "engine_name": "ViRobot",
                "engine_update": "20181023",
                "engine_version": "2014.3.20.0",
                "method": "blacklist",
                "result": null
            },
            "Webroot": {
                "category": "undetected",
                "engine_name": "Webroot",
                "engine_update": "20181024",
                "engine_version": "1.0.0.403",
                "method": "blacklist",
                "result": null
            },
            "Yandex": {
                "category": "malicious",
                "engine_name": "Yandex",
                "engine_update": "20181022",
                "engine_version": "5.5.1.3",
                "method": "blacklist",
                "result": "Trojan.Encoder!pNjka2bf5mk"
            },
            "Zillya": {
                "category": "malicious",
                "engine_name": "Zillya",
                "engine_update": "20181023",
                "engine_version": "2.0.0.3674",
                "method": "blacklist",
                "result": "Trojan.Black.Win32.51155"
            },
            "ZoneAlarm": {
                "category": "malicious",
                "engine_name": "ZoneAlarm",
                "engine_update": "20181024",
                "engine_version": "1.0",
                "method": "blacklist",
                "result": "Packed.Win32.Krap.jc"
            },
            "Zoner": {
                "category": "undetected",
                "engine_name": "Zoner",
                "engine_update": "20181023",
                "engine_version": "1.0",
                "method": "blacklist",
                "result": null
            },
            "eGambit": {
                "category": "undetected",
                "engine_name": "eGambit",
                "engine_update": "20181024",
                "engine_version": null,
                "method": "blacklist",
                "result": null
            }
        },
        "last_analysis_stats": {
            "confirmed-timeout": 0,
            "failure": 0,
            "harmless": 0,
            "malicious": 52,
            "suspicious": 0,
            "timeout": 0,
            "type-unsupported": 1,
            "undetected": 15
        },
        "last_modification_date": 1540356995,
        "last_submission_date": 1540356582,
        "magic": "PE32 executable for MS Windows (GUI) Intel 80386 32-bit",
        "md5": "6b29e752d8ade3ccd4748db2dd2ed8ce",
        "meaningful_name": "6b29e752d8ade3ccd4748db2dd2ed8ce.virus",
        "names": [
            "6b29e752d8ade3ccd4748db2dd2ed8ce.virus"
        ],
        "pe_info": {
            "entry_point": 4096,
            "imphash": "a8f69eb2cf9f30ea96961c86b4347282",
            "import_list": [
                {
                    "imported_functions": [
                        "GetLastError",
                        "HeapFree",
                        "GetStdHandle",
                        "EnterCriticalSection",
                        "GetFileAttributesA",
                        "WaitForSingleObject",
                        "GetDriveTypeA",
                        "HeapDestroy",
                        "HeapAlloc",
                        "GetModuleFileNameA",
                        "CreatePipe",
                        "GetCurrentProcess",
                        "GetFileSize",
                        "CreateDirectoryA",
                        "GetModuleHandleA",
                        "SetFilePointer",
                        "ReadFile",
                        "WriteFile",
                        "FindFirstFileA",
                        "CloseHandle",
                        "FindNextFileA",
                        "DuplicateHandle",
                        "HeapReAlloc",
                        "SetFileAttributesA",
                        "CreateProcessA",
                        "InitializeCriticalSection",
                        "HeapCreate",
                        "FindClose",
                        "GetTickCount",
                        "CreateFileA",
                        "ExitProcess",
                        "GetCurrentThreadId",
                        "GetCurrentProcessId",
                        "LeaveCriticalSection"
                    ],
                    "library_name": "KERNEL32.dll"
                },
                {
                    "imported_functions": [
                        "strncmp",
                        "memmove",
                        "memset",
                        "strcat",
                        "memcpy",
                        "strcpy",
                        "_strnicmp",
                        "_stricmp",
                        "strlen",
                        "strcmp",
                        "strncpy"
                    ],
                    "library_name": "MSVCRT.dll"
                },
                {
                    "imported_functions": [
                        "ShellExecuteExA"
                    ],
                    "library_name": "SHELL32.DLL"
                },
                {
                    "imported_functions": [
                        "CoInitialize"
                    ],
                    "library_name": "OLE32.DLL"
                },
                {
                    "imported_functions": [
                        "GetWindowThreadProcessId",
                        "GetForegroundWindow",
                        "EnableWindow",
                        "IsWindowVisible",
                        "EnumWindows",
                        "MessageBoxA",
                        "IsWindowEnabled"
                    ],
                    "library_name": "USER32.DLL"
                },
                {
                    "imported_functions": [
                        "InitCommonControls"
                    ],
                    "library_name": "COMCTL32.DLL"
                }
            ],
            "machine_type": 332,
            "overlay": {
                "chi2": 7284268.0,
                "entropy": 5.9502434730529785,
                "filetype": "data",
                "md5": "b4a7c4505ae22d4e1efc1c88016055fa",
                "offset": 32768,
                "size": 279681
            },
            "resource_details": [
                {
                    "chi2": 7386.1708984375,
                    "entropy": 4.923219680786133,
                    "filetype": "ASCII text",
                    "lang": "ENGLISH US",
                    "sha256": "be809cba9d14bfb52a969d766992832b10e99e133babcdd99dc6d1bba5597cf7",
                    "type": "RT_MANIFEST"
                }
            ],
            "resource_langs": {
                "ENGLISH US": 1
            },
            "resource_types": {
                "RT_MANIFEST": 1
            },
            "sections": [
                {
                    "entropy": 5.34,
                    "md5": "8d45c4e221103ecf06a2ffb4f6b4170a",
                    "name": ".code",
                    "raw_size": 1841,
                    "virtual_address": 4096,
                    "virtual_size": 1841
                },
                {
                    "entropy": 6.19,
                    "md5": "4ebd8ab0ae60f9f48672a6a851790881",
                    "name": ".text",
                    "raw_size": 6552,
                    "virtual_address": 8192,
                    "virtual_size": 6552
                },
                {
                    "entropy": 1.77,
                    "md5": "eac55f75efa653ab097cc26955eaadb9",
                    "name": ".rdata",
                    "raw_size": 28,
                    "virtual_address": 16384,
                    "virtual_size": 28
                },
                {
                    "entropy": 4.98,
                    "md5": "6225dbf9e53a67a2c06175fc5437ecdb",
                    "name": ".data",
                    "raw_size": 1960,
                    "virtual_address": 20480,
                    "virtual_size": 1960
                },
                {
                    "entropy": 5.07,
                    "md5": "13993501e832b475bd7eac46370ba265",
                    "name": ".rsrc",
                    "raw_size": 700,
                    "virtual_address": 24576,
                    "virtual_size": 700
                },
                {
                    "entropy": 0.53,
                    "md5": "b8292cc5a528e176dffe2e390f4b6974",
                    "name": ".NewSec",
                    "raw_size": 4096,
                    "virtual_address": 28672,
                    "virtual_size": 4096
                }
            ],
            "timestamp": 1280658757
        },
        "reputation": 0,
        "sha1": "8e79f51908fca37c86ce1a94fa080cddb216b957",
        "sha256": "0003f73ef6d62ee5f825b110f85c68f4d1e55ab3e3d35e059e53ac03cc7f6d67",
        "size": 312449,
        "ssdeep": "3072:SnEO3Hci7w+XHI8bFuHYEc/4ObYMjy3zzfxU8MrG5ficGhjfznjxDSQUH:QzIrcgObYM0fqD65ficKjfznjxDSQUH",
        "tags": [
            "peexe",
            "overlay"
        ],
        "times_submitted": 1,
        "total_votes": {
            "harmless": 0,
            "malicious": 0
        },
        "trid": [
            {
                "file_type": "Windows ActiveX control",
                "probability": 59.8
            },
            {
                "file_type": "Win32 Executable MS Visual C++ (generic)",
                "probability": 16.0
            },
            {
                "file_type": "Win64 Executable (generic)",
                "probability": 14.1
            },
            {
                "file_type": "Win32 Dynamic Link Library (generic)",
                "probability": 3.3
            },
            {
                "file_type": "Win32 Executable (generic)",
                "probability": 2.3
            }
        ],
        "type_description": "Win32 EXE",
        "type_extension": "exe",
        "type_tag": "peexe",
        "unique_sources": 1,
        "vhash": "03506e56651d555f11z16z220b5z17z13z7fz"
    },
    "id": "0003f73ef6d62ee5f825b110f85c68f4d1e55ab3e3d35e059e53ac03cc7f6d67",
    "links": {
        "self": "https://www.virustotal.com/api/v3/files/0003f73ef6d62ee5f825b110f85c68f4d1e55ab3e3d35e059e53ac03cc7f6d67"
    },
    "type": "file"
}