{
    "attributes": {
        "authentihash": "f4b17fbd4f48afb0105e6d6ca120f01c7900c8afeef01e704f47c36442f95e0a",
        "creation_date": 1501669833,
        "first_submission_date": 1502967939,
        "last_analysis_date": 1598411105,
        "last_analysis_results": {
            "ALYac": {
                "category": "malicious",
                "engine_name": "ALYac",
                "engine_update": "20200826",
                "engine_version": "1.1.1.5",
                "method": "blacklist",
                "result": "Gen:Variant.Zusy.261562"
            },
            "APEX": {
                "category": "malicious",
                "engine_name": "APEX",
                "engine_update": "20200825",
                "engine_version": "6.63",
                "method": "blacklist",
                "result": "Malicious"
            },
            "AVG": {
                "category": "malicious",
                "engine_name": "AVG",
                "engine_update": "20200826",
                "engine_version": "18.4.3895.0",
                "method": "blacklist",
                "result": "Win32:XMRigMiner-D [Trj]"
            },
            "Acronis": {
                "category": "undetected",
                "engine_name": "Acronis",
                "engine_update": "20200806",
                "engine_version": "1.1.1.77",
                "method": "blacklist",
                "result": null
            },
            "Ad-Aware": {
                "category": "malicious",
                "engine_name": "Ad-Aware",
                "engine_update": "20200826",
                "engine_version": "3.0.16.117",
                "method": "blacklist",
                "result": "Gen:Variant.Zusy.261562"
            },
            "AegisLab": {
                "category": "malicious",
                "engine_name": "AegisLab",
                "engine_update": "20200826",
                "engine_version": "4.2",
                "method": "blacklist",
                "result": "Trojan.Win32.Agent.4!c"
            },
            "AhnLab-V3": {
                "category": "malicious",
                "engine_name": "AhnLab-V3",
                "engine_update": "20200825",
                "engine_version": "3.18.1.10026",
                "method": "blacklist",
                "result": "Trojan/Win32.Agent.R207759"
            },
            "Alibaba": {
                "category": "undetected",
                "engine_name": "Alibaba",
                "engine_update": "20190527",
                "engine_version": "0.3.0.5",
                "method": "blacklist",
                "result": null
            },
            "Antiy-AVL": {
                "category": "malicious",
                "engine_name": "Antiy-AVL",
                "engine_update": "20200825",
                "engine_version": "3.0.0.1",
                "method": "blacklist",
                "result": "Trojan/Win32.TSGeneric"
            },
            "Arcabit": {
                "category": "malicious",
                "engine_name": "Arcabit",
                "engine_update": "20200826",
                "engine_version": "1.0.0.877",
                "method": "blacklist",
                "result": "Trojan.Zusy.D3FDBA"
            },
            "Avast": {
                "category": "malicious",
                "engine_name": "Avast",
                "engine_update": "20200826",
                "engine_version": "18.4.3895.0",
                "method": "blacklist",
                "result": "Win32:XMRigMiner-D [Trj]"
            },
            "Avast-Mobile": {
                "category": "type-unsupported",
                "engine_name": "Avast-Mobile",
                "engine_update": "20200825",
                "engine_version": "200825-00",
                "method": "blacklist",
                "result": null
            },
            "Avira": {
                "category": "malicious",
                "engine_name": "Avira",
                "engine_update": "20200826",
                "engine_version": "8.3.3.8",
                "method": "blacklist",
                "result": "HEUR/AGEN.1110281"
            },
            "Baidu": {
                "category": "undetected",
                "engine_name": "Baidu",
                "engine_update": "20190318",
                "engine_version": "1.0.0.2",
                "method": "blacklist",
                "result": null
            },
            "BitDefender": {
                "category": "malicious",
                "engine_name": "BitDefender",
                "engine_update": "20200826",
                "engine_version": "7.2",
                "method": "blacklist",
                "result": "Gen:Variant.Zusy.261562"
            },
            "BitDefenderTheta": {
                "category": "undetected",
                "engine_name": "BitDefenderTheta",
                "engine_update": "20200824",
                "engine_version": "7.2.37796.0",
                "method": "blacklist",
                "result": null
            },
            "Bkav": {
                "category": "undetected",
                "engine_name": "Bkav",
                "engine_update": "20200826",
                "engine_version": "1.3.0.9899",
                "method": "blacklist",
                "result": null
            },
            "CAT-QuickHeal": {
                "category": "malicious",
                "engine_name": "CAT-QuickHeal",
                "engine_update": "20200826",
                "engine_version": "14.00",
                "method": "blacklist",
                "result": "Trojan.Agent.S1333008"
            },
            "CMC": {
                "category": "undetected",
                "engine_name": "CMC",
                "engine_update": "20200825",
                "engine_version": "2.7.2019.1",
                "method": "blacklist",
                "result": null
            },
            "ClamAV": {
                "category": "undetected",
                "engine_name": "ClamAV",
                "engine_update": "20200825",
                "engine_version": "0.102.4.0",
                "method": "blacklist",
                "result": null
            },
            "Comodo": {
                "category": "malicious",
                "engine_name": "Comodo",
                "engine_update": "20200728",
                "engine_version": "32668",
                "method": "blacklist",
                "result": "Malware@#1cn0luibfarq6"
            },
            "CrowdStrike": {
                "category": "malicious",
                "engine_name": "CrowdStrike",
                "engine_update": "20190702",
                "engine_version": "1.0",
                "method": "blacklist",
                "result": "win/malicious_confidence_70% (D)"
            },
            "Cybereason": {
                "category": "malicious",
                "engine_name": "Cybereason",
                "engine_update": "20190616",
                "engine_version": "1.2.449",
                "method": "blacklist",
                "result": "malicious.0b404b"
            },
            "Cylance": {
                "category": "malicious",
                "engine_name": "Cylance",
                "engine_update": "20200826",
                "engine_version": "2.3.1.101",
                "method": "blacklist",
                "result": "Unsafe"
            },
            "Cynet": {
                "category": "undetected",
                "engine_name": "Cynet",
                "engine_update": "20200823",
                "engine_version": "4.0.0.24",
                "method": "blacklist",
                "result": null
            },
            "Cyren": {
                "category": "undetected",
                "engine_name": "Cyren",
                "engine_update": "20200826",
                "engine_version": "6.3.0.2",
                "method": "blacklist",
                "result": null
            },
            "DrWeb": {
                "category": "malicious",
                "engine_name": "DrWeb",
                "engine_update": "20200826",
                "engine_version": "7.0.46.3050",
                "method": "blacklist",
                "result": "Trojan.DownLoader25.16494"
            },
            "ESET-NOD32": {
                "category": "malicious",
                "engine_name": "ESET-NOD32",
                "engine_update": "20200826",
                "engine_version": "21882",
                "method": "blacklist",
                "result": "a variant of Win32/CoinMiner.DN potentially unwanted"
            },
            "Elastic": {
                "category": "malicious",
                "engine_name": "Elastic",
                "engine_update": "20200817",
                "engine_version": "4.0.7",
                "method": "blacklist",
                "result": "malicious (high confidence)"
            },
            "Emsisoft": {
                "category": "failure",
                "engine_name": "Emsisoft",
                "engine_update": "20200824",
                "engine_version": "2018.12.0.1641",
                "method": "blacklist",
                "result": null
            },
            "F-Secure": {
                "category": "malicious",
                "engine_name": "F-Secure",
                "engine_update": "20200826",
                "engine_version": "12.0.86.52",
                "method": "blacklist",
                "result": "Heuristic.HEUR/AGEN.1110281"
            },
            "FireEye": {
                "category": "malicious",
                "engine_name": "FireEye",
                "engine_update": "20200826",
                "engine_version": "32.36.1.0",
                "method": "blacklist",
                "result": "Generic.mg.edc626a0b404be58"
            },
            "Fortinet": {
                "category": "malicious",
                "engine_name": "Fortinet",
                "engine_update": "20200826",
                "engine_version": "6.2.142.0",
                "method": "blacklist",
                "result": "W32/Agent.IKOI!tr"
            },
            "GData": {
                "category": "malicious",
                "engine_name": "GData",
                "engine_update": "20200826",
                "engine_version": "A:25.26752B:27.19937",
                "method": "blacklist",
                "result": "Gen:Variant.Zusy.261562"
            },
            "Ikarus": {
                "category": "undetected",
                "engine_name": "Ikarus",
                "engine_update": "20200825",
                "engine_version": "0.1.5.2",
                "method": "blacklist",
                "result": null
            },
            "Invincea": {
                "category": "malicious",
                "engine_name": "Invincea",
                "engine_update": "20200502",
                "engine_version": "6.3.6.26157",
                "method": "blacklist",
                "result": "heuristic"
            },
            "Jiangmin": {
                "category": "malicious",
                "engine_name": "Jiangmin",
                "engine_update": "20200825",
                "engine_version": "16.0.100",
                "method": "blacklist",
                "result": "Trojan.Agent.ccog"
            },
            "K7AntiVirus": {
                "category": "malicious",
                "engine_name": "K7AntiVirus",
                "engine_update": "20200826",
                "engine_version": "11.132.35101",
                "method": "blacklist",
                "result": "Adware ( 0052353d1 )"
            },
            "K7GW": {
                "category": "malicious",
                "engine_name": "K7GW",
                "engine_update": "20200825",
                "engine_version": "11.132.35100",
                "method": "blacklist",
                "result": "Adware ( 0052353d1 )"
            },
            "Kaspersky": {
                "category": "malicious",
                "engine_name": "Kaspersky",
                "engine_update": "20200825",
                "engine_version": "15.0.1.13",
                "method": "blacklist",
                "result": "Trojan.Win32.Agent.ikoi"
            },
            "Kingsoft": {
                "category": "undetected",
                "engine_name": "Kingsoft",
                "engine_update": "20200826",
                "engine_version": "2013.8.14.323",
                "method": "blacklist",
                "result": null
            },
            "MAX": {
                "category": "malicious",
                "engine_name": "MAX",
                "engine_update": "20200826",
                "engine_version": "2019.9.16.1",
                "method": "blacklist",
                "result": "malware (ai score=85)"
            },
            "Malwarebytes": {
                "category": "undetected",
                "engine_name": "Malwarebytes",
                "engine_update": "20200825",
                "engine_version": "3.6.4.335",
                "method": "blacklist",
                "result": null
            },
            "MaxSecure": {
                "category": "failure",
                "engine_name": "MaxSecure",
                "engine_update": "20200824",
                "engine_version": "1.0.0.1",
                "method": "blacklist",
                "result": null
            },
            "McAfee": {
                "category": "malicious",
                "engine_name": "McAfee",
                "engine_update": "20200826",
                "engine_version": "6.0.6.653",
                "method": "blacklist",
                "result": "GenericRXCD-HU!EDC626A0B404"
            },
            "MicroWorld-eScan": {
                "category": "malicious",
                "engine_name": "MicroWorld-eScan",
                "engine_update": "20200826",
                "engine_version": "14.0.409.0",
                "method": "blacklist",
                "result": "Gen:Variant.Zusy.261562"
            },
            "Microsoft": {
                "category": "malicious",
                "engine_name": "Microsoft",
                "engine_update": "20200825",
                "engine_version": "1.1.17300.4",
                "method": "blacklist",
                "result": "Trojan:Win32/Wacatac.C!ml"
            },
            "NANO-Antivirus": {
                "category": "malicious",
                "engine_name": "NANO-Antivirus",
                "engine_update": "20200826",
                "engine_version": "1.0.134.25140",
                "method": "blacklist",
                "result": "Trojan.Win32.Agent.erypyu"
            },
            "Paloalto": {
                "category": "malicious",
                "engine_name": "Paloalto",
                "engine_update": "20200826",
                "engine_version": "1.0",
                "method": "blacklist",
                "result": "generic.ml"
            },
            "Panda": {
                "category": "malicious",
                "engine_name": "Panda",
                "engine_update": "20200825",
                "engine_version": "4.6.4.2",
                "method": "blacklist",
                "result": "Trj/Genetic.gen"
            },
            "Qihoo-360": {
                "category": "malicious",
                "engine_name": "Qihoo-360",
                "engine_update": "20200826",
                "engine_version": "1.0.0.1120",
                "method": "blacklist",
                "result": "Win32/Trojan.8c2"
            },
            "Rising": {
                "category": "malicious",
                "engine_name": "Rising",
                "engine_update": "20200825",
                "engine_version": "25.0.0.26",
                "method": "blacklist",
                "result": "Trojan.Agent!8.B1E (CLOUD)"
            },
            "SUPERAntiSpyware": {
                "category": "undetected",
                "engine_name": "SUPERAntiSpyware",
                "engine_update": "20200821",
                "engine_version": "5.6.0.1032",
                "method": "blacklist",
                "result": null
            },
            "Sangfor": {
                "category": "undetected",
                "engine_name": "Sangfor",
                "engine_update": "20200814",
                "engine_version": "1.0",
                "method": "blacklist",
                "result": null
            },
            "SentinelOne": {
                "category": "malicious",
                "engine_name": "SentinelOne",
                "engine_update": "20200724",
                "engine_version": "4.4.0.0",
                "method": "blacklist",
                "result": "DFI - Suspicious PE"
            },
            "Sophos": {
                "category": "malicious",
                "engine_name": "Sophos",
                "engine_update": "20200825",
                "engine_version": "4.98.0",
                "method": "blacklist",
                "result": "Generic PUA KH (PUA)"
            },
            "Symantec": {
                "category": "malicious",
                "engine_name": "Symantec",
                "engine_update": "20200825",
                "engine_version": "1.11.0.0",
                "method": "blacklist",
                "result": "ML.Attribute.HighConfidence"
            },
            "SymantecMobileInsight": {
                "category": "type-unsupported",
                "engine_name": "SymantecMobileInsight",
                "engine_update": "20200813",
                "engine_version": "2.0",
                "method": "blacklist",
                "result": null
            },
            "TACHYON": {
                "category": "undetected",
                "engine_name": "TACHYON",
                "engine_update": "20200826",
                "engine_version": "2020-08-26.01",
                "method": "blacklist",
                "result": null
            },
            "Tencent": {
                "category": "malicious",
                "engine_name": "Tencent",
                "engine_update": "20200826",
                "engine_version": "1.0.0.1",
                "method": "blacklist",
                "result": "Malware.Win32.Gencirc.10b1cf2b"
            },
            "TotalDefense": {
                "category": "undetected",
                "engine_name": "TotalDefense",
                "engine_update": "20200825",
                "engine_version": "37.1.62.1",
                "method": "blacklist",
                "result": null
            },
            "TrendMicro": {
                "category": "malicious",
                "engine_name": "TrendMicro",
                "engine_update": "20200826",
                "engine_version": "11.0.0.1006",
                "method": "blacklist",
                "result": "HT_AGENT_GI0703FE.UVPM"
            },
            "TrendMicro-HouseCall": {
                "category": "malicious",
                "engine_name": "TrendMicro-HouseCall",
                "engine_update": "20200826",
                "engine_version": "10.0.0.1040",
                "method": "blacklist",
                "result": "HT_AGENT_GI0703FE.UVPM"
            },
            "Trustlook": {
                "category": "type-unsupported",
                "engine_name": "Trustlook",
                "engine_update": "20200826",
                "engine_version": "1.0",
                "method": "blacklist",
                "result": null
            },
            "VBA32": {
                "category": "malicious",
                "engine_name": "VBA32",
                "engine_update": "20200825",
                "engine_version": "4.4.1",
                "method": "blacklist",
                "result": "Trojan.Agent"
            },
            "VIPRE": {
                "category": "malicious",
                "engine_name": "VIPRE",
                "engine_update": "20200826",
                "engine_version": "86208",
                "method": "blacklist",
                "result": "Trojan.Win32.Generic!BT"
            },
            "ViRobot": {
                "category": "undetected",
                "engine_name": "ViRobot",
                "engine_update": "20200825",
                "engine_version": "2014.3.20.0",
                "method": "blacklist",
                "result": null
            },
            "Webroot": {
                "category": "malicious",
                "engine_name": "Webroot",
                "engine_update": "20200826",
                "engine_version": "1.0.0.403",
                "method": "blacklist",
                "result": "W32.Trojan.Miner"
            },
            "Yandex": {
                "category": "malicious",
                "engine_name": "Yandex",
                "engine_update": "20200707",
                "engine_version": "5.5.2.24",
                "method": "blacklist",
                "result": "Trojan.Agent!sYs13aVXLFI"
            },
            "Zillya": {
                "category": "malicious",
                "engine_name": "Zillya",
                "engine_update": "20200825",
                "engine_version": "2.0.0.4160",
                "method": "blacklist",
                "result": "Trojan.Agent.Win32.815144"
            },
            "ZoneAlarm": {
                "category": "malicious",
                "engine_name": "ZoneAlarm",
                "engine_update": "20200826",
                "engine_version": "1.0",
                "method": "blacklist",
                "result": "Trojan.Win32.Agent.ikoi"
            },
            "Zoner": {
                "category": "undetected",
                "engine_name": "Zoner",
                "engine_update": "20200825",
                "engine_version": "0.0.0.0",
                "method": "blacklist",
                "result": null
            },
            "eGambit": {
                "category": "undetected",
                "engine_name": "eGambit",
                "engine_update": "20200826",
                "engine_version": null,
                "method": "blacklist",
                "result": null
            }
        },
        "last_analysis_stats": {
            "confirmed-timeout": 0,
            "failure": 2,
            "harmless": 0,
            "malicious": 49,
            "suspicious": 0,
            "timeout": 0,
            "type-unsupported": 3,
            "undetected": 19
        },
        "last_modification_date": 1607100741,
        "last_submission_date": 1502967939,
        "magic": "PE32 executable for MS Windows (GUI) Intel 80386 32-bit",
        "md5": "edc626a0b404be583d0ad27e3c5325ca",
        "meaningful_name": "CMMON32.exe",
        "names": [
            "CMMON32",
            "CMMON32.exe",
            "a70002753ce2b3ff7bb769ee3b973eed90d6f9c1"
        ],
        "pe_info": {
            "compiler_product_versions": [
                "id: 241, version: 40116 count=25",
                "id: 243, version: 40116 count=204",
                "id: 242, version: 40116 count=29",
                "[C++] VS2008 SP1 build 30729 count=1",
                "[ C ] VS2008 SP1 build 30729 count=12",
                "[IMP] VS2008 SP1 build 30729 count=33",
                "[---] Unmarked objects count=799",
                "id: 259, version: 23013 count=22",
                "id: 260, version: 23013 count=19",
                "id: 261, version: 23013 count=354",
                "[C++] VS2015 build 23026 count=3",
                "[RES] VS2015 build 23026 count=1",
                "id: 151, version: 0 count=1",
                "[LNK] VS2015 build 23026 count=1"
            ],
            "entry_point": 1772540,
            "imphash": "4803f8151840dcaef2154abb12df0283",
            "import_list": [
                {
                    "imported_functions": [
                        "GdipBitmapLockBits",
                        "GdipCreateBitmapFromFile",
                        "GdipGetImagePixelFormat",
                        "GdipCreateBitmapFromScan0",
                        "GdiplusShutdown",
                        "GdipGetImagePalette",
                        "GdipDisposeImage",
                        "GdipBitmapUnlockBits",
                        "GdiplusStartup",
                        "GdipCreateBitmapFromStreamICM",
                        "GdipDeleteGraphics",
                        "GdipCreateBitmapFromStream",
                        "GdipCreateFromHDC",
                        "GdipGetImageWidth",
                        "GdipCreateBitmapFromHBITMAP",
                        "GdipAlloc",
                        "GdipCreateBitmapFromFileICM",
                        "GdipGetImagePaletteSize",
                        "GdipDrawImageI",
                        "GdipDrawImageRectI",
                        "GdipSetInterpolationMode",
                        "GdipFree",
                        "GdipGetImageHeight",
                        "GdipCloneImage",
                        "GdipGetImageGraphicsContext"
                    ],
                    "library_name": "gdiplus.dll"
                },
                {
                    "imported_functions": [
                        "ReplaceFileA",
                        "GetStdHandle",
                        "VerifyVersionInfoA",
                        "FileTimeToSystemTime",
                        "GetFileAttributesA",
                        "WaitForSingleObject",
                        "SetEndOfFile",
                        "HeapDestroy",
                        "EncodePointer",
                        "DuplicateHandle",
                        "SystemTimeToTzSpecificLocalTime",
                        "SetFileAttributesA",
                        "DeleteCriticalSection",
                        "GetCurrentProcess",
                        "GetConsoleMode",
                        "LocalAlloc",
                        "UnhandledExceptionFilter",
                        "SetErrorMode",
                        "GetSystemDirectoryW",
                        "FreeEnvironmentStringsW",
                        "InitializeSListHead",
                        "GetThreadContext",
                        "GetLocaleInfoW",
                        "SetStdHandle",
                        "GetFileTime",
                        "GetTempPathA",
                        "WideCharToMultiByte",
                        "lstrcmpiA",
                        "WriteFile",
                        "GetSystemTimeAsFileTime",
                        "HeapReAlloc",
                        "GetStringTypeW",
                        "GetFullPathNameA",
                        "SetEvent",
                        "LocalFree",
                        "MoveFileA",
                        "ResumeThread",
                        "InterlockedPushEntrySList",
                        "InitializeCriticalSection",
                        "LoadResource",
                        "GlobalHandle",
                        "FindClose",
                        "TlsGetValue",
                        "FormatMessageA",
                        "GetStringTypeExA",
                        "OutputDebugStringA",
                        "FreeLibraryAndExitThread",
                        "SetLastError",
                        "GetUserDefaultUILanguage",
                        "LocalLock",
                        "WriteProcessMemory",
                        "OutputDebugStringW",
                        "GetModuleFileNameW",
                        "CopyFileA",
                        "ExitProcess",
                        "FlushFileBuffers",
                        "GetModuleFileNameA",
                        "QueryPerformanceFrequency",
                        "GetSystemDefaultUILanguage",
                        "LoadLibraryExA",
                        "GetPrivateProfileStringA",
                        "SetConsoleCtrlHandler",
                        "GetUserDefaultLCID",
                        "EnumSystemLocalesW",
                        "LoadLibraryExW",
                        "MultiByteToWideChar",
                        "SetFilePointerEx",
                        "GetProfileIntA",
                        "SetFilePointer",
                        "CreateThread",
                        "SetEnvironmentVariableW",
                        "InterlockedFlushSList",
                        "GlobalAddAtomA",
                        "SetUnhandledExceptionFilter",
                        "WaitForSingleObjectEx",
                        "MulDiv",
                        "IsProcessorFeaturePresent",
                        "ExitThread",
                        "DecodePointer",
                        "SetEnvironmentVariableA",
                        "SetThreadContext",
                        "TerminateProcess",
                        "GetModuleHandleExW",
                        "VirtualQuery",
                        "LocalFileTimeToFileTime",
                        "VirtualQueryEx",
                        "CreateEventW",
                        "ReadConsoleW",
                        "GetCurrentThreadId",
                        "WriteConsoleW",
                        "SearchPathA",
                        "InitializeCriticalSectionAndSpinCount",
                        "HeapFree",
                        "EnterCriticalSection",
                        "LoadLibraryW",
                        "GetExitCodeProcess",
                        "QueryPerformanceCounter",
                        "GetTickCount",
                        "TlsAlloc",
                        "VirtualProtect",
                        "GetVersionExA",
                        "LoadLibraryA",
                        "RtlUnwind",
                        "FreeLibrary",
                        "GlobalSize",
                        "UnlockFile",
                        "GetFileSize",
                        "GlobalDeleteAtom",
                        "GetPrivateProfileIntA",
                        "CreateDirectoryA",
                        "DeleteFileA",
                        "GetWindowsDirectoryA",
                        "GetDateFormatW",
                        "GetStartupInfoW",
                        "ReadProcessMemory",
                        "GetCPInfo",
                        "GlobalLock",
                        "VirtualProtectEx",
                        "GetProcessHeap",
                        "GetTimeFormatW",
                        "GetFileSizeEx",
                        "GlobalReAlloc",
                        "lstrcmpA",
                        "FindFirstFileExA",
                        "FindNextFileW",
                        "lstrcpyA",
                        "CompareStringA",
                        "GetTempFileNameA",
                        "FindNextFileA",
                        "IsValidLocale",
                        "lstrcmpW",
                        "FindFirstFileExW",
                        "GetProcAddress",
                        "GetTimeZoneInformation",
                        "CreateFileW",
                        "CreateEventA",
                        "GlobalFindAtomA",
                        "GetFileType",
                        "TlsSetValue",
                        "CreateFileA",
                        "HeapAlloc",
                        "LocalUnlock",
                        "LeaveCriticalSection",
                        "GetLastError",
                        "LocalReAlloc",
                        "SystemTimeToFileTime",
                        "LCMapStringW",
                        "GetSystemInfo",
                        "lstrlenA",
                        "GlobalFree",
                        "GetConsoleCP",
                        "CompareStringW",
                        "GlobalGetAtomNameA",
                        "GetThreadLocale",
                        "GetEnvironmentStringsW",
                        "GlobalUnlock",
                        "GlobalAlloc",
                        "GetShortPathNameA",
                        "CreateProcessW",
                        "LockFile",
                        "FileTimeToLocalFileTime",
                        "SizeofResource",
                        "GetFileAttributesExA",
                        "WritePrivateProfileStringA",
                        "GetCurrentProcessId",
                        "LockResource",
                        "SetFileTime",
                        "GetCommandLineW",
                        "HeapQueryInformation",
                        "GetCurrentDirectoryA",
                        "HeapSize",
                        "IsDebuggerPresent",
                        "GetCommandLineA",
                        "VerSetConditionMask",
                        "GetCurrentThread",
                        "SuspendThread",
                        "RaiseException",
                        "TlsFree",
                        "GetModuleHandleA",
                        "ReadFile",
                        "GlobalFlags",
                        "GetAtomNameA",
                        "FindFirstFileA",
                        "CloseHandle",
                        "GetVolumeInformationA",
                        "GetACP",
                        "GetModuleHandleW",
                        "FreeResource",
                        "GetDiskFreeSpaceA",
                        "GetFileAttributesExW",
                        "FindResourceExW",
                        "CreateProcessA",
                        "IsValidCodePage",
                        "FindResourceW",
                        "VirtualFree",
                        "Sleep",
                        "SetThreadPriority",
                        "FindResourceA",
                        "VirtualAlloc",
                        "GetOEMCP",
                        "ResetEvent"
                    ],
                    "library_name": "KERNEL32.dll"
                },
                {
                    "imported_functions": [
                        "IsAppThemed",
                        "GetThemeSysColor",
                        "GetWindowTheme",
                        "GetCurrentThemeName",
                        "DrawThemeText",
                        "OpenThemeData",
                        "DrawThemeParentBackground",
                        "CloseThemeData",
                        "DrawThemeBackground",
                        "GetThemeColor",
                        "IsThemeBackgroundPartiallyTransparent",
                        "GetThemePartSize"
                    ],
                    "library_name": "UxTheme.dll"
                },
                {
                    "imported_functions": [
                        "Ord(8)"
                    ],
                    "library_name": "oledlg.dll"
                },
                {
                    "imported_functions": [
                        "SHGetFileInfoA",
                        "ExtractIconA",
                        "ShellExecuteExA",
                        "SHAddToRecentDocs",
                        "DragFinish",
                        "SHGetDesktopFolder",
                        "SHGetSpecialFolderLocation",
                        "SHBrowseForFolderA",
                        "SHAppBarMessage",
                        "DragQueryFileA",
                        "SHGetPathFromIDListA",
                        "SHGetMalloc",
                        "ShellExecuteA"
                    ],
                    "library_name": "SHELL32.dll"
                },
                {
                    "imported_functions": [
                        "CreateStdAccessibleObject",
                        "AccessibleObjectFromWindow",
                        "LresultFromObject"
                    ],
                    "library_name": "OLEACC.dll"
                },
                {
                    "imported_functions": [
                        "SysStringLen",
                        "SysStringByteLen",
                        "VarBstrFromDec",
                        "VarDecFromStr",
                        "SafeArrayDestroyData",
                        "SysAllocString",
                        "SafeArrayCreate",
                        "SafeArrayAllocDescriptor",
                        "VariantCopy",
                        "SafeArrayGetElemsize",
                        "VariantInit",
                        "SafeArrayAllocData",
                        "SafeArrayDestroyDescriptor",
                        "SafeArrayAccessData",
                        "SafeArrayGetLBound",
                        "VarBstrFromDate",
                        "SafeArrayUnaccessData",
                        "SafeArrayDestroy",
                        "SafeArrayUnlock",
                        "SafeArrayGetUBound",
                        "LoadTypeLib",
                        "SysFreeString",
                        "SysAllocStringByteLen",
                        "SafeArrayLock",
                        "LoadRegTypeLib",
                        "VariantChangeType",
                        "SafeArrayGetElement",
                        "SafeArrayPtrOfIndex",
                        "VarBstrFromCy",
                        "VarCyFromStr",
                        "SafeArrayRedim",
                        "SafeArrayCopy",
                        "VariantTimeToSystemTime",
                        "SystemTimeToVariantTime",
                        "RegisterTypeLib",
                        "SysAllocStringLen",
                        "VariantClear",
                        "SysReAllocStringLen",
                        "VarDateFromStr",
                        "SafeArrayGetDim",
                        "SafeArrayPutElement"
                    ],
                    "library_name": "OLEAUT32.dll"
                },
                {
                    "imported_functions": [
                        "PlaySoundA"
                    ],
                    "library_name": "WINMM.dll"
                },
                {
                    "imported_functions": [
                        "ImmReleaseContext",
                        "ImmGetOpenStatus",
                        "ImmGetContext"
                    ],
                    "library_name": "IMM32.dll"
                },
                {
                    "imported_functions": [
                        "SetMapMode",
                        "GetWindowOrgEx",
                        "CreateMetaFileA",
                        "GetNearestColor",
                        "GetPaletteEntries",
                        "CombineRgn",
                        "PlayMetaFile",
                        "GetROP2",
                        "GetViewportOrgEx",
                        "GetObjectType",
                        "SetColorAdjustment",
                        "GetBoundsRect",
                        "GetTextExtentPointA",
                        "SetLayout",
                        "SetPixel",
                        "EndDoc",
                        "DeleteObject",
                        "SetPaletteEntries",
                        "GetTextFaceA",
                        "OffsetWindowOrgEx",
                        "CreateEllipticRgn",
                        "CreatePalette",
                        "CreateDIBitmap",
                        "GetPolyFillMode",
                        "GetDIBits",
                        "SetTextAlign",
                        "StretchBlt",
                        "StretchDIBits",
                        "ScaleViewportExtEx",
                        "ArcTo",
                        "GetTextMetricsA",
                        "CloseMetaFile",
                        "ExtCreatePen",
                        "SetBkColor",
                        "GetBkColor",
                        "SetRectRgn",
                        "MoveToEx",
                        "GetTextCharsetInfo",
                        "GetSystemPaletteEntries",
                        "OffsetRgn",
                        "GetCurrentPositionEx",
                        "TextOutA",
                        "CreateFontIndirectA",
                        "CreateRectRgnIndirect",
                        "LPtoDP",
                        "GetPixel",
                        "GetLayout",
                        "PolyDraw",
                        "SetWindowExtEx",
                        "OffsetViewportOrgEx",
                        "SetBkMode",
                        "PtInRegion",
                        "OffsetClipRgn",
                        "BitBlt",
                        "EnumFontFamiliesA",
                        "GetDeviceCaps",
                        "FillRgn",
                        "SetAbortProc",
                        "FrameRgn",
                        "ScaleWindowExtEx",
                        "PtVisible",
                        "ExtSelectClipRgn",
                        "SelectPalette",
                        "SetROP2",
                        "EndPage",
                        "GetNearestPaletteIndex",
                        "SetDIBColorTable",
                        "GetTextColor",
                        "SetPixelV",
                        "SetViewportExtEx",
                        "CreateCompatibleDC",
                        "SetGraphicsMode",
                        "PlayMetaFileRecord",
                        "GetWindowExtEx",
                        "PatBlt",
                        "CreatePen",
                        "SetStretchBltMode",
                        "Rectangle",
                        "PolylineTo",
                        "GetObjectA",
                        "CreateDCA",
                        "LineTo",
                        "DeleteDC",
                        "SetWorldTransform",
                        "GetMapMode",
                        "EnumMetaFile",
                        "StartPage",
                        "GetCharWidthA",
                        "RealizePalette",
                        "CreateHatchBrush",
                        "CreatePatternBrush",
                        "IntersectClipRect",
                        "SelectClipPath",
                        "RectVisible",
                        "GetStockObject",
                        "GetBkMode",
                        "ExtTextOutA",
                        "SelectClipRgn",
                        "RoundRect",
                        "GetTextAlign",
                        "GetTextExtentPoint32A",
                        "SetWindowOrgEx",
                        "GetClipRgn",
                        "GetViewportExtEx",
                        "SetTextCharacterExtra",
                        "GetTextExtentPoint32W",
                        "CreateDIBPatternBrushPt",
                        "CreatePolygonRgn",
                        "Polygon",
                        "GetRgnBox",
                        "SaveDC",
                        "ModifyWorldTransform",
                        "RestoreDC",
                        "SetMapperFlags",
                        "CreateSolidBrush",
                        "CreateBitmap",
                        "CreateDIBSection",
                        "SetTextColor",
                        "ExtFloodFill",
                        "GetCurrentObject",
                        "ExcludeClipRect",
                        "GetClipBox",
                        "CreateFontA",
                        "SetViewportOrgEx",
                        "SetArcDirection",
                        "CreateRoundRectRgn",
                        "EnumFontFamiliesExA",
                        "PolyBezierTo",
                        "CreateRectRgn",
                        "Escape",
                        "SelectObject",
                        "StartDocA",
                        "SetPolyFillMode",
                        "Ellipse",
                        "SetTextJustification",
                        "GetStretchBltMode",
                        "Polyline",
                        "DPtoLP",
                        "CopyMetaFileA",
                        "AbortDoc",
                        "CreateCompatibleBitmap",
                        "DeleteMetaFile"
                    ],
                    "library_name": "GDI32.dll"
                },
                {
                    "imported_functions": [
                        "OpenPrinterA",
                        "DocumentPropertiesA",
                        "ClosePrinter",
                        "GetJobA"
                    ],
                    "library_name": "WINSPOOL.DRV"
                },
                {
                    "imported_functions": [
                        "RegDeleteKeyA",
                        "RegCloseKey",
                        "OpenServiceA",
                        "RegQueryValueExA",
                        "RegSetValueA",
                        "RegCreateKeyExA",
                        "CloseServiceHandle",
                        "RegOpenKeyA",
                        "RegQueryValueA",
                        "RegOpenKeyExW",
                        "SystemFunction036",
                        "GetFileSecurityA",
                        "RegEnumKeyA",
                        "RegEnumValueA",
                        "SetServiceStatus",
                        "RegOpenKeyExA",
                        "SetFileSecurityA",
                        "RegEnumKeyExA",
                        "RegisterServiceCtrlHandlerA",
                        "StartServiceCtrlDispatcherA",
                        "CreateServiceA",
                        "RegSetValueExA",
                        "StartServiceA",
                        "RegDeleteValueA",
                        "OpenSCManagerA"
                    ],
                    "library_name": "ADVAPI32.dll"
                },
                {
                    "imported_functions": [
                        "OleLockRunning",
                        "CLSIDFromProgID",
                        "OleCreateFromData",
                        "OleTranslateAccelerator",
                        "OleRun",
                        "OleUninitialize",
                        "OleDestroyMenuDescriptor",
                        "DoDragDrop",
                        "CoRegisterMessageFilter",
                        "StgOpenStorageOnILockBytes",
                        "CreateFileMoniker",
                        "OleDuplicateData",
                        "CoInitialize",
                        "CoTaskMemFree",
                        "OleCreateLinkToFile",
                        "StringFromGUID2",
                        "ReadClassStg",
                        "CreateStreamOnHGlobal",
                        "CreateItemMoniker",
                        "OleFlushClipboard",
                        "IsAccelerator",
                        "OleRegGetMiscStatus",
                        "RegisterDragDrop",
                        "OleCreateLinkFromData",
                        "GetHGlobalFromILockBytes",
                        "OleCreateFromFile",
                        "RevokeDragDrop",
                        "OleSave",
                        "OleGetIconOfClass",
                        "CoCreateGuid",
                        "ReadFmtUserTypeStg",
                        "OleGetClipboard",
                        "StgCreateDocfileOnILockBytes",
                        "OleCreate",
                        "CreateOleAdviseHolder",
                        "CreateILockBytesOnHGlobal",
                        "CoGetMalloc",
                        "CoGetClassObject",
                        "CoRegisterClassObject",
                        "OleRegGetUserType",
                        "OleInitialize",
                        "CoLockObjectExternal",
                        "OleCreateStaticFromData",
                        "CoCreateInstance",
                        "OleRegEnumVerbs",
                        "StgOpenStorage",
                        "OleIsRunning",
                        "OleLoad",
                        "PropVariantCopy",
                        "OleQueryCreateFromData",
                        "CoTaskMemAlloc",
                        "CoInitializeEx",
                        "OleQueryLinkFromData",
                        "CLSIDFromString",
                        "CreateDataAdviseHolder",
                        "StgIsStorageFile",
                        "WriteClassStm",
                        "CoUninitialize",
                        "OleSaveToStream",
                        "OleCreateMenuDescriptor",
                        "WriteClassStg",
                        "CoRevokeClassObject",
                        "CoFreeUnusedLibraries",
                        "StringFromCLSID",
                        "GetRunningObjectTable",
                        "ReleaseStgMedium",
                        "CoDisconnectObject",
                        "OleSetMenuDescriptor",
                        "WriteFmtUserTypeStg",
                        "CoTreatAsClass",
                        "OleSetContainedObject",
                        "OleIsCurrentClipboard",
                        "StgCreateDocfile",
                        "OleSetClipboard",
                        "SetConvertStg",
                        "CreateGenericComposite",
                        "CreateBindCtx"
                    ],
                    "library_name": "ole32.dll"
                },
                {
                    "imported_functions": [
                        "StrFormatKBSizeA",
                        "PathFindExtensionA",
                        "PathIsUNCA",
                        "PathRemoveExtensionA",
                        "PathRemoveFileSpecW",
                        "PathStripToRootA",
                        "PathFindFileNameA",
                        "PathFileExistsA"
                    ],
                    "library_name": "SHLWAPI.dll"
                },
                {
                    "imported_functions": [
                        "RedrawWindow",
                        "RegisterClipboardFormatA",
                        "GetForegroundWindow",
                        "SetWindowRgn",
                        "SetMenuItemBitmaps",
                        "LoadBitmapW",
                        "DrawStateA",
                        "MoveWindow",
                        "EnableScrollBar",
                        "DestroyMenu",
                        "GetUpdateRect",
                        "PostQuitMessage",
                        "GetMessagePos",
                        "SetWindowPos",
                        "GetNextDlgTabItem",
                        "IsWindow",
                        "DispatchMessageA",
                        "EndPaint",
                        "ScrollWindowEx",
                        "GetWindowLongA",
                        "SetMenuItemInfoA",
                        "CharUpperBuffA",
                        "GrayStringA",
                        "WindowFromPoint",
                        "DrawIcon",
                        "GetMessageTime",
                        "SetActiveWindow",
                        "GetMenuItemID",
                        "GetAsyncKeyState",
                        "MapDialogRect",
                        "GetDlgCtrlID",
                        "GetClassInfoA",
                        "GetKeyState",
                        "GetMenu",
                        "UnregisterClassA",
                        "IsClipboardFormatAvailable",
                        "SendMessageA",
                        "GetClientRect",
                        "SetMenuDefaultItem",
                        "CopyAcceleratorTableA",
                        "SetScrollPos",
                        "InSendMessage",
                        "CallNextHookEx",
                        "LoadAcceleratorsA",
                        "GetWindowTextLengthA",
                        "CharUpperA",
                        "LoadImageW",
                        "GetKeyboardState",
                        "GetTopWindow",
                        "LoadImageA",
                        "GetTabbedTextExtentW",
                        "LoadAcceleratorsW",
                        "GetMenuItemCount",
                        "GetWindowTextA",
                        "CopyImage",
                        "PtInRect",
                        "DrawEdge",
                        "GetParent",
                        "UpdateWindow",
                        "SetPropA",
                        "EqualRect",
                        "CheckRadioButton",
                        "GetClassInfoExA",
                        "ShowWindow",
                        "SetClassLongA",
                        "GetPropA",
                        "GetNextDlgGroupItem",
                        "SetDlgItemInt",
                        "TranslateMDISysAccel",
                        "GetTabbedTextExtentA",
                        "EnableWindow",
                        "SetWindowPlacement",
                        "LockWindowUpdate",
                        "GetDlgItemTextA",
                        "PeekMessageA",
                        "TranslateMessage",
                        "IsWindowEnabled",
                        "GetWindow",
                        "GetMenuDefaultItem",
                        "GetDlgItemInt",
                        "GetMenuBarInfo",
                        "InsertMenuItemA",
                        "GetIconInfo",
                        "SetParent",
                        "SetClipboardData",
                        "ScrollWindow",
                        "IsCharLowerA",
                        "IsZoomed",
                        "GetWindowPlacement",
                        "MapVirtualKeyExA",
                        "GetWindowRgn",
                        "WindowFromDC",
                        "DrawMenuBar",
                        "IsIconic",
                        "RegisterClassA",
                        "TrackPopupMenuEx",
                        "TabbedTextOutA",
                        "DrawFocusRect",
                        "SetTimer",
                        "GetActiveWindow",
                        "ShowOwnedPopups",
                        "FillRect",
                        "MonitorFromPoint",
                        "CopyRect",
                        "GetSysColorBrush",
                        "GetDialogBaseUnits",
                        "RealChildWindowFromPoint",
                        "ReleaseDC",
                        "CreateMenu",
                        "GetCursorPos",
                        "DestroyWindow",
                        "IsChild",
                        "IsDialogMessageA",
                        "MapWindowPoints",
                        "SendNotifyMessageA",
                        "MapVirtualKeyA",
                        "GetMessageA",
                        "PostMessageA",
                        "BeginPaint",
                        "OffsetRect",
                        "SetFocus",
                        "GetScrollPos",
                        "CopyIcon",
                        "KillTimer",
                        "GetMonitorInfoA",
                        "TrackMouseEvent",
                        "GetComboBoxInfo",
                        "RegisterWindowMessageA",
                        "DefWindowProcA",
                        "ToAsciiEx",
                        "SendDlgItemMessageA",
                        "GetSystemMetrics",
                        "EnableMenuItem",
                        "SetScrollRange",
                        "GetWindowRect",
                        "InflateRect",
                        "InvertRect",
                        "SetCapture",
                        "ReleaseCapture",
                        "EnumChildWindows",
                        "GetScrollRange",
                        "SetWindowLongA",
                        "CheckDlgButton",
                        "RemovePropA",
                        "CreatePopupMenu",
                        "CheckMenuItem",
                        "GetSubMenu",
                        "GetLastActivePopup",
                        "DrawIconEx",
                        "CreateWindowExA",
                        "GetDlgItem",
                        "GetMenuCheckMarkDimensions",
                        "BringWindowToTop",
                        "ClientToScreen",
                        "GetClassLongA",
                        "InsertMenuA",
                        "CreateDialogIndirectParamA",
                        "LoadCursorA",
                        "LoadIconA",
                        "TrackPopupMenu",
                        "SetWindowsHookExA",
                        "GetMenuStringA",
                        "IsDlgButtonChecked",
                        "DestroyAcceleratorTable",
                        "GetMenuState",
                        "GetKeyboardLayout",
                        "LoadCursorW",
                        "GetSystemMenu",
                        "ReuseDDElParam",
                        "GetDC",
                        "SetForegroundWindow",
                        "NotifyWinEvent",
                        "PostThreadMessageA",
                        "OpenClipboard",
                        "EmptyClipboard",
                        "DrawTextA",
                        "IntersectRect",
                        "SetLayeredWindowAttributes",
                        "GetScrollInfo",
                        "LoadMenuA",
                        "HideCaret",
                        "GetCapture",
                        "WaitMessage",
                        "ScreenToClient",
                        "SetWindowTextA",
                        "MessageBeep",
                        "LoadMenuW",
                        "DrawTextExA",
                        "RemoveMenu",
                        "GetWindowThreadProcessId",
                        "DeferWindowPos",
                        "ShowScrollBar",
                        "AppendMenuA",
                        "DrawFrameControl",
                        "SetMenu",
                        "SetDlgItemTextA",
                        "SetRectEmpty",
                        "CallWindowProcA",
                        "MessageBoxA",
                        "IsMenu",
                        "GetWindowDC",
                        "DestroyCursor",
                        "AdjustWindowRectEx",
                        "GetSysColor",
                        "EndDialog",
                        "SetScrollInfo",
                        "GetMenuItemInfoA",
                        "EndDeferWindowPos",
                        "SystemParametersInfoA",
                        "UpdateLayeredWindow",
                        "GetDoubleClickTime",
                        "DestroyIcon",
                        "EnumDisplayMonitors",
                        "GetKeyNameTextA",
                        "BeginDeferWindowPos",
                        "DefMDIChildProcA",
                        "GetDesktopWindow",
                        "SubtractRect",
                        "UnpackDDElParam",
                        "SetCursorPos",
                        "GetDCEx",
                        "WinHelpA",
                        "LoadIconW",
                        "UnionRect",
                        "MonitorFromWindow",
                        "FrameRect",
                        "SetRect",
                        "DeleteMenu",
                        "InvalidateRect",
                        "DefFrameProcA",
                        "CreateAcceleratorTableA",
                        "TranslateAcceleratorA",
                        "ValidateRect",
                        "IsRectEmpty",
                        "GetClassNameA",
                        "GetFocus",
                        "CloseClipboard",
                        "IsWindowVisible",
                        "ModifyMenuA",
                        "UnhookWindowsHookEx",
                        "SetCursor"
                    ],
                    "library_name": "USER32.dll"
                },
                {
                    "imported_functions": [
                        "TransparentBlt",
                        "AlphaBlend"
                    ],
                    "library_name": "MSIMG32.dll"
                }
            ],
            "machine_type": 332,
            "resource_details": [
                {
                    "chi2": 20527.75,
                    "entropy": 3.026951551437378,
                    "filetype": "Data",
                    "lang": "CHINESE SIMPLIFIED",
                    "sha256": "fbeb3be87e80cb8e1d2af3d8140796c1bb80c6c7056f60897088ff9e355c3867",
                    "type": "RT_CURSOR"
                },
                {
                    "chi2": 18573.416015625,
                    "entropy": 2.7427444458007812,
                    "filetype": "Data",
                    "lang": "CHINESE SIMPLIFIED",
                    "sha256": "f64ccc0582bc7c66af8b40049e485e8e241335261ec95ace909293ba50b2e4a3",
                    "type": "RT_CURSOR"
                },
                {
                    "chi2": 25932.00390625,
                    "entropy": 2.3403780460357666,
                    "filetype": "Data",
                    "lang": "CHINESE SIMPLIFIED",
                    "sha256": "652988945185cf5d604d9b48de66288d82d8ed0acdd134398e90d002d2d9fc72",
                    "type": "RT_CURSOR"
                },
                {
                    "chi2": 25714.23828125,
                    "entropy": 2.3400356769561768,
                    "filetype": "Data",
                    "lang": "CHINESE SIMPLIFIED",
                    "sha256": "0b0e16c38a3d5a85566e67b1d9a7e720e4dee27e163b06099d3d7dfa5dbed9ee",
                    "type": "RT_CURSOR"
                },
                {
                    "chi2": 23739.37109375,
                    "entropy": 2.5164902210235596,
                    "filetype": "Data",
                    "lang": "CHINESE SIMPLIFIED",
                    "sha256": "368f9cb089d206a8b61251f0c85eeda97ee08a56b33be8579246e964d3af6169",
                    "type": "RT_CURSOR"
                },
                {
                    "chi2": 24244.720703125,
                    "entropy": 2.4540092945098877,
                    "filetype": "Data",
                    "lang": "CHINESE SIMPLIFIED",
                    "sha256": "6440c3a38dcfb81d45bc6be31b776fdae116dd7a2933b407b67132f6cfa0e6eb",
                    "type": "RT_CURSOR"
                },
                {
                    "chi2": 26429.05078125,
                    "entropy": 2.348637342453003,
                    "filetype": "Data",
                    "lang": "CHINESE SIMPLIFIED",
                    "sha256": "9882a8462ce9de3cc9a5d0ca48c8c4f7ca97f1f846f0c10e6655e33c9734b152",
                    "type": "RT_CURSOR"
                },
                {
                    "chi2": 26435.69921875,
                    "entropy": 2.345054864883423,
                    "filetype": "Data",
                    "lang": "CHINESE SIMPLIFIED",
                    "sha256": "322e92d75b3fec9e16b81466f4cf111d298b80812d5b238f4ee032c025a02050",
                    "type": "RT_CURSOR"
                },
                {
                    "chi2": 26429.05078125,
                    "entropy": 2.348637342453003,
                    "filetype": "Data",
                    "lang": "CHINESE SIMPLIFIED",
                    "sha256": "8db6df648274a0fc3d28430367216e1c17c364ca613066cbb0e133637e92ba62",
                    "type": "RT_CURSOR"
                },
                {
                    "chi2": 26837.984375,
                    "entropy": 2.3111374378204346,
                    "filetype": "Data",
                    "lang": "CHINESE SIMPLIFIED",
                    "sha256": "f9c81ce9b4176b305c554a15f0ca2b98b11be76c1f13ef22169999aa07e9612f",
                    "type": "RT_CURSOR"
                },
                {
                    "chi2": 16714.326171875,
                    "entropy": 3.3360934257507324,
                    "filetype": "Data",
                    "lang": "CHINESE SIMPLIFIED",
                    "sha256": "601635482a9b1864ea0c61ce0282c5c9fe1d014aa95dbb4f60770f1c2b6df3da",
                    "type": "RT_CURSOR"
                },
                {
                    "chi2": 20248.46484375,
                    "entropy": 2.8131332397460938,
                    "filetype": "Data",
                    "lang": "CHINESE SIMPLIFIED",
                    "sha256": "2bf742d2beb4c56dd6eb68347dd8ee28da85bed9e6d165b36c6edb91da01d5d6",
                    "type": "RT_CURSOR"
                },
                {
                    "chi2": 11233.6103515625,
                    "entropy": 3.8149096965789795,
                    "filetype": "Data",
                    "lang": "CHINESE SIMPLIFIED",
                    "sha256": "cfc4ff9e46fbb61f61b68f36adc6593b137233d1cbaa50fe37e5653f0cb20396",
                    "type": "RT_CURSOR"
                },
                {
                    "chi2": 30411.99609375,
                    "entropy": 2.1001555919647217,
                    "filetype": "Data",
                    "lang": "CHINESE SIMPLIFIED",
                    "sha256": "c4a6e3a7a346baecb09a0c49268eb44f388382a7866a4e912b53d48fa3b34c26",
                    "type": "RT_CURSOR"
                },
                {
                    "chi2": 31043.689453125,
                    "entropy": 1.9705222845077515,
                    "filetype": "Data",
                    "lang": "CHINESE SIMPLIFIED",
                    "sha256": "f273e554605a89aa0994c9d42bc2569be3db5b19b2900dacb30f3218ed1174a0",
                    "type": "RT_CURSOR"
                },
                {
                    "chi2": 28832.78125,
                    "entropy": 2.2269911766052246,
                    "filetype": "Data",
                    "lang": "CHINESE SIMPLIFIED",
                    "sha256": "ebaf4bcc0f0d7ca9a3458ea52520d2dd10811069241940b9b2e79ac1a4c3ca5c",
                    "type": "RT_CURSOR"
                },
                {
                    "chi2": 15874.4365234375,
                    "entropy": 2.236664295196533,
                    "filetype": "Data",
                    "lang": "CHINESE SIMPLIFIED",
                    "sha256": "e7c0005285d1ab59732d5f99f77a9bdd6342b01cf44437ebd7a07611a227e272",
                    "type": "RT_BITMAP"
                },
                {
                    "chi2": 15870.369140625,
                    "entropy": 2.876206636428833,
                    "filetype": "Data",
                    "lang": "CHINESE SIMPLIFIED",
                    "sha256": "abdf36bde89a26349f5741c17c235dacea88d441d8662ba16a598dc50c3c4864",
                    "type": "RT_BITMAP"
                },
                {
                    "chi2": 1253.0291748046875,
                    "entropy": 7.921874523162842,
                    "filetype": "image/x-png",
                    "lang": "ENGLISH US",
                    "sha256": "4557898bc2794b79a978b4b35da3bf8b49d8478a5708a3e1f91cd6111453658d",
                    "type": "RT_ICON"
                },
                {
                    "chi2": 1253.0291748046875,
                    "entropy": 7.921874523162842,
                    "filetype": "image/x-png",
                    "lang": "ENGLISH US",
                    "sha256": "4557898bc2794b79a978b4b35da3bf8b49d8478a5708a3e1f91cd6111453658d",
                    "type": "RT_ICON"
                },
                {
                    "chi2": 1253.0291748046875,
                    "entropy": 7.921874523162842,
                    "filetype": "image/x-png",
                    "lang": "ENGLISH US",
                    "sha256": "4557898bc2794b79a978b4b35da3bf8b49d8478a5708a3e1f91cd6111453658d",
                    "type": "RT_ICON"
                },
                {
                    "chi2": 168370.296875,
                    "entropy": 2.6524877548217773,
                    "filetype": "Data",
                    "lang": "ENGLISH US",
                    "sha256": "4dd7c594b66fe7957b56324e81a9508c986b045cd4f47f6a376ed8c88167b07f",
                    "type": "RT_ICON"
                },
                {
                    "chi2": 78714.375,
                    "entropy": 2.4379725456237793,
                    "filetype": "Data",
                    "lang": "ENGLISH US",
                    "sha256": "a678afb31e10b66957db1b572de75d00cbec3ca89ada86561b8b948d613b1bfe",
                    "type": "RT_ICON"
                },
                {
                    "chi2": 31818.16796875,
                    "entropy": 2.1712148189544678,
                    "filetype": "Data",
                    "lang": "ENGLISH US",
                    "sha256": "4fd9c1064d438c15ca933202f65a5121a6a6521729417a363471f55e17053a16",
                    "type": "RT_ICON"
                },
                {
                    "chi2": 1343.7166748046875,
                    "entropy": 7.984559535980225,
                    "filetype": "image/x-png",
                    "lang": "ENGLISH US",
                    "sha256": "a202800334544c582f7fb9dffe282ef3b04ad9a653abf67c9b6018c2160149dd",
                    "type": "RT_ICON"
                },
                {
                    "chi2": 1343.7166748046875,
                    "entropy": 7.984559535980225,
                    "filetype": "image/x-png",
                    "lang": "ENGLISH US",
                    "sha256": "a202800334544c582f7fb9dffe282ef3b04ad9a653abf67c9b6018c2160149dd",
                    "type": "RT_ICON"
                },
                {
                    "chi2": 510409.53125,
                    "entropy": 2.0576322078704834,
                    "filetype": "Data",
                    "lang": "ENGLISH US",
                    "sha256": "0a7fd0f5026536a71058f08c27dcc41c6c683150923e37e712b732957edff2a7",
                    "type": "RT_ICON"
                },
                {
                    "chi2": 319716.46875,
                    "entropy": 2.0717337131500244,
                    "filetype": "Data",
                    "lang": "ENGLISH US",
                    "sha256": "bfb99f8e377f874b54b57f3e09f06736d25fa07e938a6a27a3d4fbd0396020dc",
                    "type": "RT_ICON"
                },
                {
                    "chi2": 290241.125,
                    "entropy": 0.7070634365081787,
                    "filetype": "Data",
                    "lang": "ENGLISH US",
                    "sha256": "d81df843d4f894cff260fa7675389a9aa37d2573fdb5618d34dd573df1e56d54",
                    "type": "RT_ICON"
                },
                {
                    "chi2": 1835.17578125,
                    "entropy": 7.850525379180908,
                    "filetype": "image/x-png",
                    "lang": "ENGLISH US",
                    "sha256": "416bfd9ea83f3245ac7fe4938f42215df1c87456a683fd44061310f2c75ff259",
                    "type": "RT_ICON"
                },
                {
                    "chi2": 1835.17578125,
                    "entropy": 7.850525379180908,
                    "filetype": "image/x-png",
                    "lang": "ENGLISH US",
                    "sha256": "416bfd9ea83f3245ac7fe4938f42215df1c87456a683fd44061310f2c75ff259",
                    "type": "RT_ICON"
                },
                {
                    "chi2": 848264.0,
                    "entropy": 2.8848695755004883,
                    "filetype": "Data",
                    "lang": "ENGLISH US",
                    "sha256": "ea3ef4cfbdb31fc2bbd9d4a36cc13e625b82b31ec690c903c8fb6a566db65075",
                    "type": "RT_ICON"
                },
                {
                    "chi2": 351526.875,
                    "entropy": 2.968834638595581,
                    "filetype": "Data",
                    "lang": "ENGLISH US",
                    "sha256": "aa4b54539a349814083f20f0b66d3f41715425b39e6bf2e402be202dffe8f0ca",
                    "type": "RT_ICON"
                },
                {
                    "chi2": 100543.9375,
                    "entropy": 2.167135238647461,
                    "filetype": "Data",
                    "lang": "ENGLISH US",
                    "sha256": "be04b731901aa71e86d801a6854aadbc7c1716a2112a8c25d56089cb0938430e",
                    "type": "RT_ICON"
                },
                {
                    "chi2": 111336.890625,
                    "entropy": 3.0688698291778564,
                    "filetype": "Data",
                    "lang": "ENGLISH US",
                    "sha256": "a19bf480e123a649ea5988fae389cb46da591767c1a5fcd37ddeb5cdc076c04a",
                    "type": "RT_ICON"
                },
                {
                    "chi2": 31372.994140625,
                    "entropy": 3.5328752994537354,
                    "filetype": "Data",
                    "lang": "ENGLISH US",
                    "sha256": "c317d58ac46843130c49f0fda292a71daf78e376647be805e46a9ef3a6c19a93",
                    "type": "RT_ICON"
                },
                {
                    "chi2": 14282.1669921875,
                    "entropy": 3.237597942352295,
                    "filetype": "Data",
                    "lang": "ENGLISH US",
                    "sha256": "df00908d3da0a04d1bb751448170bea01959d0cd22d68e3431f3717720f583f8",
                    "type": "RT_ICON"
                },
                {
                    "chi2": 173006.75,
                    "entropy": 5.068748950958252,
                    "filetype": "Data",
                    "lang": "ENGLISH US",
                    "sha256": "ad7ec5f095011017ad8b4829ff144b0d58597949a05a9cf9bcf3dc1d236557e2",
                    "type": "RT_ICON"
                },
                {
                    "chi2": 93560.9140625,
                    "entropy": 5.202701091766357,
                    "filetype": "Data",
                    "lang": "ENGLISH US",
                    "sha256": "d1c6981e7ee12bc49bf8c2e1354bb0812184646258ced4a0eabac3e8aa170e34",
                    "type": "RT_ICON"
                },
                {
                    "chi2": 167549.40625,
                    "entropy": 2.8525547981262207,
                    "filetype": "Data",
                    "lang": "ENGLISH US",
                    "sha256": "e9f546f0d0cd43b9709085633f0d84ed3300df9f9c9bb9a6d37edc896a26ee60",
                    "type": "RT_ICON"
                },
                {
                    "chi2": 1343.7166748046875,
                    "entropy": 7.984559535980225,
                    "filetype": "image/x-png",
                    "lang": "ENGLISH US",
                    "sha256": "a202800334544c582f7fb9dffe282ef3b04ad9a653abf67c9b6018c2160149dd",
                    "type": "RT_ICON"
                },
                {
                    "chi2": 367029.15625,
                    "entropy": 4.9415788650512695,
                    "filetype": "Data",
                    "lang": "ENGLISH US",
                    "sha256": "94279ec8fe639fc30e7743bca90282c8b2141b0029bd2e3629c071bb340b4a22",
                    "type": "RT_ICON"
                },
                {
                    "chi2": 123706.703125,
                    "entropy": 5.348093032836914,
                    "filetype": "Data",
                    "lang": "ENGLISH US",
                    "sha256": "4a98ec7498191f3b7aa99ff0d4c59280a678cfc2e8ce530a672b187bc1e10552",
                    "type": "RT_ICON"
                },
                {
                    "chi2": 35900.328125,
                    "entropy": 4.498546123504639,
                    "filetype": "Data",
                    "lang": "ENGLISH US",
                    "sha256": "b1b0e075bdd01d3552568ab59d5f3eeda1b80c61cdc3678115c6caf8523d2a62",
                    "type": "RT_ICON"
                },
                {
                    "chi2": 1253.0291748046875,
                    "entropy": 7.921874523162842,
                    "filetype": "image/x-png",
                    "lang": "ENGLISH US",
                    "sha256": "4557898bc2794b79a978b4b35da3bf8b49d8478a5708a3e1f91cd6111453658d",
                    "type": "RT_ICON"
                },
                {
                    "chi2": 1343.7166748046875,
                    "entropy": 7.984559535980225,
                    "filetype": "image/x-png",
                    "lang": "ENGLISH US",
                    "sha256": "a202800334544c582f7fb9dffe282ef3b04ad9a653abf67c9b6018c2160149dd",
                    "type": "RT_ICON"
                },
                {
                    "chi2": 52754.46875,
                    "entropy": 3.329970121383667,
                    "filetype": "Data",
                    "lang": "ENGLISH US",
                    "sha256": "f64cfa1ba3263884fe27aa176c28940cb6574ff02e442ea2ca56a8ae0265fa02",
                    "type": "RT_ICON"
                },
                {
                    "chi2": 18959.3515625,
                    "entropy": 3.4519333839416504,
                    "filetype": "Data",
                    "lang": "ENGLISH US",
                    "sha256": "a7e447633f06c8132c4ab0e303456cb2a36501e6748aa5730a61b78fb9225410",
                    "type": "RT_ICON"
                },
                {
                    "chi2": 100140.5078125,
                    "entropy": 5.343747615814209,
                    "filetype": "Data",
                    "lang": "ENGLISH US",
                    "sha256": "b4b3e1124e5fe0bf32f297536f7d834f54621650fc6048fbc92d6c18d8600657",
                    "type": "RT_ICON"
                },
                {
                    "chi2": 120705.359375,
                    "entropy": 4.047348499298096,
                    "filetype": "Data",
                    "lang": "ENGLISH US",
                    "sha256": "47c5313cb4ec692630d8a914b769494d69d94e2b71eeba0d3c1d710364012ef6",
                    "type": "RT_ICON"
                },
                {
                    "chi2": 313746.21875,
                    "entropy": 4.133124828338623,
                    "filetype": "Data",
                    "lang": "ENGLISH US",
                    "sha256": "21a2ca662ae482ec51a7cc7d368b1fef62852c8ca7b48c99cc2bab0e93aef1ef",
                    "type": "RT_ICON"
                },
                {
                    "chi2": 35490.8984375,
                    "entropy": 5.3120269775390625,
                    "filetype": "Data",
                    "lang": "ENGLISH US",
                    "sha256": "ee22c1b435d9b6c7878c33416eac0a2bed03c7a96d0ffce585e417d51420695b",
                    "type": "RT_ICON"
                },
                {
                    "chi2": 19821.759765625,
                    "entropy": 2.898892641067505,
                    "filetype": "Data",
                    "lang": "CHINESE SIMPLIFIED",
                    "sha256": "52e23f3cde1ac6ed0e98579e9e4e9466a4199d058f90e5ab73139d3fd4b82a48",
                    "type": "RT_DIALOG"
                },
                {
                    "chi2": 17340.591796875,
                    "entropy": 3.414353132247925,
                    "filetype": "Data",
                    "lang": "CHINESE SIMPLIFIED",
                    "sha256": "b98a2cf1bce769e289c4945ef2361db4daefda3be9ea649423470585815ca7ca",
                    "type": "RT_DIALOG"
                },
                {
                    "chi2": 5156.61376953125,
                    "entropy": 2.378230094909668,
                    "filetype": "Data",
                    "lang": "CHINESE SIMPLIFIED",
                    "sha256": "523ea50fc15e3aefdca6352a217c8553ff9a0f7841676e8a1efd90310ce5beb6",
                    "type": "RT_DIALOG"
                },
                {
                    "chi2": 3761.99853515625,
                    "entropy": 3.7375857830047607,
                    "filetype": "Data",
                    "lang": "CHINESE SIMPLIFIED",
                    "sha256": "e50abe9e576863e28df1bf2dc8bae89544584f44a1a114153e415d7a457f6e9c",
                    "type": "RT_STRING"
                },
                {
                    "chi2": 7135.63818359375,
                    "entropy": 1.3793202638626099,
                    "filetype": "Data",
                    "lang": "CHINESE SIMPLIFIED",
                    "sha256": "0b985f127b9074f92daf51979d1228e8d0657682ed064beed98015d6775e51d0",
                    "type": "RT_STRING"
                },
                {
                    "chi2": 1842.3052978515625,
                    "entropy": 5.187812328338623,
                    "filetype": "Data",
                    "lang": "CHINESE SIMPLIFIED",
                    "sha256": "1fcbeb66f35c6d929b79db7ff9194637f2fc2a61085d243cf6040082f9373e76",
                    "type": "RT_STRING"
                },
                {
                    "chi2": 2852.42138671875,
                    "entropy": 6.124833106994629,
                    "filetype": "Data",
                    "lang": "CHINESE SIMPLIFIED",
                    "sha256": "35ae1476d3bce45233a00e61ee22865e9959a2c3a1800876122b24a4a5990bb1",
                    "type": "RT_STRING"
                },
                {
                    "chi2": 4890.23974609375,
                    "entropy": 4.92381477355957,
                    "filetype": "Data",
                    "lang": "CHINESE SIMPLIFIED",
                    "sha256": "81c12c121d9b3847f18bc3a4b1d83254d7ff56ac506e9223c50d0d0afb8ae4b0",
                    "type": "RT_STRING"
                },
                {
                    "chi2": 2644.60986328125,
                    "entropy": 5.586872100830078,
                    "filetype": "Data",
                    "lang": "CHINESE SIMPLIFIED",
                    "sha256": "441cbafb03751c84bacf696d1f3fdde471ecc913dc5af938b396c490c38e2233",
                    "type": "RT_STRING"
                },
                {
                    "chi2": 5737.603515625,
                    "entropy": 3.3065249919891357,
                    "filetype": "Data",
                    "lang": "CHINESE SIMPLIFIED",
                    "sha256": "c8cf3e86cd7fd3d126ba6c9843ff828c9bfab14afbb4412ebc6b938a8409aa94",
                    "type": "RT_STRING"
                },
                {
                    "chi2": 3636.470703125,
                    "entropy": 3.301118850708008,
                    "filetype": "Data",
                    "lang": "CHINESE SIMPLIFIED",
                    "sha256": "9bd4eeed471487a085e6110420ef8d431c6887462eb0e937d6c884fbacd28c35",
                    "type": "RT_STRING"
                },
                {
                    "chi2": 3219.07470703125,
                    "entropy": 4.212477207183838,
                    "filetype": "Data",
                    "lang": "CHINESE SIMPLIFIED",
                    "sha256": "6347c6bf725359f0435b5190a3eaabf89c4111f338fb65262a273bd6edb73026",
                    "type": "RT_STRING"
                },
                {
                    "chi2": 4611.67431640625,
                    "entropy": 5.621946334838867,
                    "filetype": "Data",
                    "lang": "CHINESE SIMPLIFIED",
                    "sha256": "20b440621d4543df7f685df3744d58ddf5bf7f5db9e2e11e91023a30244ea1b2",
                    "type": "RT_STRING"
                },
                {
                    "chi2": 3260.261962890625,
                    "entropy": 5.2653279304504395,
                    "filetype": "Data",
                    "lang": "CHINESE SIMPLIFIED",
                    "sha256": "498e222afffb6c9545419385c3a7138c9649046964253438782943eb47c45ad0",
                    "type": "RT_STRING"
                },
                {
                    "chi2": 6833.33447265625,
                    "entropy": 0.9038115739822388,
                    "filetype": "Data",
                    "lang": "CHINESE SIMPLIFIED",
                    "sha256": "298bdbb59a971aa600d946281bc55d55617b30ef295770ead2a6b824c42951e7",
                    "type": "RT_STRING"
                },
                {
                    "chi2": 2027.319580078125,
                    "entropy": 6.046874046325684,
                    "filetype": "Data",
                    "lang": "CHINESE SIMPLIFIED",
                    "sha256": "c13a6a2f716640fa3b63505e17681f7e133c1f2acb34afe9715b1a718b24690f",
                    "type": "RT_STRING"
                },
                {
                    "chi2": 3007.8818359375,
                    "entropy": 2.173487663269043,
                    "filetype": "Lotus 1-2-3",
                    "lang": "CHINESE SIMPLIFIED",
                    "sha256": "e6bef05177430dd0710b2878ea9028fb4cd23b7dd9e6066a7dce3934c8e05124",
                    "type": "RT_GROUP_CURSOR"
                },
                {
                    "chi2": 1797.600341796875,
                    "entropy": 2.0192408561706543,
                    "filetype": "Lotus 1-2-3",
                    "lang": "CHINESE SIMPLIFIED",
                    "sha256": "9c17b4621412d6ded24a76aed74d4425ae61f86b6d4092ca1e28ca66b7c71399",
                    "type": "RT_GROUP_CURSOR"
                },
                {
                    "chi2": 1797.600341796875,
                    "entropy": 2.0192408561706543,
                    "filetype": "Lotus 1-2-3",
                    "lang": "CHINESE SIMPLIFIED",
                    "sha256": "ff47a48c11c234903a7d625cb8b62101909f735ad84266c98dd4834549452c39",
                    "type": "RT_GROUP_CURSOR"
                },
                {
                    "chi2": 1797.600341796875,
                    "entropy": 2.0192408561706543,
                    "filetype": "Lotus 1-2-3",
                    "lang": "CHINESE SIMPLIFIED",
                    "sha256": "ec26c438d10e3e84ec855c47f07a176e6c11bbfae1557d526490711b80f087fe",
                    "type": "RT_GROUP_CURSOR"
                },
                {
                    "chi2": 1797.600341796875,
                    "entropy": 2.0192408561706543,
                    "filetype": "Lotus 1-2-3",
                    "lang": "CHINESE SIMPLIFIED",
                    "sha256": "326c048595bbc72e3f989cb3b95fbf09dc83739ced3cb13eb6f03336f95d74f1",
                    "type": "RT_GROUP_CURSOR"
                },
                {
                    "chi2": 1797.600341796875,
                    "entropy": 2.0192408561706543,
                    "filetype": "Lotus 1-2-3",
                    "lang": "CHINESE SIMPLIFIED",
                    "sha256": "ef309b720f166673cad840a88e7636e9161ad91415cc7c176010cebba07757e5",
                    "type": "RT_GROUP_CURSOR"
                },
                {
                    "chi2": 1797.600341796875,
                    "entropy": 2.0192408561706543,
                    "filetype": "Lotus 1-2-3",
                    "lang": "CHINESE SIMPLIFIED",
                    "sha256": "6e1e7738a1b6373d8829f817915822ef415a1727bb5bb7cfe809e31b3c143ac5",
                    "type": "RT_GROUP_CURSOR"
                },
                {
                    "chi2": 1797.600341796875,
                    "entropy": 2.0192408561706543,
                    "filetype": "Lotus 1-2-3",
                    "lang": "CHINESE SIMPLIFIED",
                    "sha256": "28b8110695851e5280ff55cb78507b03e8b74dd370b8e122179c82b56f7e5f37",
                    "type": "RT_GROUP_CURSOR"
                },
                {
                    "chi2": 1797.600341796875,
                    "entropy": 2.0192408561706543,
                    "filetype": "Lotus 1-2-3",
                    "lang": "CHINESE SIMPLIFIED",
                    "sha256": "a0adcedb82b57089f64e2857f97cefd6cf25f4d27eefc6648bda83fd5fef66bb",
                    "type": "RT_GROUP_CURSOR"
                },
                {
                    "chi2": 1797.600341796875,
                    "entropy": 2.0192408561706543,
                    "filetype": "Lotus 1-2-3",
                    "lang": "CHINESE SIMPLIFIED",
                    "sha256": "a92f60b25322592e7ddd13d88e4006c097666f4d87c8cb0c21ffdccd53b31d78",
                    "type": "RT_GROUP_CURSOR"
                },
                {
                    "chi2": 1797.600341796875,
                    "entropy": 2.0192408561706543,
                    "filetype": "Lotus 1-2-3",
                    "lang": "CHINESE SIMPLIFIED",
                    "sha256": "8a495f17bc472bfc5e6923d9efa687848fac027ad60694f9c3f10a4f7b194924",
                    "type": "RT_GROUP_CURSOR"
                },
                {
                    "chi2": 1797.600341796875,
                    "entropy": 2.0192408561706543,
                    "filetype": "Lotus 1-2-3",
                    "lang": "CHINESE SIMPLIFIED",
                    "sha256": "a2f0549cca7170ae03ba042464efe62365fba38c20049e439871c9e5ce0f914f",
                    "type": "RT_GROUP_CURSOR"
                },
                {
                    "chi2": 1797.600341796875,
                    "entropy": 2.0192408561706543,
                    "filetype": "Lotus 1-2-3",
                    "lang": "CHINESE SIMPLIFIED",
                    "sha256": "4ecc7f2578fd7b137c04f85ffcbd67d6eab0bc8b1df4246cebd2a2aa517f3c60",
                    "type": "RT_GROUP_CURSOR"
                },
                {
                    "chi2": 1797.600341796875,
                    "entropy": 2.0192408561706543,
                    "filetype": "Lotus 1-2-3",
                    "lang": "CHINESE SIMPLIFIED",
                    "sha256": "12a5b9052dd16bed260343bc4352d436167c991c54497c5af441304646549386",
                    "type": "RT_GROUP_CURSOR"
                },
                {
                    "chi2": 1797.600341796875,
                    "entropy": 2.0192408561706543,
                    "filetype": "Lotus 1-2-3",
                    "lang": "CHINESE SIMPLIFIED",
                    "sha256": "ee63d4681e7622067fd29005c6cc67b456031eb723c7239f05f1cb097af0ef98",
                    "type": "RT_GROUP_CURSOR"
                },
                {
                    "chi2": 13496.994140625,
                    "entropy": 2.940969228744507,
                    "filetype": "Data",
                    "lang": "ENGLISH US",
                    "sha256": "ea60e4a06e2170d6dbdd9ff76747df72d91e0a499c08b9fbd4d05ce70fa7adb5",
                    "type": "RT_GROUP_ICON"
                },
                {
                    "chi2": 10157.1318359375,
                    "entropy": 3.0552334785461426,
                    "filetype": "Data",
                    "lang": "ENGLISH US",
                    "sha256": "2855f33691a206a74955ed42bf0fddb36562e9e1c425dff523defc8ace0ff638",
                    "type": "RT_GROUP_ICON"
                },
                {
                    "chi2": 2591.2001953125,
                    "entropy": 1.5567797422409058,
                    "filetype": "Data",
                    "lang": "ENGLISH US",
                    "sha256": "e03e93541e9220e85970502d841585167e02e55e600e7e1596c95440356be204",
                    "type": "RT_GROUP_ICON"
                },
                {
                    "chi2": 6116.576171875,
                    "entropy": 2.7945163249969482,
                    "filetype": "Data",
                    "lang": "ENGLISH US",
                    "sha256": "994e79050a60c912422f5ec2588af1dd61881382d82eab304bf2cde37486e12e",
                    "type": "RT_GROUP_ICON"
                },
                {
                    "chi2": 69423.3828125,
                    "entropy": 3.51462984085083,
                    "filetype": "Data",
                    "lang": "ENGLISH US",
                    "sha256": "827db8a35aeb8b374212699561b96ee4834a26698ab85691c84a10449d231efd",
                    "type": "RT_VERSION"
                },
                {
                    "chi2": 5294.1943359375,
                    "entropy": 5.022934436798096,
                    "filetype": "Data",
                    "lang": "ENGLISH US",
                    "sha256": "c33fffcaf40d812614f14a0a6441a425ab9f0114d82a65072bb4b443cdb23614",
                    "type": "RT_MANIFEST"
                }
            ],
            "resource_langs": {
                "CHINESE SIMPLIFIED": 49,
                "ENGLISH US": 40
            },
            "resource_types": {
                "RT_BITMAP": 2,
                "RT_CURSOR": 16,
                "RT_DIALOG": 3,
                "RT_GROUP_CURSOR": 15,
                "RT_GROUP_ICON": 4,
                "RT_ICON": 34,
                "RT_MANIFEST": 1,
                "RT_STRING": 13,
                "RT_VERSION": 1
            },
            "rich_pe_header_hash": "77440f06b11108bbbd3405f1b55005a9",
            "sections": [
                {
                    "chi2": 13459496.0,
                    "entropy": 6.58,
                    "flags": "rx",
                    "md5": "f62278ec5a9adff25a403d077ebb8ae6",
                    "name": ".text",
                    "raw_size": 2254336,
                    "virtual_address": 4096,
                    "virtual_size": 2254042
                },
                {
                    "chi2": 23173382.0,
                    "entropy": 5.21,
                    "flags": "r",
                    "md5": "d160a1540143ebceb811b36bacccaad4",
                    "name": ".rdata",
                    "raw_size": 507392,
                    "virtual_address": 2260992,
                    "virtual_size": 507246
                },
                {
                    "chi2": 15140927.0,
                    "entropy": 7.31,
                    "flags": "rw",
                    "md5": "40020c127ada1283aa721bbf7fd28774",
                    "name": ".data",
                    "raw_size": 3877376,
                    "virtual_address": 2768896,
                    "virtual_size": 3904672
                },
                {
                    "chi2": 130049.0,
                    "entropy": 0.02,
                    "flags": "rw",
                    "md5": "1f354d76203061bfdd5a53dae48d5435",
                    "name": ".tls",
                    "raw_size": 512,
                    "virtual_address": 6676480,
                    "virtual_size": 9
                },
                {
                    "chi2": 1113401.38,
                    "entropy": 7.56,
                    "flags": "r",
                    "md5": "d56372e4a8e45557c17c23eb16e33a2e",
                    "name": ".rsrc",
                    "raw_size": 367616,
                    "virtual_address": 6680576,
                    "virtual_size": 368640
                },
                {
                    "chi2": 689501.81,
                    "entropy": 6.51,
                    "flags": "r",
                    "md5": "61f7df21bd8eb6a9471f4b77c916635d",
                    "name": ".reloc",
                    "raw_size": 175104,
                    "virtual_address": 7049216,
                    "virtual_size": 174824
                }
            ],
            "timestamp": 1501669833
        },
        "reputation": 0,
        "sha1": "a70002753ce2b3ff7bb769ee3b973eed90d6f9c1",
        "sha256": "000362483369e4286134124bf06972b12361ff920259ce5bc05bb54549a45fbb",
        "signature_info": {
            "copyright": "\u00a9 Microsoft Corporation. All rights reserved.",
            "description": "Microsoft Connection Manager Monitor",
            "file version": "7.02.6002.18005 (lh_sp2rtm.090410-1830)",
            "internal name": "CMMON32",
            "original name": "CMMON32.exe",
            "product": "Microsoft(R) Connection Manager"
        },
        "size": 7183360,
        "ssdeep": "196608:aObod1UfgG7dIgnKFKMs12zIL/o2AejzAwKBCXHE3QvJ6kjMngLbtQGfxLTg9ZOq:cQFnK8tL/o2AejzAwKBCXHE3QvJ6kjMl",
        "tags": [
            "peexe",
            "invalid-rich-pe-checksum"
        ],
        "times_submitted": 1,
        "total_votes": {
            "harmless": 0,
            "malicious": 0
        },
        "trid": [
            {
                "file_type": "Win16 NE executable (generic)",
                "probability": 57.1
            },
            {
                "file_type": "Win32 Executable (generic)",
                "probability": 18.3
            },
            {
                "file_type": "OS/2 Executable (generic)",
                "probability": 8.2
            },
            {
                "file_type": "Generic Win/DOS Executable",
                "probability": 8.1
            },
            {
                "file_type": "DOS Executable Generic",
                "probability": 8.1
            }
        ],
        "type_description": "Win32 EXE",
        "type_extension": "exe",
        "type_tag": "peexe",
        "unique_sources": 1,
        "vhash": "076066655d7d15756194z8e00c96z4d295zd0800f13z19z"
    },
    "id": "000362483369e4286134124bf06972b12361ff920259ce5bc05bb54549a45fbb",
    "links": {
        "self": "https://www.virustotal.com/api/v3/files/000362483369e4286134124bf06972b12361ff920259ce5bc05bb54549a45fbb"
    },
    "type": "file"
}