{
    "attributes": {
        "authentihash": "033423f4243e2827d031954e5326a153bc4a264a6b516408ee69a15c43cb6ea0",
        "creation_date": 1195784368,
        "first_submission_date": 1553424667,
        "last_analysis_date": 1553424667,
        "last_analysis_results": {
            "ALYac": {
                "category": "malicious",
                "engine_name": "ALYac",
                "engine_update": "20190324",
                "engine_version": "1.1.1.5",
                "method": "blacklist",
                "result": "Win32.Worm.VB.NZQ"
            },
            "AVG": {
                "category": "malicious",
                "engine_name": "AVG",
                "engine_update": "20190324",
                "engine_version": "18.4.3895.0",
                "method": "blacklist",
                "result": "Win32:AutoRun-BOW [Wrm]"
            },
            "Acronis": {
                "category": "malicious",
                "engine_name": "Acronis",
                "engine_update": "20190322",
                "engine_version": "1.0.1.40",
                "method": "blacklist",
                "result": "suspicious"
            },
            "Ad-Aware": {
                "category": "malicious",
                "engine_name": "Ad-Aware",
                "engine_update": "20190324",
                "engine_version": "3.0.5.370",
                "method": "blacklist",
                "result": "Win32.Worm.VB.NZQ"
            },
            "AegisLab": {
                "category": "malicious",
                "engine_name": "AegisLab",
                "engine_update": "20190324",
                "engine_version": "4.2",
                "method": "blacklist",
                "result": "Virus.Win32.Lamer.l4ji"
            },
            "AhnLab-V3": {
                "category": "malicious",
                "engine_name": "AhnLab-V3",
                "engine_update": "20190324",
                "engine_version": "3.15.0.23609",
                "method": "blacklist",
                "result": "Win32/Lamer.D"
            },
            "Alibaba": {
                "category": "undetected",
                "engine_name": "Alibaba",
                "engine_update": "20190306",
                "engine_version": "0.2.0.3",
                "method": "blacklist",
                "result": null
            },
            "Antiy-AVL": {
                "category": "malicious",
                "engine_name": "Antiy-AVL",
                "engine_update": "20190324",
                "engine_version": "3.0.0.1",
                "method": "blacklist",
                "result": "Trojan/Generic.ASVCS3S.171"
            },
            "Arcabit": {
                "category": "malicious",
                "engine_name": "Arcabit",
                "engine_update": "20190324",
                "engine_version": "1.0.0.844",
                "method": "blacklist",
                "result": "Win32.Worm.VB.NZQ"
            },
            "Avast": {
                "category": "malicious",
                "engine_name": "Avast",
                "engine_update": "20190324",
                "engine_version": "18.4.3895.0",
                "method": "blacklist",
                "result": "Win32:AutoRun-BOW [Wrm]"
            },
            "Avast-Mobile": {
                "category": "undetected",
                "engine_name": "Avast-Mobile",
                "engine_update": "20190324",
                "engine_version": "190324-00",
                "method": "blacklist",
                "result": null
            },
            "Avira": {
                "category": "malicious",
                "engine_name": "Avira",
                "engine_update": "20190323",
                "engine_version": "8.3.3.8",
                "method": "blacklist",
                "result": "TR/Dropper.Gen"
            },
            "Babable": {
                "category": "undetected",
                "engine_name": "Babable",
                "engine_update": "20180918",
                "engine_version": "9107201",
                "method": "blacklist",
                "result": null
            },
            "Baidu": {
                "category": "malicious",
                "engine_name": "Baidu",
                "engine_update": "20190318",
                "engine_version": "1.0.0.2",
                "method": "blacklist",
                "result": "Win32.Virus.VBbind.a"
            },
            "BitDefender": {
                "category": "malicious",
                "engine_name": "BitDefender",
                "engine_update": "20190324",
                "engine_version": "7.2",
                "method": "blacklist",
                "result": "Win32.Worm.VB.NZQ"
            },
            "Bkav": {
                "category": "malicious",
                "engine_name": "Bkav",
                "engine_update": "20190320",
                "engine_version": "1.3.0.9899",
                "method": "blacklist",
                "result": "W32.FamVT.Cosmu.PE"
            },
            "CAT-QuickHeal": {
                "category": "malicious",
                "engine_name": "CAT-QuickHeal",
                "engine_update": "20190322",
                "engine_version": "14.00",
                "method": "blacklist",
                "result": "W32.Lamer.EL3"
            },
            "CMC": {
                "category": "malicious",
                "engine_name": "CMC",
                "engine_update": "20190321",
                "engine_version": "1.1.0.977",
                "method": "blacklist",
                "result": "Trojan.Win32.Cosmu!O"
            },
            "ClamAV": {
                "category": "malicious",
                "engine_name": "ClamAV",
                "engine_update": "20190324",
                "engine_version": "0.101.1.0",
                "method": "blacklist",
                "result": "Win.Trojan.Cosmu-4"
            },
            "Comodo": {
                "category": "malicious",
                "engine_name": "Comodo",
                "engine_update": "20190324",
                "engine_version": "30617",
                "method": "blacklist",
                "result": "TrojWare.Win32.TrojanDropper.Agent.~VBV@4nuhm"
            },
            "CrowdStrike": {
                "category": "malicious",
                "engine_name": "CrowdStrike",
                "engine_update": "20190212",
                "engine_version": "1.0",
                "method": "blacklist",
                "result": "win/malicious_confidence_100% (D)"
            },
            "Cybereason": {
                "category": "malicious",
                "engine_name": "Cybereason",
                "engine_update": "20190109",
                "engine_version": "1.2.27",
                "method": "blacklist",
                "result": "malicious.404774"
            },
            "Cyren": {
                "category": "malicious",
                "engine_name": "Cyren",
                "engine_update": "20190324",
                "engine_version": "6.2.0.1",
                "method": "blacklist",
                "result": "W32/KillAV.Y.gen!Eldorado"
            },
            "DrWeb": {
                "category": "malicious",
                "engine_name": "DrWeb",
                "engine_update": "20190324",
                "engine_version": "7.0.34.11020",
                "method": "blacklist",
                "result": "Win32.HLLW.Autoruner.6014"
            },
            "ESET-NOD32": {
                "category": "malicious",
                "engine_name": "ESET-NOD32",
                "engine_update": "20190324",
                "engine_version": "19078",
                "method": "blacklist",
                "result": "Win32/VB.NUP"
            },
            "Emsisoft": {
                "category": "malicious",
                "engine_name": "Emsisoft",
                "engine_update": "20190324",
                "engine_version": "2018.4.0.1029",
                "method": "blacklist",
                "result": "Win32.Worm.VB.NZQ (B)"
            },
            "Endgame": {
                "category": "malicious",
                "engine_name": "Endgame",
                "engine_update": "20190322",
                "engine_version": "3.0.8",
                "method": "blacklist",
                "result": "malicious (high confidence)"
            },
            "F-Secure": {
                "category": "malicious",
                "engine_name": "F-Secure",
                "engine_update": "20190324",
                "engine_version": "12.0.86.52",
                "method": "blacklist",
                "result": "Trojan.TR/Dropper.Gen"
            },
            "Fortinet": {
                "category": "malicious",
                "engine_name": "Fortinet",
                "engine_update": "20190324",
                "engine_version": "5.4.247.0",
                "method": "blacklist",
                "result": "W32/AutoRun.RPV!worm"
            },
            "GData": {
                "category": "malicious",
                "engine_name": "GData",
                "engine_update": "20190324",
                "engine_version": "A:25.21242B:25.14678",
                "method": "blacklist",
                "result": "Win32.Worm.Autorun.A@gen"
            },
            "Ikarus": {
                "category": "malicious",
                "engine_name": "Ikarus",
                "engine_update": "20190324",
                "engine_version": "0.1.5.2",
                "method": "blacklist",
                "result": "Worm.Win32"
            },
            "Invincea": {
                "category": "malicious",
                "engine_name": "Invincea",
                "engine_update": "20190313",
                "engine_version": "6.3.6.26157",
                "method": "blacklist",
                "result": "heuristic"
            },
            "Jiangmin": {
                "category": "malicious",
                "engine_name": "Jiangmin",
                "engine_update": "20190324",
                "engine_version": "16.0.100",
                "method": "blacklist",
                "result": "Trojan/Cosmu.lan"
            },
            "K7AntiVirus": {
                "category": "malicious",
                "engine_name": "K7AntiVirus",
                "engine_update": "20190324",
                "engine_version": "11.34.30381",
                "method": "blacklist",
                "result": "Hacktool ( 005287c91 )"
            },
            "K7GW": {
                "category": "malicious",
                "engine_name": "K7GW",
                "engine_update": "20190324",
                "engine_version": "11.34.30381",
                "method": "blacklist",
                "result": "Hacktool ( 005287c91 )"
            },
            "Kaspersky": {
                "category": "malicious",
                "engine_name": "Kaspersky",
                "engine_update": "20190324",
                "engine_version": "15.0.1.13",
                "method": "blacklist",
                "result": "Virus.Win32.Lamer.el"
            },
            "Kingsoft": {
                "category": "malicious",
                "engine_name": "Kingsoft",
                "engine_update": "20190324",
                "engine_version": "2013.8.14.323",
                "method": "blacklist",
                "result": "Win32.Troj.FakeRegT.ss.(kcloud)"
            },
            "MAX": {
                "category": "malicious",
                "engine_name": "MAX",
                "engine_update": "20190324",
                "engine_version": "2018.9.12.1",
                "method": "blacklist",
                "result": "malware (ai score=83)"
            },
            "Malwarebytes": {
                "category": "malicious",
                "engine_name": "Malwarebytes",
                "engine_update": "20190324",
                "engine_version": "2.1.1.1115",
                "method": "blacklist",
                "result": "Trojan.Downloader"
            },
            "McAfee": {
                "category": "malicious",
                "engine_name": "McAfee",
                "engine_update": "20190324",
                "engine_version": "6.0.6.653",
                "method": "blacklist",
                "result": "W32/Autorun.worm.i.gen"
            },
            "McAfee-GW-Edition": {
                "category": "malicious",
                "engine_name": "McAfee-GW-Edition",
                "engine_update": "20190324",
                "engine_version": "v2017.3010",
                "method": "blacklist",
                "result": "BehavesLike.Win32.Autorun.wh"
            },
            "MicroWorld-eScan": {
                "category": "malicious",
                "engine_name": "MicroWorld-eScan",
                "engine_update": "20190324",
                "engine_version": "14.0.297.0",
                "method": "blacklist",
                "result": "Win32.Worm.VB.NZQ"
            },
            "Microsoft": {
                "category": "malicious",
                "engine_name": "Microsoft",
                "engine_update": "20190324",
                "engine_version": "1.1.15800.1",
                "method": "blacklist",
                "result": "Backdoor:Win32/Zegost.M"
            },
            "NANO-Antivirus": {
                "category": "malicious",
                "engine_name": "NANO-Antivirus",
                "engine_update": "20190324",
                "engine_version": "1.0.134.24576",
                "method": "blacklist",
                "result": "Trojan.Win32.VB.ltch"
            },
            "Paloalto": {
                "category": "undetected",
                "engine_name": "Paloalto",
                "engine_update": "20190324",
                "engine_version": "1.0",
                "method": "blacklist",
                "result": null
            },
            "Panda": {
                "category": "malicious",
                "engine_name": "Panda",
                "engine_update": "20190324",
                "engine_version": "4.6.4.2",
                "method": "blacklist",
                "result": "W32/OverDoom.A"
            },
            "Qihoo-360": {
                "category": "malicious",
                "engine_name": "Qihoo-360",
                "engine_update": "20190324",
                "engine_version": "1.0.0.1120",
                "method": "blacklist",
                "result": "Virus.Win32.Lamer.B"
            },
            "Rising": {
                "category": "malicious",
                "engine_name": "Rising",
                "engine_update": "20190324",
                "engine_version": "25.0.0.24",
                "method": "blacklist",
                "result": "Backdoor.Bagolod!1.64B4 (CLASSIC)"
            },
            "SUPERAntiSpyware": {
                "category": "undetected",
                "engine_name": "SUPERAntiSpyware",
                "engine_update": "20190321",
                "engine_version": "5.6.0.1032",
                "method": "blacklist",
                "result": null
            },
            "SentinelOne": {
                "category": "malicious",
                "engine_name": "SentinelOne",
                "engine_update": "20190317",
                "engine_version": "1.0.24.302",
                "method": "blacklist",
                "result": "DFI - Malicious PE"
            },
            "Sophos": {
                "category": "malicious",
                "engine_name": "Sophos",
                "engine_update": "20190322",
                "engine_version": "4.98.0",
                "method": "blacklist",
                "result": "Troj/DwnLdr-HQY"
            },
            "SymantecMobileInsight": {
                "category": "type-unsupported",
                "engine_name": "SymantecMobileInsight",
                "engine_update": "20190220",
                "engine_version": "2.0",
                "method": "blacklist",
                "result": null
            },
            "TACHYON": {
                "category": "undetected",
                "engine_name": "TACHYON",
                "engine_update": "20190324",
                "engine_version": "2019-03-24.02",
                "method": "blacklist",
                "result": null
            },
            "Tencent": {
                "category": "malicious",
                "engine_name": "Tencent",
                "engine_update": "20190324",
                "engine_version": "1.0.0.1",
                "method": "blacklist",
                "result": "Worm.Win32.VB.kp"
            },
            "TheHacker": {
                "category": "malicious",
                "engine_name": "TheHacker",
                "engine_update": "20190322",
                "engine_version": "6.8.0.5.4093",
                "method": "blacklist",
                "result": "Trojan/Downloader.VB.eex"
            },
            "TotalDefense": {
                "category": "malicious",
                "engine_name": "TotalDefense",
                "engine_update": "20190324",
                "engine_version": "37.1.62.1",
                "method": "blacklist",
                "result": "Win32/VB.JU"
            },
            "Trapmine": {
                "category": "malicious",
                "engine_name": "Trapmine",
                "engine_update": "20190301",
                "engine_version": "3.1.48.748",
                "method": "blacklist",
                "result": "malicious.high.ml.score"
            },
            "TrendMicro-HouseCall": {
                "category": "malicious",
                "engine_name": "TrendMicro-HouseCall",
                "engine_update": "20190324",
                "engine_version": "10.0.0.1040",
                "method": "blacklist",
                "result": "TROJ_DLOADR.SMM"
            },
            "Trustlook": {
                "category": "undetected",
                "engine_name": "Trustlook",
                "engine_update": "20190324",
                "engine_version": "1.0",
                "method": "blacklist",
                "result": null
            },
            "VBA32": {
                "category": "malicious",
                "engine_name": "VBA32",
                "engine_update": "20190322",
                "engine_version": "4.0.0",
                "method": "blacklist",
                "result": "SIM.Trojan.VBO.0859"
            },
            "VIPRE": {
                "category": "malicious",
                "engine_name": "VIPRE",
                "engine_update": "20190324",
                "engine_version": "73924",
                "method": "blacklist",
                "result": "Trojan-Downloader.Win32.VB.eex (v)"
            },
            "ViRobot": {
                "category": "malicious",
                "engine_name": "ViRobot",
                "engine_update": "20190323",
                "engine_version": "2014.3.20.0",
                "method": "blacklist",
                "result": "Trojan.Win32.Cosmu.887991"
            },
            "Yandex": {
                "category": "malicious",
                "engine_name": "Yandex",
                "engine_update": "20190324",
                "engine_version": "5.5.1.3",
                "method": "blacklist",
                "result": "Trojan.VBGent.Gen.78"
            },
            "Zillya": {
                "category": "malicious",
                "engine_name": "Zillya",
                "engine_update": "20190322",
                "engine_version": "2.0.0.3780",
                "method": "blacklist",
                "result": "Downloader.VB.Win32.95"
            },
            "ZoneAlarm": {
                "category": "malicious",
                "engine_name": "ZoneAlarm",
                "engine_update": "20190324",
                "engine_version": "1.0",
                "method": "blacklist",
                "result": "Virus.Win32.Lamer.el"
            },
            "Zoner": {
                "category": "undetected",
                "engine_name": "Zoner",
                "engine_update": "20190324",
                "engine_version": "1.0",
                "method": "blacklist",
                "result": null
            },
            "eGambit": {
                "category": "malicious",
                "engine_name": "eGambit",
                "engine_update": "20190324",
                "engine_version": "v4.3.6",
                "method": "blacklist",
                "result": "Trojan.Generic"
            }
        },
        "last_analysis_stats": {
            "confirmed-timeout": 0,
            "failure": 0,
            "harmless": 0,
            "malicious": 58,
            "suspicious": 0,
            "timeout": 0,
            "type-unsupported": 1,
            "undetected": 8
        },
        "last_modification_date": 1553425005,
        "last_submission_date": 1553424667,
        "magic": "PE32 executable for MS Windows (GUI) Intel 80386 32-bit",
        "md5": "6efdc6c404774c23b02c3832951f2976",
        "meaningful_name": "INCUBUS.exe",
        "names": [
            "INCUBUS",
            "INCUBUS.exe"
        ],
        "pe_info": {
            "entry_point": 11220,
            "imphash": "721b7a2e0911a652e4c7d1af2971046f",
            "import_list": [
                {
                    "imported_functions": [
                        "_adj_fdivr_m64",
                        "Ord(610)",
                        "Ord(518)",
                        "__vbaGenerateBoundsError",
                        "__vbaStrFixstr",
                        "__vbaInputFile",
                        "Ord(616)",
                        "__vbaGet3",
                        "_adj_fprem",
                        "__vbaAryMove",
                        "__vbaUI1Str",
                        "__vbaVarMod",
                        "__vbaUI1Var",
                        "__vbaVarAnd",
                        "__vbaRedim",
                        "Ord(537)",
                        "__vbaRefVarAry",
                        "__vbaRecDestruct",
                        "_adj_fdiv_r",
                        "_allmul",
                        "__vbaRecAnsiToUni",
                        "__vbaObjSetAddref",
                        "Ord(536)",
                        "_adj_fdiv_m64",
                        "__vbaHresultCheckObj",
                        "__vbaI2Var",
                        "_CIlog",
                        "__vbaVarMul",
                        "Ord(595)",
                        "_adj_fptan",
                        "__vbaFileClose",
                        "Ord(581)",
                        "__vbaI4Var",
                        "__vbaRecUniToAnsi",
                        "Ord(608)",
                        "__vbaFreeStr",
                        "Ord(670)",
                        "Ord(631)",
                        "__vbaStrI2",
                        "Ord(709)",
                        "__vbaFreeStrList",
                        "__vbaI2I4",
                        "_adj_fdiv_m16i",
                        "EVENT_SINK_QueryInterface",
                        "Ord(648)",
                        "Ord(516)",
                        "Ord(531)",
                        "__vbaLenBstr",
                        "Ord(525)",
                        "Ord(594)",
                        "Ord(576)",
                        "__vbaStrToUnicode",
                        "Ord(553)",
                        "__vbaInStr",
                        "_adj_fdiv_m32i",
                        "Ord(717)",
                        "Ord(600)",
                        "__vbaExceptHandler",
                        "__vbaSetSystemError",
                        "__vbaGetOwner4",
                        "DllFunctionCall",
                        "__vbaGetOwner3",
                        "__vbaUbound",
                        "Ord(589)",
                        "__vbaFreeVar",
                        "__vbaBoolVarNull",
                        "__vbaFileOpen",
                        "_CIsin",
                        "Ord(711)",
                        "Ord(606)",
                        "__vbaInStrVar",
                        "__vbaAryLock",
                        "__vbaLsetFixstr",
                        "__vbaVarTstEq",
                        "Ord(593)",
                        "__vbaNameFile",
                        "__vbaOnError",
                        "_adj_fdivr_m32i",
                        "__vbaStrCat",
                        "__vbaVarDup",
                        "__vbaChkstk",
                        "__vbaPrintFile",
                        "EVENT_SINK_Release",
                        "__vbaStrCmp",
                        "__vbaAryUnlock",
                        "Ord(661)",
                        "__vbaStrVarCopy",
                        "Ord(650)",
                        "__vbaVarIndexLoad",
                        "__vbaVar2Vec",
                        "__vbaVarForNext",
                        "__vbaFreeVarList",
                        "__vbaStrVarMove",
                        "Ord(578)",
                        "__vbaExitProc",
                        "__vbaVarOr",
                        "__vbaVarTstNe",
                        "__vbaAryConstruct2",
                        "Ord(520)",
                        "__vbaFileSeek",
                        "__vbaFreeObj",
                        "_adj_fdivr_m32",
                        "__vbaStrVarVal",
                        "__vbaVarSub",
                        "__vbaVarTstGt",
                        "_CIcos",
                        "Ord(528)",
                        "__vbaStrErrVarCopy",
                        "__vbaVarCmpNe",
                        "__vbaVarMove",
                        "__vbaErrorOverflow",
                        "__vbaNew2",
                        "__vbaR8IntI2",
                        "__vbaVarCmpEq",
                        "__vbaAryDestruct",
                        "__vbaStrMove",
                        "_adj_fprem1",
                        "Ord(619)",
                        "_adj_fdiv_m32",
                        "__vbaLenVar",
                        "__vbaEnd",
                        "__vbaPutOwner3",
                        "Ord(685)",
                        "__vbaRedimPreserve",
                        "_adj_fpatan",
                        "EVENT_SINK_AddRef",
                        "__vbaVarIndexLoadRefLock",
                        "__vbaVarForInit",
                        "__vbaVarVargNofree",
                        "__vbaStrCopy",
                        "Ord(632)",
                        "Ord(645)",
                        "__vbaFPException",
                        "_adj_fdivr_m16i",
                        "__vbaVarAdd",
                        "Ord(100)",
                        "Ord(519)",
                        "Ord(526)",
                        "_CIsqrt",
                        "__vbaVarCopy",
                        "Ord(612)",
                        "_CIatan",
                        "Ord(662)",
                        "Ord(617)",
                        "Ord(573)",
                        "_CItan",
                        "Ord(529)",
                        "Ord(580)",
                        "__vbaPut3",
                        "__vbaObjSet",
                        "__vbaVarCat",
                        "_CIexp",
                        "__vbaStrToAnsi",
                        "__vbaFpR8",
                        "Ord(598)"
                    ],
                    "library_name": "MSVBVM60.DLL"
                }
            ],
            "machine_type": 332,
            "overlay": {
                "chi2": 140783024.0,
                "entropy": 6.267176151275635,
                "filetype": "data",
                "md5": "c5b01b237d563d838c80fa9e7e869aa5",
                "offset": 221184,
                "size": 8126399
            },
            "resource_details": [
                {
                    "chi2": 463885.46875,
                    "entropy": 4.7756667137146,
                    "filetype": "MS Windows PE",
                    "lang": "CHINESE SIMPLIFIED",
                    "sha256": "958b3f74fba9d5613d78bd0db752ae64a2331512bd6ed24b9a372d19c45aa559",
                    "type": "CUSTOM"
                },
                {
                    "chi2": 1146508.5,
                    "entropy": 3.0209734439849854,
                    "filetype": "MS Windows PE",
                    "lang": "CHINESE SIMPLIFIED",
                    "sha256": "75e9b8a00dffcb7292799ccce3ec6c4f93b68c76d6053188644481bdc8fb3a2a",
                    "type": "CUSTOM"
                },
                {
                    "chi2": 463375.25,
                    "entropy": 4.73099946975708,
                    "filetype": "MS Windows PE",
                    "lang": "CHINESE SIMPLIFIED",
                    "sha256": "2f1735beef0cd65755588e58b2e6803cbceb9fd50ba8502163da0950be933029",
                    "type": "CUSTOM"
                },
                {
                    "chi2": 4565345.0,
                    "entropy": 1.8672561645507812,
                    "filetype": "data",
                    "lang": "NEUTRAL",
                    "sha256": "6dd2c52dd4a6f6e50b93f8c5e65b063f52d996dc71226e6146bdea9455da6256",
                    "type": "RT_ICON"
                },
                {
                    "chi2": 1490.400146484375,
                    "entropy": 2.3232197761535645,
                    "filetype": "data",
                    "lang": "NEUTRAL",
                    "sha256": "850277eef4d433b852077e4b9f88a13f9be4ef0b60ba19d8dbbad99813c2345f",
                    "type": "RT_GROUP_ICON"
                },
                {
                    "chi2": 68404.3671875,
                    "entropy": 3.4605066776275635,
                    "filetype": "data",
                    "lang": "CHINESE SIMPLIFIED",
                    "sha256": "c5e5319b8e6f14c22a01784f8e5bba605fdc1e54fc13ec198b03f483e35ff634",
                    "type": "RT_VERSION"
                }
            ],
            "resource_langs": {
                "CHINESE SIMPLIFIED": 4,
                "NEUTRAL": 2
            },
            "resource_types": {
                "CUSTOM": 3,
                "RT_GROUP_ICON": 1,
                "RT_ICON": 1,
                "RT_VERSION": 1
            },
            "sections": [
                {
                    "entropy": 4.87,
                    "md5": "30695b8f3e042a947d4aa46b7f80da27",
                    "name": ".text",
                    "raw_size": 147456,
                    "virtual_address": 4096,
                    "virtual_size": 146936
                },
                {
                    "entropy": 0.0,
                    "md5": "620f0b67a91f7f74151bc5be745b7110",
                    "name": ".data",
                    "raw_size": 4096,
                    "virtual_address": 151552,
                    "virtual_size": 3412
                },
                {
                    "entropy": 3.38,
                    "md5": "c22e7beb94e1d912575e2fe4038a07d0",
                    "name": ".rsrc",
                    "raw_size": 65536,
                    "virtual_address": 155648,
                    "virtual_size": 65504
                }
            ],
            "timestamp": 1195784368
        },
        "reputation": 0,
        "sha1": "0b9d15183def6fb46af791401c723885aa053bb3",
        "sha256": "0003316c72f2ab4843ecb1d5524861920a2b21585702f2a9203a01920711c9ed",
        "signature_info": {
            "comments": "Windows Update Manager for NT",
            "copyright": "Copyright (C) Microsoft Corp. 1981-1999",
            "description": "G.3",
            "file version": "6.01",
            "internal name": "INCUBUS",
            "original name": "INCUBUS.exe",
            "product": "Microsoft(R) Windows (R) 2000 Operating System",
            "x509": [
                {
                    "algorithm": "sha1RSA",
                    "cert issuer": "Thawte Timestamping CA",
                    "name": "VeriSign Time Stamping Services CA",
                    "serial number": "47 BF 19 95 DF 8D 52 46 43 F7 DB 6D 48 0D 31 A4",
                    "thumbprint": "F46AC0C6EFBB8C6A14F55F09E2D37DF4C0DE012D",
                    "valid from": "12:00 AM 12/4/2003",
                    "valid to": "11:59 PM 12/3/2013",
                    "valid_usage": "Timestamp Signing"
                },
                {
                    "algorithm": "sha1RSA",
                    "cert issuer": "VeriSign Time Stamping Services CA",
                    "name": "VeriSign Time Stamping Services Signer",
                    "serial number": "DE 92 BF 0D 4D 82 98 81 83 20 50 95 E9 A7 68 8",
                    "thumbprint": "817E78267300CB0FE5D631357851DB366123A690",
                    "valid from": "12:00 AM 12/4/2003",
                    "valid to": "11:59 PM 12/3/2008",
                    "valid_usage": "ff"
                },
                {
                    "algorithm": "sha1RSA",
                    "cert issuer": null,
                    "name": "VeriSign Class 3 Code Signing 2004 CA",
                    "serial number": "41 91 A1 5A 39 78 DF CF 49 65 66 38 1D 4C 75 C2",
                    "thumbprint": "197A4AEBDB25F0170079BB8C73CB2D655E0018A4",
                    "valid from": "12:00 AM 7/16/2004",
                    "valid to": "11:59 PM 7/15/2014",
                    "valid_usage": "Client Auth, Code Signing"
                },
                {
                    "algorithm": "sha1RSA",
                    "cert issuer": "VeriSign Class 3 Code Signing 2004 CA",
                    "name": "Adobe Systems, Incorporated",
                    "serial number": "27 0D 75 5C 9F 5A C3 B7 DB 61 F5 09 98 28 70 78",
                    "thumbprint": "39A129ABFB626211A3A0CEE25648B4AF843D5C25",
                    "valid from": "12:00 AM 9/19/2006",
                    "valid to": "11:59 PM 11/5/2009",
                    "valid_usage": "Code Signing"
                },
                {
                    "algorithm": "md5RSA",
                    "cert issuer": "Thawte Premium Server CA",
                    "name": "Thawte Premium Server CA",
                    "serial number": "01",
                    "thumbprint": "627F8D7827656399D27D7F9044C9FEB3F33EFA9A",
                    "valid from": "12:00 AM 8/1/1996",
                    "valid to": "11:59 PM 12/31/2020",
                    "valid_usage": null
                },
                {
                    "algorithm": "sha1RSA",
                    "cert issuer": "Thawte Premium Server CA",
                    "name": "Thawte Code Signing CA",
                    "serial number": "0A",
                    "thumbprint": "A706BA1ECAB6A2AB18699FC0D7DD8C7DE36F290F",
                    "valid from": "12:00 AM 8/6/2003",
                    "valid to": "11:59 PM 8/5/2013",
                    "valid_usage": "Client Auth, Code Signing"
                },
                {
                    "algorithm": "sha1RSA",
                    "cert issuer": "VeriSign Time Stamping Services CA",
                    "name": "VeriSign Time Stamping Services Signer - G2",
                    "serial number": "38 25 D7 FA F8 61 AF 9E F4 90 E7 26 B5 D6 5A D5",
                    "thumbprint": "ADA8AAA643FF7DC38DD40FA4C97AD559FF4846DE",
                    "valid from": "12:00 AM 6/15/2007",
                    "valid to": "11:59 PM 6/14/2012",
                    "valid_usage": "ff"
                },
                {
                    "algorithm": "sha1RSA",
                    "cert issuer": "Thawte Timestamping CA",
                    "name": "VeriSign Time Stamping Services CA",
                    "serial number": "47 BF 19 95 DF 8D 52 46 43 F7 DB 6D 48 0D 31 A4",
                    "thumbprint": "F46AC0C6EFBB8C6A14F55F09E2D37DF4C0DE012D",
                    "valid from": "12:00 AM 12/4/2003",
                    "valid to": "11:59 PM 12/3/2013",
                    "valid_usage": "Timestamp Signing"
                },
                {
                    "algorithm": "sha1RSA",
                    "cert issuer": "Thawte Code Signing CA",
                    "name": "Mozilla Corporation",
                    "serial number": "10 28 ED DD 91 85 2B 07 C8 9F 4F E8 AC B6 2D 94",
                    "thumbprint": "45FD36F96322F30D6C4300667EEB2B32F6548ADB",
                    "valid from": "10:39 PM 10/29/2007",
                    "valid to": "9:38 PM 11/1/2008",
                    "valid_usage": "Code Signing, 0.4.1.311.2.1"
                },
                {
                    "algorithm": "md5RSA",
                    "cert issuer": "Thawte Premium Server CA",
                    "name": "Thawte Premium Server CA",
                    "serial number": "01",
                    "thumbprint": "627F8D7827656399D27D7F9044C9FEB3F33EFA9A",
                    "valid from": "12:00 AM 8/1/1996",
                    "valid to": "11:59 PM 12/31/2020",
                    "valid_usage": null
                },
                {
                    "algorithm": "sha1RSA",
                    "cert issuer": "Thawte Premium Server CA",
                    "name": "Thawte Code Signing CA",
                    "serial number": "0A",
                    "thumbprint": "A706BA1ECAB6A2AB18699FC0D7DD8C7DE36F290F",
                    "valid from": "12:00 AM 8/6/2003",
                    "valid to": "11:59 PM 8/5/2013",
                    "valid_usage": "Client Auth, Code Signing"
                },
                {
                    "algorithm": "sha1RSA",
                    "cert issuer": "VeriSign Time Stamping Services CA",
                    "name": "VeriSign Time Stamping Services Signer - G2",
                    "serial number": "38 25 D7 FA F8 61 AF 9E F4 90 E7 26 B5 D6 5A D5",
                    "thumbprint": "ADA8AAA643FF7DC38DD40FA4C97AD559FF4846DE",
                    "valid from": "12:00 AM 6/15/2007",
                    "valid to": "11:59 PM 6/14/2012",
                    "valid_usage": "ff"
                },
                {
                    "algorithm": "sha1RSA",
                    "cert issuer": "Thawte Timestamping CA",
                    "name": "VeriSign Time Stamping Services CA",
                    "serial number": "47 BF 19 95 DF 8D 52 46 43 F7 DB 6D 48 0D 31 A4",
                    "thumbprint": "F46AC0C6EFBB8C6A14F55F09E2D37DF4C0DE012D",
                    "valid from": "12:00 AM 12/4/2003",
                    "valid to": "11:59 PM 12/3/2013",
                    "valid_usage": "Timestamp Signing"
                },
                {
                    "algorithm": "sha1RSA",
                    "cert issuer": "Thawte Code Signing CA",
                    "name": "Mozilla Corporation",
                    "serial number": "10 28 ED DD 91 85 2B 07 C8 9F 4F E8 AC B6 2D 94",
                    "thumbprint": "45FD36F96322F30D6C4300667EEB2B32F6548ADB",
                    "valid from": "10:39 PM 10/29/2007",
                    "valid to": "9:38 PM 11/1/2008",
                    "valid_usage": "Code Signing, 0.4.1.311.2.1"
                },
                {
                    "algorithm": "sha1RSA",
                    "cert issuer": "Thawte Timestamping CA",
                    "name": "VeriSign Time Stamping Services CA",
                    "serial number": "47 BF 19 95 DF 8D 52 46 43 F7 DB 6D 48 0D 31 A4",
                    "thumbprint": "F46AC0C6EFBB8C6A14F55F09E2D37DF4C0DE012D",
                    "valid from": "12:00 AM 12/4/2003",
                    "valid to": "11:59 PM 12/3/2013",
                    "valid_usage": "Timestamp Signing"
                },
                {
                    "algorithm": "sha1RSA",
                    "cert issuer": "VeriSign Time Stamping Services CA",
                    "name": "VeriSign Time Stamping Services Signer",
                    "serial number": "DE 92 BF 0D 4D 82 98 81 83 20 50 95 E9 A7 68 8",
                    "thumbprint": "817E78267300CB0FE5D631357851DB366123A690",
                    "valid from": "12:00 AM 12/4/2003",
                    "valid to": "11:59 PM 12/3/2008",
                    "valid_usage": "ff"
                },
                {
                    "algorithm": "sha1RSA",
                    "cert issuer": null,
                    "name": "VeriSign Class 3 Code Signing 2004 CA",
                    "serial number": "41 91 A1 5A 39 78 DF CF 49 65 66 38 1D 4C 75 C2",
                    "thumbprint": "197A4AEBDB25F0170079BB8C73CB2D655E0018A4",
                    "valid from": "12:00 AM 7/16/2004",
                    "valid to": "11:59 PM 7/15/2014",
                    "valid_usage": "Client Auth, Code Signing"
                },
                {
                    "algorithm": "sha1RSA",
                    "cert issuer": "VeriSign Class 3 Code Signing 2004 CA",
                    "name": "Adobe Systems, Incorporated",
                    "serial number": "27 0D 75 5C 9F 5A C3 B7 DB 61 F5 09 98 28 70 78",
                    "thumbprint": "39A129ABFB626211A3A0CEE25648B4AF843D5C25",
                    "valid from": "12:00 AM 9/19/2006",
                    "valid to": "11:59 PM 11/5/2009",
                    "valid_usage": "Code Signing"
                },
                {
                    "algorithm": "sha1RSA",
                    "cert issuer": "VeriSign Time Stamping Services CA",
                    "name": "VeriSign Time Stamping Services Signer - G2",
                    "serial number": "38 25 D7 FA F8 61 AF 9E F4 90 E7 26 B5 D6 5A D5",
                    "thumbprint": "ADA8AAA643FF7DC38DD40FA4C97AD559FF4846DE",
                    "valid from": "12:00 AM 6/15/2007",
                    "valid to": "11:59 PM 6/14/2012",
                    "valid_usage": "ff"
                },
                {
                    "algorithm": "sha1RSA",
                    "cert issuer": "Thawte Timestamping CA",
                    "name": "VeriSign Time Stamping Services CA",
                    "serial number": "47 BF 19 95 DF 8D 52 46 43 F7 DB 6D 48 0D 31 A4",
                    "thumbprint": "F46AC0C6EFBB8C6A14F55F09E2D37DF4C0DE012D",
                    "valid from": "12:00 AM 12/4/2003",
                    "valid to": "11:59 PM 12/3/2013",
                    "valid_usage": "Timestamp Signing"
                },
                {
                    "algorithm": "sha1RSA",
                    "cert issuer": null,
                    "name": "VeriSign Class 3 Code Signing 2004 CA",
                    "serial number": "41 91 A1 5A 39 78 DF CF 49 65 66 38 1D 4C 75 C2",
                    "thumbprint": "197A4AEBDB25F0170079BB8C73CB2D655E0018A4",
                    "valid from": "12:00 AM 7/16/2004",
                    "valid to": "11:59 PM 7/15/2014",
                    "valid_usage": "Client Auth, Code Signing"
                },
                {
                    "algorithm": "sha1RSA",
                    "cert issuer": "VeriSign Class 3 Code Signing 2004 CA",
                    "name": "Adobe Systems, Incorporated",
                    "serial number": "27 0D 75 5C 9F 5A C3 B7 DB 61 F5 09 98 28 70 78",
                    "thumbprint": "39A129ABFB626211A3A0CEE25648B4AF843D5C25",
                    "valid from": "12:00 AM 9/19/2006",
                    "valid to": "11:59 PM 11/5/2009",
                    "valid_usage": "Code Signing"
                },
                {
                    "algorithm": "sha1RSA",
                    "cert issuer": "VeriSign Time Stamping Services CA",
                    "name": "VeriSign Time Stamping Services Signer - G2",
                    "serial number": "38 25 D7 FA F8 61 AF 9E F4 90 E7 26 B5 D6 5A D5",
                    "thumbprint": "ADA8AAA643FF7DC38DD40FA4C97AD559FF4846DE",
                    "valid from": "12:00 AM 6/15/2007",
                    "valid to": "11:59 PM 6/14/2012",
                    "valid_usage": "ff"
                },
                {
                    "algorithm": "sha1RSA",
                    "cert issuer": "Thawte Timestamping CA",
                    "name": "VeriSign Time Stamping Services CA",
                    "serial number": "47 BF 19 95 DF 8D 52 46 43 F7 DB 6D 48 0D 31 A4",
                    "thumbprint": "F46AC0C6EFBB8C6A14F55F09E2D37DF4C0DE012D",
                    "valid from": "12:00 AM 12/4/2003",
                    "valid to": "11:59 PM 12/3/2013",
                    "valid_usage": "Timestamp Signing"
                },
                {
                    "algorithm": "sha1RSA",
                    "cert issuer": null,
                    "name": "VeriSign Class 3 Code Signing 2004 CA",
                    "serial number": "41 91 A1 5A 39 78 DF CF 49 65 66 38 1D 4C 75 C2",
                    "thumbprint": "197A4AEBDB25F0170079BB8C73CB2D655E0018A4",
                    "valid from": "12:00 AM 7/16/2004",
                    "valid to": "11:59 PM 7/15/2014",
                    "valid_usage": "Client Auth, Code Signing"
                },
                {
                    "algorithm": "sha1RSA",
                    "cert issuer": "VeriSign Class 3 Code Signing 2004 CA",
                    "name": "Adobe Systems, Incorporated",
                    "serial number": "27 0D 75 5C 9F 5A C3 B7 DB 61 F5 09 98 28 70 78",
                    "thumbprint": "39A129ABFB626211A3A0CEE25648B4AF843D5C25",
                    "valid from": "12:00 AM 9/19/2006",
                    "valid to": "11:59 PM 11/5/2009",
                    "valid_usage": "Code Signing"
                },
                {
                    "algorithm": "sha1RSA",
                    "cert issuer": "Thawte Timestamping CA",
                    "name": "VeriSign Time Stamping Services CA",
                    "serial number": "47 BF 19 95 DF 8D 52 46 43 F7 DB 6D 48 0D 31 A4",
                    "thumbprint": "F46AC0C6EFBB8C6A14F55F09E2D37DF4C0DE012D",
                    "valid from": "12:00 AM 12/4/2003",
                    "valid to": "11:59 PM 12/3/2013",
                    "valid_usage": "Timestamp Signing"
                },
                {
                    "algorithm": "sha1RSA",
                    "cert issuer": "VeriSign Time Stamping Services CA",
                    "name": "VeriSign Time Stamping Services Signer",
                    "serial number": "DE 92 BF 0D 4D 82 98 81 83 20 50 95 E9 A7 68 8",
                    "thumbprint": "817E78267300CB0FE5D631357851DB366123A690",
                    "valid from": "12:00 AM 12/4/2003",
                    "valid to": "11:59 PM 12/3/2008",
                    "valid_usage": "ff"
                },
                {
                    "algorithm": "md5RSA",
                    "cert issuer": "Microsoft Root Authority",
                    "name": "Microsoft Root Authority",
                    "serial number": "C1 00 8B 3C 3C 88 11 D1 3E F6 63 EC DF 40",
                    "thumbprint": "A43489159A520F0D93D032CCAF37E7FE20A8B419",
                    "valid from": "7:00 AM 1/10/1997",
                    "valid to": "7:00 AM 12/31/2020",
                    "valid_usage": null
                },
                {
                    "algorithm": "1.3.14.3.2.29",
                    "cert issuer": "Microsoft Root Authority",
                    "name": "Microsoft Code Signing PCA",
                    "serial number": "6A 0B 99 4F C0 00 1D AB 11 DA C4 02 A1 66 27 BA",
                    "thumbprint": "D07EA64088A80085F01BD40AA4EAD82F470482A6",
                    "valid from": "5:44 PM 4/4/2006",
                    "valid to": "7:00 AM 4/26/2012",
                    "valid_usage": "Code Signing"
                },
                {
                    "algorithm": "sha1RSA",
                    "cert issuer": "Microsoft Code Signing PCA",
                    "name": "Microsoft Corporation",
                    "serial number": "61 46 9E CB 00 04 00 00 00 65",
                    "thumbprint": "564E01066387F26C912010D06BD78D3CF1E845AB",
                    "valid from": "7:43 PM 4/4/2006",
                    "valid to": "7:53 PM 10/4/2007",
                    "valid_usage": "Code Signing"
                },
                {
                    "algorithm": "sha1RSA",
                    "cert issuer": "Thawte Timestamping CA",
                    "name": "VeriSign Time Stamping Services CA",
                    "serial number": "47 BF 19 95 DF 8D 52 46 43 F7 DB 6D 48 0D 31 A4",
                    "thumbprint": "F46AC0C6EFBB8C6A14F55F09E2D37DF4C0DE012D",
                    "valid from": "12:00 AM 12/4/2003",
                    "valid to": "11:59 PM 12/3/2013",
                    "valid_usage": "Timestamp Signing"
                },
                {
                    "algorithm": "sha1RSA",
                    "cert issuer": "VeriSign Time Stamping Services CA",
                    "name": "VeriSign Time Stamping Services Signer",
                    "serial number": "DE 92 BF 0D 4D 82 98 81 83 20 50 95 E9 A7 68 8",
                    "thumbprint": "817E78267300CB0FE5D631357851DB366123A690",
                    "valid from": "12:00 AM 12/4/2003",
                    "valid to": "11:59 PM 12/3/2008",
                    "valid_usage": "ff"
                },
                {
                    "algorithm": "md5RSA",
                    "cert issuer": "Microsoft Root Authority",
                    "name": "Microsoft Root Authority",
                    "serial number": "C1 00 8B 3C 3C 88 11 D1 3E F6 63 EC DF 40",
                    "thumbprint": "A43489159A520F0D93D032CCAF37E7FE20A8B419",
                    "valid from": "7:00 AM 1/10/1997",
                    "valid to": "7:00 AM 12/31/2020",
                    "valid_usage": null
                },
                {
                    "algorithm": "1.3.14.3.2.29",
                    "cert issuer": "Microsoft Root Authority",
                    "name": "Microsoft Code Signing PCA",
                    "serial number": "6A 0B 99 4F C0 00 1D AB 11 DA C4 02 A1 66 27 BA",
                    "thumbprint": "D07EA64088A80085F01BD40AA4EAD82F470482A6",
                    "valid from": "5:44 PM 4/4/2006",
                    "valid to": "7:00 AM 4/26/2012",
                    "valid_usage": "Code Signing"
                },
                {
                    "algorithm": "sha1RSA",
                    "cert issuer": "Microsoft Code Signing PCA",
                    "name": "Microsoft Corporation",
                    "serial number": "61 46 9E CB 00 04 00 00 00 65",
                    "thumbprint": "564E01066387F26C912010D06BD78D3CF1E845AB",
                    "valid from": "7:43 PM 4/4/2006",
                    "valid to": "7:53 PM 10/4/2007",
                    "valid_usage": "Code Signing"
                },
                {
                    "algorithm": "sha1RSA",
                    "cert issuer": "Thawte Timestamping CA",
                    "name": "VeriSign Time Stamping Services CA",
                    "serial number": "47 BF 19 95 DF 8D 52 46 43 F7 DB 6D 48 0D 31 A4",
                    "thumbprint": "F46AC0C6EFBB8C6A14F55F09E2D37DF4C0DE012D",
                    "valid from": "12:00 AM 12/4/2003",
                    "valid to": "11:59 PM 12/3/2013",
                    "valid_usage": "Timestamp Signing"
                },
                {
                    "algorithm": "sha1RSA",
                    "cert issuer": "VeriSign Time Stamping Services CA",
                    "name": "VeriSign Time Stamping Services Signer",
                    "serial number": "DE 92 BF 0D 4D 82 98 81 83 20 50 95 E9 A7 68 8",
                    "thumbprint": "817E78267300CB0FE5D631357851DB366123A690",
                    "valid from": "12:00 AM 12/4/2003",
                    "valid to": "11:59 PM 12/3/2008",
                    "valid_usage": "ff"
                },
                {
                    "algorithm": "md5RSA",
                    "cert issuer": "Microsoft Root Authority",
                    "name": "Microsoft Root Authority",
                    "serial number": "C1 00 8B 3C 3C 88 11 D1 3E F6 63 EC DF 40",
                    "thumbprint": "A43489159A520F0D93D032CCAF37E7FE20A8B419",
                    "valid from": "7:00 AM 1/10/1997",
                    "valid to": "7:00 AM 12/31/2020",
                    "valid_usage": null
                },
                {
                    "algorithm": "1.3.14.3.2.29",
                    "cert issuer": "Microsoft Root Authority",
                    "name": "Microsoft Code Signing PCA",
                    "serial number": "6A 0B 99 4F C0 00 1D AB 11 DA C4 02 A1 66 27 BA",
                    "thumbprint": "D07EA64088A80085F01BD40AA4EAD82F470482A6",
                    "valid from": "5:44 PM 4/4/2006",
                    "valid to": "7:00 AM 4/26/2012",
                    "valid_usage": "Code Signing"
                },
                {
                    "algorithm": "sha1RSA",
                    "cert issuer": "Microsoft Code Signing PCA",
                    "name": "Microsoft Corporation",
                    "serial number": "61 46 9E CB 00 04 00 00 00 65",
                    "thumbprint": "564E01066387F26C912010D06BD78D3CF1E845AB",
                    "valid from": "7:43 PM 4/4/2006",
                    "valid to": "7:53 PM 10/4/2007",
                    "valid_usage": "Code Signing"
                },
                {
                    "algorithm": "sha1RSA",
                    "cert issuer": "Thawte Timestamping CA",
                    "name": "Symantec Time Stamping Services CA - G2",
                    "serial number": "7E 93 EB FB 7C C6 4E 59 EA 4B 9A 77 D4 06 FC 3B",
                    "thumbprint": "6C07453FFDDA08B83707C09B82FB3D15F35336B1",
                    "valid from": "12:00 AM 12/21/2012",
                    "valid to": "11:59 PM 12/30/2020",
                    "valid_usage": "Timestamp Signing"
                },
                {
                    "algorithm": "sha1RSA",
                    "cert issuer": "Symantec Time Stamping Services CA - G2",
                    "name": "Symantec Time Stamping Services Signer - G4",
                    "serial number": "EC FF 43 8C 8F EB F3 56 E0 4D 86 A9 81 B1 A5 0",
                    "thumbprint": "65439929B67973EB192D6FF243E6767ADF0834E4",
                    "valid from": "12:00 AM 10/18/2012",
                    "valid to": "11:59 PM 12/29/2020",
                    "valid_usage": "ff"
                },
                {
                    "algorithm": "sha1RSA",
                    "cert issuer": "VeriSign Class 3 Code Signing 2010 CA",
                    "name": "Sysinternals",
                    "serial number": "1E FD 98 3A 49 D3 F1 52 AC 9C D2 94 1B 8A 0E DD",
                    "thumbprint": "8C91F59C6728DDD78961D30D2AEBCCD180B621FD",
                    "valid from": "12:00 AM 4/6/2013",
                    "valid to": "11:59 PM 5/5/2016",
                    "valid_usage": "Code Signing"
                },
                {
                    "algorithm": "sha1RSA",
                    "cert issuer": "Microsoft Code Verification Root",
                    "name": "VeriSign Class 3 Public Primary Certification Authority - G5",
                    "serial number": "61 19 93 E4 00 00 00 00 00 1C",
                    "thumbprint": "57534CCC33914C41F70E2CBB2103A1DB18817D8B",
                    "valid from": "7:25 PM 2/22/2011",
                    "valid to": "7:35 PM 2/22/2021",
                    "valid_usage": null
                },
                {
                    "algorithm": "sha1RSA",
                    "cert issuer": "Thawte Timestamping CA",
                    "name": "Symantec Time Stamping Services CA - G2",
                    "serial number": "7E 93 EB FB 7C C6 4E 59 EA 4B 9A 77 D4 06 FC 3B",
                    "thumbprint": "6C07453FFDDA08B83707C09B82FB3D15F35336B1",
                    "valid from": "12:00 AM 12/21/2012",
                    "valid to": "11:59 PM 12/30/2020",
                    "valid_usage": "Timestamp Signing"
                },
                {
                    "algorithm": "sha1RSA",
                    "cert issuer": "Symantec Time Stamping Services CA - G2",
                    "name": "Symantec Time Stamping Services Signer - G4",
                    "serial number": "EC FF 43 8C 8F EB F3 56 E0 4D 86 A9 81 B1 A5 0",
                    "thumbprint": "65439929B67973EB192D6FF243E6767ADF0834E4",
                    "valid from": "12:00 AM 10/18/2012",
                    "valid to": "11:59 PM 12/29/2020",
                    "valid_usage": "ff"
                },
                {
                    "algorithm": "sha1RSA",
                    "cert issuer": "VeriSign Class 3 Code Signing 2010 CA",
                    "name": "Sysinternals",
                    "serial number": "1E FD 98 3A 49 D3 F1 52 AC 9C D2 94 1B 8A 0E DD",
                    "thumbprint": "8C91F59C6728DDD78961D30D2AEBCCD180B621FD",
                    "valid from": "12:00 AM 4/6/2013",
                    "valid to": "11:59 PM 5/5/2016",
                    "valid_usage": "Code Signing"
                },
                {
                    "algorithm": "sha1RSA",
                    "cert issuer": "Microsoft Code Verification Root",
                    "name": "VeriSign Class 3 Public Primary Certification Authority - G5",
                    "serial number": "61 19 93 E4 00 00 00 00 00 1C",
                    "thumbprint": "57534CCC33914C41F70E2CBB2103A1DB18817D8B",
                    "valid from": "7:25 PM 2/22/2011",
                    "valid to": "7:35 PM 2/22/2021",
                    "valid_usage": null
                },
                {
                    "algorithm": "sha1RSA",
                    "cert issuer": "Microsoft Time-Stamp PCA",
                    "name": "Microsoft Time-Stamp Service",
                    "serial number": "33 00 00 00 71 B3 2E 8A 6B 82 AA 1F 4E 00 00 00 00 00 71",
                    "thumbprint": "0731E6E5631C8EC056E121B4DF6832DD460D90EF",
                    "valid from": "5:32 PM 3/20/2015",
                    "valid to": "5:32 PM 6/20/2016",
                    "valid_usage": "Timestamp Signing"
                },
                {
                    "algorithm": "sha1RSA",
                    "cert issuer": "Microsoft Code Signing PCA",
                    "name": "Microsoft Corporation",
                    "serial number": "33 00 00 00 CA 6C D5 32 12 35 C4 E1 55 00 01 00 00 00 CA",
                    "thumbprint": "67B1757863E3EFF760EA9EBB02849AF07D3A8080",
                    "valid from": "5:39 PM 4/22/2014",
                    "valid to": "5:39 PM 7/22/2015",
                    "valid_usage": "Code Signing"
                },
                {
                    "algorithm": "sha1RSA",
                    "cert issuer": "Microsoft Root Certificate Authority",
                    "name": "Microsoft Code Signing PCA",
                    "serial number": "61 33 26 1A 00 00 00 00 00 31",
                    "thumbprint": "3CAF9BA2DB5570CAF76942FF99101B993888E257",
                    "valid from": "10:19 PM 8/31/2010",
                    "valid to": "10:29 PM 8/31/2020",
                    "valid_usage": null
                },
                {
                    "algorithm": "sha1RSA",
                    "cert issuer": "Microsoft Root Certificate Authority",
                    "name": "Microsoft Time-Stamp PCA",
                    "serial number": "61 16 68 34 00 00 00 00 00 1C",
                    "thumbprint": "375FCB825C3DC3752A02E34EB70993B4997191EF",
                    "valid from": "12:53 PM 4/3/2007",
                    "valid to": "1:03 PM 4/3/2021",
                    "valid_usage": "Timestamp Signing"
                },
                {
                    "algorithm": "sha1RSA",
                    "cert issuer": "Microsoft Time-Stamp PCA",
                    "name": "Microsoft Time-Stamp Service",
                    "serial number": "33 00 00 00 71 B3 2E 8A 6B 82 AA 1F 4E 00 00 00 00 00 71",
                    "thumbprint": "0731E6E5631C8EC056E121B4DF6832DD460D90EF",
                    "valid from": "5:32 PM 3/20/2015",
                    "valid to": "5:32 PM 6/20/2016",
                    "valid_usage": "Timestamp Signing"
                },
                {
                    "algorithm": "sha1RSA",
                    "cert issuer": "Microsoft Code Signing PCA",
                    "name": "Microsoft Corporation",
                    "serial number": "33 00 00 00 CA 6C D5 32 12 35 C4 E1 55 00 01 00 00 00 CA",
                    "thumbprint": "67B1757863E3EFF760EA9EBB02849AF07D3A8080",
                    "valid from": "5:39 PM 4/22/2014",
                    "valid to": "5:39 PM 7/22/2015",
                    "valid_usage": "Code Signing"
                },
                {
                    "algorithm": "sha1RSA",
                    "cert issuer": "Microsoft Root Certificate Authority",
                    "name": "Microsoft Code Signing PCA",
                    "serial number": "61 33 26 1A 00 00 00 00 00 31",
                    "thumbprint": "3CAF9BA2DB5570CAF76942FF99101B993888E257",
                    "valid from": "10:19 PM 8/31/2010",
                    "valid to": "10:29 PM 8/31/2020",
                    "valid_usage": null
                },
                {
                    "algorithm": "sha1RSA",
                    "cert issuer": "Microsoft Root Certificate Authority",
                    "name": "Microsoft Time-Stamp PCA",
                    "serial number": "61 16 68 34 00 00 00 00 00 1C",
                    "thumbprint": "375FCB825C3DC3752A02E34EB70993B4997191EF",
                    "valid from": "12:53 PM 4/3/2007",
                    "valid to": "1:03 PM 4/3/2021",
                    "valid_usage": "Timestamp Signing"
                }
            ]
        },
        "size": 8347583,
        "ssdeep": "98304:2frQZerQZ2cKiRg3kX2s+wE9XD8VB7iQHkmy1y3JyZd:2fr2er22zw2V9z8uQHpEy3JyZd",
        "tags": [
            "peexe",
            "overlay"
        ],
        "times_submitted": 1,
        "total_votes": {
            "harmless": 0,
            "malicious": 0
        },
        "trid": [
            {
                "file_type": "NSIS - Nullsoft Scriptable Install System",
                "probability": 71.1
            },
            {
                "file_type": "Windows ActiveX control",
                "probability": 9.7
            },
            {
                "file_type": "Win32 Executable Microsoft Visual Basic 6",
                "probability": 6.8
            },
            {
                "file_type": "InstallShield setup",
                "probability": 3.6
            },
            {
                "file_type": "Win32 Executable MS Visual C++ (generic)",
                "probability": 2.6
            }
        ],
        "type_description": "Win32 EXE",
        "type_extension": "exe",
        "type_tag": "peexe",
        "unique_sources": 1,
        "vhash": "0860365d051)z9b3z"
    },
    "id": "0003316c72f2ab4843ecb1d5524861920a2b21585702f2a9203a01920711c9ed",
    "links": {
        "self": "https://www.virustotal.com/api/v3/files/0003316c72f2ab4843ecb1d5524861920a2b21585702f2a9203a01920711c9ed"
    },
    "type": "file"
}