{
    "attributes": {
        "authentihash": "92d7d6190b4f6c9b3b5c96e51e5a6dcfd384633c6ead5fac8e2171e6026e0980",
        "creation_date": 1502132886,
        "dot_net_assembly": {
            "assembly_data": {
                "buildnumber": 0,
                "culture": "",
                "flags": 49152,
                "flags_text": "afDisableJITcompileOptimizer, afEnableJITcompileTracking",
                "hashalgid": 32772,
                "majorversion": 0,
                "minorversion": 0,
                "name": "FConsole",
                "pubkey": "",
                "revisionnumber": 0
            },
            "assembly_flags": 131075,
            "assembly_flags_txt": "COMIMAGE_FLAGS_ILONLY, COMIMAGE_FLAGS_32BITREQUIRED",
            "assembly_name": "FConsole.exe",
            "clr_meta_version": "1.1",
            "clr_version": "v4.0.30319",
            "entry_point_rva": 64932,
            "entry_point_token": 100663299,
            "external_assemblies": {
                "FSharp.Core": {
                    "version": "4.3.0.0"
                },
                "mscorlib": {
                    "version": "4.0.0.0"
                }
            },
            "manifest_resource": [
                "FSharpOptimizationData.FConsole",
                "FSharpSignatureData.FConsole"
            ],
            "metadata_header_rva": 8376,
            "resources_va": 996,
            "streams": {
                "#Blob": {
                    "chi2": 5061.04638671875,
                    "entropy": 4.824995040893555,
                    "md5": "f1ebe4392f5a6f2750791811470ff3dd",
                    "size": 276
                },
                "#GUID": {
                    "chi2": 368.0,
                    "entropy": 3.5,
                    "md5": "476b348fb1ee550af52c5e76303b12e2",
                    "size": 16
                },
                "#Strings": {
                    "chi2": 8837.7119140625,
                    "entropy": 5.005536079406738,
                    "md5": "34863cb417505d3f14a2e41aa3d0b695",
                    "size": 916
                },
                "#US": {
                    "chi2": 3874356.5,
                    "entropy": 3.313216209411621,
                    "md5": "8bd95adb54773c4754ef03e31ce92ac3",
                    "size": 54624
                },
                "#~": {
                    "chi2": 41212.5078125,
                    "entropy": 3.801459789276123,
                    "md5": "814bc35a43e9f72bc5caf589426f39d6",
                    "size": 616
                }
            },
            "strongname_va": 0,
            "tables_present": 15,
            "tables_present_map": "90901a21457L",
            "tables_rows_map": "11340303000f0c00003000102200000001002000020010",
            "tables_rows_map_log": "475556654444444",
            "type_definition_list": [
                {
                    "namespace": "System.Reflection",
                    "type_definitions": [
                        "Assembly",
                        "MethodInfo",
                        "MethodBase"
                    ]
                },
                {
                    "namespace": "System.Diagnostics",
                    "type_definitions": [
                        "DebuggableAttribute",
                        "DebuggerBrowsableAttribute",
                        "DebuggerBrowsableState",
                        "DebuggerNonUserCodeAttribute"
                    ]
                },
                {
                    "namespace": "Microsoft.FSharp.Collections",
                    "type_definitions": [
                        "ArrayModule"
                    ]
                },
                {
                    "namespace": "System",
                    "type_definitions": [
                        "Object",
                        "String",
                        "Convert",
                        "Int32",
                        "STAThreadAttribute"
                    ]
                },
                {
                    "namespace": "System.Runtime.CompilerServices",
                    "type_definitions": [
                        "CompilerGeneratedAttribute"
                    ]
                },
                {
                    "namespace": "System.Runtime.Versioning",
                    "type_definitions": [
                        "TargetFrameworkAttribute"
                    ]
                },
                {
                    "namespace": "Microsoft.FSharp.Core",
                    "type_definitions": [
                        "FSharpInterfaceDataVersionAttribute",
                        "CompilationMappingAttribute",
                        "SourceConstructFlags"
                    ]
                },
                {
                    "namespace": "uncategorized",
                    "type_definitions": [
                        "DebuggingModes"
                    ]
                }
            ]
        },
        "dot_net_guids": {
            "mvid": "5988ba96-84df-0fb5-a745-038396ba8859"
        },
        "first_submission_date": 1502133197,
        "last_analysis_date": 1598411935,
        "last_analysis_results": {
            "ALYac": {
                "category": "malicious",
                "engine_name": "ALYac",
                "engine_update": "20200826",
                "engine_version": "1.1.1.5",
                "method": "blacklist",
                "result": "Trojan.GenericKD.5786368"
            },
            "APEX": {
                "category": "malicious",
                "engine_name": "APEX",
                "engine_update": "20200825",
                "engine_version": "6.63",
                "method": "blacklist",
                "result": "Malicious"
            },
            "AVG": {
                "category": "malicious",
                "engine_name": "AVG",
                "engine_update": "20200826",
                "engine_version": "18.4.3895.0",
                "method": "blacklist",
                "result": "FileRepMetagen [Malware]"
            },
            "Acronis": {
                "category": "undetected",
                "engine_name": "Acronis",
                "engine_update": "20200806",
                "engine_version": "1.1.1.77",
                "method": "blacklist",
                "result": null
            },
            "Ad-Aware": {
                "category": "malicious",
                "engine_name": "Ad-Aware",
                "engine_update": "20200826",
                "engine_version": "3.0.16.117",
                "method": "blacklist",
                "result": "Trojan.GenericKD.5786368"
            },
            "AegisLab": {
                "category": "malicious",
                "engine_name": "AegisLab",
                "engine_update": "20200826",
                "engine_version": "4.2",
                "method": "blacklist",
                "result": "Trojan.Win32.Generic.4!c"
            },
            "AhnLab-V3": {
                "category": "undetected",
                "engine_name": "AhnLab-V3",
                "engine_update": "20200825",
                "engine_version": "3.18.1.10026",
                "method": "blacklist",
                "result": null
            },
            "Alibaba": {
                "category": "undetected",
                "engine_name": "Alibaba",
                "engine_update": "20190527",
                "engine_version": "0.3.0.5",
                "method": "blacklist",
                "result": null
            },
            "Antiy-AVL": {
                "category": "malicious",
                "engine_name": "Antiy-AVL",
                "engine_update": "20200825",
                "engine_version": "3.0.0.1",
                "method": "blacklist",
                "result": "Trojan/Win32.AGeneric"
            },
            "Arcabit": {
                "category": "malicious",
                "engine_name": "Arcabit",
                "engine_update": "20200826",
                "engine_version": "1.0.0.877",
                "method": "blacklist",
                "result": "Trojan.Generic.D584B00"
            },
            "Avast": {
                "category": "undetected",
                "engine_name": "Avast",
                "engine_update": "20200826",
                "engine_version": "18.4.3895.0",
                "method": "blacklist",
                "result": null
            },
            "Avast-Mobile": {
                "category": "type-unsupported",
                "engine_name": "Avast-Mobile",
                "engine_update": "20200825",
                "engine_version": "200825-00",
                "method": "blacklist",
                "result": null
            },
            "Avira": {
                "category": "malicious",
                "engine_name": "Avira",
                "engine_update": "20200826",
                "engine_version": "8.3.3.8",
                "method": "blacklist",
                "result": "HEUR/AGEN.1126214"
            },
            "Baidu": {
                "category": "undetected",
                "engine_name": "Baidu",
                "engine_update": "20190318",
                "engine_version": "1.0.0.2",
                "method": "blacklist",
                "result": null
            },
            "BitDefender": {
                "category": "malicious",
                "engine_name": "BitDefender",
                "engine_update": "20200826",
                "engine_version": "7.2",
                "method": "blacklist",
                "result": "Trojan.GenericKD.5786368"
            },
            "BitDefenderTheta": {
                "category": "malicious",
                "engine_name": "BitDefenderTheta",
                "engine_update": "20200824",
                "engine_version": "7.2.37796.0",
                "method": "blacklist",
                "result": "Gen:NN.ZemsilF.34196.dmW@auyIDFb"
            },
            "Bkav": {
                "category": "undetected",
                "engine_name": "Bkav",
                "engine_update": "20200826",
                "engine_version": "1.3.0.9899",
                "method": "blacklist",
                "result": null
            },
            "CAT-QuickHeal": {
                "category": "undetected",
                "engine_name": "CAT-QuickHeal",
                "engine_update": "20200826",
                "engine_version": "14.00",
                "method": "blacklist",
                "result": null
            },
            "CMC": {
                "category": "undetected",
                "engine_name": "CMC",
                "engine_update": "20200825",
                "engine_version": "2.7.2019.1",
                "method": "blacklist",
                "result": null
            },
            "ClamAV": {
                "category": "undetected",
                "engine_name": "ClamAV",
                "engine_update": "20200825",
                "engine_version": "0.102.4.0",
                "method": "blacklist",
                "result": null
            },
            "Comodo": {
                "category": "malicious",
                "engine_name": "Comodo",
                "engine_update": "20200728",
                "engine_version": "32668",
                "method": "blacklist",
                "result": "Malware@#2zwpn8gue5rke"
            },
            "CrowdStrike": {
                "category": "malicious",
                "engine_name": "CrowdStrike",
                "engine_update": "20190702",
                "engine_version": "1.0",
                "method": "blacklist",
                "result": "win/malicious_confidence_70% (D)"
            },
            "Cybereason": {
                "category": "malicious",
                "engine_name": "Cybereason",
                "engine_update": "20190616",
                "engine_version": "1.2.449",
                "method": "blacklist",
                "result": "malicious.692891"
            },
            "Cylance": {
                "category": "malicious",
                "engine_name": "Cylance",
                "engine_update": "20200826",
                "engine_version": "2.3.1.101",
                "method": "blacklist",
                "result": "Unsafe"
            },
            "Cynet": {
                "category": "malicious",
                "engine_name": "Cynet",
                "engine_update": "20200823",
                "engine_version": "4.0.0.24",
                "method": "blacklist",
                "result": "Malicious (score: 85)"
            },
            "Cyren": {
                "category": "undetected",
                "engine_name": "Cyren",
                "engine_update": "20200826",
                "engine_version": "6.3.0.2",
                "method": "blacklist",
                "result": null
            },
            "DrWeb": {
                "category": "undetected",
                "engine_name": "DrWeb",
                "engine_update": "20200826",
                "engine_version": "7.0.46.3050",
                "method": "blacklist",
                "result": null
            },
            "ESET-NOD32": {
                "category": "malicious",
                "engine_name": "ESET-NOD32",
                "engine_update": "20200826",
                "engine_version": "21882",
                "method": "blacklist",
                "result": "a variant of MSIL/Injector.PUT"
            },
            "Elastic": {
                "category": "malicious",
                "engine_name": "Elastic",
                "engine_update": "20200817",
                "engine_version": "4.0.7",
                "method": "blacklist",
                "result": "malicious (high confidence)"
            },
            "Emsisoft": {
                "category": "failure",
                "engine_name": "Emsisoft",
                "engine_update": "20200824",
                "engine_version": "2018.12.0.1641",
                "method": "blacklist",
                "result": null
            },
            "F-Secure": {
                "category": "malicious",
                "engine_name": "F-Secure",
                "engine_update": "20200826",
                "engine_version": "12.0.86.52",
                "method": "blacklist",
                "result": "Heuristic.HEUR/AGEN.1126214"
            },
            "FireEye": {
                "category": "timeout",
                "engine_name": "FireEye",
                "engine_update": "20200826",
                "engine_version": "32.36.1.0",
                "method": "blacklist",
                "result": null
            },
            "Fortinet": {
                "category": "malicious",
                "engine_name": "Fortinet",
                "engine_update": "20200826",
                "engine_version": "6.2.142.0",
                "method": "blacklist",
                "result": "MSIL/Kryptik.HXZ!tr"
            },
            "GData": {
                "category": "malicious",
                "engine_name": "GData",
                "engine_update": "20200826",
                "engine_version": "A:25.26752B:27.19937",
                "method": "blacklist",
                "result": "Trojan.GenericKD.5786368"
            },
            "Ikarus": {
                "category": "malicious",
                "engine_name": "Ikarus",
                "engine_update": "20200825",
                "engine_version": "0.1.5.2",
                "method": "blacklist",
                "result": "Trojan.ILHeur"
            },
            "Invincea": {
                "category": "malicious",
                "engine_name": "Invincea",
                "engine_update": "20200502",
                "engine_version": "6.3.6.26157",
                "method": "blacklist",
                "result": "heuristic"
            },
            "Jiangmin": {
                "category": "malicious",
                "engine_name": "Jiangmin",
                "engine_update": "20200825",
                "engine_version": "16.0.100",
                "method": "blacklist",
                "result": "Trojan.Generic.bflmv"
            },
            "K7AntiVirus": {
                "category": "malicious",
                "engine_name": "K7AntiVirus",
                "engine_update": "20200826",
                "engine_version": "11.132.35101",
                "method": "blacklist",
                "result": "Trojan ( 004f405d1 )"
            },
            "K7GW": {
                "category": "malicious",
                "engine_name": "K7GW",
                "engine_update": "20200825",
                "engine_version": "11.132.35100",
                "method": "blacklist",
                "result": "Trojan ( 004f405d1 )"
            },
            "Kaspersky": {
                "category": "malicious",
                "engine_name": "Kaspersky",
                "engine_update": "20200825",
                "engine_version": "15.0.1.13",
                "method": "blacklist",
                "result": "HEUR:Trojan.Win32.Generic"
            },
            "Kingsoft": {
                "category": "undetected",
                "engine_name": "Kingsoft",
                "engine_update": "20200826",
                "engine_version": "2013.8.14.323",
                "method": "blacklist",
                "result": null
            },
            "MAX": {
                "category": "malicious",
                "engine_name": "MAX",
                "engine_update": "20200826",
                "engine_version": "2019.9.16.1",
                "method": "blacklist",
                "result": "malware (ai score=83)"
            },
            "Malwarebytes": {
                "category": "undetected",
                "engine_name": "Malwarebytes",
                "engine_update": "20200825",
                "engine_version": "3.6.4.335",
                "method": "blacklist",
                "result": null
            },
            "MaxSecure": {
                "category": "failure",
                "engine_name": "MaxSecure",
                "engine_update": "20200824",
                "engine_version": "1.0.0.1",
                "method": "blacklist",
                "result": null
            },
            "McAfee": {
                "category": "malicious",
                "engine_name": "McAfee",
                "engine_update": "20200826",
                "engine_version": "6.0.6.653",
                "method": "blacklist",
                "result": "Artemis!53266A969289"
            },
            "MicroWorld-eScan": {
                "category": "malicious",
                "engine_name": "MicroWorld-eScan",
                "engine_update": "20200826",
                "engine_version": "14.0.409.0",
                "method": "blacklist",
                "result": "Trojan.GenericKD.5786368"
            },
            "Microsoft": {
                "category": "malicious",
                "engine_name": "Microsoft",
                "engine_update": "20200825",
                "engine_version": "1.1.17300.4",
                "method": "blacklist",
                "result": "Backdoor:MSIL/Bladabindi!rfn"
            },
            "NANO-Antivirus": {
                "category": "malicious",
                "engine_name": "NANO-Antivirus",
                "engine_update": "20200826",
                "engine_version": "1.0.134.25140",
                "method": "blacklist",
                "result": "Trojan.Win32.GenericKD.ersbcd"
            },
            "Paloalto": {
                "category": "malicious",
                "engine_name": "Paloalto",
                "engine_update": "20200826",
                "engine_version": "1.0",
                "method": "blacklist",
                "result": "generic.ml"
            },
            "Panda": {
                "category": "malicious",
                "engine_name": "Panda",
                "engine_update": "20200825",
                "engine_version": "4.6.4.2",
                "method": "blacklist",
                "result": "Trj/CI.A"
            },
            "Qihoo-360": {
                "category": "malicious",
                "engine_name": "Qihoo-360",
                "engine_update": "20200826",
                "engine_version": "1.0.0.1120",
                "method": "blacklist",
                "result": "Win32/Trojan.97a"
            },
            "Rising": {
                "category": "malicious",
                "engine_name": "Rising",
                "engine_update": "20200825",
                "engine_version": "25.0.0.26",
                "method": "blacklist",
                "result": "Trojan.Injector!8.C4 (TFE:C:odJPn240mSQ)"
            },
            "SUPERAntiSpyware": {
                "category": "undetected",
                "engine_name": "SUPERAntiSpyware",
                "engine_update": "20200821",
                "engine_version": "5.6.0.1032",
                "method": "blacklist",
                "result": null
            },
            "Sangfor": {
                "category": "malicious",
                "engine_name": "Sangfor",
                "engine_update": "20200814",
                "engine_version": "1.0",
                "method": "blacklist",
                "result": "Malware"
            },
            "SentinelOne": {
                "category": "malicious",
                "engine_name": "SentinelOne",
                "engine_update": "20200724",
                "engine_version": "4.4.0.0",
                "method": "blacklist",
                "result": "DFI - Malicious PE"
            },
            "Sophos": {
                "category": "undetected",
                "engine_name": "Sophos",
                "engine_update": "20200825",
                "engine_version": "4.98.0",
                "method": "blacklist",
                "result": null
            },
            "Symantec": {
                "category": "malicious",
                "engine_name": "Symantec",
                "engine_update": "20200825",
                "engine_version": "1.11.0.0",
                "method": "blacklist",
                "result": "ML.Attribute.HighConfidence"
            },
            "SymantecMobileInsight": {
                "category": "type-unsupported",
                "engine_name": "SymantecMobileInsight",
                "engine_update": "20200813",
                "engine_version": "2.0",
                "method": "blacklist",
                "result": null
            },
            "TACHYON": {
                "category": "undetected",
                "engine_name": "TACHYON",
                "engine_update": "20200826",
                "engine_version": "2020-08-26.01",
                "method": "blacklist",
                "result": null
            },
            "Tencent": {
                "category": "malicious",
                "engine_name": "Tencent",
                "engine_update": "20200826",
                "engine_version": "1.0.0.1",
                "method": "blacklist",
                "result": "Win32.Trojan.Generic.Ssqo"
            },
            "TotalDefense": {
                "category": "undetected",
                "engine_name": "TotalDefense",
                "engine_update": "20200825",
                "engine_version": "37.1.62.1",
                "method": "blacklist",
                "result": null
            },
            "TrendMicro": {
                "category": "undetected",
                "engine_name": "TrendMicro",
                "engine_update": "20200826",
                "engine_version": "11.0.0.1006",
                "method": "blacklist",
                "result": null
            },
            "TrendMicro-HouseCall": {
                "category": "undetected",
                "engine_name": "TrendMicro-HouseCall",
                "engine_update": "20200826",
                "engine_version": "10.0.0.1040",
                "method": "blacklist",
                "result": null
            },
            "Trustlook": {
                "category": "type-unsupported",
                "engine_name": "Trustlook",
                "engine_update": "20200826",
                "engine_version": "1.0",
                "method": "blacklist",
                "result": null
            },
            "VBA32": {
                "category": "undetected",
                "engine_name": "VBA32",
                "engine_update": "20200825",
                "engine_version": "4.4.1",
                "method": "blacklist",
                "result": null
            },
            "VIPRE": {
                "category": "malicious",
                "engine_name": "VIPRE",
                "engine_update": "20200826",
                "engine_version": "86208",
                "method": "blacklist",
                "result": "Trojan.Win32.Generic!BT"
            },
            "ViRobot": {
                "category": "undetected",
                "engine_name": "ViRobot",
                "engine_update": "20200825",
                "engine_version": "2014.3.20.0",
                "method": "blacklist",
                "result": null
            },
            "Webroot": {
                "category": "undetected",
                "engine_name": "Webroot",
                "engine_update": "20200826",
                "engine_version": "1.0.0.403",
                "method": "blacklist",
                "result": null
            },
            "Yandex": {
                "category": "malicious",
                "engine_name": "Yandex",
                "engine_update": "20200707",
                "engine_version": "5.5.2.24",
                "method": "blacklist",
                "result": "Trojan.Agent!qnRkRhXe5r8"
            },
            "Zillya": {
                "category": "malicious",
                "engine_name": "Zillya",
                "engine_update": "20200825",
                "engine_version": "2.0.0.4160",
                "method": "blacklist",
                "result": "Trojan.Injector.Win32.550105"
            },
            "ZoneAlarm": {
                "category": "malicious",
                "engine_name": "ZoneAlarm",
                "engine_update": "20200826",
                "engine_version": "1.0",
                "method": "blacklist",
                "result": "HEUR:Trojan.Win32.Generic"
            },
            "Zoner": {
                "category": "undetected",
                "engine_name": "Zoner",
                "engine_update": "20200825",
                "engine_version": "0.0.0.0",
                "method": "blacklist",
                "result": null
            },
            "eGambit": {
                "category": "undetected",
                "engine_name": "eGambit",
                "engine_update": "20200826",
                "engine_version": null,
                "method": "blacklist",
                "result": null
            }
        },
        "last_analysis_stats": {
            "confirmed-timeout": 0,
            "failure": 2,
            "harmless": 0,
            "malicious": 43,
            "suspicious": 0,
            "timeout": 1,
            "type-unsupported": 3,
            "undetected": 24
        },
        "last_modification_date": 1605908448,
        "last_submission_date": 1502133197,
        "magic": "PE32 executable for MS Windows (GUI) Intel 80386 32-bit Mono/.Net assembly",
        "md5": "53266a9692891adfc900fe06a8921fa9",
        "names": [
            "53266a9692891adfc900fe06a8921fa9"
        ],
        "pe_info": {
            "entry_point": 66030,
            "imphash": "f34d5f2d4577ed6d9ceec516c1f5a744",
            "import_list": [
                {
                    "imported_functions": [
                        "_CorExeMain"
                    ],
                    "library_name": "mscoree.dll"
                }
            ],
            "machine_type": 332,
            "sections": [
                {
                    "chi2": 3973909.5,
                    "entropy": 3.51,
                    "flags": "rx",
                    "md5": "1dabe3fe85b0db9c5b7842465acf5155",
                    "name": ".text",
                    "raw_size": 58368,
                    "virtual_address": 8192,
                    "virtual_size": 58116
                },
                {
                    "chi2": 130560.0,
                    "entropy": 0.0,
                    "flags": "r",
                    "md5": "bf619eac0cdf3f68d496ea9344137e8b",
                    "name": ".rsrc",
                    "raw_size": 512,
                    "virtual_address": 73728,
                    "virtual_size": 1
                },
                {
                    "chi2": 128522.0,
                    "entropy": 0.08,
                    "flags": "r",
                    "md5": "b4c687b0f4fd7b5458a5d456888f9428",
                    "name": ".reloc",
                    "raw_size": 512,
                    "virtual_address": 81920,
                    "virtual_size": 12
                }
            ],
            "timestamp": 1502132886
        },
        "reputation": 0,
        "sha1": "f5f27413c0a7ed1b15e0c166936a5d278f2406a6",
        "sha256": "0003d5ff28ff6f012411ff92e377bf3d4cd9110e21d016cba828f060fc8837ae",
        "size": 59904,
        "ssdeep": "768:Pk3b5Wcz/2lCgNG8hSvyObQ7ZhmxYZZsucSv3:cVz/2lCSG3vyObQMEZuSv",
        "tags": [
            "peexe",
            "assembly"
        ],
        "times_submitted": 1,
        "total_votes": {
            "harmless": 0,
            "malicious": 0
        },
        "trid": [
            {
                "file_type": "Generic CIL Executable (.NET, Mono, etc.)",
                "probability": 81.0
            },
            {
                "file_type": "Win32 Dynamic Link Library (generic)",
                "probability": 7.2
            },
            {
                "file_type": "Win32 Executable (generic)",
                "probability": 4.9
            },
            {
                "file_type": "OS/2 Executable (generic)",
                "probability": 2.2
            },
            {
                "file_type": "Generic Win/DOS Executable",
                "probability": 2.2
            }
        ],
        "type_description": "Win32 EXE",
        "type_extension": "exe",
        "type_tag": "peexe",
        "unique_sources": 1,
        "vhash": "25403615051402033z"
    },
    "id": "0003d5ff28ff6f012411ff92e377bf3d4cd9110e21d016cba828f060fc8837ae",
    "links": {
        "self": "https://www.virustotal.com/api/v3/files/0003d5ff28ff6f012411ff92e377bf3d4cd9110e21d016cba828f060fc8837ae"
    },
    "type": "file"
}