{
    "attributes": {
        "authentihash": "499cdc75467cfaa0995e9188573a84584ce35a427d4d78b5182c82c556c05f8a",
        "creation_date": 1280658757,
        "crowdsourced_yara_results": [
            {
                "description": "Detects malware based on Imphash of malware used in TA17-293A",
                "rule_name": "Imphash_Malware_2_TA17_293A",
                "ruleset_id": "00005c8ebb",
                "ruleset_name": "apt_ta17_293A",
                "source": "https://github.com/Neo23x0/signature-base"
            }
        ],
        "first_submission_date": 1513333018,
        "last_analysis_date": 1598410903,
        "last_analysis_results": {
            "ALYac": {
                "category": "malicious",
                "engine_name": "ALYac",
                "engine_update": "20200826",
                "engine_version": "1.1.1.5",
                "method": "blacklist",
                "result": "Trojan.Agent.EMNR"
            },
            "APEX": {
                "category": "malicious",
                "engine_name": "APEX",
                "engine_update": "20200825",
                "engine_version": "6.63",
                "method": "blacklist",
                "result": "Malicious"
            },
            "AVG": {
                "category": "malicious",
                "engine_name": "AVG",
                "engine_update": "20200826",
                "engine_version": "18.4.3895.0",
                "method": "blacklist",
                "result": "Win32:Agent-BCFZ [Trj]"
            },
            "Acronis": {
                "category": "malicious",
                "engine_name": "Acronis",
                "engine_update": "20200806",
                "engine_version": "1.1.1.77",
                "method": "blacklist",
                "result": "suspicious"
            },
            "Ad-Aware": {
                "category": "malicious",
                "engine_name": "Ad-Aware",
                "engine_update": "20200826",
                "engine_version": "3.0.16.117",
                "method": "blacklist",
                "result": "Trojan.Agent.EMNR"
            },
            "AegisLab": {
                "category": "malicious",
                "engine_name": "AegisLab",
                "engine_update": "20200826",
                "engine_version": "4.2",
                "method": "blacklist",
                "result": "Hacktool.Win32.Krap.x!e"
            },
            "AhnLab-V3": {
                "category": "malicious",
                "engine_name": "AhnLab-V3",
                "engine_update": "20200825",
                "engine_version": "3.18.1.10026",
                "method": "blacklist",
                "result": "Trojan/Win32.Ransom.R213603"
            },
            "Alibaba": {
                "category": "undetected",
                "engine_name": "Alibaba",
                "engine_update": "20190527",
                "engine_version": "0.3.0.5",
                "method": "blacklist",
                "result": null
            },
            "Antiy-AVL": {
                "category": "malicious",
                "engine_name": "Antiy-AVL",
                "engine_update": "20200825",
                "engine_version": "3.0.0.1",
                "method": "blacklist",
                "result": "Trojan[Packed]/Win32.Krap"
            },
            "Arcabit": {
                "category": "malicious",
                "engine_name": "Arcabit",
                "engine_update": "20200826",
                "engine_version": "1.0.0.877",
                "method": "blacklist",
                "result": "Trojan.Agent.EMNR"
            },
            "Avast-Mobile": {
                "category": "type-unsupported",
                "engine_name": "Avast-Mobile",
                "engine_update": "20200825",
                "engine_version": "200825-00",
                "method": "blacklist",
                "result": null
            },
            "Avira": {
                "category": "malicious",
                "engine_name": "Avira",
                "engine_update": "20200826",
                "engine_version": "8.3.3.8",
                "method": "blacklist",
                "result": "TR/ATRAPS.Gen2"
            },
            "Baidu": {
                "category": "undetected",
                "engine_name": "Baidu",
                "engine_update": "20190318",
                "engine_version": "1.0.0.2",
                "method": "blacklist",
                "result": null
            },
            "BitDefender": {
                "category": "malicious",
                "engine_name": "BitDefender",
                "engine_update": "20200826",
                "engine_version": "7.2",
                "method": "blacklist",
                "result": "Trojan.Agent.EMNR"
            },
            "BitDefenderTheta": {
                "category": "malicious",
                "engine_name": "BitDefenderTheta",
                "engine_update": "20200824",
                "engine_version": "7.2.37796.0",
                "method": "blacklist",
                "result": "Gen:NN.ZexaF.34196.GzZ@a8Hp6rci"
            },
            "Bkav": {
                "category": "undetected",
                "engine_name": "Bkav",
                "engine_update": "20200826",
                "engine_version": "1.3.0.9899",
                "method": "blacklist",
                "result": null
            },
            "CAT-QuickHeal": {
                "category": "malicious",
                "engine_name": "CAT-QuickHeal",
                "engine_update": "20200826",
                "engine_version": "14.00",
                "method": "blacklist",
                "result": "Trojan.Ausiv.S12202810"
            },
            "CMC": {
                "category": "undetected",
                "engine_name": "CMC",
                "engine_update": "20200825",
                "engine_version": "2.7.2019.1",
                "method": "blacklist",
                "result": null
            },
            "ClamAV": {
                "category": "malicious",
                "engine_name": "ClamAV",
                "engine_update": "20200825",
                "engine_version": "0.102.4.0",
                "method": "blacklist",
                "result": "Win.Virus.VMProtBad-6450060-0"
            },
            "Comodo": {
                "category": "malicious",
                "engine_name": "Comodo",
                "engine_update": "20200728",
                "engine_version": "32668",
                "method": "blacklist",
                "result": "Virus.Win32.VirLock.GA@7lv9go"
            },
            "CrowdStrike": {
                "category": "malicious",
                "engine_name": "CrowdStrike",
                "engine_update": "20190702",
                "engine_version": "1.0",
                "method": "blacklist",
                "result": "win/malicious_confidence_100% (D)"
            },
            "Cybereason": {
                "category": "malicious",
                "engine_name": "Cybereason",
                "engine_update": "20190616",
                "engine_version": "1.2.449",
                "method": "blacklist",
                "result": "malicious.ef607a"
            },
            "Cylance": {
                "category": "malicious",
                "engine_name": "Cylance",
                "engine_update": "20200826",
                "engine_version": "2.3.1.101",
                "method": "blacklist",
                "result": "Unsafe"
            },
            "Cynet": {
                "category": "malicious",
                "engine_name": "Cynet",
                "engine_update": "20200823",
                "engine_version": "4.0.0.24",
                "method": "blacklist",
                "result": "Malicious (score: 100)"
            },
            "Cyren": {
                "category": "malicious",
                "engine_name": "Cyren",
                "engine_update": "20200826",
                "engine_version": "6.3.0.2",
                "method": "blacklist",
                "result": "W32/S-a846205f!Eldorado"
            },
            "DrWeb": {
                "category": "malicious",
                "engine_name": "DrWeb",
                "engine_update": "20200826",
                "engine_version": "7.0.46.3050",
                "method": "blacklist",
                "result": "Trojan.Encoder.14453"
            },
            "ESET-NOD32": {
                "category": "malicious",
                "engine_name": "ESET-NOD32",
                "engine_update": "20200826",
                "engine_version": "21882",
                "method": "blacklist",
                "result": "Win32/Ausiv.A"
            },
            "Elastic": {
                "category": "malicious",
                "engine_name": "Elastic",
                "engine_update": "20200817",
                "engine_version": "4.0.7",
                "method": "blacklist",
                "result": "malicious (high confidence)"
            },
            "Emsisoft": {
                "category": "failure",
                "engine_name": "Emsisoft",
                "engine_update": "20200825",
                "engine_version": "2018.12.0.1641",
                "method": "blacklist",
                "result": null
            },
            "F-Secure": {
                "category": "malicious",
                "engine_name": "F-Secure",
                "engine_update": "20200826",
                "engine_version": "12.0.86.52",
                "method": "blacklist",
                "result": "Trojan.TR/ATRAPS.Gen2"
            },
            "FireEye": {
                "category": "timeout",
                "engine_name": "FireEye",
                "engine_update": "20200826",
                "engine_version": "32.36.1.0",
                "method": "blacklist",
                "result": null
            },
            "Fortinet": {
                "category": "malicious",
                "engine_name": "Fortinet",
                "engine_update": "20200826",
                "engine_version": "6.2.142.0",
                "method": "blacklist",
                "result": "W32/Ausiv.A"
            },
            "GData": {
                "category": "malicious",
                "engine_name": "GData",
                "engine_update": "20200826",
                "engine_version": "A:25.26752B:27.19937",
                "method": "blacklist",
                "result": "Trojan.Agent.EMNR"
            },
            "Ikarus": {
                "category": "malicious",
                "engine_name": "Ikarus",
                "engine_update": "20200825",
                "engine_version": "0.1.5.2",
                "method": "blacklist",
                "result": "Trojan.Win32.Ausiv"
            },
            "Invincea": {
                "category": "malicious",
                "engine_name": "Invincea",
                "engine_update": "20200502",
                "engine_version": "6.3.6.26157",
                "method": "blacklist",
                "result": "heuristic"
            },
            "Jiangmin": {
                "category": "malicious",
                "engine_name": "Jiangmin",
                "engine_update": "20200825",
                "engine_version": "16.0.100",
                "method": "blacklist",
                "result": "Packed.Krap.fyig"
            },
            "K7AntiVirus": {
                "category": "malicious",
                "engine_name": "K7AntiVirus",
                "engine_update": "20200826",
                "engine_version": "11.132.35101",
                "method": "blacklist",
                "result": "Trojan ( 005205011 )"
            },
            "K7GW": {
                "category": "malicious",
                "engine_name": "K7GW",
                "engine_update": "20200825",
                "engine_version": "11.132.35100",
                "method": "blacklist",
                "result": "Trojan ( 00517a0d1 )"
            },
            "Kaspersky": {
                "category": "malicious",
                "engine_name": "Kaspersky",
                "engine_update": "20200825",
                "engine_version": "15.0.1.13",
                "method": "blacklist",
                "result": "Packed.Win32.Krap.jc"
            },
            "Kingsoft": {
                "category": "undetected",
                "engine_name": "Kingsoft",
                "engine_update": "20200826",
                "engine_version": "2013.8.14.323",
                "method": "blacklist",
                "result": null
            },
            "MAX": {
                "category": "malicious",
                "engine_name": "MAX",
                "engine_update": "20200826",
                "engine_version": "2019.9.16.1",
                "method": "blacklist",
                "result": "malware (ai score=83)"
            },
            "Malwarebytes": {
                "category": "malicious",
                "engine_name": "Malwarebytes",
                "engine_update": "20200825",
                "engine_version": "3.6.4.335",
                "method": "blacklist",
                "result": "Ransom.Winlock"
            },
            "MaxSecure": {
                "category": "malicious",
                "engine_name": "MaxSecure",
                "engine_update": "20200824",
                "engine_version": "1.0.0.1",
                "method": "blacklist",
                "result": "Packed.Krap.JC"
            },
            "McAfee": {
                "category": "malicious",
                "engine_name": "McAfee",
                "engine_update": "20200826",
                "engine_version": "6.0.6.653",
                "method": "blacklist",
                "result": "Packed-SU!BFE30E4EF607"
            },
            "MicroWorld-eScan": {
                "category": "malicious",
                "engine_name": "MicroWorld-eScan",
                "engine_update": "20200826",
                "engine_version": "14.0.409.0",
                "method": "blacklist",
                "result": "Trojan.Agent.EMNR"
            },
            "Microsoft": {
                "category": "malicious",
                "engine_name": "Microsoft",
                "engine_update": "20200825",
                "engine_version": "1.1.17300.4",
                "method": "blacklist",
                "result": "Trojan:Win32/Ausiv!rfn"
            },
            "NANO-Antivirus": {
                "category": "malicious",
                "engine_name": "NANO-Antivirus",
                "engine_update": "20200826",
                "engine_version": "1.0.134.25140",
                "method": "blacklist",
                "result": "Trojan.Win32.Krap.espnuv"
            },
            "Paloalto": {
                "category": "malicious",
                "engine_name": "Paloalto",
                "engine_update": "20200826",
                "engine_version": "1.0",
                "method": "blacklist",
                "result": "generic.ml"
            },
            "Panda": {
                "category": "undetected",
                "engine_name": "Panda",
                "engine_update": "20200825",
                "engine_version": "4.6.4.2",
                "method": "blacklist",
                "result": null
            },
            "Qihoo-360": {
                "category": "malicious",
                "engine_name": "Qihoo-360",
                "engine_update": "20200826",
                "engine_version": "1.0.0.1120",
                "method": "blacklist",
                "result": "Win32/Virus.Visua.C"
            },
            "Rising": {
                "category": "malicious",
                "engine_name": "Rising",
                "engine_update": "20200825",
                "engine_version": "25.0.0.26",
                "method": "blacklist",
                "result": "Trojan.Kryptik!8.8 (TFE:dGZlOgPrPDEA0GvvQQ)"
            },
            "SUPERAntiSpyware": {
                "category": "malicious",
                "engine_name": "SUPERAntiSpyware",
                "engine_update": "20200821",
                "engine_version": "5.6.0.1032",
                "method": "blacklist",
                "result": "Ransom.Winlock/Variant"
            },
            "Sangfor": {
                "category": "malicious",
                "engine_name": "Sangfor",
                "engine_update": "20200814",
                "engine_version": "1.0",
                "method": "blacklist",
                "result": "Malware"
            },
            "SentinelOne": {
                "category": "malicious",
                "engine_name": "SentinelOne",
                "engine_update": "20200724",
                "engine_version": "4.4.0.0",
                "method": "blacklist",
                "result": "DFI - Malicious PE"
            },
            "Sophos": {
                "category": "malicious",
                "engine_name": "Sophos",
                "engine_update": "20200825",
                "engine_version": "4.98.0",
                "method": "blacklist",
                "result": "W32/Sivis-B"
            },
            "Symantec": {
                "category": "malicious",
                "engine_name": "Symantec",
                "engine_update": "20200825",
                "engine_version": "1.11.0.0",
                "method": "blacklist",
                "result": "W32.Suviapen"
            },
            "SymantecMobileInsight": {
                "category": "type-unsupported",
                "engine_name": "SymantecMobileInsight",
                "engine_update": "20200813",
                "engine_version": "2.0",
                "method": "blacklist",
                "result": null
            },
            "TACHYON": {
                "category": "malicious",
                "engine_name": "TACHYON",
                "engine_update": "20200826",
                "engine_version": "2020-08-26.01",
                "method": "blacklist",
                "result": "Worm/W32.Sivis.Zen"
            },
            "Tencent": {
                "category": "malicious",
                "engine_name": "Tencent",
                "engine_update": "20200826",
                "engine_version": "1.0.0.1",
                "method": "blacklist",
                "result": "Trojan.Win32.Kryptik.fwwy"
            },
            "TotalDefense": {
                "category": "undetected",
                "engine_name": "TotalDefense",
                "engine_update": "20200825",
                "engine_version": "37.1.62.1",
                "method": "blacklist",
                "result": null
            },
            "TrendMicro": {
                "category": "malicious",
                "engine_name": "TrendMicro",
                "engine_update": "20200826",
                "engine_version": "11.0.0.1006",
                "method": "blacklist",
                "result": "PE_LUMER.MR"
            },
            "TrendMicro-HouseCall": {
                "category": "malicious",
                "engine_name": "TrendMicro-HouseCall",
                "engine_update": "20200826",
                "engine_version": "10.0.0.1040",
                "method": "blacklist",
                "result": "PE_LUMER.MR"
            },
            "Trustlook": {
                "category": "type-unsupported",
                "engine_name": "Trustlook",
                "engine_update": "20200826",
                "engine_version": "1.0",
                "method": "blacklist",
                "result": null
            },
            "VBA32": {
                "category": "malicious",
                "engine_name": "VBA32",
                "engine_update": "20200825",
                "engine_version": "4.4.1",
                "method": "blacklist",
                "result": "Trojan.Encoder"
            },
            "VIPRE": {
                "category": "malicious",
                "engine_name": "VIPRE",
                "engine_update": "20200826",
                "engine_version": "86208",
                "method": "blacklist",
                "result": "Trojan.Win32.Generic!BT"
            },
            "ViRobot": {
                "category": "malicious",
                "engine_name": "ViRobot",
                "engine_update": "20200825",
                "engine_version": "2014.3.20.0",
                "method": "blacklist",
                "result": "Trojan.Win32.Agent.Gen.C"
            },
            "Webroot": {
                "category": "undetected",
                "engine_name": "Webroot",
                "engine_update": "20200826",
                "engine_version": "1.0.0.403",
                "method": "blacklist",
                "result": null
            },
            "Yandex": {
                "category": "malicious",
                "engine_name": "Yandex",
                "engine_update": "20200707",
                "engine_version": "5.5.2.24",
                "method": "blacklist",
                "result": "Trojan.Encoder!pNjka2bf5mk"
            },
            "Zillya": {
                "category": "malicious",
                "engine_name": "Zillya",
                "engine_update": "20200825",
                "engine_version": "2.0.0.4160",
                "method": "blacklist",
                "result": "Trojan.Black.Win32.51155"
            },
            "ZoneAlarm": {
                "category": "malicious",
                "engine_name": "ZoneAlarm",
                "engine_update": "20200826",
                "engine_version": "1.0",
                "method": "blacklist",
                "result": "Packed.Win32.Krap.jc"
            },
            "Zoner": {
                "category": "undetected",
                "engine_name": "Zoner",
                "engine_update": "20200825",
                "engine_version": "0.0.0.0",
                "method": "blacklist",
                "result": null
            }
        },
        "last_analysis_stats": {
            "confirmed-timeout": 0,
            "failure": 1,
            "harmless": 0,
            "malicious": 57,
            "suspicious": 0,
            "timeout": 1,
            "type-unsupported": 3,
            "undetected": 9
        },
        "last_modification_date": 1605532884,
        "last_submission_date": 1513333018,
        "magic": "PE32 executable for MS Windows (GUI) Intel 80386 32-bit",
        "md5": "bfe30e4ef607a5eaccc27f92c724c201",
        "meaningful_name": "bfe30e4ef607a5eaccc27f92c724c201.virus",
        "names": [
            "bfe30e4ef607a5eaccc27f92c724c201.virus"
        ],
        "pe_info": {
            "entry_point": 4096,
            "imphash": "a8f69eb2cf9f30ea96961c86b4347282",
            "import_list": [
                {
                    "imported_functions": [
                        "GetLastError",
                        "HeapFree",
                        "GetStdHandle",
                        "EnterCriticalSection",
                        "GetFileAttributesA",
                        "WaitForSingleObject",
                        "GetDriveTypeA",
                        "HeapDestroy",
                        "HeapAlloc",
                        "GetModuleFileNameA",
                        "CreatePipe",
                        "GetCurrentProcess",
                        "GetFileSize",
                        "CreateDirectoryA",
                        "GetModuleHandleA",
                        "SetFilePointer",
                        "ReadFile",
                        "WriteFile",
                        "FindFirstFileA",
                        "CloseHandle",
                        "FindNextFileA",
                        "DuplicateHandle",
                        "HeapReAlloc",
                        "SetFileAttributesA",
                        "CreateProcessA",
                        "InitializeCriticalSection",
                        "HeapCreate",
                        "FindClose",
                        "GetTickCount",
                        "CreateFileA",
                        "ExitProcess",
                        "GetCurrentThreadId",
                        "GetCurrentProcessId",
                        "LeaveCriticalSection"
                    ],
                    "library_name": "KERNEL32.dll"
                },
                {
                    "imported_functions": [
                        "strncmp",
                        "memmove",
                        "memset",
                        "strcat",
                        "memcpy",
                        "strcpy",
                        "_strnicmp",
                        "_stricmp",
                        "strlen",
                        "strcmp",
                        "strncpy"
                    ],
                    "library_name": "MSVCRT.dll"
                },
                {
                    "imported_functions": [
                        "ShellExecuteExA"
                    ],
                    "library_name": "SHELL32.DLL"
                },
                {
                    "imported_functions": [
                        "CoInitialize"
                    ],
                    "library_name": "OLE32.DLL"
                },
                {
                    "imported_functions": [
                        "GetWindowThreadProcessId",
                        "GetForegroundWindow",
                        "EnableWindow",
                        "IsWindowVisible",
                        "EnumWindows",
                        "MessageBoxA",
                        "IsWindowEnabled"
                    ],
                    "library_name": "USER32.DLL"
                },
                {
                    "imported_functions": [
                        "InitCommonControls"
                    ],
                    "library_name": "COMCTL32.DLL"
                }
            ],
            "machine_type": 332,
            "overlay": {
                "chi2": 12277236.0,
                "entropy": 6.63385534286499,
                "filetype": "Data",
                "md5": "68f0156905c345cb53674aff330f82b6",
                "offset": 32768,
                "size": 1551263
            },
            "resource_details": [
                {
                    "chi2": 7386.1708984375,
                    "entropy": 4.923219680786133,
                    "filetype": "application/xml",
                    "lang": "ENGLISH US",
                    "sha256": "be809cba9d14bfb52a969d766992832b10e99e133babcdd99dc6d1bba5597cf7",
                    "type": "RT_MANIFEST"
                }
            ],
            "resource_langs": {
                "ENGLISH US": 1
            },
            "resource_types": {
                "RT_MANIFEST": 1
            },
            "sections": [
                {
                    "chi2": 28096.54,
                    "entropy": 5.34,
                    "flags": "rwx",
                    "md5": "8d45c4e221103ecf06a2ffb4f6b4170a",
                    "name": ".code",
                    "raw_size": 1841,
                    "virtual_address": 4096,
                    "virtual_size": 1841
                },
                {
                    "chi2": 41891.22,
                    "entropy": 6.19,
                    "flags": "rx",
                    "md5": "4ebd8ab0ae60f9f48672a6a851790881",
                    "name": ".text",
                    "raw_size": 6552,
                    "virtual_address": 8192,
                    "virtual_size": 6552
                },
                {
                    "chi2": 3153.71,
                    "entropy": 1.77,
                    "flags": "r",
                    "md5": "eac55f75efa653ab097cc26955eaadb9",
                    "name": ".rdata",
                    "raw_size": 28,
                    "virtual_address": 16384,
                    "virtual_size": 28
                },
                {
                    "chi2": 60527.19,
                    "entropy": 4.98,
                    "flags": "rw",
                    "md5": "6225dbf9e53a67a2c06175fc5437ecdb",
                    "name": ".data",
                    "raw_size": 1960,
                    "virtual_address": 20480,
                    "virtual_size": 1960
                },
                {
                    "chi2": 7733.37,
                    "entropy": 5.07,
                    "flags": "r",
                    "md5": "13993501e832b475bd7eac46370ba265",
                    "name": ".rsrc",
                    "raw_size": 700,
                    "virtual_address": 24576,
                    "virtual_size": 700
                },
                {
                    "chi2": 945652.13,
                    "entropy": 0.53,
                    "flags": "rwx",
                    "md5": "b8292cc5a528e176dffe2e390f4b6974",
                    "name": ".NewSec",
                    "raw_size": 4096,
                    "virtual_address": 28672,
                    "virtual_size": 4096
                }
            ],
            "timestamp": 1280658757
        },
        "reputation": 0,
        "sha1": "53781bf87266737977b99c8da773923b57d1c474",
        "sha256": "00032dcf9d9802881fbe7ee91d69d72c26aef5f0882e0b7f07a6140df97db25a",
        "signature_info": {
            "x509": [
                {
                    "algorithm": "sha1RSA",
                    "cert issuer": "VeriSign Time Stamping Services CA",
                    "name": "VeriSign Time Stamping Services Signer - G2",
                    "serial number": "38 25 D7 FA F8 61 AF 9E F4 90 E7 26 B5 D6 5A D5",
                    "thumbprint": "ADA8AAA643FF7DC38DD40FA4C97AD559FF4846DE",
                    "valid from": "2007-06-15 00:00:00",
                    "valid to": "2012-06-14 23:59:59",
                    "valid_usage": "ff"
                },
                {
                    "algorithm": "sha1RSA",
                    "cert issuer": "Thawte Timestamping CA",
                    "name": "VeriSign Time Stamping Services CA",
                    "serial number": "47 BF 19 95 DF 8D 52 46 43 F7 DB 6D 48 0D 31 A4",
                    "thumbprint": "F46AC0C6EFBB8C6A14F55F09E2D37DF4C0DE012D",
                    "valid from": "2003-12-04 00:00:00",
                    "valid to": "2013-12-03 23:59:59",
                    "valid_usage": "Timestamp Signing"
                },
                {
                    "algorithm": "sha1RSA",
                    "cert issuer": null,
                    "name": "VeriSign Class 3 Code Signing 2009-2 CA",
                    "serial number": "65 52 26 E1 B2 2E 18 E1 59 0F 29 85 AC 22 E7 5C",
                    "thumbprint": "12D4872BC3EF019E7E0B6F132480AE29DB5B1CA3",
                    "valid from": "2009-05-21 00:00:00",
                    "valid to": "2019-05-20 23:59:59",
                    "valid_usage": "Client Auth, Code Signing"
                },
                {
                    "algorithm": "sha1RSA",
                    "cert issuer": "VeriSign Class 3 Code Signing 2009-2 CA",
                    "name": "Oracle America, Inc.",
                    "serial number": "5E F1 DC 1E FB 1E 46 B5 DE 80 ED E1 76 2A 55 A7",
                    "thumbprint": "9E2B73433C7FF0BE9C2E546C46A3D16A6CDACF32",
                    "valid from": "2010-07-07 00:00:00",
                    "valid to": "2013-07-06 23:59:59",
                    "valid_usage": "Code Signing"
                },
                {
                    "algorithm": "sha1RSA",
                    "cert issuer": "Thawte Timestamping CA",
                    "name": "VeriSign Time Stamping Services CA",
                    "serial number": "47 BF 19 95 DF 8D 52 46 43 F7 DB 6D 48 0D 31 A4",
                    "thumbprint": "F46AC0C6EFBB8C6A14F55F09E2D37DF4C0DE012D",
                    "valid from": "2003-12-04 00:00:00",
                    "valid to": "2013-12-03 23:59:59",
                    "valid_usage": "Timestamp Signing"
                },
                {
                    "algorithm": "sha1RSA",
                    "cert issuer": "VeriSign Time Stamping Services CA",
                    "name": "VeriSign Time Stamping Services Signer",
                    "serial number": "0D E9 2B F0 D4 D8 29 88 18 32 05 09 5E 9A 76 88",
                    "thumbprint": "817E78267300CB0FE5D631357851DB366123A690",
                    "valid from": "2003-12-04 00:00:00",
                    "valid to": "2008-12-03 23:59:59",
                    "valid_usage": "ff"
                },
                {
                    "algorithm": "md5RSA",
                    "cert issuer": "Microsoft Root Authority",
                    "name": "Microsoft Root Authority",
                    "serial number": "C1 00 8B 3C 3C 88 11 D1 3E F6 63 EC DF 40",
                    "thumbprint": "A43489159A520F0D93D032CCAF37E7FE20A8B419",
                    "valid from": "1997-01-10 07:00:00",
                    "valid to": "2020-12-31 07:00:00",
                    "valid_usage": null
                },
                {
                    "algorithm": "1.3.14.3.2.29",
                    "cert issuer": "Microsoft Root Authority",
                    "name": "Microsoft Code Signing PCA",
                    "serial number": "6A 0B 99 4F C0 00 1D AB 11 DA C4 02 A1 66 27 BA",
                    "thumbprint": "D07EA64088A80085F01BD40AA4EAD82F470482A6",
                    "valid from": "2006-04-04 17:44:14",
                    "valid to": "2012-04-26 07:00:00",
                    "valid_usage": "Code Signing"
                },
                {
                    "algorithm": "sha1RSA",
                    "cert issuer": "Microsoft Code Signing PCA",
                    "name": "Microsoft Corporation",
                    "serial number": "61 46 9E CB 00 04 00 00 00 65",
                    "thumbprint": "564E01066387F26C912010D06BD78D3CF1E845AB",
                    "valid from": "2006-04-04 19:43:46",
                    "valid to": "2007-10-04 19:53:46",
                    "valid_usage": "Code Signing"
                }
            ]
        },
        "size": 1584031,
        "ssdeep": "24576:3AZjUYQRd3f2BUXJhhB6aeS1PvvU0hRPp2sZNxhmFfLNcvZKaMDF9i60gltEkQ:3AFzQLOBUZnvUmOsZNxiRaMDvi6Hl9Q",
        "tags": [
            "peexe",
            "overlay"
        ],
        "times_submitted": 1,
        "total_votes": {
            "harmless": 0,
            "malicious": 0
        },
        "trid": [
            {
                "file_type": "DirectShow filter",
                "probability": 29.6
            },
            {
                "file_type": "Windows Control Panel Item (generic)",
                "probability": 28.9
            },
            {
                "file_type": "Windows ActiveX control",
                "probability": 17.1
            },
            {
                "file_type": "InstallShield setup",
                "probability": 6.3
            },
            {
                "file_type": "Win32 Executable MS Visual C++ (generic)",
                "probability": 4.5
            }
        ],
        "type_description": "Win32 EXE",
        "type_extension": "exe",
        "type_tag": "peexe",
        "unique_sources": 1,
        "vhash": "01606e56651d555f11z16z220b5z17z13z7fz"
    },
    "id": "00032dcf9d9802881fbe7ee91d69d72c26aef5f0882e0b7f07a6140df97db25a",
    "links": {
        "self": "https://www.virustotal.com/api/v3/files/00032dcf9d9802881fbe7ee91d69d72c26aef5f0882e0b7f07a6140df97db25a"
    },
    "type": "file"
}