{
    "attributes": {
        "authentihash": "bb8ee0aefd1acf990ae704b280338893f623ff786b4fa8c64bffb9adee41a67a",
        "creation_date": 1515784810,
        "first_submission_date": 1528543417,
        "last_analysis_date": 1534639112,
        "last_analysis_results": {
            "ALYac": {
                "category": "undetected",
                "engine_name": "ALYac",
                "engine_update": "20180819",
                "engine_version": "1.1.1.5",
                "method": "blacklist",
                "result": null
            },
            "AVG": {
                "category": "malicious",
                "engine_name": "AVG",
                "engine_update": "20180818",
                "engine_version": "18.4.3895.0",
                "method": "blacklist",
                "result": "FileRepMalware"
            },
            "AVware": {
                "category": "undetected",
                "engine_name": "AVware",
                "engine_update": "20180819",
                "engine_version": "1.6.0.52",
                "method": "blacklist",
                "result": null
            },
            "Ad-Aware": {
                "category": "undetected",
                "engine_name": "Ad-Aware",
                "engine_update": "20180818",
                "engine_version": "3.0.5.370",
                "method": "blacklist",
                "result": null
            },
            "AegisLab": {
                "category": "malicious",
                "engine_name": "AegisLab",
                "engine_update": "20180818",
                "engine_version": "4.2",
                "method": "blacklist",
                "result": "Ml.Attribute.Gen!c"
            },
            "AhnLab-V3": {
                "category": "undetected",
                "engine_name": "AhnLab-V3",
                "engine_update": "20180818",
                "engine_version": "3.13.1.21616",
                "method": "blacklist",
                "result": null
            },
            "Alibaba": {
                "category": "type-unsupported",
                "engine_name": "Alibaba",
                "engine_update": "20180713",
                "engine_version": "1.0",
                "method": "blacklist",
                "result": null
            },
            "Antiy-AVL": {
                "category": "malicious",
                "engine_name": "Antiy-AVL",
                "engine_update": "20180819",
                "engine_version": "3.0.0.1",
                "method": "blacklist",
                "result": "Trojan/MSIL.Inject"
            },
            "Arcabit": {
                "category": "undetected",
                "engine_name": "Arcabit",
                "engine_update": "20180819",
                "engine_version": "1.0.0.831",
                "method": "blacklist",
                "result": null
            },
            "Avast": {
                "category": "malicious",
                "engine_name": "Avast",
                "engine_update": "20180818",
                "engine_version": "18.4.3895.0",
                "method": "blacklist",
                "result": "FileRepMalware"
            },
            "Avast-Mobile": {
                "category": "undetected",
                "engine_name": "Avast-Mobile",
                "engine_update": "20180818",
                "engine_version": "180817-04",
                "method": "blacklist",
                "result": null
            },
            "Avira": {
                "category": "undetected",
                "engine_name": "Avira",
                "engine_update": "20180818",
                "engine_version": "8.3.3.6",
                "method": "blacklist",
                "result": null
            },
            "Babable": {
                "category": "undetected",
                "engine_name": "Babable",
                "engine_update": "20180725",
                "engine_version": "9107201",
                "method": "blacklist",
                "result": null
            },
            "Baidu": {
                "category": "undetected",
                "engine_name": "Baidu",
                "engine_update": "20180818",
                "engine_version": "1.0.0.2",
                "method": "blacklist",
                "result": null
            },
            "BitDefender": {
                "category": "undetected",
                "engine_name": "BitDefender",
                "engine_update": "20180819",
                "engine_version": "7.2",
                "method": "blacklist",
                "result": null
            },
            "Bkav": {
                "category": "undetected",
                "engine_name": "Bkav",
                "engine_update": "20180817",
                "engine_version": "1.3.0.8876",
                "method": "blacklist",
                "result": null
            },
            "CAT-QuickHeal": {
                "category": "malicious",
                "engine_name": "CAT-QuickHeal",
                "engine_update": "20180818",
                "engine_version": "14.00",
                "method": "blacklist",
                "result": "Trojan.GenericPMF.S1175956"
            },
            "CMC": {
                "category": "undetected",
                "engine_name": "CMC",
                "engine_update": "20180817",
                "engine_version": "1.1.0.977",
                "method": "blacklist",
                "result": null
            },
            "ClamAV": {
                "category": "undetected",
                "engine_name": "ClamAV",
                "engine_update": "20180818",
                "engine_version": "0.100.1.0",
                "method": "blacklist",
                "result": null
            },
            "Comodo": {
                "category": "undetected",
                "engine_name": "Comodo",
                "engine_update": "20180818",
                "engine_version": null,
                "method": "blacklist",
                "result": null
            },
            "CrowdStrike": {
                "category": "malicious",
                "engine_name": "CrowdStrike",
                "engine_update": "20180723",
                "engine_version": "1.0",
                "method": "blacklist",
                "result": "malicious_confidence_100% (D)"
            },
            "Cybereason": {
                "category": "malicious",
                "engine_name": "Cybereason",
                "engine_update": "20180225",
                "engine_version": "1.2.27",
                "method": "blacklist",
                "result": "malicious.aa91b4"
            },
            "Cylance": {
                "category": "malicious",
                "engine_name": "Cylance",
                "engine_update": "20180819",
                "engine_version": "2.3.1.101",
                "method": "blacklist",
                "result": "Unsafe"
            },
            "Cyren": {
                "category": "malicious",
                "engine_name": "Cyren",
                "engine_update": "20180819",
                "engine_version": "6.0.0.4",
                "method": "blacklist",
                "result": "W32/S-f0885765!Eldorado"
            },
            "DrWeb": {
                "category": "undetected",
                "engine_name": "DrWeb",
                "engine_update": "20180818",
                "engine_version": "7.0.33.6080",
                "method": "blacklist",
                "result": null
            },
            "ESET-NOD32": {
                "category": "undetected",
                "engine_name": "ESET-NOD32",
                "engine_update": "20180818",
                "engine_version": "17906",
                "method": "blacklist",
                "result": null
            },
            "Emsisoft": {
                "category": "undetected",
                "engine_name": "Emsisoft",
                "engine_update": "20180818",
                "engine_version": "2018.4.0.1029",
                "method": "blacklist",
                "result": null
            },
            "Endgame": {
                "category": "malicious",
                "engine_name": "Endgame",
                "engine_update": "20180730",
                "engine_version": "3.0.1",
                "method": "blacklist",
                "result": "malicious (high confidence)"
            },
            "F-Prot": {
                "category": "malicious",
                "engine_name": "F-Prot",
                "engine_update": "20180818",
                "engine_version": "4.7.1.166",
                "method": "blacklist",
                "result": "W32/S-f0885765!Eldorado"
            },
            "F-Secure": {
                "category": "undetected",
                "engine_name": "F-Secure",
                "engine_update": "20180818",
                "engine_version": "11.0.19100.45",
                "method": "blacklist",
                "result": null
            },
            "Fortinet": {
                "category": "malicious",
                "engine_name": "Fortinet",
                "engine_update": "20180818",
                "engine_version": "5.4.247.0",
                "method": "blacklist",
                "result": "W32/Inject.ABZSP!tr"
            },
            "GData": {
                "category": "undetected",
                "engine_name": "GData",
                "engine_update": "20180818",
                "engine_version": "A:25.18170B:25.12999",
                "method": "blacklist",
                "result": null
            },
            "Ikarus": {
                "category": "malicious",
                "engine_name": "Ikarus",
                "engine_update": "20180818",
                "engine_version": "0.1.5.2",
                "method": "blacklist",
                "result": "PUA.MSIL.Confuser"
            },
            "Invincea": {
                "category": "malicious",
                "engine_name": "Invincea",
                "engine_update": "20180717",
                "engine_version": "6.3.5.26121",
                "method": "blacklist",
                "result": "heuristic"
            },
            "Jiangmin": {
                "category": "malicious",
                "engine_name": "Jiangmin",
                "engine_update": "20180818",
                "engine_version": "16.0.100",
                "method": "blacklist",
                "result": "Trojan.MSIL.incg"
            },
            "K7AntiVirus": {
                "category": "malicious",
                "engine_name": "K7AntiVirus",
                "engine_update": "20180818",
                "engine_version": "10.59.28115",
                "method": "blacklist",
                "result": "Trojan ( 004b4ab01 )"
            },
            "K7GW": {
                "category": "malicious",
                "engine_name": "K7GW",
                "engine_update": "20180819",
                "engine_version": "10.59.28115",
                "method": "blacklist",
                "result": "Trojan ( 004b4ab01 )"
            },
            "Kaspersky": {
                "category": "malicious",
                "engine_name": "Kaspersky",
                "engine_update": "20180818",
                "engine_version": "15.0.1.13",
                "method": "blacklist",
                "result": "Trojan.MSIL.Inject.abzsp"
            },
            "Kingsoft": {
                "category": "undetected",
                "engine_name": "Kingsoft",
                "engine_update": "20180819",
                "engine_version": "2013.8.14.323",
                "method": "blacklist",
                "result": null
            },
            "MAX": {
                "category": "undetected",
                "engine_name": "MAX",
                "engine_update": "20180819",
                "engine_version": "2017.11.15.1",
                "method": "blacklist",
                "result": null
            },
            "Malwarebytes": {
                "category": "undetected",
                "engine_name": "Malwarebytes",
                "engine_update": "20180819",
                "engine_version": "2.1.1.1115",
                "method": "blacklist",
                "result": null
            },
            "McAfee": {
                "category": "malicious",
                "engine_name": "McAfee",
                "engine_update": "20180818",
                "engine_version": "6.0.6.653",
                "method": "blacklist",
                "result": "Artemis!656BA8120742"
            },
            "McAfee-GW-Edition": {
                "category": "malicious",
                "engine_name": "McAfee-GW-Edition",
                "engine_update": "20180818",
                "engine_version": "v2017.3010",
                "method": "blacklist",
                "result": "BehavesLike.Win32.Generic.tc"
            },
            "MicroWorld-eScan": {
                "category": "undetected",
                "engine_name": "MicroWorld-eScan",
                "engine_update": "20180818",
                "engine_version": "14.0.297.0",
                "method": "blacklist",
                "result": null
            },
            "Microsoft": {
                "category": "malicious",
                "engine_name": "Microsoft",
                "engine_update": "20180818",
                "engine_version": "1.1.15100.1",
                "method": "blacklist",
                "result": "PUA:Win32/Presenoker"
            },
            "NANO-Antivirus": {
                "category": "malicious",
                "engine_name": "NANO-Antivirus",
                "engine_update": "20180819",
                "engine_version": "1.0.116.23366",
                "method": "blacklist",
                "result": "Trojan.Win32.Inject.exhkpz"
            },
            "Paloalto": {
                "category": "malicious",
                "engine_name": "Paloalto",
                "engine_update": "20180819",
                "engine_version": "1.0",
                "method": "blacklist",
                "result": "generic.ml"
            },
            "Panda": {
                "category": "malicious",
                "engine_name": "Panda",
                "engine_update": "20180818",
                "engine_version": "4.6.4.2",
                "method": "blacklist",
                "result": "Trj/Genetic.gen"
            },
            "Qihoo-360": {
                "category": "undetected",
                "engine_name": "Qihoo-360",
                "engine_update": "20180819",
                "engine_version": "1.0.0.1120",
                "method": "blacklist",
                "result": null
            },
            "Rising": {
                "category": "malicious",
                "engine_name": "Rising",
                "engine_update": "20180818",
                "engine_version": "25.0.0.24",
                "method": "blacklist",
                "result": "Trojan.Inject!8.103 (CLOUD)"
            },
            "SUPERAntiSpyware": {
                "category": "undetected",
                "engine_name": "SUPERAntiSpyware",
                "engine_update": "20180818",
                "engine_version": "5.6.0.1032",
                "method": "blacklist",
                "result": null
            },
            "SentinelOne": {
                "category": "malicious",
                "engine_name": "SentinelOne",
                "engine_update": "20180701",
                "engine_version": "1.0.17.227",
                "method": "blacklist",
                "result": "static engine - malicious"
            },
            "Sophos": {
                "category": "malicious",
                "engine_name": "Sophos",
                "engine_update": "20180818",
                "engine_version": "4.98.0",
                "method": "blacklist",
                "result": "Cheathappens (PUA)"
            },
            "Symantec": {
                "category": "malicious",
                "engine_name": "Symantec",
                "engine_update": "20180818",
                "engine_version": "1.7.0.0",
                "method": "blacklist",
                "result": "ML.Attribute.HighConfidence"
            },
            "SymantecMobileInsight": {
                "category": "type-unsupported",
                "engine_name": "SymantecMobileInsight",
                "engine_update": "20180814",
                "engine_version": "2.0",
                "method": "blacklist",
                "result": null
            },
            "TACHYON": {
                "category": "malicious",
                "engine_name": "TACHYON",
                "engine_update": "20180818",
                "engine_version": "2018-08-18.02",
                "method": "blacklist",
                "result": "Trojan/W32.Inject.1402048.B"
            },
            "Tencent": {
                "category": "malicious",
                "engine_name": "Tencent",
                "engine_update": "20180819",
                "engine_version": "1.0.0.1",
                "method": "blacklist",
                "result": "Msil.Trojan.Inject.Wnwl"
            },
            "TheHacker": {
                "category": "undetected",
                "engine_name": "TheHacker",
                "engine_update": "20180818",
                "engine_version": "6.8.0.5.3560",
                "method": "blacklist",
                "result": null
            },
            "TotalDefense": {
                "category": "undetected",
                "engine_name": "TotalDefense",
                "engine_update": "20180818",
                "engine_version": "37.1.62.1",
                "method": "blacklist",
                "result": null
            },
            "TrendMicro": {
                "category": "malicious",
                "engine_name": "TrendMicro",
                "engine_update": "20180818",
                "engine_version": "10.0.0.1040",
                "method": "blacklist",
                "result": "TROJ_GEN.R002C0OFK18"
            },
            "TrendMicro-HouseCall": {
                "category": "malicious",
                "engine_name": "TrendMicro-HouseCall",
                "engine_update": "20180818",
                "engine_version": "9.950.0.1006",
                "method": "blacklist",
                "result": "TROJ_GEN.R002C0OFK18"
            },
            "Trustlook": {
                "category": "type-unsupported",
                "engine_name": "Trustlook",
                "engine_update": "20180819",
                "engine_version": "2",
                "method": "blacklist",
                "result": null
            },
            "VBA32": {
                "category": "malicious",
                "engine_name": "VBA32",
                "engine_update": "20180817",
                "engine_version": "3.33.0",
                "method": "blacklist",
                "result": "Trojan.MSIL.Inject"
            },
            "VIPRE": {
                "category": "undetected",
                "engine_name": "VIPRE",
                "engine_update": "20180818",
                "engine_version": "68932",
                "method": "blacklist",
                "result": null
            },
            "ViRobot": {
                "category": "undetected",
                "engine_name": "ViRobot",
                "engine_update": "20180818",
                "engine_version": "2014.3.20.0",
                "method": "blacklist",
                "result": null
            },
            "Webroot": {
                "category": "malicious",
                "engine_name": "Webroot",
                "engine_update": "20180819",
                "engine_version": "1.0.0.403",
                "method": "blacklist",
                "result": "Pua.Gamehack.Gen"
            },
            "Yandex": {
                "category": "malicious",
                "engine_name": "Yandex",
                "engine_update": "20180818",
                "engine_version": "5.5.1.3",
                "method": "blacklist",
                "result": "Trojan.Inject!gvvmoZ6ZRRs"
            },
            "Zillya": {
                "category": "malicious",
                "engine_name": "Zillya",
                "engine_update": "20180817",
                "engine_version": "2.0.0.3620",
                "method": "blacklist",
                "result": "Trojan.Inject.Win32.244344"
            },
            "ZoneAlarm": {
                "category": "malicious",
                "engine_name": "ZoneAlarm",
                "engine_update": "20180818",
                "engine_version": "1.0",
                "method": "blacklist",
                "result": "Trojan.MSIL.Inject.abzsp"
            },
            "Zoner": {
                "category": "undetected",
                "engine_name": "Zoner",
                "engine_update": "20180818",
                "engine_version": "1.0",
                "method": "blacklist",
                "result": null
            },
            "eGambit": {
                "category": "undetected",
                "engine_name": "eGambit",
                "engine_update": "20180819",
                "engine_version": null,
                "method": "blacklist",
                "result": null
            }
        },
        "last_analysis_stats": {
            "confirmed-timeout": 0,
            "failure": 0,
            "harmless": 0,
            "malicious": 37,
            "suspicious": 0,
            "timeout": 0,
            "type-unsupported": 3,
            "undetected": 31
        },
        "last_modification_date": 1534639173,
        "last_submission_date": 1528543417,
        "magic": "PE32 executable for MS Windows (GUI) Intel 80386 32-bit",
        "md5": "656ba8120742a8ccbc748c9ff0960c86",
        "meaningful_name": "9244-KGAGNON1264-STAR WARS KNIGHTS OF THE OLD REPUBLIC 2 TRAINER.EXE",
        "names": [
            "9244-KGAGNON1264-STAR WARS KNIGHTS OF THE OLD REPUBLIC 2 TRAINER.EXE"
        ],
        "pe_info": {
            "entry_point": 4096,
            "imphash": "d487008396184c03e19506d62330dd8e",
            "import_list": [
                {
                    "imported_functions": [
                        "GdipFree",
                        "GdipDeleteStringFormat",
                        "GdipGetDpiX",
                        "GdipGetDpiY",
                        "GdipDeleteMatrix",
                        "GdipDeleteGraphics",
                        "GdipDeletePath",
                        "GdipDeletePen",
                        "GdipDeleteFont"
                    ],
                    "library_name": "gdiplus.dll"
                },
                {
                    "imported_functions": [
                        "timeBeginPeriod"
                    ],
                    "library_name": "WINMM.DLL"
                },
                {
                    "imported_functions": [
                        "CreateRectRgnIndirect",
                        "GetObjectType",
                        "GetDeviceCaps",
                        "DeleteDC",
                        "SetPixel",
                        "GetObjectW",
                        "BitBlt",
                        "CreateDIBSection",
                        "SetTextColor",
                        "CreateBitmap",
                        "CreateDCW",
                        "GetStockObject",
                        "GetDIBits",
                        "ExtSelectClipRgn",
                        "SelectClipRgn",
                        "CreateCompatibleDC",
                        "CreateFontW",
                        "GetClipRgn",
                        "CreateSolidBrush",
                        "SelectObject",
                        "SetBkColor",
                        "DeleteObject"
                    ],
                    "library_name": "GDI32.DLL"
                },
                {
                    "imported_functions": [
                        "ShellExecuteExW"
                    ],
                    "library_name": "SHELL32.DLL"
                },
                {
                    "imported_functions": [
                        "GetLastError",
                        "HeapFree",
                        "GetStdHandle",
                        "EnterCriticalSection",
                        "ReadFile",
                        "GetModuleFileNameW",
                        "GlobalFree",
                        "WaitForSingleObject",
                        "GetVersionExW",
                        "FreeLibrary",
                        "MulDiv",
                        "HeapDestroy",
                        "GetTickCount",
                        "TlsAlloc",
                        "LoadLibraryA",
                        "VerSetConditionMask",
                        "CreatePipe",
                        "GetCurrentProcess",
                        "GetCurrentProcessId",
                        "WaitForMultipleObjects",
                        "ExpandEnvironmentStringsA",
                        "CreateThread",
                        "MultiByteToWideChar",
                        "CreateDirectoryW",
                        "DeleteFileW",
                        "GetProcAddress",
                        "InterlockedCompareExchange",
                        "SleepEx",
                        "RemoveDirectoryW",
                        "VerifyVersionInfoA",
                        "ReleaseSemaphore",
                        "WideCharToMultiByte",
                        "LoadLibraryW",
                        "TlsFree",
                        "SetFilePointer",
                        "DeleteCriticalSection",
                        "FindNextFileW",
                        "InterlockedExchange",
                        "CreateSemaphoreW",
                        "WriteFile",
                        "CloseHandle",
                        "FindFirstFileW",
                        "DuplicateHandle",
                        "HeapReAlloc",
                        "GetModuleHandleW",
                        "HeapAlloc",
                        "InitializeCriticalSection",
                        "HeapCreate",
                        "CreateFileW",
                        "GlobalAlloc",
                        "CreateProcessW",
                        "FindClose",
                        "TlsGetValue",
                        "Sleep",
                        "FormatMessageA",
                        "SetFileAttributesW",
                        "TlsSetValue",
                        "ExitProcess",
                        "GetCurrentThreadId",
                        "GetCurrentThread",
                        "GetFileSize",
                        "SetLastError",
                        "LeaveCriticalSection"
                    ],
                    "library_name": "KERNEL32.dll"
                },
                {
                    "imported_functions": [
                        "strncmp",
                        "malloc",
                        "sscanf",
                        "frexp",
                        "pow",
                        "fread",
                        "fclose",
                        "strerror",
                        "_snwprintf",
                        "isdigit",
                        "_wcsicmp",
                        "_setjmp3",
                        "strtoul",
                        "fgets",
                        "fflush",
                        "fopen",
                        "_vsnwprintf",
                        "strncpy",
                        "strchr",
                        "wcslen",
                        "fabs",
                        "floor",
                        "fwrite",
                        "fseek",
                        "qsort",
                        "isxdigit",
                        "_wcsdup",
                        "wcscmp",
                        "ftell",
                        "isalpha",
                        "sprintf",
                        "realloc",
                        "strrchr",
                        "ferror",
                        "__p__iob",
                        "isalnum",
                        "strtol",
                        "getenv",
                        "memset",
                        "longjmp",
                        "tolower",
                        "fputc",
                        "_wcsnicmp",
                        "wcsncpy",
                        "??3@YAXPAX@Z",
                        "gmtime",
                        "free",
                        "ceil",
                        "_stati64",
                        "wcscat",
                        "atoi",
                        "wcsncmp",
                        "calloc",
                        "_write",
                        "_stricmp",
                        "atof",
                        "memcpy",
                        "strpbrk",
                        "strstr",
                        "fputs",
                        "memmove",
                        "_read",
                        "_errno",
                        "_CIpow",
                        "remove",
                        "wcscpy",
                        "abort",
                        "_ftime",
                        "modf",
                        "time",
                        "_strnicmp",
                        "isupper",
                        "isspace",
                        "memchr"
                    ],
                    "library_name": "MSVCRT.dll"
                },
                {
                    "imported_functions": [
                        "htonl",
                        "ioctlsocket",
                        "WSAStartup",
                        "connect",
                        "getsockname",
                        "htons",
                        "getpeername",
                        "WSAGetLastError",
                        "gethostname",
                        "getsockopt",
                        "closesocket",
                        "ntohl",
                        "inet_addr",
                        "send",
                        "ntohs",
                        "select",
                        "__WSAFDIsSet",
                        "WSACleanup",
                        "gethostbyname",
                        "WSASetLastError",
                        "recv",
                        "setsockopt",
                        "socket",
                        "bind"
                    ],
                    "library_name": "WSOCK32.DLL"
                },
                {
                    "imported_functions": [
                        "CryptReleaseContext",
                        "CryptAcquireContextA",
                        "CryptGetHashParam",
                        "CryptGenRandom",
                        "CryptHashData",
                        "GetCurrentHwProfileW",
                        "CryptDestroyHash",
                        "CryptCreateHash"
                    ],
                    "library_name": "ADVAPI32.DLL"
                },
                {
                    "imported_functions": [
                        "RevokeDragDrop",
                        "CoInitialize"
                    ],
                    "library_name": "OLE32.DLL"
                },
                {
                    "imported_functions": [
                        "getaddrinfo",
                        "freeaddrinfo",
                        "WSAIoctl"
                    ],
                    "library_name": "WS2_32.DLL"
                },
                {
                    "imported_functions": [
                        "SetFocus",
                        "RedrawWindow",
                        "GetForegroundWindow",
                        "GetParent",
                        "UpdateWindow",
                        "GetFocus",
                        "GetPropW",
                        "BeginPaint",
                        "EnumWindows",
                        "DefWindowProcW",
                        "CharUpperW",
                        "DestroyAcceleratorTable",
                        "ShowWindow",
                        "DrawStateW",
                        "FillRect",
                        "RegisterWindowMessageW",
                        "SetWindowPos",
                        "GetWindowThreadProcessId",
                        "CreateIconFromResourceEx",
                        "GetSystemMetrics",
                        "SetWindowLongW",
                        "MessageBoxW",
                        "DestroyIcon",
                        "GetWindowRect",
                        "EndPaint",
                        "SetCapture",
                        "ReleaseCapture",
                        "EnumChildWindows",
                        "SetPropW",
                        "AdjustWindowRectEx",
                        "IsWindowEnabled",
                        "GetWindow",
                        "PostMessageW",
                        "GetSysColor",
                        "SetActiveWindow",
                        "GetDC",
                        "GetKeyState",
                        "ReleaseDC",
                        "GetIconInfo",
                        "SendMessageW",
                        "RegisterClassW",
                        "GetWindowLongW",
                        "DefFrameProcW",
                        "IsWindowVisible",
                        "UnregisterClassW",
                        "SetWindowTextW",
                        "RemovePropW",
                        "DrawTextW",
                        "GetClientRect",
                        "ScreenToClient",
                        "SetRect",
                        "InvalidateRect",
                        "CallWindowProcW",
                        "GetClassNameW",
                        "GetActiveWindow",
                        "CreateAcceleratorTableW",
                        "GetWindowTextW",
                        "GetSysColorBrush",
                        "CreateIconFromResource",
                        "LoadCursorW",
                        "LoadIconW",
                        "GetWindowTextLengthW",
                        "CreateWindowExW",
                        "EnableWindow",
                        "IsChild",
                        "DestroyWindow"
                    ],
                    "library_name": "USER32.DLL"
                },
                {
                    "imported_functions": [
                        "InitCommonControlsEx"
                    ],
                    "library_name": "COMCTL32.DLL"
                }
            ],
            "machine_type": 332,
            "overlay": {
                "chi2": 100288.0703125,
                "entropy": 2.1132736206054688,
                "filetype": "ASCII text",
                "md5": "e088a6c88fa7249ce54c90b18e3a9266",
                "offset": 1401344,
                "size": 704
            },
            "resource_details": [
                {
                    "chi2": 50193.73828125,
                    "entropy": 6.117272853851318,
                    "filetype": "data",
                    "lang": "ENGLISH US",
                    "sha256": "34d14b3e686186835a78eb6f3560d5d357547eddd88b3440d411bea8a7bc615b",
                    "type": "RT_ICON"
                },
                {
                    "chi2": 28302.92578125,
                    "entropy": 6.4064178466796875,
                    "filetype": "data",
                    "lang": "ENGLISH US",
                    "sha256": "530d4319ae6aa9a11ebf65e7f51a9efff0fa9abb3ff27eafd6c1409e780e1e88",
                    "type": "RT_ICON"
                },
                {
                    "chi2": 81917.984375,
                    "entropy": 4.767499923706055,
                    "filetype": "data",
                    "lang": "ENGLISH US",
                    "sha256": "0b0e1046bcd887eb2cd256291543416ffc8a1612c6c3a37fb5d8eb908eb8668c",
                    "type": "RT_ICON"
                },
                {
                    "chi2": 1467.985107421875,
                    "entropy": 7.980130195617676,
                    "filetype": "image/x-png",
                    "lang": "ENGLISH US",
                    "sha256": "0f885fe9717868beef6fb3a0897a67c22db4a02b0b472481388d6454b9dd39e1",
                    "type": "RT_ICON"
                },
                {
                    "chi2": 92125.8515625,
                    "entropy": 6.180540561676025,
                    "filetype": "data",
                    "lang": "ENGLISH US",
                    "sha256": "eba03c2798520c57f437a0a28510b56234737bcade321e8b75e99bf8a3463ff0",
                    "type": "RT_ICON"
                },
                {
                    "chi2": 70798.8828125,
                    "entropy": 5.971963882446289,
                    "filetype": "data",
                    "lang": "ENGLISH US",
                    "sha256": "20bee17d8ac9918e9fce835dca6ea90591afc2045682d82b71a2d403648ad63a",
                    "type": "RT_ICON"
                },
                {
                    "chi2": 17622.181640625,
                    "entropy": 5.913939476013184,
                    "filetype": "data",
                    "lang": "ENGLISH US",
                    "sha256": "7e5ccebd4f85e7557e7556f704eb6eb8dfea69d475cad116439c7e307e664691",
                    "type": "RT_ICON"
                },
                {
                    "chi2": 7935.384765625,
                    "entropy": 2.718576669692993,
                    "filetype": "data",
                    "lang": "ENGLISH US",
                    "sha256": "a90014711d794ab077d1dfc33d1dee7fa6315cc2ea458ca4eefad24871223b91",
                    "type": "RT_GROUP_ICON"
                },
                {
                    "chi2": 11792.431640625,
                    "entropy": 4.867402076721191,
                    "filetype": "ASCII text",
                    "lang": "ENGLISH US",
                    "sha256": "73be60d13be4f58a165c75b1b9706812ebf610f779501c9884dcb829229599b6",
                    "type": "RT_MANIFEST"
                }
            ],
            "resource_langs": {
                "ENGLISH US": 9
            },
            "resource_types": {
                "RT_GROUP_ICON": 1,
                "RT_ICON": 7,
                "RT_MANIFEST": 1
            },
            "sections": [
                {
                    "entropy": 5.34,
                    "md5": "aa7e6439e175e4ce8f775f378d129e90",
                    "name": ".code",
                    "raw_size": 5632,
                    "virtual_address": 4096,
                    "virtual_size": 5507
                },
                {
                    "entropy": 6.51,
                    "md5": "2b21b16915ee7bdd6b357c999e9bf43b",
                    "name": ".text",
                    "raw_size": 328192,
                    "virtual_address": 12288,
                    "virtual_size": 328017
                },
                {
                    "entropy": 6.32,
                    "md5": "34cc090a2cd7d54425c3e617e9c33d2c",
                    "name": ".rdata",
                    "raw_size": 54272,
                    "virtual_address": 344064,
                    "virtual_size": 54200
                },
                {
                    "entropy": 7.83,
                    "md5": "283a01cbe04d49cc3a5b0593c7106738",
                    "name": ".data",
                    "raw_size": 937472,
                    "virtual_address": 401408,
                    "virtual_size": 940016
                },
                {
                    "entropy": 7.74,
                    "md5": "f5d1f758b7122ab52b15187bbac42791",
                    "name": ".rsrc",
                    "raw_size": 74752,
                    "virtual_address": 1343488,
                    "virtual_size": 74584
                }
            ],
            "timestamp": 1515784810
        },
        "reputation": 0,
        "sha1": "f72f740aa91b46dcc8c95f8962a3efccca348843",
        "sha256": "000387f75534a4f41c71dd8e3bbc98da6f4ce962edcfd5cc3d59a9b983816424",
        "size": 1402048,
        "ssdeep": "24576:LjuwctZGsGueFRQTvxafFHGvh1D4GJRNW+dWpLXp1URaj6IxHu6DfV/c5Cv9yfZd:uTrTZQ4h0DbURaj6IxHu0VUQyJBV1Lsu",
        "tags": [
            "peexe",
            "overlay"
        ],
        "times_submitted": 1,
        "total_votes": {
            "harmless": 0,
            "malicious": 0
        },
        "trid": [
            {
                "file_type": "Obfuscated subsetted Font",
                "probability": 39.9
            },
            {
                "file_type": "Win32 Executable MS Visual C++ (generic)",
                "probability": 23.9
            },
            {
                "file_type": "Win64 Executable (generic)",
                "probability": 21.2
            },
            {
                "file_type": "Win32 Dynamic Link Library (generic)",
                "probability": 5.0
            },
            {
                "file_type": "Win32 Executable (generic)",
                "probability": 3.4
            }
        ],
        "type_description": "Win32 EXE",
        "type_extension": "exe",
        "type_tag": "peexe",
        "unique_sources": 1,
        "vhash": "01605656656d75708012z16003f4a5z27z12z423z1037z"
    },
    "id": "000387f75534a4f41c71dd8e3bbc98da6f4ce962edcfd5cc3d59a9b983816424",
    "links": {
        "self": "https://www.virustotal.com/api/v3/files/000387f75534a4f41c71dd8e3bbc98da6f4ce962edcfd5cc3d59a9b983816424"
    },
    "type": "file"
}