{
    "attributes": {
        "authentihash": "6ea8fa5e020582e42457972271180aeebd1943609842036ce7c04e80e72f06b2",
        "creation_date": 1327872765,
        "first_submission_date": 1531715406,
        "last_analysis_date": 1531715406,
        "last_analysis_results": {
            "ALYac": {
                "category": "malicious",
                "engine_name": "ALYac",
                "engine_update": "20180716",
                "engine_version": "1.1.1.5",
                "method": "blacklist",
                "result": "Trojan.GenericKD.30955262"
            },
            "AVG": {
                "category": "malicious",
                "engine_name": "AVG",
                "engine_update": "20180716",
                "engine_version": "18.4.3895.0",
                "method": "blacklist",
                "result": "Win64:Malware-gen"
            },
            "AVware": {
                "category": "malicious",
                "engine_name": "AVware",
                "engine_update": "20180716",
                "engine_version": "1.6.0.52",
                "method": "blacklist",
                "result": "Trojan.Win32.Generic!BT"
            },
            "Ad-Aware": {
                "category": "malicious",
                "engine_name": "Ad-Aware",
                "engine_update": "20180716",
                "engine_version": "3.0.5.370",
                "method": "blacklist",
                "result": "Trojan.GenericKD.30955262"
            },
            "AegisLab": {
                "category": "undetected",
                "engine_name": "AegisLab",
                "engine_update": "20180716",
                "engine_version": "4.2",
                "method": "blacklist",
                "result": null
            },
            "AhnLab-V3": {
                "category": "malicious",
                "engine_name": "AhnLab-V3",
                "engine_update": "20180715",
                "engine_version": "3.13.1.21452",
                "method": "blacklist",
                "result": "Trojan/Win32.SelfDel.R230423"
            },
            "Alibaba": {
                "category": "type-unsupported",
                "engine_name": "Alibaba",
                "engine_update": "20180713",
                "engine_version": "1.0",
                "method": "blacklist",
                "result": null
            },
            "Antiy-AVL": {
                "category": "malicious",
                "engine_name": "Antiy-AVL",
                "engine_update": "20180716",
                "engine_version": "3.0.0.1",
                "method": "blacklist",
                "result": "Trojan/Win32.CoinMiner"
            },
            "Arcabit": {
                "category": "malicious",
                "engine_name": "Arcabit",
                "engine_update": "20180716",
                "engine_version": "1.0.0.831",
                "method": "blacklist",
                "result": "Trojan.Generic.D1D856FE"
            },
            "Avast": {
                "category": "malicious",
                "engine_name": "Avast",
                "engine_update": "20180716",
                "engine_version": "18.4.3895.0",
                "method": "blacklist",
                "result": "Win64:Malware-gen"
            },
            "Avast-Mobile": {
                "category": "undetected",
                "engine_name": "Avast-Mobile",
                "engine_update": "20180715",
                "engine_version": "180715-06",
                "method": "blacklist",
                "result": null
            },
            "Avira": {
                "category": "malicious",
                "engine_name": "Avira",
                "engine_update": "20180715",
                "engine_version": "8.3.3.6",
                "method": "blacklist",
                "result": "DR/AutoIt.Gen"
            },
            "Babable": {
                "category": "undetected",
                "engine_name": "Babable",
                "engine_update": "20180406",
                "engine_version": "9107201",
                "method": "blacklist",
                "result": null
            },
            "Baidu": {
                "category": "malicious",
                "engine_name": "Baidu",
                "engine_update": "20180716",
                "engine_version": "1.0.0.2",
                "method": "blacklist",
                "result": "Win32.Trojan.WisdomEyes.16070401.9500.9696"
            },
            "BitDefender": {
                "category": "malicious",
                "engine_name": "BitDefender",
                "engine_update": "20180716",
                "engine_version": "7.2",
                "method": "blacklist",
                "result": "Trojan.GenericKD.30955262"
            },
            "Bkav": {
                "category": "undetected",
                "engine_name": "Bkav",
                "engine_update": "20180713",
                "engine_version": "1.3.0.9466",
                "method": "blacklist",
                "result": null
            },
            "CAT-QuickHeal": {
                "category": "malicious",
                "engine_name": "CAT-QuickHeal",
                "engine_update": "20180714",
                "engine_version": "14.00",
                "method": "blacklist",
                "result": "Trojan.Selfdel"
            },
            "CMC": {
                "category": "undetected",
                "engine_name": "CMC",
                "engine_update": "20180714",
                "engine_version": "1.1.0.977",
                "method": "blacklist",
                "result": null
            },
            "ClamAV": {
                "category": "undetected",
                "engine_name": "ClamAV",
                "engine_update": "20180715",
                "engine_version": "0.100.1.0",
                "method": "blacklist",
                "result": null
            },
            "Comodo": {
                "category": "undetected",
                "engine_name": "Comodo",
                "engine_update": "20180716",
                "engine_version": "29357",
                "method": "blacklist",
                "result": null
            },
            "CrowdStrike": {
                "category": "malicious",
                "engine_name": "CrowdStrike",
                "engine_update": "20180530",
                "engine_version": "1.0",
                "method": "blacklist",
                "result": "malicious_confidence_100% (D)"
            },
            "Cybereason": {
                "category": "malicious",
                "engine_name": "Cybereason",
                "engine_update": "20180225",
                "engine_version": "1.2.27",
                "method": "blacklist",
                "result": "malicious.972252"
            },
            "Cylance": {
                "category": "undetected",
                "engine_name": "Cylance",
                "engine_update": "20180716",
                "engine_version": "2.3.1.101",
                "method": "blacklist",
                "result": null
            },
            "Cyren": {
                "category": "malicious",
                "engine_name": "Cyren",
                "engine_update": "20180716",
                "engine_version": "6.0.0.4",
                "method": "blacklist",
                "result": "W64/BitCoin.I.gen!Eldorado"
            },
            "DrWeb": {
                "category": "malicious",
                "engine_name": "DrWeb",
                "engine_update": "20180716",
                "engine_version": "7.0.33.6080",
                "method": "blacklist",
                "result": "Trojan.MulDrop7.62713"
            },
            "ESET-NOD32": {
                "category": "malicious",
                "engine_name": "ESET-NOD32",
                "engine_update": "20180716",
                "engine_version": "17720",
                "method": "blacklist",
                "result": "a variant of Win32/CoinMiner.JR"
            },
            "Emsisoft": {
                "category": "malicious",
                "engine_name": "Emsisoft",
                "engine_update": "20180716",
                "engine_version": "2018.4.0.1029",
                "method": "blacklist",
                "result": "Trojan.GenericKD.30955262 (B)"
            },
            "Endgame": {
                "category": "malicious",
                "engine_name": "Endgame",
                "engine_update": "20180711",
                "engine_version": "3.0.0",
                "method": "blacklist",
                "result": "malicious (high confidence)"
            },
            "F-Prot": {
                "category": "malicious",
                "engine_name": "F-Prot",
                "engine_update": "20180716",
                "engine_version": "4.7.1.166",
                "method": "blacklist",
                "result": "W64/BitCoin.I.gen!Eldorado"
            },
            "F-Secure": {
                "category": "undetected",
                "engine_name": "F-Secure",
                "engine_update": "20180716",
                "engine_version": "11.0.19100.45",
                "method": "blacklist",
                "result": null
            },
            "Fortinet": {
                "category": "malicious",
                "engine_name": "Fortinet",
                "engine_update": "20180716",
                "engine_version": "5.4.247.0",
                "method": "blacklist",
                "result": "W32/CoinMiner.JR!tr"
            },
            "GData": {
                "category": "malicious",
                "engine_name": "GData",
                "engine_update": "20180716",
                "engine_version": "A:25.17793B:25.12734",
                "method": "blacklist",
                "result": "Trojan.GenericKD.30955262"
            },
            "Ikarus": {
                "category": "malicious",
                "engine_name": "Ikarus",
                "engine_update": "20180715",
                "engine_version": "0.1.5.2",
                "method": "blacklist",
                "result": "Worm.Win32.AutoIt"
            },
            "Invincea": {
                "category": "malicious",
                "engine_name": "Invincea",
                "engine_update": "20180601",
                "engine_version": "6.3.5.26121",
                "method": "blacklist",
                "result": "heuristic"
            },
            "Jiangmin": {
                "category": "malicious",
                "engine_name": "Jiangmin",
                "engine_update": "20180715",
                "engine_version": "16.0.100",
                "method": "blacklist",
                "result": "Trojan.Script.bss"
            },
            "K7AntiVirus": {
                "category": "malicious",
                "engine_name": "K7AntiVirus",
                "engine_update": "20180716",
                "engine_version": "10.53.27760",
                "method": "blacklist",
                "result": "Trojan ( 004935801 )"
            },
            "K7GW": {
                "category": "malicious",
                "engine_name": "K7GW",
                "engine_update": "20180715",
                "engine_version": "10.53.27759",
                "method": "blacklist",
                "result": "Trojan ( 004935801 )"
            },
            "Kaspersky": {
                "category": "malicious",
                "engine_name": "Kaspersky",
                "engine_update": "20180716",
                "engine_version": "15.0.1.13",
                "method": "blacklist",
                "result": "HEUR:Trojan.Script.Generic"
            },
            "Kingsoft": {
                "category": "undetected",
                "engine_name": "Kingsoft",
                "engine_update": "20180716",
                "engine_version": "2013.8.14.323",
                "method": "blacklist",
                "result": null
            },
            "MAX": {
                "category": "malicious",
                "engine_name": "MAX",
                "engine_update": "20180716",
                "engine_version": "2017.11.15.1",
                "method": "blacklist",
                "result": "malware (ai score=81)"
            },
            "Malwarebytes": {
                "category": "malicious",
                "engine_name": "Malwarebytes",
                "engine_update": "20180716",
                "engine_version": "2.1.1.1115",
                "method": "blacklist",
                "result": "Trojan.BitCoinMiner"
            },
            "McAfee": {
                "category": "malicious",
                "engine_name": "McAfee",
                "engine_update": "20180716",
                "engine_version": "6.0.6.653",
                "method": "blacklist",
                "result": "Trojan-FPMM!F85FCD097225"
            },
            "McAfee-GW-Edition": {
                "category": "malicious",
                "engine_name": "McAfee-GW-Edition",
                "engine_update": "20180715",
                "engine_version": "v2017.3010",
                "method": "blacklist",
                "result": "BehavesLike.Win64.Trojan.rc"
            },
            "MicroWorld-eScan": {
                "category": "malicious",
                "engine_name": "MicroWorld-eScan",
                "engine_update": "20180716",
                "engine_version": "14.0.297.0",
                "method": "blacklist",
                "result": "Trojan.GenericKD.30955262"
            },
            "Microsoft": {
                "category": "malicious",
                "engine_name": "Microsoft",
                "engine_update": "20180716",
                "engine_version": "1.1.15000.2",
                "method": "blacklist",
                "result": "Trojan:Win32/CoinMiner.AT"
            },
            "NANO-Antivirus": {
                "category": "undetected",
                "engine_name": "NANO-Antivirus",
                "engine_update": "20180716",
                "engine_version": "1.0.116.23366",
                "method": "blacklist",
                "result": null
            },
            "Paloalto": {
                "category": "undetected",
                "engine_name": "Paloalto",
                "engine_update": "20180716",
                "engine_version": "1.0",
                "method": "blacklist",
                "result": null
            },
            "Panda": {
                "category": "undetected",
                "engine_name": "Panda",
                "engine_update": "20180715",
                "engine_version": "4.6.4.2",
                "method": "blacklist",
                "result": null
            },
            "Qihoo-360": {
                "category": "undetected",
                "engine_name": "Qihoo-360",
                "engine_update": "20180716",
                "engine_version": "1.0.0.1120",
                "method": "blacklist",
                "result": null
            },
            "Rising": {
                "category": "malicious",
                "engine_name": "Rising",
                "engine_update": "20180716",
                "engine_version": "25.0.0.20",
                "method": "blacklist",
                "result": "Trojan.SelfDel!8.275 (CLOUD)"
            },
            "SUPERAntiSpyware": {
                "category": "undetected",
                "engine_name": "SUPERAntiSpyware",
                "engine_update": "20180715",
                "engine_version": "5.6.0.1032",
                "method": "blacklist",
                "result": null
            },
            "SentinelOne": {
                "category": "malicious",
                "engine_name": "SentinelOne",
                "engine_update": "20180701",
                "engine_version": "1.0.17.227",
                "method": "blacklist",
                "result": "static engine - malicious"
            },
            "Sophos": {
                "category": "malicious",
                "engine_name": "Sophos",
                "engine_update": "20180716",
                "engine_version": "4.98.0",
                "method": "blacklist",
                "result": "Troj/AutoIt-ACZ"
            },
            "Symantec": {
                "category": "malicious",
                "engine_name": "Symantec",
                "engine_update": "20180715",
                "engine_version": "1.6.0.0",
                "method": "blacklist",
                "result": "SMG.Heur!gen"
            },
            "TACHYON": {
                "category": "undetected",
                "engine_name": "TACHYON",
                "engine_update": "20180716",
                "engine_version": "2018-07-16.01",
                "method": "blacklist",
                "result": null
            },
            "Tencent": {
                "category": "undetected",
                "engine_name": "Tencent",
                "engine_update": "20180716",
                "engine_version": "1.0.0.1",
                "method": "blacklist",
                "result": null
            },
            "TheHacker": {
                "category": "undetected",
                "engine_name": "TheHacker",
                "engine_update": "20180716",
                "engine_version": "6.8.0.5.3372",
                "method": "blacklist",
                "result": null
            },
            "TotalDefense": {
                "category": "undetected",
                "engine_name": "TotalDefense",
                "engine_update": "20180715",
                "engine_version": "37.1.62.1",
                "method": "blacklist",
                "result": null
            },
            "TrendMicro": {
                "category": "malicious",
                "engine_name": "TrendMicro",
                "engine_update": "20180716",
                "engine_version": "10.0.0.1040",
                "method": "blacklist",
                "result": "Possibl.DA0384C5"
            },
            "TrendMicro-HouseCall": {
                "category": "malicious",
                "engine_name": "TrendMicro-HouseCall",
                "engine_update": "20180716",
                "engine_version": "9.950.0.1006",
                "method": "blacklist",
                "result": "Possibl.DA0384C5"
            },
            "Trustlook": {
                "category": "type-unsupported",
                "engine_name": "Trustlook",
                "engine_update": "20180716",
                "engine_version": "2",
                "method": "blacklist",
                "result": null
            },
            "VBA32": {
                "category": "malicious",
                "engine_name": "VBA32",
                "engine_update": "20180713",
                "engine_version": "3.12.32.0",
                "method": "blacklist",
                "result": "Trojan.Agent"
            },
            "VIPRE": {
                "category": "malicious",
                "engine_name": "VIPRE",
                "engine_update": "20180716",
                "engine_version": "68148",
                "method": "blacklist",
                "result": "Trojan.Win32.Generic!BT"
            },
            "ViRobot": {
                "category": "undetected",
                "engine_name": "ViRobot",
                "engine_update": "20180715",
                "engine_version": "2014.3.20.0",
                "method": "blacklist",
                "result": null
            },
            "Webroot": {
                "category": "undetected",
                "engine_name": "Webroot",
                "engine_update": "20180716",
                "engine_version": "1.0.0.403",
                "method": "blacklist",
                "result": null
            },
            "Yandex": {
                "category": "malicious",
                "engine_name": "Yandex",
                "engine_update": "20180713",
                "engine_version": "5.5.1.3",
                "method": "blacklist",
                "result": "Trojan.SelfDel!AoyoyxZuPns"
            },
            "ZoneAlarm": {
                "category": "malicious",
                "engine_name": "ZoneAlarm",
                "engine_update": "20180716",
                "engine_version": "1.0",
                "method": "blacklist",
                "result": "HEUR:Trojan.Script.Generic"
            },
            "Zoner": {
                "category": "undetected",
                "engine_name": "Zoner",
                "engine_update": "20180715",
                "engine_version": "1.0",
                "method": "blacklist",
                "result": null
            },
            "eGambit": {
                "category": "undetected",
                "engine_name": "eGambit",
                "engine_update": "20180716",
                "engine_version": null,
                "method": "blacklist",
                "result": null
            }
        },
        "last_analysis_stats": {
            "confirmed-timeout": 0,
            "failure": 0,
            "harmless": 0,
            "malicious": 44,
            "suspicious": 0,
            "timeout": 0,
            "type-unsupported": 2,
            "undetected": 23
        },
        "last_modification_date": 1531715480,
        "last_submission_date": 1531715406,
        "magic": "PE32+ executable for MS Windows (GUI) Mono/.Net assembly",
        "md5": "f85fcd0972252f816ae651c08d873c8d",
        "meaningful_name": "f85fcd0972252f816ae651c08d873c8d.virus",
        "names": [
            "f85fcd0972252f816ae651c08d873c8d.virus"
        ],
        "pe_info": {
            "entry_point": 107836,
            "imphash": "09965c276d620e5917bed399e0fe50ac",
            "import_list": [
                {
                    "imported_functions": [
                        "WNetGetConnectionW",
                        "WNetCancelConnection2W",
                        "WNetUseConnectionW",
                        "WNetAddConnection2W"
                    ],
                    "library_name": "MPR.dll"
                },
                {
                    "imported_functions": [
                        "GetSaveFileNameW",
                        "GetOpenFileNameW"
                    ],
                    "library_name": "COMDLG32.dll"
                },
                {
                    "imported_functions": [
                        "GetStdHandle",
                        "GetDriveTypeW",
                        "FileTimeToSystemTime",
                        "WaitForSingleObject",
                        "GetPrivateProfileSectionNamesW",
                        "FlsGetValue",
                        "GetFileAttributesW",
                        "GetLocalTime",
                        "DeleteCriticalSection",
                        "GetCurrentProcess",
                        "GetConsoleMode",
                        "UnhandledExceptionFilter",
                        "RtlUnwindEx",
                        "SetErrorMode",
                        "FreeEnvironmentStringsW",
                        "SetStdHandle",
                        "WideCharToMultiByte",
                        "GetDiskFreeSpaceW",
                        "FlsAlloc",
                        "WriteFile",
                        "GetSystemTimeAsFileTime",
                        "GlobalMemoryStatusEx",
                        "HeapReAlloc",
                        "GetStringTypeW",
                        "GetExitCodeProcess",
                        "FormatMessageW",
                        "ResumeThread",
                        "GetTimeZoneInformation",
                        "LoadResource",
                        "FindClose",
                        "MoveFileW",
                        "SetFileAttributesW",
                        "EncodePointer",
                        "GetCurrentThread",
                        "GetEnvironmentVariableW",
                        "SetLastError",
                        "DeviceIoControl",
                        "CopyFileW",
                        "WriteProcessMemory",
                        "OutputDebugStringW",
                        "RemoveDirectoryW",
                        "Beep",
                        "IsDebuggerPresent",
                        "HeapAlloc",
                        "FlsSetValue",
                        "LoadLibraryA",
                        "RaiseException",
                        "HeapSetInformation",
                        "WritePrivateProfileSectionW",
                        "RtlVirtualUnwind",
                        "GetVolumeInformationW",
                        "LoadLibraryExW",
                        "MultiByteToWideChar",
                        "SetFilePointerEx",
                        "GetPrivateProfileStringW",
                        "GetFullPathNameW",
                        "CreateThread",
                        "SetEnvironmentVariableW",
                        "GetSystemDirectoryW",
                        "CreatePipe",
                        "SetUnhandledExceptionFilter",
                        "MulDiv",
                        "ExitThread",
                        "DecodePointer",
                        "SetEnvironmentVariableA",
                        "SetPriorityClass",
                        "TerminateProcess",
                        "GetVersion",
                        "SetCurrentDirectoryW",
                        "GlobalAlloc",
                        "LocalFileTimeToFileTime",
                        "GetDiskFreeSpaceExW",
                        "SetEndOfFile",
                        "GetCurrentThreadId",
                        "WriteConsoleW",
                        "CreateToolhelp32Snapshot",
                        "InitializeCriticalSectionAndSpinCount",
                        "HeapFree",
                        "EnterCriticalSection",
                        "SetHandleCount",
                        "TerminateThread",
                        "LoadLibraryW",
                        "GetVersionExW",
                        "SetEvent",
                        "QueryPerformanceCounter",
                        "GetTickCount",
                        "FlushFileBuffers",
                        "lstrcmpiW",
                        "FreeLibrary",
                        "GetProcessIoCounters",
                        "RtlPcToFileHeader",
                        "GetWindowsDirectoryW",
                        "GetFileSize",
                        "OpenProcess",
                        "GetDateFormatW",
                        "GetStartupInfoW",
                        "ReadProcessMemory",
                        "CreateDirectoryW",
                        "DeleteFileW",
                        "GlobalLock",
                        "GetProcessHeap",
                        "GetTempFileNameW",
                        "GetComputerNameW",
                        "EnumResourceNamesW",
                        "CompareStringW",
                        "lstrcpyW",
                        "GetModuleFileNameW",
                        "FindNextFileW",
                        "RtlLookupFunctionEntry",
                        "CreateHardLinkW",
                        "FindFirstFileW",
                        "DuplicateHandle",
                        "GetProcAddress",
                        "SetVolumeLabelW",
                        "GetPrivateProfileSectionW",
                        "CreateEventW",
                        "CreateFileW",
                        "GetFileType",
                        "ExitProcess",
                        "LeaveCriticalSection",
                        "GetLastError",
                        "SystemTimeToFileTime",
                        "LCMapStringW",
                        "GetShortPathNameW",
                        "VirtualAllocEx",
                        "GetSystemInfo",
                        "GlobalFree",
                        "GetConsoleCP",
                        "FindResourceW",
                        "GetTimeFormatW",
                        "GetEnvironmentStringsW",
                        "GlobalUnlock",
                        "lstrlenW",
                        "Process32NextW",
                        "CreateProcessW",
                        "FileTimeToLocalFileTime",
                        "SizeofResource",
                        "GetCurrentDirectoryW",
                        "VirtualFreeEx",
                        "GetCurrentProcessId",
                        "LockResource",
                        "SetFileTime",
                        "GetCommandLineW",
                        "GetCPInfo",
                        "HeapSize",
                        "SetSystemPowerState",
                        "FlsFree",
                        "Process32FirstW",
                        "WritePrivateProfileStringW",
                        "QueryPerformanceFrequency",
                        "SetFilePointer",
                        "ReadFile",
                        "RtlCaptureContext",
                        "CloseHandle",
                        "GetACP",
                        "GetModuleHandleW",
                        "IsValidCodePage",
                        "HeapCreate",
                        "GetTempPathW",
                        "VirtualFree",
                        "Sleep",
                        "VirtualAlloc",
                        "GetOEMCP"
                    ],
                    "library_name": "KERNEL32.dll"
                },
                {
                    "imported_functions": [
                        "SysStringLen",
                        "SafeArrayDestroyData",
                        "SysAllocString",
                        "VariantCopy",
                        "QueryPathOfRegTypeLib",
                        "SafeArrayCreateVector",
                        "SafeArrayAllocData",
                        "SafeArrayDestroyDescriptor",
                        "SafeArrayAccessData",
                        "SafeArrayUnaccessData",
                        "VariantCopyInd",
                        "GetActiveObject",
                        "SafeArrayAllocDescriptorEx",
                        "VariantInit",
                        "SysFreeString",
                        "OleLoadPicture",
                        "VariantChangeType",
                        "CreateDispTypeInfo",
                        "DispCallFunc",
                        "SafeArrayGetVartype",
                        "VariantTimeToSystemTime",
                        "VariantClear",
                        "VarR8FromDec",
                        "CreateStdDispatch"
                    ],
                    "library_name": "OLEAUT32.dll"
                },
                {
                    "imported_functions": [
                        "SHGetFolderPathW",
                        "SHEmptyRecycleBinW",
                        "SHBrowseForFolderW",
                        "DragQueryFileW",
                        "SHFileOperationW",
                        "ShellExecuteW",
                        "SHGetPathFromIDListW",
                        "DragQueryPoint",
                        "ExtractIconExW",
                        "ShellExecuteExW",
                        "SHGetDesktopFolder",
                        "Shell_NotifyIconW",
                        "SHGetMalloc",
                        "DragFinish"
                    ],
                    "library_name": "SHELL32.dll"
                },
                {
                    "imported_functions": [
                        "CreateStreamOnHGlobal",
                        "OleUninitialize",
                        "CoUninitialize",
                        "CoInitialize",
                        "CoTaskMemAlloc",
                        "ProgIDFromCLSID",
                        "OleSetContainedObject",
                        "CoCreateInstance",
                        "CoInitializeSecurity",
                        "CLSIDFromProgID",
                        "IIDFromString",
                        "CreateBindCtx",
                        "OleSetMenuDescriptor",
                        "CoCreateInstanceEx",
                        "CoTaskMemFree",
                        "MkParseDisplayName",
                        "CLSIDFromString",
                        "StringFromGUID2",
                        "CoSetProxyBlanket",
                        "OleInitialize"
                    ],
                    "library_name": "ole32.dll"
                },
                {
                    "imported_functions": [
                        "CreateEnvironmentBlock",
                        "LoadUserProfileW",
                        "UnloadUserProfile",
                        "DestroyEnvironmentBlock"
                    ],
                    "library_name": "USERENV.dll"
                },
                {
                    "imported_functions": [
                        "VerQueryValueW",
                        "GetFileVersionInfoW",
                        "GetFileVersionInfoSizeW"
                    ],
                    "library_name": "VERSION.dll"
                },
                {
                    "imported_functions": [
                        "waveOutSetVolume",
                        "timeGetTime",
                        "mciSendStringW"
                    ],
                    "library_name": "WINMM.dll"
                },
                {
                    "imported_functions": [
                        "HttpQueryInfoW",
                        "FtpOpenFileW",
                        "InternetQueryDataAvailable",
                        "InternetQueryOptionW",
                        "InternetConnectW",
                        "FtpGetFileSize",
                        "InternetReadFile",
                        "InternetCloseHandle",
                        "InternetCrackUrlW",
                        "InternetSetOptionW",
                        "HttpSendRequestW",
                        "InternetOpenUrlW",
                        "InternetOpenW",
                        "HttpOpenRequestW"
                    ],
                    "library_name": "WININET.dll"
                },
                {
                    "imported_functions": [
                        "CreatePen",
                        "LineTo",
                        "EndPath",
                        "GetPixel",
                        "Rectangle",
                        "GetDeviceCaps",
                        "RoundRect",
                        "DeleteDC",
                        "SetBkMode",
                        "CreateFontW",
                        "SetPixel",
                        "CreateDCW",
                        "GetObjectW",
                        "AngleArc",
                        "SetTextColor",
                        "PolyDraw",
                        "GetTextFaceW",
                        "GetTextExtentPoint32W",
                        "MoveToEx",
                        "GetStockObject",
                        "SetViewportOrgEx",
                        "StrokePath",
                        "GetDIBits",
                        "CreateCompatibleDC",
                        "StrokeAndFillPath",
                        "StretchBlt",
                        "CloseFigure",
                        "SelectObject",
                        "CreateCompatibleBitmap",
                        "CreateSolidBrush",
                        "ExtCreatePen",
                        "SetBkColor",
                        "BeginPath",
                        "DeleteObject",
                        "Ellipse"
                    ],
                    "library_name": "GDI32.dll"
                },
                {
                    "imported_functions": [
                        "accept",
                        "ioctlsocket",
                        "WSAStartup",
                        "connect",
                        "htons",
                        "WSAGetLastError",
                        "gethostname",
                        "closesocket",
                        "inet_addr",
                        "send",
                        "ntohs",
                        "select",
                        "listen",
                        "__WSAFDIsSet",
                        "WSACleanup",
                        "gethostbyname",
                        "recv",
                        "setsockopt",
                        "socket",
                        "bind",
                        "recvfrom",
                        "sendto"
                    ],
                    "library_name": "WSOCK32.dll"
                },
                {
                    "imported_functions": [
                        "RegCreateKeyExW",
                        "RegCloseKey",
                        "CopySid",
                        "GetAce",
                        "AdjustTokenPrivileges",
                        "InitializeAcl",
                        "LookupPrivilegeValueW",
                        "RegDeleteKeyW",
                        "UnlockServiceDatabase",
                        "RegQueryValueExW",
                        "SetSecurityDescriptorDacl",
                        "CloseServiceHandle",
                        "GetAclInformation",
                        "OpenProcessToken",
                        "RegConnectRegistryW",
                        "RegOpenKeyExW",
                        "InitiateSystemShutdownExW",
                        "GetTokenInformation",
                        "DuplicateTokenEx",
                        "GetUserNameW",
                        "GetSecurityDescriptorDacl",
                        "RegDeleteValueW",
                        "LockServiceDatabase",
                        "RegEnumKeyExW",
                        "OpenThreadToken",
                        "GetLengthSid",
                        "CreateProcessAsUserW",
                        "RegEnumValueW",
                        "LogonUserW",
                        "RegSetValueExW",
                        "OpenSCManagerW",
                        "InitializeSecurityDescriptor",
                        "CreateProcessWithLogonW",
                        "AddAce"
                    ],
                    "library_name": "ADVAPI32.dll"
                },
                {
                    "imported_functions": [
                        "GetProcessMemoryInfo",
                        "EnumProcesses",
                        "EnumProcessModules",
                        "GetModuleBaseNameW"
                    ],
                    "library_name": "PSAPI.DLL"
                },
                {
                    "imported_functions": [
                        "ImageList_BeginDrag",
                        "ImageList_Destroy",
                        "ImageList_Create",
                        "ImageList_Remove",
                        "ImageList_DragEnter",
                        "ImageList_DragMove",
                        "ImageList_DragLeave",
                        "InitCommonControlsEx",
                        "ImageList_ReplaceIcon",
                        "ImageList_SetDragCursorImage",
                        "ImageList_EndDrag"
                    ],
                    "library_name": "COMCTL32.dll"
                },
                {
                    "imported_functions": [
                        "RedrawWindow",
                        "GetForegroundWindow",
                        "UnregisterHotKey",
                        "DrawTextW",
                        "SetWindowLongPtrW",
                        "SetUserObjectSecurity",
                        "DestroyMenu",
                        "PostQuitMessage",
                        "SetWindowPos",
                        "IsWindow",
                        "EndPaint",
                        "OpenWindowStationW",
                        "WindowFromPoint",
                        "CharUpperBuffW",
                        "VkKeyScanW",
                        "SetMenuItemInfoW",
                        "SetActiveWindow",
                        "DispatchMessageW",
                        "GetCursorPos",
                        "CharLowerBuffW",
                        "GetDlgCtrlID",
                        "GetMenu",
                        "GetClientRect",
                        "GetMenuItemInfoW",
                        "SetMenuDefaultItem",
                        "IsClipboardFormatAvailable",
                        "LoadImageW",
                        "CountClipboardFormats",
                        "GetKeyboardLayoutNameW",
                        "ClientToScreen",
                        "GetActiveWindow",
                        "RegisterHotKey",
                        "OpenClipboard",
                        "GetWindowTextW",
                        "LockWindowUpdate",
                        "GetWindowTextLengthW",
                        "CopyImage",
                        "PtInRect",
                        "GetParent",
                        "GetCursorInfo",
                        "AttachThreadInput",
                        "EnumWindows",
                        "GetMessageW",
                        "ShowWindow",
                        "GetCaretPos",
                        "DrawFrameControl",
                        "GetDesktopWindow",
                        "IsCharAlphaW",
                        "PeekMessageW",
                        "InsertMenuItemW",
                        "TranslateMessage",
                        "IsWindowEnabled",
                        "SetClipboardData",
                        "DestroyWindow",
                        "OpenDesktopW",
                        "IsZoomed",
                        "LoadStringW",
                        "DrawMenuBar",
                        "IsCharLowerW",
                        "IsIconic",
                        "TrackPopupMenuEx",
                        "DrawFocusRect",
                        "CreateMenu",
                        "IsDialogMessageW",
                        "FlashWindow",
                        "EnumThreadWindows",
                        "MonitorFromPoint",
                        "CopyRect",
                        "GetSysColorBrush",
                        "CreateWindowExW",
                        "GetWindowLongW",
                        "CharNextW",
                        "SetFocus",
                        "RegisterWindowMessageW",
                        "GetMonitorInfoW",
                        "CreateAcceleratorTableW",
                        "EmptyClipboard",
                        "BeginPaint",
                        "DefWindowProcW",
                        "keybd_event",
                        "KillTimer",
                        "MapVirtualKeyW",
                        "CheckMenuRadioItem",
                        "GetClipboardData",
                        "GetSystemMetrics",
                        "SetWindowLongW",
                        "GetWindowRect",
                        "InflateRect",
                        "SetCapture",
                        "ReleaseCapture",
                        "EnumChildWindows",
                        "SetProcessWindowStation",
                        "SendDlgItemMessageW",
                        "SetKeyboardState",
                        "InvalidateRect",
                        "CreatePopupMenu",
                        "GetSubMenu",
                        "SetWindowTextW",
                        "SetTimer",
                        "GetDlgItem",
                        "SystemParametersInfoW",
                        "SendInput",
                        "ScreenToClient",
                        "PostMessageW",
                        "CloseWindowStation",
                        "GetKeyboardState",
                        "GetMenuItemCount",
                        "GetClassLongPtrW",
                        "IsDlgButtonChecked",
                        "DestroyAcceleratorTable",
                        "CreateIconFromResourceEx",
                        "LoadCursorW",
                        "LoadIconW",
                        "FindWindowExW",
                        "GetMenuItemID",
                        "FillRect",
                        "SetForegroundWindow",
                        "GetProcessWindowStation",
                        "ExitWindowsEx",
                        "GetMenuStringW",
                        "GetAsyncKeyState",
                        "EnableWindow",
                        "ReleaseDC",
                        "SetLayeredWindowAttributes",
                        "EndDialog",
                        "FindWindowW",
                        "MessageBeep",
                        "GetWindowThreadProcessId",
                        "MessageBoxW",
                        "SendMessageW",
                        "RegisterClassExW",
                        "SetMenu",
                        "MoveWindow",
                        "DialogBoxParamW",
                        "MessageBoxA",
                        "IsMenu",
                        "GetWindowDC",
                        "AdjustWindowRectEx",
                        "mouse_event",
                        "SendMessageTimeoutW",
                        "GetSysColor",
                        "GetKeyState",
                        "DestroyIcon",
                        "IsWindowVisible",
                        "GetWindowLongPtrW",
                        "IsCharAlphaNumericW",
                        "GetDC",
                        "FrameRect",
                        "SetRect",
                        "DeleteMenu",
                        "MonitorFromRect",
                        "GetUserObjectSecurity",
                        "GetClassNameW",
                        "BlockInput",
                        "CloseDesktop",
                        "IsCharUpperW",
                        "GetFocus",
                        "wsprintfW",
                        "CloseClipboard",
                        "TranslateAcceleratorW",
                        "DefDlgProcW",
                        "SetCursor"
                    ],
                    "library_name": "USER32.dll"
                }
            ],
            "machine_type": 34404,
            "overlay": {
                "chi2": 636.5983276367188,
                "entropy": 7.9998908042907715,
                "filetype": "data",
                "md5": "2d0e65a3735608bb9152169b52ee0173",
                "offset": 773120,
                "size": 4139995
            },
            "resource_details": [
                {
                    "chi2": 35062.62890625,
                    "entropy": 3.2790002822875977,
                    "filetype": "data",
                    "lang": "ENGLISH UK",
                    "sha256": "ed1311f93c7c8c51e91a6890a92cc1f5d12c758e1e57c020c076108df1363470",
                    "type": "RT_VERSION"
                },
                {
                    "chi2": 6265.57470703125,
                    "entropy": 5.012455940246582,
                    "filetype": "ASCII text",
                    "lang": "ENGLISH US",
                    "sha256": "6fb2f428ceb740481a982bfa8d6718e01c1cac512f6848fcd78ddf56df9ec877",
                    "type": "RT_MANIFEST"
                }
            ],
            "resource_langs": {
                "ENGLISH UK": 1,
                "ENGLISH US": 1
            },
            "resource_types": {
                "RT_MANIFEST": 1,
                "RT_VERSION": 1
            },
            "sections": [
                {
                    "entropy": 6.49,
                    "md5": "a63945e80d41c34e73b77dbaab4139b5",
                    "name": ".text",
                    "raw_size": 596992,
                    "virtual_address": 4096,
                    "virtual_size": 596846
                },
                {
                    "entropy": 4.93,
                    "md5": "388786bd3e174eda1872a9b89be92fe8",
                    "name": ".rdata",
                    "raw_size": 88064,
                    "virtual_address": 602112,
                    "virtual_size": 87754
                },
                {
                    "entropy": 2.2,
                    "md5": "9a398c059ff7447da4cec6076ecc7212",
                    "name": ".data",
                    "raw_size": 30720,
                    "virtual_address": 692224,
                    "virtual_size": 118664
                },
                {
                    "entropy": 5.79,
                    "md5": "e908c912da428fc50afefb5def19f504",
                    "name": ".pdata",
                    "raw_size": 28672,
                    "virtual_address": 811008,
                    "virtual_size": 28380
                },
                {
                    "entropy": 5.55,
                    "md5": "e157f4d71eabe3dc3f777abfcef81fee",
                    "name": "text",
                    "raw_size": 7168,
                    "virtual_address": 839680,
                    "virtual_size": 6705
                },
                {
                    "entropy": 6.29,
                    "md5": "c6d6b09f6fef8a16bcdfe253b87ff215",
                    "name": "data",
                    "raw_size": 18944,
                    "virtual_address": 847872,
                    "virtual_size": 18752
                },
                {
                    "entropy": 4.0,
                    "md5": "2a699b0a86c21c62ab6e83ab4f3fcffe",
                    "name": ".rsrc",
                    "raw_size": 1536,
                    "virtual_address": 868352,
                    "virtual_size": 1192
                }
            ],
            "timestamp": 1327872765
        },
        "reputation": 0,
        "sha1": "624654fd1855bcbcfd0a46924d80a741b84b4ef1",
        "sha256": "00031d96866ff6513699bffaea407e714aa8cc3dd1c0ad4b9ff5f4f7739915f0",
        "signature_info": {
            "file version": "3, 3, 8, 1"
        },
        "size": 4913115,
        "ssdeep": "98304:iAqGwg/HEhUlTnB+JJHEhUZHEhUlTnB+J4:rXwEEhUl2EhUxEhUln",
        "tags": [
            "64bits",
            "peexe",
            "assembly",
            "overlay"
        ],
        "times_submitted": 1,
        "total_votes": {
            "harmless": 0,
            "malicious": 0
        },
        "trid": [
            {
                "file_type": "Win64 Executable (generic)",
                "probability": 82.0
            },
            {
                "file_type": "OS/2 Executable (generic)",
                "probability": 6.0
            },
            {
                "file_type": "Generic Win/DOS Executable",
                "probability": 5.9
            },
            {
                "file_type": "DOS Executable Generic",
                "probability": 5.9
            }
        ],
        "type_description": "Win32 EXE",
        "type_extension": "exe",
        "type_tag": "peexe",
        "unique_sources": 1,
        "vhash": "046076655d155355651220b02002300a36z1418043ze2za2030e039z"
    },
    "id": "00031d96866ff6513699bffaea407e714aa8cc3dd1c0ad4b9ff5f4f7739915f0",
    "links": {
        "self": "https://www.virustotal.com/api/v3/files/00031d96866ff6513699bffaea407e714aa8cc3dd1c0ad4b9ff5f4f7739915f0"
    },
    "type": "file"
}