{
    "attributes": {
        "authentihash": "3b66fd3e23845415fd690f457c2d4fb4657add1a0dab9949c3305f921ef04c0e",
        "creation_date": 1439593988,
        "first_submission_date": 1495875644,
        "last_analysis_date": 1495875644,
        "last_analysis_results": {
            "ALYac": {
                "category": "malicious",
                "engine_name": "ALYac",
                "engine_update": "20170527",
                "engine_version": "1.0.1.9",
                "method": "blacklist",
                "result": "Win32.Ramnit.N"
            },
            "AVG": {
                "category": "malicious",
                "engine_name": "AVG",
                "engine_update": "20170527",
                "engine_version": "16.0.0.4776",
                "method": "blacklist",
                "result": "Win32/Zbot.G"
            },
            "AVware": {
                "category": "malicious",
                "engine_name": "AVware",
                "engine_update": "20170527",
                "engine_version": "1.5.0.42",
                "method": "blacklist",
                "result": "Virus.Win32.Ramnit.b (v)"
            },
            "Ad-Aware": {
                "category": "malicious",
                "engine_name": "Ad-Aware",
                "engine_update": "20170527",
                "engine_version": "3.0.3.1010",
                "method": "blacklist",
                "result": "Win32.Ramnit.N"
            },
            "AegisLab": {
                "category": "malicious",
                "engine_name": "AegisLab",
                "engine_update": "20170527",
                "engine_version": "4.2",
                "method": "blacklist",
                "result": "W32.Nimnul.ljDV"
            },
            "AhnLab-V3": {
                "category": "malicious",
                "engine_name": "AhnLab-V3",
                "engine_update": "20170526",
                "engine_version": "3.9.0.17697",
                "method": "blacklist",
                "result": "Win32/Ramnit.N"
            },
            "Alibaba": {
                "category": "type-unsupported",
                "engine_name": "Alibaba",
                "engine_update": "20170527",
                "engine_version": "1.0",
                "method": "blacklist",
                "result": null
            },
            "Antiy-AVL": {
                "category": "malicious",
                "engine_name": "Antiy-AVL",
                "engine_update": "20170527",
                "engine_version": "1.0.0.1",
                "method": "blacklist",
                "result": "Virus/Win32.Nimnul.a"
            },
            "Arcabit": {
                "category": "malicious",
                "engine_name": "Arcabit",
                "engine_update": "20170527",
                "engine_version": "1.0.0.806",
                "method": "blacklist",
                "result": "Win32.Ramnit.N"
            },
            "Avast": {
                "category": "malicious",
                "engine_name": "Avast",
                "engine_update": "20170527",
                "engine_version": "8.0.1489.320",
                "method": "blacklist",
                "result": "Win32:RmnDrp"
            },
            "Avira": {
                "category": "malicious",
                "engine_name": "Avira",
                "engine_update": "20170526",
                "engine_version": "8.3.3.4",
                "method": "blacklist",
                "result": "W32/Ramnit.CE"
            },
            "Baidu": {
                "category": "malicious",
                "engine_name": "Baidu",
                "engine_update": "20170527",
                "engine_version": "1.0.0.2",
                "method": "blacklist",
                "result": "Win32.Virus.Nimnul.a"
            },
            "BitDefender": {
                "category": "malicious",
                "engine_name": "BitDefender",
                "engine_update": "20170527",
                "engine_version": "7.2",
                "method": "blacklist",
                "result": "Win32.Ramnit.N"
            },
            "Bkav": {
                "category": "malicious",
                "engine_name": "Bkav",
                "engine_update": "20170526",
                "engine_version": "1.3.0.8876",
                "method": "blacklist",
                "result": "W32.Tmgrtext.PE"
            },
            "CAT-QuickHeal": {
                "category": "malicious",
                "engine_name": "CAT-QuickHeal",
                "engine_update": "20170527",
                "engine_version": "14.00",
                "method": "blacklist",
                "result": "W32.Ramnit.A"
            },
            "CMC": {
                "category": "malicious",
                "engine_name": "CMC",
                "engine_update": "20170526",
                "engine_version": "1.1.0.977",
                "method": "blacklist",
                "result": "Virus.Win32.Ramit.1!O"
            },
            "ClamAV": {
                "category": "malicious",
                "engine_name": "ClamAV",
                "engine_update": "20170527",
                "engine_version": "0.99.2.0",
                "method": "blacklist",
                "result": "Win.Trojan.Ramnit-1849"
            },
            "Comodo": {
                "category": "malicious",
                "engine_name": "Comodo",
                "engine_update": "20170527",
                "engine_version": "27167",
                "method": "blacklist",
                "result": "Virus.Win32.Ramnit.K"
            },
            "CrowdStrike": {
                "category": "malicious",
                "engine_name": "CrowdStrike",
                "engine_update": "20170420",
                "engine_version": "1.0",
                "method": "blacklist",
                "result": "malicious_confidence_100% (D)"
            },
            "Cyren": {
                "category": "malicious",
                "engine_name": "Cyren",
                "engine_update": "20170527",
                "engine_version": "5.4.30.7",
                "method": "blacklist",
                "result": "W32/Ramnit.B!Generic"
            },
            "DrWeb": {
                "category": "malicious",
                "engine_name": "DrWeb",
                "engine_update": "20170527",
                "engine_version": "7.0.28.2020",
                "method": "blacklist",
                "result": "Win32.Rmnet.8"
            },
            "ESET-NOD32": {
                "category": "malicious",
                "engine_name": "ESET-NOD32",
                "engine_update": "20170527",
                "engine_version": "15483",
                "method": "blacklist",
                "result": "Win32/Ramnit.H"
            },
            "Emsisoft": {
                "category": "malicious",
                "engine_name": "Emsisoft",
                "engine_update": "20170527",
                "engine_version": "4.0.0.834",
                "method": "blacklist",
                "result": "Win32.Ramnit.N (B)"
            },
            "Endgame": {
                "category": "malicious",
                "engine_name": "Endgame",
                "engine_update": "20170515",
                "engine_version": "0.5.0",
                "method": "blacklist",
                "result": "malicious (high confidence)"
            },
            "F-Prot": {
                "category": "malicious",
                "engine_name": "F-Prot",
                "engine_update": "20170527",
                "engine_version": "4.7.1.166",
                "method": "blacklist",
                "result": "W32/Ramnit.B!Generic"
            },
            "F-Secure": {
                "category": "malicious",
                "engine_name": "F-Secure",
                "engine_update": "20170527",
                "engine_version": "11.0.19100.45",
                "method": "blacklist",
                "result": "Win32.Ramnit.N"
            },
            "Fortinet": {
                "category": "malicious",
                "engine_name": "Fortinet",
                "engine_update": "20170527",
                "engine_version": "5.4.233.0",
                "method": "blacklist",
                "result": "W32/Ramnit.A"
            },
            "GData": {
                "category": "malicious",
                "engine_name": "GData",
                "engine_update": "20170527",
                "engine_version": "A:25.12576B:25.9626",
                "method": "blacklist",
                "result": "Win32.Virus.Nimnul.A"
            },
            "Ikarus": {
                "category": "malicious",
                "engine_name": "Ikarus",
                "engine_update": "20170527",
                "engine_version": "0.1.5.2",
                "method": "blacklist",
                "result": "Virus.Win32.Nimnul"
            },
            "Invincea": {
                "category": "malicious",
                "engine_name": "Invincea",
                "engine_update": "20170519",
                "engine_version": "6.3.0.25390",
                "method": "blacklist",
                "result": "virus.win32.ramnit.j"
            },
            "Jiangmin": {
                "category": "malicious",
                "engine_name": "Jiangmin",
                "engine_update": "20170527",
                "engine_version": "16.0.100",
                "method": "blacklist",
                "result": "Win32/IRCNite.wi"
            },
            "K7AntiVirus": {
                "category": "malicious",
                "engine_name": "K7AntiVirus",
                "engine_update": "20170527",
                "engine_version": "10.14.23476",
                "method": "blacklist",
                "result": "Virus ( 002fe95d1 )"
            },
            "K7GW": {
                "category": "malicious",
                "engine_name": "K7GW",
                "engine_update": "20170527",
                "engine_version": "10.14.23477",
                "method": "blacklist",
                "result": "Virus ( 002fe95d1 )"
            },
            "Kaspersky": {
                "category": "malicious",
                "engine_name": "Kaspersky",
                "engine_update": "20170527",
                "engine_version": "15.0.1.13",
                "method": "blacklist",
                "result": "Virus.Win32.Nimnul.a"
            },
            "Kingsoft": {
                "category": "malicious",
                "engine_name": "Kingsoft",
                "engine_update": "20170527",
                "engine_version": "2013.8.14.323",
                "method": "blacklist",
                "result": "Win32.Ramnit.lx.30720"
            },
            "Malwarebytes": {
                "category": "undetected",
                "engine_name": "Malwarebytes",
                "engine_update": "20170527",
                "engine_version": "2.1.1.1115",
                "method": "blacklist",
                "result": null
            },
            "McAfee": {
                "category": "malicious",
                "engine_name": "McAfee",
                "engine_update": "20170527",
                "engine_version": "6.0.6.653",
                "method": "blacklist",
                "result": "W32/Ramnit.a"
            },
            "McAfee-GW-Edition": {
                "category": "malicious",
                "engine_name": "McAfee-GW-Edition",
                "engine_update": "20170526",
                "engine_version": "v2015",
                "method": "blacklist",
                "result": "BehavesLike.Win32.Ramnit.dc"
            },
            "MicroWorld-eScan": {
                "category": "malicious",
                "engine_name": "MicroWorld-eScan",
                "engine_update": "20170527",
                "engine_version": "12.0.250.0",
                "method": "blacklist",
                "result": "Win32.Ramnit.N"
            },
            "Microsoft": {
                "category": "malicious",
                "engine_name": "Microsoft",
                "engine_update": "20170527",
                "engine_version": "1.1.13804.0",
                "method": "blacklist",
                "result": "Virus:Win32/Ramnit.J"
            },
            "NANO-Antivirus": {
                "category": "malicious",
                "engine_name": "NANO-Antivirus",
                "engine_update": "20170527",
                "engine_version": "1.0.76.17180",
                "method": "blacklist",
                "result": "Virus.Win32.Nimnul.bmnup"
            },
            "Paloalto": {
                "category": "undetected",
                "engine_name": "Paloalto",
                "engine_update": "20170527",
                "engine_version": "1.0",
                "method": "blacklist",
                "result": null
            },
            "Panda": {
                "category": "malicious",
                "engine_name": "Panda",
                "engine_update": "20170527",
                "engine_version": "4.6.4.2",
                "method": "blacklist",
                "result": "W32/Nimnul.A"
            },
            "Qihoo-360": {
                "category": "malicious",
                "engine_name": "Qihoo-360",
                "engine_update": "20170527",
                "engine_version": "1.0.0.1120",
                "method": "blacklist",
                "result": "Virus.Win32.Ramnit.A"
            },
            "Rising": {
                "category": "malicious",
                "engine_name": "Rising",
                "engine_update": "20170527",
                "engine_version": "28.0.0.1",
                "method": "blacklist",
                "result": "Virus.Mgr!1.9AD0 (classic) "
            },
            "SUPERAntiSpyware": {
                "category": "undetected",
                "engine_name": "SUPERAntiSpyware",
                "engine_update": "20170527",
                "engine_version": "5.6.0.1032",
                "method": "blacklist",
                "result": null
            },
            "SentinelOne": {
                "category": "undetected",
                "engine_name": "SentinelOne",
                "engine_update": "20170516",
                "engine_version": "1.0.0.12",
                "method": "blacklist",
                "result": null
            },
            "Sophos": {
                "category": "malicious",
                "engine_name": "Sophos",
                "engine_update": "20170527",
                "engine_version": "4.98.0",
                "method": "blacklist",
                "result": "W32/Ramnit-A"
            },
            "Symantec": {
                "category": "malicious",
                "engine_name": "Symantec",
                "engine_update": "20170527",
                "engine_version": "1.3.1.0",
                "method": "blacklist",
                "result": "W32.Ramnit.B!inf"
            },
            "SymantecMobileInsight": {
                "category": "type-unsupported",
                "engine_name": "SymantecMobileInsight",
                "engine_update": "20170526",
                "engine_version": "1.0.0.35_220",
                "method": "blacklist",
                "result": null
            },
            "Tencent": {
                "category": "malicious",
                "engine_name": "Tencent",
                "engine_update": "20170527",
                "engine_version": "1.0.0.1",
                "method": "blacklist",
                "result": "Virus.Win32.Dropper.k"
            },
            "TheHacker": {
                "category": "undetected",
                "engine_name": "TheHacker",
                "engine_update": "20170525",
                "engine_version": "6.8.0.5.1561",
                "method": "blacklist",
                "result": null
            },
            "TotalDefense": {
                "category": "malicious",
                "engine_name": "TotalDefense",
                "engine_update": "20170527",
                "engine_version": "37.1.62.1",
                "method": "blacklist",
                "result": "Win32/Ramnit.C"
            },
            "TrendMicro": {
                "category": "malicious",
                "engine_name": "TrendMicro",
                "engine_update": "20170527",
                "engine_version": "9.740.0.1012",
                "method": "blacklist",
                "result": "PE_RAMNIT.DEN"
            },
            "TrendMicro-HouseCall": {
                "category": "malicious",
                "engine_name": "TrendMicro-HouseCall",
                "engine_update": "20170525",
                "engine_version": "9.900.0.1004",
                "method": "blacklist",
                "result": "PE_RAMNIT.DEN"
            },
            "VBA32": {
                "category": "malicious",
                "engine_name": "VBA32",
                "engine_update": "20170526",
                "engine_version": "3.12.26.4",
                "method": "blacklist",
                "result": "Virus.Win32.Nimnul.b"
            },
            "VIPRE": {
                "category": "malicious",
                "engine_name": "VIPRE",
                "engine_update": "20170527",
                "engine_version": "58386",
                "method": "blacklist",
                "result": "Virus.Win32.Ramnit.b (v)"
            },
            "ViRobot": {
                "category": "malicious",
                "engine_name": "ViRobot",
                "engine_update": "20170527",
                "engine_version": "2014.3.20.0",
                "method": "blacklist",
                "result": "Win32.Nimnul.A[h]"
            },
            "Webroot": {
                "category": "malicious",
                "engine_name": "Webroot",
                "engine_update": "20170527",
                "engine_version": "1.0.0.207",
                "method": "blacklist",
                "result": "W32.RamNit.Gen"
            },
            "WhiteArmor": {
                "category": "type-unsupported",
                "engine_name": "WhiteArmor",
                "engine_update": "20170524",
                "engine_version": "9101275",
                "method": "blacklist",
                "result": null
            },
            "Yandex": {
                "category": "malicious",
                "engine_name": "Yandex",
                "engine_update": "20170526",
                "engine_version": "5.5.1.3",
                "method": "blacklist",
                "result": "Win32.Ramnit.Gen.3"
            },
            "Zillya": {
                "category": "malicious",
                "engine_name": "Zillya",
                "engine_update": "20170526",
                "engine_version": "2.0.0.3291",
                "method": "blacklist",
                "result": "Virus.Nimnul.Win32.1"
            },
            "ZoneAlarm": {
                "category": "malicious",
                "engine_name": "ZoneAlarm",
                "engine_update": "20170527",
                "engine_version": "1.0",
                "method": "blacklist",
                "result": "Virus.Win32.Nimnul.a"
            },
            "Zoner": {
                "category": "malicious",
                "engine_name": "Zoner",
                "engine_update": "20170527",
                "engine_version": "1.0",
                "method": "blacklist",
                "result": "Win32.Ramnit.H"
            },
            "nProtect": {
                "category": "malicious",
                "engine_name": "nProtect",
                "engine_update": "20170527",
                "engine_version": "2017-05-27.02",
                "method": "blacklist",
                "result": "Virus/W32.Ramnit"
            }
        },
        "last_analysis_stats": {
            "confirmed-timeout": 0,
            "failure": 0,
            "harmless": 0,
            "malicious": 57,
            "suspicious": 0,
            "timeout": 0,
            "type-unsupported": 3,
            "undetected": 5
        },
        "last_modification_date": 1495875682,
        "last_submission_date": 1495875644,
        "magic": "PE32 executable for MS Windows (DLL) (console) Intel 80386 32-bit",
        "md5": "a7487b9c8f1f0615211c2956fc52981b",
        "meaningful_name": "i18npapermi.dll",
        "names": [
            "i18npapermi",
            "i18npapermi.dll"
        ],
        "pe_info": {
            "entry_point": 45056,
            "exports": [
                "??$?_3VOUString@rtl@@@uno@star@sun@com@@YAXAAVAny@0123@ABVOUString@rtl@@@Z",
                "??$cppu_detail_getUnoType@VXMultiServiceFactory@lang@star@sun@com@@@detail@cppu@@YAABVType@uno@star@sun@com@@PBV?$Reference@VXMultiServiceFactory@lang@star@sun@com@@@3456@@Z",
                "??$cppu_detail_getUnoType@VXNameAccess@container@star@sun@com@@@detail@cppu@@YAABVType@uno@star@sun@com@@PBV?$Reference@VXNameAccess@container@star@sun@com@@@3456@@Z",
                "??$getTypeFavourUnsigned@VAny@uno@star@sun@com@@@cppu@@YAABVType@uno@star@sun@com@@PBV?$Sequence@VAny@uno@star@sun@com@@@2345@@Z",
                "??$getTypeFavourUnsigned@VAny@uno@star@sun@com@@@cppu@@YAABVType@uno@star@sun@com@@PBVAny@2345@@Z",
                "??$getTypeFavourUnsigned@VOUString@rtl@@@cppu@@YAABVType@uno@star@sun@com@@PBVOUString@rtl@@@Z",
                "??0?$Reference@VXInterface@uno@star@sun@com@@@uno@star@sun@com@@QAE@ABV01234@@Z",
                "??0?$Reference@VXInterface@uno@star@sun@com@@@uno@star@sun@com@@QAE@PAVXInterface@1234@@Z",
                "??0?$Reference@VXMultiServiceFactory@lang@star@sun@com@@@uno@star@sun@com@@QAE@ABVBaseReference@1234@W4UnoReference_QueryThrow@1234@@Z",
                "??0?$Reference@VXNameAccess@container@star@sun@com@@@uno@star@sun@com@@QAE@ABVBaseReference@1234@W4UnoReference_QueryThrow@1234@@Z",
                "??0?$Sequence@VAny@uno@star@sun@com@@@uno@star@sun@com@@QAE@J@Z",
                "??0Exception@uno@star@sun@com@@QAE@ABV01234@@Z",
                "??0Exception@uno@star@sun@com@@QAE@ABVOUString@rtl@@ABV?$Reference@VXInterface@uno@star@sun@com@@@1234@@Z",
                "??0Locale@lang@star@sun@com@@QAE@XZ",
                "??0OString@rtl@@QAE@ABV01@@Z",
                "??0OString@rtl@@QAE@PBD@Z",
                "??0OString@rtl@@QAE@XZ",
                "??0OUString@rtl@@AAE@PAU_rtl_uString@@PAVDO_NOT_ACQUIRE@01@@Z",
                "??0OUString@rtl@@QAE@ABV01@@Z",
                "??0OUString@rtl@@QAE@PAU_rtl_uString@@W4__sal_NoAcquire@@@Z",
                "??0OUString@rtl@@QAE@XZ",
                "??0PaperInfo@@QAE@JJ@Z",
                "??0PaperInfo@@QAE@W4Paper@@@Z",
                "??0RuntimeException@uno@star@sun@com@@QAE@ABV01234@@Z",
                "??0RuntimeException@uno@star@sun@com@@QAE@ABVOUString@rtl@@ABV?$Reference@VXInterface@uno@star@sun@com@@@1234@@Z",
                "??0bad_alloc@std@@QAE@ABV01@@Z",
                "??0bad_alloc@std@@QAE@XZ",
                "??1?$Reference@VXInterface@uno@star@sun@com@@@uno@star@sun@com@@QAE@XZ",
                "??1?$Reference@VXMultiServiceFactory@lang@star@sun@com@@@uno@star@sun@com@@QAE@XZ",
                "??1?$Reference@VXNameAccess@container@star@sun@com@@@uno@star@sun@com@@QAE@XZ",
                "??1?$Sequence@VAny@uno@star@sun@com@@@uno@star@sun@com@@QAE@XZ",
                "??1Any@uno@star@sun@com@@QAE@XZ",
                "??1Exception@uno@star@sun@com@@QAE@XZ",
                "??1Locale@lang@star@sun@com@@QAE@XZ",
                "??1OString@rtl@@QAE@XZ",
                "??1OUString@rtl@@QAE@XZ",
                "??1RuntimeException@uno@star@sun@com@@QAE@XZ",
                "??1bad_alloc@std@@UAE@XZ",
                "??4MsLangId@@QAEAAV0@ABV0@@Z",
                "??4OUString@rtl@@QAEAAV01@ABV01@@Z",
                "??4PaperInfo@@QAEAAV0@ABV0@@Z",
                "??A?$Sequence@VAny@uno@star@sun@com@@@uno@star@sun@com@@QAAAAVAny@1234@J@Z",
                "??C?$Reference@VXMultiServiceFactory@lang@star@sun@com@@@uno@star@sun@com@@QBAPAVXMultiServiceFactory@lang@234@XZ",
                "??C?$Reference@VXNameAccess@container@star@sun@com@@@uno@star@sun@com@@QBAPAVXNameAccess@container@234@XZ",
                "??_2uno@star@sun@com@@YAEABVAny@0123@AAVOUString@rtl@@@Z",
                "??_7bad_alloc@std@@6B@",
                "??_C@_0CD@PODAOHBM@com?4sun?4star?4container?4XNameAcce@",
                "??_C@_0CH@CJPJMNHE@com?4sun?4star?4lang?4XMultiServiceF@",
                "??_Gbad_alloc@std@@UAEPAXI@Z",
                "??_R0?AVException@uno@star@sun@com@@@8",
                "??_R0?AVRuntimeException@uno@star@sun@com@@@8",
                "??_R0?AVbad_alloc@std@@@8",
                "??_R0?AVexception@std@@@8",
                "??_R1A@?0A@EA@bad_alloc@std@@8",
                "??_R1A@?0A@EA@exception@std@@8",
                "??_R2bad_alloc@std@@8",
                "??_R2exception@std@@8",
                "??_R3bad_alloc@std@@8",
                "??_R3exception@std@@8",
                "??_R4bad_alloc@std@@6B@",
                "?castFromXInterface@?$Reference@VXMultiServiceFactory@lang@star@sun@com@@@uno@star@sun@com@@CAPAVXMultiServiceFactory@lang@345@PAVXInterface@2345@@Z",
                "?castFromXInterface@?$Reference@VXNameAccess@container@star@sun@com@@@uno@star@sun@com@@CAPAVXNameAccess@container@345@PAVXInterface@2345@@Z",
                "?castToXInterface@?$Reference@VXInterface@uno@star@sun@com@@@uno@star@sun@com@@CAPAVXInterface@2345@PAV62345@@Z",
                "?castToXInterface@?$Reference@VXNameAccess@container@star@sun@com@@@uno@star@sun@com@@CAPAVXInterface@2345@PAVXNameAccess@container@345@@Z",
                "?compareToAscii@OUString@rtl@@QBEJPBD@Z",
                "?copy@OUString@rtl@@QBE?AV12@J@Z",
                "?copy@OUString@rtl@@QBE?AV12@JJ@Z",
                "?cpp_acquire@uno@star@sun@com@@YAXPAX@Z",
                "?cpp_release@uno@star@sun@com@@YAXPAX@Z",
                "?cppu_detail_getUnoType@container@star@sun@com@@YAABVType@uno@234@PBVXNameAccess@1234@@Z",
                "?cppu_detail_getUnoType@detail@cppu@@YAABVType@uno@star@sun@com@@PBVAny@4567@@Z",
                "?cppu_detail_getUnoType@detail@cppu@@YAABVType@uno@star@sun@com@@PBVOUString@rtl@@@Z",
                "?cppu_detail_getUnoType@lang@star@sun@com@@YAABVType@uno@234@PBVXMultiServiceFactory@1234@@Z",
                "?doSloppyFit@PaperInfo@@QAE_NXZ",
                "?fromPSName@PaperInfo@@SA?AW4Paper@@ABVOString@rtl@@@Z",
                "?get@?$UnoType@V?$Reference@VXMultiServiceFactory@lang@star@sun@com@@@uno@star@sun@com@@@cppu@@SAABVType@uno@star@sun@com@@XZ",
                "?get@?$UnoType@V?$Reference@VXNameAccess@container@star@sun@com@@@uno@star@sun@com@@@cppu@@SAABVType@uno@star@sun@com@@XZ",
                "?get@?$UnoType@VAny@uno@star@sun@com@@@cppu@@SAABVType@uno@star@sun@com@@XZ",
                "?get@?$UnoType@VOUString@rtl@@@cppu@@SAABVType@uno@star@sun@com@@XZ",
                "?get@?$UnoType@VXMultiServiceFactory@lang@star@sun@com@@@cppu@@SAABVType@uno@star@sun@com@@XZ",
                "?get@?$UnoType@VXNameAccess@container@star@sun@com@@@cppu@@SAABVType@uno@star@sun@com@@XZ",
                "?get@BaseReference@uno@star@sun@com@@QBAPAVXInterface@2345@XZ",
                "?getArray@?$Sequence@VAny@uno@star@sun@com@@@uno@star@sun@com@@QAAPAVAny@2345@XZ",
                "?getCppuType@@YAABVType@uno@star@sun@com@@PBV?$Reference@VXMultiServiceFactory@lang@star@sun@com@@@2345@@Z",
                "?getCppuType@@YAABVType@uno@star@sun@com@@PBV?$Reference@VXNameAccess@container@star@sun@com@@@2345@@Z",
                "?getDefaultPaperForLocale@PaperInfo@@SA?AV1@ABULocale@lang@star@sun@com@@@Z",
                "?getHeight@PaperInfo@@QBEJXZ",
                "?getLength@OString@rtl@@QBEJXZ",
                "?getLength@OUString@rtl@@QBEJXZ",
                "?getPaper@PaperInfo@@QBE?AW4Paper@@XZ",
                "?getPrimaryLanguage@MsLangId@@SAGG@Z",
                "?getStr@OString@rtl@@QBEPBDXZ",
                "?getSubLanguage@MsLangId@@SAGG@Z",
                "?getSystemDefaultPaper@PaperInfo@@SA?AV1@XZ",
                "?getSystemLanguage@MsLangId@@SAGXZ",
                "?getSystemUILanguage@MsLangId@@SAGXZ",
                "?getTypeFromTypeClass@detail@cppu@@YAABVType@uno@star@sun@com@@W4_typelib_TypeClass@@@Z",
                "?getTypeFromTypeDescriptionReference@detail@cppu@@YAABVType@uno@star@sun@com@@PBQAU_typelib_TypeDescriptionReference@@@Z",
                "?getTypeLibType@Type@uno@star@sun@com@@QBAPAU_typelib_TypeDescriptionReference@@XZ",
                "?getWidth@PaperInfo@@QBEJXZ",
                "?indexOf@OUString@rtl@@QBEJGJ@Z",
                "?intern@OUString@rtl@@SA?AV12@PBDJGKPAK@Z",
                "?iquery@BaseReference@uno@star@sun@com@@KAPAVXInterface@2345@PAV62345@ABVType@2345@@Z",
                "?iquery_throw@?$Reference@VXMultiServiceFactory@lang@star@sun@com@@@uno@star@sun@com@@CAPAVXInterface@2345@PAV62345@@Z",
                "?iquery_throw@?$Reference@VXNameAccess@container@star@sun@com@@@uno@star@sun@com@@CAPAVXInterface@2345@PAV62345@@Z",
                "?iquery_throw@BaseReference@uno@star@sun@com@@KAPAVXInterface@2345@PAV62345@ABVType@2345@@Z",
                "?makeLangID@MsLangId@@SAGGG@Z",
                "?s_pType@?$Sequence@VAny@uno@star@sun@com@@@uno@star@sun@com@@2PAU_typelib_TypeDescriptionReference@@A",
                "?set@?$Reference@VXNameAccess@container@star@sun@com@@@uno@star@sun@com@@QAAEPAVXNameAccess@container@345@W4__sal_NoAcquire@@@Z",
                "?set@?$Reference@VXNameAccess@container@star@sun@com@@@uno@star@sun@com@@QAAXABVBaseReference@2345@W4UnoReference_QueryThrow@2345@@Z",
                "?sloppyEqual@PaperInfo@@QBE_NABV1@@Z",
                "?sloppyFitPageDimension@PaperInfo@@SAJJ@Z",
                "?static_type@XMultiServiceFactory@lang@star@sun@com@@SAABVType@uno@345@PAX@Z",
                "?static_type@XNameAccess@container@star@sun@com@@SAABVType@uno@345@PAX@Z",
                "?the_type@?1??cppu_detail_getUnoType@container@star@sun@com@@YAABVType@uno@345@PBVXNameAccess@2345@@Z@4PAU_typelib_TypeDescriptionReference@@A",
                "?the_type@?1??cppu_detail_getUnoType@lang@star@sun@com@@YAABVType@uno@345@PBVXMultiServiceFactory@2345@@Z@4PAU_typelib_TypeDescriptionReference@@A",
                "?toPSName@PaperInfo@@SA?AVOString@rtl@@W4Paper@@@Z",
                "GetVersionInfo",
                "_TI2?AVRuntimeException@uno@star@sun@com@@",
                "_TI2?AVbad_alloc@std@@"
            ],
            "imphash": "bd0354ffb8dece819170fbe733db7248",
            "import_list": [
                {
                    "imported_functions": [
                        "GetCurrentProcess",
                        "TerminateProcess",
                        "SetUnhandledExceptionFilter",
                        "GetCurrentProcessId",
                        "InterlockedExchange",
                        "QueryPerformanceCounter",
                        "UnhandledExceptionFilter",
                        "IsDebuggerPresent",
                        "GetTickCount",
                        "DisableThreadLibraryCalls",
                        "GetSystemTimeAsFileTime",
                        "Sleep",
                        "GetCurrentThreadId",
                        "InterlockedCompareExchange"
                    ],
                    "library_name": "KERNEL32.dll"
                },
                {
                    "imported_functions": [
                        "uno_any_destruct",
                        "typelib_static_type_init",
                        "cppu_unsatisfied_iquery_msg",
                        "uno_type_any_assign",
                        "uno_type_sequence_reference2One",
                        "typelib_static_type_getByTypeClass",
                        "uno_type_sequence_construct",
                        "typelib_static_sequence_type_init",
                        "uno_type_destructData"
                    ],
                    "library_name": "cppu3.dll"
                },
                {
                    "imported_functions": [
                        "rtl_ustr_ascii_compare_WithLength",
                        "rtl_string_acquire",
                        "rtl_string_new",
                        "rtl_string_release",
                        "rtl_uString_acquire",
                        "rtl_uString_newFromStr_WithLength",
                        "rtl_uString_new",
                        "rtl_str_compareIgnoreAsciiCase",
                        "rtl_uString_internConvert",
                        "rtl_ustr_indexOfChar_WithLength",
                        "rtl_uString_release",
                        "rtl_uString_assign",
                        "rtl_string_newFromStr"
                    ],
                    "library_name": "sal3.dll"
                },
                {
                    "imported_functions": [
                        "?getProcessServiceFactory@comphelper@@YA?AV?$Reference@VXMultiServiceFactory@lang@star@sun@com@@@uno@star@sun@com@@XZ"
                    ],
                    "library_name": "comphelp4MSC.dll"
                },
                {
                    "imported_functions": [
                        "?getPlatformSystemLanguage@MsLangId@@CAGXZ",
                        "?getPlatformSystemUILanguage@MsLangId@@CAGXZ"
                    ],
                    "library_name": "i18nisolang1MSC.dll"
                },
                {
                    "imported_functions": [
                        "_malloc_crt",
                        "?what@exception@std@@UBEPBDXZ",
                        "??0exception@std@@QAE@ABQBDH@Z",
                        "__dllonexit",
                        "__clean_type_info_names_internal",
                        "_amsg_exit",
                        "?terminate@@YAXXZ",
                        "?_type_info_dtor_internal_method@type_info@@QAEXXZ",
                        "_lock",
                        "_onexit",
                        "_encode_pointer",
                        "_initterm_e",
                        "_adjust_fdiv",
                        "_CxxThrowException",
                        "_unlock",
                        "_crt_debugger_hook",
                        "??3@YAXPAX@Z",
                        "free",
                        "__CxxFrameHandler3",
                        "_except_handler4_common",
                        "??0exception@std@@QAE@ABV01@@Z",
                        "??1exception@std@@UAE@XZ",
                        "_decode_pointer",
                        "_encoded_null",
                        "__CppXcptFilter",
                        "_initterm"
                    ],
                    "library_name": "MSVCR90.dll"
                }
            ],
            "machine_type": 332,
            "overlay": {
                "entropy": 7.327990529182523,
                "filetype": "data",
                "md5": "2be3ba0636dddff2ba52287649f8b5b6",
                "offset": 270848,
                "size": 353
            },
            "resource_details": [
                {
                    "filetype": "ASCII text",
                    "lang": "ENGLISH US",
                    "sha256": "628a5e9816a06413e63e030f3b3e22bb01fa5cd1145cd75de8eaa8b19946a46f",
                    "type": "RT_RCDATA"
                },
                {
                    "filetype": "data",
                    "lang": "ENGLISH US",
                    "sha256": "3260b89708688813768da6649808888eb17cd5f580fedf83bb29bb10a70523b5",
                    "type": "RT_RCDATA"
                },
                {
                    "filetype": "data",
                    "lang": "ENGLISH US",
                    "sha256": "8ef3d1a6a1d2971e6f07866b4ba27fb15a1a5e1ffc29ccd597c7903ebc9e318b",
                    "type": "RT_VERSION"
                },
                {
                    "filetype": "ASCII text",
                    "lang": "ENGLISH US",
                    "sha256": "9f2fc067639866642bb1a73fb43006d233e569d25566b16dedec472fe5d3c5c3",
                    "type": "RT_MANIFEST"
                }
            ],
            "resource_langs": {
                "ENGLISH US": 4
            },
            "resource_types": {
                "RT_MANIFEST": 1,
                "RT_RCDATA": 2,
                "RT_VERSION": 1
            },
            "sections": [
                {
                    "entropy": 6.03,
                    "md5": "63055a9df5e30d13877c94196f800d4b",
                    "name": ".text",
                    "raw_size": 8704,
                    "virtual_address": 4096,
                    "virtual_size": 8200
                },
                {
                    "entropy": 5.32,
                    "md5": "a9e6ebf274e06713fde183e673c1c1b8",
                    "name": ".rdata",
                    "raw_size": 14848,
                    "virtual_address": 16384,
                    "virtual_size": 14632
                },
                {
                    "entropy": 4.23,
                    "md5": "6a096fc46763d2368938b8bdde79deff",
                    "name": ".data",
                    "raw_size": 1536,
                    "virtual_address": 32768,
                    "virtual_size": 2372
                },
                {
                    "entropy": 4.9,
                    "md5": "584752de5e4502b18cdfd816f45864f5",
                    "name": ".rsrc",
                    "raw_size": 2048,
                    "virtual_address": 36864,
                    "virtual_size": 1544
                },
                {
                    "entropy": 5.22,
                    "md5": "276a02847ab875baf22aad4c76e73b86",
                    "name": ".reloc",
                    "raw_size": 1536,
                    "virtual_address": 40960,
                    "virtual_size": 1126
                },
                {
                    "entropy": 7.81,
                    "md5": "bf33850214907848d0cc2eb9af470441",
                    "name": ".text",
                    "raw_size": 241152,
                    "virtual_address": 45056,
                    "virtual_size": 241664
                }
            ],
            "timestamp": 1439593988
        },
        "reputation": 0,
        "sha1": "198fac84d1b70fde0b302f135451221f0ab17e4e",
        "sha256": "0003c32908a1ada5a0b4e7ea927e25e03142fd372181c01c2ff7635b7b26012d",
        "signature_info": {
            "copyright": "Copyright \u00a9 2010 by Sun Microsystems, Inc.",
            "file version": "3.02.9472",
            "internal name": "i18npapermi",
            "original name": "i18npapermi.dll"
        },
        "size": 271201,
        "ssdeep": "6144:RuOtyS82UDjeX/3naVBf54meHVIPtf/T0P3OgtZCFzz7JV:WDjAqVBBNP9A9ZCFz/D",
        "tags": [
            "pedll",
            "overlay"
        ],
        "times_submitted": 1,
        "total_votes": {
            "harmless": 0,
            "malicious": 0
        },
        "trid": [
            {
                "file_type": "Win32 Executable MS Visual C++ (generic)",
                "probability": 42.2
            },
            {
                "file_type": "Win64 Executable (generic)",
                "probability": 37.3
            },
            {
                "file_type": "Win32 Dynamic Link Library (generic)",
                "probability": 8.8
            },
            {
                "file_type": "Win32 Executable (generic)",
                "probability": 6.0
            },
            {
                "file_type": "Generic Win/DOS Executable",
                "probability": 2.7
            }
        ],
        "type_description": "Win32 DLL",
        "type_extension": "dll",
        "type_tag": "pedll",
        "unique_sources": 1,
        "vhash": "125066655d15555e7bze#z1a078"
    },
    "id": "0003c32908a1ada5a0b4e7ea927e25e03142fd372181c01c2ff7635b7b26012d",
    "links": {
        "self": "https://www.virustotal.com/api/v3/files/0003c32908a1ada5a0b4e7ea927e25e03142fd372181c01c2ff7635b7b26012d"
    },
    "type": "file"
}