{
    "attributes": {
        "authentihash": "bd21d265a5a55c929e0a4a9cc4496eb4f8c5406d4a781030ef216768d7fd9dfd",
        "creation_date": 1379918555,
        "first_submission_date": 1513194987,
        "last_analysis_date": 1513194987,
        "last_analysis_results": {
            "ALYac": {
                "category": "malicious",
                "engine_name": "ALYac",
                "engine_update": "20171213",
                "engine_version": "1.1.1.2",
                "method": "blacklist",
                "result": "Trojan.GenericKD.1286104"
            },
            "AVG": {
                "category": "malicious",
                "engine_name": "AVG",
                "engine_update": "20171213",
                "engine_version": "17.8.3705.0",
                "method": "blacklist",
                "result": "Win32:Trojan-gen"
            },
            "AVware": {
                "category": "malicious",
                "engine_name": "AVware",
                "engine_update": "20171213",
                "engine_version": "1.5.0.42",
                "method": "blacklist",
                "result": "Trojan.Win32.Cutwail.c (v)"
            },
            "Ad-Aware": {
                "category": "malicious",
                "engine_name": "Ad-Aware",
                "engine_update": "20171213",
                "engine_version": "3.0.3.1010",
                "method": "blacklist",
                "result": "Trojan.GenericKD.1286104"
            },
            "AegisLab": {
                "category": "malicious",
                "engine_name": "AegisLab",
                "engine_update": "20171213",
                "engine_version": "4.2",
                "method": "blacklist",
                "result": "Troj.W32.Gen.lKQM"
            },
            "AhnLab-V3": {
                "category": "malicious",
                "engine_name": "AhnLab-V3",
                "engine_update": "20171213",
                "engine_version": "3.11.3.19447",
                "method": "blacklist",
                "result": "Worm/Win32.Palevo.C199836"
            },
            "Alibaba": {
                "category": "type-unsupported",
                "engine_name": "Alibaba",
                "engine_update": "20171213",
                "engine_version": "1.0",
                "method": "blacklist",
                "result": null
            },
            "Antiy-AVL": {
                "category": "malicious",
                "engine_name": "Antiy-AVL",
                "engine_update": "20171213",
                "engine_version": "3.0.0.1",
                "method": "blacklist",
                "result": "Trojan[Dropper]/Win32.Dinwod"
            },
            "Arcabit": {
                "category": "malicious",
                "engine_name": "Arcabit",
                "engine_update": "20171213",
                "engine_version": "1.0.0.827",
                "method": "blacklist",
                "result": "Trojan.Generic.D139FD8"
            },
            "Avast": {
                "category": "malicious",
                "engine_name": "Avast",
                "engine_update": "20171213",
                "engine_version": "17.8.3705.0",
                "method": "blacklist",
                "result": "Win32:Trojan-gen"
            },
            "Avast-Mobile": {
                "category": "undetected",
                "engine_name": "Avast-Mobile",
                "engine_update": "20171212",
                "engine_version": "171212-00",
                "method": "blacklist",
                "result": null
            },
            "Avira": {
                "category": "malicious",
                "engine_name": "Avira",
                "engine_update": "20171213",
                "engine_version": "8.3.3.6",
                "method": "blacklist",
                "result": "TR/Crypt.Xpack.oagti"
            },
            "Baidu": {
                "category": "malicious",
                "engine_name": "Baidu",
                "engine_update": "20171212",
                "engine_version": "1.0.0.2",
                "method": "blacklist",
                "result": "Win32.Trojan-Downloader.Waski.a"
            },
            "BitDefender": {
                "category": "malicious",
                "engine_name": "BitDefender",
                "engine_update": "20171213",
                "engine_version": "7.2",
                "method": "blacklist",
                "result": "Trojan.GenericKD.1286104"
            },
            "Bkav": {
                "category": "malicious",
                "engine_name": "Bkav",
                "engine_update": "20171213",
                "engine_version": "1.3.0.9410",
                "method": "blacklist",
                "result": "W32.FakelsasLTD1.Trojan"
            },
            "CAT-QuickHeal": {
                "category": "malicious",
                "engine_name": "CAT-QuickHeal",
                "engine_update": "20171212",
                "engine_version": "14.00",
                "method": "blacklist",
                "result": "Downldr.Upatre.S442725"
            },
            "CMC": {
                "category": "malicious",
                "engine_name": "CMC",
                "engine_update": "20171213",
                "engine_version": "1.1.0.977",
                "method": "blacklist",
                "result": "Trojan.Win32.Small!O"
            },
            "ClamAV": {
                "category": "malicious",
                "engine_name": "ClamAV",
                "engine_update": "20171213",
                "engine_version": "0.99.2.0",
                "method": "blacklist",
                "result": "Win.Trojan.Agent-1388676"
            },
            "Comodo": {
                "category": "undetected",
                "engine_name": "Comodo",
                "engine_update": "20171213",
                "engine_version": null,
                "method": "blacklist",
                "result": null
            },
            "CrowdStrike": {
                "category": "malicious",
                "engine_name": "CrowdStrike",
                "engine_update": "20171016",
                "engine_version": "1.0",
                "method": "blacklist",
                "result": "malicious_confidence_100% (D)"
            },
            "Cybereason": {
                "category": "malicious",
                "engine_name": "Cybereason",
                "engine_update": "20171103",
                "engine_version": "0.0.914",
                "method": "blacklist",
                "result": "malicious.1b8fb7"
            },
            "Cylance": {
                "category": "malicious",
                "engine_name": "Cylance",
                "engine_update": "20171213",
                "engine_version": "2.3.1.101",
                "method": "blacklist",
                "result": "Unsafe"
            },
            "Cyren": {
                "category": "malicious",
                "engine_name": "Cyren",
                "engine_update": "20171213",
                "engine_version": "5.4.30.7",
                "method": "blacklist",
                "result": "W32/Trojan.TBSZ-0334"
            },
            "DrWeb": {
                "category": "malicious",
                "engine_name": "DrWeb",
                "engine_update": "20171213",
                "engine_version": "7.0.28.2020",
                "method": "blacklist",
                "result": "Trojan.DownLoad3.28161"
            },
            "ESET-NOD32": {
                "category": "malicious",
                "engine_name": "ESET-NOD32",
                "engine_update": "20171213",
                "engine_version": "16567",
                "method": "blacklist",
                "result": "Win32/TrojanDownloader.Small.AAB"
            },
            "Emsisoft": {
                "category": "malicious",
                "engine_name": "Emsisoft",
                "engine_update": "20171213",
                "engine_version": "4.0.2.899",
                "method": "blacklist",
                "result": "Trojan.GenericKD.1286104 (B)"
            },
            "Endgame": {
                "category": "malicious",
                "engine_name": "Endgame",
                "engine_update": "20171130",
                "engine_version": "1.1.4",
                "method": "blacklist",
                "result": "malicious (high confidence)"
            },
            "F-Prot": {
                "category": "malicious",
                "engine_name": "F-Prot",
                "engine_update": "20171213",
                "engine_version": "4.7.1.166",
                "method": "blacklist",
                "result": "W32/Trojan3.GBH"
            },
            "F-Secure": {
                "category": "malicious",
                "engine_name": "F-Secure",
                "engine_update": "20171213",
                "engine_version": "11.0.19100.45",
                "method": "blacklist",
                "result": "Trojan.GenericKD.1286104"
            },
            "Fortinet": {
                "category": "malicious",
                "engine_name": "Fortinet",
                "engine_update": "20171213",
                "engine_version": "5.4.247.0",
                "method": "blacklist",
                "result": "W32/Generic.AC.3675A9!tr"
            },
            "GData": {
                "category": "malicious",
                "engine_name": "GData",
                "engine_update": "20171213",
                "engine_version": "A:25.15162B:25.11108",
                "method": "blacklist",
                "result": "Trojan.GenericKD.1286104"
            },
            "Ikarus": {
                "category": "malicious",
                "engine_name": "Ikarus",
                "engine_update": "20171213",
                "engine_version": "0.1.5.2",
                "method": "blacklist",
                "result": "Backdoor.Win32.Androm"
            },
            "Invincea": {
                "category": "malicious",
                "engine_name": "Invincea",
                "engine_update": "20170914",
                "engine_version": "6.3.1.25473",
                "method": "blacklist",
                "result": "heuristic"
            },
            "Jiangmin": {
                "category": "malicious",
                "engine_name": "Jiangmin",
                "engine_update": "20171211",
                "engine_version": "16.0.100",
                "method": "blacklist",
                "result": "Trojan/Small.oxi"
            },
            "K7AntiVirus": {
                "category": "malicious",
                "engine_name": "K7AntiVirus",
                "engine_update": "20171213",
                "engine_version": "10.35.25555",
                "method": "blacklist",
                "result": "Trojan-Downloader ( 00457c511 )"
            },
            "K7GW": {
                "category": "malicious",
                "engine_name": "K7GW",
                "engine_update": "20171213",
                "engine_version": "10.35.25556",
                "method": "blacklist",
                "result": "Trojan-Downloader ( 00457c511 )"
            },
            "Kaspersky": {
                "category": "malicious",
                "engine_name": "Kaspersky",
                "engine_update": "20171213",
                "engine_version": "15.0.1.13",
                "method": "blacklist",
                "result": "Trojan.Win32.Small.cpl"
            },
            "Kingsoft": {
                "category": "undetected",
                "engine_name": "Kingsoft",
                "engine_update": "20171213",
                "engine_version": "2013.8.14.323",
                "method": "blacklist",
                "result": null
            },
            "MAX": {
                "category": "malicious",
                "engine_name": "MAX",
                "engine_update": "20171213",
                "engine_version": "2017.11.15.1",
                "method": "blacklist",
                "result": "malware (ai score=88)"
            },
            "Malwarebytes": {
                "category": "malicious",
                "engine_name": "Malwarebytes",
                "engine_update": "20171213",
                "engine_version": "2.1.1.1115",
                "method": "blacklist",
                "result": "Trojan.Email.FA"
            },
            "McAfee": {
                "category": "malicious",
                "engine_name": "McAfee",
                "engine_update": "20171213",
                "engine_version": "6.0.6.653",
                "method": "blacklist",
                "result": "PWSZbot-FFA!6ECD6E193B39"
            },
            "McAfee-GW-Edition": {
                "category": "malicious",
                "engine_name": "McAfee-GW-Edition",
                "engine_update": "20171213",
                "engine_version": "v2015",
                "method": "blacklist",
                "result": "BehavesLike.Win32.PWSZbot.bc"
            },
            "MicroWorld-eScan": {
                "category": "malicious",
                "engine_name": "MicroWorld-eScan",
                "engine_update": "20171213",
                "engine_version": "14.0.297.0",
                "method": "blacklist",
                "result": "Trojan.GenericKD.1286104"
            },
            "Microsoft": {
                "category": "malicious",
                "engine_name": "Microsoft",
                "engine_update": "20171213",
                "engine_version": "1.1.14405.2",
                "method": "blacklist",
                "result": "TrojanDownloader:Win32/Upatre"
            },
            "NANO-Antivirus": {
                "category": "malicious",
                "engine_name": "NANO-Antivirus",
                "engine_update": "20171213",
                "engine_version": "1.0.100.20558",
                "method": "blacklist",
                "result": "Trojan.Win32.Small.ciwsuw"
            },
            "Paloalto": {
                "category": "undetected",
                "engine_name": "Paloalto",
                "engine_update": "20171213",
                "engine_version": "1.0",
                "method": "blacklist",
                "result": null
            },
            "Panda": {
                "category": "malicious",
                "engine_name": "Panda",
                "engine_update": "20171213",
                "engine_version": "4.6.4.2",
                "method": "blacklist",
                "result": "Generic Suspicious"
            },
            "Qihoo-360": {
                "category": "malicious",
                "engine_name": "Qihoo-360",
                "engine_update": "20171213",
                "engine_version": "1.0.0.1120",
                "method": "blacklist",
                "result": "HEUR/QVM20.1.D241.Malware.Gen"
            },
            "Rising": {
                "category": "malicious",
                "engine_name": "Rising",
                "engine_update": "20171213",
                "engine_version": "25.0.0.1",
                "method": "blacklist",
                "result": "Trojan.Waski!1.A489 (CLASSIC)"
            },
            "SUPERAntiSpyware": {
                "category": "malicious",
                "engine_name": "SUPERAntiSpyware",
                "engine_update": "20171213",
                "engine_version": "5.6.0.1032",
                "method": "blacklist",
                "result": "Trojan.Agent/Gen-Downloader"
            },
            "SentinelOne": {
                "category": "malicious",
                "engine_name": "SentinelOne",
                "engine_update": "20171207",
                "engine_version": "1.0.10.199",
                "method": "blacklist",
                "result": "static engine - malicious"
            },
            "Sophos": {
                "category": "malicious",
                "engine_name": "Sophos",
                "engine_update": "20171213",
                "engine_version": "4.98.0",
                "method": "blacklist",
                "result": "Troj/Zbot-GJC"
            },
            "Symantec": {
                "category": "malicious",
                "engine_name": "Symantec",
                "engine_update": "20171213",
                "engine_version": "1.5.0.0",
                "method": "blacklist",
                "result": "Downloader"
            },
            "SymantecMobileInsight": {
                "category": "type-unsupported",
                "engine_name": "SymantecMobileInsight",
                "engine_update": "20171213",
                "engine_version": "1.0.0.35_220",
                "method": "blacklist",
                "result": null
            },
            "Tencent": {
                "category": "undetected",
                "engine_name": "Tencent",
                "engine_update": "20171213",
                "engine_version": "1.0.0.1",
                "method": "blacklist",
                "result": null
            },
            "TheHacker": {
                "category": "malicious",
                "engine_name": "TheHacker",
                "engine_update": "20171210",
                "engine_version": "6.8.0.5.2206",
                "method": "blacklist",
                "result": "Trojan/Downloader.Small.aab"
            },
            "TotalDefense": {
                "category": "malicious",
                "engine_name": "TotalDefense",
                "engine_update": "20171213",
                "engine_version": "37.1.62.1",
                "method": "blacklist",
                "result": "Win32/Upatre.Q"
            },
            "TrendMicro": {
                "category": "malicious",
                "engine_name": "TrendMicro",
                "engine_update": "20171213",
                "engine_version": "9.862.0.1074",
                "method": "blacklist",
                "result": "TROJ_BANLOAD.KAV"
            },
            "TrendMicro-HouseCall": {
                "category": "malicious",
                "engine_name": "TrendMicro-HouseCall",
                "engine_update": "20171213",
                "engine_version": "9.950.0.1006",
                "method": "blacklist",
                "result": "TROJ_BANLOAD.KAV"
            },
            "Trustlook": {
                "category": "type-unsupported",
                "engine_name": "Trustlook",
                "engine_update": "20171213",
                "engine_version": "2",
                "method": "blacklist",
                "result": null
            },
            "VBA32": {
                "category": "malicious",
                "engine_name": "VBA32",
                "engine_update": "20171213",
                "engine_version": "3.12.26.4",
                "method": "blacklist",
                "result": "Trojan.Small"
            },
            "VIPRE": {
                "category": "malicious",
                "engine_name": "VIPRE",
                "engine_update": "20171213",
                "engine_version": "63128",
                "method": "blacklist",
                "result": "Trojan.Win32.Cutwail.c (v)"
            },
            "ViRobot": {
                "category": "undetected",
                "engine_name": "ViRobot",
                "engine_update": "20171213",
                "engine_version": "2014.3.20.0",
                "method": "blacklist",
                "result": null
            },
            "Webroot": {
                "category": "malicious",
                "engine_name": "Webroot",
                "engine_update": "20171213",
                "engine_version": "1.0.0.207",
                "method": "blacklist",
                "result": "Trojan.Dropper.Gen"
            },
            "WhiteArmor": {
                "category": "malicious",
                "engine_name": "WhiteArmor",
                "engine_update": "20171204",
                "engine_version": null,
                "method": "blacklist",
                "result": "Malware.HighConfidence"
            },
            "Yandex": {
                "category": "malicious",
                "engine_name": "Yandex",
                "engine_update": "20171212",
                "engine_version": "5.5.1.3",
                "method": "blacklist",
                "result": "Trojan.Bublik!BrbaRvXyIc8"
            },
            "Zillya": {
                "category": "malicious",
                "engine_name": "Zillya",
                "engine_update": "20171213",
                "engine_version": "2.0.0.3447",
                "method": "blacklist",
                "result": "Trojan.Bublik.Win32.12106"
            },
            "ZoneAlarm": {
                "category": "malicious",
                "engine_name": "ZoneAlarm",
                "engine_update": "20171213",
                "engine_version": "1.0",
                "method": "blacklist",
                "result": "Trojan.Win32.Small.cpl"
            },
            "Zoner": {
                "category": "malicious",
                "engine_name": "Zoner",
                "engine_update": "20171213",
                "engine_version": "1.0",
                "method": "blacklist",
                "result": "Trojan.Small.AAB"
            },
            "eGambit": {
                "category": "malicious",
                "engine_name": "eGambit",
                "engine_update": "20171213",
                "engine_version": "v4.2.7",
                "method": "blacklist",
                "result": "Unsafe.AI_Score_98%"
            },
            "nProtect": {
                "category": "undetected",
                "engine_name": "nProtect",
                "engine_update": "20171213",
                "engine_version": "2017-12-13.02",
                "method": "blacklist",
                "result": null
            }
        },
        "last_analysis_stats": {
            "confirmed-timeout": 0,
            "failure": 0,
            "harmless": 0,
            "malicious": 61,
            "suspicious": 0,
            "timeout": 0,
            "type-unsupported": 3,
            "undetected": 7
        },
        "last_modification_date": 1513203055,
        "last_submission_date": 1513194987,
        "magic": "PE32 executable for MS Windows (GUI) Intel 80386 32-bit",
        "md5": "6ecd6e193b3958014fd9bc437f31f1fa",
        "meaningful_name": "6ecd6e193b3958014fd9bc437f31f1fa.virus",
        "names": [
            "6ecd6e193b3958014fd9bc437f31f1fa.virus"
        ],
        "pe_info": {
            "entry_point": 9512,
            "imphash": "be934b29d9a83548878d0187178aaf03",
            "import_list": [
                {
                    "imported_functions": [
                        "GetLastError",
                        "lstrlenA",
                        "GetCurrentProcessId",
                        "GetModuleHandleA",
                        "lstrcmpA",
                        "GetCurrentDirectoryA",
                        "GetCurrentProcess",
                        "GetTickCount",
                        "GetSystemTimeAsFileTime",
                        "CreateFileA",
                        "GetCommandLineA"
                    ],
                    "library_name": "kernel32.dll"
                },
                {
                    "imported_functions": [
                        "GetMessageA",
                        "CreateWindowExA",
                        "LoadCursorA",
                        "LoadIconA",
                        "UpdateWindow",
                        "DispatchMessageA",
                        "EndPaint",
                        "BeginPaint",
                        "TranslateMessage",
                        "MoveWindow",
                        "SendMessageA",
                        "MessageBoxA",
                        "PostQuitMessage",
                        "DefWindowProcA",
                        "ShowWindow",
                        "DestroyWindow",
                        "RegisterClassExA"
                    ],
                    "library_name": "user32.dll"
                },
                {
                    "imported_functions": [
                        "CreateCompatibleDC",
                        "DeleteObject",
                        "CreateCompatibleBitmap"
                    ],
                    "library_name": "gdi32.dll"
                }
            ],
            "machine_type": 332,
            "overlay": {
                "entropy": 7.057717341717201,
                "filetype": "data",
                "md5": "8a4a2fd70f75f72bc7c1b36d77029592",
                "offset": 23552,
                "size": 726818
            },
            "resource_details": [
                {
                    "filetype": "data",
                    "lang": "ENGLISH US",
                    "sha256": "0e6e728b2a274f241288eafbf1e8ab37fe70bbaddf8a85878ebb9440d9a2816d",
                    "type": "RT_ICON"
                },
                {
                    "filetype": "ASCII text",
                    "lang": "ENGLISH US",
                    "sha256": "e5e8859028aaac0fddf6ec4c8ab6a76f9b800b625c8602498089efeac01d4f78",
                    "type": "RT_GROUP_ICON"
                },
                {
                    "filetype": "ASCII text",
                    "lang": "ENGLISH US",
                    "sha256": "49a60be4b95b6d30da355a0c124af82b35000bce8f24f957d1c09ead47544a1e",
                    "type": "RT_MANIFEST"
                }
            ],
            "resource_langs": {
                "ENGLISH US": 3
            },
            "resource_types": {
                "RT_GROUP_ICON": 1,
                "RT_ICON": 1,
                "RT_MANIFEST": 1
            },
            "sections": [
                {
                    "entropy": 6.59,
                    "md5": "6c907bf4d99e0b3b2455d8806ccd7f64",
                    "name": ".text",
                    "raw_size": 8192,
                    "virtual_address": 4096,
                    "virtual_size": 8032
                },
                {
                    "entropy": 5.88,
                    "md5": "23168cd3b8f09c376ead895416648835",
                    "name": ".rdata",
                    "raw_size": 3072,
                    "virtual_address": 12288,
                    "virtual_size": 3002
                },
                {
                    "entropy": 3.74,
                    "md5": "92194b0fcb816fb892fc1ee3af6b36e9",
                    "name": ".data",
                    "raw_size": 512,
                    "virtual_address": 16384,
                    "virtual_size": 2977
                },
                {
                    "entropy": 5.62,
                    "md5": "fa4680a7498813b8381df1c2056de105",
                    "name": ".rsrc",
                    "raw_size": 10752,
                    "virtual_address": 20480,
                    "virtual_size": 10656
                }
            ],
            "timestamp": 1379918555
        },
        "reputation": 0,
        "sha1": "d4389193d511a72bda6ec5621af26e3829f2eb5b",
        "sha256": "000369712a4e462b2575340be2938185f49f53d6828e4cd9ef73a7526d0bcee0",
        "size": 750370,
        "ssdeep": "12288:bFs4wFHoSLhxY+UBC6TsMX2jZ03gKnVlq9ZA6Zur1qVN1964HFghyHqgbVH2P6z2:QY+UB5TsjZ03clghyKm1QgRHYl",
        "tags": [
            "peexe",
            "overlay"
        ],
        "times_submitted": 1,
        "total_votes": {
            "harmless": 0,
            "malicious": 0
        },
        "trid": [
            {
                "file_type": "Win32 Executable MS Visual C++ (generic)",
                "probability": 22.1
            },
            {
                "file_type": "Win64 Executable (generic)",
                "probability": 19.6
            },
            {
                "file_type": "UPX compressed Win32 Executable",
                "probability": 19.2
            },
            {
                "file_type": "Win32 EXE Yoda's Crypter",
                "probability": 18.8
            },
            {
                "file_type": "Windows screen saver",
                "probability": 9.3
            }
        ],
        "type_description": "Win32 EXE",
        "type_extension": "exe",
        "type_tag": "peexe",
        "unique_sources": 1,
        "vhash": "075046655d1557z31zbmz11fz"
    },
    "id": "000369712a4e462b2575340be2938185f49f53d6828e4cd9ef73a7526d0bcee0",
    "links": {
        "self": "https://www.virustotal.com/api/v3/files/000369712a4e462b2575340be2938185f49f53d6828e4cd9ef73a7526d0bcee0"
    },
    "type": "file"
}