{
    "attributes": {
        "authentihash": "d5429d5665b6feef94b46b839cde315f70ab217b847d5fcc63b07e0005ac9f7b",
        "creation_date": 1403737139,
        "first_submission_date": 1520823469,
        "last_analysis_date": 1520823469,
        "last_analysis_results": {
            "ALYac": {
                "category": "malicious",
                "engine_name": "ALYac",
                "engine_update": "20180312",
                "engine_version": "1.1.1.5",
                "method": "blacklist",
                "result": "MemScan:Trojan.Agent.BYFH"
            },
            "AVG": {
                "category": "malicious",
                "engine_name": "AVG",
                "engine_update": "20180312",
                "engine_version": "18.2.3827.0",
                "method": "blacklist",
                "result": "Win32:Malware-gen"
            },
            "AVware": {
                "category": "malicious",
                "engine_name": "AVware",
                "engine_update": "20180312",
                "engine_version": "1.5.0.42",
                "method": "blacklist",
                "result": "Trojan.Win32.Generic!BT"
            },
            "Ad-Aware": {
                "category": "malicious",
                "engine_name": "Ad-Aware",
                "engine_update": "20180312",
                "engine_version": "3.0.3.1010",
                "method": "blacklist",
                "result": "MemScan:Trojan.Agent.BYFH"
            },
            "AegisLab": {
                "category": "malicious",
                "engine_name": "AegisLab",
                "engine_update": "20180312",
                "engine_version": "4.2",
                "method": "blacklist",
                "result": "Troj.W32.Agent.tn6s"
            },
            "AhnLab-V3": {
                "category": "malicious",
                "engine_name": "AhnLab-V3",
                "engine_update": "20180311",
                "engine_version": "3.12.0.20130",
                "method": "blacklist",
                "result": "Trojan/Win32.Orbus.R152164"
            },
            "Alibaba": {
                "category": "type-unsupported",
                "engine_name": "Alibaba",
                "engine_update": "20180311",
                "engine_version": "1.0",
                "method": "blacklist",
                "result": null
            },
            "Antiy-AVL": {
                "category": "malicious",
                "engine_name": "Antiy-AVL",
                "engine_update": "20180312",
                "engine_version": "3.0.0.1",
                "method": "blacklist",
                "result": "Trojan/Win32.SGeneric"
            },
            "Arcabit": {
                "category": "malicious",
                "engine_name": "Arcabit",
                "engine_update": "20180311",
                "engine_version": "1.0.0.830",
                "method": "blacklist",
                "result": "Trojan.Agent.BYFH"
            },
            "Avast": {
                "category": "malicious",
                "engine_name": "Avast",
                "engine_update": "20180312",
                "engine_version": "18.2.3827.0",
                "method": "blacklist",
                "result": "Win32:Malware-gen"
            },
            "Avast-Mobile": {
                "category": "undetected",
                "engine_name": "Avast-Mobile",
                "engine_update": "20180311",
                "engine_version": "180311-02",
                "method": "blacklist",
                "result": null
            },
            "Avira": {
                "category": "malicious",
                "engine_name": "Avira",
                "engine_update": "20180311",
                "engine_version": "8.3.3.6",
                "method": "blacklist",
                "result": "TR/Agent.iscmt"
            },
            "Baidu": {
                "category": "malicious",
                "engine_name": "Baidu",
                "engine_update": "20180309",
                "engine_version": "1.0.0.2",
                "method": "blacklist",
                "result": "Win32.Trojan.Agent.abs"
            },
            "BitDefender": {
                "category": "malicious",
                "engine_name": "BitDefender",
                "engine_update": "20180312",
                "engine_version": "7.2",
                "method": "blacklist",
                "result": "MemScan:Trojan.Agent.BYFH"
            },
            "Bkav": {
                "category": "malicious",
                "engine_name": "Bkav",
                "engine_update": "20180310",
                "engine_version": "1.3.0.9466",
                "method": "blacklist",
                "result": "W32.OdixinaAF.Trojan"
            },
            "CAT-QuickHeal": {
                "category": "malicious",
                "engine_name": "CAT-QuickHeal",
                "engine_update": "20180311",
                "engine_version": "14.00",
                "method": "blacklist",
                "result": "Trojan.Vflooder.C6"
            },
            "CMC": {
                "category": "undetected",
                "engine_name": "CMC",
                "engine_update": "20180311",
                "engine_version": "1.1.0.977",
                "method": "blacklist",
                "result": null
            },
            "ClamAV": {
                "category": "malicious",
                "engine_name": "ClamAV",
                "engine_update": "20180312",
                "engine_version": "0.99.2.0",
                "method": "blacklist",
                "result": "Win.Trojan.Agent-1388699"
            },
            "Comodo": {
                "category": "undetected",
                "engine_name": "Comodo",
                "engine_update": "20180312",
                "engine_version": null,
                "method": "blacklist",
                "result": null
            },
            "CrowdStrike": {
                "category": "malicious",
                "engine_name": "CrowdStrike",
                "engine_update": "20170201",
                "engine_version": "1.0",
                "method": "blacklist",
                "result": "malicious_confidence_100% (D)"
            },
            "Cybereason": {
                "category": "malicious",
                "engine_name": "Cybereason",
                "engine_update": "20180225",
                "engine_version": "1.2.27",
                "method": "blacklist",
                "result": "malicious.625f35"
            },
            "Cylance": {
                "category": "malicious",
                "engine_name": "Cylance",
                "engine_update": "20180312",
                "engine_version": "2.3.1.101",
                "method": "blacklist",
                "result": "Unsafe"
            },
            "Cyren": {
                "category": "malicious",
                "engine_name": "Cyren",
                "engine_update": "20180312",
                "engine_version": "5.4.30.7",
                "method": "blacklist",
                "result": "W32/S-ffc2199d!Eldorado"
            },
            "DrWeb": {
                "category": "malicious",
                "engine_name": "DrWeb",
                "engine_update": "20180312",
                "engine_version": "7.0.28.2020",
                "method": "blacklist",
                "result": "BackDoor.Spy.2465"
            },
            "ESET-NOD32": {
                "category": "malicious",
                "engine_name": "ESET-NOD32",
                "engine_update": "20180311",
                "engine_version": "17040",
                "method": "blacklist",
                "result": "a variant of Win32/Agent.WBX"
            },
            "Emsisoft": {
                "category": "malicious",
                "engine_name": "Emsisoft",
                "engine_update": "20180312",
                "engine_version": "4.0.2.899",
                "method": "blacklist",
                "result": "MemScan:Trojan.Agent.BYFH (B)"
            },
            "Endgame": {
                "category": "malicious",
                "engine_name": "Endgame",
                "engine_update": "20180308",
                "engine_version": "2.0.4",
                "method": "blacklist",
                "result": "malicious (high confidence)"
            },
            "F-Prot": {
                "category": "malicious",
                "engine_name": "F-Prot",
                "engine_update": "20180312",
                "engine_version": "4.7.1.166",
                "method": "blacklist",
                "result": "W32/S-ffc2199d!Eldorado"
            },
            "F-Secure": {
                "category": "malicious",
                "engine_name": "F-Secure",
                "engine_update": "20180312",
                "engine_version": "11.0.19100.45",
                "method": "blacklist",
                "result": "MemScan:Trojan.Agent.BYFH"
            },
            "Fortinet": {
                "category": "malicious",
                "engine_name": "Fortinet",
                "engine_update": "20180312",
                "engine_version": "5.4.247.0",
                "method": "blacklist",
                "result": "W32/Generic.AC.DE7C8!tr"
            },
            "GData": {
                "category": "malicious",
                "engine_name": "GData",
                "engine_update": "20180312",
                "engine_version": "A:25.16322B:25.11767",
                "method": "blacklist",
                "result": "MemScan:Trojan.Agent.BYFH"
            },
            "Ikarus": {
                "category": "malicious",
                "engine_name": "Ikarus",
                "engine_update": "20180311",
                "engine_version": "0.1.5.2",
                "method": "blacklist",
                "result": "Trojan.Win32.Vflooder"
            },
            "Invincea": {
                "category": "malicious",
                "engine_name": "Invincea",
                "engine_update": "20180121",
                "engine_version": "6.3.4.26036",
                "method": "blacklist",
                "result": "heuristic"
            },
            "Jiangmin": {
                "category": "malicious",
                "engine_name": "Jiangmin",
                "engine_update": "20180312",
                "engine_version": "16.0.100",
                "method": "blacklist",
                "result": "Trojan/Agent.ikds"
            },
            "K7AntiVirus": {
                "category": "malicious",
                "engine_name": "K7AntiVirus",
                "engine_update": "20180312",
                "engine_version": "10.41.26460",
                "method": "blacklist",
                "result": "Trojan ( 0049c30b1 )"
            },
            "K7GW": {
                "category": "malicious",
                "engine_name": "K7GW",
                "engine_update": "20180312",
                "engine_version": "10.41.26459",
                "method": "blacklist",
                "result": "Trojan ( 0049c30b1 )"
            },
            "Kaspersky": {
                "category": "malicious",
                "engine_name": "Kaspersky",
                "engine_update": "20180311",
                "engine_version": "15.0.1.13",
                "method": "blacklist",
                "result": "Trojan.Win32.Agent.iftf"
            },
            "Kingsoft": {
                "category": "undetected",
                "engine_name": "Kingsoft",
                "engine_update": "20180312",
                "engine_version": "2013.8.14.323",
                "method": "blacklist",
                "result": null
            },
            "MAX": {
                "category": "malicious",
                "engine_name": "MAX",
                "engine_update": "20180312",
                "engine_version": "2017.11.15.1",
                "method": "blacklist",
                "result": "malware (ai score=82)"
            },
            "Malwarebytes": {
                "category": "undetected",
                "engine_name": "Malwarebytes",
                "engine_update": "20180311",
                "engine_version": "2.1.1.1115",
                "method": "blacklist",
                "result": null
            },
            "McAfee": {
                "category": "malicious",
                "engine_name": "McAfee",
                "engine_update": "20180311",
                "engine_version": "6.0.6.653",
                "method": "blacklist",
                "result": "VTFlooder!DC13894BEA59"
            },
            "McAfee-GW-Edition": {
                "category": "malicious",
                "engine_name": "McAfee-GW-Edition",
                "engine_update": "20180311",
                "engine_version": "v2015",
                "method": "blacklist",
                "result": "BehavesLike.Win32.VTFlooder.lc"
            },
            "MicroWorld-eScan": {
                "category": "malicious",
                "engine_name": "MicroWorld-eScan",
                "engine_update": "20180311",
                "engine_version": "14.0.297.0",
                "method": "blacklist",
                "result": "MemScan:Trojan.Agent.BYFH"
            },
            "Microsoft": {
                "category": "malicious",
                "engine_name": "Microsoft",
                "engine_update": "20180312",
                "engine_version": "1.1.14600.4",
                "method": "blacklist",
                "result": "Trojan:Win32/Orbus.A"
            },
            "NANO-Antivirus": {
                "category": "malicious",
                "engine_name": "NANO-Antivirus",
                "engine_update": "20180311",
                "engine_version": "1.0.100.21498",
                "method": "blacklist",
                "result": "Trojan.Win32.Agent.dzgjlc"
            },
            "Paloalto": {
                "category": "undetected",
                "engine_name": "Paloalto",
                "engine_update": "20180312",
                "engine_version": "1.0",
                "method": "blacklist",
                "result": null
            },
            "Panda": {
                "category": "malicious",
                "engine_name": "Panda",
                "engine_update": "20180311",
                "engine_version": "4.6.4.2",
                "method": "blacklist",
                "result": "Trj/Genetic.gen"
            },
            "Qihoo-360": {
                "category": "malicious",
                "engine_name": "Qihoo-360",
                "engine_update": "20180312",
                "engine_version": "1.0.0.1120",
                "method": "blacklist",
                "result": "HEUR/QVM16.0.C3DB.Malware.Gen"
            },
            "Rising": {
                "category": "malicious",
                "engine_name": "Rising",
                "engine_update": "20180312",
                "engine_version": "25.0.0.1",
                "method": "blacklist",
                "result": "Trojan.Orbus!1.A3A0 (CLASSIC)"
            },
            "SUPERAntiSpyware": {
                "category": "undetected",
                "engine_name": "SUPERAntiSpyware",
                "engine_update": "20180311",
                "engine_version": "5.6.0.1032",
                "method": "blacklist",
                "result": null
            },
            "SentinelOne": {
                "category": "malicious",
                "engine_name": "SentinelOne",
                "engine_update": "20180225",
                "engine_version": "1.0.15.206",
                "method": "blacklist",
                "result": "static engine - malicious"
            },
            "Sophos": {
                "category": "malicious",
                "engine_name": "Sophos",
                "engine_update": "20180311",
                "engine_version": "4.98.0",
                "method": "blacklist",
                "result": "Troj/Agent-AHNL"
            },
            "Symantec": {
                "category": "malicious",
                "engine_name": "Symantec",
                "engine_update": "20180311",
                "engine_version": "1.5.0.0",
                "method": "blacklist",
                "result": "Trojan Horse"
            },
            "SymantecMobileInsight": {
                "category": "type-unsupported",
                "engine_name": "SymantecMobileInsight",
                "engine_update": "20180311",
                "engine_version": "1.0.0.35_220",
                "method": "blacklist",
                "result": null
            },
            "Tencent": {
                "category": "undetected",
                "engine_name": "Tencent",
                "engine_update": "20180312",
                "engine_version": "1.0.0.1",
                "method": "blacklist",
                "result": null
            },
            "TheHacker": {
                "category": "malicious",
                "engine_name": "TheHacker",
                "engine_update": "20180311",
                "engine_version": "6.8.0.5.2523",
                "method": "blacklist",
                "result": "Trojan/Agent.wbx"
            },
            "TotalDefense": {
                "category": "undetected",
                "engine_name": "TotalDefense",
                "engine_update": "20180311",
                "engine_version": "37.1.62.1",
                "method": "blacklist",
                "result": null
            },
            "TrendMicro": {
                "category": "malicious",
                "engine_name": "TrendMicro",
                "engine_update": "20180311",
                "engine_version": "9.862.0.1074",
                "method": "blacklist",
                "result": "TROJ_VFLOODER_EK24001D.UVPM"
            },
            "TrendMicro-HouseCall": {
                "category": "malicious",
                "engine_name": "TrendMicro-HouseCall",
                "engine_update": "20180311",
                "engine_version": "9.950.0.1006",
                "method": "blacklist",
                "result": "TROJ_VFLOODER_EK24001D.UVPM"
            },
            "Trustlook": {
                "category": "type-unsupported",
                "engine_name": "Trustlook",
                "engine_update": "20180312",
                "engine_version": "2",
                "method": "blacklist",
                "result": null
            },
            "VBA32": {
                "category": "malicious",
                "engine_name": "VBA32",
                "engine_update": "20180307",
                "engine_version": "3.12.28.0",
                "method": "blacklist",
                "result": "Trojan.Agent"
            },
            "VIPRE": {
                "category": "malicious",
                "engine_name": "VIPRE",
                "engine_update": "20180312",
                "engine_version": "65196",
                "method": "blacklist",
                "result": "Trojan.Win32.Generic!BT"
            },
            "ViRobot": {
                "category": "malicious",
                "engine_name": "ViRobot",
                "engine_update": "20180311",
                "engine_version": "2014.3.20.0",
                "method": "blacklist",
                "result": "Backdoor.Win32.Agent.74932.A"
            },
            "Webroot": {
                "category": "undetected",
                "engine_name": "Webroot",
                "engine_update": "20180312",
                "engine_version": "1.0.0.400",
                "method": "blacklist",
                "result": null
            },
            "WhiteArmor": {
                "category": "undetected",
                "engine_name": "WhiteArmor",
                "engine_update": "20180223",
                "engine_version": null,
                "method": "blacklist",
                "result": null
            },
            "Yandex": {
                "category": "malicious",
                "engine_name": "Yandex",
                "engine_update": "20180308",
                "engine_version": "5.5.1.3",
                "method": "blacklist",
                "result": "Trojan.Agent!nqpbMSbnSnk"
            },
            "Zillya": {
                "category": "malicious",
                "engine_name": "Zillya",
                "engine_update": "20180309",
                "engine_version": "2.0.0.3508",
                "method": "blacklist",
                "result": "Backdoor.Agent.Win32.55640"
            },
            "ZoneAlarm": {
                "category": "malicious",
                "engine_name": "ZoneAlarm",
                "engine_update": "20180312",
                "engine_version": "1.0",
                "method": "blacklist",
                "result": "Trojan.Win32.Agent.iftf"
            },
            "Zoner": {
                "category": "undetected",
                "engine_name": "Zoner",
                "engine_update": "20180312",
                "engine_version": "1.0",
                "method": "blacklist",
                "result": null
            },
            "eGambit": {
                "category": "malicious",
                "engine_name": "eGambit",
                "engine_update": "20180312",
                "engine_version": "v4.3.5",
                "method": "blacklist",
                "result": "Unsafe.AI_Score_69%"
            },
            "nProtect": {
                "category": "malicious",
                "engine_name": "nProtect",
                "engine_update": "20180312",
                "engine_version": "2018-03-12.01",
                "method": "blacklist",
                "result": "Trojan/W32.Agent.74992.D"
            }
        },
        "last_analysis_stats": {
            "confirmed-timeout": 0,
            "failure": 0,
            "harmless": 0,
            "malicious": 56,
            "suspicious": 0,
            "timeout": 0,
            "type-unsupported": 3,
            "undetected": 12
        },
        "last_modification_date": 1523287707,
        "last_submission_date": 1520823469,
        "magic": "PE32 executable for MS Windows (GUI) Intel 80386 32-bit",
        "md5": "4231298625f355ada2decbdd20e27a59",
        "meaningful_name": "file.exe",
        "names": [
            "file.exe"
        ],
        "pe_info": {
            "entry_point": 87706,
            "imphash": "cb55ef8ddff6ca096823fd960459bc3a",
            "import_list": [
                {
                    "imported_functions": [
                        "WNetEnumResourceW",
                        "WNetCloseEnum",
                        "WNetOpenEnumW"
                    ],
                    "library_name": "MPR.dll"
                },
                {
                    "imported_functions": [
                        "GdipSaveImageToStream",
                        "GdipGetImageEncodersSize",
                        "GdipGetImageEncoders",
                        "GdipDisposeImage",
                        "GdipCreateBitmapFromHBITMAP",
                        "GdiplusStartup"
                    ],
                    "library_name": "gdiplus.dll"
                },
                {
                    "imported_functions": [
                        "GetAdaptersInfo"
                    ],
                    "library_name": "IPHLPAPI.DLL"
                },
                {
                    "imported_functions": [
                        "HttpSendRequestA",
                        "InternetSetOptionA",
                        "HttpOpenRequestA",
                        "InternetReadFile",
                        "InternetCloseHandle",
                        "InternetOpenA",
                        "InternetConnectA",
                        "HttpQueryInfoA"
                    ],
                    "library_name": "WININET.dll"
                },
                {
                    "imported_functions": [
                        "DeleteDC",
                        "SelectObject",
                        "BitBlt",
                        "CreateDIBSection",
                        "CreateCompatibleDC",
                        "DeleteObject"
                    ],
                    "library_name": "GDI32.dll"
                },
                {
                    "imported_functions": [
                        "GetTokenInformation",
                        "CreateWellKnownSid",
                        "OpenProcessToken",
                        "DuplicateToken",
                        "CheckTokenMembership",
                        "GetUserNameA"
                    ],
                    "library_name": "ADVAPI32.dll"
                },
                {
                    "imported_functions": [
                        "CreateToolhelp32Snapshot",
                        "GetLastError",
                        "HeapFree",
                        "GetDriveTypeW",
                        "Process32First",
                        "GetSystemInfo",
                        "GetModuleFileNameW",
                        "GlobalFree",
                        "WaitForSingleObject",
                        "GetDriveTypeA",
                        "HeapReAlloc",
                        "GetTickCount",
                        "GetVersionExA",
                        "LoadLibraryA",
                        "GetFileAttributesW",
                        "Process32Next",
                        "GetStartupInfoA",
                        "GetVolumeInformationA",
                        "GetWindowsDirectoryW",
                        "GetFileSize",
                        "OpenProcess",
                        "DeleteFileA",
                        "ExitProcess",
                        "GetLogicalDrives",
                        "GetModuleFileNameA",
                        "GetProcAddress",
                        "GetProcessHeap",
                        "GetTempPathA",
                        "CreateThread",
                        "GetModuleHandleA",
                        "ReadFile",
                        "GetCurrentProcess",
                        "FindNextFileW",
                        "GetTempFileNameA",
                        "GetComputerNameA",
                        "FindFirstFileW",
                        "GetSystemDirectoryA",
                        "GetDiskFreeSpaceA",
                        "GetModuleHandleW",
                        "LocalFree",
                        "CreateProcessA",
                        "GetCurrentDirectoryW",
                        "CreateFileW",
                        "GlobalAlloc",
                        "FindClose",
                        "Sleep",
                        "CreateFileA",
                        "HeapAlloc",
                        "LocalAlloc",
                        "CloseHandle"
                    ],
                    "library_name": "KERNEL32.dll"
                },
                {
                    "imported_functions": [
                        "SHGetFolderPathW",
                        "Ord(680)"
                    ],
                    "library_name": "SHELL32.dll"
                },
                {
                    "imported_functions": [
                        "_snwprintf",
                        "_wcsicmp",
                        "memset",
                        "sprintf",
                        "memcpy"
                    ],
                    "library_name": "ntdll.dll"
                },
                {
                    "imported_functions": [
                        "CreateStreamOnHGlobal"
                    ],
                    "library_name": "ole32.dll"
                },
                {
                    "imported_functions": [
                        "GetModuleFileNameExA"
                    ],
                    "library_name": "PSAPI.DLL"
                },
                {
                    "imported_functions": [
                        "GetDesktopWindow",
                        "ReleaseDC",
                        "GetWindowDC",
                        "GetWindowRect"
                    ],
                    "library_name": "USER32.dll"
                }
            ],
            "machine_type": 332,
            "overlay": {
                "chi2": 4784.01708984375,
                "entropy": 5.365661144256592,
                "filetype": "data",
                "md5": "f0d27c60d40bcd0df828981996a6eef2",
                "offset": 74752,
                "size": 240
            },
            "sections": [
                {
                    "entropy": 0.0,
                    "md5": "d41d8cd98f00b204e9800998ecf8427e",
                    "name": ".text",
                    "raw_size": 0,
                    "virtual_address": 4096,
                    "virtual_size": 14252
                },
                {
                    "entropy": 0.0,
                    "md5": "d41d8cd98f00b204e9800998ecf8427e",
                    "name": ".rdata",
                    "raw_size": 0,
                    "virtual_address": 20480,
                    "virtual_size": 3196
                },
                {
                    "entropy": 0.0,
                    "md5": "d41d8cd98f00b204e9800998ecf8427e",
                    "name": ".data",
                    "raw_size": 0,
                    "virtual_address": 24576,
                    "virtual_size": 1580
                },
                {
                    "entropy": 0.0,
                    "md5": "d41d8cd98f00b204e9800998ecf8427e",
                    "name": ".vmp0",
                    "raw_size": 0,
                    "virtual_address": 28672,
                    "virtual_size": 11689
                },
                {
                    "entropy": 7.56,
                    "md5": "2e16f52da8e2dd03b3cd7f6702615a41",
                    "name": ".vmp1",
                    "raw_size": 73216,
                    "virtual_address": 40960,
                    "virtual_size": 72871
                },
                {
                    "entropy": 1.24,
                    "md5": "b9d71d026d555e9c4114d3079422d2f3",
                    "name": ".reloc",
                    "raw_size": 512,
                    "virtual_address": 114688,
                    "virtual_size": 124
                }
            ],
            "timestamp": 1403737139
        },
        "reputation": 0,
        "sha1": "b4dd4b6276018c020c7a2db22662a8de1cee2e3c",
        "sha256": "000390e000e420b8f3607091b1d878dfa5c6427a94af021ea18a1e5ef6c9219b",
        "size": 74992,
        "ssdeep": "1536:6ASVYvU/81RTl6o2GR7ulOdTW7t92tzaO4vxgidzd8:CKt1R/2GR7+7tIX4JFdx8",
        "tags": [
            "peexe",
            "overlay"
        ],
        "times_submitted": 1,
        "total_votes": {
            "harmless": 0,
            "malicious": 0
        },
        "trid": [
            {
                "file_type": "Win32 Executable MS Visual C++ (generic)",
                "probability": 50.8
            },
            {
                "file_type": "Windows screen saver",
                "probability": 21.3
            },
            {
                "file_type": "Win32 Dynamic Link Library (generic)",
                "probability": 10.7
            },
            {
                "file_type": "Win32 Executable (generic)",
                "probability": 7.3
            },
            {
                "file_type": "OS/2 Executable (generic)",
                "probability": 3.3
            }
        ],
        "type_description": "Win32 EXE",
        "type_extension": "exe",
        "type_tag": "peexe",
        "unique_sources": 1,
        "vhash": "074066050d060f751065z6002e3z51z11z13z23z41z8bz"
    },
    "id": "000390e000e420b8f3607091b1d878dfa5c6427a94af021ea18a1e5ef6c9219b",
    "links": {
        "self": "https://www.virustotal.com/api/v3/files/000390e000e420b8f3607091b1d878dfa5c6427a94af021ea18a1e5ef6c9219b"
    },
    "type": "file"
}