{
    "attributes": {
        "authentihash": "8f342fb9764a8330bce41a108c5e778b38d523056688f4ba2f9caa5a2491d8a2",
        "creation_date": 1422330987,
        "first_submission_date": 1499974248,
        "last_analysis_date": 1499974248,
        "last_analysis_results": {
            "ALYac": {
                "category": "malicious",
                "engine_name": "ALYac",
                "engine_update": "20170713",
                "engine_version": "1.0.1.9",
                "method": "blacklist",
                "result": "DeepScan:Generic.Nimda.57EDAF37"
            },
            "AVG": {
                "category": "malicious",
                "engine_name": "AVG",
                "engine_update": "20170713",
                "engine_version": "8.0.1489.320",
                "method": "blacklist",
                "result": "Win32:Banker-NBH [Trj]"
            },
            "AVware": {
                "category": "malicious",
                "engine_name": "AVware",
                "engine_update": "20170713",
                "engine_version": "1.5.0.42",
                "method": "blacklist",
                "result": "Trojan.Win32.Agent.xfc (v)"
            },
            "Ad-Aware": {
                "category": "malicious",
                "engine_name": "Ad-Aware",
                "engine_update": "20170713",
                "engine_version": "3.0.3.1010",
                "method": "blacklist",
                "result": "DeepScan:Generic.Nimda.57EDAF37"
            },
            "AegisLab": {
                "category": "malicious",
                "engine_name": "AegisLab",
                "engine_update": "20170713",
                "engine_version": "4.2",
                "method": "blacklist",
                "result": "Troj.Dropper.W32.Dinwod.tn6p"
            },
            "AhnLab-V3": {
                "category": "malicious",
                "engine_name": "AhnLab-V3",
                "engine_update": "20170713",
                "engine_version": "3.9.1.17914",
                "method": "blacklist",
                "result": "Trojan/Win32.OnlineGameHack.C33730"
            },
            "Alibaba": {
                "category": "type-unsupported",
                "engine_name": "Alibaba",
                "engine_update": "20170713",
                "engine_version": "1.0",
                "method": "blacklist",
                "result": null
            },
            "Antiy-AVL": {
                "category": "malicious",
                "engine_name": "Antiy-AVL",
                "engine_update": "20170713",
                "engine_version": "3.0.0.1",
                "method": "blacklist",
                "result": "Worm[NET]/Win32.Nimda.gic"
            },
            "Arcabit": {
                "category": "malicious",
                "engine_name": "Arcabit",
                "engine_update": "20170713",
                "engine_version": "1.0.0.817",
                "method": "blacklist",
                "result": "DeepScan:Generic.Nimda.57EDAF37"
            },
            "Avast": {
                "category": "malicious",
                "engine_name": "Avast",
                "engine_update": "20170713",
                "engine_version": "8.0.1489.320",
                "method": "blacklist",
                "result": "Win32:Banker-NBH [Trj]"
            },
            "Avira": {
                "category": "malicious",
                "engine_name": "Avira",
                "engine_update": "20170713",
                "engine_version": "8.3.3.4",
                "method": "blacklist",
                "result": "TR/Spy.Gen"
            },
            "Baidu": {
                "category": "malicious",
                "engine_name": "Baidu",
                "engine_update": "20170713",
                "engine_version": "1.0.0.2",
                "method": "blacklist",
                "result": "Win32.Trojan.Agent.acb"
            },
            "BitDefender": {
                "category": "malicious",
                "engine_name": "BitDefender",
                "engine_update": "20170713",
                "engine_version": "7.2",
                "method": "blacklist",
                "result": "DeepScan:Generic.Nimda.57EDAF37"
            },
            "Bkav": {
                "category": "malicious",
                "engine_name": "Bkav",
                "engine_update": "20170713",
                "engine_version": "1.3.0.9188",
                "method": "blacklist",
                "result": "W32.FamVT.DinwoodAATTC.Worm"
            },
            "CAT-QuickHeal": {
                "category": "malicious",
                "engine_name": "CAT-QuickHeal",
                "engine_update": "20170713",
                "engine_version": "14.00",
                "method": "blacklist",
                "result": "Trojan.Zenshirsh.SL7"
            },
            "CMC": {
                "category": "undetected",
                "engine_name": "CMC",
                "engine_update": "20170713",
                "engine_version": "1.1.0.977",
                "method": "blacklist",
                "result": null
            },
            "ClamAV": {
                "category": "malicious",
                "engine_name": "ClamAV",
                "engine_update": "20170713",
                "engine_version": "0.99.2.0",
                "method": "blacklist",
                "result": "Win.Worm.Allaple-5"
            },
            "Comodo": {
                "category": "malicious",
                "engine_name": "Comodo",
                "engine_update": "20170713",
                "engine_version": "27448",
                "method": "blacklist",
                "result": "TrojWare.Win32.TrojanDropper.Dinwod.A"
            },
            "CrowdStrike": {
                "category": "malicious",
                "engine_name": "CrowdStrike",
                "engine_update": "20170710",
                "engine_version": "1.0",
                "method": "blacklist",
                "result": "malicious_confidence_100% (D)"
            },
            "Cylance": {
                "category": "malicious",
                "engine_name": "Cylance",
                "engine_update": "20170713",
                "engine_version": "2.3.1.101",
                "method": "blacklist",
                "result": "Unsafe"
            },
            "Cyren": {
                "category": "malicious",
                "engine_name": "Cyren",
                "engine_update": "20170713",
                "engine_version": "5.4.30.7",
                "method": "blacklist",
                "result": "W32/S-f9cb8831!Eldorado"
            },
            "DrWeb": {
                "category": "malicious",
                "engine_name": "DrWeb",
                "engine_update": "20170713",
                "engine_version": "7.0.28.2020",
                "method": "blacklist",
                "result": "Trojan.Inject1.58305"
            },
            "ESET-NOD32": {
                "category": "malicious",
                "engine_name": "ESET-NOD32",
                "engine_update": "20170713",
                "engine_version": "15741",
                "method": "blacklist",
                "result": "a variant of Win32/Agent.XFC"
            },
            "Emsisoft": {
                "category": "malicious",
                "engine_name": "Emsisoft",
                "engine_update": "20170713",
                "engine_version": "4.0.1.883",
                "method": "blacklist",
                "result": "DeepScan:Generic.Nimda.57EDAF37 (B)"
            },
            "Endgame": {
                "category": "malicious",
                "engine_name": "Endgame",
                "engine_update": "20170713",
                "engine_version": "0.7.5",
                "method": "blacklist",
                "result": "malicious (moderate confidence)"
            },
            "F-Prot": {
                "category": "malicious",
                "engine_name": "F-Prot",
                "engine_update": "20170713",
                "engine_version": "4.7.1.166",
                "method": "blacklist",
                "result": "W32/S-f9cb8831!Eldorado"
            },
            "F-Secure": {
                "category": "malicious",
                "engine_name": "F-Secure",
                "engine_update": "20170713",
                "engine_version": "11.0.19100.45",
                "method": "blacklist",
                "result": "DeepScan:Generic.Nimda.57EDAF37"
            },
            "Fortinet": {
                "category": "malicious",
                "engine_name": "Fortinet",
                "engine_update": "20170629",
                "engine_version": "5.4.247.0",
                "method": "blacklist",
                "result": "W32/Agent.RGU!tr"
            },
            "GData": {
                "category": "malicious",
                "engine_name": "GData",
                "engine_update": "20170713",
                "engine_version": "A:25.13346B:25.9990",
                "method": "blacklist",
                "result": "Win32.Trojan.Agent.WP"
            },
            "Ikarus": {
                "category": "malicious",
                "engine_name": "Ikarus",
                "engine_update": "20170713",
                "engine_version": "0.1.5.2",
                "method": "blacklist",
                "result": "Trojan.Win32.Agent"
            },
            "Invincea": {
                "category": "malicious",
                "engine_name": "Invincea",
                "engine_update": "20170607",
                "engine_version": "6.3.0.25415",
                "method": "blacklist",
                "result": "heuristic"
            },
            "Jiangmin": {
                "category": "malicious",
                "engine_name": "Jiangmin",
                "engine_update": "20170713",
                "engine_version": "16.0.100",
                "method": "blacklist",
                "result": "TrojanDropper.Dinwod.ale"
            },
            "K7AntiVirus": {
                "category": "malicious",
                "engine_name": "K7AntiVirus",
                "engine_update": "20170713",
                "engine_version": "10.18.23961",
                "method": "blacklist",
                "result": "Trojan ( 000aef511 )"
            },
            "K7GW": {
                "category": "malicious",
                "engine_name": "K7GW",
                "engine_update": "20170713",
                "engine_version": "10.18.23971",
                "method": "blacklist",
                "result": "Trojan ( 000aef511 )"
            },
            "Kaspersky": {
                "category": "malicious",
                "engine_name": "Kaspersky",
                "engine_update": "20170713",
                "engine_version": "15.0.1.13",
                "method": "blacklist",
                "result": "Trojan-Dropper.Win32.Dinwod.unm"
            },
            "Kingsoft": {
                "category": "undetected",
                "engine_name": "Kingsoft",
                "engine_update": "20170713",
                "engine_version": "2013.8.14.323",
                "method": "blacklist",
                "result": null
            },
            "MAX": {
                "category": "malicious",
                "engine_name": "MAX",
                "engine_update": "20170713",
                "engine_version": "2017.6.26.1",
                "method": "blacklist",
                "result": "malware (ai score=81)"
            },
            "Malwarebytes": {
                "category": "malicious",
                "engine_name": "Malwarebytes",
                "engine_update": "20170713",
                "engine_version": "2.1.1.1115",
                "method": "blacklist",
                "result": "Trojan.Dropper"
            },
            "McAfee": {
                "category": "malicious",
                "engine_name": "McAfee",
                "engine_update": "20170713",
                "engine_version": "6.0.6.653",
                "method": "blacklist",
                "result": "Artemis!DC26C82F242A"
            },
            "McAfee-GW-Edition": {
                "category": "malicious",
                "engine_name": "McAfee-GW-Edition",
                "engine_update": "20170713",
                "engine_version": "v2015",
                "method": "blacklist",
                "result": "BehavesLike.Win32.Dropper.wh"
            },
            "MicroWorld-eScan": {
                "category": "malicious",
                "engine_name": "MicroWorld-eScan",
                "engine_update": "20170713",
                "engine_version": "12.0.250.0",
                "method": "blacklist",
                "result": "DeepScan:Generic.Nimda.57EDAF37"
            },
            "Microsoft": {
                "category": "malicious",
                "engine_name": "Microsoft",
                "engine_update": "20170713",
                "engine_version": "1.1.13903.0",
                "method": "blacklist",
                "result": "Backdoor:MSIL/Bladabindi"
            },
            "NANO-Antivirus": {
                "category": "malicious",
                "engine_name": "NANO-Antivirus",
                "engine_update": "20170713",
                "engine_version": "1.0.76.17587",
                "method": "blacklist",
                "result": "Trojan.Win32.Dinwod.ejafor"
            },
            "Paloalto": {
                "category": "undetected",
                "engine_name": "Paloalto",
                "engine_update": "20170713",
                "engine_version": "1.0",
                "method": "blacklist",
                "result": null
            },
            "Panda": {
                "category": "undetected",
                "engine_name": "Panda",
                "engine_update": "20170713",
                "engine_version": "4.6.4.2",
                "method": "blacklist",
                "result": null
            },
            "Qihoo-360": {
                "category": "malicious",
                "engine_name": "Qihoo-360",
                "engine_update": "20170713",
                "engine_version": "1.0.0.1120",
                "method": "blacklist",
                "result": "HEUR/QVM18.1.75A5.Malware.Gen"
            },
            "Rising": {
                "category": "malicious",
                "engine_name": "Rising",
                "engine_update": "20170713",
                "engine_version": "25.0.0.1",
                "method": "blacklist",
                "result": "Malware.Generic.5!tfe (thunder:xQ5Z4oOBqMM)"
            },
            "SUPERAntiSpyware": {
                "category": "undetected",
                "engine_name": "SUPERAntiSpyware",
                "engine_update": "20170713",
                "engine_version": "5.6.0.1032",
                "method": "blacklist",
                "result": null
            },
            "SentinelOne": {
                "category": "malicious",
                "engine_name": "SentinelOne",
                "engine_update": "20170516",
                "engine_version": "1.0.0.12",
                "method": "blacklist",
                "result": "static engine - malicious"
            },
            "Sophos": {
                "category": "malicious",
                "engine_name": "Sophos",
                "engine_update": "20170713",
                "engine_version": "4.98.0",
                "method": "blacklist",
                "result": "Troj/Eydrop-A"
            },
            "Symantec": {
                "category": "malicious",
                "engine_name": "Symantec",
                "engine_update": "20170713",
                "engine_version": "1.4.0.0",
                "method": "blacklist",
                "result": "Trojan.Gen"
            },
            "SymantecMobileInsight": {
                "category": "type-unsupported",
                "engine_name": "SymantecMobileInsight",
                "engine_update": "20170713",
                "engine_version": "1.0.0.35_220",
                "method": "blacklist",
                "result": null
            },
            "Tencent": {
                "category": "undetected",
                "engine_name": "Tencent",
                "engine_update": "20170713",
                "engine_version": "1.0.0.1",
                "method": "blacklist",
                "result": null
            },
            "TheHacker": {
                "category": "malicious",
                "engine_name": "TheHacker",
                "engine_update": "20170712",
                "engine_version": "6.8.0.5.1724",
                "method": "blacklist",
                "result": "Trojan/Agent.xfc"
            },
            "TotalDefense": {
                "category": "malicious",
                "engine_name": "TotalDefense",
                "engine_update": "20170713",
                "engine_version": "37.1.62.1",
                "method": "blacklist",
                "result": "Win32/Oflwr.A!crypt"
            },
            "TrendMicro": {
                "category": "malicious",
                "engine_name": "TrendMicro",
                "engine_update": "20170713",
                "engine_version": "9.862.0.1074",
                "method": "blacklist",
                "result": "TSPY_EYDROP.SMA"
            },
            "TrendMicro-HouseCall": {
                "category": "malicious",
                "engine_name": "TrendMicro-HouseCall",
                "engine_update": "20170713",
                "engine_version": "9.950.0.1006",
                "method": "blacklist",
                "result": "TSPY_EYDROP.SMA"
            },
            "Trustlook": {
                "category": "type-unsupported",
                "engine_name": "Trustlook",
                "engine_update": "20170713",
                "engine_version": "2",
                "method": "blacklist",
                "result": null
            },
            "VBA32": {
                "category": "malicious",
                "engine_name": "VBA32",
                "engine_update": "20170713",
                "engine_version": "3.12.26.4",
                "method": "blacklist",
                "result": "TrojanDropper.Dinwod"
            },
            "VIPRE": {
                "category": "malicious",
                "engine_name": "VIPRE",
                "engine_update": "20170713",
                "engine_version": "59508",
                "method": "blacklist",
                "result": "Trojan.Win32.Agent.xfc (v)"
            },
            "ViRobot": {
                "category": "malicious",
                "engine_name": "ViRobot",
                "engine_update": "20170713",
                "engine_version": "2014.3.20.0",
                "method": "blacklist",
                "result": "Trojan.Win32.Agent.69310"
            },
            "Webroot": {
                "category": "malicious",
                "engine_name": "Webroot",
                "engine_update": "20170713",
                "engine_version": "1.0.0.207",
                "method": "blacklist",
                "result": "W32.Trojan.Agent.Gen"
            },
            "WhiteArmor": {
                "category": "type-unsupported",
                "engine_name": "WhiteArmor",
                "engine_update": "20170713",
                "engine_version": "9101276",
                "method": "blacklist",
                "result": null
            },
            "Yandex": {
                "category": "malicious",
                "engine_name": "Yandex",
                "engine_update": "20170713",
                "engine_version": "5.5.1.3",
                "method": "blacklist",
                "result": "Trojan.DR.Dinwod!dCCk6/8cSJk"
            },
            "Zillya": {
                "category": "malicious",
                "engine_name": "Zillya",
                "engine_update": "20170713",
                "engine_version": "2.0.0.3334",
                "method": "blacklist",
                "result": "Dropper.DinwodGen.Win32.1"
            },
            "ZoneAlarm": {
                "category": "malicious",
                "engine_name": "ZoneAlarm",
                "engine_update": "20170713",
                "engine_version": "1.0",
                "method": "blacklist",
                "result": "Trojan-Dropper.Win32.Dinwod.unm"
            },
            "Zoner": {
                "category": "undetected",
                "engine_name": "Zoner",
                "engine_update": "20170713",
                "engine_version": "1.0",
                "method": "blacklist",
                "result": null
            },
            "nProtect": {
                "category": "undetected",
                "engine_name": "nProtect",
                "engine_update": "20170713",
                "engine_version": "2017-07-13.02",
                "method": "blacklist",
                "result": null
            }
        },
        "last_analysis_stats": {
            "confirmed-timeout": 0,
            "failure": 0,
            "harmless": 0,
            "malicious": 56,
            "suspicious": 0,
            "timeout": 0,
            "type-unsupported": 4,
            "undetected": 8
        },
        "last_modification_date": 1499974494,
        "last_submission_date": 1499974248,
        "magic": "PE32 executable for MS Windows (GUI) Intel 80386 32-bit",
        "md5": "dc26c82f242a9acd496bb3454a551a08",
        "meaningful_name": "dc26c82f242a9acd496bb3454a551a08.virus",
        "names": [
            "dc26c82f242a9acd496bb3454a551a08.virus"
        ],
        "packers": {
            "F-PROT": "UPX_LZMA",
            "PEiD": "UPX 2.93 [LZMA] -> Markus Oberhumer, Laszlo Molnar & John Reiser"
        },
        "pe_info": {
            "entry_point": 149056,
            "imphash": "406c785a6e2c6970c1e8ed62877e197b",
            "import_list": [
                {
                    "imported_functions": [
                        "atoi"
                    ],
                    "library_name": "MSVCRT.dll"
                },
                {
                    "imported_functions": [
                        "VirtualFree",
                        "ExitProcess",
                        "VirtualProtect",
                        "LoadLibraryA",
                        "VirtualAlloc",
                        "GetProcAddress"
                    ],
                    "library_name": "KERNEL32.DLL"
                },
                {
                    "imported_functions": [
                        "PathFileExistsA"
                    ],
                    "library_name": "SHLWAPI.dll"
                },
                {
                    "imported_functions": [
                        "wsprintfA"
                    ],
                    "library_name": "USER32.dll"
                }
            ],
            "machine_type": 332,
            "overlay": {
                "entropy": 6.972290655295918,
                "filetype": "data",
                "md5": "b7a8dcfe3746b858ac99b28788f1ff3d",
                "offset": 43008,
                "size": 3868481
            },
            "sections": [
                {
                    "entropy": 0.0,
                    "md5": "d41d8cd98f00b204e9800998ecf8427e",
                    "name": "UPX0",
                    "raw_size": 0,
                    "virtual_address": 4096,
                    "virtual_size": 106496
                },
                {
                    "entropy": 7.97,
                    "md5": "f7aa81250ba37869900138a6b59a55ec",
                    "name": "UPX1",
                    "raw_size": 41472,
                    "virtual_address": 110592,
                    "virtual_size": 45056
                },
                {
                    "entropy": 2.93,
                    "md5": "acb8e418c691779c7059b0a8588cc9c4",
                    "name": "UPX2",
                    "raw_size": 512,
                    "virtual_address": 155648,
                    "virtual_size": 4096
                }
            ],
            "timestamp": 1422330987
        },
        "reputation": 0,
        "sha1": "033fae97bde8402ae8ca3ee31c63aad7a2037f98",
        "sha256": "00036a17e91ef25004f74c077f303736ca4c50b54e49abde82447cf0bfef7a68",
        "size": 3911489,
        "ssdeep": "49152:gCOfN6X5tLLQTg20ITS/PPs/1kS4eKRL/SRsj0Zuur1T75YqVUrmNF98K:U6XLq/qPPslzKx/dJg1ErmNb",
        "tags": [
            "peexe",
            "upx",
            "overlay"
        ],
        "times_submitted": 1,
        "total_votes": {
            "harmless": 0,
            "malicious": 0
        },
        "trid": [
            {
                "file_type": "Windows ActiveX control",
                "probability": 43.3
            },
            {
                "file_type": "InstallShield setup",
                "probability": 16.0
            },
            {
                "file_type": "Win64 Executable (generic)",
                "probability": 10.2
            },
            {
                "file_type": "UPX compressed Win32 Executable",
                "probability": 10.0
            },
            {
                "file_type": "Win32 EXE Yoda's Crypter",
                "probability": 9.8
            }
        ],
        "type_description": "Win32 EXE",
        "type_extension": "exe",
        "type_tag": "peexe",
        "unique_sources": 1,
        "vhash": "03603e0f7d1bz601hz11z1fz"
    },
    "id": "00036a17e91ef25004f74c077f303736ca4c50b54e49abde82447cf0bfef7a68",
    "links": {
        "self": "https://www.virustotal.com/api/v3/files/00036a17e91ef25004f74c077f303736ca4c50b54e49abde82447cf0bfef7a68"
    },
    "type": "file"
}