{
    "attributes": {
        "authentihash": "c73025a4df0e42348a8971638d23d2d97feb5d03e5009f272a6b6139477daf37",
        "creation_date": 1422330987,
        "first_submission_date": 1521655728,
        "last_analysis_date": 1521655728,
        "last_analysis_results": {
            "ALYac": {
                "category": "malicious",
                "engine_name": "ALYac",
                "engine_update": "20180321",
                "engine_version": "1.1.1.5",
                "method": "blacklist",
                "result": "Gen:Variant.Kazy.761138"
            },
            "AVG": {
                "category": "malicious",
                "engine_name": "AVG",
                "engine_update": "20180321",
                "engine_version": "18.2.3827.0",
                "method": "blacklist",
                "result": "Win32:Banker-NBH [Trj]"
            },
            "AVware": {
                "category": "malicious",
                "engine_name": "AVware",
                "engine_update": "20180321",
                "engine_version": "1.5.0.42",
                "method": "blacklist",
                "result": "Trojan.Win32.Upatre.jl (v)"
            },
            "Ad-Aware": {
                "category": "malicious",
                "engine_name": "Ad-Aware",
                "engine_update": "20180321",
                "engine_version": "3.0.3.1010",
                "method": "blacklist",
                "result": "Gen:Variant.Kazy.761138"
            },
            "AegisLab": {
                "category": "malicious",
                "engine_name": "AegisLab",
                "engine_update": "20180321",
                "engine_version": "4.2",
                "method": "blacklist",
                "result": "Troj.Dropper.W32.Dinwod.toVw"
            },
            "AhnLab-V3": {
                "category": "malicious",
                "engine_name": "AhnLab-V3",
                "engine_update": "20180321",
                "engine_version": "3.12.0.20130",
                "method": "blacklist",
                "result": "Trojan/Win32.OnlineGameHack.C33730"
            },
            "Alibaba": {
                "category": "type-unsupported",
                "engine_name": "Alibaba",
                "engine_update": "20180321",
                "engine_version": "1.0",
                "method": "blacklist",
                "result": null
            },
            "Antiy-AVL": {
                "category": "malicious",
                "engine_name": "Antiy-AVL",
                "engine_update": "20180321",
                "engine_version": "3.0.0.1",
                "method": "blacklist",
                "result": "Trojan[Dropper]/Win32.Dinwod"
            },
            "Arcabit": {
                "category": "malicious",
                "engine_name": "Arcabit",
                "engine_update": "20180321",
                "engine_version": "1.0.0.831",
                "method": "blacklist",
                "result": "Trojan.Kazy.DB9D32"
            },
            "Avast": {
                "category": "malicious",
                "engine_name": "Avast",
                "engine_update": "20180321",
                "engine_version": "18.2.3827.0",
                "method": "blacklist",
                "result": "Win32:Banker-NBH [Trj]"
            },
            "Avast-Mobile": {
                "category": "undetected",
                "engine_name": "Avast-Mobile",
                "engine_update": "20180321",
                "engine_version": "180321-04",
                "method": "blacklist",
                "result": null
            },
            "Avira": {
                "category": "malicious",
                "engine_name": "Avira",
                "engine_update": "20180321",
                "engine_version": "8.3.3.6",
                "method": "blacklist",
                "result": "TR/Spy.Gen"
            },
            "Baidu": {
                "category": "malicious",
                "engine_name": "Baidu",
                "engine_update": "20180321",
                "engine_version": "1.0.0.2",
                "method": "blacklist",
                "result": "Win32.Trojan.Agent.acb"
            },
            "BitDefender": {
                "category": "malicious",
                "engine_name": "BitDefender",
                "engine_update": "20180321",
                "engine_version": "7.2",
                "method": "blacklist",
                "result": "Gen:Variant.Kazy.761138"
            },
            "Bkav": {
                "category": "malicious",
                "engine_name": "Bkav",
                "engine_update": "20180321",
                "engine_version": "1.3.0.9466",
                "method": "blacklist",
                "result": "W32.FamVT.DinwoodAATTC.Worm"
            },
            "CAT-QuickHeal": {
                "category": "malicious",
                "engine_name": "CAT-QuickHeal",
                "engine_update": "20180321",
                "engine_version": "14.00",
                "method": "blacklist",
                "result": "Trojan.Zenshirsh.SL7"
            },
            "CMC": {
                "category": "undetected",
                "engine_name": "CMC",
                "engine_update": "20180321",
                "engine_version": "1.1.0.977",
                "method": "blacklist",
                "result": null
            },
            "ClamAV": {
                "category": "malicious",
                "engine_name": "ClamAV",
                "engine_update": "20180321",
                "engine_version": "0.99.2.0",
                "method": "blacklist",
                "result": "Win.Trojan.Agent-1388676"
            },
            "Comodo": {
                "category": "undetected",
                "engine_name": "Comodo",
                "engine_update": "20180321",
                "engine_version": null,
                "method": "blacklist",
                "result": null
            },
            "CrowdStrike": {
                "category": "malicious",
                "engine_name": "CrowdStrike",
                "engine_update": "20170201",
                "engine_version": "1.0",
                "method": "blacklist",
                "result": "malicious_confidence_100% (D)"
            },
            "Cybereason": {
                "category": "malicious",
                "engine_name": "Cybereason",
                "engine_update": "20180225",
                "engine_version": "1.2.27",
                "method": "blacklist",
                "result": "malicious.630b8c"
            },
            "Cylance": {
                "category": "malicious",
                "engine_name": "Cylance",
                "engine_update": "20180321",
                "engine_version": "2.3.1.101",
                "method": "blacklist",
                "result": "Unsafe"
            },
            "Cyren": {
                "category": "malicious",
                "engine_name": "Cyren",
                "engine_update": "20180321",
                "engine_version": "5.4.30.7",
                "method": "blacklist",
                "result": "W32/S-f9cb8831!Eldorado"
            },
            "DrWeb": {
                "category": "malicious",
                "engine_name": "DrWeb",
                "engine_update": "20180321",
                "engine_version": "7.0.28.2020",
                "method": "blacklist",
                "result": "Trojan.Inject1.58305"
            },
            "ESET-NOD32": {
                "category": "malicious",
                "engine_name": "ESET-NOD32",
                "engine_update": "20180321",
                "engine_version": "17093",
                "method": "blacklist",
                "result": "a variant of Win32/Agent.XFC"
            },
            "Emsisoft": {
                "category": "malicious",
                "engine_name": "Emsisoft",
                "engine_update": "20180321",
                "engine_version": "4.0.2.899",
                "method": "blacklist",
                "result": "Gen:Variant.Kazy.761138 (B)"
            },
            "Endgame": {
                "category": "malicious",
                "engine_name": "Endgame",
                "engine_update": "20180316",
                "engine_version": "2.0.5",
                "method": "blacklist",
                "result": "malicious (moderate confidence)"
            },
            "F-Prot": {
                "category": "malicious",
                "engine_name": "F-Prot",
                "engine_update": "20180321",
                "engine_version": "4.7.1.166",
                "method": "blacklist",
                "result": "W32/S-f9cb8831!Eldorado"
            },
            "F-Secure": {
                "category": "malicious",
                "engine_name": "F-Secure",
                "engine_update": "20180321",
                "engine_version": "11.0.19100.45",
                "method": "blacklist",
                "result": "Gen:Variant.Kazy.761138"
            },
            "Fortinet": {
                "category": "malicious",
                "engine_name": "Fortinet",
                "engine_update": "20180321",
                "engine_version": "5.4.247.0",
                "method": "blacklist",
                "result": "W32/Injector.BBYK!tr"
            },
            "GData": {
                "category": "malicious",
                "engine_name": "GData",
                "engine_update": "20180321",
                "engine_version": "A:25.16448B:25.11843",
                "method": "blacklist",
                "result": "Win32.Trojan.Agent.WP"
            },
            "Ikarus": {
                "category": "malicious",
                "engine_name": "Ikarus",
                "engine_update": "20180321",
                "engine_version": "0.1.5.2",
                "method": "blacklist",
                "result": "Trojan.Win32.Agent"
            },
            "Invincea": {
                "category": "malicious",
                "engine_name": "Invincea",
                "engine_update": "20180121",
                "engine_version": "6.3.4.26036",
                "method": "blacklist",
                "result": "heuristic"
            },
            "Jiangmin": {
                "category": "malicious",
                "engine_name": "Jiangmin",
                "engine_update": "20180321",
                "engine_version": "16.0.100",
                "method": "blacklist",
                "result": "TrojanDropper.Dinwod.ale"
            },
            "K7AntiVirus": {
                "category": "malicious",
                "engine_name": "K7AntiVirus",
                "engine_update": "20180321",
                "engine_version": "10.42.26567",
                "method": "blacklist",
                "result": "Trojan ( 000aef511 )"
            },
            "K7GW": {
                "category": "malicious",
                "engine_name": "K7GW",
                "engine_update": "20180321",
                "engine_version": "10.42.26568",
                "method": "blacklist",
                "result": "Trojan ( 000aef511 )"
            },
            "Kaspersky": {
                "category": "malicious",
                "engine_name": "Kaspersky",
                "engine_update": "20180321",
                "engine_version": "15.0.1.13",
                "method": "blacklist",
                "result": "Trojan-Dropper.Win32.Dinwod.acqn"
            },
            "Kingsoft": {
                "category": "undetected",
                "engine_name": "Kingsoft",
                "engine_update": "20180321",
                "engine_version": "2013.8.14.323",
                "method": "blacklist",
                "result": null
            },
            "MAX": {
                "category": "malicious",
                "engine_name": "MAX",
                "engine_update": "20180321",
                "engine_version": "2017.11.15.1",
                "method": "blacklist",
                "result": "malware (ai score=87)"
            },
            "Malwarebytes": {
                "category": "malicious",
                "engine_name": "Malwarebytes",
                "engine_update": "20180321",
                "engine_version": "2.1.1.1115",
                "method": "blacklist",
                "result": "Trojan.Dropper"
            },
            "McAfee": {
                "category": "malicious",
                "engine_name": "McAfee",
                "engine_update": "20180321",
                "engine_version": "6.0.6.653",
                "method": "blacklist",
                "result": "Dropper-FVF!B5370DD630B8"
            },
            "McAfee-GW-Edition": {
                "category": "malicious",
                "engine_name": "McAfee-GW-Edition",
                "engine_update": "20180321",
                "engine_version": "v2015",
                "method": "blacklist",
                "result": "BehavesLike.Win32.Dropper.ch"
            },
            "MicroWorld-eScan": {
                "category": "malicious",
                "engine_name": "MicroWorld-eScan",
                "engine_update": "20180321",
                "engine_version": "14.0.297.0",
                "method": "blacklist",
                "result": "Gen:Variant.Kazy.761138"
            },
            "Microsoft": {
                "category": "malicious",
                "engine_name": "Microsoft",
                "engine_update": "20180321",
                "engine_version": "1.1.14600.4",
                "method": "blacklist",
                "result": "TrojanDropper:Win32/Dinwod.B!bit"
            },
            "NANO-Antivirus": {
                "category": "malicious",
                "engine_name": "NANO-Antivirus",
                "engine_update": "20180321",
                "engine_version": "1.0.100.21498",
                "method": "blacklist",
                "result": "Trojan.Win32.Dinwod.ejafor"
            },
            "Paloalto": {
                "category": "undetected",
                "engine_name": "Paloalto",
                "engine_update": "20180321",
                "engine_version": "1.0",
                "method": "blacklist",
                "result": null
            },
            "Panda": {
                "category": "undetected",
                "engine_name": "Panda",
                "engine_update": "20180321",
                "engine_version": "4.6.4.2",
                "method": "blacklist",
                "result": null
            },
            "Qihoo-360": {
                "category": "malicious",
                "engine_name": "Qihoo-360",
                "engine_update": "20180321",
                "engine_version": "1.0.0.1120",
                "method": "blacklist",
                "result": "HEUR/QVM18.1.F981.Malware.Gen"
            },
            "Rising": {
                "category": "malicious",
                "engine_name": "Rising",
                "engine_update": "20180321",
                "engine_version": "25.0.0.1",
                "method": "blacklist",
                "result": "Trojan.Waski!1.A489 (CLASSIC)"
            },
            "SUPERAntiSpyware": {
                "category": "malicious",
                "engine_name": "SUPERAntiSpyware",
                "engine_update": "20180321",
                "engine_version": "5.6.0.1032",
                "method": "blacklist",
                "result": "Trojan.Agent/Gen-Dropper"
            },
            "SentinelOne": {
                "category": "malicious",
                "engine_name": "SentinelOne",
                "engine_update": "20180225",
                "engine_version": "1.0.15.206",
                "method": "blacklist",
                "result": "static engine - malicious"
            },
            "Sophos": {
                "category": "malicious",
                "engine_name": "Sophos",
                "engine_update": "20180321",
                "engine_version": "4.98.0",
                "method": "blacklist",
                "result": "Troj/Eydrop-A"
            },
            "Symantec": {
                "category": "malicious",
                "engine_name": "Symantec",
                "engine_update": "20180321",
                "engine_version": "1.5.0.0",
                "method": "blacklist",
                "result": "Trojan.Gen"
            },
            "SymantecMobileInsight": {
                "category": "type-unsupported",
                "engine_name": "SymantecMobileInsight",
                "engine_update": "20180311",
                "engine_version": "1.0.0.35_220",
                "method": "blacklist",
                "result": null
            },
            "Tencent": {
                "category": "undetected",
                "engine_name": "Tencent",
                "engine_update": "20180321",
                "engine_version": "1.0.0.1",
                "method": "blacklist",
                "result": null
            },
            "TheHacker": {
                "category": "malicious",
                "engine_name": "TheHacker",
                "engine_update": "20180319",
                "engine_version": "6.8.0.5.2551",
                "method": "blacklist",
                "result": "Trojan/Agent.xfc"
            },
            "TotalDefense": {
                "category": "malicious",
                "engine_name": "TotalDefense",
                "engine_update": "20180321",
                "engine_version": "37.1.62.1",
                "method": "blacklist",
                "result": "Win32/Oflwr.A!crypt"
            },
            "Trustlook": {
                "category": "type-unsupported",
                "engine_name": "Trustlook",
                "engine_update": "20180321",
                "engine_version": "2",
                "method": "blacklist",
                "result": null
            },
            "VBA32": {
                "category": "malicious",
                "engine_name": "VBA32",
                "engine_update": "20180321",
                "engine_version": "3.12.28.0",
                "method": "blacklist",
                "result": "Trojan.Inject"
            },
            "VIPRE": {
                "category": "malicious",
                "engine_name": "VIPRE",
                "engine_update": "20180321",
                "engine_version": "65424",
                "method": "blacklist",
                "result": "Trojan.Win32.Upatre.jl (v)"
            },
            "ViRobot": {
                "category": "malicious",
                "engine_name": "ViRobot",
                "engine_update": "20180321",
                "engine_version": "2014.3.20.0",
                "method": "blacklist",
                "result": "Trojan.Win32.Agent.69310"
            },
            "WhiteArmor": {
                "category": "malicious",
                "engine_name": "WhiteArmor",
                "engine_update": "20180223",
                "engine_version": null,
                "method": "blacklist",
                "result": "Malware.HighConfidence"
            },
            "Yandex": {
                "category": "malicious",
                "engine_name": "Yandex",
                "engine_update": "20180321",
                "engine_version": "5.5.1.3",
                "method": "blacklist",
                "result": "Trojan.DR.Dinwod!dCCk6/8cSJk"
            },
            "Zillya": {
                "category": "undetected",
                "engine_name": "Zillya",
                "engine_update": "20180321",
                "engine_version": "2.0.0.3517",
                "method": "blacklist",
                "result": null
            },
            "ZoneAlarm": {
                "category": "malicious",
                "engine_name": "ZoneAlarm",
                "engine_update": "20180321",
                "engine_version": "1.0",
                "method": "blacklist",
                "result": "Trojan-Dropper.Win32.Dinwod.acqn"
            },
            "Zoner": {
                "category": "undetected",
                "engine_name": "Zoner",
                "engine_update": "20180321",
                "engine_version": "1.0",
                "method": "blacklist",
                "result": null
            },
            "eGambit": {
                "category": "malicious",
                "engine_name": "eGambit",
                "engine_update": "20180321",
                "engine_version": "v4.3.5",
                "method": "blacklist",
                "result": "Unsafe.AI_Score_97%"
            },
            "nProtect": {
                "category": "undetected",
                "engine_name": "nProtect",
                "engine_update": "20180321",
                "engine_version": "2018-03-21.02",
                "method": "blacklist",
                "result": null
            }
        },
        "last_analysis_stats": {
            "confirmed-timeout": 0,
            "failure": 0,
            "harmless": 0,
            "malicious": 55,
            "suspicious": 0,
            "timeout": 0,
            "type-unsupported": 3,
            "undetected": 10
        },
        "last_modification_date": 1521656040,
        "last_submission_date": 1521655728,
        "magic": "PE32 executable for MS Windows (GUI) Intel 80386 32-bit",
        "md5": "b5370dd630b8c36fafdf86a9b926315b",
        "names": [
            "b5370dd630b8c36fafdf86a9b926315b"
        ],
        "packers": {
            "F-PROT": "UPX_LZMA",
            "PEiD": "UPX 2.93 [LZMA] -> Markus Oberhumer, Laszlo Molnar & John Reiser"
        },
        "pe_info": {
            "entry_point": 149056,
            "imphash": "406c785a6e2c6970c1e8ed62877e197b",
            "import_list": [
                {
                    "imported_functions": [
                        "atoi"
                    ],
                    "library_name": "MSVCRT.dll"
                },
                {
                    "imported_functions": [
                        "VirtualFree",
                        "ExitProcess",
                        "VirtualProtect",
                        "LoadLibraryA",
                        "VirtualAlloc",
                        "GetProcAddress"
                    ],
                    "library_name": "KERNEL32.DLL"
                },
                {
                    "imported_functions": [
                        "PathFileExistsA"
                    ],
                    "library_name": "SHLWAPI.dll"
                },
                {
                    "imported_functions": [
                        "wsprintfA"
                    ],
                    "library_name": "USER32.dll"
                }
            ],
            "machine_type": 332,
            "overlay": {
                "chi2": 1214274.875,
                "entropy": 5.718311309814453,
                "filetype": "data",
                "md5": "83aa37393f8a11246a88ce2440854941",
                "offset": 43008,
                "size": 110298
            },
            "sections": [
                {
                    "entropy": 0.0,
                    "md5": "d41d8cd98f00b204e9800998ecf8427e",
                    "name": "UPX0",
                    "raw_size": 0,
                    "virtual_address": 4096,
                    "virtual_size": 106496
                },
                {
                    "entropy": 7.97,
                    "md5": "f7aa81250ba37869900138a6b59a55ec",
                    "name": "UPX1",
                    "raw_size": 41472,
                    "virtual_address": 110592,
                    "virtual_size": 45056
                },
                {
                    "entropy": 2.93,
                    "md5": "acb8e418c691779c7059b0a8588cc9c4",
                    "name": "UPX2",
                    "raw_size": 512,
                    "virtual_address": 155648,
                    "virtual_size": 4096
                }
            ],
            "timestamp": 1422330987
        },
        "reputation": 0,
        "sha1": "8b4cee3e4413022cd5c8731d29c67674a6492c6b",
        "sha256": "00034afcd1dfcfd7b2e03218b9a32f0e889bebcaf46d77311ad31ab7c308e713",
        "size": 153306,
        "ssdeep": "3072:0hOmTsF93UYfwC6GIoutXEnkeBahPmSBPt7atF5BC:0cm4FmowdHoSet4hPhTSF5BC",
        "tags": [
            "peexe",
            "upx",
            "overlay"
        ],
        "times_submitted": 1,
        "total_votes": {
            "harmless": 0,
            "malicious": 0
        },
        "trid": [
            {
                "file_type": "Win64 Executable (generic)",
                "probability": 28.0
            },
            {
                "file_type": "UPX compressed Win32 Executable",
                "probability": 27.5
            },
            {
                "file_type": "Win32 EXE Yoda's Crypter",
                "probability": 27.0
            },
            {
                "file_type": "Win32 Dynamic Link Library (generic)",
                "probability": 6.6
            },
            {
                "file_type": "Win32 Executable (generic)",
                "probability": 4.5
            }
        ],
        "type_description": "Win32 EXE",
        "type_extension": "exe",
        "type_tag": "peexe",
        "unique_sources": 1,
        "vhash": "01503e0f7d1bz601hz11z1fz"
    },
    "id": "00034afcd1dfcfd7b2e03218b9a32f0e889bebcaf46d77311ad31ab7c308e713",
    "links": {
        "self": "https://www.virustotal.com/api/v3/files/00034afcd1dfcfd7b2e03218b9a32f0e889bebcaf46d77311ad31ab7c308e713"
    },
    "type": "file"
}