{
    "attributes": {
        "authentihash": "7cade49f0cd05de189306ec17ec83cd0ad1c8065455f709aef96d85575de3436",
        "creation_date": 644594027,
        "first_submission_date": 1518692406,
        "last_analysis_date": 1518692406,
        "last_analysis_results": {
            "ALYac": {
                "category": "malicious",
                "engine_name": "ALYac",
                "engine_update": "20180215",
                "engine_version": "1.1.1.5",
                "method": "blacklist",
                "result": "Win32.Worm.Allaple.Gen"
            },
            "AVG": {
                "category": "malicious",
                "engine_name": "AVG",
                "engine_update": "20180215",
                "engine_version": "18.1.3800.0",
                "method": "blacklist",
                "result": "Win32:Allaple [Wrm]"
            },
            "AVware": {
                "category": "malicious",
                "engine_name": "AVware",
                "engine_update": "20180215",
                "engine_version": "1.5.0.42",
                "method": "blacklist",
                "result": "Net-Worm.Win32.Allaple.gen (v)"
            },
            "Ad-Aware": {
                "category": "malicious",
                "engine_name": "Ad-Aware",
                "engine_update": "20180215",
                "engine_version": "3.0.3.1010",
                "method": "blacklist",
                "result": "Win32.Worm.Allaple.Gen"
            },
            "AegisLab": {
                "category": "malicious",
                "engine_name": "AegisLab",
                "engine_update": "20180215",
                "engine_version": "4.2",
                "method": "blacklist",
                "result": "W32.W.Allaple.mzIA"
            },
            "AhnLab-V3": {
                "category": "malicious",
                "engine_name": "AhnLab-V3",
                "engine_update": "20180214",
                "engine_version": "3.11.3.19504",
                "method": "blacklist",
                "result": "Win-Trojan/Starman.Gen"
            },
            "Alibaba": {
                "category": "type-unsupported",
                "engine_name": "Alibaba",
                "engine_update": "20180209",
                "engine_version": "1.0",
                "method": "blacklist",
                "result": null
            },
            "Antiy-AVL": {
                "category": "malicious",
                "engine_name": "Antiy-AVL",
                "engine_update": "20180215",
                "engine_version": "3.0.0.1",
                "method": "blacklist",
                "result": "Worm[Net]/Win32.Allaple.gen"
            },
            "Arcabit": {
                "category": "malicious",
                "engine_name": "Arcabit",
                "engine_update": "20180215",
                "engine_version": "1.0.0.830",
                "method": "blacklist",
                "result": "Win32.Worm.Allaple.Gen"
            },
            "Avast": {
                "category": "malicious",
                "engine_name": "Avast",
                "engine_update": "20180215",
                "engine_version": "18.1.3800.0",
                "method": "blacklist",
                "result": "Win32:Allaple [Wrm]"
            },
            "Avast-Mobile": {
                "category": "undetected",
                "engine_name": "Avast-Mobile",
                "engine_update": "20180215",
                "engine_version": "180215-00",
                "method": "blacklist",
                "result": null
            },
            "Avira": {
                "category": "malicious",
                "engine_name": "Avira",
                "engine_update": "20180215",
                "engine_version": "8.3.3.6",
                "method": "blacklist",
                "result": "WORM/Allaple.Gen"
            },
            "Baidu": {
                "category": "malicious",
                "engine_name": "Baidu",
                "engine_update": "20180208",
                "engine_version": "1.0.0.2",
                "method": "blacklist",
                "result": "Win32.Trojan.Kryptik.gf"
            },
            "BitDefender": {
                "category": "malicious",
                "engine_name": "BitDefender",
                "engine_update": "20180215",
                "engine_version": "7.2",
                "method": "blacklist",
                "result": "Win32.Worm.Allaple.Gen"
            },
            "Bkav": {
                "category": "malicious",
                "engine_name": "Bkav",
                "engine_update": "20180212",
                "engine_version": "1.3.0.9466",
                "method": "blacklist",
                "result": "W32.CrypticB.Trojan"
            },
            "CAT-QuickHeal": {
                "category": "malicious",
                "engine_name": "CAT-QuickHeal",
                "engine_update": "20180215",
                "engine_version": "14.00",
                "method": "blacklist",
                "result": "I-Worm.Allaple.gen"
            },
            "CMC": {
                "category": "malicious",
                "engine_name": "CMC",
                "engine_update": "20180215",
                "engine_version": "1.1.0.977",
                "method": "blacklist",
                "result": "Net-Worm.Win32.Allaple.1!O"
            },
            "ClamAV": {
                "category": "malicious",
                "engine_name": "ClamAV",
                "engine_update": "20180215",
                "engine_version": "0.99.2.0",
                "method": "blacklist",
                "result": "Win.Worm.Allaple-5"
            },
            "Comodo": {
                "category": "undetected",
                "engine_name": "Comodo",
                "engine_update": "20180215",
                "engine_version": null,
                "method": "blacklist",
                "result": null
            },
            "CrowdStrike": {
                "category": "malicious",
                "engine_name": "CrowdStrike",
                "engine_update": "20170201",
                "engine_version": "1.0",
                "method": "blacklist",
                "result": "malicious_confidence_100% (D)"
            },
            "Cybereason": {
                "category": "malicious",
                "engine_name": "Cybereason",
                "engine_update": "20180205",
                "engine_version": "1.2.27",
                "method": "blacklist",
                "result": "malicious.ffd13a"
            },
            "Cylance": {
                "category": "malicious",
                "engine_name": "Cylance",
                "engine_update": "20180215",
                "engine_version": "2.3.1.101",
                "method": "blacklist",
                "result": "Unsafe"
            },
            "Cyren": {
                "category": "malicious",
                "engine_name": "Cyren",
                "engine_update": "20180215",
                "engine_version": "5.4.30.7",
                "method": "blacklist",
                "result": "W32/Allaple.A.gen!Eldorado"
            },
            "DrWeb": {
                "category": "malicious",
                "engine_name": "DrWeb",
                "engine_update": "20180215",
                "engine_version": "7.0.28.2020",
                "method": "blacklist",
                "result": "Trojan.Starman.6712"
            },
            "ESET-NOD32": {
                "category": "malicious",
                "engine_name": "ESET-NOD32",
                "engine_update": "20180215",
                "engine_version": "16908",
                "method": "blacklist",
                "result": "a variant of Win32/Allaple.Gen"
            },
            "Emsisoft": {
                "category": "malicious",
                "engine_name": "Emsisoft",
                "engine_update": "20180215",
                "engine_version": "4.0.2.899",
                "method": "blacklist",
                "result": "Win32.Worm.Allaple.Gen (B)"
            },
            "Endgame": {
                "category": "malicious",
                "engine_name": "Endgame",
                "engine_update": "20180214",
                "engine_version": "1.2.0",
                "method": "blacklist",
                "result": "malicious (high confidence)"
            },
            "F-Prot": {
                "category": "malicious",
                "engine_name": "F-Prot",
                "engine_update": "20180215",
                "engine_version": "4.7.1.166",
                "method": "blacklist",
                "result": "W32/Allaple.A.gen!Eldorado"
            },
            "F-Secure": {
                "category": "undetected",
                "engine_name": "F-Secure",
                "engine_update": "20180213",
                "engine_version": "11.0.19100.45",
                "method": "blacklist",
                "result": null
            },
            "Fortinet": {
                "category": "malicious",
                "engine_name": "Fortinet",
                "engine_update": "20180215",
                "engine_version": "5.4.247.0",
                "method": "blacklist",
                "result": "W32/Allaple.gen!tr"
            },
            "GData": {
                "category": "malicious",
                "engine_name": "GData",
                "engine_update": "20180215",
                "engine_version": "A:25.16037B:25.11588",
                "method": "blacklist",
                "result": "Win32.Worm.Allaple.Gen"
            },
            "Ikarus": {
                "category": "malicious",
                "engine_name": "Ikarus",
                "engine_update": "20180215",
                "engine_version": "0.1.5.2",
                "method": "blacklist",
                "result": "Net-Worm.Win32.Allaple"
            },
            "Invincea": {
                "category": "malicious",
                "engine_name": "Invincea",
                "engine_update": "20180121",
                "engine_version": "6.3.4.26036",
                "method": "blacklist",
                "result": "heuristic"
            },
            "Jiangmin": {
                "category": "malicious",
                "engine_name": "Jiangmin",
                "engine_update": "20180215",
                "engine_version": "16.0.100",
                "method": "blacklist",
                "result": "Worm/Allaple.Gen"
            },
            "K7AntiVirus": {
                "category": "malicious",
                "engine_name": "K7AntiVirus",
                "engine_update": "20180215",
                "engine_version": "10.40.26219",
                "method": "blacklist",
                "result": "Backdoor ( 04c5273d1 )"
            },
            "K7GW": {
                "category": "malicious",
                "engine_name": "K7GW",
                "engine_update": "20180215",
                "engine_version": "10.40.26220",
                "method": "blacklist",
                "result": "Backdoor ( 04c5273d1 )"
            },
            "Kaspersky": {
                "category": "malicious",
                "engine_name": "Kaspersky",
                "engine_update": "20180215",
                "engine_version": "15.0.1.13",
                "method": "blacklist",
                "result": "Net-Worm.Win32.Allaple.a"
            },
            "Kingsoft": {
                "category": "malicious",
                "engine_name": "Kingsoft",
                "engine_update": "20180215",
                "engine_version": "2013.8.14.323",
                "method": "blacklist",
                "result": "Worm.AllApleT.cz.67868"
            },
            "MAX": {
                "category": "malicious",
                "engine_name": "MAX",
                "engine_update": "20180215",
                "engine_version": "2017.11.15.1",
                "method": "blacklist",
                "result": "malware (ai score=84)"
            },
            "Malwarebytes": {
                "category": "undetected",
                "engine_name": "Malwarebytes",
                "engine_update": "20180215",
                "engine_version": "2.1.1.1115",
                "method": "blacklist",
                "result": null
            },
            "McAfee": {
                "category": "malicious",
                "engine_name": "McAfee",
                "engine_update": "20180215",
                "engine_version": "6.0.6.653",
                "method": "blacklist",
                "result": "W32/RAHack"
            },
            "McAfee-GW-Edition": {
                "category": "malicious",
                "engine_name": "McAfee-GW-Edition",
                "engine_update": "20180215",
                "engine_version": "v2015",
                "method": "blacklist",
                "result": "BehavesLike.Win32.RAHack.lc"
            },
            "MicroWorld-eScan": {
                "category": "malicious",
                "engine_name": "MicroWorld-eScan",
                "engine_update": "20180215",
                "engine_version": "14.0.297.0",
                "method": "blacklist",
                "result": "Win32.Worm.Allaple.Gen"
            },
            "Microsoft": {
                "category": "malicious",
                "engine_name": "Microsoft",
                "engine_update": "20180215",
                "engine_version": "1.1.14500.5",
                "method": "blacklist",
                "result": "Worm:Win32/Allaple.A"
            },
            "NANO-Antivirus": {
                "category": "malicious",
                "engine_name": "NANO-Antivirus",
                "engine_update": "20180215",
                "engine_version": "1.0.100.21498",
                "method": "blacklist",
                "result": "Virus.Win32.Allaple.bkbmt"
            },
            "Paloalto": {
                "category": "malicious",
                "engine_name": "Paloalto",
                "engine_update": "20180215",
                "engine_version": "1.0",
                "method": "blacklist",
                "result": "generic.ml"
            },
            "Panda": {
                "category": "malicious",
                "engine_name": "Panda",
                "engine_update": "20180214",
                "engine_version": "4.6.4.2",
                "method": "blacklist",
                "result": "W32/Rahack.gen.worm"
            },
            "Qihoo-360": {
                "category": "malicious",
                "engine_name": "Qihoo-360",
                "engine_update": "20180215",
                "engine_version": "1.0.0.1120",
                "method": "blacklist",
                "result": "Worm.Win32.Allaple.X"
            },
            "Rising": {
                "category": "malicious",
                "engine_name": "Rising",
                "engine_update": "20180215",
                "engine_version": "25.0.0.1",
                "method": "blacklist",
                "result": "Worm.Allaple!1.AB29 (CLASSIC)"
            },
            "SUPERAntiSpyware": {
                "category": "undetected",
                "engine_name": "SUPERAntiSpyware",
                "engine_update": "20180215",
                "engine_version": "5.6.0.1032",
                "method": "blacklist",
                "result": null
            },
            "SentinelOne": {
                "category": "malicious",
                "engine_name": "SentinelOne",
                "engine_update": "20180115",
                "engine_version": "1.0.12.202",
                "method": "blacklist",
                "result": "static engine - malicious"
            },
            "Sophos": {
                "category": "malicious",
                "engine_name": "Sophos",
                "engine_update": "20180215",
                "engine_version": "4.98.0",
                "method": "blacklist",
                "result": "W32/Allaple-F"
            },
            "Symantec": {
                "category": "malicious",
                "engine_name": "Symantec",
                "engine_update": "20180215",
                "engine_version": "1.5.0.0",
                "method": "blacklist",
                "result": "W32.Rahack.H"
            },
            "SymantecMobileInsight": {
                "category": "type-unsupported",
                "engine_name": "SymantecMobileInsight",
                "engine_update": "20180215",
                "engine_version": "1.0.0.35_220",
                "method": "blacklist",
                "result": null
            },
            "Tencent": {
                "category": "malicious",
                "engine_name": "Tencent",
                "engine_update": "20180215",
                "engine_version": "1.0.0.1",
                "method": "blacklist",
                "result": "Worm.Win32.Allaple.e"
            },
            "TheHacker": {
                "category": "malicious",
                "engine_name": "TheHacker",
                "engine_update": "20180213",
                "engine_version": "6.8.0.5.2403",
                "method": "blacklist",
                "result": "W32/RAHack.gen"
            },
            "TotalDefense": {
                "category": "malicious",
                "engine_name": "TotalDefense",
                "engine_update": "20180215",
                "engine_version": "37.1.62.1",
                "method": "blacklist",
                "result": "Win32/Mallar"
            },
            "TrendMicro": {
                "category": "undetected",
                "engine_name": "TrendMicro",
                "engine_update": "20180215",
                "engine_version": "9.862.0.1074",
                "method": "blacklist",
                "result": null
            },
            "TrendMicro-HouseCall": {
                "category": "malicious",
                "engine_name": "TrendMicro-HouseCall",
                "engine_update": "20180215",
                "engine_version": "9.950.0.1006",
                "method": "blacklist",
                "result": "WORM_ALLAPLE.IK"
            },
            "Trustlook": {
                "category": "type-unsupported",
                "engine_name": "Trustlook",
                "engine_update": "20180215",
                "engine_version": "2",
                "method": "blacklist",
                "result": null
            },
            "VBA32": {
                "category": "malicious",
                "engine_name": "VBA32",
                "engine_update": "20180215",
                "engine_version": "3.12.28.0",
                "method": "blacklist",
                "result": "OScope.Malware-Cryptor.Win32.Allaple"
            },
            "VIPRE": {
                "category": "malicious",
                "engine_name": "VIPRE",
                "engine_update": "20180215",
                "engine_version": "64612",
                "method": "blacklist",
                "result": "Net-Worm.Win32.Allaple.gen (v)"
            },
            "ViRobot": {
                "category": "malicious",
                "engine_name": "ViRobot",
                "engine_update": "20180215",
                "engine_version": "2014.3.20.0",
                "method": "blacklist",
                "result": "Worm.Win32.Allaple.Gen"
            },
            "Webroot": {
                "category": "undetected",
                "engine_name": "Webroot",
                "engine_update": "20180215",
                "engine_version": "1.0.0.207",
                "method": "blacklist",
                "result": null
            },
            "WhiteArmor": {
                "category": "undetected",
                "engine_name": "WhiteArmor",
                "engine_update": "20180205",
                "engine_version": null,
                "method": "blacklist",
                "result": null
            },
            "Yandex": {
                "category": "malicious",
                "engine_name": "Yandex",
                "engine_update": "20180214",
                "engine_version": "5.5.1.3",
                "method": "blacklist",
                "result": "Worm.Allaple.Gen"
            },
            "ZoneAlarm": {
                "category": "malicious",
                "engine_name": "ZoneAlarm",
                "engine_update": "20180215",
                "engine_version": "1.0",
                "method": "blacklist",
                "result": "Net-Worm.Win32.Allaple.a"
            },
            "Zoner": {
                "category": "malicious",
                "engine_name": "Zoner",
                "engine_update": "20180215",
                "engine_version": "1.0",
                "method": "blacklist",
                "result": "I-Worm.Allaple"
            },
            "eGambit": {
                "category": "malicious",
                "engine_name": "eGambit",
                "engine_update": "20180215",
                "engine_version": "v4.3.4",
                "method": "blacklist",
                "result": "Unsafe.AI_Score_98%"
            },
            "nProtect": {
                "category": "malicious",
                "engine_name": "nProtect",
                "engine_update": "20180215",
                "engine_version": "2018-02-15.02",
                "method": "blacklist",
                "result": "Worm/W32.Allaple.Gen"
            }
        },
        "last_analysis_stats": {
            "confirmed-timeout": 0,
            "failure": 0,
            "harmless": 0,
            "malicious": 59,
            "suspicious": 0,
            "timeout": 0,
            "type-unsupported": 3,
            "undetected": 8
        },
        "last_modification_date": 1518693854,
        "last_submission_date": 1518692406,
        "magic": "PE32 executable for MS Windows (GUI) Intel 80386 32-bit",
        "md5": "07a8100ffd13aaa5411de94215f1d99c",
        "names": [
            "07a8100ffd13aaa5411de94215f1d99c"
        ],
        "packers": {
            "F-PROT": "Allaple_prot"
        },
        "pe_info": {
            "entry_point": 6033,
            "imphash": "5b48cce6696f0af84c70069f7ed6321c",
            "import_list": [
                {
                    "imported_functions": [
                        "GetConsoleSelectionInfo",
                        "GetNativeSystemInfo",
                        "WriteProfileStringA",
                        "MapViewOfFileEx",
                        "GetVersionExW",
                        "OpenFileMappingA",
                        "GetNlsSectionName",
                        "IsValidUILanguage",
                        "TlsAlloc",
                        "QueryInformationJobObject",
                        "InterlockedIncrement"
                    ],
                    "library_name": "KERNEL32.dll"
                }
            ],
            "machine_type": 332,
            "sections": [
                {
                    "entropy": 6.62,
                    "md5": "fe534d02e30ad52a3adb733bb65b1a94",
                    "name": ".text",
                    "raw_size": 13824,
                    "virtual_address": 4096,
                    "virtual_size": 13352
                },
                {
                    "entropy": 0.0,
                    "md5": "d41d8cd98f00b204e9800998ecf8427e",
                    "name": "rdata",
                    "raw_size": 0,
                    "virtual_address": 20480,
                    "virtual_size": 65536
                },
                {
                    "entropy": 8.0,
                    "md5": "400f101cbce3f200acefff6278f9286b",
                    "name": ".data",
                    "raw_size": 62464,
                    "virtual_address": 86016,
                    "virtual_size": 100352
                }
            ],
            "timestamp": 644594027
        },
        "reputation": 0,
        "sha1": "6db1e02f2878bb87e56ee5665837b88f83742931",
        "sha256": "0003ce7cce47b89abdf5545dde34b4400a8dddc79a3889e23d7751e814c50440",
        "size": 77312,
        "ssdeep": "1536:Rw87WUsQI5YjXE8oGMKd4trQtZgwRVPY4YgUZErWAaifaZLr37LwEGzKN:Rw87WUDI5aXNZ9d4M1YnFEyZ3373WKN",
        "tags": [
            "peexe"
        ],
        "times_submitted": 1,
        "total_votes": {
            "harmless": 0,
            "malicious": 0
        },
        "trid": [
            {
                "file_type": "Win32 Executable (generic)",
                "probability": 52.9
            },
            {
                "file_type": "Generic Win/DOS Executable",
                "probability": 23.5
            },
            {
                "file_type": "DOS Executable Generic",
                "probability": 23.5
            }
        ],
        "type_description": "Win32 EXE",
        "type_extension": "exe",
        "type_tag": "peexe",
        "unique_sources": 1,
        "vhash": "0740366c0f7bzb!z"
    },
    "id": "0003ce7cce47b89abdf5545dde34b4400a8dddc79a3889e23d7751e814c50440",
    "links": {
        "self": "https://www.virustotal.com/api/v3/files/0003ce7cce47b89abdf5545dde34b4400a8dddc79a3889e23d7751e814c50440"
    },
    "type": "file"
}