{
    "attributes": {
        "authentihash": "c6d21032751ffb619de0ab2bdd74dfd162cc95638566c38939f3672b23c6ea35",
        "creation_date": 1372843995,
        "first_submission_date": 1525445564,
        "last_analysis_date": 1525445564,
        "last_analysis_results": {
            "ALYac": {
                "category": "malicious",
                "engine_name": "ALYac",
                "engine_update": "20180504",
                "engine_version": "1.1.1.5",
                "method": "blacklist",
                "result": "Trojan.GenericKD.30694675"
            },
            "AVG": {
                "category": "malicious",
                "engine_name": "AVG",
                "engine_update": "20180504",
                "engine_version": "18.3.3860.0",
                "method": "blacklist",
                "result": "Win32:Malware-gen"
            },
            "AVware": {
                "category": "undetected",
                "engine_name": "AVware",
                "engine_update": "20180428",
                "engine_version": "1.5.0.42",
                "method": "blacklist",
                "result": null
            },
            "Ad-Aware": {
                "category": "malicious",
                "engine_name": "Ad-Aware",
                "engine_update": "20180504",
                "engine_version": "3.0.5.370",
                "method": "blacklist",
                "result": "Trojan.GenericKD.30694675"
            },
            "AegisLab": {
                "category": "malicious",
                "engine_name": "AegisLab",
                "engine_update": "20180504",
                "engine_version": "4.2",
                "method": "blacklist",
                "result": "Troj.W32.Gen.lXRx"
            },
            "AhnLab-V3": {
                "category": "undetected",
                "engine_name": "AhnLab-V3",
                "engine_update": "20180504",
                "engine_version": "3.12.1.20782",
                "method": "blacklist",
                "result": null
            },
            "Alibaba": {
                "category": "type-unsupported",
                "engine_name": "Alibaba",
                "engine_update": "20180503",
                "engine_version": "1.0",
                "method": "blacklist",
                "result": null
            },
            "Antiy-AVL": {
                "category": "malicious",
                "engine_name": "Antiy-AVL",
                "engine_update": "20180504",
                "engine_version": "3.0.0.1",
                "method": "blacklist",
                "result": "Trojan/Win32.Cosmu"
            },
            "Arcabit": {
                "category": "malicious",
                "engine_name": "Arcabit",
                "engine_update": "20180504",
                "engine_version": "1.0.0.831",
                "method": "blacklist",
                "result": "Trojan.Generic.D1D45D13"
            },
            "Avast": {
                "category": "malicious",
                "engine_name": "Avast",
                "engine_update": "20180504",
                "engine_version": "18.3.3860.0",
                "method": "blacklist",
                "result": "Win32:Malware-gen"
            },
            "Avast-Mobile": {
                "category": "undetected",
                "engine_name": "Avast-Mobile",
                "engine_update": "20180504",
                "engine_version": "180504-02",
                "method": "blacklist",
                "result": null
            },
            "Avira": {
                "category": "malicious",
                "engine_name": "Avira",
                "engine_update": "20180504",
                "engine_version": "8.3.3.6",
                "method": "blacklist",
                "result": "PUA/ICLoader.uzeg"
            },
            "Babable": {
                "category": "undetected",
                "engine_name": "Babable",
                "engine_update": "20180406",
                "engine_version": "9107201",
                "method": "blacklist",
                "result": null
            },
            "Baidu": {
                "category": "malicious",
                "engine_name": "Baidu",
                "engine_update": "20180503",
                "engine_version": "1.0.0.2",
                "method": "blacklist",
                "result": "Win32.Trojan.WisdomEyes.16070401.9500.9976"
            },
            "BitDefender": {
                "category": "malicious",
                "engine_name": "BitDefender",
                "engine_update": "20180504",
                "engine_version": "7.2",
                "method": "blacklist",
                "result": "Trojan.GenericKD.30694675"
            },
            "Bkav": {
                "category": "malicious",
                "engine_name": "Bkav",
                "engine_update": "20180504",
                "engine_version": "1.3.0.9466",
                "method": "blacklist",
                "result": "W32.LalaND.Worm"
            },
            "CAT-QuickHeal": {
                "category": "malicious",
                "engine_name": "CAT-QuickHeal",
                "engine_update": "20180504",
                "engine_version": "14.00",
                "method": "blacklist",
                "result": "W32.Morefi.A3"
            },
            "CMC": {
                "category": "undetected",
                "engine_name": "CMC",
                "engine_update": "20180504",
                "engine_version": "1.1.0.977",
                "method": "blacklist",
                "result": null
            },
            "ClamAV": {
                "category": "undetected",
                "engine_name": "ClamAV",
                "engine_update": "20180504",
                "engine_version": "0.99.2.0",
                "method": "blacklist",
                "result": null
            },
            "Comodo": {
                "category": "undetected",
                "engine_name": "Comodo",
                "engine_update": "20180504",
                "engine_version": null,
                "method": "blacklist",
                "result": null
            },
            "CrowdStrike": {
                "category": "malicious",
                "engine_name": "CrowdStrike",
                "engine_update": "20180418",
                "engine_version": "1.0",
                "method": "blacklist",
                "result": "malicious_confidence_100% (D)"
            },
            "Cybereason": {
                "category": "type-unsupported",
                "engine_name": "Cybereason",
                "engine_update": null,
                "engine_version": null,
                "method": "blacklist",
                "result": null
            },
            "Cylance": {
                "category": "malicious",
                "engine_name": "Cylance",
                "engine_update": "20180504",
                "engine_version": "2.3.1.101",
                "method": "blacklist",
                "result": "Unsafe"
            },
            "Cyren": {
                "category": "malicious",
                "engine_name": "Cyren",
                "engine_update": "20180504",
                "engine_version": "6.0.0.4",
                "method": "blacklist",
                "result": "W32/Viking.DN"
            },
            "DrWeb": {
                "category": "malicious",
                "engine_name": "DrWeb",
                "engine_update": "20180504",
                "engine_version": "7.0.28.2020",
                "method": "blacklist",
                "result": "Win32.HLLP.Memery.1"
            },
            "ESET-NOD32": {
                "category": "malicious",
                "engine_name": "ESET-NOD32",
                "engine_update": "20180504",
                "engine_version": "17331",
                "method": "blacklist",
                "result": "a variant of Win32/Memery.A"
            },
            "Emsisoft": {
                "category": "malicious",
                "engine_name": "Emsisoft",
                "engine_update": "20180504",
                "engine_version": "4.0.2.899",
                "method": "blacklist",
                "result": "Trojan.GenericKD.30694675 (B)"
            },
            "Endgame": {
                "category": "malicious",
                "engine_name": "Endgame",
                "engine_update": "20180504",
                "engine_version": "2.1.1",
                "method": "blacklist",
                "result": "malicious (high confidence)"
            },
            "F-Prot": {
                "category": "malicious",
                "engine_name": "F-Prot",
                "engine_update": "20180504",
                "engine_version": "4.7.1.166",
                "method": "blacklist",
                "result": "W32/Viking.DN"
            },
            "F-Secure": {
                "category": "malicious",
                "engine_name": "F-Secure",
                "engine_update": "20180504",
                "engine_version": "11.0.19100.45",
                "method": "blacklist",
                "result": "Trojan.GenericKD.30694675"
            },
            "Fortinet": {
                "category": "malicious",
                "engine_name": "Fortinet",
                "engine_update": "20180504",
                "engine_version": "5.4.247.0",
                "method": "blacklist",
                "result": "W32/Wordelloh.A"
            },
            "GData": {
                "category": "malicious",
                "engine_name": "GData",
                "engine_update": "20180504",
                "engine_version": "A:25.16934B:25.12183",
                "method": "blacklist",
                "result": "Trojan.GenericKD.30694675"
            },
            "Ikarus": {
                "category": "malicious",
                "engine_name": "Ikarus",
                "engine_update": "20180504",
                "engine_version": "0.1.5.2",
                "method": "blacklist",
                "result": "Gen.Win32.FileInfector"
            },
            "Invincea": {
                "category": "malicious",
                "engine_name": "Invincea",
                "engine_update": "20180503",
                "engine_version": "6.3.4.26036",
                "method": "blacklist",
                "result": "heuristic"
            },
            "Jiangmin": {
                "category": "malicious",
                "engine_name": "Jiangmin",
                "engine_update": "20180504",
                "engine_version": "16.0.100",
                "method": "blacklist",
                "result": "Worm/Generic.agid"
            },
            "K7AntiVirus": {
                "category": "malicious",
                "engine_name": "K7AntiVirus",
                "engine_update": "20180504",
                "engine_version": "10.45.27044",
                "method": "blacklist",
                "result": "Virus ( 0040f6101 )"
            },
            "K7GW": {
                "category": "malicious",
                "engine_name": "K7GW",
                "engine_update": "20180504",
                "engine_version": "10.45.27042",
                "method": "blacklist",
                "result": "Virus ( 0040f6101 )"
            },
            "Kaspersky": {
                "category": "malicious",
                "engine_name": "Kaspersky",
                "engine_update": "20180504",
                "engine_version": "15.0.1.13",
                "method": "blacklist",
                "result": "Virus.Win32.Lamer.kn"
            },
            "Kingsoft": {
                "category": "undetected",
                "engine_name": "Kingsoft",
                "engine_update": "20180504",
                "engine_version": "2013.8.14.323",
                "method": "blacklist",
                "result": null
            },
            "MAX": {
                "category": "malicious",
                "engine_name": "MAX",
                "engine_update": "20180504",
                "engine_version": "2017.11.15.1",
                "method": "blacklist",
                "result": "malware (ai score=80)"
            },
            "Malwarebytes": {
                "category": "undetected",
                "engine_name": "Malwarebytes",
                "engine_update": "20180504",
                "engine_version": "2.1.1.1115",
                "method": "blacklist",
                "result": null
            },
            "McAfee": {
                "category": "undetected",
                "engine_name": "McAfee",
                "engine_update": "20180504",
                "engine_version": "6.0.6.653",
                "method": "blacklist",
                "result": null
            },
            "McAfee-GW-Edition": {
                "category": "malicious",
                "engine_name": "McAfee-GW-Edition",
                "engine_update": "20180504",
                "engine_version": "v2017.2786",
                "method": "blacklist",
                "result": "BehavesLike.Win32.Sality.wh"
            },
            "MicroWorld-eScan": {
                "category": "malicious",
                "engine_name": "MicroWorld-eScan",
                "engine_update": "20180504",
                "engine_version": "14.0.297.0",
                "method": "blacklist",
                "result": "Trojan.GenericKD.30694675"
            },
            "Microsoft": {
                "category": "malicious",
                "engine_name": "Microsoft",
                "engine_update": "20180504",
                "engine_version": "1.1.14800.3",
                "method": "blacklist",
                "result": "Virus:Win32/Morefi.A"
            },
            "NANO-Antivirus": {
                "category": "malicious",
                "engine_name": "NANO-Antivirus",
                "engine_update": "20180504",
                "engine_version": "1.0.106.22618",
                "method": "blacklist",
                "result": "Trojan.Win32.Memery.bybqne"
            },
            "Paloalto": {
                "category": "undetected",
                "engine_name": "Paloalto",
                "engine_update": "20180504",
                "engine_version": "1.0",
                "method": "blacklist",
                "result": null
            },
            "Panda": {
                "category": "undetected",
                "engine_name": "Panda",
                "engine_update": "20180504",
                "engine_version": "4.6.4.2",
                "method": "blacklist",
                "result": null
            },
            "Qihoo-360": {
                "category": "malicious",
                "engine_name": "Qihoo-360",
                "engine_update": "20180504",
                "engine_version": "1.0.0.1120",
                "method": "blacklist",
                "result": "HEUR/QVM41.1.F103.Malware.Gen"
            },
            "Rising": {
                "category": "undetected",
                "engine_name": "Rising",
                "engine_update": "20180504",
                "engine_version": "25.0.0.1",
                "method": "blacklist",
                "result": null
            },
            "SUPERAntiSpyware": {
                "category": "undetected",
                "engine_name": "SUPERAntiSpyware",
                "engine_update": "20180504",
                "engine_version": "5.6.0.1032",
                "method": "blacklist",
                "result": null
            },
            "SentinelOne": {
                "category": "malicious",
                "engine_name": "SentinelOne",
                "engine_update": "20180225",
                "engine_version": "1.0.15.206",
                "method": "blacklist",
                "result": "static engine - malicious"
            },
            "Sophos": {
                "category": "malicious",
                "engine_name": "Sophos",
                "engine_update": "20180504",
                "engine_version": "4.98.0",
                "method": "blacklist",
                "result": "W32/Memery-A"
            },
            "Symantec": {
                "category": "malicious",
                "engine_name": "Symantec",
                "engine_update": "20180504",
                "engine_version": "1.5.0.0",
                "method": "blacklist",
                "result": "SMG.Heur!gen"
            },
            "SymantecMobileInsight": {
                "category": "type-unsupported",
                "engine_name": "SymantecMobileInsight",
                "engine_update": "20180501",
                "engine_version": "1.0.0.35_220",
                "method": "blacklist",
                "result": null
            },
            "Tencent": {
                "category": "malicious",
                "engine_name": "Tencent",
                "engine_update": "20180504",
                "engine_version": "1.0.0.1",
                "method": "blacklist",
                "result": "Virus.Win32.Lamer.pj"
            },
            "TheHacker": {
                "category": "undetected",
                "engine_name": "TheHacker",
                "engine_update": "20180504",
                "engine_version": "6.8.0.5.2767",
                "method": "blacklist",
                "result": null
            },
            "TotalDefense": {
                "category": "undetected",
                "engine_name": "TotalDefense",
                "engine_update": "20180504",
                "engine_version": "37.1.62.1",
                "method": "blacklist",
                "result": null
            },
            "TrendMicro": {
                "category": "malicious",
                "engine_name": "TrendMicro",
                "engine_update": "20180504",
                "engine_version": "10.0.0.1040",
                "method": "blacklist",
                "result": "PE_MOREFI.A"
            },
            "TrendMicro-HouseCall": {
                "category": "malicious",
                "engine_name": "TrendMicro-HouseCall",
                "engine_update": "20180504",
                "engine_version": "9.950.0.1006",
                "method": "blacklist",
                "result": "PE_MOREFI.A"
            },
            "Trustlook": {
                "category": "type-unsupported",
                "engine_name": "Trustlook",
                "engine_update": "20180504",
                "engine_version": "2",
                "method": "blacklist",
                "result": null
            },
            "VBA32": {
                "category": "malicious",
                "engine_name": "VBA32",
                "engine_update": "20180504",
                "engine_version": "3.12.28.0",
                "method": "blacklist",
                "result": "Virus.Memery"
            },
            "VIPRE": {
                "category": "undetected",
                "engine_name": "VIPRE",
                "engine_update": "20180504",
                "engine_version": "66434",
                "method": "blacklist",
                "result": null
            },
            "ViRobot": {
                "category": "undetected",
                "engine_name": "ViRobot",
                "engine_update": "20180504",
                "engine_version": "2014.3.20.0",
                "method": "blacklist",
                "result": null
            },
            "Webroot": {
                "category": "malicious",
                "engine_name": "Webroot",
                "engine_update": "20180504",
                "engine_version": "1.0.0.403",
                "method": "blacklist",
                "result": "W32.Infector"
            },
            "Yandex": {
                "category": "undetected",
                "engine_name": "Yandex",
                "engine_update": "20180504",
                "engine_version": "5.5.1.3",
                "method": "blacklist",
                "result": null
            },
            "Zillya": {
                "category": "malicious",
                "engine_name": "Zillya",
                "engine_update": "20180504",
                "engine_version": "2.0.0.3549",
                "method": "blacklist",
                "result": "Trojan.Zapchast.Win32.125866"
            },
            "ZoneAlarm": {
                "category": "malicious",
                "engine_name": "ZoneAlarm",
                "engine_update": "20180504",
                "engine_version": "1.0",
                "method": "blacklist",
                "result": "Virus.Win32.Lamer.kn"
            },
            "Zoner": {
                "category": "undetected",
                "engine_name": "Zoner",
                "engine_update": "20180503",
                "engine_version": "1.0",
                "method": "blacklist",
                "result": null
            },
            "eGambit": {
                "category": "malicious",
                "engine_name": "eGambit",
                "engine_update": "20180504",
                "engine_version": "v4.3.5",
                "method": "blacklist",
                "result": "Unsafe.AI_Score_52%"
            },
            "nProtect": {
                "category": "undetected",
                "engine_name": "nProtect",
                "engine_update": "20180504",
                "engine_version": "2018-05-04.04",
                "method": "blacklist",
                "result": null
            }
        },
        "last_analysis_stats": {
            "confirmed-timeout": 0,
            "failure": 0,
            "harmless": 0,
            "malicious": 46,
            "suspicious": 0,
            "timeout": 0,
            "type-unsupported": 4,
            "undetected": 21
        },
        "last_modification_date": 1525464049,
        "last_submission_date": 1525445564,
        "magic": "PE32 executable for MS Windows (console) Intel 80386 32-bit",
        "md5": "53772f11689f1b6062cc4ff6647baf39",
        "meaningful_name": "0003be93516c5c34_procmon.exe",
        "names": [
            "0003be93516c5c34_procmon.exe"
        ],
        "pe_info": {
            "entry_point": 7512,
            "imphash": "4eb74da984c1782f3400d02f16f3250d",
            "import_list": [
                {
                    "imported_functions": [
                        "GetLastError",
                        "HeapFree",
                        "GetStdHandle",
                        "LCMapStringW",
                        "SetHandleCount",
                        "GetOEMCP",
                        "LCMapStringA",
                        "HeapDestroy",
                        "HeapAlloc",
                        "FlushFileBuffers",
                        "GetEnvironmentStringsW",
                        "GetVersionExA",
                        "GetModuleFileNameA",
                        "RtlUnwind",
                        "LoadLibraryA",
                        "FreeEnvironmentStringsA",
                        "GetCurrentProcess",
                        "GetEnvironmentStrings",
                        "GetCPInfo",
                        "UnhandledExceptionFilter",
                        "MultiByteToWideChar",
                        "FreeEnvironmentStringsW",
                        "GetCommandLineA",
                        "GetProcAddress",
                        "SetStdHandle",
                        "SetFilePointer",
                        "WideCharToMultiByte",
                        "GetStringTypeA",
                        "GetModuleHandleA",
                        "ReadFile",
                        "WriteFile",
                        "GetStartupInfoA",
                        "FindFirstFileA",
                        "FindNextFileA",
                        "GetACP",
                        "HeapReAlloc",
                        "GetStringTypeW",
                        "TerminateProcess",
                        "GetLogicalDriveStringsA",
                        "GetEnvironmentVariableA",
                        "HeapCreate",
                        "VirtualFree",
                        "FindClose",
                        "Sleep",
                        "GetFileType",
                        "SetEndOfFile",
                        "CreateFileA",
                        "ExitProcess",
                        "GetVersion",
                        "VirtualAlloc",
                        "CloseHandle"
                    ],
                    "library_name": "KERNEL32.DLL"
                }
            ],
            "machine_type": 332,
            "overlay": {
                "chi2": 54929244.0,
                "entropy": 6.285727500915527,
                "filetype": "application/x-ms-dos-executable",
                "md5": "91c02f4c2c994247675e96d4c604637b",
                "offset": 49664,
                "size": 4060205
            },
            "sections": [
                {
                    "entropy": 6.05,
                    "md5": "d90c36b223be6ec669474c28b41333b0",
                    "name": "UPX0",
                    "raw_size": 29696,
                    "virtual_address": 4096,
                    "virtual_size": 32768
                },
                {
                    "entropy": 3.03,
                    "md5": "86d88a2e8611be3fc3d8878efcc50a31",
                    "name": "UPX1",
                    "raw_size": 17408,
                    "virtual_address": 36864,
                    "virtual_size": 20480
                },
                {
                    "entropy": 1.66,
                    "md5": "8580a49654230f68fc284c6006ff79bf",
                    "name": "UPX2",
                    "raw_size": 512,
                    "virtual_address": 57344,
                    "virtual_size": 4096
                },
                {
                    "entropy": 4.16,
                    "md5": "64e0bff780c364b66fec81cc13a0f4d1",
                    "name": ".imports",
                    "raw_size": 1024,
                    "virtual_address": 61440,
                    "virtual_size": 4096
                }
            ],
            "timestamp": 1372843995
        },
        "reputation": 0,
        "sha1": "392ef568a117a96c722f9cf73dc99b1a46f11314",
        "sha256": "0003be93516c5c34d299ac5d9c54ee3868c9c12a9f34b41c3f0417941b37ba0e",
        "size": 4109869,
        "ssdeep": "98304:CjFTedz4T8WmMrm1RF4XiQHkmy1y3JyZR:wT0z4TByHFdQHpEy3JyZR",
        "tags": [
            "peexe",
            "overlay"
        ],
        "times_submitted": 1,
        "total_votes": {
            "harmless": 0,
            "malicious": 0
        },
        "trid": [
            {
                "file_type": "Windows ActiveX control",
                "probability": 38.5
            },
            {
                "file_type": "InstallShield setup",
                "probability": 14.2
            },
            {
                "file_type": "Win32 Executable MS Visual C++ (generic)",
                "probability": 10.3
            },
            {
                "file_type": "Win64 Executable (generic)",
                "probability": 9.1
            },
            {
                "file_type": "UPX compressed Win32 Executable",
                "probability": 8.9
            }
        ],
        "type_description": "Win32 EXE",
        "type_extension": "exe",
        "type_tag": "peexe",
        "unique_sources": 1,
        "vhash": "04604e6f1d1d1az33!z"
    },
    "id": "0003be93516c5c34d299ac5d9c54ee3868c9c12a9f34b41c3f0417941b37ba0e",
    "links": {
        "self": "https://www.virustotal.com/api/v3/files/0003be93516c5c34d299ac5d9c54ee3868c9c12a9f34b41c3f0417941b37ba0e"
    },
    "type": "file"
}