{
    "attributes": {
        "authentihash": "cce998293fb38df2e8094cea4edd360f49b3df52ef287896a98cd839d6e9f873",
        "creation_date": 1094982929,
        "first_submission_date": 1511330177,
        "last_analysis_date": 1513915009,
        "last_analysis_results": {
            "ALYac": {
                "category": "undetected",
                "engine_name": "ALYac",
                "engine_update": "20171222",
                "engine_version": "1.1.1.3",
                "method": "blacklist",
                "result": null
            },
            "AVG": {
                "category": "malicious",
                "engine_name": "AVG",
                "engine_update": "20171222",
                "engine_version": "17.8.3705.0",
                "method": "blacklist",
                "result": "Win32:Vitro"
            },
            "AVware": {
                "category": "malicious",
                "engine_name": "AVware",
                "engine_update": "20171222",
                "engine_version": "1.5.0.42",
                "method": "blacklist",
                "result": "Virus.Win32.Shodi.i (v)"
            },
            "Ad-Aware": {
                "category": "malicious",
                "engine_name": "Ad-Aware",
                "engine_update": "20171222",
                "engine_version": "3.0.3.1010",
                "method": "blacklist",
                "result": "Gen:Trojan.Heur.3mZ@rnB9GajGu"
            },
            "AegisLab": {
                "category": "malicious",
                "engine_name": "AegisLab",
                "engine_update": "20171222",
                "engine_version": "4.2",
                "method": "blacklist",
                "result": "W32.Virut.kYPu"
            },
            "AhnLab-V3": {
                "category": "malicious",
                "engine_name": "AhnLab-V3",
                "engine_update": "20171221",
                "engine_version": "3.11.3.19504",
                "method": "blacklist",
                "result": "Win32/Shoudi.B"
            },
            "Alibaba": {
                "category": "type-unsupported",
                "engine_name": "Alibaba",
                "engine_update": "20171222",
                "engine_version": "1.0",
                "method": "blacklist",
                "result": null
            },
            "Antiy-AVL": {
                "category": "malicious",
                "engine_name": "Antiy-AVL",
                "engine_update": "20171222",
                "engine_version": "3.0.0.1",
                "method": "blacklist",
                "result": "Virus/Win32.Virut.ce"
            },
            "Arcabit": {
                "category": "malicious",
                "engine_name": "Arcabit",
                "engine_update": "20171222",
                "engine_version": "1.0.0.827",
                "method": "blacklist",
                "result": "Trojan.Heur.E040E5"
            },
            "Avast": {
                "category": "malicious",
                "engine_name": "Avast",
                "engine_update": "20171222",
                "engine_version": "17.8.3705.0",
                "method": "blacklist",
                "result": "Win32:Vitro"
            },
            "Avast-Mobile": {
                "category": "undetected",
                "engine_name": "Avast-Mobile",
                "engine_update": "20171221",
                "engine_version": "171221-02",
                "method": "blacklist",
                "result": null
            },
            "Avira": {
                "category": "malicious",
                "engine_name": "Avira",
                "engine_update": "20171221",
                "engine_version": "8.3.3.6",
                "method": "blacklist",
                "result": "W32/Virut.Gen"
            },
            "Baidu": {
                "category": "malicious",
                "engine_name": "Baidu",
                "engine_update": "20171221",
                "engine_version": "1.0.0.2",
                "method": "blacklist",
                "result": "Win32.Virus.Virut.e"
            },
            "BitDefender": {
                "category": "malicious",
                "engine_name": "BitDefender",
                "engine_update": "20171222",
                "engine_version": "7.2",
                "method": "blacklist",
                "result": "Gen:Trojan.Heur.3mZ@rnB9GajGu"
            },
            "Bkav": {
                "category": "undetected",
                "engine_name": "Bkav",
                "engine_update": "20171221",
                "engine_version": "1.3.0.9410",
                "method": "blacklist",
                "result": null
            },
            "CAT-QuickHeal": {
                "category": "malicious",
                "engine_name": "CAT-QuickHeal",
                "engine_update": "20171221",
                "engine_version": "14.00",
                "method": "blacklist",
                "result": "Trojan.Mauvaise.SL1"
            },
            "CMC": {
                "category": "undetected",
                "engine_name": "CMC",
                "engine_update": "20171221",
                "engine_version": "1.1.0.977",
                "method": "blacklist",
                "result": null
            },
            "ClamAV": {
                "category": "malicious",
                "engine_name": "ClamAV",
                "engine_update": "20171221",
                "engine_version": "0.99.2.0",
                "method": "blacklist",
                "result": "Win.Trojan.Shohdi-6136104-0"
            },
            "Comodo": {
                "category": "malicious",
                "engine_name": "Comodo",
                "engine_update": "20171222",
                "engine_version": "28212",
                "method": "blacklist",
                "result": "Virus.Win32.Shodi.B"
            },
            "CrowdStrike": {
                "category": "malicious",
                "engine_name": "CrowdStrike",
                "engine_update": "20171016",
                "engine_version": "1.0",
                "method": "blacklist",
                "result": "malicious_confidence_100% (W)"
            },
            "Cybereason": {
                "category": "malicious",
                "engine_name": "Cybereason",
                "engine_update": "20171103",
                "engine_version": "0.0.914",
                "method": "blacklist",
                "result": "malicious.1b8fb7"
            },
            "Cylance": {
                "category": "malicious",
                "engine_name": "Cylance",
                "engine_update": "20171222",
                "engine_version": "2.3.1.101",
                "method": "blacklist",
                "result": "Unsafe"
            },
            "Cyren": {
                "category": "malicious",
                "engine_name": "Cyren",
                "engine_update": "20171222",
                "engine_version": "5.4.30.7",
                "method": "blacklist",
                "result": "W32/Zbot.AW.gen!Eldorado"
            },
            "DrWeb": {
                "category": "malicious",
                "engine_name": "DrWeb",
                "engine_update": "20171222",
                "engine_version": "7.0.28.2020",
                "method": "blacklist",
                "result": "Win32.HLLP.Shohdi"
            },
            "ESET-NOD32": {
                "category": "malicious",
                "engine_name": "ESET-NOD32",
                "engine_update": "20171222",
                "engine_version": "16613",
                "method": "blacklist",
                "result": "Win32/Virut.NHA"
            },
            "Emsisoft": {
                "category": "malicious",
                "engine_name": "Emsisoft",
                "engine_update": "20171222",
                "engine_version": "4.0.2.899",
                "method": "blacklist",
                "result": "Gen:Trojan.Heur.3mZ@rnB9GajGu (B)"
            },
            "Endgame": {
                "category": "malicious",
                "engine_name": "Endgame",
                "engine_update": "20171130",
                "engine_version": "1.1.4",
                "method": "blacklist",
                "result": "malicious (high confidence)"
            },
            "F-Prot": {
                "category": "malicious",
                "engine_name": "F-Prot",
                "engine_update": "20171222",
                "engine_version": "4.7.1.166",
                "method": "blacklist",
                "result": "W32/Zbot.AW.gen!Eldorado"
            },
            "F-Secure": {
                "category": "malicious",
                "engine_name": "F-Secure",
                "engine_update": "20171222",
                "engine_version": "11.0.19100.45",
                "method": "blacklist",
                "result": "Gen:Trojan.Heur.3mZ@rnB9GajGu"
            },
            "Fortinet": {
                "category": "malicious",
                "engine_name": "Fortinet",
                "engine_update": "20171222",
                "engine_version": "5.4.247.0",
                "method": "blacklist",
                "result": "W32/Hupigon.NCU"
            },
            "GData": {
                "category": "malicious",
                "engine_name": "GData",
                "engine_update": "20171222",
                "engine_version": "A:25.15297B:25.11170",
                "method": "blacklist",
                "result": "Gen:Trojan.Heur.3mZ@rnB9GajGu"
            },
            "Ikarus": {
                "category": "malicious",
                "engine_name": "Ikarus",
                "engine_update": "20171221",
                "engine_version": "0.1.5.2",
                "method": "blacklist",
                "result": "Virus.Win32.DelfInject"
            },
            "Invincea": {
                "category": "malicious",
                "engine_name": "Invincea",
                "engine_update": "20170914",
                "engine_version": "6.3.1.25473",
                "method": "blacklist",
                "result": "heuristic"
            },
            "Jiangmin": {
                "category": "malicious",
                "engine_name": "Jiangmin",
                "engine_update": "20171221",
                "engine_version": "16.0.100",
                "method": "blacklist",
                "result": "Trojan.Generic.arrqo"
            },
            "K7AntiVirus": {
                "category": "malicious",
                "engine_name": "K7AntiVirus",
                "engine_update": "20171221",
                "engine_version": "10.35.25641",
                "method": "blacklist",
                "result": "Virus ( 0050b8571 )"
            },
            "K7GW": {
                "category": "malicious",
                "engine_name": "K7GW",
                "engine_update": "20171221",
                "engine_version": "10.35.25641",
                "method": "blacklist",
                "result": "Virus ( 0050b8571 )"
            },
            "Kaspersky": {
                "category": "malicious",
                "engine_name": "Kaspersky",
                "engine_update": "20171222",
                "engine_version": "15.0.1.13",
                "method": "blacklist",
                "result": "Virus.Win32.Virut.ce"
            },
            "Kingsoft": {
                "category": "undetected",
                "engine_name": "Kingsoft",
                "engine_update": "20171222",
                "engine_version": "2013.8.14.323",
                "method": "blacklist",
                "result": null
            },
            "MAX": {
                "category": "malicious",
                "engine_name": "MAX",
                "engine_update": "20171222",
                "engine_version": "2017.11.15.1",
                "method": "blacklist",
                "result": "malware (ai score=100)"
            },
            "Malwarebytes": {
                "category": "undetected",
                "engine_name": "Malwarebytes",
                "engine_update": "20171222",
                "engine_version": "2.1.1.1115",
                "method": "blacklist",
                "result": null
            },
            "McAfee": {
                "category": "malicious",
                "engine_name": "McAfee",
                "engine_update": "20171222",
                "engine_version": "6.0.6.653",
                "method": "blacklist",
                "result": "W32/Virut.n.gen"
            },
            "McAfee-GW-Edition": {
                "category": "malicious",
                "engine_name": "McAfee-GW-Edition",
                "engine_update": "20171222",
                "engine_version": "v2015",
                "method": "blacklist",
                "result": "BehavesLike.Win32.Virut.ch"
            },
            "MicroWorld-eScan": {
                "category": "malicious",
                "engine_name": "MicroWorld-eScan",
                "engine_update": "20171222",
                "engine_version": "14.0.297.0",
                "method": "blacklist",
                "result": "Gen:Trojan.Heur.3mZ@rnB9GajGu"
            },
            "Microsoft": {
                "category": "malicious",
                "engine_name": "Microsoft",
                "engine_update": "20171222",
                "engine_version": "1.1.14405.2",
                "method": "blacklist",
                "result": "Virus:Win32/Shodi.I"
            },
            "NANO-Antivirus": {
                "category": "malicious",
                "engine_name": "NANO-Antivirus",
                "engine_update": "20171222",
                "engine_version": "1.0.100.20834",
                "method": "blacklist",
                "result": "Trojan.Win32.Shohdi.elnkal"
            },
            "Paloalto": {
                "category": "malicious",
                "engine_name": "Paloalto",
                "engine_update": "20171222",
                "engine_version": "1.0",
                "method": "blacklist",
                "result": "generic.ml"
            },
            "Panda": {
                "category": "malicious",
                "engine_name": "Panda",
                "engine_update": "20171221",
                "engine_version": "4.6.4.2",
                "method": "blacklist",
                "result": "Trj/Genetic.gen"
            },
            "Qihoo-360": {
                "category": "malicious",
                "engine_name": "Qihoo-360",
                "engine_update": "20171222",
                "engine_version": "1.0.0.1120",
                "method": "blacklist",
                "result": "Win32/Virus.Shohdi.A"
            },
            "Rising": {
                "category": "malicious",
                "engine_name": "Rising",
                "engine_update": "20171222",
                "engine_version": "25.0.0.1",
                "method": "blacklist",
                "result": "Virus.Shodi!1.9B9C (CLASSIC)"
            },
            "SUPERAntiSpyware": {
                "category": "undetected",
                "engine_name": "SUPERAntiSpyware",
                "engine_update": "20171222",
                "engine_version": "5.6.0.1032",
                "method": "blacklist",
                "result": null
            },
            "SentinelOne": {
                "category": "malicious",
                "engine_name": "SentinelOne",
                "engine_update": "20171207",
                "engine_version": "1.0.10.199",
                "method": "blacklist",
                "result": "static engine - malicious"
            },
            "Sophos": {
                "category": "malicious",
                "engine_name": "Sophos",
                "engine_update": "20171222",
                "engine_version": "4.98.0",
                "method": "blacklist",
                "result": "W32/Shodi-I"
            },
            "Symantec": {
                "category": "malicious",
                "engine_name": "Symantec",
                "engine_update": "20171222",
                "engine_version": "1.5.0.0",
                "method": "blacklist",
                "result": "Trojan.Gen.6"
            },
            "SymantecMobileInsight": {
                "category": "type-unsupported",
                "engine_name": "SymantecMobileInsight",
                "engine_update": "20171222",
                "engine_version": "1.0.0.35_220",
                "method": "blacklist",
                "result": null
            },
            "Tencent": {
                "category": "malicious",
                "engine_name": "Tencent",
                "engine_update": "20171222",
                "engine_version": "1.0.0.1",
                "method": "blacklist",
                "result": "Win32.Virus.Virut.Wxia"
            },
            "TheHacker": {
                "category": "undetected",
                "engine_name": "TheHacker",
                "engine_update": "20171219",
                "engine_version": "6.8.0.5.2221",
                "method": "blacklist",
                "result": null
            },
            "TotalDefense": {
                "category": "malicious",
                "engine_name": "TotalDefense",
                "engine_update": "20171221",
                "engine_version": "37.1.62.1",
                "method": "blacklist",
                "result": "Win32/Virut.17408"
            },
            "TrendMicro": {
                "category": "malicious",
                "engine_name": "TrendMicro",
                "engine_update": "20171222",
                "engine_version": "9.862.0.1074",
                "method": "blacklist",
                "result": "TROJ_OBFUSCATOR_GC140262.UVPM"
            },
            "TrendMicro-HouseCall": {
                "category": "malicious",
                "engine_name": "TrendMicro-HouseCall",
                "engine_update": "20171222",
                "engine_version": "9.950.0.1006",
                "method": "blacklist",
                "result": "TROJ_OBFUSCATOR_GC140262.UVPM"
            },
            "Trustlook": {
                "category": "type-unsupported",
                "engine_name": "Trustlook",
                "engine_update": "20171222",
                "engine_version": "2",
                "method": "blacklist",
                "result": null
            },
            "VBA32": {
                "category": "malicious",
                "engine_name": "VBA32",
                "engine_update": "20171219",
                "engine_version": "3.12.26.6 usb",
                "method": "blacklist",
                "result": "Virus.Virut.02"
            },
            "VIPRE": {
                "category": "malicious",
                "engine_name": "VIPRE",
                "engine_update": "20171222",
                "engine_version": "63316",
                "method": "blacklist",
                "result": "Virus.Win32.Shodi.i (v)"
            },
            "ViRobot": {
                "category": "undetected",
                "engine_name": "ViRobot",
                "engine_update": "20171222",
                "engine_version": "2014.3.20.0",
                "method": "blacklist",
                "result": null
            },
            "Webroot": {
                "category": "malicious",
                "engine_name": "Webroot",
                "engine_update": "20171222",
                "engine_version": "1.0.0.207",
                "method": "blacklist",
                "result": "W32.Infector.Virut.Gen"
            },
            "WhiteArmor": {
                "category": "malicious",
                "engine_name": "WhiteArmor",
                "engine_update": "20171204",
                "engine_version": null,
                "method": "blacklist",
                "result": "Malware.HighConfidence"
            },
            "Yandex": {
                "category": "malicious",
                "engine_name": "Yandex",
                "engine_update": "20171221",
                "engine_version": "5.5.1.3",
                "method": "blacklist",
                "result": "Win32.Virut.AB.Gen"
            },
            "Zillya": {
                "category": "malicious",
                "engine_name": "Zillya",
                "engine_update": "20171221",
                "engine_version": "2.0.0.3452",
                "method": "blacklist",
                "result": "Adware.1ClickDownload.Win32.881"
            },
            "ZoneAlarm": {
                "category": "malicious",
                "engine_name": "ZoneAlarm",
                "engine_update": "20171222",
                "engine_version": "1.0",
                "method": "blacklist",
                "result": "Virus.Win32.Virut.ce"
            },
            "Zoner": {
                "category": "undetected",
                "engine_name": "Zoner",
                "engine_update": "20171222",
                "engine_version": "1.0",
                "method": "blacklist",
                "result": null
            },
            "eGambit": {
                "category": "undetected",
                "engine_name": "eGambit",
                "engine_update": "20171222",
                "engine_version": "v4.2.7",
                "method": "blacklist",
                "result": null
            },
            "nProtect": {
                "category": "undetected",
                "engine_name": "nProtect",
                "engine_update": "20171222",
                "engine_version": "2017-12-22.01",
                "method": "blacklist",
                "result": null
            }
        },
        "last_analysis_stats": {
            "confirmed-timeout": 0,
            "failure": 0,
            "harmless": 0,
            "malicious": 56,
            "suspicious": 0,
            "timeout": 0,
            "type-unsupported": 3,
            "undetected": 12
        },
        "last_modification_date": 1513915058,
        "last_submission_date": 1511330177,
        "magic": "PE32 executable for MS Windows (GUI) Intel 80386 32-bit",
        "md5": "dfec357feb664dde1ef61415c73b7689",
        "meaningful_name": "dfec357feb664dde1ef61415c73b7689.virus",
        "names": [
            "dfec357feb664dde1ef61415c73b7689.virus"
        ],
        "pe_info": {
            "entry_point": 10035,
            "imphash": "4e1811b18ce23e363f80351a3925bdae",
            "import_list": [
                {
                    "imported_functions": [
                        "??1ios@@UAE@XZ"
                    ],
                    "library_name": "MSVCIRT.dll"
                },
                {
                    "imported_functions": [
                        "GetModuleHandleA",
                        "VirtualFree",
                        "ExitProcess",
                        "VirtualProtect",
                        "GetProcAddress",
                        "VirtualAlloc",
                        "LoadLibraryA"
                    ],
                    "library_name": "kernel32.dll"
                },
                {
                    "imported_functions": [
                        "exit"
                    ],
                    "library_name": "MSVCRT.dll"
                },
                {
                    "imported_functions": [
                        "wsprintfA",
                        "MessageBoxA"
                    ],
                    "library_name": "user32.dll"
                }
            ],
            "machine_type": 332,
            "overlay": {
                "entropy": 6.937181512481454,
                "filetype": "application/x-ms-dos-executable",
                "md5": "58076321205a8e03faca8d34344eca2b",
                "offset": 110459,
                "size": 794652
            },
            "resource_details": [
                {
                    "filetype": "data",
                    "lang": "NEUTRAL",
                    "sha256": "a66dba811808771323330b4d88e5300ae43066f19d9acabab5e3d5ee9699eb2d",
                    "type": "RT_ICON"
                },
                {
                    "filetype": "data",
                    "lang": "ARABIC EGYPT",
                    "sha256": "1f08569caa4db78cd12752e0343cd4bfd02c5990676e45b472c5e0572a841b7c",
                    "type": "RT_GROUP_ICON"
                }
            ],
            "resource_langs": {
                "ARABIC EGYPT": 1,
                "NEUTRAL": 1
            },
            "resource_types": {
                "RT_GROUP_ICON": 1,
                "RT_ICON": 1
            },
            "sections": [
                {
                    "entropy": 7.64,
                    "md5": "4cee79ac2671e36829d0bb610df5b052",
                    "name": "",
                    "raw_size": 6656,
                    "virtual_address": 4096,
                    "virtual_size": 16384
                },
                {
                    "entropy": 4.47,
                    "md5": "4878d045f9e2fb98673ac328ff207ab8",
                    "name": ".rsrc",
                    "raw_size": 102400,
                    "virtual_address": 20480,
                    "virtual_size": 102400
                },
                {
                    "entropy": 4.09,
                    "md5": "d9152af36e3787ad41768ba5d11906da",
                    "name": "petite",
                    "raw_size": 379,
                    "virtual_address": 122880,
                    "virtual_size": 379
                }
            ],
            "timestamp": 1094982929
        },
        "reputation": 0,
        "sha1": "60963d5d3d3f3c68c585127c0c8aef09993f1287",
        "sha256": "0003f99c23b815adf084ad97bbc78aa27ac832cf8a9828b2eade1f6b52e4e9a7",
        "size": 905111,
        "ssdeep": "12288:J0QX+Teo7IiQ7wemy7e2dIiWQYu6vApvdA2:JbX+TZ7IV7g2dchu6vAhG2",
        "tags": [
            "peexe",
            "overlay"
        ],
        "times_submitted": 1,
        "total_votes": {
            "harmless": 0,
            "malicious": 0
        },
        "trid": [
            {
                "file_type": "Win32 Executable (generic)",
                "probability": 52.9
            },
            {
                "file_type": "Generic Win/DOS Executable",
                "probability": 23.5
            },
            {
                "file_type": "DOS Executable Generic",
                "probability": 23.5
            }
        ],
        "type_description": "Win32 EXE",
        "type_extension": "exe",
        "type_tag": "peexe",
        "unique_sources": 1,
        "vhash": "0950377f151bz701lz2fz"
    },
    "id": "0003f99c23b815adf084ad97bbc78aa27ac832cf8a9828b2eade1f6b52e4e9a7",
    "links": {
        "self": "https://www.virustotal.com/api/v3/files/0003f99c23b815adf084ad97bbc78aa27ac832cf8a9828b2eade1f6b52e4e9a7"
    },
    "type": "file"
}