{
    "attributes": {
        "authentihash": "96c56954153fd72db70fd8cac6e51aa163add4fd0fe590f99c33020183f10f19",
        "creation_date": 1515234972,
        "first_submission_date": 1521983359,
        "last_analysis_date": 1521983359,
        "last_analysis_results": {
            "ALYac": {
                "category": "malicious",
                "engine_name": "ALYac",
                "engine_update": "20180325",
                "engine_version": "1.1.1.5",
                "method": "blacklist",
                "result": "Gen:Variant.Symmi.25939"
            },
            "AVG": {
                "category": "malicious",
                "engine_name": "AVG",
                "engine_update": "20180325",
                "engine_version": "18.2.3827.0",
                "method": "blacklist",
                "result": "Win32:Malware-gen"
            },
            "AVware": {
                "category": "malicious",
                "engine_name": "AVware",
                "engine_update": "20180325",
                "engine_version": "1.5.0.42",
                "method": "blacklist",
                "result": "Trojan.Win32.Generic!BT"
            },
            "Ad-Aware": {
                "category": "malicious",
                "engine_name": "Ad-Aware",
                "engine_update": "20180325",
                "engine_version": "3.0.3.1010",
                "method": "blacklist",
                "result": "Gen:Variant.Symmi.25939"
            },
            "AegisLab": {
                "category": "malicious",
                "engine_name": "AegisLab",
                "engine_update": "20180325",
                "engine_version": "4.2",
                "method": "blacklist",
                "result": "Troj.W32.Gen.mip4"
            },
            "AhnLab-V3": {
                "category": "undetected",
                "engine_name": "AhnLab-V3",
                "engine_update": "20180325",
                "engine_version": "3.12.0.20130",
                "method": "blacklist",
                "result": null
            },
            "Alibaba": {
                "category": "type-unsupported",
                "engine_name": "Alibaba",
                "engine_update": "20180323",
                "engine_version": "1.0",
                "method": "blacklist",
                "result": null
            },
            "Antiy-AVL": {
                "category": "malicious",
                "engine_name": "Antiy-AVL",
                "engine_update": "20180325",
                "engine_version": "3.0.0.1",
                "method": "blacklist",
                "result": "RiskWare[RiskTool]/Win32.BitMiner"
            },
            "Arcabit": {
                "category": "malicious",
                "engine_name": "Arcabit",
                "engine_update": "20180325",
                "engine_version": "1.0.0.831",
                "method": "blacklist",
                "result": "Trojan.Symmi.D6553"
            },
            "Avast": {
                "category": "malicious",
                "engine_name": "Avast",
                "engine_update": "20180325",
                "engine_version": "18.2.3827.0",
                "method": "blacklist",
                "result": "Win32:Malware-gen"
            },
            "Avast-Mobile": {
                "category": "undetected",
                "engine_name": "Avast-Mobile",
                "engine_update": "20180325",
                "engine_version": "180325-00",
                "method": "blacklist",
                "result": null
            },
            "Avira": {
                "category": "undetected",
                "engine_name": "Avira",
                "engine_update": "20180325",
                "engine_version": "8.3.3.6",
                "method": "blacklist",
                "result": null
            },
            "Baidu": {
                "category": "malicious",
                "engine_name": "Baidu",
                "engine_update": "20180323",
                "engine_version": "1.0.0.2",
                "method": "blacklist",
                "result": "Win32.Trojan.WisdomEyes.16070401.9500.9735"
            },
            "BitDefender": {
                "category": "malicious",
                "engine_name": "BitDefender",
                "engine_update": "20180325",
                "engine_version": "7.2",
                "method": "blacklist",
                "result": "Gen:Variant.Symmi.25939"
            },
            "Bkav": {
                "category": "undetected",
                "engine_name": "Bkav",
                "engine_update": "20180325",
                "engine_version": "1.3.0.9466",
                "method": "blacklist",
                "result": null
            },
            "CAT-QuickHeal": {
                "category": "malicious",
                "engine_name": "CAT-QuickHeal",
                "engine_update": "20180325",
                "engine_version": "14.00",
                "method": "blacklist",
                "result": "W32.CoinMiner.A4"
            },
            "CMC": {
                "category": "undetected",
                "engine_name": "CMC",
                "engine_update": "20180325",
                "engine_version": "1.1.0.977",
                "method": "blacklist",
                "result": null
            },
            "ClamAV": {
                "category": "malicious",
                "engine_name": "ClamAV",
                "engine_update": "20180325",
                "engine_version": "0.99.2.0",
                "method": "blacklist",
                "result": "Multios.Trojan.CryptocoinMiner-6448864-1"
            },
            "Comodo": {
                "category": "undetected",
                "engine_name": "Comodo",
                "engine_update": "20180325",
                "engine_version": null,
                "method": "blacklist",
                "result": null
            },
            "CrowdStrike": {
                "category": "malicious",
                "engine_name": "CrowdStrike",
                "engine_update": "20170201",
                "engine_version": "1.0",
                "method": "blacklist",
                "result": "malicious_confidence_90% (D)"
            },
            "Cybereason": {
                "category": "type-unsupported",
                "engine_name": "Cybereason",
                "engine_update": null,
                "engine_version": null,
                "method": "blacklist",
                "result": null
            },
            "Cylance": {
                "category": "malicious",
                "engine_name": "Cylance",
                "engine_update": "20180325",
                "engine_version": "2.3.1.101",
                "method": "blacklist",
                "result": "Unsafe"
            },
            "Cyren": {
                "category": "malicious",
                "engine_name": "Cyren",
                "engine_update": "20180325",
                "engine_version": "5.4.30.7",
                "method": "blacklist",
                "result": "W32/CoinMiner.L.gen!Eldorado"
            },
            "DrWeb": {
                "category": "malicious",
                "engine_name": "DrWeb",
                "engine_update": "20180325",
                "engine_version": "7.0.28.2020",
                "method": "blacklist",
                "result": "Trojan.BtcMine.1759"
            },
            "ESET-NOD32": {
                "category": "malicious",
                "engine_name": "ESET-NOD32",
                "engine_update": "20180325",
                "engine_version": "17114",
                "method": "blacklist",
                "result": "a variant of Win32/Packed.BlackMoon.A potentially unwanted"
            },
            "Emsisoft": {
                "category": "malicious",
                "engine_name": "Emsisoft",
                "engine_update": "20180325",
                "engine_version": "4.0.2.899",
                "method": "blacklist",
                "result": "Gen:Variant.Symmi.25939 (B)"
            },
            "Endgame": {
                "category": "malicious",
                "engine_name": "Endgame",
                "engine_update": "20180316",
                "engine_version": "2.0.5",
                "method": "blacklist",
                "result": "malicious (high confidence)"
            },
            "F-Prot": {
                "category": "malicious",
                "engine_name": "F-Prot",
                "engine_update": "20180325",
                "engine_version": "4.7.1.166",
                "method": "blacklist",
                "result": "W32/CoinMiner.L.gen!Eldorado"
            },
            "F-Secure": {
                "category": "malicious",
                "engine_name": "F-Secure",
                "engine_update": "20180325",
                "engine_version": "11.0.19100.45",
                "method": "blacklist",
                "result": "Gen:Variant.Symmi.25939"
            },
            "Fortinet": {
                "category": "malicious",
                "engine_name": "Fortinet",
                "engine_update": "20180325",
                "engine_version": "5.4.247.0",
                "method": "blacklist",
                "result": "W32/Agent.OJQ!tr.spy"
            },
            "GData": {
                "category": "malicious",
                "engine_name": "GData",
                "engine_update": "20180325",
                "engine_version": "A:25.16500B:25.11876",
                "method": "blacklist",
                "result": "Win32.Trojan.Agent.WP"
            },
            "Ikarus": {
                "category": "malicious",
                "engine_name": "Ikarus",
                "engine_update": "20180325",
                "engine_version": "0.1.5.2",
                "method": "blacklist",
                "result": "PUA.CoinMiner"
            },
            "Invincea": {
                "category": "malicious",
                "engine_name": "Invincea",
                "engine_update": "20180121",
                "engine_version": "6.3.4.26036",
                "method": "blacklist",
                "result": "heuristic"
            },
            "Jiangmin": {
                "category": "malicious",
                "engine_name": "Jiangmin",
                "engine_update": "20180325",
                "engine_version": "16.0.100",
                "method": "blacklist",
                "result": "Trojan.Generic.bwuwf"
            },
            "K7AntiVirus": {
                "category": "undetected",
                "engine_name": "K7AntiVirus",
                "engine_update": "20180325",
                "engine_version": "10.42.26603",
                "method": "blacklist",
                "result": null
            },
            "K7GW": {
                "category": "undetected",
                "engine_name": "K7GW",
                "engine_update": "20180325",
                "engine_version": "10.42.26603",
                "method": "blacklist",
                "result": null
            },
            "Kaspersky": {
                "category": "malicious",
                "engine_name": "Kaspersky",
                "engine_update": "20180325",
                "engine_version": "15.0.1.13",
                "method": "blacklist",
                "result": "not-a-virus:HEUR:RiskTool.Win32.BitMiner.gen"
            },
            "Kingsoft": {
                "category": "undetected",
                "engine_name": "Kingsoft",
                "engine_update": "20180325",
                "engine_version": "2013.8.14.323",
                "method": "blacklist",
                "result": null
            },
            "MAX": {
                "category": "malicious",
                "engine_name": "MAX",
                "engine_update": "20180325",
                "engine_version": "2017.11.15.1",
                "method": "blacklist",
                "result": "malware (ai score=80)"
            },
            "Malwarebytes": {
                "category": "undetected",
                "engine_name": "Malwarebytes",
                "engine_update": "20180325",
                "engine_version": "2.1.1.1115",
                "method": "blacklist",
                "result": null
            },
            "McAfee": {
                "category": "malicious",
                "engine_name": "McAfee",
                "engine_update": "20180325",
                "engine_version": "6.0.6.653",
                "method": "blacklist",
                "result": "PUP-XED-UL"
            },
            "McAfee-GW-Edition": {
                "category": "malicious",
                "engine_name": "McAfee-GW-Edition",
                "engine_update": "20180325",
                "engine_version": "v2015",
                "method": "blacklist",
                "result": "BehavesLike.Win32.PUPXDT.wh"
            },
            "MicroWorld-eScan": {
                "category": "malicious",
                "engine_name": "MicroWorld-eScan",
                "engine_update": "20180325",
                "engine_version": "14.0.297.0",
                "method": "blacklist",
                "result": "Gen:Variant.Symmi.25939"
            },
            "Microsoft": {
                "category": "undetected",
                "engine_name": "Microsoft",
                "engine_update": "20180325",
                "engine_version": "1.1.14600.4",
                "method": "blacklist",
                "result": null
            },
            "NANO-Antivirus": {
                "category": "malicious",
                "engine_name": "NANO-Antivirus",
                "engine_update": "20180325",
                "engine_version": "1.0.100.22043",
                "method": "blacklist",
                "result": "Riskware.Win32.BitMiner.ewvndj"
            },
            "Paloalto": {
                "category": "undetected",
                "engine_name": "Paloalto",
                "engine_update": "20180325",
                "engine_version": "1.0",
                "method": "blacklist",
                "result": null
            },
            "Panda": {
                "category": "undetected",
                "engine_name": "Panda",
                "engine_update": "20180325",
                "engine_version": "4.6.4.2",
                "method": "blacklist",
                "result": null
            },
            "Qihoo-360": {
                "category": "undetected",
                "engine_name": "Qihoo-360",
                "engine_update": "20180325",
                "engine_version": "1.0.0.1120",
                "method": "blacklist",
                "result": null
            },
            "Rising": {
                "category": "malicious",
                "engine_name": "Rising",
                "engine_update": "20180325",
                "engine_version": "25.0.0.1",
                "method": "blacklist",
                "result": "Trojan.Win32/64.XMR-Miner!1.ADCC (CLASSIC)"
            },
            "SUPERAntiSpyware": {
                "category": "undetected",
                "engine_name": "SUPERAntiSpyware",
                "engine_update": "20180325",
                "engine_version": "5.6.0.1032",
                "method": "blacklist",
                "result": null
            },
            "SentinelOne": {
                "category": "malicious",
                "engine_name": "SentinelOne",
                "engine_update": "20180225",
                "engine_version": "1.0.15.206",
                "method": "blacklist",
                "result": "static engine - malicious"
            },
            "Sophos": {
                "category": "malicious",
                "engine_name": "Sophos",
                "engine_update": "20180325",
                "engine_version": "4.98.0",
                "method": "blacklist",
                "result": "BlackMoon Packed (PUA)"
            },
            "Symantec": {
                "category": "malicious",
                "engine_name": "Symantec",
                "engine_update": "20180324",
                "engine_version": "1.5.0.0",
                "method": "blacklist",
                "result": "W32.XiaobaMiner"
            },
            "SymantecMobileInsight": {
                "category": "type-unsupported",
                "engine_name": "SymantecMobileInsight",
                "engine_update": "20180311",
                "engine_version": "1.0.0.35_220",
                "method": "blacklist",
                "result": null
            },
            "Tencent": {
                "category": "undetected",
                "engine_name": "Tencent",
                "engine_update": "20180325",
                "engine_version": "1.0.0.1",
                "method": "blacklist",
                "result": null
            },
            "TheHacker": {
                "category": "undetected",
                "engine_name": "TheHacker",
                "engine_update": "20180319",
                "engine_version": "6.8.0.5.2551",
                "method": "blacklist",
                "result": null
            },
            "TotalDefense": {
                "category": "malicious",
                "engine_name": "TotalDefense",
                "engine_update": "20180325",
                "engine_version": "37.1.62.1",
                "method": "blacklist",
                "result": "Win32/Oflwr.A!crypt"
            },
            "TrendMicro": {
                "category": "undetected",
                "engine_name": "TrendMicro",
                "engine_update": "20180325",
                "engine_version": "9.862.0.1074",
                "method": "blacklist",
                "result": null
            },
            "TrendMicro-HouseCall": {
                "category": "undetected",
                "engine_name": "TrendMicro-HouseCall",
                "engine_update": "20180325",
                "engine_version": "9.950.0.1006",
                "method": "blacklist",
                "result": null
            },
            "Trustlook": {
                "category": "type-unsupported",
                "engine_name": "Trustlook",
                "engine_update": "20180325",
                "engine_version": "2",
                "method": "blacklist",
                "result": null
            },
            "VBA32": {
                "category": "malicious",
                "engine_name": "VBA32",
                "engine_update": "20180323",
                "engine_version": "3.12.28.0",
                "method": "blacklist",
                "result": "Trojan.BtcMine"
            },
            "VIPRE": {
                "category": "malicious",
                "engine_name": "VIPRE",
                "engine_update": "20180325",
                "engine_version": "65522",
                "method": "blacklist",
                "result": "Trojan.Win32.Generic!BT"
            },
            "ViRobot": {
                "category": "undetected",
                "engine_name": "ViRobot",
                "engine_update": "20180325",
                "engine_version": "2014.3.20.0",
                "method": "blacklist",
                "result": null
            },
            "WhiteArmor": {
                "category": "undetected",
                "engine_name": "WhiteArmor",
                "engine_update": "20180324",
                "engine_version": null,
                "method": "blacklist",
                "result": null
            },
            "Yandex": {
                "category": "malicious",
                "engine_name": "Yandex",
                "engine_update": "20180324",
                "engine_version": "5.5.1.3",
                "method": "blacklist",
                "result": "Trojan.Agent!pZkzNAnZDAM"
            },
            "Zillya": {
                "category": "undetected",
                "engine_name": "Zillya",
                "engine_update": "20180323",
                "engine_version": "2.0.0.3519",
                "method": "blacklist",
                "result": null
            },
            "ZoneAlarm": {
                "category": "malicious",
                "engine_name": "ZoneAlarm",
                "engine_update": "20180325",
                "engine_version": "1.0",
                "method": "blacklist",
                "result": "HEUR:Trojan.Win32.Generic"
            },
            "Zoner": {
                "category": "undetected",
                "engine_name": "Zoner",
                "engine_update": "20180325",
                "engine_version": "1.0",
                "method": "blacklist",
                "result": null
            },
            "eGambit": {
                "category": "undetected",
                "engine_name": "eGambit",
                "engine_update": "20180325",
                "engine_version": "v4.3.5",
                "method": "blacklist",
                "result": null
            },
            "nProtect": {
                "category": "undetected",
                "engine_name": "nProtect",
                "engine_update": "20180325",
                "engine_version": "2018-03-25.02",
                "method": "blacklist",
                "result": null
            }
        },
        "last_analysis_stats": {
            "confirmed-timeout": 0,
            "failure": 0,
            "harmless": 0,
            "malicious": 41,
            "suspicious": 0,
            "timeout": 0,
            "type-unsupported": 4,
            "undetected": 25
        },
        "last_modification_date": 1523287739,
        "last_submission_date": 1521983359,
        "magic": "PE32 executable for MS Windows (GUI) Intel 80386 32-bit",
        "md5": "d5b6d1815c0e12401fb58e135f2ebce5",
        "meaningful_name": "0003f95a3f89f57e_jstack.exe",
        "names": [
            "0003f95a3f89f57e_jstack.exe"
        ],
        "pe_info": {
            "entry_point": 37939,
            "imphash": "aa87db00eff03dc11398f903a07cd843",
            "import_list": [
                {
                    "imported_functions": [
                        "SetMapMode",
                        "SaveDC",
                        "TextOutA",
                        "GetClipBox",
                        "GetObjectA",
                        "OffsetViewportOrgEx",
                        "DeleteDC",
                        "RestoreDC",
                        "DeleteObject",
                        "SetTextColor",
                        "GetDeviceCaps",
                        "CreateBitmap",
                        "RectVisible",
                        "GetStockObject",
                        "SetViewportOrgEx",
                        "ScaleWindowExtEx",
                        "ExtTextOutA",
                        "PtVisible",
                        "ScaleViewportExtEx",
                        "SelectObject",
                        "SetWindowExtEx",
                        "Escape",
                        "SetBkColor",
                        "SetViewportExtEx"
                    ],
                    "library_name": "GDI32.dll"
                },
                {
                    "imported_functions": [
                        "LookupPrivilegeValueA",
                        "RegOpenKeyA",
                        "RegCloseKey",
                        "OpenProcessToken",
                        "AdjustTokenPrivileges",
                        "RegSetValueExA",
                        "RegCreateKeyExA",
                        "RegOpenKeyExA"
                    ],
                    "library_name": "ADVAPI32.dll"
                },
                {
                    "imported_functions": [
                        "GetStdHandle",
                        "FileTimeToSystemTime",
                        "GetDriveTypeA",
                        "HeapDestroy",
                        "FreeEnvironmentStringsA",
                        "DeleteCriticalSection",
                        "GetCurrentProcess",
                        "LocalAlloc",
                        "lstrcatA",
                        "SetErrorMode",
                        "FreeEnvironmentStringsW",
                        "SetStdHandle",
                        "GetTempPathA",
                        "GetCPInfo",
                        "GetStringTypeA",
                        "GetProcessVersion",
                        "InterlockedExchange",
                        "WriteFile",
                        "HeapReAlloc",
                        "GetStringTypeW",
                        "GetFullPathNameA",
                        "FreeLibrary",
                        "LocalFree",
                        "SetWaitableTimer",
                        "GetEnvironmentVariableA",
                        "GlobalHandle",
                        "FindClose",
                        "InterlockedDecrement",
                        "SetLastError",
                        "InitializeCriticalSection",
                        "GlobalFindAtomA",
                        "HeapAlloc",
                        "GetVersionExA",
                        "GetModuleFileNameA",
                        "SetProcessWorkingSetSize",
                        "UnhandledExceptionFilter",
                        "TlsGetValue",
                        "MultiByteToWideChar",
                        "GetModuleHandleA",
                        "CreateThread",
                        "SetFileAttributesA",
                        "GlobalAddAtomA",
                        "SetUnhandledExceptionFilter",
                        "GetSystemDirectoryA",
                        "SetEnvironmentVariableA",
                        "TerminateProcess",
                        "GlobalAlloc",
                        "GetVersion",
                        "LeaveCriticalSection",
                        "CreateToolhelp32Snapshot",
                        "HeapFree",
                        "EnterCriticalSection",
                        "SetHandleCount",
                        "lstrcmpiA",
                        "GetOEMCP",
                        "GetTickCount",
                        "IsBadWritePtr",
                        "TlsAlloc",
                        "FlushFileBuffers",
                        "LoadLibraryA",
                        "RtlUnwind",
                        "Process32Next",
                        "GetStartupInfoA",
                        "GetFileSize",
                        "LCMapStringW",
                        "OpenProcess",
                        "GetWindowsDirectoryA",
                        "GlobalLock",
                        "GetProcessHeap",
                        "CompareStringW",
                        "GlobalReAlloc",
                        "lstrcmpA",
                        "FindFirstFileA",
                        "lstrcpyA",
                        "CompareStringA",
                        "CreateWaitableTimerA",
                        "FindNextFileA",
                        "Process32First",
                        "GetProcAddress",
                        "GetTimeZoneInformation",
                        "CreateEventA",
                        "GetFileType",
                        "TlsSetValue",
                        "CreateFileA",
                        "ExitProcess",
                        "lstrcpyn",
                        "InterlockedIncrement",
                        "GetLastError",
                        "LocalReAlloc",
                        "GlobalDeleteAtom",
                        "lstrlenA",
                        "GlobalFree",
                        "LCMapStringA",
                        "GlobalGetAtomNameA",
                        "GetEnvironmentStringsW",
                        "GlobalUnlock",
                        "FileTimeToLocalFileTime",
                        "GetEnvironmentStrings",
                        "WritePrivateProfileStringA",
                        "GetCurrentProcessId",
                        "GetCurrentDirectoryA",
                        "HeapSize",
                        "GetCommandLineA",
                        "GetCurrentThread",
                        "RaiseException",
                        "TlsFree",
                        "SetFilePointer",
                        "ReadFile",
                        "GlobalFlags",
                        "CloseHandle",
                        "lstrcpynA",
                        "GetACP",
                        "GetCurrentThreadId",
                        "WideCharToMultiByte",
                        "HeapCreate",
                        "VirtualFree",
                        "Sleep",
                        "IsBadReadPtr",
                        "IsBadCodePtr",
                        "OpenEventA",
                        "VirtualAlloc"
                    ],
                    "library_name": "KERNEL32.DLL"
                },
                {
                    "imported_functions": [
                        "OpenPrinterA",
                        "DocumentPropertiesA",
                        "ClosePrinter"
                    ],
                    "library_name": "WINSPOOL.DRV"
                },
                {
                    "imported_functions": [
                        "SHChangeNotify",
                        "ShellExecuteA",
                        "SHGetSpecialFolderPathA"
                    ],
                    "library_name": "SHELL32.dll"
                },
                {
                    "imported_functions": [
                        "CoCreateInstance"
                    ],
                    "library_name": "ole32.dll"
                },
                {
                    "imported_functions": [
                        "PathFileExistsA"
                    ],
                    "library_name": "SHLWAPI.dll"
                },
                {
                    "imported_functions": [
                        "SetFocus",
                        "GetMessagePos",
                        "SetMenuItemBitmaps",
                        "DestroyMenu",
                        "PostQuitMessage",
                        "GetForegroundWindow",
                        "LoadBitmapA",
                        "SetWindowPos",
                        "DispatchMessageA",
                        "GrayStringA",
                        "GetMessageTime",
                        "GetMenuItemID",
                        "GetCursorPos",
                        "DrawTextA",
                        "GetDlgCtrlID",
                        "GetClassInfoA",
                        "GetMenu",
                        "UnregisterClassA",
                        "SendMessageA",
                        "GetClientRect",
                        "GetNextDlgTabItem",
                        "CallNextHookEx",
                        "GetTopWindow",
                        "MsgWaitForMultipleObjects",
                        "GetActiveWindow",
                        "GetWindowTextA",
                        "PtInRect",
                        "GetMessageA",
                        "GetParent",
                        "SetPropA",
                        "ShowWindow",
                        "GetPropA",
                        "ValidateRect",
                        "EnableWindow",
                        "PeekMessageA",
                        "TranslateMessage",
                        "IsWindowEnabled",
                        "GetWindow",
                        "LoadStringA",
                        "GetWindowPlacement",
                        "EnableMenuItem",
                        "RegisterClassA",
                        "TabbedTextOutA",
                        "GetWindowLongA",
                        "CreateWindowExA",
                        "CopyRect",
                        "GetSysColorBrush",
                        "DestroyWindow",
                        "MapWindowPoints",
                        "RegisterWindowMessageA",
                        "DefWindowProcA",
                        "GetSystemMetrics",
                        "IsIconic",
                        "GetWindowRect",
                        "PostMessageA",
                        "SetWindowLongA",
                        "RemovePropA",
                        "SetWindowTextA",
                        "CheckMenuItem",
                        "GetSubMenu",
                        "GetLastActivePopup",
                        "GetDlgItem",
                        "GetMenuCheckMarkDimensions",
                        "ClientToScreen",
                        "GetClassLongA",
                        "LoadCursorA",
                        "LoadIconA",
                        "SetWindowsHookExA",
                        "GetMenuItemCount",
                        "GetMenuState",
                        "GetDC",
                        "SetForegroundWindow",
                        "ReleaseDC",
                        "GetCapture",
                        "GetWindowThreadProcessId",
                        "UnhookWindowsHookEx",
                        "MessageBoxA",
                        "AdjustWindowRectEx",
                        "GetSysColor",
                        "GetKeyState",
                        "SystemParametersInfoA",
                        "IsWindowVisible",
                        "WinHelpA",
                        "wsprintfA",
                        "CallWindowProcA",
                        "GetClassNameA",
                        "GetFocus",
                        "ModifyMenuA",
                        "SetCursor"
                    ],
                    "library_name": "USER32.dll"
                },
                {
                    "imported_functions": [
                        "Ord(17)"
                    ],
                    "library_name": "COMCTL32.dll"
                }
            ],
            "machine_type": 332,
            "overlay": {
                "chi2": 28802378.0,
                "entropy": 6.308027744293213,
                "filetype": "application/x-ms-dos-executable",
                "md5": "a928a3368e4feaae96853fb068f58099",
                "offset": 2187776,
                "size": 1797329
            },
            "resource_details": [
                {
                    "chi2": 6778.419921875,
                    "entropy": 5.02094030380249,
                    "filetype": "ASCII text",
                    "lang": "CHINESE SIMPLIFIED",
                    "sha256": "70b7f6ec24cf159809467626ceade9ba45e1c46660c86257e85db8caa6b1926b",
                    "type": "RT_MANIFEST"
                }
            ],
            "resource_langs": {
                "CHINESE SIMPLIFIED": 1
            },
            "resource_types": {
                "RT_MANIFEST": 1
            },
            "sections": [
                {
                    "entropy": 6.45,
                    "md5": "10bfc805dec86e5ef296d90f5204fc82",
                    "name": "UPX0",
                    "raw_size": 1093632,
                    "virtual_address": 4096,
                    "virtual_size": 1093632
                },
                {
                    "entropy": 5.83,
                    "md5": "bb63fdc0544ca139c77589ee3d10506e",
                    "name": "UPX1",
                    "raw_size": 1086976,
                    "virtual_address": 1097728,
                    "virtual_size": 1089536
                },
                {
                    "entropy": 4.66,
                    "md5": "e6cd34a188b5a7f34cf36a6db1a68eac",
                    "name": ".rsrc",
                    "raw_size": 1536,
                    "virtual_address": 2187264,
                    "virtual_size": 4096
                },
                {
                    "entropy": 4.6,
                    "md5": "a8f305a756b4c85868a767cd692e9d62",
                    "name": ".imports",
                    "raw_size": 4608,
                    "virtual_address": 2191360,
                    "virtual_size": 8192
                }
            ],
            "timestamp": 1515234972
        },
        "reputation": 0,
        "sha1": "e6e9b3922bd2239fa7f31d47be5150ee650ade38",
        "sha256": "0003f95a3f89f57ed299467df9499d5c8aa6a9838f548e812ed86d7499fcc6f4",
        "size": 3985105,
        "ssdeep": "49152:EDsv345m/Ymo1JEd4ts6Y9NSOE/R+rJ9lgk+HX/SbgRFJiV66fr6+JnfaZ2hTB6z:zv3apmo1Y4+6Y7SOEfX/SbgRgaXaW",
        "tags": [
            "peexe",
            "overlay"
        ],
        "times_submitted": 1,
        "total_votes": {
            "harmless": 0,
            "malicious": 0
        },
        "trid": [
            {
                "file_type": "Windows ActiveX control",
                "probability": 53.0
            },
            {
                "file_type": "Win32 Executable MS Visual C++ (generic)",
                "probability": 14.2
            },
            {
                "file_type": "Win64 Executable (generic)",
                "probability": 12.5
            },
            {
                "file_type": "UPX compressed Win32 Executable",
                "probability": 12.3
            },
            {
                "file_type": "Win32 Dynamic Link Library (generic)",
                "probability": 2.9
            }
        ],
        "type_description": "Win32 EXE",
        "type_extension": "exe",
        "type_tag": "peexe",
        "unique_sources": 1,
        "vhash": "03604e6f5d5d508012z1800797z17z3010059fz"
    },
    "id": "0003f95a3f89f57ed299467df9499d5c8aa6a9838f548e812ed86d7499fcc6f4",
    "links": {
        "self": "https://www.virustotal.com/api/v3/files/0003f95a3f89f57ed299467df9499d5c8aa6a9838f548e812ed86d7499fcc6f4"
    },
    "type": "file"
}