{
    "attributes": {
        "authentihash": "490f5f7dd1bf18d597867ef5a973aa13bf926385ff6bb171f2e53e953f8d7ca7",
        "creation_date": 1512400704,
        "dot_net_guids": {
            "mvid": "4efda130-e398-4b8a-a58f-60106269077d"
        },
        "first_submission_date": 1542614327,
        "last_analysis_date": 1549479091,
        "last_analysis_results": {
            "ALYac": {
                "category": "undetected",
                "engine_name": "ALYac",
                "engine_update": "20190207",
                "engine_version": "1.1.1.5",
                "method": "blacklist",
                "result": null
            },
            "AVG": {
                "category": "undetected",
                "engine_name": "AVG",
                "engine_update": "20190207",
                "engine_version": "18.4.3895.0",
                "method": "blacklist",
                "result": null
            },
            "Acronis": {
                "category": "undetected",
                "engine_name": "Acronis",
                "engine_update": "20190130",
                "engine_version": "1.0.1.40",
                "method": "blacklist",
                "result": null
            },
            "Ad-Aware": {
                "category": "undetected",
                "engine_name": "Ad-Aware",
                "engine_update": "20190207",
                "engine_version": "3.0.5.370",
                "method": "blacklist",
                "result": null
            },
            "AegisLab": {
                "category": "undetected",
                "engine_name": "AegisLab",
                "engine_update": "20190207",
                "engine_version": "4.2",
                "method": "blacklist",
                "result": null
            },
            "AhnLab-V3": {
                "category": "undetected",
                "engine_name": "AhnLab-V3",
                "engine_update": "20190207",
                "engine_version": "3.14.1.22785",
                "method": "blacklist",
                "result": null
            },
            "Alibaba": {
                "category": "undetected",
                "engine_name": "Alibaba",
                "engine_update": "20180921",
                "engine_version": "0.1.0.2",
                "method": "blacklist",
                "result": null
            },
            "Antiy-AVL": {
                "category": "undetected",
                "engine_name": "Antiy-AVL",
                "engine_update": "20190207",
                "engine_version": "3.0.0.1",
                "method": "blacklist",
                "result": null
            },
            "Arcabit": {
                "category": "undetected",
                "engine_name": "Arcabit",
                "engine_update": "20190207",
                "engine_version": "1.0.0.837",
                "method": "blacklist",
                "result": null
            },
            "Avast": {
                "category": "undetected",
                "engine_name": "Avast",
                "engine_update": "20190207",
                "engine_version": "18.4.3895.0",
                "method": "blacklist",
                "result": null
            },
            "Avast-Mobile": {
                "category": "undetected",
                "engine_name": "Avast-Mobile",
                "engine_update": "20190207",
                "engine_version": "190207-00",
                "method": "blacklist",
                "result": null
            },
            "Avira": {
                "category": "malicious",
                "engine_name": "Avira",
                "engine_update": "20190207",
                "engine_version": "8.3.3.8",
                "method": "blacklist",
                "result": "TR/Dropper.Gen"
            },
            "Babable": {
                "category": "undetected",
                "engine_name": "Babable",
                "engine_update": "20180918",
                "engine_version": "9107201",
                "method": "blacklist",
                "result": null
            },
            "Baidu": {
                "category": "undetected",
                "engine_name": "Baidu",
                "engine_update": "20190202",
                "engine_version": "1.0.0.2",
                "method": "blacklist",
                "result": null
            },
            "BitDefender": {
                "category": "undetected",
                "engine_name": "BitDefender",
                "engine_update": "20190207",
                "engine_version": "7.2",
                "method": "blacklist",
                "result": null
            },
            "Bkav": {
                "category": "undetected",
                "engine_name": "Bkav",
                "engine_update": "20190201",
                "engine_version": "1.3.0.9899",
                "method": "blacklist",
                "result": null
            },
            "CAT-QuickHeal": {
                "category": "undetected",
                "engine_name": "CAT-QuickHeal",
                "engine_update": "20190206",
                "engine_version": "14.00",
                "method": "blacklist",
                "result": null
            },
            "CMC": {
                "category": "undetected",
                "engine_name": "CMC",
                "engine_update": "20190207",
                "engine_version": "1.1.0.977",
                "method": "blacklist",
                "result": null
            },
            "ClamAV": {
                "category": "undetected",
                "engine_name": "ClamAV",
                "engine_update": "20190207",
                "engine_version": "0.101.1.0",
                "method": "blacklist",
                "result": null
            },
            "Comodo": {
                "category": "undetected",
                "engine_name": "Comodo",
                "engine_update": "20190207",
                "engine_version": "30395",
                "method": "blacklist",
                "result": null
            },
            "CrowdStrike": {
                "category": "malicious",
                "engine_name": "CrowdStrike",
                "engine_update": "20181023",
                "engine_version": "1.0",
                "method": "blacklist",
                "result": "malicious_confidence_80% (W)"
            },
            "Cybereason": {
                "category": "undetected",
                "engine_name": "Cybereason",
                "engine_update": "20190109",
                "engine_version": "1.2.27",
                "method": "blacklist",
                "result": null
            },
            "Cylance": {
                "category": "undetected",
                "engine_name": "Cylance",
                "engine_update": "20190208",
                "engine_version": "2.3.1.101",
                "method": "blacklist",
                "result": null
            },
            "Cyren": {
                "category": "undetected",
                "engine_name": "Cyren",
                "engine_update": "20190207",
                "engine_version": "6.2.0.1",
                "method": "blacklist",
                "result": null
            },
            "DrWeb": {
                "category": "undetected",
                "engine_name": "DrWeb",
                "engine_update": "20190207",
                "engine_version": "7.0.34.11020",
                "method": "blacklist",
                "result": null
            },
            "ESET-NOD32": {
                "category": "undetected",
                "engine_name": "ESET-NOD32",
                "engine_update": "20190207",
                "engine_version": "18838",
                "method": "blacklist",
                "result": null
            },
            "Emsisoft": {
                "category": "undetected",
                "engine_name": "Emsisoft",
                "engine_update": "20190207",
                "engine_version": "2018.4.0.1029",
                "method": "blacklist",
                "result": null
            },
            "Endgame": {
                "category": "malicious",
                "engine_name": "Endgame",
                "engine_update": "20181108",
                "engine_version": "3.0.2",
                "method": "blacklist",
                "result": "malicious (high confidence)"
            },
            "F-Prot": {
                "category": "undetected",
                "engine_name": "F-Prot",
                "engine_update": "20190207",
                "engine_version": "4.7.1.166",
                "method": "blacklist",
                "result": null
            },
            "F-Secure": {
                "category": "malicious",
                "engine_name": "F-Secure",
                "engine_update": "20190207",
                "engine_version": "12.0.86.52",
                "method": "blacklist",
                "result": "Trojan.TR/Dropper.Gen"
            },
            "Fortinet": {
                "category": "undetected",
                "engine_name": "Fortinet",
                "engine_update": "20190207",
                "engine_version": "5.4.247.0",
                "method": "blacklist",
                "result": null
            },
            "GData": {
                "category": "undetected",
                "engine_name": "GData",
                "engine_update": "20190207",
                "engine_version": "A:25.20537B:25.14330",
                "method": "blacklist",
                "result": null
            },
            "Ikarus": {
                "category": "malicious",
                "engine_name": "Ikarus",
                "engine_update": "20190207",
                "engine_version": "0.1.5.2",
                "method": "blacklist",
                "result": "Trojan.Dropper"
            },
            "Invincea": {
                "category": "undetected",
                "engine_name": "Invincea",
                "engine_update": "20181128",
                "engine_version": "6.3.6.26157",
                "method": "blacklist",
                "result": null
            },
            "Jiangmin": {
                "category": "undetected",
                "engine_name": "Jiangmin",
                "engine_update": "20190207",
                "engine_version": "16.0.100",
                "method": "blacklist",
                "result": null
            },
            "K7AntiVirus": {
                "category": "undetected",
                "engine_name": "K7AntiVirus",
                "engine_update": "20190207",
                "engine_version": "11.27.29926",
                "method": "blacklist",
                "result": null
            },
            "K7GW": {
                "category": "undetected",
                "engine_name": "K7GW",
                "engine_update": "20190207",
                "engine_version": "11.27.29926",
                "method": "blacklist",
                "result": null
            },
            "Kaspersky": {
                "category": "undetected",
                "engine_name": "Kaspersky",
                "engine_update": "20190207",
                "engine_version": "15.0.1.13",
                "method": "blacklist",
                "result": null
            },
            "Kingsoft": {
                "category": "undetected",
                "engine_name": "Kingsoft",
                "engine_update": "20190208",
                "engine_version": "2013.8.14.323",
                "method": "blacklist",
                "result": null
            },
            "MAX": {
                "category": "undetected",
                "engine_name": "MAX",
                "engine_update": "20190208",
                "engine_version": "2018.9.12.1",
                "method": "blacklist",
                "result": null
            },
            "Malwarebytes": {
                "category": "undetected",
                "engine_name": "Malwarebytes",
                "engine_update": "20190207",
                "engine_version": "2.1.1.1115",
                "method": "blacklist",
                "result": null
            },
            "McAfee": {
                "category": "undetected",
                "engine_name": "McAfee",
                "engine_update": "20190207",
                "engine_version": "6.0.6.653",
                "method": "blacklist",
                "result": null
            },
            "McAfee-GW-Edition": {
                "category": "undetected",
                "engine_name": "McAfee-GW-Edition",
                "engine_update": "20190207",
                "engine_version": "v2017.3010",
                "method": "blacklist",
                "result": null
            },
            "MicroWorld-eScan": {
                "category": "undetected",
                "engine_name": "MicroWorld-eScan",
                "engine_update": "20190207",
                "engine_version": "14.0.297.0",
                "method": "blacklist",
                "result": null
            },
            "Microsoft": {
                "category": "undetected",
                "engine_name": "Microsoft",
                "engine_update": "20190207",
                "engine_version": "1.1.15600.4",
                "method": "blacklist",
                "result": null
            },
            "NANO-Antivirus": {
                "category": "undetected",
                "engine_name": "NANO-Antivirus",
                "engine_update": "20190207",
                "engine_version": "1.0.134.24576",
                "method": "blacklist",
                "result": null
            },
            "Paloalto": {
                "category": "malicious",
                "engine_name": "Paloalto",
                "engine_update": "20190208",
                "engine_version": "1.0",
                "method": "blacklist",
                "result": "generic.ml"
            },
            "Panda": {
                "category": "undetected",
                "engine_name": "Panda",
                "engine_update": "20190207",
                "engine_version": "4.6.4.2",
                "method": "blacklist",
                "result": null
            },
            "Qihoo-360": {
                "category": "undetected",
                "engine_name": "Qihoo-360",
                "engine_update": "20190208",
                "engine_version": "1.0.0.1120",
                "method": "blacklist",
                "result": null
            },
            "Rising": {
                "category": "malicious",
                "engine_name": "Rising",
                "engine_update": "20190207",
                "engine_version": "25.0.0.24",
                "method": "blacklist",
                "result": "Dropper.Generic!8.35E (CLOUD)"
            },
            "SUPERAntiSpyware": {
                "category": "undetected",
                "engine_name": "SUPERAntiSpyware",
                "engine_update": "20190206",
                "engine_version": "5.6.0.1032",
                "method": "blacklist",
                "result": null
            },
            "SentinelOne": {
                "category": "undetected",
                "engine_name": "SentinelOne",
                "engine_update": "20190203",
                "engine_version": "1.0.23.276",
                "method": "blacklist",
                "result": null
            },
            "Sophos": {
                "category": "undetected",
                "engine_name": "Sophos",
                "engine_update": "20190207",
                "engine_version": "4.98.0",
                "method": "blacklist",
                "result": null
            },
            "Symantec": {
                "category": "undetected",
                "engine_name": "Symantec",
                "engine_update": "20190207",
                "engine_version": "1.8.0.0",
                "method": "blacklist",
                "result": null
            },
            "SymantecMobileInsight": {
                "category": "type-unsupported",
                "engine_name": "SymantecMobileInsight",
                "engine_update": "20190207",
                "engine_version": "2.0",
                "method": "blacklist",
                "result": null
            },
            "TACHYON": {
                "category": "undetected",
                "engine_name": "TACHYON",
                "engine_update": "20190207",
                "engine_version": "2019-02-07.02",
                "method": "blacklist",
                "result": null
            },
            "Tencent": {
                "category": "undetected",
                "engine_name": "Tencent",
                "engine_update": "20190208",
                "engine_version": "1.0.0.1",
                "method": "blacklist",
                "result": null
            },
            "TheHacker": {
                "category": "undetected",
                "engine_name": "TheHacker",
                "engine_update": "20190203",
                "engine_version": "6.8.0.5.3996",
                "method": "blacklist",
                "result": null
            },
            "TotalDefense": {
                "category": "undetected",
                "engine_name": "TotalDefense",
                "engine_update": "20190206",
                "engine_version": "37.1.62.1",
                "method": "blacklist",
                "result": null
            },
            "Trapmine": {
                "category": "malicious",
                "engine_name": "Trapmine",
                "engine_update": "20190123",
                "engine_version": "3.1.40.719",
                "method": "blacklist",
                "result": "malicious.moderate.ml.score"
            },
            "TrendMicro": {
                "category": "undetected",
                "engine_name": "TrendMicro",
                "engine_update": "20190207",
                "engine_version": "10.0.0.1040",
                "method": "blacklist",
                "result": null
            },
            "TrendMicro-HouseCall": {
                "category": "undetected",
                "engine_name": "TrendMicro-HouseCall",
                "engine_update": "20190207",
                "engine_version": "10.0.0.1040",
                "method": "blacklist",
                "result": null
            },
            "Trustlook": {
                "category": "undetected",
                "engine_name": "Trustlook",
                "engine_update": "20190208",
                "engine_version": "1.0",
                "method": "blacklist",
                "result": null
            },
            "VBA32": {
                "category": "undetected",
                "engine_name": "VBA32",
                "engine_update": "20190207",
                "engine_version": "3.35.1",
                "method": "blacklist",
                "result": null
            },
            "VIPRE": {
                "category": "undetected",
                "engine_name": "VIPRE",
                "engine_update": null,
                "engine_version": "None",
                "method": "blacklist",
                "result": null
            },
            "ViRobot": {
                "category": "undetected",
                "engine_name": "ViRobot",
                "engine_update": "20190207",
                "engine_version": "2014.3.20.0",
                "method": "blacklist",
                "result": null
            },
            "Webroot": {
                "category": "undetected",
                "engine_name": "Webroot",
                "engine_update": "20190208",
                "engine_version": "1.0.0.403",
                "method": "blacklist",
                "result": null
            },
            "Yandex": {
                "category": "undetected",
                "engine_name": "Yandex",
                "engine_update": "20190206",
                "engine_version": "5.5.1.3",
                "method": "blacklist",
                "result": null
            },
            "Zillya": {
                "category": "undetected",
                "engine_name": "Zillya",
                "engine_update": "20190207",
                "engine_version": "2.0.0.3749",
                "method": "blacklist",
                "result": null
            },
            "ZoneAlarm": {
                "category": "undetected",
                "engine_name": "ZoneAlarm",
                "engine_update": "20190207",
                "engine_version": "1.0",
                "method": "blacklist",
                "result": null
            },
            "Zoner": {
                "category": "undetected",
                "engine_name": "Zoner",
                "engine_update": "20190207",
                "engine_version": "1.0",
                "method": "blacklist",
                "result": null
            },
            "eGambit": {
                "category": "undetected",
                "engine_name": "eGambit",
                "engine_update": "20190208",
                "engine_version": "v4.3.6",
                "method": "blacklist",
                "result": null
            }
        },
        "last_analysis_stats": {
            "confirmed-timeout": 0,
            "failure": 0,
            "harmless": 0,
            "malicious": 8,
            "suspicious": 0,
            "timeout": 0,
            "type-unsupported": 1,
            "undetected": 63
        },
        "last_modification_date": 1549580714,
        "last_submission_date": 1542614327,
        "magic": "PE32 executable for MS Windows (GUI) Intel 80386 32-bit Mono/.Net assembly",
        "md5": "406d49cbb2f87b6e99154a4a0f64b795",
        "meaningful_name": "Loader.exe",
        "names": [
            "Loader.exe",
            "$RBT654B.EXE"
        ],
        "pe_info": {
            "entry_point": 16830,
            "imphash": "f34d5f2d4577ed6d9ceec516c1f5a744",
            "import_list": [
                {
                    "imported_functions": [
                        "_CorExeMain"
                    ],
                    "library_name": "mscoree.dll"
                }
            ],
            "machine_type": 332,
            "overlay": {
                "chi2": 253501.5,
                "entropy": 0.1616026759147644,
                "filetype": "ASCII text",
                "md5": "d2fc4fa41257de496f1bc4693daa485c",
                "offset": 18944,
                "size": 1024
            },
            "resource_details": [
                {
                    "chi2": 158774.34375,
                    "entropy": 4.8368611335754395,
                    "filetype": "data",
                    "lang": "NEUTRAL",
                    "sha256": "f53361e51e573174f083255bb85af919fc33fa1767ceb203414ef1d52b9cac4e",
                    "type": "RT_ICON"
                },
                {
                    "chi2": 66660.75,
                    "entropy": 5.692010402679443,
                    "filetype": "data",
                    "lang": "NEUTRAL",
                    "sha256": "57605af4ade592afe4ae4035d007ed1ab34532025621145588095a9dbfbe9f60",
                    "type": "RT_ICON"
                },
                {
                    "chi2": 55649.16796875,
                    "entropy": 5.38177490234375,
                    "filetype": "data",
                    "lang": "NEUTRAL",
                    "sha256": "9cbda4083f300e3756fb2fcb1ecb9ca7a63af10b704a1f8e1c97ce97a6bd0a69",
                    "type": "RT_ICON"
                },
                {
                    "chi2": 3589.332275390625,
                    "entropy": 2.6246204376220703,
                    "filetype": "data",
                    "lang": "NEUTRAL",
                    "sha256": "cf0ce8960dd477b8db4c4b28afdd31aa7127f21e4ae17abf461c2e510820f558",
                    "type": "RT_GROUP_ICON"
                },
                {
                    "chi2": 50278.37890625,
                    "entropy": 3.1424503326416016,
                    "filetype": "data",
                    "lang": "NEUTRAL",
                    "sha256": "01d13a18b41b062335e03380b17d0cd99f23795e2880214fc480b7e75a566ca1",
                    "type": "RT_VERSION"
                },
                {
                    "chi2": 4719.86083984375,
                    "entropy": 5.00111722946167,
                    "filetype": "data",
                    "lang": "NEUTRAL",
                    "sha256": "c0085eb467d2fc9c9f395047e057183b3cd1503a4087d0db565161c13527a76f",
                    "type": "RT_MANIFEST"
                }
            ],
            "resource_langs": {
                "NEUTRAL": 6
            },
            "resource_types": {
                "RT_GROUP_ICON": 1,
                "RT_ICON": 3,
                "RT_MANIFEST": 1,
                "RT_VERSION": 1
            },
            "sections": [
                {
                    "entropy": 5.38,
                    "md5": "f2e479fe8223f32acbebf8db4434c06d",
                    "name": ".text",
                    "raw_size": 8704,
                    "virtual_address": 8192,
                    "virtual_size": 8644
                },
                {
                    "entropy": 5.17,
                    "md5": "923c852a12bd6ac1146bbdc5417c96b8",
                    "name": ".rsrc",
                    "raw_size": 9216,
                    "virtual_address": 24576,
                    "virtual_size": 8880
                },
                {
                    "entropy": 0.08,
                    "md5": "2f7e52b0419ee2fd23984b51585bcfec",
                    "name": ".reloc",
                    "raw_size": 512,
                    "virtual_address": 40960,
                    "virtual_size": 12
                }
            ],
            "timestamp": 1512400704
        },
        "reputation": 0,
        "sha1": "e905e823e04139909d60819b659be7ffa3c77206",
        "sha256": "0003201e403ece45f60665d329baea3284b472302d6c0c5597da5ff2f9863a3d",
        "signature_info": {
            "copyright": " ",
            "description": " ",
            "file version": "0.0.0.0",
            "internal name": "Loader.exe",
            "original name": "Loader.exe"
        },
        "size": 19968,
        "ssdeep": "384:UcAZmVX0r7VU9BD2K0r7DWEpPIxmuUN5n5jkrWhcQm:tAZmN030xg7PP5uU55ArW7",
        "tags": [
            "peexe",
            "assembly",
            "overlay"
        ],
        "times_submitted": 1,
        "total_votes": {
            "harmless": 0,
            "malicious": 0
        },
        "trid": [
            {
                "file_type": "Generic CIL Executable (.NET, Mono, etc.)",
                "probability": 62.0
            },
            {
                "file_type": "Win64 Executable (generic)",
                "probability": 23.4
            },
            {
                "file_type": "Win32 Dynamic Link Library (generic)",
                "probability": 5.5
            },
            {
                "file_type": "Win32 Executable (generic)",
                "probability": 3.8
            },
            {
                "file_type": "OS/2 Executable (generic)",
                "probability": 1.7
            }
        ],
        "type_description": "Win32 EXE",
        "type_extension": "exe",
        "type_tag": "peexe",
        "unique_sources": 1,
        "vhash": "2140365555190055172020"
    },
    "id": "0003201e403ece45f60665d329baea3284b472302d6c0c5597da5ff2f9863a3d",
    "links": {
        "self": "https://www.virustotal.com/api/v3/files/0003201e403ece45f60665d329baea3284b472302d6c0c5597da5ff2f9863a3d"
    },
    "type": "file"
}