{
    "attributes": {
        "authentihash": "f3c6b1bd6686818b83da4c586e90651ad5a4cb42c899da62e9116110c6a10d6f",
        "creation_date": 1227140627,
        "first_submission_date": 1517149865,
        "last_analysis_date": 1517149865,
        "last_analysis_results": {
            "ALYac": {
                "category": "malicious",
                "engine_name": "ALYac",
                "engine_update": "20180127",
                "engine_version": "1.1.1.3",
                "method": "blacklist",
                "result": "Gen:Variant.Zusy.230023"
            },
            "AVG": {
                "category": "malicious",
                "engine_name": "AVG",
                "engine_update": "20180128",
                "engine_version": "17.9.3761.0",
                "method": "blacklist",
                "result": "Win32:Trojan-gen"
            },
            "AVware": {
                "category": "malicious",
                "engine_name": "AVware",
                "engine_update": "20180124",
                "engine_version": "1.5.0.42",
                "method": "blacklist",
                "result": "Trojan.Win32.Generic!BT"
            },
            "Ad-Aware": {
                "category": "malicious",
                "engine_name": "Ad-Aware",
                "engine_update": "20180128",
                "engine_version": "3.0.3.1010",
                "method": "blacklist",
                "result": "Gen:Variant.Zusy.230023"
            },
            "AegisLab": {
                "category": "malicious",
                "engine_name": "AegisLab",
                "engine_update": "20180128",
                "engine_version": "4.2",
                "method": "blacklist",
                "result": "Troj.W32.Agent.tp7G"
            },
            "AhnLab-V3": {
                "category": "malicious",
                "engine_name": "AhnLab-V3",
                "engine_update": "20180128",
                "engine_version": "3.11.3.19504",
                "method": "blacklist",
                "result": "Trojan/Win32.Scar.R45219"
            },
            "Alibaba": {
                "category": "type-unsupported",
                "engine_name": "Alibaba",
                "engine_update": "20180126",
                "engine_version": "1.0",
                "method": "blacklist",
                "result": null
            },
            "Antiy-AVL": {
                "category": "malicious",
                "engine_name": "Antiy-AVL",
                "engine_update": "20180128",
                "engine_version": "3.0.0.1",
                "method": "blacklist",
                "result": "Trojan/Win32.Genome"
            },
            "Arcabit": {
                "category": "malicious",
                "engine_name": "Arcabit",
                "engine_update": "20180128",
                "engine_version": "1.0.0.827",
                "method": "blacklist",
                "result": "Trojan.Zusy.D38287"
            },
            "Avast": {
                "category": "malicious",
                "engine_name": "Avast",
                "engine_update": "20180128",
                "engine_version": "17.9.3761.0",
                "method": "blacklist",
                "result": "Win32:Trojan-gen"
            },
            "Avast-Mobile": {
                "category": "undetected",
                "engine_name": "Avast-Mobile",
                "engine_update": "20180127",
                "engine_version": "180127-00",
                "method": "blacklist",
                "result": null
            },
            "Avira": {
                "category": "malicious",
                "engine_name": "Avira",
                "engine_update": "20180128",
                "engine_version": "8.3.3.6",
                "method": "blacklist",
                "result": "TR/Rootkit.Gen"
            },
            "Baidu": {
                "category": "malicious",
                "engine_name": "Baidu",
                "engine_update": "20180126",
                "engine_version": "1.0.0.2",
                "method": "blacklist",
                "result": "Win32.Trojan.Agent.awc"
            },
            "BitDefender": {
                "category": "malicious",
                "engine_name": "BitDefender",
                "engine_update": "20180128",
                "engine_version": "7.2",
                "method": "blacklist",
                "result": "Gen:Variant.Zusy.230023"
            },
            "Bkav": {
                "category": "malicious",
                "engine_name": "Bkav",
                "engine_update": "20180126",
                "engine_version": "1.3.0.9466",
                "method": "blacklist",
                "result": "W32.ScaraNV.Trojan"
            },
            "CAT-QuickHeal": {
                "category": "malicious",
                "engine_name": "CAT-QuickHeal",
                "engine_update": "20180127",
                "engine_version": "14.00",
                "method": "blacklist",
                "result": "TrojanDropper.Scudy.S12799"
            },
            "CMC": {
                "category": "malicious",
                "engine_name": "CMC",
                "engine_update": "20180128",
                "engine_version": "1.1.0.977",
                "method": "blacklist",
                "result": "Trojan.Win32.Scar!O"
            },
            "ClamAV": {
                "category": "malicious",
                "engine_name": "ClamAV",
                "engine_update": "20180128",
                "engine_version": "0.99.2.0",
                "method": "blacklist",
                "result": "Win.Trojan.Agent-192217"
            },
            "Comodo": {
                "category": "undetected",
                "engine_name": "Comodo",
                "engine_update": "20180128",
                "engine_version": null,
                "method": "blacklist",
                "result": null
            },
            "CrowdStrike": {
                "category": "malicious",
                "engine_name": "CrowdStrike",
                "engine_update": "20171016",
                "engine_version": "1.0",
                "method": "blacklist",
                "result": "malicious_confidence_100% (D)"
            },
            "Cybereason": {
                "category": "malicious",
                "engine_name": "Cybereason",
                "engine_update": "20171103",
                "engine_version": "0.0.914",
                "method": "blacklist",
                "result": "malicious.1b8fb7"
            },
            "Cylance": {
                "category": "malicious",
                "engine_name": "Cylance",
                "engine_update": "20180128",
                "engine_version": "2.3.1.101",
                "method": "blacklist",
                "result": "Unsafe"
            },
            "Cyren": {
                "category": "malicious",
                "engine_name": "Cyren",
                "engine_update": "20180128",
                "engine_version": "5.4.30.7",
                "method": "blacklist",
                "result": "W32/S-65a44fa2!Eldorado"
            },
            "DrWeb": {
                "category": "malicious",
                "engine_name": "DrWeb",
                "engine_update": "20180128",
                "engine_version": "7.0.28.2020",
                "method": "blacklist",
                "result": "Trojan.Click1.19227"
            },
            "ESET-NOD32": {
                "category": "malicious",
                "engine_name": "ESET-NOD32",
                "engine_update": "20180128",
                "engine_version": "16810",
                "method": "blacklist",
                "result": "Win32/Agent.QAH"
            },
            "Emsisoft": {
                "category": "malicious",
                "engine_name": "Emsisoft",
                "engine_update": "20180128",
                "engine_version": "4.0.2.899",
                "method": "blacklist",
                "result": "Gen:Variant.Zusy.230023 (B)"
            },
            "Endgame": {
                "category": "malicious",
                "engine_name": "Endgame",
                "engine_update": "20171130",
                "engine_version": "1.1.4",
                "method": "blacklist",
                "result": "malicious (high confidence)"
            },
            "F-Prot": {
                "category": "malicious",
                "engine_name": "F-Prot",
                "engine_update": "20180128",
                "engine_version": "4.7.1.166",
                "method": "blacklist",
                "result": "W32/S-65a44fa2!Eldorado"
            },
            "Fortinet": {
                "category": "undetected",
                "engine_name": "Fortinet",
                "engine_update": "20180128",
                "engine_version": "5.4.247.0",
                "method": "blacklist",
                "result": null
            },
            "GData": {
                "category": "malicious",
                "engine_name": "GData",
                "engine_update": "20180128",
                "engine_version": "A:25.15840B:25.11456",
                "method": "blacklist",
                "result": "Gen:Variant.Zusy.230023"
            },
            "Invincea": {
                "category": "malicious",
                "engine_name": "Invincea",
                "engine_update": "20180121",
                "engine_version": "6.3.4.26036",
                "method": "blacklist",
                "result": "heuristic"
            },
            "Jiangmin": {
                "category": "malicious",
                "engine_name": "Jiangmin",
                "engine_update": "20180128",
                "engine_version": "16.0.100",
                "method": "blacklist",
                "result": "Trojan/Scar.flx"
            },
            "K7AntiVirus": {
                "category": "malicious",
                "engine_name": "K7AntiVirus",
                "engine_update": "20180128",
                "engine_version": "10.38.26029",
                "method": "blacklist",
                "result": "Trojan ( 004ce37e1 )"
            },
            "K7GW": {
                "category": "malicious",
                "engine_name": "K7GW",
                "engine_update": "20180128",
                "engine_version": "10.38.26029",
                "method": "blacklist",
                "result": "Trojan ( 004ce37e1 )"
            },
            "Kaspersky": {
                "category": "malicious",
                "engine_name": "Kaspersky",
                "engine_update": "20180128",
                "engine_version": "15.0.1.13",
                "method": "blacklist",
                "result": "Trojan.Win32.Agent.nezoed"
            },
            "Kingsoft": {
                "category": "undetected",
                "engine_name": "Kingsoft",
                "engine_update": "20180128",
                "engine_version": "2013.8.14.323",
                "method": "blacklist",
                "result": null
            },
            "MAX": {
                "category": "malicious",
                "engine_name": "MAX",
                "engine_update": "20180128",
                "engine_version": "2017.11.15.1",
                "method": "blacklist",
                "result": "malware (ai score=89)"
            },
            "Malwarebytes": {
                "category": "malicious",
                "engine_name": "Malwarebytes",
                "engine_update": "20180128",
                "engine_version": "2.1.1.1115",
                "method": "blacklist",
                "result": "Trojan.Dropper"
            },
            "McAfee": {
                "category": "malicious",
                "engine_name": "McAfee",
                "engine_update": "20180128",
                "engine_version": "6.0.6.653",
                "method": "blacklist",
                "result": "Agent-FFI!D4C55AEA68DF"
            },
            "McAfee-GW-Edition": {
                "category": "malicious",
                "engine_name": "McAfee-GW-Edition",
                "engine_update": "20180128",
                "engine_version": "v2015",
                "method": "blacklist",
                "result": "BehavesLike.Win32.Agent.th"
            },
            "MicroWorld-eScan": {
                "category": "malicious",
                "engine_name": "MicroWorld-eScan",
                "engine_update": "20180128",
                "engine_version": "14.0.297.0",
                "method": "blacklist",
                "result": "Gen:Variant.Zusy.230023"
            },
            "Microsoft": {
                "category": "malicious",
                "engine_name": "Microsoft",
                "engine_update": "20180128",
                "engine_version": "1.1.14500.5",
                "method": "blacklist",
                "result": "TrojanDropper:Win32/Scudy.A"
            },
            "NANO-Antivirus": {
                "category": "malicious",
                "engine_name": "NANO-Antivirus",
                "engine_update": "20180128",
                "engine_version": "1.0.100.21015",
                "method": "blacklist",
                "result": "Trojan.Win32.TrjGen.csajzo"
            },
            "Paloalto": {
                "category": "undetected",
                "engine_name": "Paloalto",
                "engine_update": "20180128",
                "engine_version": "1.0",
                "method": "blacklist",
                "result": null
            },
            "Panda": {
                "category": "malicious",
                "engine_name": "Panda",
                "engine_update": "20180128",
                "engine_version": "4.6.4.2",
                "method": "blacklist",
                "result": "Generic Malware"
            },
            "Qihoo-360": {
                "category": "malicious",
                "engine_name": "Qihoo-360",
                "engine_update": "20180128",
                "engine_version": "1.0.0.1120",
                "method": "blacklist",
                "result": "QVM41.1.Malware.Gen"
            },
            "Rising": {
                "category": "malicious",
                "engine_name": "Rising",
                "engine_update": "20180128",
                "engine_version": "25.0.0.1",
                "method": "blacklist",
                "result": "Trojan.Agent!1.AE59 (CLASSIC)"
            },
            "SUPERAntiSpyware": {
                "category": "undetected",
                "engine_name": "SUPERAntiSpyware",
                "engine_update": "20180128",
                "engine_version": "5.6.0.1032",
                "method": "blacklist",
                "result": null
            },
            "SentinelOne": {
                "category": "malicious",
                "engine_name": "SentinelOne",
                "engine_update": "20180115",
                "engine_version": "1.0.12.202",
                "method": "blacklist",
                "result": "static engine - malicious"
            },
            "Sophos": {
                "category": "malicious",
                "engine_name": "Sophos",
                "engine_update": "20180128",
                "engine_version": "4.98.0",
                "method": "blacklist",
                "result": "Troj/Scar-G"
            },
            "Symantec": {
                "category": "malicious",
                "engine_name": "Symantec",
                "engine_update": "20180127",
                "engine_version": "1.5.0.0",
                "method": "blacklist",
                "result": "SMG.Heur!gen"
            },
            "SymantecMobileInsight": {
                "category": "type-unsupported",
                "engine_name": "SymantecMobileInsight",
                "engine_update": "20180126",
                "engine_version": "1.0.0.35_220",
                "method": "blacklist",
                "result": null
            },
            "Tencent": {
                "category": "malicious",
                "engine_name": "Tencent",
                "engine_update": "20180128",
                "engine_version": "1.0.0.1",
                "method": "blacklist",
                "result": "Trojan.Win32.Agen.tas"
            },
            "TheHacker": {
                "category": "malicious",
                "engine_name": "TheHacker",
                "engine_update": "20180125",
                "engine_version": "6.8.0.5.2346",
                "method": "blacklist",
                "result": "Trojan/Agent.qah"
            },
            "TotalDefense": {
                "category": "undetected",
                "engine_name": "TotalDefense",
                "engine_update": "20180128",
                "engine_version": "37.1.62.1",
                "method": "blacklist",
                "result": null
            },
            "TrendMicro-HouseCall": {
                "category": "malicious",
                "engine_name": "TrendMicro-HouseCall",
                "engine_update": "20180128",
                "engine_version": "9.950.0.1006",
                "method": "blacklist",
                "result": "WORM_SCUDY.SMA"
            },
            "Trustlook": {
                "category": "type-unsupported",
                "engine_name": "Trustlook",
                "engine_update": "20180128",
                "engine_version": "2",
                "method": "blacklist",
                "result": null
            },
            "VBA32": {
                "category": "malicious",
                "engine_name": "VBA32",
                "engine_update": "20180126",
                "engine_version": "3.12.28.0",
                "method": "blacklist",
                "result": "Trojan.Scar"
            },
            "VIPRE": {
                "category": "malicious",
                "engine_name": "VIPRE",
                "engine_update": "20180128",
                "engine_version": "64184",
                "method": "blacklist",
                "result": "Trojan.Win32.Generic!BT"
            },
            "ViRobot": {
                "category": "malicious",
                "engine_name": "ViRobot",
                "engine_update": "20180128",
                "engine_version": "2014.3.20.0",
                "method": "blacklist",
                "result": "Trojan.Win32.A.Scar.876573"
            },
            "Webroot": {
                "category": "malicious",
                "engine_name": "Webroot",
                "engine_update": "20180128",
                "engine_version": "1.0.0.207",
                "method": "blacklist",
                "result": "W32.Downloader.Gen"
            },
            "Yandex": {
                "category": "malicious",
                "engine_name": "Yandex",
                "engine_update": "20180112",
                "engine_version": "5.5.1.3",
                "method": "blacklist",
                "result": "Trojan.Scar!3JbHUSbGsGc"
            },
            "Zillya": {
                "category": "undetected",
                "engine_name": "Zillya",
                "engine_update": "20180126",
                "engine_version": "2.0.0.3478",
                "method": "blacklist",
                "result": null
            },
            "ZoneAlarm": {
                "category": "malicious",
                "engine_name": "ZoneAlarm",
                "engine_update": "20180128",
                "engine_version": "1.0",
                "method": "blacklist",
                "result": "Trojan.Win32.Agent.nezoed"
            },
            "Zoner": {
                "category": "malicious",
                "engine_name": "Zoner",
                "engine_update": "20180128",
                "engine_version": "1.0",
                "method": "blacklist",
                "result": "Trojan.Agent.QAH"
            },
            "eGambit": {
                "category": "undetected",
                "engine_name": "eGambit",
                "engine_update": "20180128",
                "engine_version": "v4.2.7",
                "method": "blacklist",
                "result": null
            },
            "nProtect": {
                "category": "malicious",
                "engine_name": "nProtect",
                "engine_update": "20180128",
                "engine_version": "2018-01-28.02",
                "method": "blacklist",
                "result": "Trojan/W32.Scar.2031661"
            }
        },
        "last_analysis_stats": {
            "confirmed-timeout": 0,
            "failure": 0,
            "harmless": 0,
            "malicious": 55,
            "suspicious": 0,
            "timeout": 0,
            "type-unsupported": 3,
            "undetected": 9
        },
        "last_modification_date": 1517150737,
        "last_submission_date": 1517149865,
        "magic": "PE32 executable for MS Windows (GUI) Intel 80386 32-bit",
        "md5": "d4c55aea68df632291a9fb73b18e2a65",
        "meaningful_name": "d4c55aea68df632291a9fb73b18e2a65.virus",
        "names": [
            "d4c55aea68df632291a9fb73b18e2a65.virus"
        ],
        "pe_info": {
            "entry_point": 62576,
            "imphash": "ce0a2602d6565693c08cde994da9b460",
            "import_list": [
                {
                    "imported_functions": [
                        "GetAdaptersInfo"
                    ],
                    "library_name": "iphlpapi.dll"
                },
                {
                    "imported_functions": [
                        "HttpSendRequestA",
                        "InternetSetCookieA",
                        "InternetWriteFile",
                        "HttpOpenRequestA",
                        "HttpAddRequestHeadersA",
                        "HttpQueryInfoA",
                        "InternetCloseHandle",
                        "InternetOpenA",
                        "InternetConnectA",
                        "InternetReadFile",
                        "InternetAttemptConnect",
                        "HttpEndRequestA",
                        "HttpSendRequestExA"
                    ],
                    "library_name": "WININET.dll"
                },
                {
                    "imported_functions": [
                        "RegCloseKey",
                        "OpenServiceA",
                        "RegQueryValueExA",
                        "GetSecurityDescriptorControl",
                        "GetAce",
                        "ControlService",
                        "InitializeAcl",
                        "RegCreateKeyExA",
                        "GetAclInformation",
                        "RegQueryValueExW",
                        "SetSecurityDescriptorDacl",
                        "LookupAccountNameA",
                        "AddAccessAllowedAce",
                        "RegOpenKeyExW",
                        "GetFileSecurityA",
                        "RegOpenKeyExA",
                        "SetFileSecurityA",
                        "CloseServiceHandle",
                        "GetSecurityDescriptorDacl",
                        "GetUserNameA",
                        "GetLengthSid",
                        "RegEnumKeyExA",
                        "RegQueryInfoKeyA",
                        "InitializeSecurityDescriptor",
                        "RegSetValueExA",
                        "StartServiceA",
                        "EqualSid",
                        "OpenSCManagerA",
                        "AddAce"
                    ],
                    "library_name": "ADVAPI32.dll"
                },
                {
                    "imported_functions": [
                        "GetStdHandle",
                        "FileTimeToSystemTime",
                        "WaitForSingleObject",
                        "HeapDestroy",
                        "GetLocalTime",
                        "FreeEnvironmentStringsA",
                        "GetCurrentProcess",
                        "GetLocaleInfoA",
                        "lstrcatA",
                        "FreeEnvironmentStringsW",
                        "SetStdHandle",
                        "WideCharToMultiByte",
                        "GetStringTypeA",
                        "InterlockedExchange",
                        "WriteFile",
                        "GetSystemTimeAsFileTime",
                        "HeapReAlloc",
                        "GetStringTypeW",
                        "SetFileAttributesA",
                        "GetOEMCP",
                        "LocalFree",
                        "MoveFileA",
                        "GetEnvironmentVariableA",
                        "LoadResource",
                        "FindClose",
                        "BeginUpdateResourceA",
                        "GetSystemTime",
                        "DeviceIoControl",
                        "CopyFileA",
                        "ExitProcess",
                        "GetVersionExA",
                        "RemoveDirectoryA",
                        "UpdateResourceA",
                        "LoadLibraryExA",
                        "UnhandledExceptionFilter",
                        "MultiByteToWideChar",
                        "CreateMutexA",
                        "GetModuleHandleA",
                        "CreateThread",
                        "SetUnhandledExceptionFilter",
                        "GetSystemDirectoryA",
                        "GlobalMemoryStatus",
                        "GlobalAlloc",
                        "SetEndOfFile",
                        "GetCurrentThreadId",
                        "HeapFree",
                        "SetHandleCount",
                        "FreeLibrary",
                        "QueryPerformanceCounter",
                        "GetTickCount",
                        "IsBadWritePtr",
                        "VirtualProtect",
                        "FlushFileBuffers",
                        "LoadLibraryA",
                        "EndUpdateResourceA",
                        "RtlUnwind",
                        "GetStartupInfoA",
                        "GetFileSize",
                        "CreateDirectoryA",
                        "DeleteFileA",
                        "GetProcAddress",
                        "GetProcessHeap",
                        "lstrcpyW",
                        "lstrcmpA",
                        "FindFirstFileA",
                        "GetEnvironmentVariableW",
                        "lstrcpyA",
                        "EnumResourceNamesA",
                        "CreateFileMappingA",
                        "FindNextFileA",
                        "TerminateProcess",
                        "CreateFileW",
                        "GetFileType",
                        "CreateFileA",
                        "HeapAlloc",
                        "GetLastError",
                        "SystemTimeToFileTime",
                        "LCMapStringW",
                        "HeapCreate",
                        "GetSystemInfo",
                        "lstrlenA",
                        "GlobalFree",
                        "LCMapStringA",
                        "GetEnvironmentStringsW",
                        "VirtualQuery",
                        "GetModuleFileNameA",
                        "WinExec",
                        "SizeofResource",
                        "GetCurrentProcessId",
                        "LockResource",
                        "SetFileTime",
                        "GetCommandLineW",
                        "GetCPInfo",
                        "HeapSize",
                        "GetCommandLineA",
                        "OpenMutexA",
                        "RaiseException",
                        "MapViewOfFile",
                        "SetFilePointer",
                        "ReadFile",
                        "CloseHandle",
                        "GetACP",
                        "GetEnvironmentStrings",
                        "CreateProcessA",
                        "UnmapViewOfFile",
                        "VirtualFree",
                        "Sleep",
                        "IsBadReadPtr",
                        "IsBadCodePtr",
                        "FindResourceA",
                        "VirtualAlloc"
                    ],
                    "library_name": "KERNEL32.dll"
                },
                {
                    "imported_functions": [
                        "WSAStartup",
                        "gethostbyname",
                        "gethostname",
                        "inet_addr"
                    ],
                    "library_name": "WSOCK32.dll"
                },
                {
                    "imported_functions": [
                        "NetShareAdd"
                    ],
                    "library_name": "NETAPI32.dll"
                },
                {
                    "imported_functions": [
                        "ShellExecuteA",
                        "CommandLineToArgvW"
                    ],
                    "library_name": "SHELL32.dll"
                },
                {
                    "imported_functions": [
                        "StrStrA",
                        "StrStrIA"
                    ],
                    "library_name": "SHLWAPI.dll"
                },
                {
                    "imported_functions": [
                        "wsprintfA"
                    ],
                    "library_name": "USER32.dll"
                }
            ],
            "machine_type": 332,
            "overlay": {
                "chi2": 1046393.8125,
                "entropy": 7.573676586151123,
                "filetype": "data",
                "md5": "3b2b78b104d705bc2c1dc7062ff8ae7b",
                "offset": 876544,
                "size": 1155117
            },
            "resource_details": [
                {
                    "chi2": 17469.501953125,
                    "entropy": 3.1518445014953613,
                    "filetype": "data",
                    "lang": "ENGLISH US",
                    "sha256": "2a8707a9fc5a81fa3a23d6c83b5d9a820eb4ceb2af3b19b72677053610462098",
                    "type": "BIN"
                },
                {
                    "chi2": 2806749.5,
                    "entropy": 4.982255458831787,
                    "filetype": "data",
                    "lang": "ENGLISH US",
                    "sha256": "c66540175143c39dd6f6fef1b255ff2ab6c6346fe16bd8f2d2d96e48cf83aac4",
                    "type": "BIN"
                },
                {
                    "chi2": 67404.609375,
                    "entropy": 2.7156691551208496,
                    "filetype": "data",
                    "lang": "ENGLISH US",
                    "sha256": "1f019617f12766dfd072c7a0646d1d4f30d634cc7efe3dfe4f70137181125f7e",
                    "type": "BIN"
                },
                {
                    "chi2": 4742416.0,
                    "entropy": 4.68781852722168,
                    "filetype": "ASCII text",
                    "lang": "ENGLISH US",
                    "sha256": "5703e79aa7cc5deb1f468fa7c4257e8f886016da871c446e4b022c47095310d8",
                    "type": "BIN"
                },
                {
                    "chi2": 2048785.625,
                    "entropy": 4.72294807434082,
                    "filetype": "ASCII text",
                    "lang": "ENGLISH US",
                    "sha256": "eb47bf9de6dab33f1dd5bef4a7dc6e1481968e7242957893e07ca94cbb8a29a6",
                    "type": "BIN"
                },
                {
                    "chi2": 217957.4375,
                    "entropy": 3.9463043212890625,
                    "filetype": "application/x-ms-dos-executable",
                    "lang": "ENGLISH US",
                    "sha256": "82bd6079b1fd0d085448524c5c419b045e3f3cb78e7b1c3991e927d1752dd742",
                    "type": "BIN"
                },
                {
                    "chi2": 210004.03125,
                    "entropy": 4.667812347412109,
                    "filetype": "application/x-ms-dos-executable",
                    "lang": "ENGLISH US",
                    "sha256": "294ba5330967b36a25892ecab8e6d138c586223ebcc4ead02ea9424ee64691fb",
                    "type": "BIN"
                },
                {
                    "chi2": 120152.3125,
                    "entropy": 2.4643945693969727,
                    "filetype": "data",
                    "lang": "NEUTRAL",
                    "sha256": "a5b27452c21b98f47fede802b63bed43da5cff938d31f0aca8c4c4c28b022384",
                    "type": "RT_ICON"
                },
                {
                    "chi2": 52880.1953125,
                    "entropy": 3.5271518230438232,
                    "filetype": "data",
                    "lang": "ENGLISH US",
                    "sha256": "0924c3158065aa6efa74c7b32d70b2638f937a6f48d636953b6be0f441f0a3ef",
                    "type": "RT_ICON"
                },
                {
                    "chi2": 48474.75,
                    "entropy": 2.6614344120025635,
                    "filetype": "data",
                    "lang": "NEUTRAL",
                    "sha256": "e740e6d3edf9e2c18c14b51b0d206b7112ede0740e3cd5764342d6782b84cb19",
                    "type": "RT_ICON"
                },
                {
                    "chi2": 21167.400390625,
                    "entropy": 3.80159068107605,
                    "filetype": "data",
                    "lang": "ENGLISH US",
                    "sha256": "4b541efde7773192a061a1f1904e93a94cb86a02306a9ebb2b9ed37c2d658d11",
                    "type": "RT_ICON"
                },
                {
                    "chi2": 16018.8125,
                    "entropy": 2.9518258571624756,
                    "filetype": "data",
                    "lang": "NEUTRAL",
                    "sha256": "61baa5afe2e9d0b49b07ae27b0781b1de86ed1747f8e9a8fd15355f7c7c7868e",
                    "type": "RT_ICON"
                },
                {
                    "chi2": 10609.94921875,
                    "entropy": 3.719667911529541,
                    "filetype": "data",
                    "lang": "ENGLISH US",
                    "sha256": "0c37181983d83509d18d0934d606a8bdcf30ca3edd647ddcaf50ebddf9ad0e88",
                    "type": "RT_ICON"
                },
                {
                    "chi2": 93072.4921875,
                    "entropy": 4.477750301361084,
                    "filetype": "data",
                    "lang": "NEUTRAL",
                    "sha256": "1501bb74f4271df84400b1c4c713f361459142e0f0c90a36d37995de2564ded6",
                    "type": "RT_ICON"
                },
                {
                    "chi2": 131756.6875,
                    "entropy": 5.727690696716309,
                    "filetype": "data",
                    "lang": "ENGLISH US",
                    "sha256": "6e3022dd86cb7f7ee57b28299c408cf75299aa716501cacaa75d8c690bf34006",
                    "type": "RT_ICON"
                },
                {
                    "chi2": 93148.4609375,
                    "entropy": 4.182375431060791,
                    "filetype": "data",
                    "lang": "NEUTRAL",
                    "sha256": "c90841443fbd5285eeaf1a29f5cc2f6f21ab537a75b3df28bc0ea769d0efb134",
                    "type": "RT_ICON"
                },
                {
                    "chi2": 26779.87109375,
                    "entropy": 6.558993816375732,
                    "filetype": "data",
                    "lang": "ENGLISH US",
                    "sha256": "ce975c94e304113b8e507a9841e8706ad2eaf17637b2ee7139522c35af278067",
                    "type": "RT_ICON"
                },
                {
                    "chi2": 160741.328125,
                    "entropy": 2.7211689949035645,
                    "filetype": "data",
                    "lang": "NEUTRAL",
                    "sha256": "d7c3d12761deb0ce6d917a3699b60570d9d558c49d1782d67fc5e34b8a0689cf",
                    "type": "RT_ICON"
                },
                {
                    "chi2": 65504.3828125,
                    "entropy": 5.16019868850708,
                    "filetype": "data",
                    "lang": "ENGLISH US",
                    "sha256": "302989d0a33a08a2aab155e6cb3ec012bef9d6d00e94871de29ed8d4bb62ab05",
                    "type": "RT_ICON"
                },
                {
                    "chi2": 280132.9375,
                    "entropy": 4.558391094207764,
                    "filetype": "data",
                    "lang": "NEUTRAL",
                    "sha256": "606c4640c6886ed7596a83553c75196da287bee92fb8f3d3b6df53eb3734a5f7",
                    "type": "RT_ICON"
                },
                {
                    "chi2": 282342.1875,
                    "entropy": 5.166892051696777,
                    "filetype": "data",
                    "lang": "ENGLISH US",
                    "sha256": "539241168aea0932be7176e84ae24c967aa039fd6538d6e58dd7322aeb631476",
                    "type": "RT_ICON"
                },
                {
                    "chi2": 151572.21875,
                    "entropy": 4.336761951446533,
                    "filetype": "data",
                    "lang": "NEUTRAL",
                    "sha256": "5cef5ed6ba375fde2c75c902429a4306faad3d97a61cea7dd08b1b1666abc0c1",
                    "type": "RT_ICON"
                },
                {
                    "chi2": 135467.71875,
                    "entropy": 5.5272722244262695,
                    "filetype": "data",
                    "lang": "ENGLISH US",
                    "sha256": "5f1cc9ffc67b508318cee92b2bf0a0b9b32fe383eb10ce05b0c0b43d746bea00",
                    "type": "RT_ICON"
                },
                {
                    "chi2": 30467.109375,
                    "entropy": 4.681479454040527,
                    "filetype": "data",
                    "lang": "NEUTRAL",
                    "sha256": "6351ade425ab3c5454109a954c1c8d81c9403e8f2e3e845bd8976b0d73c8142d",
                    "type": "RT_ICON"
                },
                {
                    "chi2": 38048.125,
                    "entropy": 5.333760738372803,
                    "filetype": "data",
                    "lang": "ENGLISH US",
                    "sha256": "7e7c7f709e62d8827d00a33e1fc3e274cdfa41b32c38b7a83390ccc3aded8fc7",
                    "type": "RT_ICON"
                },
                {
                    "chi2": 51879016.0,
                    "entropy": 0.03306831046938896,
                    "filetype": "data",
                    "lang": "ENGLISH US",
                    "sha256": "9da45c578b50f275a2c7da3503cbdc8627fe0139cb1d91ecf401a1544d28f24e",
                    "type": "RT_ICON"
                },
                {
                    "chi2": 19071920.0,
                    "entropy": 0.0,
                    "filetype": "ASCII text",
                    "lang": "ENGLISH US",
                    "sha256": "1a50432274fd32808e2a7e0c49a57b27d51db6da5d0a4ef9496599dcc66b16fb",
                    "type": "RT_ICON"
                },
                {
                    "chi2": 10471217.0,
                    "entropy": 0.0,
                    "filetype": "ASCII text",
                    "lang": "ENGLISH US",
                    "sha256": "42c40200d5ce21529862ed028c962c6d60d14e8fbe7af3c35ffb0918cc5778e3",
                    "type": "RT_ICON"
                },
                {
                    "chi2": 7354160.0,
                    "entropy": 0.0,
                    "filetype": "ASCII text",
                    "lang": "ENGLISH US",
                    "sha256": "45a634e2a328810e8603980b54316788abed33ede50e99529abb4a75dd988ea7",
                    "type": "RT_ICON"
                },
                {
                    "chi2": 1495312.0,
                    "entropy": 0.0,
                    "filetype": "ASCII text",
                    "lang": "ENGLISH US",
                    "sha256": "30dca44465ca4232ef08cd974a4523e8a379d5992a3488d76bdd62c0debf7e6d",
                    "type": "RT_ICON"
                },
                {
                    "chi2": 92945.8125,
                    "entropy": 6.291817665100098,
                    "filetype": "data",
                    "lang": "NEUTRAL",
                    "sha256": "7595599a03bc5c1a45f8ef8c8c704e7569ca5ed67a9f6ec220010da24941aac8",
                    "type": "RT_ICON"
                },
                {
                    "chi2": 2915184.0,
                    "entropy": 0.0,
                    "filetype": "ASCII text",
                    "lang": "ENGLISH US",
                    "sha256": "2a1f016940ffffb5418bab915f533621cbcaec6793bfdc1a66f8d0f7d80f8e3b",
                    "type": "RT_ICON"
                },
                {
                    "chi2": 1870672.0,
                    "entropy": 0.0,
                    "filetype": "ASCII text",
                    "lang": "NEUTRAL",
                    "sha256": "899eab7e40c6bbb4c9ff5ad5f266d21de6f9784e9832f591219eedeb5716ea23",
                    "type": "RT_ICON"
                },
                {
                    "chi2": 1870672.0,
                    "entropy": 0.0,
                    "filetype": "ASCII text",
                    "lang": "ENGLISH US",
                    "sha256": "899eab7e40c6bbb4c9ff5ad5f266d21de6f9784e9832f591219eedeb5716ea23",
                    "type": "RT_ICON"
                },
                {
                    "chi2": 826192.125,
                    "entropy": 0.0,
                    "filetype": "ASCII text",
                    "lang": "ENGLISH US",
                    "sha256": "2c8b84f6b624896a8d24f48ab771057c92e566e8c9840632a0b6ecbe487a87bf",
                    "type": "RT_ICON"
                },
                {
                    "chi2": 222360.0,
                    "entropy": 0.0,
                    "filetype": "ASCII text",
                    "lang": "ENGLISH US",
                    "sha256": "232885aa9953d5c0890072e5589e9265c9a06f8354cb7403cde80d604c526f09",
                    "type": "RT_ICON"
                },
                {
                    "chi2": 8700.0009765625,
                    "entropy": 2.8909690380096436,
                    "filetype": "data",
                    "lang": "NEUTRAL",
                    "sha256": "ca82878ac6f8f5d26249f03257b496eebf06e2d20e02349a0b871bf92766535c",
                    "type": "RT_GROUP_ICON"
                },
                {
                    "chi2": 65790.0,
                    "entropy": 0.0,
                    "filetype": "ASCII text",
                    "lang": "ENGLISH US",
                    "sha256": "6bd3749a368b56ead82399ee6d06456c94bde1edab4477a48d4b48ea5e032053",
                    "type": "RT_GROUP_ICON"
                }
            ],
            "resource_langs": {
                "ENGLISH US": 26,
                "NEUTRAL": 12
            },
            "resource_types": {
                "BIN": 7,
                "RT_GROUP_ICON": 2,
                "RT_ICON": 29
            },
            "sections": [
                {
                    "entropy": 6.57,
                    "md5": "73716c0ddba86f3c45ee68ac33ea32be",
                    "name": ".text",
                    "raw_size": 94208,
                    "virtual_address": 4096,
                    "virtual_size": 92055
                },
                {
                    "entropy": 4.72,
                    "md5": "a81be53750bf2c947d9705693ad17b01",
                    "name": ".rdata",
                    "raw_size": 16384,
                    "virtual_address": 98304,
                    "virtual_size": 14336
                },
                {
                    "entropy": 4.28,
                    "md5": "2117f50924261dd74c223c1a91848dd4",
                    "name": ".data",
                    "raw_size": 16384,
                    "virtual_address": 114688,
                    "virtual_size": 26300
                },
                {
                    "entropy": 3.53,
                    "md5": "ecb5fa2ba9db0db5bf0bc39069d41e1b",
                    "name": ".rsrc",
                    "raw_size": 745472,
                    "virtual_address": 143360,
                    "virtual_size": 743416
                }
            ],
            "timestamp": 1227140627
        },
        "reputation": 0,
        "sha1": "967322c243d64bb7130aaf2df364c336815c253d",
        "sha256": "0004cfe8d69791b3140f16d471fdf668324ae04c92bb86f3ecd4e6be75bf821d",
        "size": 2031661,
        "ssdeep": "24576:HVA+5i5CnygcNaeKfkNUpgOKMvyJ1A3Mbc7WTqC:Ti5CnCNaTxpgCv90c7WTqC",
        "tags": [
            "peexe",
            "overlay"
        ],
        "times_submitted": 1,
        "total_votes": {
            "harmless": 0,
            "malicious": 0
        },
        "trid": [
            {
                "file_type": "InstallShield setup",
                "probability": 38.9
            },
            {
                "file_type": "Win32 Executable MS Visual C++ (generic)",
                "probability": 28.2
            },
            {
                "file_type": "Win64 Executable (generic)",
                "probability": 25.0
            },
            {
                "file_type": "Win32 Executable (generic)",
                "probability": 4.0
            },
            {
                "file_type": "Generic Win/DOS Executable",
                "probability": 1.8
            }
        ],
        "type_description": "Win32 EXE",
        "type_extension": "exe",
        "type_tag": "peexe",
        "unique_sources": 1,
        "vhash": "026046655d1511d8z6f1z1dz2021z11zdbz"
    },
    "id": "0004cfe8d69791b3140f16d471fdf668324ae04c92bb86f3ecd4e6be75bf821d",
    "links": {
        "self": "https://www.virustotal.com/api/v3/files/0004cfe8d69791b3140f16d471fdf668324ae04c92bb86f3ecd4e6be75bf821d"
    },
    "type": "file"
}