{
    "attributes": {
        "authentihash": "8e1d9440bdb4fc1d09e68b9ab68d718c8ec796f6887fea3a1d9f12b5fc3401df",
        "creation_date": 708993653,
        "first_submission_date": 1554941116,
        "last_analysis_date": 1573982650,
        "last_analysis_results": {
            "ALYac": {
                "category": "malicious",
                "engine_name": "ALYac",
                "engine_update": "20191118",
                "engine_version": "1.1.1.5",
                "method": "blacklist",
                "result": "Trojan.Agent.DQQD"
            },
            "APEX": {
                "category": "malicious",
                "engine_name": "APEX",
                "engine_update": "20191116",
                "engine_version": "5.86",
                "method": "blacklist",
                "result": "Malicious"
            },
            "AVG": {
                "category": "malicious",
                "engine_name": "AVG",
                "engine_update": "20191117",
                "engine_version": "18.4.3895.0",
                "method": "blacklist",
                "result": "Win32:Wabot [Trj]"
            },
            "Acronis": {
                "category": "malicious",
                "engine_name": "Acronis",
                "engine_update": "20191113",
                "engine_version": "1.1.1.58",
                "method": "blacklist",
                "result": "suspicious"
            },
            "Ad-Aware": {
                "category": "malicious",
                "engine_name": "Ad-Aware",
                "engine_update": "20191117",
                "engine_version": "3.0.5.370",
                "method": "blacklist",
                "result": "Trojan.Agent.DQQD"
            },
            "AegisLab": {
                "category": "undetected",
                "engine_name": "AegisLab",
                "engine_update": "20191116",
                "engine_version": "4.2",
                "method": "blacklist",
                "result": null
            },
            "AhnLab-V3": {
                "category": "malicious",
                "engine_name": "AhnLab-V3",
                "engine_update": "20191117",
                "engine_version": "3.16.4.25692",
                "method": "blacklist",
                "result": "Worm/Win32.IRCBot.R3689"
            },
            "Alibaba": {
                "category": "malicious",
                "engine_name": "Alibaba",
                "engine_update": "20190527",
                "engine_version": "0.3.0.5",
                "method": "blacklist",
                "result": "Malware:Win32/Dorpal.ali1000029"
            },
            "Antiy-AVL": {
                "category": "malicious",
                "engine_name": "Antiy-AVL",
                "engine_update": "20191117",
                "engine_version": "3.0.0.1",
                "method": "blacklist",
                "result": "Trojan[Backdoor]/Win32.Wabot.a"
            },
            "Arcabit": {
                "category": "malicious",
                "engine_name": "Arcabit",
                "engine_update": "20191117",
                "engine_version": "1.0.0.861",
                "method": "blacklist",
                "result": "Trojan.Agent.DQQD"
            },
            "Avast": {
                "category": "malicious",
                "engine_name": "Avast",
                "engine_update": "20191117",
                "engine_version": "18.4.3895.0",
                "method": "blacklist",
                "result": "Win32:Wabot [Trj]"
            },
            "Avast-Mobile": {
                "category": "undetected",
                "engine_name": "Avast-Mobile",
                "engine_update": "20191115",
                "engine_version": "191114-10",
                "method": "blacklist",
                "result": null
            },
            "Avira": {
                "category": "malicious",
                "engine_name": "Avira",
                "engine_update": "20191117",
                "engine_version": "8.3.3.8",
                "method": "blacklist",
                "result": "TR/Dldr.Delphi.Gen"
            },
            "Baidu": {
                "category": "malicious",
                "engine_name": "Baidu",
                "engine_update": "20190318",
                "engine_version": "1.0.0.2",
                "method": "blacklist",
                "result": "Win32.Backdoor.Wabot.a"
            },
            "BitDefender": {
                "category": "malicious",
                "engine_name": "BitDefender",
                "engine_update": "20191117",
                "engine_version": "7.2",
                "method": "blacklist",
                "result": "Trojan.Agent.DQQD"
            },
            "BitDefenderTheta": {
                "category": "malicious",
                "engine_name": "BitDefenderTheta",
                "engine_update": "20191113",
                "engine_version": "7.2.37796.0",
                "method": "blacklist",
                "result": "Gen:Trojan.Heur2.LPTMGZ@bmmSwzmib"
            },
            "Bkav": {
                "category": "malicious",
                "engine_name": "Bkav",
                "engine_update": "20191116",
                "engine_version": "1.3.0.9899",
                "method": "blacklist",
                "result": "W32.BackdoorWabot.Trojan"
            },
            "CAT-QuickHeal": {
                "category": "malicious",
                "engine_name": "CAT-QuickHeal",
                "engine_update": "20191116",
                "engine_version": "14.00",
                "method": "blacklist",
                "result": "Trojan.Wabot.A8"
            },
            "CMC": {
                "category": "malicious",
                "engine_name": "CMC",
                "engine_update": "20190321",
                "engine_version": "1.1.0.977",
                "method": "blacklist",
                "result": "Backdoor.Win32.Wabot!O"
            },
            "ClamAV": {
                "category": "malicious",
                "engine_name": "ClamAV",
                "engine_update": "20191117",
                "engine_version": "0.102.0.0",
                "method": "blacklist",
                "result": "Win.Trojan.Wabot-6113548-0"
            },
            "Comodo": {
                "category": "malicious",
                "engine_name": "Comodo",
                "engine_update": "20191117",
                "engine_version": "31734",
                "method": "blacklist",
                "result": "Backdoor.Win32.Wabot.A@4knk5y"
            },
            "CrowdStrike": {
                "category": "malicious",
                "engine_name": "CrowdStrike",
                "engine_update": "20190702",
                "engine_version": "1.0",
                "method": "blacklist",
                "result": "win/malicious_confidence_100% (W)"
            },
            "Cylance": {
                "category": "malicious",
                "engine_name": "Cylance",
                "engine_update": "20191118",
                "engine_version": "2.3.1.101",
                "method": "blacklist",
                "result": "Unsafe"
            },
            "Cyren": {
                "category": "malicious",
                "engine_name": "Cyren",
                "engine_update": "20191117",
                "engine_version": "6.2.2.2",
                "method": "blacklist",
                "result": "W32/Backdoor.PJEB-4161"
            },
            "DrWeb": {
                "category": "malicious",
                "engine_name": "DrWeb",
                "engine_update": "20191118",
                "engine_version": "7.0.41.7240",
                "method": "blacklist",
                "result": "Trojan.MulDrop6.64369"
            },
            "ESET-NOD32": {
                "category": "malicious",
                "engine_name": "ESET-NOD32",
                "engine_update": "20191117",
                "engine_version": "20364",
                "method": "blacklist",
                "result": "Win32/Delf.NRF"
            },
            "Emsisoft": {
                "category": "malicious",
                "engine_name": "Emsisoft",
                "engine_update": "20191031",
                "engine_version": "2018.12.0.1641",
                "method": "blacklist",
                "result": "Trojan.Agent.DQQD (B)"
            },
            "Endgame": {
                "category": "malicious",
                "engine_name": "Endgame",
                "engine_update": "20190918",
                "engine_version": "3.0.15",
                "method": "blacklist",
                "result": "malicious (high confidence)"
            },
            "F-Prot": {
                "category": "malicious",
                "engine_name": "F-Prot",
                "engine_update": "20191118",
                "engine_version": "4.7.1.166",
                "method": "blacklist",
                "result": "W32/Wabot.A"
            },
            "F-Secure": {
                "category": "malicious",
                "engine_name": "F-Secure",
                "engine_update": "20191117",
                "engine_version": "12.0.86.52",
                "method": "blacklist",
                "result": "Trojan.TR/Dldr.Delphi.Gen"
            },
            "FireEye": {
                "category": "malicious",
                "engine_name": "FireEye",
                "engine_update": "20191117",
                "engine_version": "29.7.0.0",
                "method": "blacklist",
                "result": "Generic.mg.dc607e7248da3a3f"
            },
            "Fortinet": {
                "category": "malicious",
                "engine_name": "Fortinet",
                "engine_update": "20191118",
                "engine_version": "5.4.247.0",
                "method": "blacklist",
                "result": "W32/Wabot.A!tr"
            },
            "GData": {
                "category": "malicious",
                "engine_name": "GData",
                "engine_update": "20191118",
                "engine_version": "A:25.24010B:26.16687",
                "method": "blacklist",
                "result": "Trojan.Agent.DQQD"
            },
            "Ikarus": {
                "category": "malicious",
                "engine_name": "Ikarus",
                "engine_update": "20191117",
                "engine_version": "0.1.5.2",
                "method": "blacklist",
                "result": "P2P-Worm.Win32.Delf"
            },
            "Invincea": {
                "category": "malicious",
                "engine_name": "Invincea",
                "engine_update": "20190904",
                "engine_version": "6.3.6.26157",
                "method": "blacklist",
                "result": "heuristic"
            },
            "Jiangmin": {
                "category": "malicious",
                "engine_name": "Jiangmin",
                "engine_update": "20191117",
                "engine_version": "16.0.100",
                "method": "blacklist",
                "result": "Backdoor/Wabot.z"
            },
            "K7AntiVirus": {
                "category": "malicious",
                "engine_name": "K7AntiVirus",
                "engine_update": "20191117",
                "engine_version": "11.78.32579",
                "method": "blacklist",
                "result": "Backdoor ( 0040f5511 )"
            },
            "K7GW": {
                "category": "malicious",
                "engine_name": "K7GW",
                "engine_update": "20191117",
                "engine_version": "11.78.32579",
                "method": "blacklist",
                "result": "Backdoor ( 0040f5511 )"
            },
            "Kaspersky": {
                "category": "malicious",
                "engine_name": "Kaspersky",
                "engine_update": "20191117",
                "engine_version": "15.0.1.13",
                "method": "blacklist",
                "result": "Backdoor.Win32.Wabot.a"
            },
            "Kingsoft": {
                "category": "undetected",
                "engine_name": "Kingsoft",
                "engine_update": "20191118",
                "engine_version": "2013.8.14.323",
                "method": "blacklist",
                "result": null
            },
            "MAX": {
                "category": "malicious",
                "engine_name": "MAX",
                "engine_update": "20191118",
                "engine_version": "2019.9.16.1",
                "method": "blacklist",
                "result": "malware (ai score=100)"
            },
            "Malwarebytes": {
                "category": "malicious",
                "engine_name": "Malwarebytes",
                "engine_update": "20191117",
                "engine_version": "2.1.1.1115",
                "method": "blacklist",
                "result": "Backdoor.Wabot"
            },
            "McAfee": {
                "category": "malicious",
                "engine_name": "McAfee",
                "engine_update": "20191113",
                "engine_version": "6.0.6.653",
                "method": "blacklist",
                "result": "W32/Wabot"
            },
            "McAfee-GW-Edition": {
                "category": "malicious",
                "engine_name": "McAfee-GW-Edition",
                "engine_update": "20191117",
                "engine_version": "v2017.3010",
                "method": "blacklist",
                "result": "BehavesLike.Win32.Wabot.jc"
            },
            "MicroWorld-eScan": {
                "category": "malicious",
                "engine_name": "MicroWorld-eScan",
                "engine_update": "20191117",
                "engine_version": "14.0.297.0",
                "method": "blacklist",
                "result": "Trojan.Agent.DQQD"
            },
            "Microsoft": {
                "category": "malicious",
                "engine_name": "Microsoft",
                "engine_update": "20191118",
                "engine_version": "1.1.16500.1",
                "method": "blacklist",
                "result": "Backdoor:Win32/Wabot.A"
            },
            "NANO-Antivirus": {
                "category": "malicious",
                "engine_name": "NANO-Antivirus",
                "engine_update": "20191117",
                "engine_version": "1.0.134.24859",
                "method": "blacklist",
                "result": "Trojan.Win32.Wabot.dmukv"
            },
            "Paloalto": {
                "category": "malicious",
                "engine_name": "Paloalto",
                "engine_update": "20191118",
                "engine_version": "1.0",
                "method": "blacklist",
                "result": "generic.ml"
            },
            "Panda": {
                "category": "malicious",
                "engine_name": "Panda",
                "engine_update": "20191117",
                "engine_version": "4.6.4.2",
                "method": "blacklist",
                "result": "Backdoor Program"
            },
            "Qihoo-360": {
                "category": "malicious",
                "engine_name": "Qihoo-360",
                "engine_update": "20191118",
                "engine_version": "1.0.0.1120",
                "method": "blacklist",
                "result": "Win32/Backdoor.Wabot.A"
            },
            "Rising": {
                "category": "malicious",
                "engine_name": "Rising",
                "engine_update": "20191117",
                "engine_version": "25.0.0.24",
                "method": "blacklist",
                "result": "Worm.Chilly!1.661C (CLASSIC)"
            },
            "SUPERAntiSpyware": {
                "category": "malicious",
                "engine_name": "SUPERAntiSpyware",
                "engine_update": "20191115",
                "engine_version": "5.6.0.1032",
                "method": "blacklist",
                "result": "Backdoor.Wabot/Variant"
            },
            "SentinelOne": {
                "category": "malicious",
                "engine_name": "SentinelOne",
                "engine_update": "20191115",
                "engine_version": "1.0.31.33",
                "method": "blacklist",
                "result": "DFI - Malicious PE"
            },
            "Sophos": {
                "category": "malicious",
                "engine_name": "Sophos",
                "engine_update": "20191117",
                "engine_version": "4.98.0",
                "method": "blacklist",
                "result": "Troj/Luiha-M"
            },
            "Symantec": {
                "category": "malicious",
                "engine_name": "Symantec",
                "engine_update": "20191117",
                "engine_version": "1.11.0.0",
                "method": "blacklist",
                "result": "W32.Wabot"
            },
            "SymantecMobileInsight": {
                "category": "type-unsupported",
                "engine_name": "SymantecMobileInsight",
                "engine_update": "20191030",
                "engine_version": "2.0",
                "method": "blacklist",
                "result": null
            },
            "TACHYON": {
                "category": "malicious",
                "engine_name": "TACHYON",
                "engine_update": "20191117",
                "engine_version": "2019-11-17.02",
                "method": "blacklist",
                "result": "Backdoor/W32.DP-WaBot.Zen"
            },
            "Tencent": {
                "category": "malicious",
                "engine_name": "Tencent",
                "engine_update": "20191118",
                "engine_version": "1.0.0.1",
                "method": "blacklist",
                "result": "Trojan.Win32.Wabot.a"
            },
            "TotalDefense": {
                "category": "malicious",
                "engine_name": "TotalDefense",
                "engine_update": "20191117",
                "engine_version": "37.1.62.1",
                "method": "blacklist",
                "result": "Win32/DCMgreen.A"
            },
            "Trapmine": {
                "category": "malicious",
                "engine_name": "Trapmine",
                "engine_update": "20190826",
                "engine_version": "3.1.81.800",
                "method": "blacklist",
                "result": "malicious.high.ml.score"
            },
            "TrendMicro": {
                "category": "malicious",
                "engine_name": "TrendMicro",
                "engine_update": "20191117",
                "engine_version": "11.0.0.1006",
                "method": "blacklist",
                "result": "BKDR_WABOT.SMIA"
            },
            "TrendMicro-HouseCall": {
                "category": "malicious",
                "engine_name": "TrendMicro-HouseCall",
                "engine_update": "20191117",
                "engine_version": "10.0.0.1040",
                "method": "blacklist",
                "result": "BKDR_WABOT.SMIA"
            },
            "Trustlook": {
                "category": "type-unsupported",
                "engine_name": "Trustlook",
                "engine_update": "20191118",
                "engine_version": "1.0",
                "method": "blacklist",
                "result": null
            },
            "VBA32": {
                "category": "malicious",
                "engine_name": "VBA32",
                "engine_update": "20191116",
                "engine_version": "4.2.0",
                "method": "blacklist",
                "result": "BScope.Trojan.MulDrop"
            },
            "VIPRE": {
                "category": "malicious",
                "engine_name": "VIPRE",
                "engine_update": "20191117",
                "engine_version": "79402",
                "method": "blacklist",
                "result": "BehavesLike.Win32.Malware.ssc (mx-v)"
            },
            "ViRobot": {
                "category": "malicious",
                "engine_name": "ViRobot",
                "engine_update": "20191117",
                "engine_version": "2014.3.20.0",
                "method": "blacklist",
                "result": "Backdoor.Win32.Wabot.157619"
            },
            "Webroot": {
                "category": "malicious",
                "engine_name": "Webroot",
                "engine_update": "20191118",
                "engine_version": "1.0.0.403",
                "method": "blacklist",
                "result": "Backdoor/Win32.Wabot.Gen"
            },
            "Yandex": {
                "category": "malicious",
                "engine_name": "Yandex",
                "engine_update": "20191114",
                "engine_version": "5.5.2.24",
                "method": "blacklist",
                "result": "Backdoor.Wabot!5GmadvpPfuA"
            },
            "Zillya": {
                "category": "malicious",
                "engine_name": "Zillya",
                "engine_update": "20191115",
                "engine_version": "2.0.0.3952",
                "method": "blacklist",
                "result": "Backdoor.Wabot.Win32.1"
            },
            "ZoneAlarm": {
                "category": "malicious",
                "engine_name": "ZoneAlarm",
                "engine_update": "20191117",
                "engine_version": "1.0",
                "method": "blacklist",
                "result": "Backdoor.Win32.Wabot.a"
            },
            "Zoner": {
                "category": "malicious",
                "engine_name": "Zoner",
                "engine_update": "20191117",
                "engine_version": "1.0.0.1",
                "method": "blacklist",
                "result": "Trojan.Win32.81304"
            }
        },
        "last_analysis_stats": {
            "confirmed-timeout": 0,
            "failure": 0,
            "harmless": 0,
            "malicious": 66,
            "suspicious": 0,
            "timeout": 0,
            "type-unsupported": 2,
            "undetected": 3
        },
        "last_modification_date": 1574035309,
        "last_submission_date": 1554941116,
        "magic": "PE32 executable for MS Windows (GUI) Intel 80386 32-bit",
        "md5": "dc607e7248da3a3f00ce876081f58f27",
        "names": [],
        "packers": {
            "PEiD": "BobSoft Mini Delphi -> BoB / BobSoft"
        },
        "pe_info": {
            "entry_point": 55404,
            "imphash": "5662cfcdfd9da29cb429e7528d5af81e",
            "import_list": [
                {
                    "imported_functions": [
                        "RegOpenKeyExA",
                        "RegQueryValueExA",
                        "RegCloseKey"
                    ],
                    "library_name": "advapi32.dll"
                },
                {
                    "imported_functions": [
                        "GetSystemTime",
                        "GetLastError",
                        "GetStdHandle",
                        "EnterCriticalSection",
                        "FileTimeToDosDateTime",
                        "GetFileAttributesA",
                        "FreeLibrary",
                        "CopyFileA",
                        "ExitProcess",
                        "GetModuleFileNameA",
                        "EndUpdateResourceA",
                        "RtlUnwind",
                        "WinExec",
                        "UpdateResourceA",
                        "DeleteCriticalSection",
                        "GetStartupInfoA",
                        "FileTimeToLocalFileTime",
                        "WritePrivateProfileStringA",
                        "LocalAlloc",
                        "CreateDirectoryA",
                        "DeleteFileA",
                        "UnhandledExceptionFilter",
                        "GetCommandLineA",
                        "CreateMutexA",
                        "GetModuleHandleA",
                        "RaiseException",
                        "CreateThread",
                        "SetFilePointer",
                        "ReadFile",
                        "WriteFile",
                        "FindFirstFileA",
                        "CloseHandle",
                        "FindNextFileA",
                        "GetSystemDirectoryA",
                        "LocalFree",
                        "InitializeCriticalSection",
                        "BeginUpdateResourceA",
                        "VirtualFree",
                        "FindClose",
                        "TlsGetValue",
                        "Sleep",
                        "GetFileType",
                        "SetEndOfFile",
                        "TlsSetValue",
                        "CreateFileA",
                        "GetCurrentThreadId",
                        "VirtualAlloc",
                        "GetFileSize",
                        "LeaveCriticalSection"
                    ],
                    "library_name": "kernel32.dll"
                },
                {
                    "imported_functions": [
                        "SysFreeString"
                    ],
                    "library_name": "oleaut32.dll"
                },
                {
                    "imported_functions": [
                        "GetMessageA",
                        "SetTimer",
                        "DispatchMessageA",
                        "CharNextA",
                        "CharUpperBuffA",
                        "MessageBoxA",
                        "GetKeyboardType"
                    ],
                    "library_name": "user32.dll"
                },
                {
                    "imported_functions": [
                        "htonl",
                        "socket",
                        "closesocket",
                        "inet_addr",
                        "send",
                        "WSACleanup",
                        "WSAStartup",
                        "gethostbyname",
                        "ntohs",
                        "connect",
                        "getsockname",
                        "bind",
                        "inet_ntoa",
                        "htons",
                        "recv",
                        "accept",
                        "select",
                        "listen"
                    ],
                    "library_name": "wsock32.dll"
                }
            ],
            "machine_type": 332,
            "overlay": {
                "chi2": 238.67994689941406,
                "entropy": 7.999702453613281,
                "filetype": "data",
                "md5": "39f5be577b34e04a3015d92ae25415f8",
                "offset": 63488,
                "size": 573784
            },
            "resource_details": [
                {
                    "chi2": 51724.29296875,
                    "entropy": 3.0983128547668457,
                    "filetype": "data",
                    "lang": "NEUTRAL",
                    "sha256": "9240be4dd11d728e5ca70685b0048b71a90a4e2b5385d4a149768d18c7f93a71",
                    "type": "RT_ICON"
                },
                {
                    "chi2": 54838.94921875,
                    "entropy": 3.0834686756134033,
                    "filetype": "data",
                    "lang": "ENGLISH US",
                    "sha256": "6ce5f95744c6e13947558dfcdac15a631c63ae11015441973b3846ef9dc93eb5",
                    "type": "RT_ICON"
                },
                {
                    "chi2": 30776.86328125,
                    "entropy": 2.3377842903137207,
                    "filetype": "data",
                    "lang": "ENGLISH US",
                    "sha256": "03ed4216d6e7f8d6ed7141293d722dd1dd7402f8027f84b1fc75391dee8cd56b",
                    "type": "RT_ICON"
                },
                {
                    "chi2": 240.0,
                    "entropy": 4.0,
                    "filetype": "data",
                    "lang": "NEUTRAL",
                    "sha256": "88d14cc6638af8a0836f6d868dfab60df92907a2d7becaefbbd7e007acb75610",
                    "type": "RT_RCDATA"
                },
                {
                    "chi2": 2243.732177734375,
                    "entropy": 4.680292129516602,
                    "filetype": "data",
                    "lang": "NEUTRAL",
                    "sha256": "5bca7ea07beab1af9048e57a0bcadd92139ec7b283f50b52b43b7d045a688f9b",
                    "type": "RT_RCDATA"
                },
                {
                    "chi2": 2345.2939453125,
                    "entropy": 2.370859146118164,
                    "filetype": "data",
                    "lang": "ENGLISH US",
                    "sha256": "b10e28a32eddb2ab20a46ceae59d9c0786911eb20f0c8dd2a28421f226ea2b8b",
                    "type": "RT_GROUP_ICON"
                }
            ],
            "resource_langs": {
                "ENGLISH US": 3,
                "NEUTRAL": 3
            },
            "resource_types": {
                "RT_GROUP_ICON": 1,
                "RT_ICON": 3,
                "RT_RCDATA": 2
            },
            "sections": [
                {
                    "entropy": 6.57,
                    "md5": "b764d8122a196188ed697c8f75d76d82",
                    "name": "CODE",
                    "raw_size": 51712,
                    "virtual_address": 4096,
                    "virtual_size": 51588
                },
                {
                    "entropy": 4.53,
                    "md5": "5bd558c4cfa6af8832a10b063dfaf1ed",
                    "name": "DATA",
                    "raw_size": 3072,
                    "virtual_address": 57344,
                    "virtual_size": 2588
                },
                {
                    "entropy": 0.0,
                    "md5": "d41d8cd98f00b204e9800998ecf8427e",
                    "name": "BSS",
                    "raw_size": 0,
                    "virtual_address": 61440,
                    "virtual_size": 4369
                },
                {
                    "entropy": 4.17,
                    "md5": "96b1d121243ee63bbbbb3c2ce0e5d05f",
                    "name": ".idata",
                    "raw_size": 2560,
                    "virtual_address": 69632,
                    "virtual_size": 2110
                },
                {
                    "entropy": 0.0,
                    "md5": "d41d8cd98f00b204e9800998ecf8427e",
                    "name": ".tls",
                    "raw_size": 0,
                    "virtual_address": 73728,
                    "virtual_size": 8
                },
                {
                    "entropy": 0.21,
                    "md5": "c8f3ad504b4e880ce32a390a76c71bfb",
                    "name": ".rdata",
                    "raw_size": 512,
                    "virtual_address": 77824,
                    "virtual_size": 24
                },
                {
                    "entropy": 6.26,
                    "md5": "9ae567482e1a613b2c236fb19412ef5f",
                    "name": ".reloc",
                    "raw_size": 2048,
                    "virtual_address": 81920,
                    "virtual_size": 1808
                },
                {
                    "entropy": 3.89,
                    "md5": "2183dc4ac709b34e27a700de451eaaed",
                    "name": ".rsrc",
                    "raw_size": 2560,
                    "virtual_address": 86016,
                    "virtual_size": 2364
                }
            ],
            "timestamp": 708993653
        },
        "reputation": 0,
        "sha1": "8374ef42c8c282d4f99a859a9bab3d52d6928d35",
        "sha256": "0004806d27b7f3cc3a64e3aaaa418ba96419cf1d569fc6db53d79576bfb7357e",
        "size": 637272,
        "ssdeep": "12288:91blTz8y6Crmyn3X/5ovjHmYhyGaRdU70ppuk3t30Je:91btIy6Zyn3PObGV32KSe",
        "tags": [
            "bobsoft",
            "peexe",
            "overlay"
        ],
        "times_submitted": 1,
        "total_votes": {
            "harmless": 0,
            "malicious": 0
        },
        "trid": [
            {
                "file_type": "Win32 Dynamic Link Library (generic)",
                "probability": 34.2
            },
            {
                "file_type": "Win32 Executable (generic)",
                "probability": 23.4
            },
            {
                "file_type": "Win16/32 Executable Delphi generic",
                "probability": 10.7
            },
            {
                "file_type": "OS/2 Executable (generic)",
                "probability": 10.5
            },
            {
                "file_type": "Generic Win/DOS Executable",
                "probability": 10.4
            }
        ],
        "type_description": "Win32 EXE",
        "type_extension": "exe",
        "type_tag": "peexe",
        "unique_sources": 1,
        "vhash": "0650866d1c0d1c0515651038z1d9z1bz3fz"
    },
    "id": "0004806d27b7f3cc3a64e3aaaa418ba96419cf1d569fc6db53d79576bfb7357e",
    "links": {
        "self": "https://www.virustotal.com/api/v3/files/0004806d27b7f3cc3a64e3aaaa418ba96419cf1d569fc6db53d79576bfb7357e"
    },
    "type": "file"
}