{
    "attributes": {
        "authentihash": "192d46213ddc2c17f648aba44fac6ac5bcb4ddd3f444324c8adc41771793d73a",
        "creation_date": 1423237524,
        "first_submission_date": 1495860779,
        "last_analysis_date": 1495860779,
        "last_analysis_results": {
            "ALYac": {
                "category": "malicious",
                "engine_name": "ALYac",
                "engine_update": "20170527",
                "engine_version": "1.0.1.9",
                "method": "blacklist",
                "result": "Adware.PURD"
            },
            "AVG": {
                "category": "undetected",
                "engine_name": "AVG",
                "engine_update": "20170526",
                "engine_version": "16.0.0.4776",
                "method": "blacklist",
                "result": null
            },
            "AVware": {
                "category": "malicious",
                "engine_name": "AVware",
                "engine_update": "20170527",
                "engine_version": "1.5.0.42",
                "method": "blacklist",
                "result": "Trojan.Win32.Generic!BT"
            },
            "Ad-Aware": {
                "category": "malicious",
                "engine_name": "Ad-Aware",
                "engine_update": "20170527",
                "engine_version": "3.0.3.1010",
                "method": "blacklist",
                "result": "Adware.PURD"
            },
            "AegisLab": {
                "category": "undetected",
                "engine_name": "AegisLab",
                "engine_update": "20170527",
                "engine_version": "4.2",
                "method": "blacklist",
                "result": null
            },
            "AhnLab-V3": {
                "category": "malicious",
                "engine_name": "AhnLab-V3",
                "engine_update": "20170526",
                "engine_version": "3.9.0.17697",
                "method": "blacklist",
                "result": "PUP/Win32.Downware.R138688"
            },
            "Alibaba": {
                "category": "type-unsupported",
                "engine_name": "Alibaba",
                "engine_update": "20170527",
                "engine_version": "1.0",
                "method": "blacklist",
                "result": null
            },
            "Antiy-AVL": {
                "category": "undetected",
                "engine_name": "Antiy-AVL",
                "engine_update": "20170527",
                "engine_version": "1.0.0.1",
                "method": "blacklist",
                "result": null
            },
            "Arcabit": {
                "category": "malicious",
                "engine_name": "Arcabit",
                "engine_update": "20170527",
                "engine_version": "1.0.0.806",
                "method": "blacklist",
                "result": "Adware.PURD"
            },
            "Avast": {
                "category": "malicious",
                "engine_name": "Avast",
                "engine_update": "20170527",
                "engine_version": "8.0.1489.320",
                "method": "blacklist",
                "result": "Win32:FourShared-AK [PUP]"
            },
            "Avira": {
                "category": "malicious",
                "engine_name": "Avira",
                "engine_update": "20170526",
                "engine_version": "8.3.3.4",
                "method": "blacklist",
                "result": "PUA/4Shared.P"
            },
            "Baidu": {
                "category": "malicious",
                "engine_name": "Baidu",
                "engine_update": "20170527",
                "engine_version": "1.0.0.2",
                "method": "blacklist",
                "result": "Win32.Trojan-Downloader.Agent.ci"
            },
            "BitDefender": {
                "category": "malicious",
                "engine_name": "BitDefender",
                "engine_update": "20170527",
                "engine_version": "7.2",
                "method": "blacklist",
                "result": "Adware.PURD"
            },
            "Bkav": {
                "category": "undetected",
                "engine_name": "Bkav",
                "engine_update": "20170526",
                "engine_version": "1.3.0.8876",
                "method": "blacklist",
                "result": null
            },
            "CAT-QuickHeal": {
                "category": "undetected",
                "engine_name": "CAT-QuickHeal",
                "engine_update": "20170526",
                "engine_version": "14.00",
                "method": "blacklist",
                "result": null
            },
            "CMC": {
                "category": "undetected",
                "engine_name": "CMC",
                "engine_update": "20170526",
                "engine_version": "1.1.0.977",
                "method": "blacklist",
                "result": null
            },
            "ClamAV": {
                "category": "malicious",
                "engine_name": "ClamAV",
                "engine_update": "20170527",
                "engine_version": "0.99.2.0",
                "method": "blacklist",
                "result": "Win.Adware.Purd-1"
            },
            "Comodo": {
                "category": "malicious",
                "engine_name": "Comodo",
                "engine_update": "20170527",
                "engine_version": "27166",
                "method": "blacklist",
                "result": "Application.Win32.4shared.GSP"
            },
            "CrowdStrike": {
                "category": "malicious",
                "engine_name": "CrowdStrike",
                "engine_update": "20170420",
                "engine_version": "1.0",
                "method": "blacklist",
                "result": "malicious_confidence_100% (D)"
            },
            "Cyren": {
                "category": "malicious",
                "engine_name": "Cyren",
                "engine_update": "20170527",
                "engine_version": "5.4.30.7",
                "method": "blacklist",
                "result": "W32/S-e7a92260!Eldorado"
            },
            "DrWeb": {
                "category": "malicious",
                "engine_name": "DrWeb",
                "engine_update": "20170527",
                "engine_version": "7.0.28.2020",
                "method": "blacklist",
                "result": "Adware.Downware.10748"
            },
            "ESET-NOD32": {
                "category": "malicious",
                "engine_name": "ESET-NOD32",
                "engine_update": "20170527",
                "engine_version": "15483",
                "method": "blacklist",
                "result": "a variant of Win32/4Shared.AI potentially unwanted"
            },
            "Emsisoft": {
                "category": "malicious",
                "engine_name": "Emsisoft",
                "engine_update": "20170527",
                "engine_version": "4.0.0.834",
                "method": "blacklist",
                "result": "Application.InstallShare (A)"
            },
            "Endgame": {
                "category": "malicious",
                "engine_name": "Endgame",
                "engine_update": "20170515",
                "engine_version": "0.5.0",
                "method": "blacklist",
                "result": "malicious (moderate confidence)"
            },
            "F-Prot": {
                "category": "malicious",
                "engine_name": "F-Prot",
                "engine_update": "20170527",
                "engine_version": "4.7.1.166",
                "method": "blacklist",
                "result": "W32/S-e7a92260!Eldorado"
            },
            "F-Secure": {
                "category": "malicious",
                "engine_name": "F-Secure",
                "engine_update": "20170527",
                "engine_version": "11.0.19100.45",
                "method": "blacklist",
                "result": "Adware.PURD"
            },
            "Fortinet": {
                "category": "malicious",
                "engine_name": "Fortinet",
                "engine_update": "20170527",
                "engine_version": "5.4.233.0",
                "method": "blacklist",
                "result": "Riskware/Generic.AC.1A6E2B"
            },
            "GData": {
                "category": "malicious",
                "engine_name": "GData",
                "engine_update": "20170527",
                "engine_version": "A:25.12572B:25.9624",
                "method": "blacklist",
                "result": "Win32.Application.4Shared.U"
            },
            "Ikarus": {
                "category": "malicious",
                "engine_name": "Ikarus",
                "engine_update": "20170526",
                "engine_version": "0.1.5.2",
                "method": "blacklist",
                "result": "PUA.4Shared"
            },
            "Invincea": {
                "category": "malicious",
                "engine_name": "Invincea",
                "engine_update": "20170519",
                "engine_version": "6.3.0.25390",
                "method": "blacklist",
                "result": "generic.a"
            },
            "Jiangmin": {
                "category": "malicious",
                "engine_name": "Jiangmin",
                "engine_update": "20170527",
                "engine_version": "16.0.100",
                "method": "blacklist",
                "result": "Adware.PURD.a"
            },
            "K7AntiVirus": {
                "category": "malicious",
                "engine_name": "K7AntiVirus",
                "engine_update": "20170526",
                "engine_version": "10.14.23470",
                "method": "blacklist",
                "result": "Unwanted-Program ( 004b30b71 )"
            },
            "K7GW": {
                "category": "malicious",
                "engine_name": "K7GW",
                "engine_update": "20170527",
                "engine_version": "10.14.23474",
                "method": "blacklist",
                "result": "Unwanted-Program ( 004b30b71 )"
            },
            "Kaspersky": {
                "category": "malicious",
                "engine_name": "Kaspersky",
                "engine_update": "20170527",
                "engine_version": "15.0.1.13",
                "method": "blacklist",
                "result": "not-a-virus:AdWare.Win32.4Shared.ylg"
            },
            "Kingsoft": {
                "category": "undetected",
                "engine_name": "Kingsoft",
                "engine_update": "20170527",
                "engine_version": "2013.8.14.323",
                "method": "blacklist",
                "result": null
            },
            "Malwarebytes": {
                "category": "undetected",
                "engine_name": "Malwarebytes",
                "engine_update": "20170527",
                "engine_version": "2.1.1.1115",
                "method": "blacklist",
                "result": null
            },
            "McAfee": {
                "category": "malicious",
                "engine_name": "McAfee",
                "engine_update": "20170527",
                "engine_version": "6.0.6.653",
                "method": "blacklist",
                "result": "4shared"
            },
            "McAfee-GW-Edition": {
                "category": "malicious",
                "engine_name": "McAfee-GW-Edition",
                "engine_update": "20170526",
                "engine_version": "v2015",
                "method": "blacklist",
                "result": "BehavesLike.Win32.Shared.qm"
            },
            "MicroWorld-eScan": {
                "category": "malicious",
                "engine_name": "MicroWorld-eScan",
                "engine_update": "20170527",
                "engine_version": "12.0.250.0",
                "method": "blacklist",
                "result": "Adware.PURD"
            },
            "Microsoft": {
                "category": "undetected",
                "engine_name": "Microsoft",
                "engine_update": "20170527",
                "engine_version": "1.1.13804.0",
                "method": "blacklist",
                "result": null
            },
            "NANO-Antivirus": {
                "category": "malicious",
                "engine_name": "NANO-Antivirus",
                "engine_update": "20170527",
                "engine_version": "1.0.76.17180",
                "method": "blacklist",
                "result": "Riskware.Win32.Adw.dnuszs"
            },
            "Paloalto": {
                "category": "undetected",
                "engine_name": "Paloalto",
                "engine_update": "20170527",
                "engine_version": "1.0",
                "method": "blacklist",
                "result": null
            },
            "Panda": {
                "category": "undetected",
                "engine_name": "Panda",
                "engine_update": "20170526",
                "engine_version": "4.6.4.2",
                "method": "blacklist",
                "result": null
            },
            "Qihoo-360": {
                "category": "undetected",
                "engine_name": "Qihoo-360",
                "engine_update": "20170527",
                "engine_version": "1.0.0.1120",
                "method": "blacklist",
                "result": null
            },
            "Rising": {
                "category": "malicious",
                "engine_name": "Rising",
                "engine_update": "20170527",
                "engine_version": "28.0.0.1",
                "method": "blacklist",
                "result": "PUA.4Shared!8.E2 (cloud:IUZMLMLUbSU) "
            },
            "SUPERAntiSpyware": {
                "category": "malicious",
                "engine_name": "SUPERAntiSpyware",
                "engine_update": "20170527",
                "engine_version": "5.6.0.1032",
                "method": "blacklist",
                "result": "PUP.4Shared/Variant"
            },
            "SentinelOne": {
                "category": "malicious",
                "engine_name": "SentinelOne",
                "engine_update": "20170516",
                "engine_version": "1.0.0.12",
                "method": "blacklist",
                "result": "static engine - malicious"
            },
            "Sophos": {
                "category": "malicious",
                "engine_name": "Sophos",
                "engine_update": "20170527",
                "engine_version": "4.98.0",
                "method": "blacklist",
                "result": "Generic PUA NG (PUA)"
            },
            "Symantec": {
                "category": "malicious",
                "engine_name": "Symantec",
                "engine_update": "20170527",
                "engine_version": "1.3.1.0",
                "method": "blacklist",
                "result": "SecurityRisk.gen1"
            },
            "SymantecMobileInsight": {
                "category": "type-unsupported",
                "engine_name": "SymantecMobileInsight",
                "engine_update": "20170526",
                "engine_version": "1.0.0.35_220",
                "method": "blacklist",
                "result": null
            },
            "Tencent": {
                "category": "undetected",
                "engine_name": "Tencent",
                "engine_update": "20170527",
                "engine_version": "1.0.0.1",
                "method": "blacklist",
                "result": null
            },
            "TheHacker": {
                "category": "undetected",
                "engine_name": "TheHacker",
                "engine_update": "20170525",
                "engine_version": "6.8.0.5.1561",
                "method": "blacklist",
                "result": null
            },
            "TotalDefense": {
                "category": "undetected",
                "engine_name": "TotalDefense",
                "engine_update": "20170527",
                "engine_version": "37.1.62.1",
                "method": "blacklist",
                "result": null
            },
            "TrendMicro": {
                "category": "malicious",
                "engine_name": "TrendMicro",
                "engine_update": "20170527",
                "engine_version": "9.740.0.1012",
                "method": "blacklist",
                "result": "TROJ_GEN.R021C0PEQ17"
            },
            "TrendMicro-HouseCall": {
                "category": "undetected",
                "engine_name": "TrendMicro-HouseCall",
                "engine_update": "20170525",
                "engine_version": "9.900.0.1004",
                "method": "blacklist",
                "result": null
            },
            "Trustlook": {
                "category": "type-unsupported",
                "engine_name": "Trustlook",
                "engine_update": "20170527",
                "engine_version": "2",
                "method": "blacklist",
                "result": null
            },
            "VBA32": {
                "category": "malicious",
                "engine_name": "VBA32",
                "engine_update": "20170526",
                "engine_version": "3.12.26.4",
                "method": "blacklist",
                "result": "suspected of Trojan.Downloader.gen.h"
            },
            "VIPRE": {
                "category": "malicious",
                "engine_name": "VIPRE",
                "engine_update": "20170527",
                "engine_version": "58382",
                "method": "blacklist",
                "result": "Trojan.Win32.Generic!BT"
            },
            "ViRobot": {
                "category": "undetected",
                "engine_name": "ViRobot",
                "engine_update": "20170527",
                "engine_version": "2014.3.20.0",
                "method": "blacklist",
                "result": null
            },
            "Webroot": {
                "category": "undetected",
                "engine_name": "Webroot",
                "engine_update": "20170527",
                "engine_version": "1.0.0.207",
                "method": "blacklist",
                "result": null
            },
            "WhiteArmor": {
                "category": "type-unsupported",
                "engine_name": "WhiteArmor",
                "engine_update": "20170524",
                "engine_version": "9101275",
                "method": "blacklist",
                "result": null
            },
            "Yandex": {
                "category": "malicious",
                "engine_name": "Yandex",
                "engine_update": "20170526",
                "engine_version": "5.5.1.3",
                "method": "blacklist",
                "result": "Trojan.Badur!"
            },
            "Zillya": {
                "category": "undetected",
                "engine_name": "Zillya",
                "engine_update": "20170526",
                "engine_version": "2.0.0.3291",
                "method": "blacklist",
                "result": null
            },
            "ZoneAlarm": {
                "category": "malicious",
                "engine_name": "ZoneAlarm",
                "engine_update": "20170527",
                "engine_version": "1.0",
                "method": "blacklist",
                "result": "not-a-virus:AdWare.Win32.4Shared.ylg"
            },
            "Zoner": {
                "category": "undetected",
                "engine_name": "Zoner",
                "engine_update": "20170527",
                "engine_version": "1.0",
                "method": "blacklist",
                "result": null
            },
            "nProtect": {
                "category": "undetected",
                "engine_name": "nProtect",
                "engine_update": "20170527",
                "engine_version": "2017-05-27.01",
                "method": "blacklist",
                "result": null
            }
        },
        "last_analysis_stats": {
            "confirmed-timeout": 0,
            "failure": 0,
            "harmless": 0,
            "malicious": 41,
            "suspicious": 0,
            "timeout": 0,
            "type-unsupported": 4,
            "undetected": 21
        },
        "last_modification_date": 1495861009,
        "last_submission_date": 1495860779,
        "magic": "PE32 executable for MS Windows (GUI) Intel 80386 32-bit",
        "md5": "eaf73d12021a83f31de0fadf71e9459a",
        "meaningful_name": "lltmoping.exe",
        "names": [
            "eaf73d12021a83f31de0fadf71e9459a.virus",
            "Bjkol",
            "lltmoping.exe"
        ],
        "pe_info": {
            "entry_point": 20119,
            "imphash": "9ce2b656a1f0a173330da3b01e14c9a4",
            "import_list": [
                {
                    "imported_functions": [
                        "InitCommonControlsEx"
                    ],
                    "library_name": "COMCTL32.dll"
                },
                {
                    "imported_functions": [
                        "URLDownloadToCacheFileW"
                    ],
                    "library_name": "urlmon.dll"
                },
                {
                    "imported_functions": [
                        "GetStockObject",
                        "GetObjectW",
                        "CreateFontIndirectW"
                    ],
                    "library_name": "GDI32.dll"
                },
                {
                    "imported_functions": [
                        "GetSecurityDescriptorSacl",
                        "ConvertStringSecurityDescriptorToSecurityDescriptorA",
                        "ConvertStringSecurityDescriptorToSecurityDescriptorW",
                        "SetSecurityInfo"
                    ],
                    "library_name": "ADVAPI32.dll"
                },
                {
                    "imported_functions": [
                        "GetLastError",
                        "InitializeCriticalSectionAndSpinCount",
                        "HeapFree",
                        "EnterCriticalSection",
                        "lstrlenA",
                        "lstrcmpiA",
                        "GlobalFree",
                        "WaitForSingleObject",
                        "GetVersionExW",
                        "FreeLibrary",
                        "ExitProcess",
                        "GetEnvironmentStringsW",
                        "FlushFileBuffers",
                        "lstrcmpiW",
                        "lstrlenW",
                        "HeapAlloc",
                        "GetStartupInfoA",
                        "OpenFileMappingW",
                        "GetFileSize",
                        "lstrcatA",
                        "GetCommandLineW",
                        "WideCharToMultiByte",
                        "LoadLibraryExW",
                        "MultiByteToWideChar",
                        "MapViewOfFile",
                        "CreateDirectoryW",
                        "GetCommandLineA",
                        "lstrcatW",
                        "lstrcpyA",
                        "GetProcessHeap",
                        "GetTempFileNameW",
                        "CreateFileMappingW",
                        "GetModuleFileNameW",
                        "SetFilePointer",
                        "lstrcpyW",
                        "CreateThread",
                        "RemoveDirectoryW",
                        "GetModuleHandleA",
                        "ReadFile",
                        "WriteFile",
                        "GetCurrentProcess",
                        "CloseHandle",
                        "DeleteFileW",
                        "WaitForMultipleObjects",
                        "GetModuleHandleW",
                        "LocalFree",
                        "IsWow64Process",
                        "ResumeThread",
                        "LoadLibraryW",
                        "CreateEventW",
                        "UnmapViewOfFile",
                        "GetTempPathW",
                        "CreateFileW",
                        "CreateProcessW",
                        "Sleep",
                        "GetTickCount",
                        "GetCurrentProcessId",
                        "LeaveCriticalSection"
                    ],
                    "library_name": "KERNEL32.dll"
                },
                {
                    "imported_functions": [
                        "Shell_NotifyIconW",
                        "ShellExecuteW",
                        "CommandLineToArgvW"
                    ],
                    "library_name": "SHELL32.dll"
                },
                {
                    "imported_functions": [
                        "StrStrIA",
                        "StrChrIW",
                        "StrCpyW",
                        "PathAddBackslashW",
                        "StrCatW",
                        "StrStrIW",
                        "StrToIntExA",
                        "StrToIntW"
                    ],
                    "library_name": "SHLWAPI.dll"
                },
                {
                    "imported_functions": [
                        "GetDlgItemTextW",
                        "GetCursorPos",
                        "AppendMenuW",
                        "SetWindowLongW",
                        "CreatePopupMenu",
                        "SendMessageW",
                        "GetWindowLongW",
                        "DialogBoxParamW",
                        "SetDlgItemTextW",
                        "SetWindowTextW",
                        "SetTimer",
                        "GetDlgItem",
                        "wsprintfW",
                        "ShowWindow",
                        "LoadIconW",
                        "CheckDlgButton",
                        "DestroyMenu",
                        "TrackPopupMenuEx"
                    ],
                    "library_name": "USER32.dll"
                },
                {
                    "imported_functions": [
                        "WinHttpSetOption",
                        "WinHttpConnect",
                        "WinHttpQueryHeaders",
                        "WinHttpReadData",
                        "WinHttpCloseHandle",
                        "WinHttpCrackUrl",
                        "WinHttpGetIEProxyConfigForCurrentUser",
                        "WinHttpGetProxyForUrl",
                        "WinHttpReceiveResponse",
                        "WinHttpOpen",
                        "WinHttpOpenRequest",
                        "WinHttpSendRequest"
                    ],
                    "library_name": "WINHTTP.dll"
                }
            ],
            "machine_type": 332,
            "overlay": {
                "entropy": 7.561209859261367,
                "filetype": "data",
                "md5": "d4a019363438105646dffd7d08a2dd72",
                "offset": 49664,
                "size": 4936
            },
            "resource_details": [
                {
                    "filetype": "data",
                    "lang": "ENGLISH US",
                    "sha256": "2fbafe8f6b201751a104bc6b43093ad5f00e344ca246e7bbd5127978268378b0",
                    "type": "RT_ICON"
                },
                {
                    "filetype": "data",
                    "lang": "ENGLISH US",
                    "sha256": "7bb43eaff27298d2ce9aa0e1a8506574e2e29c3582be5dc001bcb8071c33f20d",
                    "type": "RT_ICON"
                },
                {
                    "filetype": "data",
                    "lang": "ENGLISH US",
                    "sha256": "f702cccebc551173571e0780d083da04bc5bc6bf7044a314272e9e842645c94d",
                    "type": "RT_ICON"
                },
                {
                    "filetype": "data",
                    "lang": "ENGLISH US",
                    "sha256": "d640acfb65da48153e338e9cbd65c56047d60d7c7e231ccfaa8fcb2538c1a84b",
                    "type": "RT_ICON"
                },
                {
                    "filetype": "data",
                    "lang": "ENGLISH JAMAICA",
                    "sha256": "cb89fefa83138a759cabf64526ac19fadecea02e1903e7f790f4372184505415",
                    "type": "RT_DIALOG"
                },
                {
                    "filetype": "data",
                    "lang": "ENGLISH US",
                    "sha256": "02aec4257b2859e36a2b08073d1529b614f408829f19c78b16c9fec109b488c0",
                    "type": "RT_GROUP_ICON"
                },
                {
                    "filetype": "data",
                    "lang": "NEUTRAL DEFAULT",
                    "sha256": "8c4189d9f0fe548bdd9c5845daba891dab81c4a24957f2e6bb4b53a52a8960d5",
                    "type": "RT_VERSION"
                },
                {
                    "filetype": "ASCII text",
                    "lang": "ENGLISH US",
                    "sha256": "23634887969647e09f9955fc8830e7b9f02c1875d905c645ed21d589645b8046",
                    "type": "RT_MANIFEST"
                }
            ],
            "resource_langs": {
                "ENGLISH JAMAICA": 1,
                "ENGLISH US": 6,
                "NEUTRAL DEFAULT": 1
            },
            "resource_types": {
                "RT_DIALOG": 1,
                "RT_GROUP_ICON": 1,
                "RT_ICON": 4,
                "RT_MANIFEST": 1,
                "RT_VERSION": 1
            },
            "sections": [
                {
                    "entropy": 6.38,
                    "md5": "b8df6f2cc299cf64787198410c58b033",
                    "name": ".text",
                    "raw_size": 16384,
                    "virtual_address": 4096,
                    "virtual_size": 16272
                },
                {
                    "entropy": 4.57,
                    "md5": "255fe92fc4e590fa7b9ec493c822a81f",
                    "name": ".rdata",
                    "raw_size": 5632,
                    "virtual_address": 20480,
                    "virtual_size": 5384
                },
                {
                    "entropy": 3.29,
                    "md5": "c3fdaade622966dcdf2cf4ab82c7f298",
                    "name": ".data",
                    "raw_size": 1024,
                    "virtual_address": 28672,
                    "virtual_size": 21612188
                },
                {
                    "entropy": 4.06,
                    "md5": "cfead4e24c98a66ef06ada4b59043ec4",
                    "name": ".rsrc",
                    "raw_size": 12800,
                    "virtual_address": 21643264,
                    "virtual_size": 12380
                },
                {
                    "entropy": 1.5,
                    "md5": "52fcb455f8b3d99d5bf13b49e845dea3",
                    "name": ".reloc",
                    "raw_size": 12800,
                    "virtual_address": 21659648,
                    "virtual_size": 12660
                }
            ],
            "timestamp": 1423237524
        },
        "reputation": 0,
        "sha1": "d66ab0c1692907b8a2fd8255b3f85049ae176ed0",
        "sha256": "00048fb8e222c4e20f7f55e5b6e64b703895896455f6acdff46a1968e4ae4a5e",
        "signature_info": {
            "comments": "Shred",
            "copyright": "Conical (c)",
            "description": "LeaveLoadLoud",
            "file version": "4, 10, 21, 0",
            "internal name": "Bjkol",
            "original name": "lltmoping.exe",
            "product": "Asper",
            "signers": "Maxiget Limited; Go Daddy Secure Certificate Authority - G2; Go Daddy Root Certificate Authority ? G2",
            "signers details": [
                {
                    "algorithm": "sha256RSA",
                    "cert issuer": "Go Daddy Secure Certificate Authority - G2",
                    "name": "Maxiget Limited",
                    "serial number": "2B 83 CB F5 23 FA 3B",
                    "status": "This certificate or one of the certificates in the certificate chain is not time valid.",
                    "thumbprint": "413B9C2C4A50BA70B4337E89CB91FAD58D74F0DE",
                    "valid from": "1:36 PM 12/11/2014",
                    "valid to": "7:41 AM 8/15/2016",
                    "valid usage": "Code Signing"
                },
                {
                    "algorithm": "sha256RSA",
                    "cert issuer": "Go Daddy Root Certificate Authority - G2",
                    "name": "Go Daddy Secure Certificate Authority - G2",
                    "serial number": "07",
                    "status": "Valid",
                    "thumbprint": "27AC9369FAF25207BB2627CEFACCBE4EF9C319B8",
                    "valid from": "8:00 AM 5/3/2011",
                    "valid to": "8:00 AM 5/3/2031",
                    "valid usage": "All"
                },
                {
                    "algorithm": "sha256RSA",
                    "cert issuer": "Go Daddy Root Certificate Authority - G2",
                    "name": "Go Daddy Root Certificate Authority ? G2",
                    "serial number": "00",
                    "status": "Valid",
                    "thumbprint": "47BEABC922EAE80E78783462A79F45C254FDE68B",
                    "valid from": "1:00 AM 9/1/2009",
                    "valid to": "12:59 AM 1/1/2038",
                    "valid usage": "Server Auth, Client Auth, Code Signing, Email Protection, Timestamp Signing, EFS, IPSEC Tunnel, IPSEC User"
                }
            ],
            "verified": "A required certificate is not within its validity period when verifying against the current system clock or the timestamp in the signed file."
        },
        "size": 54600,
        "ssdeep": "768:e0MaK9/oXVBIhdJ3f/d2nSCgQdAeSJpUDmMst88QtUk7VJ/LUMTSGxBgNE:Vr+oFahn3nondrSJsttUkBJDpTdmE",
        "tags": [
            "peexe",
            "signed",
            "overlay"
        ],
        "times_submitted": 1,
        "total_votes": {
            "harmless": 0,
            "malicious": 0
        },
        "trid": [
            {
                "file_type": "Win64 Executable (generic)",
                "probability": 76.4
            },
            {
                "file_type": "Win32 Executable (generic)",
                "probability": 12.4
            },
            {
                "file_type": "Generic Win/DOS Executable",
                "probability": 5.5
            },
            {
                "file_type": "DOS Executable Generic",
                "probability": 5.5
            }
        ],
        "type_description": "Win32 EXE",
        "type_extension": "exe",
        "type_tag": "peexe",
        "unique_sources": 1,
        "vhash": "054056651d1515104013z3003ahz3080112fz"
    },
    "id": "00048fb8e222c4e20f7f55e5b6e64b703895896455f6acdff46a1968e4ae4a5e",
    "links": {
        "self": "https://www.virustotal.com/api/v3/files/00048fb8e222c4e20f7f55e5b6e64b703895896455f6acdff46a1968e4ae4a5e"
    },
    "type": "file"
}