{
    "attributes": {
        "authentihash": "15af5ca038215292ce4f6cf0b17959d22b8a69f136ee8df0423029d245e4f994",
        "creation_date": 1497243411,
        "first_submission_date": 1497519124,
        "last_analysis_date": 1500091377,
        "last_analysis_results": {
            "ALYac": {
                "category": "malicious",
                "engine_name": "ALYac",
                "engine_update": "20170715",
                "engine_version": "1.0.1.9",
                "method": "blacklist",
                "result": "Win32.Virlock.Gen.8"
            },
            "AVG": {
                "category": "malicious",
                "engine_name": "AVG",
                "engine_update": "20170715",
                "engine_version": "8.0.1489.320",
                "method": "blacklist",
                "result": "Win32:Cryptor"
            },
            "AVware": {
                "category": "malicious",
                "engine_name": "AVware",
                "engine_update": "20170715",
                "engine_version": "1.5.0.42",
                "method": "blacklist",
                "result": "Virus.Win32.Nabucur.c (v)"
            },
            "Ad-Aware": {
                "category": "malicious",
                "engine_name": "Ad-Aware",
                "engine_update": "20170715",
                "engine_version": "3.0.3.1010",
                "method": "blacklist",
                "result": "Win32.Virlock.Gen.8"
            },
            "AegisLab": {
                "category": "malicious",
                "engine_name": "AegisLab",
                "engine_update": "20170715",
                "engine_version": "4.2",
                "method": "blacklist",
                "result": "Troj.W32.Generic!c"
            },
            "AhnLab-V3": {
                "category": "malicious",
                "engine_name": "AhnLab-V3",
                "engine_update": "20170714",
                "engine_version": "3.9.1.17914",
                "method": "blacklist",
                "result": "Malware/Win32.Nabucur.R138986"
            },
            "Alibaba": {
                "category": "type-unsupported",
                "engine_name": "Alibaba",
                "engine_update": "20170714",
                "engine_version": "1.0",
                "method": "blacklist",
                "result": null
            },
            "Antiy-AVL": {
                "category": "malicious",
                "engine_name": "Antiy-AVL",
                "engine_update": "20170715",
                "engine_version": "3.0.0.1",
                "method": "blacklist",
                "result": "Virus/Win32.Virlock.j"
            },
            "Arcabit": {
                "category": "malicious",
                "engine_name": "Arcabit",
                "engine_update": "20170715",
                "engine_version": "1.0.0.817",
                "method": "blacklist",
                "result": "Win32.Virlock.Gen.8"
            },
            "Avast": {
                "category": "malicious",
                "engine_name": "Avast",
                "engine_update": "20170715",
                "engine_version": "8.0.1489.320",
                "method": "blacklist",
                "result": "Win32:Cryptor"
            },
            "Avira": {
                "category": "malicious",
                "engine_name": "Avira",
                "engine_update": "20170714",
                "engine_version": "8.3.3.4",
                "method": "blacklist",
                "result": "TR/Crypt.ZPACK.Gen"
            },
            "Baidu": {
                "category": "malicious",
                "engine_name": "Baidu",
                "engine_update": "20170714",
                "engine_version": "1.0.0.2",
                "method": "blacklist",
                "result": "Win32.Virus.Virlock.e"
            },
            "BitDefender": {
                "category": "malicious",
                "engine_name": "BitDefender",
                "engine_update": "20170715",
                "engine_version": "7.2",
                "method": "blacklist",
                "result": "Win32.Virlock.Gen.8"
            },
            "Bkav": {
                "category": "malicious",
                "engine_name": "Bkav",
                "engine_update": "20170714",
                "engine_version": "1.3.0.9188",
                "method": "blacklist",
                "result": "HW32.Packed.EA18"
            },
            "CAT-QuickHeal": {
                "category": "malicious",
                "engine_name": "CAT-QuickHeal",
                "engine_update": "20170714",
                "engine_version": "14.00",
                "method": "blacklist",
                "result": "Ransom.PolyRansom.F3"
            },
            "CMC": {
                "category": "undetected",
                "engine_name": "CMC",
                "engine_update": "20170714",
                "engine_version": "1.1.0.977",
                "method": "blacklist",
                "result": null
            },
            "ClamAV": {
                "category": "malicious",
                "engine_name": "ClamAV",
                "engine_update": "20170715",
                "engine_version": "0.99.2.0",
                "method": "blacklist",
                "result": "Win.Virus.Virlock-6332874-0"
            },
            "Comodo": {
                "category": "malicious",
                "engine_name": "Comodo",
                "engine_update": "20170715",
                "engine_version": "27454",
                "method": "blacklist",
                "result": "Virus.Win32.Virlock.jet"
            },
            "CrowdStrike": {
                "category": "malicious",
                "engine_name": "CrowdStrike",
                "engine_update": "20170710",
                "engine_version": "1.0",
                "method": "blacklist",
                "result": "malicious_confidence_100% (W)"
            },
            "Cylance": {
                "category": "malicious",
                "engine_name": "Cylance",
                "engine_update": "20170715",
                "engine_version": "2.3.1.101",
                "method": "blacklist",
                "result": "Unsafe"
            },
            "Cyren": {
                "category": "malicious",
                "engine_name": "Cyren",
                "engine_update": "20170715",
                "engine_version": "5.4.30.7",
                "method": "blacklist",
                "result": "W32/Virlock.D.gen!Eldorado"
            },
            "DrWeb": {
                "category": "malicious",
                "engine_name": "DrWeb",
                "engine_update": "20170715",
                "engine_version": "7.0.28.2020",
                "method": "blacklist",
                "result": "Win32.VirLock.16"
            },
            "ESET-NOD32": {
                "category": "malicious",
                "engine_name": "ESET-NOD32",
                "engine_update": "20170715",
                "engine_version": "15749",
                "method": "blacklist",
                "result": "a variant of Win32/Virlock.J"
            },
            "Emsisoft": {
                "category": "malicious",
                "engine_name": "Emsisoft",
                "engine_update": "20170715",
                "engine_version": "4.0.1.883",
                "method": "blacklist",
                "result": "Win32.Virlock.Gen.8 (B)"
            },
            "Endgame": {
                "category": "malicious",
                "engine_name": "Endgame",
                "engine_update": "20170713",
                "engine_version": "0.7.5",
                "method": "blacklist",
                "result": "malicious (high confidence)"
            },
            "F-Prot": {
                "category": "malicious",
                "engine_name": "F-Prot",
                "engine_update": "20170715",
                "engine_version": "4.7.1.166",
                "method": "blacklist",
                "result": "W32/Virlock.D.gen!Eldorado"
            },
            "F-Secure": {
                "category": "malicious",
                "engine_name": "F-Secure",
                "engine_update": "20170714",
                "engine_version": "11.0.19100.45",
                "method": "blacklist",
                "result": "Win32.Virlock.Gen.8"
            },
            "Fortinet": {
                "category": "malicious",
                "engine_name": "Fortinet",
                "engine_update": "20170629",
                "engine_version": "5.4.247.0",
                "method": "blacklist",
                "result": "W32/Virlock.J"
            },
            "Ikarus": {
                "category": "malicious",
                "engine_name": "Ikarus",
                "engine_update": "20170714",
                "engine_version": "0.1.5.2",
                "method": "blacklist",
                "result": "Virus.Win32.Virlock"
            },
            "Invincea": {
                "category": "malicious",
                "engine_name": "Invincea",
                "engine_update": "20170607",
                "engine_version": "6.3.0.25415",
                "method": "blacklist",
                "result": "heuristic"
            },
            "Jiangmin": {
                "category": "malicious",
                "engine_name": "Jiangmin",
                "engine_update": "20170715",
                "engine_version": "16.0.100",
                "method": "blacklist",
                "result": "Trojan.Generic.bbboc"
            },
            "K7AntiVirus": {
                "category": "malicious",
                "engine_name": "K7AntiVirus",
                "engine_update": "20170714",
                "engine_version": "10.18.23988",
                "method": "blacklist",
                "result": "Trojan ( 004c61081 )"
            },
            "K7GW": {
                "category": "malicious",
                "engine_name": "K7GW",
                "engine_update": "20170715",
                "engine_version": "10.18.23988",
                "method": "blacklist",
                "result": "Trojan ( 004c61081 )"
            },
            "Kaspersky": {
                "category": "malicious",
                "engine_name": "Kaspersky",
                "engine_update": "20170714",
                "engine_version": "15.0.1.13",
                "method": "blacklist",
                "result": "HEUR:Trojan.Win32.Generic"
            },
            "Kingsoft": {
                "category": "undetected",
                "engine_name": "Kingsoft",
                "engine_update": "20170715",
                "engine_version": "2013.8.14.323",
                "method": "blacklist",
                "result": null
            },
            "MAX": {
                "category": "malicious",
                "engine_name": "MAX",
                "engine_update": "20170715",
                "engine_version": "2017.6.26.1",
                "method": "blacklist",
                "result": "malware (ai score=84)"
            },
            "Malwarebytes": {
                "category": "malicious",
                "engine_name": "Malwarebytes",
                "engine_update": "20170715",
                "engine_version": "2.1.1.1115",
                "method": "blacklist",
                "result": "Ransom.VirLock"
            },
            "McAfee": {
                "category": "malicious",
                "engine_name": "McAfee",
                "engine_update": "20170715",
                "engine_version": "6.0.6.653",
                "method": "blacklist",
                "result": "W32/VirRansom.c"
            },
            "McAfee-GW-Edition": {
                "category": "malicious",
                "engine_name": "McAfee-GW-Edition",
                "engine_update": "20170715",
                "engine_version": "v2015",
                "method": "blacklist",
                "result": "BehavesLike.Win32.VirRansom.tc"
            },
            "MicroWorld-eScan": {
                "category": "malicious",
                "engine_name": "MicroWorld-eScan",
                "engine_update": "20170715",
                "engine_version": "12.0.250.0",
                "method": "blacklist",
                "result": "Win32.Virlock.Gen.8"
            },
            "Microsoft": {
                "category": "malicious",
                "engine_name": "Microsoft",
                "engine_update": "20170715",
                "engine_version": "1.1.13903.0",
                "method": "blacklist",
                "result": "Virus:Win32/Nabucur.D"
            },
            "NANO-Antivirus": {
                "category": "malicious",
                "engine_name": "NANO-Antivirus",
                "engine_update": "20170715",
                "engine_version": "1.0.76.17587",
                "method": "blacklist",
                "result": "Virus.Win32.Virlock.dsdros"
            },
            "Paloalto": {
                "category": "undetected",
                "engine_name": "Paloalto",
                "engine_update": "20170715",
                "engine_version": "1.0",
                "method": "blacklist",
                "result": null
            },
            "Panda": {
                "category": "malicious",
                "engine_name": "Panda",
                "engine_update": "20170714",
                "engine_version": "4.6.4.2",
                "method": "blacklist",
                "result": "Trj/Genetic.gen"
            },
            "Qihoo-360": {
                "category": "malicious",
                "engine_name": "Qihoo-360",
                "engine_update": "20170715",
                "engine_version": "1.0.0.1120",
                "method": "blacklist",
                "result": "HEUR/QVM20.1.7D62.Malware.Gen"
            },
            "Rising": {
                "category": "malicious",
                "engine_name": "Rising",
                "engine_update": "20170715",
                "engine_version": "25.0.0.1",
                "method": "blacklist",
                "result": "Trojan.Win32.Virlock.a (cloud:KM2l6gHIBmS)"
            },
            "SUPERAntiSpyware": {
                "category": "undetected",
                "engine_name": "SUPERAntiSpyware",
                "engine_update": "20170715",
                "engine_version": "5.6.0.1032",
                "method": "blacklist",
                "result": null
            },
            "SentinelOne": {
                "category": "malicious",
                "engine_name": "SentinelOne",
                "engine_update": "20170516",
                "engine_version": "1.0.0.12",
                "method": "blacklist",
                "result": "static engine - malicious"
            },
            "Sophos": {
                "category": "malicious",
                "engine_name": "Sophos",
                "engine_update": "20170715",
                "engine_version": "4.98.0",
                "method": "blacklist",
                "result": "W32/VirRnsm-F"
            },
            "Symantec": {
                "category": "malicious",
                "engine_name": "Symantec",
                "engine_update": "20170714",
                "engine_version": "1.4.0.0",
                "method": "blacklist",
                "result": "W32.Virlock!inf7"
            },
            "SymantecMobileInsight": {
                "category": "type-unsupported",
                "engine_name": "SymantecMobileInsight",
                "engine_update": "20170713",
                "engine_version": "1.0.0.35_220",
                "method": "blacklist",
                "result": null
            },
            "Tencent": {
                "category": "undetected",
                "engine_name": "Tencent",
                "engine_update": "20170715",
                "engine_version": "1.0.0.1",
                "method": "blacklist",
                "result": null
            },
            "TheHacker": {
                "category": "undetected",
                "engine_name": "TheHacker",
                "engine_update": "20170712",
                "engine_version": "6.8.0.5.1724",
                "method": "blacklist",
                "result": null
            },
            "TotalDefense": {
                "category": "undetected",
                "engine_name": "TotalDefense",
                "engine_update": "20170714",
                "engine_version": "37.1.62.1",
                "method": "blacklist",
                "result": null
            },
            "TrendMicro": {
                "category": "malicious",
                "engine_name": "TrendMicro",
                "engine_update": "20170715",
                "engine_version": "9.862.0.1074",
                "method": "blacklist",
                "result": "TROJ_GEN.R00XC0CFF17"
            },
            "TrendMicro-HouseCall": {
                "category": "malicious",
                "engine_name": "TrendMicro-HouseCall",
                "engine_update": "20170715",
                "engine_version": "9.950.0.1006",
                "method": "blacklist",
                "result": "TROJ_GEN.R00XC0CFF17"
            },
            "Trustlook": {
                "category": "type-unsupported",
                "engine_name": "Trustlook",
                "engine_update": "20170715",
                "engine_version": "2",
                "method": "blacklist",
                "result": null
            },
            "VBA32": {
                "category": "malicious",
                "engine_name": "VBA32",
                "engine_update": "20170714",
                "engine_version": "3.12.26.4",
                "method": "blacklist",
                "result": "SScope.Malware-Cryptor.Hlux"
            },
            "VIPRE": {
                "category": "malicious",
                "engine_name": "VIPRE",
                "engine_update": "20170715",
                "engine_version": "59542",
                "method": "blacklist",
                "result": "Virus.Win32.Nabucur.c (v)"
            },
            "ViRobot": {
                "category": "malicious",
                "engine_name": "ViRobot",
                "engine_update": "20170715",
                "engine_version": "2014.3.20.0",
                "method": "blacklist",
                "result": "Trojan.Win32.Virlock.Gen.A"
            },
            "Webroot": {
                "category": "undetected",
                "engine_name": "Webroot",
                "engine_update": "20170715",
                "engine_version": "1.0.0.207",
                "method": "blacklist",
                "result": null
            },
            "WhiteArmor": {
                "category": "type-unsupported",
                "engine_name": "WhiteArmor",
                "engine_update": "20170713",
                "engine_version": "9101276",
                "method": "blacklist",
                "result": null
            },
            "Yandex": {
                "category": "undetected",
                "engine_name": "Yandex",
                "engine_update": "20170714",
                "engine_version": "5.5.1.3",
                "method": "blacklist",
                "result": null
            },
            "Zillya": {
                "category": "malicious",
                "engine_name": "Zillya",
                "engine_update": "20170714",
                "engine_version": "2.0.0.3336",
                "method": "blacklist",
                "result": "Virus.Virlock.Win32.5"
            },
            "ZoneAlarm": {
                "category": "malicious",
                "engine_name": "ZoneAlarm",
                "engine_update": "20170715",
                "engine_version": "1.0",
                "method": "blacklist",
                "result": "HEUR:Trojan.Win32.Generic"
            },
            "Zoner": {
                "category": "undetected",
                "engine_name": "Zoner",
                "engine_update": "20170715",
                "engine_version": "1.0",
                "method": "blacklist",
                "result": null
            },
            "nProtect": {
                "category": "undetected",
                "engine_name": "nProtect",
                "engine_update": "20170715",
                "engine_version": "2017-07-15.01",
                "method": "blacklist",
                "result": null
            }
        },
        "last_analysis_stats": {
            "confirmed-timeout": 0,
            "failure": 0,
            "harmless": 0,
            "malicious": 52,
            "suspicious": 0,
            "timeout": 0,
            "type-unsupported": 4,
            "undetected": 11
        },
        "last_modification_date": 1500092275,
        "last_submission_date": 1497519124,
        "magic": "PE32 executable for MS Windows (GUI) Intel 80386 32-bit",
        "md5": "e3a5d9f10e6d35a58f95561685d04cee",
        "meaningful_name": "e3a5d9f10e6d35a58f95561685d04cee.virus",
        "names": [
            "e3a5d9f10e6d35a58f95561685d04cee.virus"
        ],
        "pe_info": {
            "entry_point": 4096,
            "imphash": "c7497fec12979a605b39bbb73c63aa94",
            "import_list": [
                {
                    "imported_functions": [
                        "GetCurrentThreadId",
                        "VirtualAlloc"
                    ],
                    "library_name": "kernel32.dll"
                }
            ],
            "machine_type": 332,
            "resource_details": [
                {
                    "filetype": "data",
                    "lang": "ENGLISH US",
                    "sha256": "f86f461c19dc508997a35bad1ef014fe71b72e2ce51e1716ed0d83077ba97c11",
                    "type": "RT_ICON"
                },
                {
                    "filetype": "data",
                    "lang": "ENGLISH US",
                    "sha256": "bd7b891000b776021bd2d3790a165561c6134cea734f0d70a52a9b9c0b363321",
                    "type": "RT_GROUP_ICON"
                }
            ],
            "resource_langs": {
                "ENGLISH US": 2
            },
            "resource_types": {
                "RT_GROUP_ICON": 1,
                "RT_ICON": 1
            },
            "sections": [
                {
                    "entropy": 7.43,
                    "md5": "97b8fbd174a0f5ecd5c8d4f493ed3a1b",
                    "name": ".text",
                    "raw_size": 535040,
                    "virtual_address": 4096,
                    "virtual_size": 536576
                },
                {
                    "entropy": 1.12,
                    "md5": "1486d75cce34cf021fc1da50ecb9fc49",
                    "name": ".rdata",
                    "raw_size": 512,
                    "virtual_address": 540672,
                    "virtual_size": 4096
                },
                {
                    "entropy": 7.78,
                    "md5": "fc8a2154c1f1b14e1169bcbbfb101cb4",
                    "name": ".data",
                    "raw_size": 835584,
                    "virtual_address": 544768,
                    "virtual_size": 835584
                },
                {
                    "entropy": 5.85,
                    "md5": "30d34e0a673ef62339c60244ac6dabf0",
                    "name": ".rsrc",
                    "raw_size": 4608,
                    "virtual_address": 1380352,
                    "virtual_size": 4444
                }
            ],
            "timestamp": 1497243411
        },
        "reputation": 0,
        "sha1": "551c08e26e5fbe588d156dc87a2dff7c15bac95a",
        "sha256": "00040403857bd1d07360f9d8cf398f6c6d80736598a852db0b808108d4f1d2e8",
        "size": 1377280,
        "ssdeep": "24576:Xktwe2frLm0D63LHpFDyr8eXEgNNOs7R1gcI7jrUuGQwa6apbEilHx9:Xkt4fd6bH7Or8ng377R1a7suma6aFEiJ",
        "tags": [
            "peexe"
        ],
        "times_submitted": 1,
        "total_votes": {
            "harmless": 0,
            "malicious": 0
        },
        "trid": [
            {
                "file_type": "Win32 Dynamic Link Library (generic)",
                "probability": 43.5
            },
            {
                "file_type": "Win32 Executable (generic)",
                "probability": 29.8
            },
            {
                "file_type": "Generic Win/DOS Executable",
                "probability": 13.2
            },
            {
                "file_type": "DOS Executable Generic",
                "probability": 13.2
            }
        ],
        "type_description": "Win32 EXE",
        "type_extension": "exe",
        "type_tag": "peexe",
        "unique_sources": 1,
        "vhash": "016046751d7c5bz2!z"
    },
    "id": "00040403857bd1d07360f9d8cf398f6c6d80736598a852db0b808108d4f1d2e8",
    "links": {
        "self": "https://www.virustotal.com/api/v3/files/00040403857bd1d07360f9d8cf398f6c6d80736598a852db0b808108d4f1d2e8"
    },
    "type": "file"
}