{
    "attributes": {
        "authentihash": "46dc413b2e6254ab9af81a0cc5aca83c500165a9085cf032b3c56cdc930e6588",
        "creation_date": 1091599591,
        "first_submission_date": 1486769453,
        "last_analysis_date": 1501672213,
        "last_analysis_results": {
            "ALYac": {
                "category": "undetected",
                "engine_name": "ALYac",
                "engine_update": "20170802",
                "engine_version": "1.1.1.2",
                "method": "blacklist",
                "result": null
            },
            "AVG": {
                "category": "malicious",
                "engine_name": "AVG",
                "engine_update": "20170802",
                "engine_version": "8.0.1489.320",
                "method": "blacklist",
                "result": "Win32:Vitro"
            },
            "AVware": {
                "category": "malicious",
                "engine_name": "AVware",
                "engine_update": "20170802",
                "engine_version": "1.5.0.42",
                "method": "blacklist",
                "result": "Virus.Win32.Virut.ce (v)"
            },
            "Ad-Aware": {
                "category": "malicious",
                "engine_name": "Ad-Aware",
                "engine_update": "20170802",
                "engine_version": "3.0.3.1010",
                "method": "blacklist",
                "result": "Win32.Virtob.Gen.12"
            },
            "AegisLab": {
                "category": "malicious",
                "engine_name": "AegisLab",
                "engine_update": "20170802",
                "engine_version": "4.2",
                "method": "blacklist",
                "result": "W32.Virut.mB7A"
            },
            "AhnLab-V3": {
                "category": "malicious",
                "engine_name": "AhnLab-V3",
                "engine_update": "20170802",
                "engine_version": "3.9.2.18278",
                "method": "blacklist",
                "result": "Win32/Virut.E"
            },
            "Alibaba": {
                "category": "type-unsupported",
                "engine_name": "Alibaba",
                "engine_update": "20170802",
                "engine_version": "1.0",
                "method": "blacklist",
                "result": null
            },
            "Antiy-AVL": {
                "category": "malicious",
                "engine_name": "Antiy-AVL",
                "engine_update": "20170802",
                "engine_version": "3.0.0.1",
                "method": "blacklist",
                "result": "Virus/Win32.Virut.ce"
            },
            "Arcabit": {
                "category": "malicious",
                "engine_name": "Arcabit",
                "engine_update": "20170802",
                "engine_version": "1.0.0.817",
                "method": "blacklist",
                "result": "Win32.Virtob.Gen.12"
            },
            "Avast": {
                "category": "malicious",
                "engine_name": "Avast",
                "engine_update": "20170802",
                "engine_version": "8.0.1489.320",
                "method": "blacklist",
                "result": "Win32:Vitro"
            },
            "Avira": {
                "category": "malicious",
                "engine_name": "Avira",
                "engine_update": "20170802",
                "engine_version": "8.3.3.4",
                "method": "blacklist",
                "result": "W32/Virut.Gen"
            },
            "Baidu": {
                "category": "malicious",
                "engine_name": "Baidu",
                "engine_update": "20170728",
                "engine_version": "1.0.0.2",
                "method": "blacklist",
                "result": "Win32.Virus.Virut.f"
            },
            "BitDefender": {
                "category": "malicious",
                "engine_name": "BitDefender",
                "engine_update": "20170802",
                "engine_version": "7.2",
                "method": "blacklist",
                "result": "Win32.Virtob.Gen.12"
            },
            "Bkav": {
                "category": "malicious",
                "engine_name": "Bkav",
                "engine_update": "20170802",
                "engine_version": "1.3.0.9282",
                "method": "blacklist",
                "result": "W32.Vetor.PE"
            },
            "CAT-QuickHeal": {
                "category": "malicious",
                "engine_name": "CAT-QuickHeal",
                "engine_update": "20170802",
                "engine_version": "14.00",
                "method": "blacklist",
                "result": "W32.Virut.G"
            },
            "CMC": {
                "category": "undetected",
                "engine_name": "CMC",
                "engine_update": "20170802",
                "engine_version": "1.1.0.977",
                "method": "blacklist",
                "result": null
            },
            "ClamAV": {
                "category": "malicious",
                "engine_name": "ClamAV",
                "engine_update": "20170802",
                "engine_version": "0.99.2.0",
                "method": "blacklist",
                "result": "Win.Virus.Virut-5898123-1"
            },
            "Comodo": {
                "category": "malicious",
                "engine_name": "Comodo",
                "engine_update": "20170802",
                "engine_version": "27543",
                "method": "blacklist",
                "result": "Virus.Win32.Virut.CE"
            },
            "CrowdStrike": {
                "category": "malicious",
                "engine_name": "CrowdStrike",
                "engine_update": "20170710",
                "engine_version": "1.0",
                "method": "blacklist",
                "result": "malicious_confidence_100% (D)"
            },
            "Cylance": {
                "category": "malicious",
                "engine_name": "Cylance",
                "engine_update": "20170802",
                "engine_version": "2.3.1.101",
                "method": "blacklist",
                "result": "Unsafe"
            },
            "Cyren": {
                "category": "malicious",
                "engine_name": "Cyren",
                "engine_update": "20170802",
                "engine_version": "5.4.30.7",
                "method": "blacklist",
                "result": "W32/Virut.AI!Generic"
            },
            "DrWeb": {
                "category": "malicious",
                "engine_name": "DrWeb",
                "engine_update": "20170802",
                "engine_version": "7.0.28.2020",
                "method": "blacklist",
                "result": "modification of Win32.Virut.56"
            },
            "ESET-NOD32": {
                "category": "malicious",
                "engine_name": "ESET-NOD32",
                "engine_update": "20170802",
                "engine_version": "15846",
                "method": "blacklist",
                "result": "Win32/Virut.NBP"
            },
            "Emsisoft": {
                "category": "malicious",
                "engine_name": "Emsisoft",
                "engine_update": "20170802",
                "engine_version": "4.0.1.883",
                "method": "blacklist",
                "result": "Win32.Virtob.Gen.12 (B)"
            },
            "Endgame": {
                "category": "malicious",
                "engine_name": "Endgame",
                "engine_update": "20170721",
                "engine_version": "0.7.6",
                "method": "blacklist",
                "result": "malicious (high confidence)"
            },
            "F-Prot": {
                "category": "malicious",
                "engine_name": "F-Prot",
                "engine_update": "20170802",
                "engine_version": "4.7.1.166",
                "method": "blacklist",
                "result": "W32/Virut.AI!Generic"
            },
            "F-Secure": {
                "category": "malicious",
                "engine_name": "F-Secure",
                "engine_update": "20170802",
                "engine_version": "11.0.19100.45",
                "method": "blacklist",
                "result": "Win32.Virtob.Gen.12"
            },
            "Fortinet": {
                "category": "malicious",
                "engine_name": "Fortinet",
                "engine_update": "20170802",
                "engine_version": "5.4.247.0",
                "method": "blacklist",
                "result": "W32/Virut.CE"
            },
            "GData": {
                "category": "malicious",
                "engine_name": "GData",
                "engine_update": "20170802",
                "engine_version": "A:25.13654B:25.10137",
                "method": "blacklist",
                "result": "Win32.Virus.Patched.N@susp"
            },
            "Ikarus": {
                "category": "malicious",
                "engine_name": "Ikarus",
                "engine_update": "20170802",
                "engine_version": "0.1.5.2",
                "method": "blacklist",
                "result": "Virus.Win32.Small"
            },
            "Invincea": {
                "category": "malicious",
                "engine_name": "Invincea",
                "engine_update": "20170607",
                "engine_version": "6.3.0.25415",
                "method": "blacklist",
                "result": "heuristic"
            },
            "Jiangmin": {
                "category": "undetected",
                "engine_name": "Jiangmin",
                "engine_update": "20170802",
                "engine_version": "16.0.100",
                "method": "blacklist",
                "result": null
            },
            "K7AntiVirus": {
                "category": "malicious",
                "engine_name": "K7AntiVirus",
                "engine_update": "20170802",
                "engine_version": "10.20.24163",
                "method": "blacklist",
                "result": "Virus ( f10002001 )"
            },
            "K7GW": {
                "category": "malicious",
                "engine_name": "K7GW",
                "engine_update": "20170802",
                "engine_version": "10.20.24165",
                "method": "blacklist",
                "result": "Virus ( f10002001 )"
            },
            "Kaspersky": {
                "category": "malicious",
                "engine_name": "Kaspersky",
                "engine_update": "20170802",
                "engine_version": "15.0.1.13",
                "method": "blacklist",
                "result": "Virus.Win32.Virut.ce"
            },
            "Kingsoft": {
                "category": "malicious",
                "engine_name": "Kingsoft",
                "engine_update": "20170802",
                "engine_version": "2013.8.14.323",
                "method": "blacklist",
                "result": "Win32.Virut.nc.53248"
            },
            "MAX": {
                "category": "malicious",
                "engine_name": "MAX",
                "engine_update": "20170802",
                "engine_version": "2017.6.26.1",
                "method": "blacklist",
                "result": "malware (ai score=88)"
            },
            "Malwarebytes": {
                "category": "undetected",
                "engine_name": "Malwarebytes",
                "engine_update": "20170802",
                "engine_version": "2.1.1.1115",
                "method": "blacklist",
                "result": null
            },
            "McAfee": {
                "category": "malicious",
                "engine_name": "McAfee",
                "engine_update": "20170802",
                "engine_version": "6.0.6.653",
                "method": "blacklist",
                "result": "W32/Virut.n.gen"
            },
            "McAfee-GW-Edition": {
                "category": "malicious",
                "engine_name": "McAfee-GW-Edition",
                "engine_update": "20170802",
                "engine_version": "v2015",
                "method": "blacklist",
                "result": "BehavesLike.Win32.Virut.hm"
            },
            "MicroWorld-eScan": {
                "category": "malicious",
                "engine_name": "MicroWorld-eScan",
                "engine_update": "20170802",
                "engine_version": "12.0.250.0",
                "method": "blacklist",
                "result": "Win32.Virtob.Gen.12"
            },
            "Microsoft": {
                "category": "malicious",
                "engine_name": "Microsoft",
                "engine_update": "20170802",
                "engine_version": "1.1.14003.0",
                "method": "blacklist",
                "result": "Virus:Win32/Virut.BR"
            },
            "NANO-Antivirus": {
                "category": "malicious",
                "engine_name": "NANO-Antivirus",
                "engine_update": "20170802",
                "engine_version": "1.0.94.18103",
                "method": "blacklist",
                "result": "Virus.Win32.Virut.hpeg"
            },
            "Paloalto": {
                "category": "malicious",
                "engine_name": "Paloalto",
                "engine_update": "20170802",
                "engine_version": "1.0",
                "method": "blacklist",
                "result": "generic.ml"
            },
            "Panda": {
                "category": "malicious",
                "engine_name": "Panda",
                "engine_update": "20170801",
                "engine_version": "4.6.4.2",
                "method": "blacklist",
                "result": "W32/Sality.AO"
            },
            "Qihoo-360": {
                "category": "malicious",
                "engine_name": "Qihoo-360",
                "engine_update": "20170802",
                "engine_version": "1.0.0.1120",
                "method": "blacklist",
                "result": "Win32/Virus.VirutChangeCall.K"
            },
            "Rising": {
                "category": "malicious",
                "engine_name": "Rising",
                "engine_update": "20170802",
                "engine_version": "25.0.0.1",
                "method": "blacklist",
                "result": "Virus.Virut!1.A08B (classic)"
            },
            "SUPERAntiSpyware": {
                "category": "undetected",
                "engine_name": "SUPERAntiSpyware",
                "engine_update": "20170802",
                "engine_version": "5.6.0.1032",
                "method": "blacklist",
                "result": null
            },
            "SentinelOne": {
                "category": "malicious",
                "engine_name": "SentinelOne",
                "engine_update": "20170718",
                "engine_version": "1.0.1.223",
                "method": "blacklist",
                "result": "static engine - malicious"
            },
            "Sophos": {
                "category": "malicious",
                "engine_name": "Sophos",
                "engine_update": "20170802",
                "engine_version": "4.98.0",
                "method": "blacklist",
                "result": "W32/Scribble-B"
            },
            "Symantec": {
                "category": "malicious",
                "engine_name": "Symantec",
                "engine_update": "20170802",
                "engine_version": "1.4.0.0",
                "method": "blacklist",
                "result": "W32.Virut.CF"
            },
            "SymantecMobileInsight": {
                "category": "type-unsupported",
                "engine_name": "SymantecMobileInsight",
                "engine_update": "20170801",
                "engine_version": "1.0.0.35_220",
                "method": "blacklist",
                "result": null
            },
            "Tencent": {
                "category": "malicious",
                "engine_name": "Tencent",
                "engine_update": "20170802",
                "engine_version": "1.0.0.1",
                "method": "blacklist",
                "result": "Virus.Win32.Virut.CE.200086"
            },
            "TheHacker": {
                "category": "malicious",
                "engine_name": "TheHacker",
                "engine_update": "20170801",
                "engine_version": "6.8.0.5.1794",
                "method": "blacklist",
                "result": "W32/Virtob.Gen(F)"
            },
            "TotalDefense": {
                "category": "malicious",
                "engine_name": "TotalDefense",
                "engine_update": "20170802",
                "engine_version": "37.1.62.1",
                "method": "blacklist",
                "result": "Win32/Virut.17408"
            },
            "TrendMicro": {
                "category": "malicious",
                "engine_name": "TrendMicro",
                "engine_update": "20170802",
                "engine_version": "9.862.0.1074",
                "method": "blacklist",
                "result": "PE_VIRUX.J-6"
            },
            "TrendMicro-HouseCall": {
                "category": "malicious",
                "engine_name": "TrendMicro-HouseCall",
                "engine_update": "20170802",
                "engine_version": "9.950.0.1006",
                "method": "blacklist",
                "result": "PE_VIRUX.J-6"
            },
            "Trustlook": {
                "category": "type-unsupported",
                "engine_name": "Trustlook",
                "engine_update": "20170802",
                "engine_version": "2",
                "method": "blacklist",
                "result": null
            },
            "VBA32": {
                "category": "malicious",
                "engine_name": "VBA32",
                "engine_update": "20170801",
                "engine_version": "3.12.26.4",
                "method": "blacklist",
                "result": "Virus.Virut.02"
            },
            "VIPRE": {
                "category": "malicious",
                "engine_name": "VIPRE",
                "engine_update": "20170802",
                "engine_version": "59994",
                "method": "blacklist",
                "result": "Virus.Win32.Virut.ce (v)"
            },
            "ViRobot": {
                "category": "malicious",
                "engine_name": "ViRobot",
                "engine_update": "20170802",
                "engine_version": "2014.3.20.0",
                "method": "blacklist",
                "result": "Win32.Virut.Gen.C"
            },
            "Webroot": {
                "category": "undetected",
                "engine_name": "Webroot",
                "engine_update": "20170802",
                "engine_version": "1.0.0.207",
                "method": "blacklist",
                "result": null
            },
            "WhiteArmor": {
                "category": "undetected",
                "engine_name": "WhiteArmor",
                "engine_update": "20170731",
                "engine_version": null,
                "method": "blacklist",
                "result": null
            },
            "Yandex": {
                "category": "malicious",
                "engine_name": "Yandex",
                "engine_update": "20170801",
                "engine_version": "5.5.1.3",
                "method": "blacklist",
                "result": "Win32.Virut.AB.Gen"
            },
            "Zillya": {
                "category": "malicious",
                "engine_name": "Zillya",
                "engine_update": "20170801",
                "engine_version": "2.0.0.3350",
                "method": "blacklist",
                "result": "Adware.LoadMoney.Win32.68372"
            },
            "ZoneAlarm": {
                "category": "malicious",
                "engine_name": "ZoneAlarm",
                "engine_update": "20170802",
                "engine_version": "1.0",
                "method": "blacklist",
                "result": "Virus.Win32.Virut.ce"
            },
            "Zoner": {
                "category": "undetected",
                "engine_name": "Zoner",
                "engine_update": "20170802",
                "engine_version": "1.0",
                "method": "blacklist",
                "result": null
            },
            "nProtect": {
                "category": "malicious",
                "engine_name": "nProtect",
                "engine_update": "20170802",
                "engine_version": "2017-08-02.02",
                "method": "blacklist",
                "result": "Virus/W32.Virut.Gen"
            }
        },
        "last_analysis_stats": {
            "confirmed-timeout": 0,
            "failure": 0,
            "harmless": 0,
            "malicious": 57,
            "suspicious": 0,
            "timeout": 0,
            "type-unsupported": 3,
            "undetected": 8
        },
        "last_modification_date": 1542261769,
        "last_submission_date": 1501672213,
        "magic": "PE32 executable for MS Windows (GUI) Intel 80386 32-bit",
        "md5": "bd996398d8a4f31e55fd01e40f021220",
        "meaningful_name": "Dialer",
        "names": [
            "bd996398d8a4f31e55fd01e40f021220.virobj",
            "Dialer",
            "bd996398d8a4f31e55fd01e40f021220.virus"
        ],
        "pe_info": {
            "entry_point": 191361,
            "exports": [
                "TracePrintf",
                "_BScrollGetWindowHandle@4",
                "_BScrollInit@44",
                "_BScrollStart@4",
                "_BScrollStop@4",
                "_BScrollTerm@4",
                "_BScrollWndProc@16",
                "_CreateDIBPalette@8",
                "_GfxBitmapBackfill@12",
                "_GfxBitmapDisplay@20",
                "_GfxBitmapDrawTransparent@24",
                "_GfxBitmapScroll@20",
                "_GfxDeviceIsMono@4",
                "_GfxHideHourglass@4",
                "_GfxLoadBitmapEx@12",
                "_GfxShowHourglass@4",
                "_GfxTextExtentTruncate@12",
                "_MemAllocEx@20",
                "_MemFreeEx@16",
                "_MemInit@8",
                "_MemReAllocEx@24",
                "_MemSize@8",
                "_MemTerm@4",
                "_StrAtoI@4",
                "_StrAtoL@4",
                "_StrChrCat@8",
                "_StrChrCatLeft@8",
                "_StrClean@12",
                "_StrCpyXChr@12",
                "_StrDup@4",
                "_StrDupFree@4",
                "_StrGetLastChr@4",
                "_StrGetRow@16",
                "_StrGetRowColumnCount@12",
                "_StrInsert@8",
                "_StrItoA@12",
                "_StrLtoA@12",
                "_StrSetLastChr@8",
                "_StrSetN@12",
                "_StrTrimChr@8",
                "_StrTrimChrLeading@8",
                "_StrTrimQuotes@4",
                "_StrTrimWhite@4",
                "_StrTrimWhiteLeading@4",
                "_TraceGetLevel@4",
                "_TraceInit@8",
                "_TraceOutput@12",
                "_TraceSetLevel@8",
                "_TraceTerm@4"
            ],
            "imphash": "02c3f6b4018572e7a446fe853ac114e2",
            "import_list": [
                {
                    "imported_functions": [
                        "Ord(145)",
                        "Ord(36)",
                        "Ord(191)",
                        "Ord(147)",
                        "Ord(41)",
                        "Ord(133)",
                        "Ord(135)",
                        "Ord(140)",
                        "Ord(208)",
                        "Ord(73)",
                        "Ord(224)",
                        "Ord(14)",
                        "Ord(26)",
                        "Ord(27)",
                        "Ord(206)",
                        "Ord(13)"
                    ],
                    "library_name": "WLDAP32.dll"
                },
                {
                    "imported_functions": [
                        "sndPlaySoundW"
                    ],
                    "library_name": "WINMM.dll"
                },
                {
                    "imported_functions": [
                        "DrawDibClose",
                        "DrawDibOpen",
                        "DrawDibDraw"
                    ],
                    "library_name": "MSVFW32.dll"
                },
                {
                    "imported_functions": [
                        "GetDIBColorTable",
                        "CreatePolygonRgn",
                        "SetMapMode",
                        "CreateFontIndirectW",
                        "PatBlt",
                        "CreatePen",
                        "CreateHalftonePalette",
                        "GetPixel",
                        "Rectangle",
                        "GetDeviceCaps",
                        "DeleteDC",
                        "SetBkMode",
                        "GetSystemPaletteEntries",
                        "SetPixel",
                        "PtInRegion",
                        "DeleteObject",
                        "GetObjectW",
                        "CreateDCW",
                        "RealizePalette",
                        "SetTextColor",
                        "GetTextExtentPointW",
                        "ExtFloodFill",
                        "ExtTextOutW",
                        "CreateBitmap",
                        "BitBlt",
                        "CreatePalette",
                        "GetStockObject",
                        "CreateDIBitmap",
                        "SelectPalette",
                        "GetDIBits",
                        "CreateCompatibleDC",
                        "StretchBlt",
                        "SelectObject",
                        "CreateSolidBrush",
                        "DPtoLP",
                        "GetMapMode",
                        "SetBkColor",
                        "GetTextExtentPoint32W",
                        "CreateCompatibleBitmap"
                    ],
                    "library_name": "GDI32.dll"
                },
                {
                    "imported_functions": [
                        "Shell_NotifyIconW",
                        "ShellExecuteW",
                        "SHGetSpecialFolderPathW",
                        "SHAppBarMessage"
                    ],
                    "library_name": "SHELL32.dll"
                },
                {
                    "imported_functions": [
                        "GetLastError",
                        "HeapFree",
                        "FreeConsole",
                        "EnterCriticalSection",
                        "OutputDebugStringW",
                        "TerminateThread",
                        "LoadLibraryW",
                        "GlobalFree",
                        "WaitForSingleObject",
                        "FreeLibrary",
                        "QueryPerformanceCounter",
                        "HeapReAlloc",
                        "GetTickCount",
                        "IsBadWritePtr",
                        "lstrcpyW",
                        "GlobalUnlock",
                        "LoadLibraryA",
                        "GlobalAlloc",
                        "SetConsoleScreenBufferSize",
                        "lstrcmpiW",
                        "GetStdHandle",
                        "DeleteCriticalSection",
                        "GetCurrentProcess",
                        "GetStartupInfoW",
                        "GetWindowsDirectoryW",
                        "HeapSize",
                        "GetCurrentProcessId",
                        "LockResource",
                        "lstrlenW",
                        "CreateThread",
                        "UnhandledExceptionFilter",
                        "InterlockedDecrement",
                        "WritePrivateProfileStringW",
                        "CreateDirectoryW",
                        "DeleteFileW",
                        "WaitForMultipleObjects",
                        "GetPrivateProfileIntW",
                        "GetPrivateProfileStringW",
                        "GetProcessHeap",
                        "GetTempFileNameW",
                        "lstrcpynW",
                        "ExpandEnvironmentStringsW",
                        "WriteFile",
                        "GlobalReAlloc",
                        "GetModuleHandleA",
                        "LeaveCriticalSection",
                        "SetUnhandledExceptionFilter",
                        "GetTempPathW",
                        "InterlockedIncrement",
                        "ResetEvent",
                        "GetSystemTimeAsFileTime",
                        "GlobalLock",
                        "GetModuleHandleW",
                        "SetEvent",
                        "FormatMessageW",
                        "TerminateProcess",
                        "CreateEventW",
                        "InitializeCriticalSection",
                        "LoadResource",
                        "FindResourceW",
                        "CreateFileW",
                        "GlobalHandle",
                        "AllocConsole",
                        "lstrcatW",
                        "Sleep",
                        "HeapAlloc",
                        "GetCurrentThreadId",
                        "GetProcAddress",
                        "CloseHandle"
                    ],
                    "library_name": "KERNEL32.dll"
                },
                {
                    "imported_functions": [
                        "_purecall",
                        "__p__fmode",
                        "__wgetmainargs",
                        "??1type_info@@UAE@XZ",
                        "wcstoul",
                        "_wcsnicmp",
                        "__dllonexit",
                        "_cexit",
                        "_snwprintf",
                        "swprintf",
                        "towupper",
                        "wcslen",
                        "_except_handler3",
                        "?terminate@@YAXXZ",
                        "_c_exit",
                        "_onexit",
                        "_wcsdup",
                        "wcscmp",
                        "exit",
                        "_XcptFilter",
                        "_itow",
                        "__setusermatherr",
                        "wcsncpy",
                        "_controlfp",
                        "_wcmdln",
                        "_adjust_fdiv",
                        "__CxxFrameHandler",
                        "_wcsicmp",
                        "iswctype",
                        "wcschr",
                        "__p__commode",
                        "free",
                        "_wtol",
                        "_initterm",
                        "memmove",
                        "wcscpy",
                        "_ftol",
                        "_exit",
                        "_wtoi",
                        "_ltow",
                        "__set_app_type"
                    ],
                    "library_name": "msvcrt.dll"
                },
                {
                    "imported_functions": [
                        "LoadRegTypeLib",
                        "SysFreeString",
                        "SysStringLen",
                        "SetErrorInfo",
                        "SysAllocString"
                    ],
                    "library_name": "OLEAUT32.dll"
                },
                {
                    "imported_functions": [
                        "DsGetDcNameW",
                        "NetApiBufferFree"
                    ],
                    "library_name": "NETAPI32.dll"
                },
                {
                    "imported_functions": [
                        "Ord(2916)",
                        "Ord(2478)",
                        "Ord(3728)",
                        "Ord(459)",
                        "Ord(4073)",
                        "Ord(3867)",
                        "Ord(5852)",
                        "Ord(5278)",
                        "Ord(956)",
                        "Ord(2430)",
                        "Ord(4523)",
                        "Ord(940)",
                        "Ord(6278)",
                        "Ord(2873)",
                        "Ord(3805)",
                        "Ord(922)",
                        "Ord(5236)",
                        "Ord(3517)",
                        "Ord(5256)",
                        "Ord(4272)",
                        "Ord(5244)",
                        "Ord(3076)",
                        "Ord(3345)",
                        "Ord(4233)",
                        "Ord(1791)",
                        "Ord(882)",
                        "Ord(609)",
                        "Ord(3060)",
                        "Ord(2806)",
                        "Ord(2381)",
                        "Ord(2400)",
                        "Ord(4448)",
                        "Ord(6330)",
                        "Ord(5616)",
                        "Ord(617)",
                        "Ord(4154)",
                        "Ord(2573)",
                        "Ord(4604)",
                        "Ord(4146)",
                        "Ord(2874)",
                        "Ord(1264)",
                        "Ord(1933)",
                        "Ord(1144)",
                        "Ord(1767)",
                        "Ord(6376)",
                        "Ord(3568)",
                        "Ord(4584)",
                        "Ord(2405)",
                        "Ord(6048)",
                        "Ord(5468)",
                        "Ord(470)",
                        "Ord(3993)",
                        "Ord(3592)",
                        "Ord(4459)",
                        "Ord(324)",
                        "Ord(4418)",
                        "Ord(4800)",
                        "Ord(2641)",
                        "Ord(4358)",
                        "Ord(1937)",
                        "Ord(4831)",
                        "Ord(803)",
                        "Ord(2715)",
                        "Ord(4426)",
                        "Ord(542)",
                        "Ord(858)",
                        "Ord(5783)",
                        "Ord(2504)",
                        "Ord(5930)",
                        "Ord(4817)",
                        "Ord(2078)",
                        "Ord(4074)",
                        "Ord(5601)",
                        "Ord(5180)",
                        "Ord(4421)",
                        "Ord(810)",
                        "Ord(4520)",
                        "Ord(4947)",
                        "Ord(998)",
                        "Ord(4051)",
                        "Ord(4692)",
                        "Ord(935)",
                        "Ord(2089)",
                        "Ord(4116)",
                        "Ord(5248)",
                        "Ord(3806)",
                        "Ord(2391)",
                        "Ord(5296)",
                        "Ord(3793)",
                        "Ord(3826)",
                        "Ord(5193)",
                        "Ord(4396)",
                        "Ord(603)",
                        "Ord(652)",
                        "Ord(5094)",
                        "Ord(6350)",
                        "Ord(2507)",
                        "Ord(4364)",
                        "Ord(2793)",
                        "Ord(561)",
                        "Ord(6348)",
                        "Ord(1083)",
                        "Ord(5593)",
                        "Ord(6372)",
                        "Ord(614)",
                        "Ord(3288)",
                        "Ord(529)",
                        "Ord(4294)",
                        "Ord(613)",
                        "Ord(6142)",
                        "Ord(296)",
                        "Ord(3634)",
                        "Ord(1930)",
                        "Ord(3191)",
                        "Ord(2382)",
                        "Ord(1703)",
                        "Ord(3687)",
                        "Ord(298)",
                        "Ord(6365)",
                        "Ord(6113)",
                        "Ord(4621)",
                        "Ord(326)",
                        "Ord(5880)",
                        "Ord(354)",
                        "Ord(2980)",
                        "Ord(6567)",
                        "Ord(2350)",
                        "Ord(5630)",
                        "Ord(4442)",
                        "Ord(5727)",
                        "Ord(807)",
                        "Ord(3281)",
                        "Ord(3167)",
                        "Ord(6168)",
                        "Ord(5787)",
                        "Ord(4852)",
                        "Ord(4539)",
                        "Ord(3494)",
                        "Ord(2977)",
                        "Ord(815)",
                        "Ord(4525)",
                        "Ord(3716)",
                        "Ord(3566)",
                        "Ord(1105)",
                        "Ord(2538)",
                        "Ord(941)",
                        "Ord(2522)",
                        "Ord(919)",
                        "Ord(6279)",
                        "Ord(6195)",
                        "Ord(3649)",
                        "Ord(2732)",
                        "Ord(5097)",
                        "Ord(1961)",
                        "Ord(825)",
                        "Ord(4263)",
                        "Ord(2502)",
                        "Ord(5261)",
                        "Ord(4273)",
                        "Ord(2858)",
                        "Ord(4335)",
                        "Ord(4360)",
                        "Ord(2016)",
                        "Ord(6211)",
                        "Ord(6125)",
                        "Ord(283)",
                        "Ord(640)",
                        "Ord(6451)",
                        "Ord(6150)",
                        "Ord(656)",
                        "Ord(4298)",
                        "Ord(2613)",
                        "Ord(4884)",
                        "Ord(3291)",
                        "Ord(554)",
                        "Ord(6375)",
                        "Ord(2879)",
                        "Ord(2116)",
                        "Ord(3131)",
                        "Ord(3053)",
                        "Ord(796)",
                        "Ord(5070)",
                        "Ord(4407)",
                        "Ord(5977)",
                        "Ord(562)",
                        "Ord(6381)",
                        "Ord(986)",
                        "Ord(4419)",
                        "Ord(2857)",
                        "Ord(2640)",
                        "Ord(3865)",
                        "Ord(3490)",
                        "Ord(3254)",
                        "Ord(1165)",
                        "Ord(4451)",
                        "Ord(802)",
                        "Ord(5273)",
                        "Ord(3562)",
                        "Ord(4582)",
                        "Ord(2534)",
                        "Ord(2910)",
                        "Ord(4238)",
                        "Ord(4158)",
                        "Ord(4704)",
                        "Ord(816)",
                        "Ord(1840)",
                        "Ord(5568)",
                        "Ord(1720)",
                        "Ord(4461)",
                        "Ord(4420)",
                        "Ord(2436)",
                        "Ord(5596)",
                        "Ord(2756)",
                        "Ord(3733)",
                        "Ord(620)",
                        "Ord(4518)",
                        "Ord(6171)",
                        "Ord(5208)",
                        "Ord(1143)",
                        "Ord(6396)",
                        "Ord(4279)",
                        "Ord(5059)",
                        "Ord(5230)",
                        "Ord(692)",
                        "Ord(4395)",
                        "Ord(4103)",
                        "Ord(4225)",
                        "Ord(4270)",
                        "Ord(5239)",
                        "Ord(2576)",
                        "Ord(3605)",
                        "Ord(3820)",
                        "Ord(2406)",
                        "Ord(1863)",
                        "Ord(3998)",
                        "Ord(537)",
                        "Ord(3000)",
                        "Ord(6332)",
                        "Ord(4292)",
                        "Ord(6371)",
                        "Ord(2112)",
                        "Ord(290)",
                        "Ord(4124)",
                        "Ord(665)",
                        "Ord(6153)",
                        "Ord(5006)",
                        "Ord(4381)",
                        "Ord(5736)",
                        "Ord(755)",
                        "Ord(2606)",
                        "Ord(5592)",
                        "Ord(4616)",
                        "Ord(3282)",
                        "Ord(5881)",
                        "Ord(795)",
                        "Ord(3257)",
                        "Ord(879)",
                        "Ord(3917)",
                        "Ord(6105)",
                        "Ord(3449)",
                        "Ord(2388)",
                        "Ord(3991)",
                        "Ord(567)",
                        "Ord(4414)",
                        "Ord(870)",
                        "Ord(2293)",
                        "Ord(5024)",
                        "Ord(1971)",
                        "Ord(1191)",
                        "Ord(4955)",
                        "Ord(3810)",
                        "Ord(1761)",
                        "Ord(5237)",
                        "Ord(5276)",
                        "Ord(540)",
                        "Ord(5619)",
                        "Ord(4186)",
                        "Ord(4078)",
                        "Ord(942)",
                        "Ord(3737)",
                        "Ord(1196)",
                        "Ord(2371)",
                        "Ord(4480)",
                        "Ord(3393)",
                        "Ord(543)",
                        "Ord(3087)",
                        "Ord(2966)",
                        "Ord(501)",
                        "Ord(3074)",
                        "Ord(2755)",
                        "Ord(818)",
                        "Ord(823)",
                        "Ord(1569)",
                        "Ord(2859)",
                        "Ord(4269)",
                        "Ord(6437)",
                        "Ord(5233)",
                        "Ord(6266)",
                        "Ord(2028)",
                        "Ord(4670)",
                        "Ord(538)",
                        "Ord(4606)",
                        "Ord(3398)",
                        "Ord(4688)",
                        "Ord(1081)",
                        "Ord(3290)",
                        "Ord(289)",
                        "Ord(6374)",
                        "Ord(3743)",
                        "Ord(3133)",
                        "Ord(4893)",
                        "Ord(6362)",
                        "Ord(323)",
                        "Ord(2109)",
                        "Ord(773)",
                        "Ord(5467)",
                        "Ord(3365)",
                        "Ord(3744)",
                        "Ord(4128)",
                        "Ord(2615)",
                        "Ord(1220)",
                        "Ord(5871)",
                        "Ord(2971)",
                        "Ord(1817)",
                        "Ord(1658)",
                        "Ord(3579)",
                        "Ord(997)",
                        "Ord(4214)",
                        "Ord(2438)",
                        "Ord(4847)",
                        "Ord(4075)",
                        "Ord(2854)",
                        "Ord(3871)",
                        "Ord(2637)",
                        "Ord(3297)",
                        "Ord(1172)",
                        "Ord(2717)",
                        "Ord(4583)",
                        "Ord(6398)",
                        "Ord(5781)",
                        "Ord(4717)",
                        "Ord(1941)",
                        "Ord(3658)",
                        "Ord(4958)",
                        "Ord(5617)",
                        "Ord(3397)",
                        "Ord(4072)",
                        "Ord(2567)",
                        "Ord(5649)",
                        "Ord(2885)",
                        "Ord(4266)",
                        "Ord(4690)",
                        "Ord(937)",
                        "Ord(3621)",
                        "Ord(2362)",
                        "Ord(4493)",
                        "Ord(5298)",
                        "Ord(1634)",
                        "Ord(925)",
                        "Ord(5058)",
                        "Ord(693)",
                        "Ord(3516)",
                        "Ord(5996)",
                        "Ord(5257)",
                        "Ord(3798)",
                        "Ord(3442)",
                        "Ord(1203)",
                        "Ord(5869)",
                        "Ord(6331)",
                        "Ord(1085)",
                        "Ord(6370)",
                        "Ord(6325)",
                        "Ord(291)",
                        "Ord(366)",
                        "Ord(3332)",
                        "Ord(4155)",
                        "Ord(915)",
                        "Ord(338)",
                        "Ord(4343)",
                        "Ord(1633)",
                        "Ord(1739)",
                        "Ord(4430)",
                        "Ord(3142)",
                        "Ord(3193)",
                        "Ord(5784)",
                        "Ord(2047)",
                        "Ord(5285)",
                        "Ord(4617)",
                        "Ord(3569)",
                        "Ord(3688)",
                        "Ord(1594)",
                        "Ord(6896)",
                        "Ord(6565)",
                        "Ord(5710)",
                        "Ord(641)",
                        "Ord(4401)",
                        "Ord(4886)",
                        "Ord(1764)",
                        "Ord(273)",
                        "Ord(384)",
                        "Ord(415)",
                        "Ord(4229)",
                        "Ord(2294)",
                        "Ord(4215)",
                        "Ord(5785)",
                        "Ord(4537)",
                        "Ord(813)",
                        "Ord(800)",
                        "Ord(5157)",
                        "Ord(5275)",
                        "Ord(6051)",
                        "Ord(2563)",
                        "Ord(6193)",
                        "Ord(400)",
                        "Ord(3084)",
                        "Ord(1834)",
                        "Ord(4268)",
                        "Ord(4665)",
                        "Ord(674)",
                        "Ord(6060)",
                        "Ord(5210)",
                        "Ord(2746)",
                        "Ord(5573)",
                        "Ord(2855)",
                        "Ord(6076)",
                        "Ord(602)",
                        "Ord(3614)",
                        "Ord(5297)",
                        "Ord(1637)",
                        "Ord(6205)",
                        "Ord(5801)",
                        "Ord(686)",
                        "Ord(3792)",
                        "Ord(3825)",
                        "Ord(3348)",
                        "Ord(1719)",
                        "Ord(2546)",
                        "Ord(1089)",
                        "Ord(2506)",
                        "Ord(3341)",
                        "Ord(4237)",
                        "Ord(1795)",
                        "Ord(4390)",
                        "Ord(2574)",
                        "Ord(4347)",
                        "Ord(535)",
                        "Ord(560)",
                        "Ord(4992)",
                        "Ord(1808)",
                        "Ord(1768)",
                        "Ord(3909)",
                        "Ord(3313)",
                        "Ord(702)",
                        "Ord(743)",
                        "Ord(520)",
                        "Ord(3635)",
                        "Ord(1708)",
                        "Ord(4435)",
                        "Ord(5303)",
                        "Ord(861)",
                        "Ord(2810)",
                        "Ord(996)",
                        "Ord(2377)",
                        "Ord(3054)",
                        "Ord(355)",
                        "Ord(5638)",
                        "Ord(715)",
                        "Ord(4370)",
                        "Ord(2776)",
                        "Ord(2115)",
                        "Ord(2634)",
                        "Ord(2092)",
                        "Ord(1173)",
                        "Ord(5286)"
                    ],
                    "library_name": "MFC42u.DLL"
                },
                {
                    "imported_functions": [
                        "RegCreateKeyExW",
                        "RegDeleteValueW",
                        "RegCloseKey",
                        "RegSetValueExW",
                        "RegQueryValueExA",
                        "RegOpenKeyExW",
                        "RegOpenKeyExA",
                        "RegDeleteKeyW",
                        "RegSetValueW",
                        "GetUserNameW",
                        "RegQueryValueExW"
                    ],
                    "library_name": "ADVAPI32.dll"
                },
                {
                    "imported_functions": [
                        "CoUninitialize",
                        "CoInitializeEx",
                        "CoCreateInstance",
                        "CoTaskMemFree",
                        "CoInitialize"
                    ],
                    "library_name": "ole32.dll"
                },
                {
                    "imported_functions": [
                        "Ord(11)",
                        "Ord(10)",
                        "Ord(23)",
                        "Ord(20)",
                        "Ord(21)",
                        "Ord(17)",
                        "Ord(16)",
                        "Ord(32)",
                        "Ord(18)"
                    ],
                    "library_name": "ATL.DLL"
                },
                {
                    "imported_functions": [
                        "MapWindowPoints",
                        "RedrawWindow",
                        "DrawTextW",
                        "DestroyMenu",
                        "SetWindowPos",
                        "IsWindow",
                        "EndPaint",
                        "SetMenuItemInfoW",
                        "SetActiveWindow",
                        "GetDC",
                        "GetCursorPos",
                        "ReleaseDC",
                        "LoadBitmapW",
                        "GetMenu",
                        "GetClientRect",
                        "GetMenuItemInfoW",
                        "SetMenuDefaultItem",
                        "LoadImageW",
                        "ClientToScreen",
                        "GetActiveWindow",
                        "PtInRect",
                        "GetParent",
                        "UpdateWindow",
                        "EqualRect",
                        "SetClassLongW",
                        "ShowWindow",
                        "GetDesktopWindow",
                        "EnableWindow",
                        "GetWindow",
                        "RegisterClassW",
                        "EnableMenuItem",
                        "InvertRect",
                        "TrackPopupMenuEx",
                        "GetSubMenu",
                        "SetTimer",
                        "FillRect",
                        "CopyRect",
                        "DeferWindowPos",
                        "GetClassInfoW",
                        "CreateWindowExW",
                        "GetWindowLongW",
                        "DestroyWindow",
                        "SetFocus",
                        "RegisterWindowMessageW",
                        "IsIconic",
                        "BeginPaint",
                        "OffsetRect",
                        "DefWindowProcW",
                        "KillTimer",
                        "CharPrevW",
                        "CheckMenuRadioItem",
                        "GetSystemMetrics",
                        "SetWindowLongW",
                        "GetWindowRect",
                        "SetCapture",
                        "ReleaseCapture",
                        "PostMessageW",
                        "CreatePopupMenu",
                        "CheckMenuItem",
                        "DrawFocusRect",
                        "GetLastActivePopup",
                        "GetDCEx",
                        "GetDlgItem",
                        "ScreenToClient",
                        "TrackPopupMenu",
                        "GetMenuItemCount",
                        "GetMenuState",
                        "LoadCursorW",
                        "LoadIconW",
                        "GetMenuItemID",
                        "InsertMenuW",
                        "SetForegroundWindow",
                        "GetMenuStringW",
                        "IntersectRect",
                        "FindWindowW",
                        "GetDlgCtrlID",
                        "MessageBeep",
                        "LoadMenuW",
                        "RemoveMenu",
                        "wvsprintfW",
                        "BeginDeferWindowPos",
                        "MessageBoxW",
                        "SendMessageW",
                        "RegisterClassExW",
                        "SetRectEmpty",
                        "AppendMenuW",
                        "GetSysColor",
                        "EndDeferWindowPos",
                        "IsWindowVisible",
                        "WinHelpW",
                        "SystemParametersInfoW",
                        "SetRect",
                        "DeleteMenu",
                        "InvalidateRect",
                        "CharNextW",
                        "CallWindowProcW",
                        "ModifyMenuW",
                        "ValidateRect",
                        "IsRectEmpty",
                        "GetFocus",
                        "SetCursor"
                    ],
                    "library_name": "USER32.dll"
                },
                {
                    "imported_functions": [
                        "CreateToolbarEx",
                        "ImageList_SetOverlayImage",
                        "ImageList_Destroy",
                        "ImageList_AddMasked",
                        "ImageList_GetImageCount",
                        "ImageList_Draw",
                        "ImageList_DrawEx",
                        "InitCommonControlsEx",
                        "ImageList_LoadImageW"
                    ],
                    "library_name": "COMCTL32.dll"
                }
            ],
            "machine_type": 332,
            "resource_details": [
                {
                    "filetype": "audio/x-wav",
                    "lang": "ENGLISH US",
                    "sha256": "eb533c246e86f1a46f627fd653627552f70339290e6fd8b4db1c63d95fabfebb",
                    "type": "AVI"
                },
                {
                    "filetype": "audio/x-wav",
                    "lang": "ENGLISH US",
                    "sha256": "29e9dbddcc8cb90fd393b1be123a0e4d14fde1f6ba85cf409e3cefd1fe817caa",
                    "type": "AVI"
                },
                {
                    "filetype": "audio/x-wav",
                    "lang": "ENGLISH US",
                    "sha256": "7792bc0ac31153aaa40dc7429a471d071c1a297d356f798131881f422e56dc67",
                    "type": "AVI"
                },
                {
                    "filetype": "audio/x-wav",
                    "lang": "ENGLISH US",
                    "sha256": "f085b9d86a6f05f5653c8a55c2b5364de09ef7f6efb4351366aa2352e3aeb6a2",
                    "type": "AVI"
                },
                {
                    "filetype": "audio/x-wav",
                    "lang": "ENGLISH US",
                    "sha256": "ee7012fdec02769cae93fdd877eb6ade97de4463cea53c0716cd5498557ac776",
                    "type": "AVI"
                },
                {
                    "filetype": "ASCII text",
                    "lang": "ENGLISH US",
                    "sha256": "2c943c62c261616817bcac4cdd8e32dd9f7346b24d72d6004f5e46f3ea136c62",
                    "type": "REGISTRY"
                },
                {
                    "filetype": "ASCII text",
                    "lang": "ENGLISH US",
                    "sha256": "4ea37e6c022576fab1a7300ad197cce1a9c2832504a2fd1952cc15396f0b47a6",
                    "type": "REGISTRY"
                },
                {
                    "filetype": "ASCII text",
                    "lang": "ENGLISH US",
                    "sha256": "89d2c7cf3f67fb372a7fce4570694a498b1c35ee062f34935e46c21c4e0bf207",
                    "type": "REGISTRY"
                },
                {
                    "filetype": "data",
                    "lang": "ENGLISH US",
                    "sha256": "57d04320cb96a953a6446715d274bc6a9782044777679cef2426c0728a505a51",
                    "type": "RT_CURSOR"
                },
                {
                    "filetype": "data",
                    "lang": "ENGLISH US",
                    "sha256": "9cc4de765ab007871ae3017de4c01858a66f525876ea079283c879107a3c957a",
                    "type": "RT_BITMAP"
                },
                {
                    "filetype": "data",
                    "lang": "ENGLISH US",
                    "sha256": "b2f8a6ba394b536dc17380d74d0020962d80f09869c2e2a200177f7659bd69a5",
                    "type": "RT_BITMAP"
                },
                {
                    "filetype": "data",
                    "lang": "ENGLISH US",
                    "sha256": "d860340635e412198f15b53da9c0d0bb9f50da89b89901b6c0e1ca4c021c0a8a",
                    "type": "RT_BITMAP"
                },
                {
                    "filetype": "data",
                    "lang": "ENGLISH US",
                    "sha256": "32582b8741aefe064f63ab4d6adab40d3a4be54481309b71d2198a04a374f39c",
                    "type": "RT_BITMAP"
                },
                {
                    "filetype": "data",
                    "lang": "ENGLISH US",
                    "sha256": "d36d36c04856e8203d3ed39938acdd45c84497605d9e90f8dce8f576688b6047",
                    "type": "RT_BITMAP"
                },
                {
                    "filetype": "data",
                    "lang": "ENGLISH US",
                    "sha256": "16ae2d044c6e6146a3f018095802990260d114b7a145762fd855cfe5a5aada52",
                    "type": "RT_BITMAP"
                },
                {
                    "filetype": "data",
                    "lang": "ENGLISH US",
                    "sha256": "b68a43b33afe9171090b19c394c1a8adfd55144b789ee3a9ac2a3c44b530241a",
                    "type": "RT_BITMAP"
                },
                {
                    "filetype": "data",
                    "lang": "ENGLISH US",
                    "sha256": "02fd59cf28d0ede3e3d9a3f5542edaf385ac77e3260399c28e059caa3b5a1255",
                    "type": "RT_BITMAP"
                },
                {
                    "filetype": "data",
                    "lang": "ENGLISH US",
                    "sha256": "7f66aae72f506c61e69a8df126282a206152c8dc63c59f8a43661b8cb1963dbb",
                    "type": "RT_BITMAP"
                },
                {
                    "filetype": "data",
                    "lang": "ENGLISH US",
                    "sha256": "3be0cfd1a7d6dd59e4a4def433b5c6409df0707fbe90cd96710524d98d1d142c",
                    "type": "RT_BITMAP"
                },
                {
                    "filetype": "data",
                    "lang": "ENGLISH US",
                    "sha256": "d16f94dab9f64730fcd6684dbd1d0fe04244af043771c9e9e88c760edaf821b3",
                    "type": "RT_BITMAP"
                },
                {
                    "filetype": "data",
                    "lang": "ENGLISH US",
                    "sha256": "6b92e7369f67eb869d4b75dfefd8661e1f65c4d02d51c5a8d6897433f0481c99",
                    "type": "RT_BITMAP"
                },
                {
                    "filetype": "data",
                    "lang": "ENGLISH US",
                    "sha256": "2259fffa0878941dbd5b8bd42587960d1083815b0bce785231d080b122f57443",
                    "type": "RT_BITMAP"
                },
                {
                    "filetype": "data",
                    "lang": "ENGLISH US",
                    "sha256": "319dcd4ba3b9851cf378a808fd83571b581d31d949d65fa6d84fb671ad7427ed",
                    "type": "RT_BITMAP"
                },
                {
                    "filetype": "data",
                    "lang": "ENGLISH US",
                    "sha256": "3f422e508d60752d503be08f59e9506fc49fb5ced4e27882b5da1a4a74641bec",
                    "type": "RT_BITMAP"
                },
                {
                    "filetype": "data",
                    "lang": "ENGLISH US",
                    "sha256": "39bc79d848cc3c867151f032e288a920b77df26bb9f36bae99f3b83e0e667bd4",
                    "type": "RT_BITMAP"
                },
                {
                    "filetype": "data",
                    "lang": "ENGLISH US",
                    "sha256": "5e882d9b78da7991fb71da4258087dca517e38fbf639b4382250bb32c7e1f1d0",
                    "type": "RT_BITMAP"
                },
                {
                    "filetype": "data",
                    "lang": "ENGLISH US",
                    "sha256": "d641d75b771f3fde2a73aacde0e8a09ed3c5e6d476d4438be3fdd13da1be63b5",
                    "type": "RT_BITMAP"
                },
                {
                    "filetype": "data",
                    "lang": "ENGLISH US",
                    "sha256": "a8186e599c7c130e2059f948c6878e87a0ae3471d5671d8718efc761a5aa9f42",
                    "type": "RT_BITMAP"
                },
                {
                    "filetype": "data",
                    "lang": "ENGLISH US",
                    "sha256": "8ed62b72066ba724ae570f6bf1bb72665255a0d97adb4423b4221153d23f1a07",
                    "type": "RT_BITMAP"
                },
                {
                    "filetype": "data",
                    "lang": "ENGLISH US",
                    "sha256": "1a9d5cb4b69db48fe9b937e060b49b69ac5bb71467615d57e874dcf35dd87901",
                    "type": "RT_BITMAP"
                },
                {
                    "filetype": "data",
                    "lang": "ENGLISH US",
                    "sha256": "8307819a630694f823abb8e034e238d045f7cc87b1de63d2402372564624dd67",
                    "type": "RT_BITMAP"
                },
                {
                    "filetype": "data",
                    "lang": "ENGLISH US",
                    "sha256": "17c6265fcf770ed7bcaeaf0d7017ebc67a335c77b5994861704f813851a26388",
                    "type": "RT_BITMAP"
                },
                {
                    "filetype": "data",
                    "lang": "ENGLISH US",
                    "sha256": "65e7856f1a33da08945acf187365419ebffb378da6a7f68e86c3c6d4fdf04126",
                    "type": "RT_BITMAP"
                },
                {
                    "filetype": "data",
                    "lang": "ENGLISH US",
                    "sha256": "aea6eb547308c160a6c66ef640d7b6a0947742d0ece9588dfa8b3c2d279e6696",
                    "type": "RT_BITMAP"
                },
                {
                    "filetype": "data",
                    "lang": "ENGLISH US",
                    "sha256": "aef0d8b5f716d15fd6b5f8ea2d42336288de439b3cbb6451e5eb4638a1ac5342",
                    "type": "RT_BITMAP"
                },
                {
                    "filetype": "data",
                    "lang": "ENGLISH US",
                    "sha256": "7d2acadd4d80cc36d42f1f8f88765d36a6da185b5eec18dee3c58a67f4fdde0e",
                    "type": "RT_BITMAP"
                },
                {
                    "filetype": "data",
                    "lang": "ENGLISH US",
                    "sha256": "9742189f91171d6a437597fe044185aa50f0f62cd4a630aa7fc2d8051aabcd3d",
                    "type": "RT_BITMAP"
                },
                {
                    "filetype": "data",
                    "lang": "ENGLISH US",
                    "sha256": "b35e6e5dc0e3554b5de43a4e852d4c139a11153cc3ee8495f55b34b3430b9f76",
                    "type": "RT_BITMAP"
                },
                {
                    "filetype": "data",
                    "lang": "ENGLISH US",
                    "sha256": "cc5637552736b8ee9222269d2e54ed3bd81fff18854b07a935ee73174b7cf6e2",
                    "type": "RT_BITMAP"
                },
                {
                    "filetype": "data",
                    "lang": "ENGLISH US",
                    "sha256": "15a8682ca7cfb03e9cf6d6032a97a322a0069e20c432015cd14361a275eb8c5b",
                    "type": "RT_BITMAP"
                },
                {
                    "filetype": "data",
                    "lang": "ENGLISH US",
                    "sha256": "2056ca85abe4b0237644f87b29771ed260f9217005bd2bd358f8d61780b47cf3",
                    "type": "RT_ICON"
                },
                {
                    "filetype": "data",
                    "lang": "ENGLISH US",
                    "sha256": "9b89a93b314184352a5165592009e110572f4a36c2d954a06b89e15de9d91aa5",
                    "type": "RT_ICON"
                },
                {
                    "filetype": "data",
                    "lang": "ENGLISH US",
                    "sha256": "7bc393f66a9ae432519ae7aa3ea0f0418b713a0304468854d6cb2c24b3f63606",
                    "type": "RT_ICON"
                },
                {
                    "filetype": "data",
                    "lang": "ENGLISH US",
                    "sha256": "4a64c9d84101ac1006ac494ab230aba88d4a963042e43a6af90a5b39abe9cbca",
                    "type": "RT_ICON"
                },
                {
                    "filetype": "data",
                    "lang": "ENGLISH US",
                    "sha256": "fb5ba5dd757b8105e2f8d0333f68e34cd3a2c24a83739b2ce3310c4492c5f54e",
                    "type": "RT_ICON"
                },
                {
                    "filetype": "data",
                    "lang": "ENGLISH US",
                    "sha256": "da9a39b2bd07cf285abad6572f96c79633e52cfa29818505515c1a30684cc0cc",
                    "type": "RT_ICON"
                },
                {
                    "filetype": "data",
                    "lang": "ENGLISH US",
                    "sha256": "d1ae6ff5379fef26ca151088e8d5b8e7f766bc7b599401a93ea74a395dca3370",
                    "type": "RT_ICON"
                },
                {
                    "filetype": "data",
                    "lang": "ENGLISH US",
                    "sha256": "451b93e70ed6a704951ea09cb8585f7c188f00700f5e9c9aa346923bd82d8c34",
                    "type": "RT_ICON"
                },
                {
                    "filetype": "data",
                    "lang": "ENGLISH US",
                    "sha256": "16856332883869ede6ff3e9732b6c4972953001a8ef05661924e9d02616b9bcb",
                    "type": "RT_ICON"
                },
                {
                    "filetype": "data",
                    "lang": "ENGLISH US",
                    "sha256": "9e3d96c245e4ea842a34a798eceb95cff27ffe09d3cb376515cf1565fec2d7f9",
                    "type": "RT_ICON"
                },
                {
                    "filetype": "data",
                    "lang": "ENGLISH US",
                    "sha256": "d3e0b4910ec40289bf75f565f1369c1a2d577f4f3e5c75e06708f7c459193422",
                    "type": "RT_ICON"
                },
                {
                    "filetype": "data",
                    "lang": "ENGLISH US",
                    "sha256": "ee331f18c884b976b9213b2f1d01676cd60c253b7b5c56bafa9b49c3d4fdb15a",
                    "type": "RT_ICON"
                },
                {
                    "filetype": "data",
                    "lang": "ENGLISH US",
                    "sha256": "feb65443cb1ced4f6ef4fb8bf2d4f1bdaf501d46b149ccf3617e60293da1951c",
                    "type": "RT_ICON"
                },
                {
                    "filetype": "data",
                    "lang": "ENGLISH US",
                    "sha256": "ce79cb6fd3498f95382249a6347d9027cc734eb90a92b0669055631839a4cd20",
                    "type": "RT_MENU"
                },
                {
                    "filetype": "data",
                    "lang": "ENGLISH US",
                    "sha256": "6650a55ea6d5ad20ad2ba5ec2857f2e86d8123abeb06e7c4706e6675029480ad",
                    "type": "RT_MENU"
                },
                {
                    "filetype": "data",
                    "lang": "ENGLISH US",
                    "sha256": "00664103a3894495bb2354a78bcc4cfff60b70c724a6d616686d0de27330dc1c",
                    "type": "RT_MENU"
                },
                {
                    "filetype": "data",
                    "lang": "ENGLISH US",
                    "sha256": "38cf78d77da9bbaf950d9e4f9b66abd4678ee6f55f5e45c12c067c27f158ae09",
                    "type": "RT_MENU"
                },
                {
                    "filetype": "data",
                    "lang": "ENGLISH US",
                    "sha256": "5a0d2566401b3e7067df0f80774d2b00db551840ae5dd370bbc7660afe796c84",
                    "type": "RT_MENU"
                },
                {
                    "filetype": "data",
                    "lang": "ENGLISH US",
                    "sha256": "11a6fa33c72fbd86f0667c3ff7600727d76bda2a45e5f351b1e6bf65f6ab3210",
                    "type": "RT_MENU"
                },
                {
                    "filetype": "data",
                    "lang": "ENGLISH US",
                    "sha256": "0c5d7b5bd0cb56255c911a3a0095811a17868ff78f9016691c7cd329138c6b31",
                    "type": "RT_MENU"
                },
                {
                    "filetype": "data",
                    "lang": "ENGLISH US",
                    "sha256": "5c8f857bb7441b88b3aeadebac4d42fa57d0dce6f4d5501edc0a14389bb0f5f9",
                    "type": "RT_DIALOG"
                },
                {
                    "filetype": "data",
                    "lang": "ENGLISH US",
                    "sha256": "4f3300e11000341f911166faa2a6ba0644b1c08dfbcbeabbe59f265264dccaf5",
                    "type": "RT_DIALOG"
                },
                {
                    "filetype": "data",
                    "lang": "ENGLISH US",
                    "sha256": "6b9689d1831c2191f512e0f1fa91f34861410e030065c3e4ebbac29d4bf81de5",
                    "type": "RT_DIALOG"
                },
                {
                    "filetype": "data",
                    "lang": "ENGLISH US",
                    "sha256": "2bb44d42119116262262a5cc1222db33a925515e1f307f86d01c3aa0ef0afdf0",
                    "type": "RT_DIALOG"
                },
                {
                    "filetype": "data",
                    "lang": "ENGLISH US",
                    "sha256": "edee8d30da9ad39ccd50a2533cc1a49e229e77eae86104ac33662885be9faf82",
                    "type": "RT_DIALOG"
                },
                {
                    "filetype": "data",
                    "lang": "ENGLISH US",
                    "sha256": "0a8fb13c7bcdb8417e022714403a54051e26f94736beab1b6beaaaa4efd009ef",
                    "type": "RT_DIALOG"
                },
                {
                    "filetype": "data",
                    "lang": "ENGLISH US",
                    "sha256": "5131d67f4c6fc279eea557c9620b6dbb68570eaaaea640786681ede560fcbffd",
                    "type": "RT_DIALOG"
                },
                {
                    "filetype": "data",
                    "lang": "ENGLISH US",
                    "sha256": "a640e0d5405bf490923ecdcfe2d7cfcaaea421507824d2fe84633d4ebf2e6ebe",
                    "type": "RT_DIALOG"
                },
                {
                    "filetype": "data",
                    "lang": "ENGLISH US",
                    "sha256": "47823d434ecf3342bc4880a598a7fb613be26235efd80d59489b0ea7b71495cb",
                    "type": "RT_DIALOG"
                },
                {
                    "filetype": "data",
                    "lang": "ENGLISH US",
                    "sha256": "19bb264b1f9f2a512a37951aa2415d3c62af7d549d5fbd45a2a434caf8eda79b",
                    "type": "RT_DIALOG"
                },
                {
                    "filetype": "data",
                    "lang": "ENGLISH US",
                    "sha256": "9aee3dd028d7cbebcb8eda5f0737de7df5f3e0a46d29203bf06cb933a6c5795b",
                    "type": "RT_DIALOG"
                },
                {
                    "filetype": "data",
                    "lang": "ENGLISH US",
                    "sha256": "6ff63e0dcc0f097def5d491badf48c506b6ce79e7bd7827d613f966377c14c72",
                    "type": "RT_DIALOG"
                },
                {
                    "filetype": "data",
                    "lang": "ENGLISH US",
                    "sha256": "363d88487fca99a7fcf14b1c9ad8faf230f33c0c52112681f7737dd1eea1f06d",
                    "type": "RT_DIALOG"
                },
                {
                    "filetype": "data",
                    "lang": "ENGLISH US",
                    "sha256": "98a908ff5e246185f2ab2b4748ce899d6975c7f03ab03ec1d001381f69b864a2",
                    "type": "RT_DIALOG"
                },
                {
                    "filetype": "data",
                    "lang": "ENGLISH US",
                    "sha256": "5ccc7d03839b481e876d2b4f2f359a4d3f5700ba5fbb7ee1a447f5e50c36b40e",
                    "type": "RT_DIALOG"
                },
                {
                    "filetype": "ASCII text",
                    "lang": "ENGLISH US",
                    "sha256": "b751d56a3da99a806555be125cd3f78670db3b32decc090d5f755718c3ebc8e6",
                    "type": "RT_STRING"
                },
                {
                    "filetype": "data",
                    "lang": "ENGLISH US",
                    "sha256": "51ee8e330449278573994ecca95b596a1aa6bea5f89f90025e9929cbae841f89",
                    "type": "RT_STRING"
                },
                {
                    "filetype": "ASCII text",
                    "lang": "ENGLISH US",
                    "sha256": "f3aafb2ab02d34e8daa3c0fe24f1f4363490ebcd3d062d7e0e3a2af9ea43dcac",
                    "type": "RT_STRING"
                },
                {
                    "filetype": "ASCII text",
                    "lang": "ENGLISH US",
                    "sha256": "63f74ff7f3cbcddab7c309892451c2dcfd93baab16fa693abd43f6658b55c5d2",
                    "type": "RT_STRING"
                },
                {
                    "filetype": "ASCII text",
                    "lang": "ENGLISH US",
                    "sha256": "29ca8fac0c4975f8acb40365920f5c56199bf8826c3c52a02cb15c5442a845ee",
                    "type": "RT_STRING"
                },
                {
                    "filetype": "ASCII text",
                    "lang": "ENGLISH US",
                    "sha256": "587bf59128217312ec30824a2c940288ec64b3debf815b3a0f2d83d32c1a99c8",
                    "type": "RT_STRING"
                },
                {
                    "filetype": "ASCII text",
                    "lang": "ENGLISH US",
                    "sha256": "806ebdd5e598b0e53c8a7b40c49e6cae3057e464f708e3034784fd0af3dea4d1",
                    "type": "RT_STRING"
                },
                {
                    "filetype": "ASCII text",
                    "lang": "ENGLISH US",
                    "sha256": "9fa3d971445803a1f94c0e2951ed6ca339322aa356a4164d2d4df07ca43308d9",
                    "type": "RT_STRING"
                },
                {
                    "filetype": "ASCII text",
                    "lang": "ENGLISH US",
                    "sha256": "d16c84bf40214a358543bbb5071915cc40ef4bf7c6bd44f3017117e6afd1e676",
                    "type": "RT_STRING"
                },
                {
                    "filetype": "ASCII text",
                    "lang": "ENGLISH US",
                    "sha256": "0261042b85e3da07e7ee281e0d1a04a7a2de66e121297d772cb86190a26fb170",
                    "type": "RT_STRING"
                },
                {
                    "filetype": "ASCII text",
                    "lang": "ENGLISH US",
                    "sha256": "75031be9839460b865d1c8faebc6d9bc4c4bbbac9e61625e884a3b6698d9b010",
                    "type": "RT_STRING"
                },
                {
                    "filetype": "ASCII text",
                    "lang": "ENGLISH US",
                    "sha256": "5bac2ec494bca82895d47eba55e44054219c860d2ac7a89aaf0e14a7569fed09",
                    "type": "RT_STRING"
                },
                {
                    "filetype": "ASCII text",
                    "lang": "ENGLISH US",
                    "sha256": "556adcf9b6f78ef7278f3d045f796a17d9cda546bbcd8d2b4d3a4dd1dc0a9668",
                    "type": "RT_STRING"
                },
                {
                    "filetype": "ASCII text",
                    "lang": "ENGLISH US",
                    "sha256": "3114f7a1585d39fef9f7c95047884289d538dd9766e8ffd88b45c558d17b0aaa",
                    "type": "RT_STRING"
                },
                {
                    "filetype": "ASCII text",
                    "lang": "ENGLISH US",
                    "sha256": "6d2e076e77feb1dd3e928d347b6ccc027168bce40774031791f099b26017d3b2",
                    "type": "RT_STRING"
                },
                {
                    "filetype": "ASCII text",
                    "lang": "ENGLISH US",
                    "sha256": "2e570d45b131489b3138558ed471bffd5c922138100481b4cf61fff4baeba7f8",
                    "type": "RT_STRING"
                },
                {
                    "filetype": "ASCII text",
                    "lang": "ENGLISH US",
                    "sha256": "1e395784b00d6cb80db664ea722a293b3e5766c96ac5a030413635b9dd98af92",
                    "type": "RT_STRING"
                },
                {
                    "filetype": "ASCII text",
                    "lang": "ENGLISH US",
                    "sha256": "529fd0808a82d9a6775f0b8b12d394d2aa3e688a18bb1f4af6413ce6c91e01eb",
                    "type": "RT_STRING"
                },
                {
                    "filetype": "ASCII text",
                    "lang": "ENGLISH US",
                    "sha256": "67ed892c07999d248ec26ff8a5039b70d8d60a8d2bb046b4a89a0642d0f06d68",
                    "type": "RT_STRING"
                },
                {
                    "filetype": "ASCII text",
                    "lang": "ENGLISH US",
                    "sha256": "81427758aaf91fb2e9492f0cef4a5132d5a311eab882804494da068089af03d6",
                    "type": "RT_STRING"
                },
                {
                    "filetype": "data",
                    "lang": "ENGLISH US",
                    "sha256": "fe7ef5dfe3f5f5009e41c2d12ffca4660a7536118c492b291d4eef7f257dcbc6",
                    "type": "RT_STRING"
                },
                {
                    "filetype": "ASCII text",
                    "lang": "ENGLISH US",
                    "sha256": "c3614084eee92b9196e69ec152653ae205e9a3cd11b1cc29e965083123b52f5c",
                    "type": "RT_STRING"
                },
                {
                    "filetype": "ASCII text",
                    "lang": "ENGLISH US",
                    "sha256": "dde80408c8757031943401aa12ac699b9c9f323f2c7b0ec0c999b47fec27e9e8",
                    "type": "RT_STRING"
                },
                {
                    "filetype": "ASCII text",
                    "lang": "ENGLISH US",
                    "sha256": "63d076292297bff317b3119253a2bae3d30617c8e810c336996e6664e9fd4d35",
                    "type": "RT_STRING"
                },
                {
                    "filetype": "ASCII text",
                    "lang": "ENGLISH US",
                    "sha256": "da6a323650bf1bf4333fd7fe9fabd93c995fcd14425331d459752aadebb5f754",
                    "type": "RT_STRING"
                },
                {
                    "filetype": "ASCII text",
                    "lang": "ENGLISH US",
                    "sha256": "9a9b59d0e1f53e39626e9b2f4b4ce130d645fd90063bfe97ab658984edd77b0a",
                    "type": "RT_STRING"
                },
                {
                    "filetype": "data",
                    "lang": "ENGLISH US",
                    "sha256": "dcdadca52ded03471f3c6983045f73426b2fb95adb072840f4d8cb5d5c73dbc0",
                    "type": "RT_ACCELERATOR"
                },
                {
                    "filetype": "Lotus 1-2-3",
                    "lang": "ENGLISH US",
                    "sha256": "ef309b720f166673cad840a88e7636e9161ad91415cc7c176010cebba07757e5",
                    "type": "RT_GROUP_CURSOR"
                },
                {
                    "filetype": "data",
                    "lang": "ENGLISH US",
                    "sha256": "508f2872d643fd001f83004571f14e7e0802c4774ae3ce12ae274ab6759ff40e",
                    "type": "RT_GROUP_ICON"
                },
                {
                    "filetype": "data",
                    "lang": "ENGLISH US",
                    "sha256": "4ee833eb1434db4026c824ab833c3c0befec41a0fe7c4dc9f12196b7698ab823",
                    "type": "RT_VERSION"
                },
                {
                    "filetype": "ASCII text",
                    "lang": "ENGLISH US",
                    "sha256": "6a03c5093a38e8dfd2cd983e80b93f8dd717962f7230b20aed5d76924c219e12",
                    "type": "RT_MANIFEST"
                },
                {
                    "filetype": "data",
                    "lang": "ENGLISH US",
                    "sha256": "4f56a625291c11bb60fc2b32eb33a5ec143b8738d6f93d4ea30f9c8847fb3d8a",
                    "type": "Struct(241)"
                }
            ],
            "resource_langs": {
                "ENGLISH US": 169
            },
            "resource_types": {
                "AVI": 5,
                "REGISTRY": 3,
                "RT_ACCELERATOR": 1,
                "RT_BITMAP": 31,
                "RT_CURSOR": 1,
                "RT_DIALOG": 15,
                "RT_GROUP_CURSOR": 1,
                "RT_GROUP_ICON": 5,
                "RT_ICON": 13,
                "RT_MANIFEST": 1,
                "RT_MENU": 7,
                "RT_STRING": 77,
                "RT_VERSION": 1,
                "Struct(241)": 8
            },
            "sections": [
                {
                    "entropy": 6.19,
                    "md5": "3438cc4e360de731eba7afd444244051",
                    "name": ".text",
                    "raw_size": 234496,
                    "virtual_address": 4096,
                    "virtual_size": 234496
                },
                {
                    "entropy": 4.82,
                    "md5": "f071b90453a12c2be89a50896db16fce",
                    "name": ".data",
                    "raw_size": 5120,
                    "virtual_address": 241664,
                    "virtual_size": 6896
                },
                {
                    "entropy": 5.3,
                    "md5": "4e1999cae4be204713a75f33e481331a",
                    "name": ".rsrc",
                    "raw_size": 318976,
                    "virtual_address": 249856,
                    "virtual_size": 318976
                }
            ],
            "timestamp": 1091599591
        },
        "reputation": 0,
        "sha1": "ea23744301d3255f9970678fe7c5f4cffc425eb0",
        "sha256": "000416726a5c510e21a3abbc7087f1e8bc2d8f47bb5d6df8feb357d6f37519cd",
        "signature_info": {
            "copyright": "\u00a91998 Active Voice Corporation. All rights reserved.",
            "description": "TAPI 3.0 Dialer and IP Multicast Conference Viewer",
            "file version": "5.1.2600.2180",
            "internal name": "Dialer",
            "original name": "Dialer",
            "product": "Microsoft\u00ae Windows\u00ae Operating System"
        },
        "size": 559616,
        "ssdeep": "6144:x3mdMT5hiT1A9aAQST5I6FcyBS506VQR/8UgFvrD:BBTW5fAQSNzPaVg/",
        "tags": [
            "peexe",
            "hosts-modifier"
        ],
        "times_submitted": 2,
        "total_votes": {
            "harmless": 0,
            "malicious": 0
        },
        "trid": [
            {
                "file_type": "Win32 Executable (generic)",
                "probability": 52.9
            },
            {
                "file_type": "Generic Win/DOS Executable",
                "probability": 23.5
            },
            {
                "file_type": "DOS Executable Generic",
                "probability": 23.5
            }
        ],
        "type_description": "Win32 EXE",
        "type_extension": "exe",
        "type_tag": "peexe",
        "unique_sources": 2,
        "vhash": "05503e6d5f50b092z27004529023z5055z42z653z17z31"
    },
    "id": "000416726a5c510e21a3abbc7087f1e8bc2d8f47bb5d6df8feb357d6f37519cd",
    "links": {
        "self": "https://www.virustotal.com/api/v3/files/000416726a5c510e21a3abbc7087f1e8bc2d8f47bb5d6df8feb357d6f37519cd"
    },
    "type": "file"
}