{
    "attributes": {
        "authentihash": "908703fa9b47ac45f801294317838c90f7895a7bce2673ea84394ec097ae359d",
        "creation_date": 2361664713,
        "first_submission_date": 1550296208,
        "last_analysis_date": 1550296208,
        "last_analysis_results": {
            "ALYac": {
                "category": "malicious",
                "engine_name": "ALYac",
                "engine_update": "20190215",
                "engine_version": "1.1.1.5",
                "method": "blacklist",
                "result": "Win32.Ramnit.AQ"
            },
            "AVG": {
                "category": "malicious",
                "engine_name": "AVG",
                "engine_update": "20190215",
                "engine_version": "18.4.3895.0",
                "method": "blacklist",
                "result": "Win32:Ramnit-CC [Trj]"
            },
            "Acronis": {
                "category": "malicious",
                "engine_name": "Acronis",
                "engine_update": "20190213",
                "engine_version": "1.0.1.40",
                "method": "blacklist",
                "result": "suspicious"
            },
            "Ad-Aware": {
                "category": "malicious",
                "engine_name": "Ad-Aware",
                "engine_update": "20190215",
                "engine_version": "3.0.5.370",
                "method": "blacklist",
                "result": "Win32.Ramnit.AQ"
            },
            "AegisLab": {
                "category": "undetected",
                "engine_name": "AegisLab",
                "engine_update": "20190215",
                "engine_version": "4.2",
                "method": "blacklist",
                "result": null
            },
            "AhnLab-V3": {
                "category": "undetected",
                "engine_name": "AhnLab-V3",
                "engine_update": "20190215",
                "engine_version": "3.14.1.22785",
                "method": "blacklist",
                "result": null
            },
            "Alibaba": {
                "category": "undetected",
                "engine_name": "Alibaba",
                "engine_update": "20180921",
                "engine_version": "0.1.0.2",
                "method": "blacklist",
                "result": null
            },
            "Antiy-AVL": {
                "category": "undetected",
                "engine_name": "Antiy-AVL",
                "engine_update": "20190215",
                "engine_version": "3.0.0.1",
                "method": "blacklist",
                "result": null
            },
            "Arcabit": {
                "category": "malicious",
                "engine_name": "Arcabit",
                "engine_update": "20190215",
                "engine_version": "1.0.0.837",
                "method": "blacklist",
                "result": "Win32.Ramnit.AQ"
            },
            "Avast": {
                "category": "malicious",
                "engine_name": "Avast",
                "engine_update": "20190215",
                "engine_version": "18.4.3895.0",
                "method": "blacklist",
                "result": "Win32:Ramnit-CC [Trj]"
            },
            "Avast-Mobile": {
                "category": "undetected",
                "engine_name": "Avast-Mobile",
                "engine_update": "20190215",
                "engine_version": "190215-06",
                "method": "blacklist",
                "result": null
            },
            "Avira": {
                "category": "malicious",
                "engine_name": "Avira",
                "engine_update": "20190215",
                "engine_version": "8.3.3.8",
                "method": "blacklist",
                "result": "W32/Ramnit.C"
            },
            "Babable": {
                "category": "undetected",
                "engine_name": "Babable",
                "engine_update": "20180917",
                "engine_version": "9107201",
                "method": "blacklist",
                "result": null
            },
            "Baidu": {
                "category": "malicious",
                "engine_name": "Baidu",
                "engine_update": "20190214",
                "engine_version": "1.0.0.2",
                "method": "blacklist",
                "result": "Win32.Trojan.Kryptik.mx"
            },
            "BitDefender": {
                "category": "malicious",
                "engine_name": "BitDefender",
                "engine_update": "20190215",
                "engine_version": "7.2",
                "method": "blacklist",
                "result": "Win32.Ramnit.AQ"
            },
            "Bkav": {
                "category": "undetected",
                "engine_name": "Bkav",
                "engine_update": "20190215",
                "engine_version": "1.3.0.9899",
                "method": "blacklist",
                "result": null
            },
            "CAT-QuickHeal": {
                "category": "malicious",
                "engine_name": "CAT-QuickHeal",
                "engine_update": "20190215",
                "engine_version": "14.00",
                "method": "blacklist",
                "result": "W32.Ramnit.D"
            },
            "CMC": {
                "category": "undetected",
                "engine_name": "CMC",
                "engine_update": "20190215",
                "engine_version": "1.1.0.977",
                "method": "blacklist",
                "result": null
            },
            "ClamAV": {
                "category": "undetected",
                "engine_name": "ClamAV",
                "engine_update": "20190215",
                "engine_version": "0.101.1.0",
                "method": "blacklist",
                "result": null
            },
            "Comodo": {
                "category": "malicious",
                "engine_name": "Comodo",
                "engine_update": "20190215",
                "engine_version": "30437",
                "method": "blacklist",
                "result": "Virus.Win32.Ramnit.K@37eb7u"
            },
            "CrowdStrike": {
                "category": "malicious",
                "engine_name": "CrowdStrike",
                "engine_update": "20181023",
                "engine_version": "1.0",
                "method": "blacklist",
                "result": "malicious_confidence_100% (D)"
            },
            "Cybereason": {
                "category": "type-unsupported",
                "engine_name": "Cybereason",
                "engine_update": "20190109",
                "engine_version": "1.2.27",
                "method": "blacklist",
                "result": null
            },
            "Cylance": {
                "category": "malicious",
                "engine_name": "Cylance",
                "engine_update": "20190215",
                "engine_version": "2.3.1.101",
                "method": "blacklist",
                "result": "Unsafe"
            },
            "Cyren": {
                "category": "malicious",
                "engine_name": "Cyren",
                "engine_update": "20190215",
                "engine_version": "6.2.0.1",
                "method": "blacklist",
                "result": "W32/Ramnit.B!Generic"
            },
            "DrWeb": {
                "category": "undetected",
                "engine_name": "DrWeb",
                "engine_update": "20190215",
                "engine_version": "7.0.34.11020",
                "method": "blacklist",
                "result": null
            },
            "ESET-NOD32": {
                "category": "undetected",
                "engine_name": "ESET-NOD32",
                "engine_update": "20190215",
                "engine_version": "18883",
                "method": "blacklist",
                "result": null
            },
            "Emsisoft": {
                "category": "malicious",
                "engine_name": "Emsisoft",
                "engine_update": "20190215",
                "engine_version": "2018.4.0.1029",
                "method": "blacklist",
                "result": "Win32.Ramnit.AQ (B)"
            },
            "Endgame": {
                "category": "malicious",
                "engine_name": "Endgame",
                "engine_update": "20190215",
                "engine_version": "3.0.3",
                "method": "blacklist",
                "result": "malicious (high confidence)"
            },
            "F-Prot": {
                "category": "malicious",
                "engine_name": "F-Prot",
                "engine_update": "20190215",
                "engine_version": "4.7.1.166",
                "method": "blacklist",
                "result": "W32/Ramnit.B!Generic"
            },
            "F-Secure": {
                "category": "undetected",
                "engine_name": "F-Secure",
                "engine_update": "20190215",
                "engine_version": "12.0.86.52",
                "method": "blacklist",
                "result": null
            },
            "Fortinet": {
                "category": "malicious",
                "engine_name": "Fortinet",
                "engine_update": "20190215",
                "engine_version": "5.4.247.0",
                "method": "blacklist",
                "result": "W32/Ramnit.A"
            },
            "GData": {
                "category": "malicious",
                "engine_name": "GData",
                "engine_update": "20190215",
                "engine_version": "A:25.20674B:25.14392",
                "method": "blacklist",
                "result": "Win32.Virus.Nimnul.A"
            },
            "Ikarus": {
                "category": "malicious",
                "engine_name": "Ikarus",
                "engine_update": "20190215",
                "engine_version": "0.1.5.2",
                "method": "blacklist",
                "result": "Virus.Win32.Nimnul"
            },
            "Invincea": {
                "category": "malicious",
                "engine_name": "Invincea",
                "engine_update": "20181128",
                "engine_version": "6.3.6.26157",
                "method": "blacklist",
                "result": "heuristic"
            },
            "Jiangmin": {
                "category": "undetected",
                "engine_name": "Jiangmin",
                "engine_update": "20190215",
                "engine_version": "16.0.100",
                "method": "blacklist",
                "result": null
            },
            "K7AntiVirus": {
                "category": "malicious",
                "engine_name": "K7AntiVirus",
                "engine_update": "20190215",
                "engine_version": "11.29.30014",
                "method": "blacklist",
                "result": "Virus ( 0031ed2c1 )"
            },
            "K7GW": {
                "category": "malicious",
                "engine_name": "K7GW",
                "engine_update": "20190215",
                "engine_version": "11.29.30014",
                "method": "blacklist",
                "result": "Virus ( 0031ed2c1 )"
            },
            "Kaspersky": {
                "category": "undetected",
                "engine_name": "Kaspersky",
                "engine_update": "20190215",
                "engine_version": "15.0.1.13",
                "method": "blacklist",
                "result": null
            },
            "Kingsoft": {
                "category": "undetected",
                "engine_name": "Kingsoft",
                "engine_update": "20190215",
                "engine_version": "2013.8.14.323",
                "method": "blacklist",
                "result": null
            },
            "MAX": {
                "category": "malicious",
                "engine_name": "MAX",
                "engine_update": "20190215",
                "engine_version": "2018.9.12.1",
                "method": "blacklist",
                "result": "malware (ai score=87)"
            },
            "Malwarebytes": {
                "category": "undetected",
                "engine_name": "Malwarebytes",
                "engine_update": "20190215",
                "engine_version": "2.1.1.1115",
                "method": "blacklist",
                "result": null
            },
            "McAfee": {
                "category": "malicious",
                "engine_name": "McAfee",
                "engine_update": "20190215",
                "engine_version": "6.0.6.653",
                "method": "blacklist",
                "result": "W32/Ramnit.a"
            },
            "McAfee-GW-Edition": {
                "category": "malicious",
                "engine_name": "McAfee-GW-Edition",
                "engine_update": "20190215",
                "engine_version": "v2017.3010",
                "method": "blacklist",
                "result": "BehavesLike.Win32.Triusor.fh"
            },
            "MicroWorld-eScan": {
                "category": "malicious",
                "engine_name": "MicroWorld-eScan",
                "engine_update": "20190215",
                "engine_version": "14.0.297.0",
                "method": "blacklist",
                "result": "Win32.Ramnit.AQ"
            },
            "Microsoft": {
                "category": "malicious",
                "engine_name": "Microsoft",
                "engine_update": "20190215",
                "engine_version": "1.1.15700.8",
                "method": "blacklist",
                "result": "Trojan:Win32/Bitrep.A"
            },
            "NANO-Antivirus": {
                "category": "malicious",
                "engine_name": "NANO-Antivirus",
                "engine_update": "20190215",
                "engine_version": "1.0.134.24576",
                "method": "blacklist",
                "result": "Virus.Win32.Nimnul.bmnup"
            },
            "Paloalto": {
                "category": "undetected",
                "engine_name": "Paloalto",
                "engine_update": "20190215",
                "engine_version": "1.0",
                "method": "blacklist",
                "result": null
            },
            "Panda": {
                "category": "malicious",
                "engine_name": "Panda",
                "engine_update": "20190215",
                "engine_version": "4.6.4.2",
                "method": "blacklist",
                "result": "Trj/Genetic.gen"
            },
            "Qihoo-360": {
                "category": "malicious",
                "engine_name": "Qihoo-360",
                "engine_update": "20190215",
                "engine_version": "1.0.0.1120",
                "method": "blacklist",
                "result": "HEUR/QVM39.1.4289.Malware.Gen"
            },
            "Rising": {
                "category": "undetected",
                "engine_name": "Rising",
                "engine_update": "20190215",
                "engine_version": "25.0.0.24",
                "method": "blacklist",
                "result": null
            },
            "SUPERAntiSpyware": {
                "category": "undetected",
                "engine_name": "SUPERAntiSpyware",
                "engine_update": "20190213",
                "engine_version": "5.6.0.1032",
                "method": "blacklist",
                "result": null
            },
            "SentinelOne": {
                "category": "malicious",
                "engine_name": "SentinelOne",
                "engine_update": "20190203",
                "engine_version": "1.0.23.276",
                "method": "blacklist",
                "result": "static engine - malicious"
            },
            "Sophos": {
                "category": "malicious",
                "engine_name": "Sophos",
                "engine_update": "20190215",
                "engine_version": "4.98.0",
                "method": "blacklist",
                "result": "Mal/Generic-S"
            },
            "Symantec": {
                "category": "malicious",
                "engine_name": "Symantec",
                "engine_update": "20190215",
                "engine_version": "1.8.0.0",
                "method": "blacklist",
                "result": "W32.Ramnit.B!inf"
            },
            "SymantecMobileInsight": {
                "category": "type-unsupported",
                "engine_name": "SymantecMobileInsight",
                "engine_update": "20190206",
                "engine_version": "2.0",
                "method": "blacklist",
                "result": null
            },
            "TACHYON": {
                "category": "undetected",
                "engine_name": "TACHYON",
                "engine_update": "20190215",
                "engine_version": "2019-02-16.01",
                "method": "blacklist",
                "result": null
            },
            "Tencent": {
                "category": "undetected",
                "engine_name": "Tencent",
                "engine_update": "20190215",
                "engine_version": "1.0.0.1",
                "method": "blacklist",
                "result": null
            },
            "TheHacker": {
                "category": "undetected",
                "engine_name": "TheHacker",
                "engine_update": "20190215",
                "engine_version": "6.8.0.5.4019",
                "method": "blacklist",
                "result": null
            },
            "TotalDefense": {
                "category": "undetected",
                "engine_name": "TotalDefense",
                "engine_update": "20190215",
                "engine_version": "37.1.62.1",
                "method": "blacklist",
                "result": null
            },
            "Trapmine": {
                "category": "malicious",
                "engine_name": "Trapmine",
                "engine_update": "20190123",
                "engine_version": "3.1.40.719",
                "method": "blacklist",
                "result": "malicious.high.ml.score"
            },
            "TrendMicro": {
                "category": "malicious",
                "engine_name": "TrendMicro",
                "engine_update": "20190215",
                "engine_version": "10.0.0.1040",
                "method": "blacklist",
                "result": "Cryp_Mangled"
            },
            "TrendMicro-HouseCall": {
                "category": "malicious",
                "engine_name": "TrendMicro-HouseCall",
                "engine_update": "20190215",
                "engine_version": "10.0.0.1040",
                "method": "blacklist",
                "result": "Cryp_Mangled"
            },
            "Trustlook": {
                "category": "undetected",
                "engine_name": "Trustlook",
                "engine_update": "20190215",
                "engine_version": "1.0",
                "method": "blacklist",
                "result": null
            },
            "VBA32": {
                "category": "undetected",
                "engine_name": "VBA32",
                "engine_update": "20190215",
                "engine_version": "3.35.1",
                "method": "blacklist",
                "result": null
            },
            "ViRobot": {
                "category": "undetected",
                "engine_name": "ViRobot",
                "engine_update": "20190215",
                "engine_version": "2014.3.20.0",
                "method": "blacklist",
                "result": null
            },
            "Webroot": {
                "category": "undetected",
                "engine_name": "Webroot",
                "engine_update": "20190215",
                "engine_version": "1.0.0.403",
                "method": "blacklist",
                "result": null
            },
            "Yandex": {
                "category": "malicious",
                "engine_name": "Yandex",
                "engine_update": "20190215",
                "engine_version": "5.5.1.3",
                "method": "blacklist",
                "result": "Win32.Ramnit.Gen.2"
            },
            "Zillya": {
                "category": "undetected",
                "engine_name": "Zillya",
                "engine_update": "20190215",
                "engine_version": "2.0.0.3755",
                "method": "blacklist",
                "result": null
            },
            "ZoneAlarm": {
                "category": "undetected",
                "engine_name": "ZoneAlarm",
                "engine_update": "20190215",
                "engine_version": "1.0",
                "method": "blacklist",
                "result": null
            },
            "Zoner": {
                "category": "undetected",
                "engine_name": "Zoner",
                "engine_update": "20190215",
                "engine_version": "1.0",
                "method": "blacklist",
                "result": null
            },
            "eGambit": {
                "category": "undetected",
                "engine_name": "eGambit",
                "engine_update": "20190215",
                "engine_version": "v4.3.6",
                "method": "blacklist",
                "result": null
            }
        },
        "last_analysis_stats": {
            "confirmed-timeout": 0,
            "failure": 0,
            "harmless": 0,
            "malicious": 38,
            "suspicious": 0,
            "timeout": 0,
            "type-unsupported": 2,
            "undetected": 31
        },
        "last_modification_date": 1550296332,
        "last_submission_date": 1550296208,
        "magic": "PE32 executable for MS Windows (DLL) (console) Intel 80386 32-bit",
        "md5": "e8d9abc2e1680eb3859c80f7c72dbfab",
        "meaningful_name": "TUTIL32",
        "names": [
            "e8d9abc2e1680eb3859c80f7c72dbfab.virus",
            "TUTIL32"
        ],
        "pe_info": {
            "entry_point": 278528,
            "exports": [
                "@DllEntryPoint$qqspvususpc",
                "@TUWNumRecs$qqspc",
                "@TUWRebuildTbl$qqsuspct2t2t2t2t2t2t2i",
                "@__lockDebuggerData$qv",
                "@__unlockDebuggerData$qv",
                "OsLdMBRisCJKBlank",
                "OsLdMBRisCJKKana",
                "OsLdMBRisKana",
                "OsLdMBRisLead",
                "OsLdMBRisTrail",
                "TUExit",
                "TUFillCRTblDesc",
                "TUFillCURProps",
                "TUGetCRTblDescCount",
                "TUGetErrorString",
                "TUGetExtTblProps",
                "TUInit",
                "TURebuildTable",
                "TUVerifyTable",
                "__DebuggerHookData"
            ],
            "imphash": "1ada5d71c50d00ce3a57ea7c6aebc860",
            "import_list": [
                {
                    "imported_functions": [
                        "RegOpenKeyExA",
                        "RegQueryValueExA",
                        "RegCloseKey"
                    ],
                    "library_name": "ADVAPI32.dll"
                },
                {
                    "imported_functions": [
                        "GetLastError",
                        "TlsGetValue",
                        "GetStdHandle",
                        "FileTimeToDosDateTime",
                        "ReleaseMutex",
                        "SetHandleCount",
                        "LoadLibraryA",
                        "GetFileAttributesA",
                        "_lcreat",
                        "FreeLibrary",
                        "EnterCriticalSection",
                        "ExitProcess",
                        "OutputDebugStringA",
                        "TlsAlloc",
                        "GetVersionExA",
                        "GetModuleFileNameA",
                        "VirtualQuery",
                        "RtlUnwind",
                        "IsDBCSLeadByte",
                        "GetLocalTime",
                        "FreeEnvironmentStringsA",
                        "DeleteCriticalSection",
                        "GetStartupInfoA",
                        "GetVolumeInformationA",
                        "_lwrite",
                        "GetEnvironmentStrings",
                        "SetConsoleCtrlHandler",
                        "DeleteFileA",
                        "GetCurrentDirectoryA",
                        "UnhandledExceptionFilter",
                        "SetErrorMode",
                        "FatalAppExitA",
                        "GetCommandLineA",
                        "GetProcAddress",
                        "CreateMutexA",
                        "SetFilePointer",
                        "_lclose",
                        "RaiseException",
                        "TlsFree",
                        "GetModuleHandleA",
                        "FindFirstFileA",
                        "lstrcpyA",
                        "CloseHandle",
                        "FindNextFileA",
                        "GlobalLock",
                        "GetVersion",
                        "FileTimeToLocalFileTime",
                        "GetFullPathNameA",
                        "MoveFileA",
                        "GlobalMemoryStatus",
                        "InitializeCriticalSection",
                        "WriteFile",
                        "GlobalAlloc",
                        "VirtualFree",
                        "SearchPathA",
                        "FindClose",
                        "InterlockedDecrement",
                        "GetFileType",
                        "TlsSetValue",
                        "CreateFileA",
                        "GetCurrentThreadId",
                        "LeaveCriticalSection",
                        "VirtualAlloc",
                        "InterlockedIncrement"
                    ],
                    "library_name": "KERNEL32.dll"
                },
                {
                    "imported_functions": [
                        "MessageBoxA",
                        "EnumThreadWindows",
                        "CharToOemA",
                        "OemToCharA",
                        "LoadStringA"
                    ],
                    "library_name": "USER32.dll"
                }
            ],
            "machine_type": 332,
            "overlay": {
                "chi2": 4020.310791015625,
                "entropy": 7.097984790802002,
                "filetype": "data",
                "md5": "759182e4f2d1371afc13d280b33fd563",
                "offset": 356600,
                "size": 651
            },
            "resource_details": [
                {
                    "chi2": 65380.46875,
                    "entropy": 3.272115468978882,
                    "filetype": "ASCII text",
                    "lang": "NEUTRAL",
                    "sha256": "8d359c6df78623dfa6edbbe5631de9544f2402432536ad574529d7521b2b0064",
                    "type": "RT_STRING"
                },
                {
                    "chi2": 95209.8984375,
                    "entropy": 3.285581111907959,
                    "filetype": "ASCII text",
                    "lang": "NEUTRAL",
                    "sha256": "638c67d3db19d1cebde7eb828b1293b448e78b3d0b4415202b7446bd79a3c8db",
                    "type": "RT_STRING"
                },
                {
                    "chi2": 119991.7578125,
                    "entropy": 3.2635762691497803,
                    "filetype": "ASCII text",
                    "lang": "NEUTRAL",
                    "sha256": "2ca57f4e72954834528d21315964e5d873cd9e060133e21c868c23e04fcf8b8a",
                    "type": "RT_STRING"
                },
                {
                    "chi2": 96490.578125,
                    "entropy": 3.3130195140838623,
                    "filetype": "ASCII text",
                    "lang": "NEUTRAL",
                    "sha256": "4c81522a146fb05a54237333d65e840529c5ab720f544d3ffcace2c58bbd17a1",
                    "type": "RT_STRING"
                },
                {
                    "chi2": 98590.4609375,
                    "entropy": 3.218128204345703,
                    "filetype": "ASCII text",
                    "lang": "NEUTRAL",
                    "sha256": "5e5592866bed206205d8aa98dad750227465e622abbafe1054dead2588dd8619",
                    "type": "RT_STRING"
                },
                {
                    "chi2": 93466.015625,
                    "entropy": 3.2469115257263184,
                    "filetype": "ASCII text",
                    "lang": "NEUTRAL",
                    "sha256": "a415041fc11fb12344a00e089892f15877e4fc5c670a470f8cf00cbc2b976a4a",
                    "type": "RT_STRING"
                },
                {
                    "chi2": 14202.9716796875,
                    "entropy": 2.68705415725708,
                    "filetype": "ASCII text",
                    "lang": "NEUTRAL",
                    "sha256": "d1ffe72160421213a8cfc4abacbc7a27ca53cdf7e5684dda6bebe14e353adb70",
                    "type": "RT_STRING"
                },
                {
                    "chi2": 13235.181640625,
                    "entropy": 3.0947041511535645,
                    "filetype": "ASCII text",
                    "lang": "NEUTRAL",
                    "sha256": "1c25d931f5c0d0b7c64b64789c7d7c605d2917c94c452f15c1f80e2322ededa6",
                    "type": "RT_STRING"
                },
                {
                    "chi2": 9628.927734375,
                    "entropy": 2.660249948501587,
                    "filetype": "ASCII text",
                    "lang": "NEUTRAL",
                    "sha256": "8ec5d679f4d66f335052b88ed696c00d32938f4b8225540abd6a706829ce9c27",
                    "type": "RT_STRING"
                },
                {
                    "chi2": 13973.951171875,
                    "entropy": 3.0459535121917725,
                    "filetype": "ASCII text",
                    "lang": "NEUTRAL",
                    "sha256": "cfb7d76a6a242768a50cd42c37cc1321544beb06879b453b7ea6e4ff4f4107a1",
                    "type": "RT_STRING"
                },
                {
                    "chi2": 17906.9609375,
                    "entropy": 2.8893966674804688,
                    "filetype": "ASCII text",
                    "lang": "NEUTRAL",
                    "sha256": "746cbff953a1871ea3674592fd9927ae31b7f48611cf4aa3d3aa3d76d2e4616e",
                    "type": "RT_STRING"
                },
                {
                    "chi2": 46885.8125,
                    "entropy": 3.274419069290161,
                    "filetype": "data",
                    "lang": "NEUTRAL",
                    "sha256": "88e067745d82d62e88cffd5ea070c31ba9bad898cd0fc3674310713d72267658",
                    "type": "RT_VERSION"
                }
            ],
            "resource_langs": {
                "NEUTRAL": 12
            },
            "resource_types": {
                "RT_STRING": 11,
                "RT_VERSION": 1
            },
            "sections": [
                {
                    "entropy": 6.49,
                    "md5": "e9bb615fd517d274cc5f3f3248b1d6ab",
                    "name": "CODE",
                    "raw_size": 122880,
                    "virtual_address": 4096,
                    "virtual_size": 122880
                },
                {
                    "entropy": 5.11,
                    "md5": "54ec96a588741713a86e15be7b1aea61",
                    "name": "DATA",
                    "raw_size": 23552,
                    "virtual_address": 126976,
                    "virtual_size": 24576
                },
                {
                    "entropy": 0.39,
                    "md5": "3ec3e2b92eeee122eab32564cb0c3ae7",
                    "name": "DATA",
                    "raw_size": 512,
                    "virtual_address": 151552,
                    "virtual_size": 4096
                },
                {
                    "entropy": 1.76,
                    "md5": "a412189d8600136ee69eb4269a102822",
                    "name": "TLSCBA",
                    "raw_size": 512,
                    "virtual_address": 155648,
                    "virtual_size": 16384
                },
                {
                    "entropy": 4.82,
                    "md5": "5ab0a2c6342887be3fdcb1380efc8bd9",
                    "name": ".idata",
                    "raw_size": 2048,
                    "virtual_address": 172032,
                    "virtual_size": 4096
                },
                {
                    "entropy": 3.86,
                    "md5": "4a547e427ef59edbac0b31f8fe2d5a66",
                    "name": ".edata",
                    "raw_size": 1024,
                    "virtual_address": 176128,
                    "virtual_size": 4096
                },
                {
                    "entropy": 6.53,
                    "md5": "acedb568708e2c920493f0e929cd627a",
                    "name": ".reloc",
                    "raw_size": 8704,
                    "virtual_address": 180224,
                    "virtual_size": 12288
                },
                {
                    "entropy": 3.39,
                    "md5": "62205beadaea916a82f610442ee3d30e",
                    "name": ".rsrc",
                    "raw_size": 10752,
                    "virtual_address": 192512,
                    "virtual_size": 12288
                },
                {
                    "entropy": 4.26,
                    "md5": "58cd1964be271a78e7ea7406b84dcc4b",
                    "name": ".debug",
                    "raw_size": 73728,
                    "virtual_address": 204800,
                    "virtual_size": 73728
                },
                {
                    "entropy": 7.63,
                    "md5": "59c75c204e0e7adb645951c93843c8d0",
                    "name": ".text",
                    "raw_size": 111616,
                    "virtual_address": 278528,
                    "virtual_size": 114688
                }
            ],
            "timestamp": 2361664713
        },
        "reputation": 0,
        "sha1": "f77ee96a214cf8652c9ef9337845ecae2f30c5cc",
        "sha256": "0004b5ae96810eab2ec2127d5792d9affc8fef0b7bf22920b0b0df45f11a262f",
        "signature_info": {
            "copyright": "Copyright Borland Int'l. 1991-1998",
            "description": "Borland Database Engine",
            "file version": "5.0.0.38",
            "internal name": "TUTIL32"
        },
        "size": 357251,
        "ssdeep": "6144:i+umQcRe+nngFNjsfRkqOnFkmUO8uGcrGXmmVw9ayQc4:TQcfC65SkmKkSWmVw9ayE",
        "tags": [
            "pedll",
            "overlay"
        ],
        "times_submitted": 1,
        "total_votes": {
            "harmless": 0,
            "malicious": 0
        },
        "trid": [
            {
                "file_type": "Win32 Dynamic Link Library - Borland C/C++",
                "probability": 80.5
            },
            {
                "file_type": "Windows screen saver",
                "probability": 4.7
            },
            {
                "file_type": "DOS Executable Borland C++",
                "probability": 4.7
            },
            {
                "file_type": "DOS Borland compiled Executable (generic)",
                "probability": 3.6
            },
            {
                "file_type": "Win32 Dynamic Link Library (generic)",
                "probability": 2.4
            }
        ],
        "type_description": "Win32 DLL",
        "type_extension": "dll",
        "type_tag": "pedll",
        "unique_sources": 1,
        "vhash": "1350a66d5d1d1d55156d1038z4oz5dz14"
    },
    "id": "0004b5ae96810eab2ec2127d5792d9affc8fef0b7bf22920b0b0df45f11a262f",
    "links": {
        "self": "https://www.virustotal.com/api/v3/files/0004b5ae96810eab2ec2127d5792d9affc8fef0b7bf22920b0b0df45f11a262f"
    },
    "type": "file"
}