{
    "attributes": {
        "first_submission_date": 1519762523,
        "last_analysis_date": 1519762523,
        "last_analysis_results": {
            "ALYac": {
                "category": "undetected",
                "engine_name": "ALYac",
                "engine_update": "20180227",
                "engine_version": "1.1.1.5",
                "method": "blacklist",
                "result": null
            },
            "AVG": {
                "category": "malicious",
                "engine_name": "AVG",
                "engine_update": "20180227",
                "engine_version": "18.1.3800.0",
                "method": "blacklist",
                "result": "Win32:Small-NTV [Wrm]"
            },
            "AVware": {
                "category": "malicious",
                "engine_name": "AVware",
                "engine_update": "20180227",
                "engine_version": "1.5.0.42",
                "method": "blacklist",
                "result": "Virus.Win32.sivis.a (v)"
            },
            "Ad-Aware": {
                "category": "malicious",
                "engine_name": "Ad-Aware",
                "engine_update": "20180227",
                "engine_version": "3.0.3.1010",
                "method": "blacklist",
                "result": "Trojan.Sinowal.Gen.1"
            },
            "AegisLab": {
                "category": "malicious",
                "engine_name": "AegisLab",
                "engine_update": "20180227",
                "engine_version": "4.2",
                "method": "blacklist",
                "result": "W32.Agent.tn6k"
            },
            "AhnLab-V3": {
                "category": "malicious",
                "engine_name": "AhnLab-V3",
                "engine_update": "20180227",
                "engine_version": "3.12.0.20130",
                "method": "blacklist",
                "result": "Trojan/Win32.Agent.R12486"
            },
            "Alibaba": {
                "category": "type-unsupported",
                "engine_name": "Alibaba",
                "engine_update": "20180227",
                "engine_version": "1.0",
                "method": "blacklist",
                "result": null
            },
            "Antiy-AVL": {
                "category": "malicious",
                "engine_name": "Antiy-AVL",
                "engine_update": "20180227",
                "engine_version": "3.0.0.1",
                "method": "blacklist",
                "result": "Virus/Win32.Agent.es"
            },
            "Arcabit": {
                "category": "malicious",
                "engine_name": "Arcabit",
                "engine_update": "20180227",
                "engine_version": "1.0.0.830",
                "method": "blacklist",
                "result": "Trojan.Sinowal.Gen.1"
            },
            "Avast": {
                "category": "malicious",
                "engine_name": "Avast",
                "engine_update": "20180227",
                "engine_version": "18.1.3800.0",
                "method": "blacklist",
                "result": "Win32:Small-NTV [Wrm]"
            },
            "Avast-Mobile": {
                "category": "undetected",
                "engine_name": "Avast-Mobile",
                "engine_update": "20180227",
                "engine_version": "180227-16",
                "method": "blacklist",
                "result": null
            },
            "Avira": {
                "category": "malicious",
                "engine_name": "Avira",
                "engine_update": "20180227",
                "engine_version": "8.3.3.6",
                "method": "blacklist",
                "result": "W32/Sivis.A"
            },
            "Baidu": {
                "category": "malicious",
                "engine_name": "Baidu",
                "engine_update": "20180227",
                "engine_version": "1.0.0.2",
                "method": "blacklist",
                "result": "Win32.Virus.Visisig.a"
            },
            "BitDefender": {
                "category": "malicious",
                "engine_name": "BitDefender",
                "engine_update": "20180227",
                "engine_version": "7.2",
                "method": "blacklist",
                "result": "Trojan.Sinowal.Gen.1"
            },
            "Bkav": {
                "category": "malicious",
                "engine_name": "Bkav",
                "engine_update": "20180227",
                "engine_version": "1.3.0.9466",
                "method": "blacklist",
                "result": "W32.FamVT.LamerATTc.PE"
            },
            "CAT-QuickHeal": {
                "category": "malicious",
                "engine_name": "CAT-QuickHeal",
                "engine_update": "20180227",
                "engine_version": "14.00",
                "method": "blacklist",
                "result": "W32.Sivis.A5"
            },
            "CMC": {
                "category": "undetected",
                "engine_name": "CMC",
                "engine_update": "20180227",
                "engine_version": "1.1.0.977",
                "method": "blacklist",
                "result": null
            },
            "ClamAV": {
                "category": "malicious",
                "engine_name": "ClamAV",
                "engine_update": "20180227",
                "engine_version": "0.99.2.0",
                "method": "blacklist",
                "result": "Win.Trojan.Sivis-1"
            },
            "Comodo": {
                "category": "malicious",
                "engine_name": "Comodo",
                "engine_update": "20180227",
                "engine_version": "28596",
                "method": "blacklist",
                "result": "Backdoor.Win32.Androm.XTA"
            },
            "CrowdStrike": {
                "category": "malicious",
                "engine_name": "CrowdStrike",
                "engine_update": "20170201",
                "engine_version": "1.0",
                "method": "blacklist",
                "result": "malicious_confidence_100% (D)"
            },
            "Cybereason": {
                "category": "malicious",
                "engine_name": "Cybereason",
                "engine_update": "20180225",
                "engine_version": "1.2.27",
                "method": "blacklist",
                "result": "malicious.4372af"
            },
            "Cylance": {
                "category": "malicious",
                "engine_name": "Cylance",
                "engine_update": "20180227",
                "engine_version": "2.3.1.101",
                "method": "blacklist",
                "result": "Unsafe"
            },
            "Cyren": {
                "category": "malicious",
                "engine_name": "Cyren",
                "engine_update": "20180227",
                "engine_version": "5.4.30.7",
                "method": "blacklist",
                "result": "W32/Sivis.A"
            },
            "DrWeb": {
                "category": "malicious",
                "engine_name": "DrWeb",
                "engine_update": "20180227",
                "engine_version": "7.0.28.2020",
                "method": "blacklist",
                "result": "Win32.Siggen.28"
            },
            "ESET-NOD32": {
                "category": "malicious",
                "engine_name": "ESET-NOD32",
                "engine_update": "20180227",
                "engine_version": "16974",
                "method": "blacklist",
                "result": "Win32/Agent.NBA"
            },
            "Emsisoft": {
                "category": "malicious",
                "engine_name": "Emsisoft",
                "engine_update": "20180227",
                "engine_version": "4.0.2.899",
                "method": "blacklist",
                "result": "Trojan.Sinowal.Gen.1 (B)"
            },
            "Endgame": {
                "category": "malicious",
                "engine_name": "Endgame",
                "engine_update": "20180223",
                "engine_version": "1.2.2",
                "method": "blacklist",
                "result": "malicious (high confidence)"
            },
            "F-Prot": {
                "category": "malicious",
                "engine_name": "F-Prot",
                "engine_update": "20180227",
                "engine_version": "4.7.1.166",
                "method": "blacklist",
                "result": "W32/Sivis.A"
            },
            "F-Secure": {
                "category": "undetected",
                "engine_name": "F-Secure",
                "engine_update": "20180227",
                "engine_version": "11.0.19100.45",
                "method": "blacklist",
                "result": null
            },
            "Fortinet": {
                "category": "malicious",
                "engine_name": "Fortinet",
                "engine_update": "20180227",
                "engine_version": "5.4.247.0",
                "method": "blacklist",
                "result": "W32/Agent.NBA!worm"
            },
            "GData": {
                "category": "malicious",
                "engine_name": "GData",
                "engine_update": "20180227",
                "engine_version": "A:25.16159B:25.11683",
                "method": "blacklist",
                "result": "Win32.Virus.Sivis.A"
            },
            "Ikarus": {
                "category": "malicious",
                "engine_name": "Ikarus",
                "engine_update": "20180227",
                "engine_version": "0.1.5.2",
                "method": "blacklist",
                "result": "Gen.Win32.FileInfector"
            },
            "Invincea": {
                "category": "malicious",
                "engine_name": "Invincea",
                "engine_update": "20180121",
                "engine_version": "6.3.4.26036",
                "method": "blacklist",
                "result": "heuristic"
            },
            "Jiangmin": {
                "category": "malicious",
                "engine_name": "Jiangmin",
                "engine_update": "20180227",
                "engine_version": "16.0.100",
                "method": "blacklist",
                "result": "Trojan/Cosmu.isk"
            },
            "K7AntiVirus": {
                "category": "malicious",
                "engine_name": "K7AntiVirus",
                "engine_update": "20180227",
                "engine_version": "10.40.26342",
                "method": "blacklist",
                "result": "Trojan ( 00481e511 )"
            },
            "K7GW": {
                "category": "malicious",
                "engine_name": "K7GW",
                "engine_update": "20180227",
                "engine_version": "10.40.26340",
                "method": "blacklist",
                "result": "Trojan ( 00481e511 )"
            },
            "Kaspersky": {
                "category": "malicious",
                "engine_name": "Kaspersky",
                "engine_update": "20180227",
                "engine_version": "15.0.1.13",
                "method": "blacklist",
                "result": "Virus.Win32.Agent.es"
            },
            "Kingsoft": {
                "category": "undetected",
                "engine_name": "Kingsoft",
                "engine_update": "20180227",
                "engine_version": "2013.8.14.323",
                "method": "blacklist",
                "result": null
            },
            "MAX": {
                "category": "malicious",
                "engine_name": "MAX",
                "engine_update": "20180227",
                "engine_version": "2017.11.15.1",
                "method": "blacklist",
                "result": "malware (ai score=83)"
            },
            "Malwarebytes": {
                "category": "undetected",
                "engine_name": "Malwarebytes",
                "engine_update": "20180227",
                "engine_version": "2.1.1.1115",
                "method": "blacklist",
                "result": null
            },
            "McAfee": {
                "category": "malicious",
                "engine_name": "McAfee",
                "engine_update": "20180227",
                "engine_version": "6.0.6.653",
                "method": "blacklist",
                "result": "W32/Sivis.gen.a"
            },
            "McAfee-GW-Edition": {
                "category": "malicious",
                "engine_name": "McAfee-GW-Edition",
                "engine_update": "20180227",
                "engine_version": "v2015",
                "method": "blacklist",
                "result": "BehavesLike.Win32.Sivis.hm"
            },
            "MicroWorld-eScan": {
                "category": "malicious",
                "engine_name": "MicroWorld-eScan",
                "engine_update": "20180227",
                "engine_version": "14.0.297.0",
                "method": "blacklist",
                "result": "Trojan.Sinowal.Gen.1"
            },
            "Microsoft": {
                "category": "malicious",
                "engine_name": "Microsoft",
                "engine_update": "20180227",
                "engine_version": "1.1.14500.5",
                "method": "blacklist",
                "result": "Virus:Win32/Sivis.A"
            },
            "NANO-Antivirus": {
                "category": "malicious",
                "engine_name": "NANO-Antivirus",
                "engine_update": "20180227",
                "engine_version": "1.0.100.21498",
                "method": "blacklist",
                "result": "Virus.Win32.Agent.klkgx"
            },
            "Paloalto": {
                "category": "undetected",
                "engine_name": "Paloalto",
                "engine_update": "20180227",
                "engine_version": "1.0",
                "method": "blacklist",
                "result": null
            },
            "Panda": {
                "category": "undetected",
                "engine_name": "Panda",
                "engine_update": "20180227",
                "engine_version": "4.6.4.2",
                "method": "blacklist",
                "result": null
            },
            "Qihoo-360": {
                "category": "malicious",
                "engine_name": "Qihoo-360",
                "engine_update": "20180227",
                "engine_version": "1.0.0.1120",
                "method": "blacklist",
                "result": "HEUR/QVM05.1.7E7C.Malware.Gen"
            },
            "Rising": {
                "category": "malicious",
                "engine_name": "Rising",
                "engine_update": "20180227",
                "engine_version": "25.0.0.1",
                "method": "blacklist",
                "result": "Virus.Sivis!1.A647 (CLASSIC)"
            },
            "SUPERAntiSpyware": {
                "category": "malicious",
                "engine_name": "SUPERAntiSpyware",
                "engine_update": "20180227",
                "engine_version": "5.6.0.1032",
                "method": "blacklist",
                "result": "Trojan.Agent/Gen-Siggen"
            },
            "SentinelOne": {
                "category": "malicious",
                "engine_name": "SentinelOne",
                "engine_update": "20180225",
                "engine_version": "1.0.15.206",
                "method": "blacklist",
                "result": "static engine - malicious"
            },
            "Sophos": {
                "category": "malicious",
                "engine_name": "Sophos",
                "engine_update": "20180227",
                "engine_version": "4.98.0",
                "method": "blacklist",
                "result": "W32/Sivis-A"
            },
            "Symantec": {
                "category": "malicious",
                "engine_name": "Symantec",
                "engine_update": "20180227",
                "engine_version": "1.5.0.0",
                "method": "blacklist",
                "result": "Trojan.Gen"
            },
            "SymantecMobileInsight": {
                "category": "type-unsupported",
                "engine_name": "SymantecMobileInsight",
                "engine_update": "20180220",
                "engine_version": "1.0.0.35_220",
                "method": "blacklist",
                "result": null
            },
            "Tencent": {
                "category": "malicious",
                "engine_name": "Tencent",
                "engine_update": "20180227",
                "engine_version": "1.0.0.1",
                "method": "blacklist",
                "result": "Virus.Win32.Savis.a"
            },
            "TheHacker": {
                "category": "malicious",
                "engine_name": "TheHacker",
                "engine_update": "20180225",
                "engine_version": "6.8.0.5.2451",
                "method": "blacklist",
                "result": "Trojan/Cosmu.aqfo"
            },
            "TotalDefense": {
                "category": "malicious",
                "engine_name": "TotalDefense",
                "engine_update": "20180227",
                "engine_version": "37.1.62.1",
                "method": "blacklist",
                "result": "Win32/Agent.BFH"
            },
            "TrendMicro": {
                "category": "malicious",
                "engine_name": "TrendMicro",
                "engine_update": "20180227",
                "engine_version": "9.862.0.1074",
                "method": "blacklist",
                "result": "PE_SIVIS.A"
            },
            "TrendMicro-HouseCall": {
                "category": "malicious",
                "engine_name": "TrendMicro-HouseCall",
                "engine_update": "20180227",
                "engine_version": "9.950.0.1006",
                "method": "blacklist",
                "result": "PE_SIVIS.A"
            },
            "Trustlook": {
                "category": "type-unsupported",
                "engine_name": "Trustlook",
                "engine_update": "20180227",
                "engine_version": "2",
                "method": "blacklist",
                "result": null
            },
            "VBA32": {
                "category": "malicious",
                "engine_name": "VBA32",
                "engine_update": "20180227",
                "engine_version": "3.12.28.0",
                "method": "blacklist",
                "result": "Hoax.Gen"
            },
            "VIPRE": {
                "category": "malicious",
                "engine_name": "VIPRE",
                "engine_update": "20180227",
                "engine_version": "64910",
                "method": "blacklist",
                "result": "Virus.Win32.sivis.a (v)"
            },
            "ViRobot": {
                "category": "undetected",
                "engine_name": "ViRobot",
                "engine_update": "20180227",
                "engine_version": "2014.3.20.0",
                "method": "blacklist",
                "result": null
            },
            "Webroot": {
                "category": "undetected",
                "engine_name": "Webroot",
                "engine_update": "20180227",
                "engine_version": "1.0.0.207",
                "method": "blacklist",
                "result": null
            },
            "WhiteArmor": {
                "category": "undetected",
                "engine_name": "WhiteArmor",
                "engine_update": "20180223",
                "engine_version": null,
                "method": "blacklist",
                "result": null
            },
            "Yandex": {
                "category": "malicious",
                "engine_name": "Yandex",
                "engine_update": "20180227",
                "engine_version": "5.5.1.3",
                "method": "blacklist",
                "result": "Win32.Sivis.A"
            },
            "Zillya": {
                "category": "malicious",
                "engine_name": "Zillya",
                "engine_update": "20180227",
                "engine_version": "2.0.0.3501",
                "method": "blacklist",
                "result": "Trojan.Cosmu.Win32.8809"
            },
            "ZoneAlarm": {
                "category": "malicious",
                "engine_name": "ZoneAlarm",
                "engine_update": "20180227",
                "engine_version": "1.0",
                "method": "blacklist",
                "result": "Virus.Win32.Agent.es"
            },
            "Zoner": {
                "category": "undetected",
                "engine_name": "Zoner",
                "engine_update": "20180227",
                "engine_version": "1.0",
                "method": "blacklist",
                "result": null
            },
            "eGambit": {
                "category": "undetected",
                "engine_name": "eGambit",
                "engine_update": "20180227",
                "engine_version": "v4.3.5",
                "method": "blacklist",
                "result": null
            },
            "nProtect": {
                "category": "malicious",
                "engine_name": "nProtect",
                "engine_update": "20180227",
                "engine_version": "2018-02-27.02",
                "method": "blacklist",
                "result": "Trojan/W32.Sivis.Gen"
            }
        },
        "last_analysis_stats": {
            "confirmed-timeout": 0,
            "failure": 0,
            "harmless": 0,
            "malicious": 55,
            "suspicious": 0,
            "timeout": 0,
            "type-unsupported": 3,
            "undetected": 13
        },
        "last_modification_date": 1520496649,
        "last_submission_date": 1519762523,
        "magic": "PE32 executable for MS Windows (GUI) Intel 80386 32-bit",
        "md5": "bc93a6a4372afe8659d36f8cafab1728",
        "names": [
            "bc93a6a4372afe8659d36f8cafab1728"
        ],
        "reputation": 0,
        "sha1": "82bd8fde223f8bc8b75477632419c0d907e0a9e4",
        "sha256": "0004961510300d149b5015f10b0db18d917d424d05fb911589f4de3657f1c185",
        "size": 545089,
        "ssdeep": "12288:LBsz4FmxSFjGMOtsg50nuGb6G3avG/a/erBG0xbdnH2B4bXCBVX9tX1n+potqtJ:Fsrs5HXiti",
        "tags": [
            "peexe"
        ],
        "times_submitted": 1,
        "total_votes": {
            "harmless": 0,
            "malicious": 0
        },
        "trid": [
            {
                "file_type": "Win32 Executable PureBasic (generic)",
                "probability": 53.6
            },
            {
                "file_type": "Win32 Executable MS Visual C++ (generic)",
                "probability": 15.8
            },
            {
                "file_type": "Win64 Executable (generic)",
                "probability": 14.0
            },
            {
                "file_type": "Windows screen saver",
                "probability": 6.6
            },
            {
                "file_type": "Win32 Dynamic Link Library (generic)",
                "probability": 3.3
            }
        ],
        "type_description": "Win32 EXE",
        "type_extension": "exe",
        "type_tag": "peexe",
        "unique_sources": 1
    },
    "id": "0004961510300d149b5015f10b0db18d917d424d05fb911589f4de3657f1c185",
    "links": {
        "self": "https://www.virustotal.com/api/v3/files/0004961510300d149b5015f10b0db18d917d424d05fb911589f4de3657f1c185"
    },
    "type": "file"
}