{
    "attributes": {
        "authentihash": "e7b2e5ce3cb3b51a6270a7f6579a876d9175180b7f96e46beddbe047b3db6635",
        "creation_date": 1087646470,
        "first_submission_date": 1546479421,
        "last_analysis_date": 1546479421,
        "last_analysis_results": {
            "AVG": {
                "category": "undetected",
                "engine_name": "AVG",
                "engine_update": "20190102",
                "engine_version": "18.4.3895.0",
                "method": "blacklist",
                "result": null
            },
            "Acronis": {
                "category": "undetected",
                "engine_name": "Acronis",
                "engine_update": "20181227",
                "engine_version": "1.0.1.32",
                "method": "blacklist",
                "result": null
            },
            "Ad-Aware": {
                "category": "malicious",
                "engine_name": "Ad-Aware",
                "engine_update": "20190102",
                "engine_version": "3.0.5.370",
                "method": "blacklist",
                "result": "Generic.Sdbot.78F47715"
            },
            "AegisLab": {
                "category": "undetected",
                "engine_name": "AegisLab",
                "engine_update": "20190102",
                "engine_version": "4.2",
                "method": "blacklist",
                "result": null
            },
            "Alibaba": {
                "category": "undetected",
                "engine_name": "Alibaba",
                "engine_update": "20180921",
                "engine_version": "0.1.0.2",
                "method": "blacklist",
                "result": null
            },
            "Antiy-AVL": {
                "category": "malicious",
                "engine_name": "Antiy-AVL",
                "engine_update": "20190102",
                "engine_version": "3.0.0.1",
                "method": "blacklist",
                "result": "Worm[P2P]/Win32.Krepper"
            },
            "Arcabit": {
                "category": "malicious",
                "engine_name": "Arcabit",
                "engine_update": "20190102",
                "engine_version": "1.0.0.837",
                "method": "blacklist",
                "result": "Generic.Sdbot.78F47715"
            },
            "Avast": {
                "category": "undetected",
                "engine_name": "Avast",
                "engine_update": "20190102",
                "engine_version": "18.4.3895.0",
                "method": "blacklist",
                "result": null
            },
            "Avast-Mobile": {
                "category": "undetected",
                "engine_name": "Avast-Mobile",
                "engine_update": "20190102",
                "engine_version": "190102-00",
                "method": "blacklist",
                "result": null
            },
            "Avira": {
                "category": "malicious",
                "engine_name": "Avira",
                "engine_update": "20190102",
                "engine_version": "8.3.3.8",
                "method": "blacklist",
                "result": "WORM/Krepper.C"
            },
            "Babable": {
                "category": "undetected",
                "engine_name": "Babable",
                "engine_update": "20180918",
                "engine_version": "9107201",
                "method": "blacklist",
                "result": null
            },
            "Baidu": {
                "category": "malicious",
                "engine_name": "Baidu",
                "engine_update": "20190102",
                "engine_version": "1.0.0.2",
                "method": "blacklist",
                "result": "Win32.Worm-P2P.Agent.b"
            },
            "BitDefender": {
                "category": "malicious",
                "engine_name": "BitDefender",
                "engine_update": "20190102",
                "engine_version": "7.2",
                "method": "blacklist",
                "result": "Generic.Sdbot.78F47715"
            },
            "Bkav": {
                "category": "undetected",
                "engine_name": "Bkav",
                "engine_update": "20190102",
                "engine_version": "1.3.0.9899",
                "method": "blacklist",
                "result": null
            },
            "CAT-QuickHeal": {
                "category": "malicious",
                "engine_name": "CAT-QuickHeal",
                "engine_update": "20190102",
                "engine_version": "14.00",
                "method": "blacklist",
                "result": "Worm.Krepper.A.mue"
            },
            "CMC": {
                "category": "malicious",
                "engine_name": "CMC",
                "engine_update": "20190102",
                "engine_version": "1.1.0.977",
                "method": "blacklist",
                "result": "P2P-Worm.Win32.Krepper!O"
            },
            "ClamAV": {
                "category": "malicious",
                "engine_name": "ClamAV",
                "engine_update": "20190102",
                "engine_version": "0.101.0.0",
                "method": "blacklist",
                "result": "Win.Worm.Poom-1"
            },
            "Comodo": {
                "category": "malicious",
                "engine_name": "Comodo",
                "engine_update": "20190102",
                "engine_version": "30214",
                "method": "blacklist",
                "result": "Worm.Win32.Krepper.C@1ufp"
            },
            "CrowdStrike": {
                "category": "malicious",
                "engine_name": "CrowdStrike",
                "engine_update": "20181022",
                "engine_version": "1.0",
                "method": "blacklist",
                "result": "malicious_confidence_90% (D)"
            },
            "Cybereason": {
                "category": "malicious",
                "engine_name": "Cybereason",
                "engine_update": "20180225",
                "engine_version": "1.2.27",
                "method": "blacklist",
                "result": "malicious.d9c29b"
            },
            "Cylance": {
                "category": "malicious",
                "engine_name": "Cylance",
                "engine_update": "20190103",
                "engine_version": "2.3.1.101",
                "method": "blacklist",
                "result": "Unsafe"
            },
            "Cyren": {
                "category": "malicious",
                "engine_name": "Cyren",
                "engine_update": "20190102",
                "engine_version": "6.2.0.1",
                "method": "blacklist",
                "result": "W32/Bloop.A.gen!Eldorado"
            },
            "DrWeb": {
                "category": "malicious",
                "engine_name": "DrWeb",
                "engine_update": "20190102",
                "engine_version": "7.0.34.11020",
                "method": "blacklist",
                "result": "Win32.HLLW.Krepper"
            },
            "ESET-NOD32": {
                "category": "malicious",
                "engine_name": "ESET-NOD32",
                "engine_update": "20190103",
                "engine_version": "18643",
                "method": "blacklist",
                "result": "Win32/Krepper.C"
            },
            "Emsisoft": {
                "category": "malicious",
                "engine_name": "Emsisoft",
                "engine_update": "20190102",
                "engine_version": "2018.4.0.1029",
                "method": "blacklist",
                "result": "Generic.Sdbot.78F47715 (B)"
            },
            "Endgame": {
                "category": "malicious",
                "engine_name": "Endgame",
                "engine_update": "20181108",
                "engine_version": "3.0.2",
                "method": "blacklist",
                "result": "malicious (high confidence)"
            },
            "F-Prot": {
                "category": "malicious",
                "engine_name": "F-Prot",
                "engine_update": "20190102",
                "engine_version": "4.7.1.166",
                "method": "blacklist",
                "result": "W32/Pcbot.A@p2p"
            },
            "F-Secure": {
                "category": "malicious",
                "engine_name": "F-Secure",
                "engine_update": "20190102",
                "engine_version": "11.0.19100.45",
                "method": "blacklist",
                "result": "Generic.Sdbot.78F47715"
            },
            "Fortinet": {
                "category": "malicious",
                "engine_name": "Fortinet",
                "engine_update": "20190102",
                "engine_version": "5.4.247.0",
                "method": "blacklist",
                "result": "W32/Krepper.C!worm"
            },
            "GData": {
                "category": "malicious",
                "engine_name": "GData",
                "engine_update": "20190102",
                "engine_version": "A:25.20040B:25.14049",
                "method": "blacklist",
                "result": "Generic.Sdbot.78F47715"
            },
            "Ikarus": {
                "category": "malicious",
                "engine_name": "Ikarus",
                "engine_update": "20190102",
                "engine_version": "0.1.5.2",
                "method": "blacklist",
                "result": "P2P-Worm.Win32.Krepper"
            },
            "Invincea": {
                "category": "malicious",
                "engine_name": "Invincea",
                "engine_update": "20181128",
                "engine_version": "6.3.6.26157",
                "method": "blacklist",
                "result": "heuristic"
            },
            "Jiangmin": {
                "category": "malicious",
                "engine_name": "Jiangmin",
                "engine_update": "20190102",
                "engine_version": "16.0.100",
                "method": "blacklist",
                "result": "Trojan/Krepper.ad"
            },
            "K7AntiVirus": {
                "category": "malicious",
                "engine_name": "K7AntiVirus",
                "engine_update": "20190102",
                "engine_version": "11.20.29551",
                "method": "blacklist",
                "result": "Trojan ( 004d04801 )"
            },
            "K7GW": {
                "category": "malicious",
                "engine_name": "K7GW",
                "engine_update": "20190102",
                "engine_version": "11.20.29551",
                "method": "blacklist",
                "result": "Trojan ( 004d04801 )"
            },
            "Kaspersky": {
                "category": "malicious",
                "engine_name": "Kaspersky",
                "engine_update": "20190102",
                "engine_version": "15.0.1.13",
                "method": "blacklist",
                "result": "P2P-Worm.Win32.Krepper.c"
            },
            "Kingsoft": {
                "category": "undetected",
                "engine_name": "Kingsoft",
                "engine_update": "20190103",
                "engine_version": "2013.8.14.323",
                "method": "blacklist",
                "result": null
            },
            "MAX": {
                "category": "malicious",
                "engine_name": "MAX",
                "engine_update": "20190103",
                "engine_version": "2018.9.12.1",
                "method": "blacklist",
                "result": "malware (ai score=80)"
            },
            "Malwarebytes": {
                "category": "undetected",
                "engine_name": "Malwarebytes",
                "engine_update": "20190102",
                "engine_version": "2.1.1.1115",
                "method": "blacklist",
                "result": null
            },
            "McAfee": {
                "category": "malicious",
                "engine_name": "McAfee",
                "engine_update": "20190103",
                "engine_version": "6.0.6.653",
                "method": "blacklist",
                "result": "W32/Sndc.worm!p2p"
            },
            "McAfee-GW-Edition": {
                "category": "malicious",
                "engine_name": "McAfee-GW-Edition",
                "engine_update": "20190103",
                "engine_version": "v2017.3010",
                "method": "blacklist",
                "result": "BehavesLike.Win32.Generic.mt"
            },
            "MicroWorld-eScan": {
                "category": "malicious",
                "engine_name": "MicroWorld-eScan",
                "engine_update": "20190103",
                "engine_version": "14.0.297.0",
                "method": "blacklist",
                "result": "Generic.Sdbot.78F47715"
            },
            "Microsoft": {
                "category": "malicious",
                "engine_name": "Microsoft",
                "engine_update": "20190103",
                "engine_version": "1.1.15500.2",
                "method": "blacklist",
                "result": "Worm:Win32/Krepper.B"
            },
            "NANO-Antivirus": {
                "category": "malicious",
                "engine_name": "NANO-Antivirus",
                "engine_update": "20190103",
                "engine_version": "1.0.134.24576",
                "method": "blacklist",
                "result": "Trojan.Win32.Krepper.dqeaqt"
            },
            "Paloalto": {
                "category": "undetected",
                "engine_name": "Paloalto",
                "engine_update": "20190103",
                "engine_version": "1.0",
                "method": "blacklist",
                "result": null
            },
            "Panda": {
                "category": "malicious",
                "engine_name": "Panda",
                "engine_update": "20190102",
                "engine_version": "4.6.4.2",
                "method": "blacklist",
                "result": "Trj/Genetic.gen"
            },
            "Qihoo-360": {
                "category": "malicious",
                "engine_name": "Qihoo-360",
                "engine_update": "20190103",
                "engine_version": "1.0.0.1120",
                "method": "blacklist",
                "result": "HEUR/QVM11.1.4A03.Malware.Gen"
            },
            "Rising": {
                "category": "malicious",
                "engine_name": "Rising",
                "engine_update": "20190103",
                "engine_version": "25.0.0.24",
                "method": "blacklist",
                "result": "Worm.P2p.Krepper.e (RDM+:cmRtazpw29dBr0ys1CuuTgU5cCvH)"
            },
            "SUPERAntiSpyware": {
                "category": "malicious",
                "engine_name": "SUPERAntiSpyware",
                "engine_update": "20190102",
                "engine_version": "5.6.0.1032",
                "method": "blacklist",
                "result": "Trojan.Agent/Gen-Krepper"
            },
            "SentinelOne": {
                "category": "malicious",
                "engine_name": "SentinelOne",
                "engine_update": "20181223",
                "engine_version": "1.0.21.262",
                "method": "blacklist",
                "result": "static engine - malicious"
            },
            "Sophos": {
                "category": "malicious",
                "engine_name": "Sophos",
                "engine_update": "20190103",
                "engine_version": "4.98.0",
                "method": "blacklist",
                "result": "W32/Ircbot-X"
            },
            "Symantec": {
                "category": "malicious",
                "engine_name": "Symantec",
                "engine_update": "20190103",
                "engine_version": "1.8.0.0",
                "method": "blacklist",
                "result": "W32.IRCBot"
            },
            "TACHYON": {
                "category": "undetected",
                "engine_name": "TACHYON",
                "engine_update": "20190102",
                "engine_version": "2019-01-02.03",
                "method": "blacklist",
                "result": null
            },
            "Tencent": {
                "category": "undetected",
                "engine_name": "Tencent",
                "engine_update": "20190103",
                "engine_version": "1.0.0.1",
                "method": "blacklist",
                "result": null
            },
            "TheHacker": {
                "category": "malicious",
                "engine_name": "TheHacker",
                "engine_update": "20181230",
                "engine_version": "6.8.0.5.3919",
                "method": "blacklist",
                "result": "W32/Krepper.c"
            },
            "TotalDefense": {
                "category": "malicious",
                "engine_name": "TotalDefense",
                "engine_update": "20190102",
                "engine_version": "37.1.62.1",
                "method": "blacklist",
                "result": "Win32/Sndc.A"
            },
            "Trapmine": {
                "category": "malicious",
                "engine_name": "Trapmine",
                "engine_update": "20181205",
                "engine_version": "3.0.29.679",
                "method": "blacklist",
                "result": "malicious.high.ml.score"
            },
            "TrendMicro": {
                "category": "malicious",
                "engine_name": "TrendMicro",
                "engine_update": "20190103",
                "engine_version": "10.0.0.1040",
                "method": "blacklist",
                "result": "WORM_SHAREBOT.A"
            },
            "TrendMicro-HouseCall": {
                "category": "malicious",
                "engine_name": "TrendMicro-HouseCall",
                "engine_update": "20190103",
                "engine_version": "10.0.0.1040",
                "method": "blacklist",
                "result": "WORM_SHAREBOT.A"
            },
            "Trustlook": {
                "category": "undetected",
                "engine_name": "Trustlook",
                "engine_update": "20190103",
                "engine_version": "1.0",
                "method": "blacklist",
                "result": null
            },
            "VBA32": {
                "category": "malicious",
                "engine_name": "VBA32",
                "engine_update": "20181229",
                "engine_version": "3.35.0",
                "method": "blacklist",
                "result": "Worm.Krepper"
            },
            "VIPRE": {
                "category": "malicious",
                "engine_name": "VIPRE",
                "engine_update": null,
                "engine_version": "None",
                "method": "blacklist",
                "result": "Trojan.Win32.Ircbot!cobra (v)"
            },
            "ViRobot": {
                "category": "malicious",
                "engine_name": "ViRobot",
                "engine_update": "20190102",
                "engine_version": "2014.3.20.0",
                "method": "blacklist",
                "result": "Trojan.Win32.Krepper.11808"
            },
            "Webroot": {
                "category": "undetected",
                "engine_name": "Webroot",
                "engine_update": "20190103",
                "engine_version": "1.0.0.403",
                "method": "blacklist",
                "result": null
            },
            "Yandex": {
                "category": "malicious",
                "engine_name": "Yandex",
                "engine_update": "20181229",
                "engine_version": "5.5.1.3",
                "method": "blacklist",
                "result": "Worm.P2P.Krepper!dcAWP425Bzk"
            },
            "Zillya": {
                "category": "malicious",
                "engine_name": "Zillya",
                "engine_update": "20190102",
                "engine_version": "2.0.0.3723",
                "method": "blacklist",
                "result": "Worm.Krepper.Win32.1"
            },
            "ZoneAlarm": {
                "category": "malicious",
                "engine_name": "ZoneAlarm",
                "engine_update": "20190102",
                "engine_version": "1.0",
                "method": "blacklist",
                "result": "P2P-Worm.Win32.Krepper.c"
            },
            "Zoner": {
                "category": "malicious",
                "engine_name": "Zoner",
                "engine_update": "20190102",
                "engine_version": "1.0",
                "method": "blacklist",
                "result": "I-Worm.Krepper.C"
            },
            "eGambit": {
                "category": "malicious",
                "engine_name": "eGambit",
                "engine_update": "20190103",
                "engine_version": "v4.3.5",
                "method": "blacklist",
                "result": "Unsafe.AI_Score_89%"
            }
        },
        "last_analysis_stats": {
            "confirmed-timeout": 0,
            "failure": 0,
            "harmless": 0,
            "malicious": 54,
            "suspicious": 0,
            "timeout": 0,
            "type-unsupported": 0,
            "undetected": 15
        },
        "last_modification_date": 1546481190,
        "last_submission_date": 1546479421,
        "magic": "PE32 executable for MS Windows (GUI) Intel 80386 32-bit",
        "md5": "29644c4d9c29b9243142fcf5a17bb7c6",
        "meaningful_name": "FlashFXP 2 RC2 Crack.exe",
        "names": [
            "FlashFXP 2 RC2 Crack.exe"
        ],
        "packers": {
            "F-PROT": "UPX"
        },
        "pe_info": {
            "entry_point": 46848,
            "imphash": "c0bb013796c531b17468cd900bf0c878",
            "import_list": [
                {
                    "imported_functions": [
                        "RegCloseKey"
                    ],
                    "library_name": "ADVAPI32.DLL"
                },
                {
                    "imported_functions": [
                        "LoadLibraryA",
                        "ExitProcess",
                        "GetProcAddress"
                    ],
                    "library_name": "KERNEL32.DLL"
                },
                {
                    "imported_functions": [
                        "exit"
                    ],
                    "library_name": "CRTDLL.DLL"
                },
                {
                    "imported_functions": [
                        "recv"
                    ],
                    "library_name": "wsock32.dll"
                },
                {
                    "imported_functions": [
                        "ShellExecuteA"
                    ],
                    "library_name": "SHELL32.DLL"
                },
                {
                    "imported_functions": [
                        "InternetOpenA"
                    ],
                    "library_name": "WININET.DLL"
                },
                {
                    "imported_functions": [
                        "MessageBoxA"
                    ],
                    "library_name": "USER32.DLL"
                }
            ],
            "machine_type": 332,
            "overlay": {
                "chi2": 5973260.0,
                "entropy": 4.31981086730957,
                "filetype": "data",
                "md5": "b15ee2a1d5c22e6e8cd19a77f58b6a5b",
                "offset": 11776,
                "size": 71276
            },
            "sections": [
                {
                    "entropy": 0.0,
                    "md5": "d41d8cd98f00b204e9800998ecf8427e",
                    "name": "code",
                    "raw_size": 0,
                    "virtual_address": 4096,
                    "virtual_size": 32768
                },
                {
                    "entropy": 7.77,
                    "md5": "2358d3f2b9fd04ba07a4a130d100ebe9",
                    "name": "text",
                    "raw_size": 10752,
                    "virtual_address": 36864,
                    "virtual_size": 12288
                },
                {
                    "entropy": 3.24,
                    "md5": "9a57412161989b22ffc0bcbcf9ab4638",
                    "name": "rsrc",
                    "raw_size": 512,
                    "virtual_address": 49152,
                    "virtual_size": 4096
                }
            ],
            "timestamp": 1087646470
        },
        "reputation": 0,
        "sha1": "e5d68a0f1e5f838729130bcaec01c97b79b79376",
        "sha256": "0004b80e04f16504815482c872938105d1a27e3ccd47bc64b0158708b495dcb6",
        "size": 83052,
        "ssdeep": "768:dvmKZor4WvMzGBrxUfMl4MqSpqW9OyCxpIQ+YNO+53TMqBWDtzBWDtf7SB2WrAwY:dvmKZozvMzmh9OyCxpTOq3CSCzvzUXz",
        "tags": [
            "peexe",
            "upx",
            "overlay"
        ],
        "times_submitted": 1,
        "total_votes": {
            "harmless": 0,
            "malicious": 0
        },
        "trid": [
            {
                "file_type": "Win32 Dynamic Link Library (generic)",
                "probability": 38.3
            },
            {
                "file_type": "Win32 Executable (generic)",
                "probability": 26.2
            },
            {
                "file_type": "OS/2 Executable (generic)",
                "probability": 11.8
            },
            {
                "file_type": "Generic Win/DOS Executable",
                "probability": 11.6
            },
            {
                "file_type": "DOS Executable Generic",
                "probability": 11.6
            }
        ],
        "type_description": "Win32 EXE",
        "type_extension": "exe",
        "type_tag": "peexe",
        "unique_sources": 1,
        "vhash": "08403d0d7d1019z3hz13z11z1bz"
    },
    "id": "0004b80e04f16504815482c872938105d1a27e3ccd47bc64b0158708b495dcb6",
    "links": {
        "self": "https://www.virustotal.com/api/v3/files/0004b80e04f16504815482c872938105d1a27e3ccd47bc64b0158708b495dcb6"
    },
    "type": "file"
}