{
    "attributes": {
        "authentihash": "2e0c0915c36300b1ecffb54be0d8751344a3f0b878174b874d9c25ca8c276b30",
        "creation_date": 1178287242,
        "first_submission_date": 1540775683,
        "last_analysis_date": 1544829974,
        "last_analysis_results": {
            "ALYac": {
                "category": "malicious",
                "engine_name": "ALYac",
                "engine_update": "20181214",
                "engine_version": "1.1.1.5",
                "method": "blacklist",
                "result": "Win32.Parite.B"
            },
            "AVG": {
                "category": "malicious",
                "engine_name": "AVG",
                "engine_update": "20181214",
                "engine_version": "18.4.3895.0",
                "method": "blacklist",
                "result": "Win32:Parite"
            },
            "Ad-Aware": {
                "category": "malicious",
                "engine_name": "Ad-Aware",
                "engine_update": "20181214",
                "engine_version": "3.0.5.370",
                "method": "blacklist",
                "result": "Win32.Parite.B"
            },
            "AegisLab": {
                "category": "malicious",
                "engine_name": "AegisLab",
                "engine_update": "20181214",
                "engine_version": "4.2",
                "method": "blacklist",
                "result": "Virus.Win32.Nimnul.lse3"
            },
            "AhnLab-V3": {
                "category": "malicious",
                "engine_name": "AhnLab-V3",
                "engine_update": "20181214",
                "engine_version": "3.14.1.22785",
                "method": "blacklist",
                "result": "Win32/Parite"
            },
            "Alibaba": {
                "category": "undetected",
                "engine_name": "Alibaba",
                "engine_update": "20180921",
                "engine_version": "0.1.0.2",
                "method": "blacklist",
                "result": null
            },
            "Antiy-AVL": {
                "category": "malicious",
                "engine_name": "Antiy-AVL",
                "engine_update": "20181214",
                "engine_version": "3.0.0.1",
                "method": "blacklist",
                "result": "Virus/Win32.Parite.c"
            },
            "Arcabit": {
                "category": "malicious",
                "engine_name": "Arcabit",
                "engine_update": "20181214",
                "engine_version": "1.0.0.837",
                "method": "blacklist",
                "result": "Win32.Parite.B"
            },
            "Avast": {
                "category": "malicious",
                "engine_name": "Avast",
                "engine_update": "20181214",
                "engine_version": "18.4.3895.0",
                "method": "blacklist",
                "result": "Win32:Parite"
            },
            "Avast-Mobile": {
                "category": "undetected",
                "engine_name": "Avast-Mobile",
                "engine_update": "20181214",
                "engine_version": "181214-02",
                "method": "blacklist",
                "result": null
            },
            "Avira": {
                "category": "malicious",
                "engine_name": "Avira",
                "engine_update": "20181214",
                "engine_version": "8.3.3.6",
                "method": "blacklist",
                "result": "W32/Parite"
            },
            "Babable": {
                "category": "undetected",
                "engine_name": "Babable",
                "engine_update": "20180918",
                "engine_version": "9107201",
                "method": "blacklist",
                "result": null
            },
            "Baidu": {
                "category": "malicious",
                "engine_name": "Baidu",
                "engine_update": "20181207",
                "engine_version": "1.0.0.2",
                "method": "blacklist",
                "result": "Win32.Virus.Parite.d"
            },
            "BitDefender": {
                "category": "malicious",
                "engine_name": "BitDefender",
                "engine_update": "20181214",
                "engine_version": "7.2",
                "method": "blacklist",
                "result": "Win32.Parite.B"
            },
            "Bkav": {
                "category": "malicious",
                "engine_name": "Bkav",
                "engine_update": "20181214",
                "engine_version": "1.3.0.9899",
                "method": "blacklist",
                "result": "W32.Pinfi.B"
            },
            "CAT-QuickHeal": {
                "category": "malicious",
                "engine_name": "CAT-QuickHeal",
                "engine_update": "20181214",
                "engine_version": "14.00",
                "method": "blacklist",
                "result": "W32.Perite.A"
            },
            "CMC": {
                "category": "malicious",
                "engine_name": "CMC",
                "engine_update": "20181213",
                "engine_version": "1.1.0.977",
                "method": "blacklist",
                "result": "Virus.Win32.Parite.b!O"
            },
            "ClamAV": {
                "category": "malicious",
                "engine_name": "ClamAV",
                "engine_update": "20181214",
                "engine_version": "0.101.0.0",
                "method": "blacklist",
                "result": "Heuristics.W32.Parite.B"
            },
            "Comodo": {
                "category": "malicious",
                "engine_name": "Comodo",
                "engine_update": "20181214",
                "engine_version": "30122",
                "method": "blacklist",
                "result": "Virus.Win32.Parite.gen@1dp8c4"
            },
            "CrowdStrike": {
                "category": "malicious",
                "engine_name": "CrowdStrike",
                "engine_update": "20181022",
                "engine_version": "1.0",
                "method": "blacklist",
                "result": "malicious_confidence_100% (W)"
            },
            "Cybereason": {
                "category": "malicious",
                "engine_name": "Cybereason",
                "engine_update": "20180225",
                "engine_version": "1.2.27",
                "method": "blacklist",
                "result": "malicious.a87e32"
            },
            "Cylance": {
                "category": "malicious",
                "engine_name": "Cylance",
                "engine_update": "20181214",
                "engine_version": "2.3.1.101",
                "method": "blacklist",
                "result": "Unsafe"
            },
            "Cyren": {
                "category": "malicious",
                "engine_name": "Cyren",
                "engine_update": "20181214",
                "engine_version": "6.2.0.1",
                "method": "blacklist",
                "result": "W32/Ramnit.B!Generic"
            },
            "DrWeb": {
                "category": "malicious",
                "engine_name": "DrWeb",
                "engine_update": "20181214",
                "engine_version": "7.0.34.11020",
                "method": "blacklist",
                "result": "Win32.Parite.2"
            },
            "ESET-NOD32": {
                "category": "malicious",
                "engine_name": "ESET-NOD32",
                "engine_update": "20181214",
                "engine_version": "18546",
                "method": "blacklist",
                "result": "Win32/Parite.B"
            },
            "Emsisoft": {
                "category": "malicious",
                "engine_name": "Emsisoft",
                "engine_update": "20181214",
                "engine_version": "2018.4.0.1029",
                "method": "blacklist",
                "result": "Win32.Parite.B (B)"
            },
            "Endgame": {
                "category": "malicious",
                "engine_name": "Endgame",
                "engine_update": "20181108",
                "engine_version": "3.0.2",
                "method": "blacklist",
                "result": "malicious (high confidence)"
            },
            "F-Prot": {
                "category": "malicious",
                "engine_name": "F-Prot",
                "engine_update": "20181214",
                "engine_version": "4.7.1.166",
                "method": "blacklist",
                "result": "W32/Ramnit.B!Generic"
            },
            "F-Secure": {
                "category": "malicious",
                "engine_name": "F-Secure",
                "engine_update": "20181214",
                "engine_version": "11.0.19100.45",
                "method": "blacklist",
                "result": "Win32.Parite.B"
            },
            "Fortinet": {
                "category": "malicious",
                "engine_name": "Fortinet",
                "engine_update": "20181214",
                "engine_version": "5.4.247.0",
                "method": "blacklist",
                "result": "W32/Parite.B"
            },
            "GData": {
                "category": "malicious",
                "engine_name": "GData",
                "engine_update": "20181214",
                "engine_version": "A:25.19784B:25.13897",
                "method": "blacklist",
                "result": "Win32.Parite.B"
            },
            "Ikarus": {
                "category": "malicious",
                "engine_name": "Ikarus",
                "engine_update": "20181214",
                "engine_version": "0.1.5.2",
                "method": "blacklist",
                "result": "Virus.Win32.Nimnul"
            },
            "Invincea": {
                "category": "malicious",
                "engine_name": "Invincea",
                "engine_update": "20181128",
                "engine_version": "6.3.6.26157",
                "method": "blacklist",
                "result": "heuristic"
            },
            "Jiangmin": {
                "category": "malicious",
                "engine_name": "Jiangmin",
                "engine_update": "20181214",
                "engine_version": "16.0.100",
                "method": "blacklist",
                "result": "Win32/Parite.b"
            },
            "K7AntiVirus": {
                "category": "malicious",
                "engine_name": "K7AntiVirus",
                "engine_update": "20181214",
                "engine_version": "11.17.29359",
                "method": "blacklist",
                "result": "Virus ( 00001b711 )"
            },
            "K7GW": {
                "category": "malicious",
                "engine_name": "K7GW",
                "engine_update": "20181214",
                "engine_version": "11.17.29358",
                "method": "blacklist",
                "result": "Virus ( 00001b711 )"
            },
            "Kaspersky": {
                "category": "malicious",
                "engine_name": "Kaspersky",
                "engine_update": "20181214",
                "engine_version": "15.0.1.13",
                "method": "blacklist",
                "result": "Virus.Win32.Parite.b"
            },
            "Kingsoft": {
                "category": "malicious",
                "engine_name": "Kingsoft",
                "engine_update": "20181214",
                "engine_version": "2013.8.14.323",
                "method": "blacklist",
                "result": "Win32.Parite.b.5756"
            },
            "MAX": {
                "category": "malicious",
                "engine_name": "MAX",
                "engine_update": "20181214",
                "engine_version": "2018.9.12.1",
                "method": "blacklist",
                "result": "malware (ai score=82)"
            },
            "Malwarebytes": {
                "category": "undetected",
                "engine_name": "Malwarebytes",
                "engine_update": "20181214",
                "engine_version": "2.1.1.1115",
                "method": "blacklist",
                "result": null
            },
            "McAfee": {
                "category": "malicious",
                "engine_name": "McAfee",
                "engine_update": "20181214",
                "engine_version": "6.0.6.653",
                "method": "blacklist",
                "result": "W32/Pate.b"
            },
            "McAfee-GW-Edition": {
                "category": "malicious",
                "engine_name": "McAfee-GW-Edition",
                "engine_update": "20181214",
                "engine_version": "v2017.3010",
                "method": "blacklist",
                "result": "BehavesLike.Win32.Pate.hc"
            },
            "MicroWorld-eScan": {
                "category": "malicious",
                "engine_name": "MicroWorld-eScan",
                "engine_update": "20181214",
                "engine_version": "14.0.297.0",
                "method": "blacklist",
                "result": "Win32.Parite.B"
            },
            "Microsoft": {
                "category": "malicious",
                "engine_name": "Microsoft",
                "engine_update": "20181214",
                "engine_version": "1.1.15500.2",
                "method": "blacklist",
                "result": "Virus:Win32/Parite.B"
            },
            "NANO-Antivirus": {
                "category": "malicious",
                "engine_name": "NANO-Antivirus",
                "engine_update": "20181214",
                "engine_version": "1.0.134.24299",
                "method": "blacklist",
                "result": "Virus.Win32.Parite.bgvo"
            },
            "Paloalto": {
                "category": "malicious",
                "engine_name": "Paloalto",
                "engine_update": "20181214",
                "engine_version": "1.0",
                "method": "blacklist",
                "result": "generic.ml"
            },
            "Panda": {
                "category": "malicious",
                "engine_name": "Panda",
                "engine_update": "20181214",
                "engine_version": "4.6.4.2",
                "method": "blacklist",
                "result": "W32/Parite.B"
            },
            "Qihoo-360": {
                "category": "malicious",
                "engine_name": "Qihoo-360",
                "engine_update": "20181214",
                "engine_version": "1.0.0.1120",
                "method": "blacklist",
                "result": "Virus.Win32.Parite.H"
            },
            "Rising": {
                "category": "malicious",
                "engine_name": "Rising",
                "engine_update": "20181214",
                "engine_version": "25.0.0.24",
                "method": "blacklist",
                "result": "Virus.Parite!1.9B80 (CLASSIC)"
            },
            "SUPERAntiSpyware": {
                "category": "undetected",
                "engine_name": "SUPERAntiSpyware",
                "engine_update": "20181212",
                "engine_version": "5.6.0.1032",
                "method": "blacklist",
                "result": null
            },
            "SentinelOne": {
                "category": "malicious",
                "engine_name": "SentinelOne",
                "engine_update": "20181011",
                "engine_version": "1.0.19.245",
                "method": "blacklist",
                "result": "static engine - malicious"
            },
            "Sophos": {
                "category": "malicious",
                "engine_name": "Sophos",
                "engine_update": "20181214",
                "engine_version": "4.98.0",
                "method": "blacklist",
                "result": "W32/Parite-B"
            },
            "Symantec": {
                "category": "malicious",
                "engine_name": "Symantec",
                "engine_update": "20181214",
                "engine_version": "1.8.0.0",
                "method": "blacklist",
                "result": "W32.Ramnit.B!inf"
            },
            "SymantecMobileInsight": {
                "category": "type-unsupported",
                "engine_name": "SymantecMobileInsight",
                "engine_update": "20181212",
                "engine_version": "2.0",
                "method": "blacklist",
                "result": null
            },
            "TACHYON": {
                "category": "malicious",
                "engine_name": "TACHYON",
                "engine_update": "20181214",
                "engine_version": "2018-12-14.01",
                "method": "blacklist",
                "result": "Virus/W32.Parite.C"
            },
            "Tencent": {
                "category": "malicious",
                "engine_name": "Tencent",
                "engine_update": "20181214",
                "engine_version": "1.0.0.1",
                "method": "blacklist",
                "result": "Virus.Win32.Dropper.c"
            },
            "TheHacker": {
                "category": "malicious",
                "engine_name": "TheHacker",
                "engine_update": "20181213",
                "engine_version": "6.8.0.5.3891",
                "method": "blacklist",
                "result": "W32/Pate.B"
            },
            "TotalDefense": {
                "category": "malicious",
                "engine_name": "TotalDefense",
                "engine_update": "20181214",
                "engine_version": "37.1.62.1",
                "method": "blacklist",
                "result": "Win32/Pinfi.A"
            },
            "Trapmine": {
                "category": "malicious",
                "engine_name": "Trapmine",
                "engine_update": "20181205",
                "engine_version": "3.0.29.679",
                "method": "blacklist",
                "result": "malicious.high.ml.score"
            },
            "TrendMicro": {
                "category": "malicious",
                "engine_name": "TrendMicro",
                "engine_update": "20181214",
                "engine_version": "10.0.0.1040",
                "method": "blacklist",
                "result": "PE_PARITE.A"
            },
            "TrendMicro-HouseCall": {
                "category": "malicious",
                "engine_name": "TrendMicro-HouseCall",
                "engine_update": "20181214",
                "engine_version": "10.0.0.1040",
                "method": "blacklist",
                "result": "PE_PARITE.A"
            },
            "Trustlook": {
                "category": "undetected",
                "engine_name": "Trustlook",
                "engine_update": "20181214",
                "engine_version": "1.0",
                "method": "blacklist",
                "result": null
            },
            "VBA32": {
                "category": "malicious",
                "engine_name": "VBA32",
                "engine_update": "20181214",
                "engine_version": "3.34.0",
                "method": "blacklist",
                "result": "Virus.Win32.Parite.b"
            },
            "VIPRE": {
                "category": "malicious",
                "engine_name": "VIPRE",
                "engine_update": "20181214",
                "engine_version": "71654",
                "method": "blacklist",
                "result": "Win32.Parite.b (v)"
            },
            "ViRobot": {
                "category": "malicious",
                "engine_name": "ViRobot",
                "engine_update": "20181214",
                "engine_version": "2014.3.20.0",
                "method": "blacklist",
                "result": "Win32.Parite.A"
            },
            "Webroot": {
                "category": "undetected",
                "engine_name": "Webroot",
                "engine_update": "20181214",
                "engine_version": "1.0.0.403",
                "method": "blacklist",
                "result": null
            },
            "Yandex": {
                "category": "malicious",
                "engine_name": "Yandex",
                "engine_update": "20181214",
                "engine_version": "5.5.1.3",
                "method": "blacklist",
                "result": "Win32.Parite.B"
            },
            "Zillya": {
                "category": "malicious",
                "engine_name": "Zillya",
                "engine_update": "20181213",
                "engine_version": "2.0.0.3713",
                "method": "blacklist",
                "result": "Virus.Parite.Win32.9"
            },
            "ZoneAlarm": {
                "category": "malicious",
                "engine_name": "ZoneAlarm",
                "engine_update": "20181214",
                "engine_version": "1.0",
                "method": "blacklist",
                "result": "Virus.Win32.Parite.b"
            },
            "Zoner": {
                "category": "malicious",
                "engine_name": "Zoner",
                "engine_update": "20181214",
                "engine_version": "1.0",
                "method": "blacklist",
                "result": "Win32.Parite.B"
            },
            "eGambit": {
                "category": "undetected",
                "engine_name": "eGambit",
                "engine_update": "20181214",
                "engine_version": "v4.3.5",
                "method": "blacklist",
                "result": null
            }
        },
        "last_analysis_stats": {
            "confirmed-timeout": 0,
            "failure": 0,
            "harmless": 0,
            "malicious": 62,
            "suspicious": 0,
            "timeout": 0,
            "type-unsupported": 1,
            "undetected": 8
        },
        "last_modification_date": 1544829996,
        "last_submission_date": 1540775683,
        "magic": "PE32 executable for MS Windows (GUI) Intel 80386 32-bit",
        "md5": "9991ce7a87e32a45aa50bc91a4929a8f",
        "meaningful_name": "MsiUninstaller.exe",
        "names": [
            "MsiUninstaller",
            "MsiUninstaller.exe",
            "UNINSTPCSFEMSI.EXE"
        ],
        "pe_info": {
            "entry_point": 446464,
            "imphash": "02e7ba440589b23e9b12f8bb7a23313c",
            "import_list": [
                {
                    "imported_functions": [
                        "RegOpenKeyExA",
                        "RegCloseKey",
                        "RegCreateKeyExA"
                    ],
                    "library_name": "ADVAPI32.dll"
                },
                {
                    "imported_functions": [
                        "Ord(95)",
                        "Ord(204)",
                        "Ord(144)",
                        "Ord(141)",
                        "Ord(67)",
                        "Ord(15)",
                        "Ord(8)"
                    ],
                    "library_name": "msi.dll"
                },
                {
                    "imported_functions": [
                        "GetLastError",
                        "HeapFree",
                        "GetStdHandle",
                        "LCMapStringW",
                        "SetHandleCount",
                        "GetOEMCP",
                        "LCMapStringA",
                        "HeapDestroy",
                        "HeapAlloc",
                        "IsBadWritePtr",
                        "FlushFileBuffers",
                        "GetEnvironmentStringsW",
                        "GetVersionExA",
                        "LoadLibraryA",
                        "RtlUnwind",
                        "GetModuleFileNameA",
                        "FreeEnvironmentStringsA",
                        "GetStartupInfoA",
                        "GetEnvironmentStrings",
                        "GetCPInfo",
                        "UnhandledExceptionFilter",
                        "MultiByteToWideChar",
                        "HeapSize",
                        "FreeEnvironmentStringsW",
                        "GetCommandLineA",
                        "GetProcAddress",
                        "IsBadReadPtr",
                        "SetStdHandle",
                        "SetFilePointer",
                        "RaiseException",
                        "WideCharToMultiByte",
                        "GetStringTypeA",
                        "GetModuleHandleA",
                        "SetUnhandledExceptionFilter",
                        "WriteFile",
                        "GetCurrentProcess",
                        "CloseHandle",
                        "GetACP",
                        "HeapReAlloc",
                        "GetStringTypeW",
                        "OutputDebugStringA",
                        "TerminateProcess",
                        "GetEnvironmentVariableA",
                        "HeapCreate",
                        "VirtualFree",
                        "GetFileType",
                        "IsBadCodePtr",
                        "ExitProcess",
                        "GetVersion",
                        "VirtualAlloc"
                    ],
                    "library_name": "KERNEL32.dll"
                }
            ],
            "machine_type": 332,
            "overlay": {
                "chi2": 10389.5048828125,
                "entropy": 7.961935520172119,
                "filetype": "data",
                "md5": "fda7258b3d5b46141792195e596bc531",
                "offset": 432640,
                "size": 176092
            },
            "resource_details": [
                {
                    "chi2": 68653.7734375,
                    "entropy": 3.287832260131836,
                    "filetype": "data",
                    "lang": "FINNISH DEFAULT",
                    "sha256": "bc2417124f39b1374b4d3fe5f3ead28a8e8c461e41c4a45a80fbd8624aecdecf",
                    "type": "RT_VERSION"
                }
            ],
            "resource_langs": {
                "FINNISH DEFAULT": 1
            },
            "resource_types": {
                "RT_VERSION": 1
            },
            "sections": [
                {
                    "entropy": 5.44,
                    "md5": "3916038e6fa5512d10dc7eda14fe040a",
                    "name": ".text",
                    "raw_size": 58880,
                    "virtual_address": 4096,
                    "virtual_size": 58764
                },
                {
                    "entropy": 0.23,
                    "md5": "ca38c32511fa581c324b26f8fb359620",
                    "name": ".sxdata",
                    "raw_size": 512,
                    "virtual_address": 65536,
                    "virtual_size": 24
                },
                {
                    "entropy": 2.92,
                    "md5": "4dcf652770fc4e1cae477d3926397445",
                    "name": ".rsrc",
                    "raw_size": 1024,
                    "virtual_address": 69632,
                    "virtual_size": 928
                },
                {
                    "entropy": 7.57,
                    "md5": "dd39b8c2adbf0f5742c0c1f5e070f96b",
                    "name": ".text",
                    "raw_size": 369152,
                    "virtual_address": 73728,
                    "virtual_size": 372736
                },
                {
                    "entropy": 7.01,
                    "md5": "c7de8df5e22a01a0a73c2f8aa9cf4d4e",
                    "name": ".wtq",
                    "raw_size": 1536,
                    "virtual_address": 446464,
                    "virtual_size": 4096
                }
            ],
            "timestamp": 1178287242
        },
        "reputation": 0,
        "sha1": "3c0f7e2570c05246ed9ee880a9a0be1aab2aac8c",
        "sha256": "0004ce77068bf2097573b6006f38ba80df3bed88c7cc14aee674c896e1f48ab4",
        "signature_info": {
            "description": "MsiUninstaller",
            "file version": "2, 0, 0, 17",
            "internal name": "MsiUninstaller",
            "original name": "MsiUninstaller.exe",
            "product": "MsiUninstaller"
        },
        "size": 608732,
        "ssdeep": "12288:oC5p8wQbZBPFDZAJZKH+Oq1nO5jPKl5CJQtMuIdgndqlLlw:oCPNQtBNDZAJZCqo5jileQtOeY/w",
        "tags": [
            "peexe",
            "nxdomain",
            "overlay"
        ],
        "times_submitted": 1,
        "total_votes": {
            "harmless": 0,
            "malicious": 0
        },
        "trid": [
            {
                "file_type": "Win32 Executable MS Visual C++ (generic)",
                "probability": 41.0
            },
            {
                "file_type": "Win64 Executable (generic)",
                "probability": 36.3
            },
            {
                "file_type": "Win32 Dynamic Link Library (generic)",
                "probability": 8.6
            },
            {
                "file_type": "Win32 Executable (generic)",
                "probability": 5.9
            },
            {
                "file_type": "OS/2 Executable (generic)",
                "probability": 2.6
            }
        ],
        "type_description": "Win32 EXE",
        "type_extension": "exe",
        "type_tag": "peexe",
        "unique_sources": 1,
        "vhash": "06505e5d151e7e7038z34!z"
    },
    "id": "0004ce77068bf2097573b6006f38ba80df3bed88c7cc14aee674c896e1f48ab4",
    "links": {
        "self": "https://www.virustotal.com/api/v3/files/0004ce77068bf2097573b6006f38ba80df3bed88c7cc14aee674c896e1f48ab4"
    },
    "type": "file"
}