{
    "attributes": {
        "authentihash": "495c66aae9a078c14e8c4b93a9ae4a449d917008f16515e91eb73cdd1b80a660",
        "creation_date": 1484141591,
        "first_submission_date": 1544110755,
        "last_analysis_date": 1544491946,
        "last_analysis_results": {
            "ALYac": {
                "category": "undetected",
                "engine_name": "ALYac",
                "engine_update": "20181210",
                "engine_version": "1.1.1.5",
                "method": "blacklist",
                "result": null
            },
            "AVG": {
                "category": "malicious",
                "engine_name": "AVG",
                "engine_update": "20181210",
                "engine_version": "18.4.3895.0",
                "method": "blacklist",
                "result": "Win32:FileInfector-A [Heur]"
            },
            "Ad-Aware": {
                "category": "undetected",
                "engine_name": "Ad-Aware",
                "engine_update": "20181210",
                "engine_version": "3.0.5.370",
                "method": "blacklist",
                "result": null
            },
            "AegisLab": {
                "category": "malicious",
                "engine_name": "AegisLab",
                "engine_update": "20181210",
                "engine_version": "4.2",
                "method": "blacklist",
                "result": "Trojan.Win32.Generic.4!c"
            },
            "AhnLab-V3": {
                "category": "undetected",
                "engine_name": "AhnLab-V3",
                "engine_update": "20181210",
                "engine_version": "3.14.1.22785",
                "method": "blacklist",
                "result": null
            },
            "Antiy-AVL": {
                "category": "undetected",
                "engine_name": "Antiy-AVL",
                "engine_update": "20181210",
                "engine_version": "3.0.0.1",
                "method": "blacklist",
                "result": null
            },
            "Arcabit": {
                "category": "undetected",
                "engine_name": "Arcabit",
                "engine_update": "20181210",
                "engine_version": "1.0.0.837",
                "method": "blacklist",
                "result": null
            },
            "Avast": {
                "category": "malicious",
                "engine_name": "Avast",
                "engine_update": "20181210",
                "engine_version": "18.4.3895.0",
                "method": "blacklist",
                "result": "Win32:FileInfector-A [Heur]"
            },
            "Avast-Mobile": {
                "category": "undetected",
                "engine_name": "Avast-Mobile",
                "engine_update": "20181210",
                "engine_version": "181210-00",
                "method": "blacklist",
                "result": null
            },
            "Avira": {
                "category": "undetected",
                "engine_name": "Avira",
                "engine_update": "20181210",
                "engine_version": "8.3.3.6",
                "method": "blacklist",
                "result": null
            },
            "Babable": {
                "category": "undetected",
                "engine_name": "Babable",
                "engine_update": "20180918",
                "engine_version": "9107201",
                "method": "blacklist",
                "result": null
            },
            "Baidu": {
                "category": "undetected",
                "engine_name": "Baidu",
                "engine_update": "20181207",
                "engine_version": "1.0.0.2",
                "method": "blacklist",
                "result": null
            },
            "BitDefender": {
                "category": "undetected",
                "engine_name": "BitDefender",
                "engine_update": "20181210",
                "engine_version": "7.2",
                "method": "blacklist",
                "result": null
            },
            "Bkav": {
                "category": "undetected",
                "engine_name": "Bkav",
                "engine_update": "20181210",
                "engine_version": "1.3.0.9899",
                "method": "blacklist",
                "result": null
            },
            "CAT-QuickHeal": {
                "category": "undetected",
                "engine_name": "CAT-QuickHeal",
                "engine_update": "20181210",
                "engine_version": "14.00",
                "method": "blacklist",
                "result": null
            },
            "CMC": {
                "category": "undetected",
                "engine_name": "CMC",
                "engine_update": "20181210",
                "engine_version": "1.1.0.977",
                "method": "blacklist",
                "result": null
            },
            "ClamAV": {
                "category": "undetected",
                "engine_name": "ClamAV",
                "engine_update": "20181210",
                "engine_version": "0.101.0.0",
                "method": "blacklist",
                "result": null
            },
            "Comodo": {
                "category": "undetected",
                "engine_name": "Comodo",
                "engine_update": "20181210",
                "engine_version": "30103",
                "method": "blacklist",
                "result": null
            },
            "CrowdStrike": {
                "category": "malicious",
                "engine_name": "CrowdStrike",
                "engine_update": "20181022",
                "engine_version": "1.0",
                "method": "blacklist",
                "result": "malicious_confidence_90% (D)"
            },
            "Cybereason": {
                "category": "undetected",
                "engine_name": "Cybereason",
                "engine_update": "20180225",
                "engine_version": "1.2.27",
                "method": "blacklist",
                "result": null
            },
            "Cylance": {
                "category": "malicious",
                "engine_name": "Cylance",
                "engine_update": "20181211",
                "engine_version": "2.3.1.101",
                "method": "blacklist",
                "result": "Unsafe"
            },
            "Cyren": {
                "category": "undetected",
                "engine_name": "Cyren",
                "engine_update": "20181211",
                "engine_version": "6.2.0.1",
                "method": "blacklist",
                "result": null
            },
            "DrWeb": {
                "category": "undetected",
                "engine_name": "DrWeb",
                "engine_update": "20181211",
                "engine_version": "7.0.34.11020",
                "method": "blacklist",
                "result": null
            },
            "ESET-NOD32": {
                "category": "undetected",
                "engine_name": "ESET-NOD32",
                "engine_update": "20181210",
                "engine_version": "18521",
                "method": "blacklist",
                "result": null
            },
            "Emsisoft": {
                "category": "undetected",
                "engine_name": "Emsisoft",
                "engine_update": "20181211",
                "engine_version": "2018.4.0.1029",
                "method": "blacklist",
                "result": null
            },
            "Endgame": {
                "category": "undetected",
                "engine_name": "Endgame",
                "engine_update": "20181108",
                "engine_version": "3.0.2",
                "method": "blacklist",
                "result": null
            },
            "F-Prot": {
                "category": "undetected",
                "engine_name": "F-Prot",
                "engine_update": "20181211",
                "engine_version": "4.7.1.166",
                "method": "blacklist",
                "result": null
            },
            "F-Secure": {
                "category": "undetected",
                "engine_name": "F-Secure",
                "engine_update": "20181211",
                "engine_version": "11.0.19100.45",
                "method": "blacklist",
                "result": null
            },
            "Fortinet": {
                "category": "undetected",
                "engine_name": "Fortinet",
                "engine_update": "20181211",
                "engine_version": "5.4.247.0",
                "method": "blacklist",
                "result": null
            },
            "GData": {
                "category": "undetected",
                "engine_name": "GData",
                "engine_update": "20181211",
                "engine_version": "A:25.19760B:25.13875",
                "method": "blacklist",
                "result": null
            },
            "Ikarus": {
                "category": "undetected",
                "engine_name": "Ikarus",
                "engine_update": "20181211",
                "engine_version": "0.1.5.2",
                "method": "blacklist",
                "result": null
            },
            "Invincea": {
                "category": "undetected",
                "engine_name": "Invincea",
                "engine_update": "20181128",
                "engine_version": "6.3.6.26157",
                "method": "blacklist",
                "result": null
            },
            "Jiangmin": {
                "category": "malicious",
                "engine_name": "Jiangmin",
                "engine_update": "20181211",
                "engine_version": "16.0.100",
                "method": "blacklist",
                "result": "AdWare.Hpdefender.azq"
            },
            "K7AntiVirus": {
                "category": "undetected",
                "engine_name": "K7AntiVirus",
                "engine_update": "20181211",
                "engine_version": "11.16.29306",
                "method": "blacklist",
                "result": null
            },
            "K7GW": {
                "category": "undetected",
                "engine_name": "K7GW",
                "engine_update": "20181211",
                "engine_version": "11.16.29306",
                "method": "blacklist",
                "result": null
            },
            "Kaspersky": {
                "category": "undetected",
                "engine_name": "Kaspersky",
                "engine_update": "20181211",
                "engine_version": "15.0.1.13",
                "method": "blacklist",
                "result": null
            },
            "Kingsoft": {
                "category": "undetected",
                "engine_name": "Kingsoft",
                "engine_update": "20181211",
                "engine_version": "2013.8.14.323",
                "method": "blacklist",
                "result": null
            },
            "MAX": {
                "category": "undetected",
                "engine_name": "MAX",
                "engine_update": "20181211",
                "engine_version": "2018.9.12.1",
                "method": "blacklist",
                "result": null
            },
            "Malwarebytes": {
                "category": "undetected",
                "engine_name": "Malwarebytes",
                "engine_update": "20181211",
                "engine_version": "2.1.1.1115",
                "method": "blacklist",
                "result": null
            },
            "McAfee": {
                "category": "malicious",
                "engine_name": "McAfee",
                "engine_update": "20181211",
                "engine_version": "6.0.6.653",
                "method": "blacklist",
                "result": "Artemis!6A337D7B7BC2"
            },
            "McAfee-GW-Edition": {
                "category": "malicious",
                "engine_name": "McAfee-GW-Edition",
                "engine_update": "20181210",
                "engine_version": "v2017.3010",
                "method": "blacklist",
                "result": "BehavesLike.Win32.Sality.dh"
            },
            "MicroWorld-eScan": {
                "category": "undetected",
                "engine_name": "MicroWorld-eScan",
                "engine_update": "20181210",
                "engine_version": "14.0.297.0",
                "method": "blacklist",
                "result": null
            },
            "Microsoft": {
                "category": "malicious",
                "engine_name": "Microsoft",
                "engine_update": "20181211",
                "engine_version": "1.1.15500.2",
                "method": "blacklist",
                "result": "Trojan:Win32/Zpevdo.B"
            },
            "NANO-Antivirus": {
                "category": "undetected",
                "engine_name": "NANO-Antivirus",
                "engine_update": "20181210",
                "engine_version": "1.0.134.24299",
                "method": "blacklist",
                "result": null
            },
            "Paloalto": {
                "category": "undetected",
                "engine_name": "Paloalto",
                "engine_update": "20181211",
                "engine_version": "1.0",
                "method": "blacklist",
                "result": null
            },
            "Panda": {
                "category": "undetected",
                "engine_name": "Panda",
                "engine_update": "20181210",
                "engine_version": "4.6.4.2",
                "method": "blacklist",
                "result": null
            },
            "Qihoo-360": {
                "category": "malicious",
                "engine_name": "Qihoo-360",
                "engine_update": "20181211",
                "engine_version": "1.0.0.1120",
                "method": "blacklist",
                "result": "Win32/Trojan.d63"
            },
            "Rising": {
                "category": "malicious",
                "engine_name": "Rising",
                "engine_update": "20181210",
                "engine_version": "25.0.0.24",
                "method": "blacklist",
                "result": "Trojan.Zpevdo!8.F912 (CLOUD)"
            },
            "SUPERAntiSpyware": {
                "category": "undetected",
                "engine_name": "SUPERAntiSpyware",
                "engine_update": "20181205",
                "engine_version": "5.6.0.1032",
                "method": "blacklist",
                "result": null
            },
            "SentinelOne": {
                "category": "malicious",
                "engine_name": "SentinelOne",
                "engine_update": "20181011",
                "engine_version": "1.0.19.245",
                "method": "blacklist",
                "result": "static engine - malicious"
            },
            "Sophos": {
                "category": "undetected",
                "engine_name": "Sophos",
                "engine_update": "20181210",
                "engine_version": "4.98.0",
                "method": "blacklist",
                "result": null
            },
            "Symantec": {
                "category": "malicious",
                "engine_name": "Symantec",
                "engine_update": "20181210",
                "engine_version": "1.8.0.0",
                "method": "blacklist",
                "result": "ML.Attribute.HighConfidence"
            },
            "SymantecMobileInsight": {
                "category": "type-unsupported",
                "engine_name": "SymantecMobileInsight",
                "engine_update": "20181207",
                "engine_version": "2.0",
                "method": "blacklist",
                "result": null
            },
            "TACHYON": {
                "category": "undetected",
                "engine_name": "TACHYON",
                "engine_update": "20181210",
                "engine_version": "2018-12-10.02",
                "method": "blacklist",
                "result": null
            },
            "Tencent": {
                "category": "undetected",
                "engine_name": "Tencent",
                "engine_update": "20181211",
                "engine_version": "1.0.0.1",
                "method": "blacklist",
                "result": null
            },
            "TheHacker": {
                "category": "undetected",
                "engine_name": "TheHacker",
                "engine_update": "20181210",
                "engine_version": "6.8.0.5.3887",
                "method": "blacklist",
                "result": null
            },
            "TotalDefense": {
                "category": "undetected",
                "engine_name": "TotalDefense",
                "engine_update": "20181210",
                "engine_version": "37.1.62.1",
                "method": "blacklist",
                "result": null
            },
            "Trapmine": {
                "category": "malicious",
                "engine_name": "Trapmine",
                "engine_update": "20181205",
                "engine_version": "3.0.29.679",
                "method": "blacklist",
                "result": "malicious.moderate.ml.score"
            },
            "TrendMicro": {
                "category": "undetected",
                "engine_name": "TrendMicro",
                "engine_update": "20181210",
                "engine_version": "10.0.0.1040",
                "method": "blacklist",
                "result": null
            },
            "TrendMicro-HouseCall": {
                "category": "undetected",
                "engine_name": "TrendMicro-HouseCall",
                "engine_update": "20181210",
                "engine_version": "10.0.0.1040",
                "method": "blacklist",
                "result": null
            },
            "VBA32": {
                "category": "undetected",
                "engine_name": "VBA32",
                "engine_update": "20181210",
                "engine_version": "3.34.0",
                "method": "blacklist",
                "result": null
            },
            "VIPRE": {
                "category": "undetected",
                "engine_name": "VIPRE",
                "engine_update": "20181209",
                "engine_version": "71542",
                "method": "blacklist",
                "result": null
            },
            "ViRobot": {
                "category": "undetected",
                "engine_name": "ViRobot",
                "engine_update": "20181210",
                "engine_version": "2014.3.20.0",
                "method": "blacklist",
                "result": null
            },
            "Webroot": {
                "category": "undetected",
                "engine_name": "Webroot",
                "engine_update": "20181211",
                "engine_version": "1.0.0.403",
                "method": "blacklist",
                "result": null
            },
            "Yandex": {
                "category": "undetected",
                "engine_name": "Yandex",
                "engine_update": "20181207",
                "engine_version": "5.5.1.3",
                "method": "blacklist",
                "result": null
            },
            "Zillya": {
                "category": "undetected",
                "engine_name": "Zillya",
                "engine_update": "20181208",
                "engine_version": "2.0.0.3709",
                "method": "blacklist",
                "result": null
            },
            "ZoneAlarm": {
                "category": "undetected",
                "engine_name": "ZoneAlarm",
                "engine_update": "20181210",
                "engine_version": "1.0",
                "method": "blacklist",
                "result": null
            },
            "Zoner": {
                "category": "undetected",
                "engine_name": "Zoner",
                "engine_update": "20181210",
                "engine_version": "1.0",
                "method": "blacklist",
                "result": null
            },
            "eGambit": {
                "category": "undetected",
                "engine_name": "eGambit",
                "engine_update": "20181211",
                "engine_version": "v4.3.5",
                "method": "blacklist",
                "result": null
            }
        },
        "last_analysis_stats": {
            "confirmed-timeout": 0,
            "failure": 0,
            "harmless": 0,
            "malicious": 14,
            "suspicious": 0,
            "timeout": 0,
            "type-unsupported": 1,
            "undetected": 54
        },
        "last_modification_date": 1544500700,
        "last_submission_date": 1544110755,
        "magic": "PE32 executable for MS Windows (GUI) Intel 80386 32-bit",
        "md5": "6a337d7b7bc2f74255ac31deb4a6cbfa",
        "meaningful_name": "notifu.exe",
        "names": [
            "notifu",
            "notifu.exe",
            "NOTIFU.EXE"
        ],
        "pe_info": {
            "entry_point": 93051,
            "imphash": "9f134961fa2495d12e990a00dc40c536",
            "import_list": [
                {
                    "imported_functions": [
                        "VerQueryValueW",
                        "GetFileVersionInfoW",
                        "GetFileVersionInfoSizeW"
                    ],
                    "library_name": "VERSION.dll"
                },
                {
                    "imported_functions": [
                        "ExtractIconExW",
                        "SHGetFileInfoW"
                    ],
                    "library_name": "SHELL32.dll"
                },
                {
                    "imported_functions": [
                        "GetStdHandle",
                        "WaitForSingleObject",
                        "EncodePointer",
                        "GetFileAttributesW",
                        "GetProcessId",
                        "DeleteCriticalSection",
                        "GetCurrentProcess",
                        "GetConsoleMode",
                        "EnumSystemLocalesW",
                        "GetFileInformationByHandle",
                        "InitializeSListHead",
                        "GetLocaleInfoW",
                        "SetStdHandle",
                        "GetCPInfo",
                        "WriteFile",
                        "GetSystemTimeAsFileTime",
                        "HeapReAlloc",
                        "GetStringTypeW",
                        "GetOEMCP",
                        "OutputDebugStringW",
                        "FindClose",
                        "TlsGetValue",
                        "GetFullPathNameW",
                        "SignalObjectAndWait",
                        "SetLastError",
                        "LoadResource",
                        "GetModuleFileNameW",
                        "IsDebuggerPresent",
                        "HeapAlloc",
                        "UnhandledExceptionFilter",
                        "LoadLibraryExW",
                        "MultiByteToWideChar",
                        "SetFilePointerEx",
                        "SetUnhandledExceptionFilter",
                        "IsProcessorFeaturePresent",
                        "DecodePointer",
                        "TerminateProcess",
                        "CreateSemaphoreW",
                        "GetModuleHandleExW",
                        "SetCurrentDirectoryW",
                        "ReadConsoleW",
                        "GetCurrentThreadId",
                        "WriteConsoleW",
                        "InitializeCriticalSectionAndSpinCount",
                        "HeapFree",
                        "EnterCriticalSection",
                        "FreeLibrary",
                        "QueryPerformanceCounter",
                        "GetTickCount",
                        "TlsAlloc",
                        "FlushFileBuffers",
                        "lstrcmpiW",
                        "RtlUnwind",
                        "OpenProcess",
                        "GetStartupInfoW",
                        "SetEvent",
                        "GetUserDefaultLCID",
                        "GetProcessHeap",
                        "CreateFileMappingW",
                        "FreeEnvironmentStringsW",
                        "FindNextFileW",
                        "ResetEvent",
                        "IsValidLocale",
                        "FindFirstFileExW",
                        "GetProcAddress",
                        "CreateEventW",
                        "CreateFileW",
                        "GetFileType",
                        "TlsSetValue",
                        "ExitProcess",
                        "LeaveCriticalSection",
                        "GetLastError",
                        "LCMapStringW",
                        "GetConsoleCP",
                        "GetEnvironmentStringsW",
                        "WaitForSingleObjectEx",
                        "SizeofResource",
                        "GetCurrentDirectoryW",
                        "GetCurrentProcessId",
                        "GetCommandLineW",
                        "WideCharToMultiByte",
                        "HeapSize",
                        "GetCommandLineA",
                        "RaiseException",
                        "ReleaseSemaphore",
                        "MapViewOfFile",
                        "TlsFree",
                        "ReadFile",
                        "CloseHandle",
                        "GetACP",
                        "GetModuleHandleW",
                        "IsValidCodePage",
                        "UnmapViewOfFile",
                        "FindResourceW"
                    ],
                    "library_name": "KERNEL32.dll"
                },
                {
                    "imported_functions": [
                        "VarUI4FromStr"
                    ],
                    "library_name": "OLEAUT32.dll"
                },
                {
                    "imported_functions": [
                        "RegCreateKeyExW",
                        "RegDeleteValueW",
                        "RegCloseKey",
                        "RegSetValueExW",
                        "RegQueryInfoKeyW",
                        "RegEnumKeyExW",
                        "RegOpenKeyExW",
                        "RegOpenKeyW",
                        "RegDeleteKeyW",
                        "RegQueryValueExW"
                    ],
                    "library_name": "ADVAPI32.dll"
                },
                {
                    "imported_functions": [
                        "GetModuleFileNameExW"
                    ],
                    "library_name": "PSAPI.DLL"
                },
                {
                    "imported_functions": [
                        "CoUninitialize",
                        "CoInitialize",
                        "CoTaskMemAlloc",
                        "CoTaskMemRealloc",
                        "CoCreateInstance",
                        "CoTaskMemFree"
                    ],
                    "library_name": "ole32.dll"
                },
                {
                    "imported_functions": [
                        "GetSystemMetrics",
                        "LoadImageW",
                        "DestroyIcon",
                        "LoadIconW",
                        "wsprintfW",
                        "MessageBoxW",
                        "CharNextW"
                    ],
                    "library_name": "USER32.dll"
                }
            ],
            "machine_type": 332,
            "resource_details": [
                {
                    "chi2": 22059.025390625,
                    "entropy": 2.8577167987823486,
                    "filetype": "data",
                    "lang": "ENGLISH US",
                    "sha256": "969e4bee0b099410b3ae9a378c4035c02cf8710c5ca34ee5a1b1f418071cf494",
                    "type": "RT_ICON"
                },
                {
                    "chi2": 48478.6171875,
                    "entropy": 3.748491048812866,
                    "filetype": "data",
                    "lang": "ENGLISH US",
                    "sha256": "7b7eca1356ff15d0c3d6b8bf5e692859f7af5c90b261dd8f9d9f33669d1d8ed2",
                    "type": "RT_ICON"
                },
                {
                    "chi2": 2586.23486328125,
                    "entropy": 2.301987886428833,
                    "filetype": "ASCII text",
                    "lang": "ENGLISH US",
                    "sha256": "102f1598265fd87fd6679941f159d782b750754cf74aa26fade1636e435ce730",
                    "type": "RT_GROUP_ICON"
                },
                {
                    "chi2": 129883.328125,
                    "entropy": 3.4122655391693115,
                    "filetype": "data",
                    "lang": "ENGLISH US",
                    "sha256": "5101a84ba3f8016683f8d5c188a891a676c960f3d80a38d263caaadd215e1c89",
                    "type": "RT_VERSION"
                },
                {
                    "chi2": 4031.47216796875,
                    "entropy": 4.911615371704102,
                    "filetype": "ASCII text",
                    "lang": "ENGLISH US",
                    "sha256": "4bb79dcea0a901f7d9eac5aa05728ae92acb42e0cb22e5dd14134f4421a3d8df",
                    "type": "RT_MANIFEST"
                }
            ],
            "resource_langs": {
                "ENGLISH US": 5
            },
            "resource_types": {
                "RT_GROUP_ICON": 1,
                "RT_ICON": 2,
                "RT_MANIFEST": 1,
                "RT_VERSION": 1
            },
            "sections": [
                {
                    "entropy": 6.61,
                    "md5": "fbe63bdd7a9ac92205e54a2ec4844bd2",
                    "name": ".text",
                    "raw_size": 217600,
                    "virtual_address": 4096,
                    "virtual_size": 217236
                },
                {
                    "entropy": 5.3,
                    "md5": "1772574a5a4a96e1d9f979b83f71998f",
                    "name": ".rdata",
                    "raw_size": 75264,
                    "virtual_address": 225280,
                    "virtual_size": 75174
                },
                {
                    "entropy": 4.02,
                    "md5": "bed06c020160906c8e4211cc0685047b",
                    "name": ".data",
                    "raw_size": 5120,
                    "virtual_address": 303104,
                    "virtual_size": 10160
                },
                {
                    "entropy": 3.42,
                    "md5": "951402ecd5bbfea160bf912f7fa5ad34",
                    "name": ".gfids",
                    "raw_size": 1024,
                    "virtual_address": 315392,
                    "virtual_size": 848
                },
                {
                    "entropy": 0.02,
                    "md5": "1f354d76203061bfdd5a53dae48d5435",
                    "name": ".tls",
                    "raw_size": 512,
                    "virtual_address": 319488,
                    "virtual_size": 9
                },
                {
                    "entropy": 3.97,
                    "md5": "7b275e7c72a7c9816c52e47cd00a9d0a",
                    "name": ".rsrc",
                    "raw_size": 4608,
                    "virtual_address": 323584,
                    "virtual_size": 73728
                }
            ],
            "timestamp": 1484141591
        },
        "reputation": 0,
        "sha1": "912d502e247be2fd0539388082837d216483256b",
        "sha256": "0004dc758d439ce615071fc0d7aae3405392949b8bb116cc169c5ba11d094368",
        "signature_info": {
            "comments": "This free, open source utility lets you display a yellow pop-up balloon in the from the tray, using the same API in Windows itself uses (IUserNotification).",
            "copyright": "http://www.paralint.com/projects/notifu/",
            "description": "Lantern notification",
            "file version": "1.6",
            "internal name": "notifu",
            "original name": "notifu.exe",
            "product": "Notifu"
        },
        "size": 305152,
        "ssdeep": "6144:tjk3mLpofvGZZSMnLYoDaG6V+ZyAOIIg:tjUko0D0e6V+Zy+",
        "tags": [
            "peexe"
        ],
        "times_submitted": 1,
        "total_votes": {
            "harmless": 0,
            "malicious": 0
        },
        "trid": [
            {
                "file_type": "Win64 Executable (generic)",
                "probability": 72.3
            },
            {
                "file_type": "Win32 Executable (generic)",
                "probability": 11.8
            },
            {
                "file_type": "OS/2 Executable (generic)",
                "probability": 5.3
            },
            {
                "file_type": "Generic Win/DOS Executable",
                "probability": 5.2
            },
            {
                "file_type": "DOS Executable Generic",
                "probability": 5.2
            }
        ],
        "type_description": "Win32 EXE",
        "type_extension": "exe",
        "type_tag": "peexe",
        "unique_sources": 1,
        "vhash": "03506e6d5d151d1f10a8z5e7z601013z23z703dz"
    },
    "id": "0004dc758d439ce615071fc0d7aae3405392949b8bb116cc169c5ba11d094368",
    "links": {
        "self": "https://www.virustotal.com/api/v3/files/0004dc758d439ce615071fc0d7aae3405392949b8bb116cc169c5ba11d094368"
    },
    "type": "file"
}