{
    "attributes": {
        "authentihash": "45dc83bd72966855c9039c2cff4341f112c02e98c2bb39cb38ba745692707025",
        "creation_date": 1192457711,
        "first_submission_date": 1286864387,
        "last_analysis_date": 1606914096,
        "last_analysis_results": {
            "ALYac": {
                "category": "malicious",
                "engine_name": "ALYac",
                "engine_update": "20201202",
                "engine_version": "1.1.1.5",
                "method": "blacklist",
                "result": "Trojan.Generic.20952707"
            },
            "APEX": {
                "category": "malicious",
                "engine_name": "APEX",
                "engine_update": "20201201",
                "engine_version": "6.103",
                "method": "blacklist",
                "result": "Malicious"
            },
            "AVG": {
                "category": "malicious",
                "engine_name": "AVG",
                "engine_update": "20201202",
                "engine_version": "20.10.5736.0",
                "method": "blacklist",
                "result": "FileRepMalware"
            },
            "Acronis": {
                "category": "undetected",
                "engine_name": "Acronis",
                "engine_update": "20201023",
                "engine_version": "1.1.1.80",
                "method": "blacklist",
                "result": null
            },
            "Ad-Aware": {
                "category": "malicious",
                "engine_name": "Ad-Aware",
                "engine_update": "20201202",
                "engine_version": "3.0.16.117",
                "method": "blacklist",
                "result": "Trojan.Generic.20952707"
            },
            "AegisLab": {
                "category": "malicious",
                "engine_name": "AegisLab",
                "engine_update": "20201202",
                "engine_version": "4.2",
                "method": "blacklist",
                "result": "Trojan.Win32.Malicious.4!c"
            },
            "AhnLab-V3": {
                "category": "undetected",
                "engine_name": "AhnLab-V3",
                "engine_update": "20201202",
                "engine_version": "3.19.3.10105",
                "method": "blacklist",
                "result": null
            },
            "Alibaba": {
                "category": "malicious",
                "engine_name": "Alibaba",
                "engine_update": "20190527",
                "engine_version": "0.3.0.5",
                "method": "blacklist",
                "result": "Trojan:Win32/Zylom.524f8c51"
            },
            "Antiy-AVL": {
                "category": "undetected",
                "engine_name": "Antiy-AVL",
                "engine_update": "20201202",
                "engine_version": "3.0.0.1",
                "method": "blacklist",
                "result": null
            },
            "Arcabit": {
                "category": "malicious",
                "engine_name": "Arcabit",
                "engine_update": "20201202",
                "engine_version": "1.0.0.881",
                "method": "blacklist",
                "result": "Trojan.Generic.D13FB683"
            },
            "Avast": {
                "category": "undetected",
                "engine_name": "Avast",
                "engine_update": "20201202",
                "engine_version": "20.10.5736.0",
                "method": "blacklist",
                "result": null
            },
            "Avast-Mobile": {
                "category": "type-unsupported",
                "engine_name": "Avast-Mobile",
                "engine_update": "20201202",
                "engine_version": "201202-00",
                "method": "blacklist",
                "result": null
            },
            "Avira": {
                "category": "malicious",
                "engine_name": "Avira",
                "engine_update": "20201202",
                "engine_version": "8.3.3.10",
                "method": "blacklist",
                "result": "GAME/Zylom.Gen5"
            },
            "Baidu": {
                "category": "undetected",
                "engine_name": "Baidu",
                "engine_update": "20190318",
                "engine_version": "1.0.0.2",
                "method": "blacklist",
                "result": null
            },
            "BitDefender": {
                "category": "malicious",
                "engine_name": "BitDefender",
                "engine_update": "20201202",
                "engine_version": "7.2",
                "method": "blacklist",
                "result": "Trojan.Generic.20952707"
            },
            "BitDefenderFalx": {
                "category": "type-unsupported",
                "engine_name": "BitDefenderFalx",
                "engine_update": "20200916",
                "engine_version": "2.0.936",
                "method": "blacklist",
                "result": null
            },
            "BitDefenderTheta": {
                "category": "undetected",
                "engine_name": "BitDefenderTheta",
                "engine_update": "20201202",
                "engine_version": "7.2.37796.0",
                "method": "blacklist",
                "result": null
            },
            "Bkav": {
                "category": "malicious",
                "engine_name": "Bkav",
                "engine_update": "20201202",
                "engine_version": "1.3.0.9899",
                "method": "blacklist",
                "result": "W32.AIDetectVM.malware1"
            },
            "CAT-QuickHeal": {
                "category": "undetected",
                "engine_name": "CAT-QuickHeal",
                "engine_update": "20201202",
                "engine_version": "14.00",
                "method": "blacklist",
                "result": null
            },
            "CMC": {
                "category": "undetected",
                "engine_name": "CMC",
                "engine_update": "20201130",
                "engine_version": "2.7.2019.1",
                "method": "blacklist",
                "result": null
            },
            "ClamAV": {
                "category": "undetected",
                "engine_name": "ClamAV",
                "engine_update": "20201201",
                "engine_version": "0.102.3.0",
                "method": "blacklist",
                "result": null
            },
            "Comodo": {
                "category": "malicious",
                "engine_name": "Comodo",
                "engine_update": "20201202",
                "engine_version": "33042",
                "method": "blacklist",
                "result": "TrojWare.Win32.TrojanDownloader.Agent.A@58avx9"
            },
            "CrowdStrike": {
                "category": "malicious",
                "engine_name": "CrowdStrike",
                "engine_update": "20190702",
                "engine_version": "1.0",
                "method": "blacklist",
                "result": "win/malicious_confidence_80% (W)"
            },
            "Cybereason": {
                "category": "malicious",
                "engine_name": "Cybereason",
                "engine_update": "20190616",
                "engine_version": "1.2.449",
                "method": "blacklist",
                "result": "malicious.3c0273"
            },
            "Cylance": {
                "category": "malicious",
                "engine_name": "Cylance",
                "engine_update": "20201202",
                "engine_version": "2.3.1.101",
                "method": "blacklist",
                "result": "Unsafe"
            },
            "Cynet": {
                "category": "malicious",
                "engine_name": "Cynet",
                "engine_update": "20201202",
                "engine_version": "4.0.0.24",
                "method": "blacklist",
                "result": "Malicious (score: 100)"
            },
            "Cyren": {
                "category": "malicious",
                "engine_name": "Cyren",
                "engine_update": "20201202",
                "engine_version": "6.3.0.2",
                "method": "blacklist",
                "result": "W32/Zylom.A.gen!Eldorado"
            },
            "DrWeb": {
                "category": "malicious",
                "engine_name": "DrWeb",
                "engine_update": "20201202",
                "engine_version": "7.0.49.9080",
                "method": "blacklist",
                "result": "Trojan.DownLoad3.33473"
            },
            "ESET-NOD32": {
                "category": "undetected",
                "engine_name": "ESET-NOD32",
                "engine_update": "20201202",
                "engine_version": "22415",
                "method": "blacklist",
                "result": null
            },
            "Elastic": {
                "category": "malicious",
                "engine_name": "Elastic",
                "engine_update": "20201030",
                "engine_version": "4.0.12",
                "method": "blacklist",
                "result": "malicious (high confidence)"
            },
            "Emsisoft": {
                "category": "malicious",
                "engine_name": "Emsisoft",
                "engine_update": "20201202",
                "engine_version": "2018.12.0.1641",
                "method": "blacklist",
                "result": "Trojan.Generic.20952707 (B)"
            },
            "F-Secure": {
                "category": "undetected",
                "engine_name": "F-Secure",
                "engine_update": "20201202",
                "engine_version": "12.0.86.52",
                "method": "blacklist",
                "result": null
            },
            "FireEye": {
                "category": "malicious",
                "engine_name": "FireEye",
                "engine_update": "20201202",
                "engine_version": "32.36.1.0",
                "method": "blacklist",
                "result": "Generic.mg.8a4e5b63c0273e77"
            },
            "Fortinet": {
                "category": "undetected",
                "engine_name": "Fortinet",
                "engine_update": "20201202",
                "engine_version": "6.2.142.0",
                "method": "blacklist",
                "result": null
            },
            "GData": {
                "category": "malicious",
                "engine_name": "GData",
                "engine_update": "20201202",
                "engine_version": "A:25.27858B:27.21082",
                "method": "blacklist",
                "result": "Trojan.Generic.20952707"
            },
            "Gridinsoft": {
                "category": "malicious",
                "engine_name": "Gridinsoft",
                "engine_update": "20201202",
                "engine_version": "1.0.19.109",
                "method": "blacklist",
                "result": "Trojan.Heur!.02012021"
            },
            "Ikarus": {
                "category": "undetected",
                "engine_name": "Ikarus",
                "engine_update": "20201202",
                "engine_version": "0.1.5.2",
                "method": "blacklist",
                "result": null
            },
            "Jiangmin": {
                "category": "undetected",
                "engine_name": "Jiangmin",
                "engine_update": "20201202",
                "engine_version": "16.0.100",
                "method": "blacklist",
                "result": null
            },
            "K7AntiVirus": {
                "category": "undetected",
                "engine_name": "K7AntiVirus",
                "engine_update": "20201202",
                "engine_version": "11.154.35848",
                "method": "blacklist",
                "result": null
            },
            "K7GW": {
                "category": "malicious",
                "engine_name": "K7GW",
                "engine_update": "20201202",
                "engine_version": "11.154.35850",
                "method": "blacklist",
                "result": "Hacktool ( 700007861 )"
            },
            "Kaspersky": {
                "category": "undetected",
                "engine_name": "Kaspersky",
                "engine_update": "20201202",
                "engine_version": "15.0.1.13",
                "method": "blacklist",
                "result": null
            },
            "Kingsoft": {
                "category": "undetected",
                "engine_name": "Kingsoft",
                "engine_update": "20201202",
                "engine_version": "2017.9.26.565",
                "method": "blacklist",
                "result": null
            },
            "MAX": {
                "category": "malicious",
                "engine_name": "MAX",
                "engine_update": "20201202",
                "engine_version": "2019.9.16.1",
                "method": "blacklist",
                "result": "malware (ai score=88)"
            },
            "Malwarebytes": {
                "category": "malicious",
                "engine_name": "Malwarebytes",
                "engine_update": "20201202",
                "engine_version": "3.6.4.335",
                "method": "blacklist",
                "result": "PUP.Optional.Downloader.ZYL"
            },
            "MaxSecure": {
                "category": "malicious",
                "engine_name": "MaxSecure",
                "engine_update": "20201202",
                "engine_version": "1.0.0.1",
                "method": "blacklist",
                "result": "Downloader.Agent.xcfc"
            },
            "McAfee": {
                "category": "malicious",
                "engine_name": "McAfee",
                "engine_update": "20201202",
                "engine_version": "6.0.6.653",
                "method": "blacklist",
                "result": "Artemis!8A4E5B63C027"
            },
            "McAfee-GW-Edition": {
                "category": "malicious",
                "engine_name": "McAfee-GW-Edition",
                "engine_update": "20201201",
                "engine_version": "v2019.1.2+3728",
                "method": "blacklist",
                "result": "BehavesLike.Win32.Backdoor.gh"
            },
            "MicroWorld-eScan": {
                "category": "malicious",
                "engine_name": "MicroWorld-eScan",
                "engine_update": "20201202",
                "engine_version": "14.0.409.0",
                "method": "blacklist",
                "result": "Trojan.Generic.20952707"
            },
            "Microsoft": {
                "category": "malicious",
                "engine_name": "Microsoft",
                "engine_update": "20201202",
                "engine_version": "1.1.17600.5",
                "method": "blacklist",
                "result": "Program:Win32/Vigram.A"
            },
            "NANO-Antivirus": {
                "category": "malicious",
                "engine_name": "NANO-Antivirus",
                "engine_update": "20201202",
                "engine_version": "1.0.146.25241",
                "method": "blacklist",
                "result": "Trojan.Win32.DownLoad2.cprlvn"
            },
            "Paloalto": {
                "category": "malicious",
                "engine_name": "Paloalto",
                "engine_update": "20201202",
                "engine_version": "1.0",
                "method": "blacklist",
                "result": "generic.ml"
            },
            "Panda": {
                "category": "undetected",
                "engine_name": "Panda",
                "engine_update": "20201201",
                "engine_version": "4.6.4.2",
                "method": "blacklist",
                "result": null
            },
            "Qihoo-360": {
                "category": "undetected",
                "engine_name": "Qihoo-360",
                "engine_update": "20201202",
                "engine_version": "1.0.0.1120",
                "method": "blacklist",
                "result": null
            },
            "Rising": {
                "category": "malicious",
                "engine_name": "Rising",
                "engine_update": "20201202",
                "engine_version": "25.0.0.26",
                "method": "blacklist",
                "result": "Trojan.DL.Zylom!1.68C7 (CLASSIC)"
            },
            "SUPERAntiSpyware": {
                "category": "undetected",
                "engine_name": "SUPERAntiSpyware",
                "engine_update": "20201127",
                "engine_version": "5.6.0.1032",
                "method": "blacklist",
                "result": null
            },
            "Sangfor": {
                "category": "malicious",
                "engine_name": "Sangfor",
                "engine_update": "20201125",
                "engine_version": "1.0",
                "method": "blacklist",
                "result": "Malware"
            },
            "SentinelOne": {
                "category": "malicious",
                "engine_name": "SentinelOne",
                "engine_update": "20201129",
                "engine_version": "4.7.0.15",
                "method": "blacklist",
                "result": "Static AI - Malicious PE"
            },
            "Sophos": {
                "category": "malicious",
                "engine_name": "Sophos",
                "engine_update": "20201202",
                "engine_version": "1.0.2.0",
                "method": "blacklist",
                "result": "ML/PE-A"
            },
            "Symantec": {
                "category": "malicious",
                "engine_name": "Symantec",
                "engine_update": "20201202",
                "engine_version": "1.13.0.0",
                "method": "blacklist",
                "result": "ML.Attribute.HighConfidence"
            },
            "SymantecMobileInsight": {
                "category": "type-unsupported",
                "engine_name": "SymantecMobileInsight",
                "engine_update": "20200813",
                "engine_version": "2.0",
                "method": "blacklist",
                "result": null
            },
            "TACHYON": {
                "category": "undetected",
                "engine_name": "TACHYON",
                "engine_update": "20201202",
                "engine_version": "2020-12-02.02",
                "method": "blacklist",
                "result": null
            },
            "Tencent": {
                "category": "undetected",
                "engine_name": "Tencent",
                "engine_update": "20201202",
                "engine_version": "1.0.0.1",
                "method": "blacklist",
                "result": null
            },
            "TotalDefense": {
                "category": "malicious",
                "engine_name": "TotalDefense",
                "engine_update": "20201202",
                "engine_version": "37.1.62.1",
                "method": "blacklist",
                "result": "Win32/Tnega.IadLMP"
            },
            "Trapmine": {
                "category": "type-unsupported",
                "engine_name": "Trapmine",
                "engine_update": "20200727",
                "engine_version": "3.5.0.1023",
                "method": "blacklist",
                "result": null
            },
            "TrendMicro": {
                "category": "undetected",
                "engine_name": "TrendMicro",
                "engine_update": "20201202",
                "engine_version": "11.0.0.1006",
                "method": "blacklist",
                "result": null
            },
            "TrendMicro-HouseCall": {
                "category": "undetected",
                "engine_name": "TrendMicro-HouseCall",
                "engine_update": "20201202",
                "engine_version": "10.0.0.1040",
                "method": "blacklist",
                "result": null
            },
            "Trustlook": {
                "category": "type-unsupported",
                "engine_name": "Trustlook",
                "engine_update": "20201202",
                "engine_version": "1.0",
                "method": "blacklist",
                "result": null
            },
            "VBA32": {
                "category": "malicious",
                "engine_name": "VBA32",
                "engine_update": "20201202",
                "engine_version": "4.4.1",
                "method": "blacklist",
                "result": "BScope.TrojanDownloader.Agent"
            },
            "VIPRE": {
                "category": "malicious",
                "engine_name": "VIPRE",
                "engine_update": "20201202",
                "engine_version": "88630",
                "method": "blacklist",
                "result": "Trojan-Downloader.Win32.Agent.xcfc (v)"
            },
            "ViRobot": {
                "category": "undetected",
                "engine_name": "ViRobot",
                "engine_update": "20201202",
                "engine_version": "2014.3.20.0",
                "method": "blacklist",
                "result": null
            },
            "Webroot": {
                "category": "malicious",
                "engine_name": "Webroot",
                "engine_update": "20201202",
                "engine_version": "1.0.0.403",
                "method": "blacklist",
                "result": "W32.Malware.gen"
            },
            "Yandex": {
                "category": "malicious",
                "engine_name": "Yandex",
                "engine_update": "20201201",
                "engine_version": "5.5.2.24",
                "method": "blacklist",
                "result": "Trojan.DownLoad!nhzU24zCDaA"
            },
            "Zillya": {
                "category": "undetected",
                "engine_name": "Zillya",
                "engine_update": "20201202",
                "engine_version": "2.0.0.4236",
                "method": "blacklist",
                "result": null
            },
            "ZoneAlarm": {
                "category": "undetected",
                "engine_name": "ZoneAlarm",
                "engine_update": "20201202",
                "engine_version": "1.0",
                "method": "blacklist",
                "result": null
            },
            "Zoner": {
                "category": "undetected",
                "engine_name": "Zoner",
                "engine_update": "20201201",
                "engine_version": "0.0.0.0",
                "method": "blacklist",
                "result": null
            },
            "eGambit": {
                "category": "malicious",
                "engine_name": "eGambit",
                "engine_update": "20201203",
                "engine_version": null,
                "method": "blacklist",
                "result": "Unsafe.AI_Score_100%"
            }
        },
        "last_analysis_stats": {
            "confirmed-timeout": 0,
            "failure": 0,
            "harmless": 0,
            "malicious": 43,
            "suspicious": 0,
            "timeout": 0,
            "type-unsupported": 5,
            "undetected": 28
        },
        "last_modification_date": 1606995475,
        "last_submission_date": 1306010190,
        "magic": "PE32 executable for MS Windows (GUI) Intel 80386 32-bit",
        "md5": "8a4e5b63c0273e773ca6289839ba64d9",
        "meaningful_name": "Zylom Games",
        "names": [
            "Zylom Games"
        ],
        "packers": {
            "PEiD": "Microsoft Visual C++ v7.0"
        },
        "pe_info": {
            "compiler_product_versions": [
                "id: 105, version: 2067 count=1",
                "[ASM] VS2003 (.NET) build 3077 count=27",
                "[ C ] VS2003 (.NET) build 3077 count=148",
                "id: 95, version: 2179 count=9",
                "id: 25, version: 9210 count=2",
                "id: 28, version: 9178 count=1",
                "id: 93, version: 2067 count=2",
                "id: 29, version: 9178 count=1",
                "id: 93, version: 2179 count=19",
                "[---] Unmarked objects count=281",
                "[ C ] VS2002 (.NET) build 9466 count=15",
                "id: 14, version: 7299 count=1",
                "[C++] VS2003 (.NET) build 3077 count=80",
                "[RES] VS2003 (.NET) build 3052 count=1",
                "[LNK] VS2003 (.NET) build 3077 count=1"
            ],
            "entry_point": 243695,
            "imphash": "2b51ecc2f4a5541ad19281550ecd9167",
            "import_list": [
                {
                    "imported_functions": [
                        "GetOpenFileNameA"
                    ],
                    "library_name": "comdlg32.dll"
                },
                {
                    "imported_functions": [
                        "URLDownloadToFileA"
                    ],
                    "library_name": "urlmon.dll"
                },
                {
                    "imported_functions": [
                        "timeGetTime"
                    ],
                    "library_name": "WINMM.dll"
                },
                {
                    "imported_functions": [
                        "HttpSendRequestA",
                        "HttpOpenRequestA",
                        "InternetCloseHandle",
                        "InternetOpenA",
                        "InternetConnectA",
                        "InternetGetConnectedState",
                        "InternetAttemptConnect"
                    ],
                    "library_name": "WININET.dll"
                },
                {
                    "imported_functions": [
                        "GetObjectA",
                        "GetDeviceCaps",
                        "DeleteDC",
                        "SelectObject",
                        "GetStockObject",
                        "CreateSolidBrush",
                        "BitBlt",
                        "CreateCompatibleDC",
                        "DeleteObject",
                        "CreateCompatibleBitmap"
                    ],
                    "library_name": "GDI32.dll"
                },
                {
                    "imported_functions": [
                        "RegDeleteKeyA",
                        "RegCloseKey",
                        "RegSetValueExA",
                        "RegQueryValueExA",
                        "RegOpenKeyExA",
                        "RegDeleteValueA",
                        "RegCreateKeyExA",
                        "RegEnumKeyA",
                        "RegCreateKeyA",
                        "RegEnumKeyExA",
                        "RegQueryInfoKeyA"
                    ],
                    "library_name": "ADVAPI32.dll"
                },
                {
                    "imported_functions": [
                        "GetStdHandle",
                        "GetFileAttributesA",
                        "WaitForSingleObject",
                        "HeapDestroy",
                        "IsValidLocale",
                        "FreeEnvironmentStringsA",
                        "DeleteCriticalSection",
                        "GetCurrentProcess",
                        "GetLocaleInfoA",
                        "FreeEnvironmentStringsW",
                        "GetLocaleInfoW",
                        "SetFileAttributesA",
                        "GetFileTime",
                        "GetTempPathA",
                        "WideCharToMultiByte",
                        "GetStringTypeA",
                        "InterlockedExchange",
                        "WriteFile",
                        "GetSystemTimeAsFileTime",
                        "HeapReAlloc",
                        "GetStringTypeW",
                        "GetFullPathNameA",
                        "SetEvent",
                        "ResumeThread",
                        "InitializeCriticalSection",
                        "LoadResource",
                        "FindClose",
                        "TlsGetValue",
                        "SetLastError",
                        "WriteProcessMemory",
                        "CopyFileA",
                        "ExitProcess",
                        "FlushFileBuffers",
                        "GetModuleFileNameA",
                        "GetVolumeInformationA",
                        "LoadLibraryExA",
                        "GetUserDefaultLCID",
                        "UnhandledExceptionFilter",
                        "InterlockedDecrement",
                        "MultiByteToWideChar",
                        "FlushInstructionCache",
                        "GetModuleHandleA",
                        "CreateThread",
                        "SetUnhandledExceptionFilter",
                        "MulDiv",
                        "SetEnvironmentVariableA",
                        "SetPriorityClass",
                        "TerminateProcess",
                        "GlobalAlloc",
                        "LocalFileTimeToFileTime",
                        "SetEndOfFile",
                        "GetCurrentThreadId",
                        "InterlockedIncrement",
                        "SetCurrentDirectoryA",
                        "HeapFree",
                        "EnterCriticalSection",
                        "SetHandleCount",
                        "lstrcmpiA",
                        "GetExitCodeProcess",
                        "QueryPerformanceCounter",
                        "GetTickCount",
                        "IsBadWritePtr",
                        "TlsAlloc",
                        "VirtualProtect",
                        "GetVersionExA",
                        "LoadLibraryA",
                        "RtlUnwind",
                        "FreeLibrary",
                        "GetStartupInfoA",
                        "GetDateFormatA",
                        "DosDateTimeToFileTime",
                        "GetFileSize",
                        "OpenProcess",
                        "CreateDirectoryA",
                        "DeleteFileA",
                        "ReadProcessMemory",
                        "GlobalLock",
                        "VirtualProtectEx",
                        "GetProcessHeap",
                        "CompareStringW",
                        "lstrcmpA",
                        "FindFirstFileA",
                        "CompareStringA",
                        "GetComputerNameA",
                        "FindNextFileA",
                        "GlobalMemoryStatus",
                        "GetProcAddress",
                        "RemoveDirectoryA",
                        "GetTimeZoneInformation",
                        "CreateEventA",
                        "GetFileType",
                        "TlsSetValue",
                        "CreateFileA",
                        "HeapAlloc",
                        "LeaveCriticalSection",
                        "GetLastError",
                        "SystemTimeToFileTime",
                        "LCMapStringW",
                        "GetSystemInfo",
                        "lstrlenA",
                        "LCMapStringA",
                        "GetThreadLocale",
                        "GetEnvironmentStringsW",
                        "GlobalUnlock",
                        "IsDBCSLeadByte",
                        "VirtualQuery",
                        "lstrlenW",
                        "SizeofResource",
                        "GetCurrentProcessId",
                        "SetFileTime",
                        "GetCPInfo",
                        "HeapSize",
                        "GetCommandLineA",
                        "SuspendThread",
                        "RaiseException",
                        "TlsFree",
                        "SetFilePointer",
                        "ReadFile",
                        "CloseHandle",
                        "lstrcpynA",
                        "GetPriorityClass",
                        "GetACP",
                        "EnumSystemLocalesA",
                        "SetStdHandle",
                        "GetEnvironmentStrings",
                        "CreateProcessA",
                        "IsValidCodePage",
                        "HeapCreate",
                        "VirtualFree",
                        "Sleep",
                        "IsBadReadPtr",
                        "IsBadCodePtr",
                        "FindResourceA",
                        "VirtualAlloc",
                        "GetOEMCP",
                        "GetTimeFormatA"
                    ],
                    "library_name": "KERNEL32.dll"
                },
                {
                    "imported_functions": [
                        "LoadRegTypeLib",
                        "OleCreateFontIndirect",
                        "SysStringLen",
                        "SysStringByteLen",
                        "SysAllocStringLen",
                        "VariantClear",
                        "SysAllocString",
                        "LoadTypeLib",
                        "SysFreeString",
                        "VariantInit",
                        "VarUI4FromStr"
                    ],
                    "library_name": "OLEAUT32.dll"
                },
                {
                    "imported_functions": [
                        "ShellExecuteA",
                        "SHGetSpecialFolderPathA",
                        "ExtractIconExA",
                        "SHFileOperationA"
                    ],
                    "library_name": "SHELL32.dll"
                },
                {
                    "imported_functions": [
                        "CreateStreamOnHGlobal",
                        "OleLockRunning",
                        "CLSIDFromProgID",
                        "OleInitialize",
                        "CLSIDFromString",
                        "CoTaskMemRealloc",
                        "CoCreateInstance",
                        "OleUninitialize",
                        "CoTaskMemFree",
                        "CoGetClassObject",
                        "StringFromGUID2",
                        "CoTaskMemAlloc"
                    ],
                    "library_name": "ole32.dll"
                },
                {
                    "imported_functions": [
                        "SetFocus",
                        "RedrawWindow",
                        "GetForegroundWindow",
                        "GetParent",
                        "UpdateWindow",
                        "PostMessageA",
                        "BeginPaint",
                        "MoveWindow",
                        "KillTimer",
                        "GetClassInfoExA",
                        "WaitForInputIdle",
                        "RegisterWindowMessageA",
                        "DefWindowProcA",
                        "ShowWindow",
                        "wsprintfA",
                        "SetWindowPos",
                        "GetWindowThreadProcessId",
                        "GetSystemMetrics",
                        "IsWindow",
                        "GetWindowRect",
                        "DispatchMessageA",
                        "EndPaint",
                        "SetWindowPlacement",
                        "SetCapture",
                        "ReleaseCapture",
                        "MessageBoxA",
                        "PeekMessageA",
                        "SetWindowLongA",
                        "TranslateMessage",
                        "GetWindow",
                        "GetSysColor",
                        "GetDC",
                        "GetKeyState",
                        "SystemParametersInfoA",
                        "SetWindowTextA",
                        "UnregisterClassA",
                        "IsWindowVisible",
                        "GetWindowPlacement",
                        "SendMessageA",
                        "GetWindowTextA",
                        "GetClientRect",
                        "SetTimer",
                        "GetDlgItem",
                        "SetForegroundWindow",
                        "RegisterClassExA",
                        "InvalidateRect",
                        "GetWindowLongA",
                        "GetWindowTextLengthA",
                        "CreateWindowExA",
                        "LoadCursorA",
                        "FillRect",
                        "EnumThreadWindows",
                        "AttachThreadInput",
                        "CharNextA",
                        "DestroyAcceleratorTable",
                        "GetDesktopWindow",
                        "CallWindowProcA",
                        "GetClassNameA",
                        "GetFocus",
                        "ReleaseDC",
                        "GetMessageA",
                        "InvalidateRgn",
                        "CreateAcceleratorTableA",
                        "IsChild",
                        "DestroyWindow"
                    ],
                    "library_name": "USER32.dll"
                }
            ],
            "machine_type": 332,
            "overlay": {
                "chi2": 35971.796875,
                "entropy": 5.769464015960693,
                "filetype": "Data",
                "md5": "79114dd1dcadecae1ec3ed2d3086f30f",
                "offset": 430080,
                "size": 6199
            },
            "resource_details": [
                {
                    "chi2": 22671.3515625,
                    "entropy": 3.125659465789795,
                    "filetype": "Data",
                    "lang": "NEUTRAL",
                    "sha256": "4db4172d573ca5f714e57b647352368fac3ef03a666497ceef05aeacb456d9e9",
                    "type": "RT_ICON"
                },
                {
                    "chi2": 168030.421875,
                    "entropy": 3.102581739425659,
                    "filetype": "Data",
                    "lang": "NEUTRAL",
                    "sha256": "e625032116f5965e459eb90d0fe7a02e54cf65c28e536a6e4faa3dfd9066d8e2",
                    "type": "RT_ICON"
                },
                {
                    "chi2": 40699.77734375,
                    "entropy": 5.284036636352539,
                    "filetype": "Data",
                    "lang": "NEUTRAL",
                    "sha256": "007f88abc5d933b2e9c4a5931085e9cf6e2e7719f7989f7de507cad55805817a",
                    "type": "RT_ICON"
                },
                {
                    "chi2": 43817.86328125,
                    "entropy": 3.63906192779541,
                    "filetype": "Data",
                    "lang": "NEUTRAL",
                    "sha256": "152134a0ac9490c3a879602d78c4ce0e845665a3a2dbe13b59243c255843d492",
                    "type": "RT_ICON"
                },
                {
                    "chi2": 51258.10546875,
                    "entropy": 5.561079025268555,
                    "filetype": "Data",
                    "lang": "NEUTRAL",
                    "sha256": "5ecbec49134f58dd6a4ae8522d3f490b04a6280cfc0a07ef79226b8b7a15fca3",
                    "type": "RT_ICON"
                },
                {
                    "chi2": 258885.484375,
                    "entropy": 4.233756065368652,
                    "filetype": "Data",
                    "lang": "NEUTRAL",
                    "sha256": "7e4080b05c48d1eef6b9ad9a904032f3cea5c57b09bb287aac17b6e443ca5514",
                    "type": "RT_ICON"
                },
                {
                    "chi2": 109419.7265625,
                    "entropy": 3.3743655681610107,
                    "filetype": "Data",
                    "lang": "NEUTRAL",
                    "sha256": "8cb55c205badd132fe12b84dafb58f72357f2d9df64d57ef4779ec1eb465d25e",
                    "type": "RT_ICON"
                },
                {
                    "chi2": 192608.0,
                    "entropy": 4.757230281829834,
                    "filetype": "Data",
                    "lang": "NEUTRAL",
                    "sha256": "de0acd1e99e9414bcefdcf668cc7ad0ff76ad1690c32d6c2fb6ae83f56ae596e",
                    "type": "RT_ICON"
                },
                {
                    "chi2": 524011.09375,
                    "entropy": 4.546258926391602,
                    "filetype": "Data",
                    "lang": "NEUTRAL",
                    "sha256": "1daa3256166fd2d05ddec2da5cd902226ffb5fab17f351ba9565fea8388d55e2",
                    "type": "RT_ICON"
                },
                {
                    "chi2": 8700.0009765625,
                    "entropy": 2.8909690380096436,
                    "filetype": "Data",
                    "lang": "NEUTRAL",
                    "sha256": "d5f3b5a9baad2206b061f158ddba8b9feb33508f7b1c45fbdc4167b0d749e9fe",
                    "type": "RT_GROUP_ICON"
                },
                {
                    "chi2": 54063.2421875,
                    "entropy": 3.328458786010742,
                    "filetype": "MS Windows COFF PA-RISC object file",
                    "lang": "DUTCH",
                    "sha256": "910239921daf7e4edb120c675889ef4694e247f00e934243591e457ba252b0c7",
                    "type": "RT_VERSION"
                }
            ],
            "resource_langs": {
                "DUTCH": 1,
                "NEUTRAL": 10
            },
            "resource_types": {
                "RT_GROUP_ICON": 1,
                "RT_ICON": 9,
                "RT_VERSION": 1
            },
            "rich_pe_header_hash": "bdfb601a07f62c8735822ddc22bc228e",
            "sections": [
                {
                    "chi2": 1107695.63,
                    "entropy": 7.02,
                    "flags": "rx",
                    "md5": "5c9865e6e1efa0af1599443f92876b2d",
                    "name": ".text",
                    "raw_size": 307200,
                    "virtual_address": 4096,
                    "virtual_size": 305580
                },
                {
                    "chi2": 1720981.75,
                    "entropy": 5.93,
                    "flags": "r",
                    "md5": "4713eff162b567819e95d324782b1d6f",
                    "name": ".rdata",
                    "raw_size": 69632,
                    "virtual_address": 311296,
                    "virtual_size": 66002
                },
                {
                    "chi2": 1530333.25,
                    "entropy": 2.98,
                    "flags": "rw",
                    "md5": "165b44e3e93a1b2fd6b9959aa458dd21",
                    "name": ".data",
                    "raw_size": 12288,
                    "virtual_address": 380928,
                    "virtual_size": 40960
                },
                {
                    "chi2": 1306683.75,
                    "entropy": 4.99,
                    "flags": "r",
                    "md5": "2b095904804b58e3a34251a2d33d7b7e",
                    "name": ".rsrc",
                    "raw_size": 28672,
                    "virtual_address": 421888,
                    "virtual_size": 26496
                },
                {
                    "chi2": 262.56,
                    "entropy": 7.98,
                    "flags": "rw",
                    "md5": "8239810db9079d62674cfef3dd4c1888",
                    "name": ".zylmix",
                    "raw_size": 8192,
                    "virtual_address": 450560,
                    "virtual_size": 8192
                }
            ],
            "timestamp": 1192457711
        },
        "reputation": 0,
        "sha1": "35e988744505ba9685465906936a50c9ff57ef63",
        "sha256": "00041911498a8fc0ef265907f4e1c2cb9e458bb77c0dfdfe7c9fc2f42716bba2",
        "signature_info": {
            "copyright": "Copyright (C) 2004",
            "description": "Zylom Games",
            "file version": "1, 0, 0, 1",
            "internal name": "Zylom Games",
            "original name": "Zylom Games",
            "product": " Zylom Games"
        },
        "size": 436279,
        "ssdeep": "6144:optwxxTxTeI5TKJwL1F9qOCKVBzakE7G/XAxb5vSr31RYDrLhCxU9keoM:dxxU5I1F9qOJVBz+1xbh831RYDrF92M",
        "tags": [
            "peexe",
            "overlay"
        ],
        "times_submitted": 5,
        "tlsh": "T14D94CF03B6D1D83BC65304309F9AABB5A7F6D22159248903B7A84B8DDE707D4E237397",
        "total_votes": {
            "harmless": 0,
            "malicious": 0
        },
        "trid": [
            {
                "file_type": "Win32 Executable MS Visual C++ (generic)",
                "probability": 54.3
            },
            {
                "file_type": "Win16 NE executable (generic)",
                "probability": 12.2
            },
            {
                "file_type": "Win32 Dynamic Link Library (generic)",
                "probability": 11.4
            },
            {
                "file_type": "Win32 Executable (generic)",
                "probability": 7.8
            },
            {
                "file_type": "OS/2 Executable (generic)",
                "probability": 3.5
            }
        ],
        "type_description": "Win32 EXE",
        "type_extension": "exe",
        "type_tag": "peexe",
        "unique_sources": 1,
        "vhash": "045056755d155d70b1z11za00887zc0b5z41z1411z7019z"
    },
    "id": "00041911498a8fc0ef265907f4e1c2cb9e458bb77c0dfdfe7c9fc2f42716bba2",
    "links": {
        "self": "https://www.virustotal.com/api/v3/files/00041911498a8fc0ef265907f4e1c2cb9e458bb77c0dfdfe7c9fc2f42716bba2"
    },
    "type": "file"
}