{
    "attributes": {
        "authentihash": "8525af24196786e79219797c08da678c86571e20d6b673b57a16346cb6464b0f",
        "creation_date": 1499559325,
        "first_submission_date": 1500141478,
        "last_analysis_date": 1500141478,
        "last_analysis_results": {
            "ALYac": {
                "category": "malicious",
                "engine_name": "ALYac",
                "engine_update": "20170715",
                "engine_version": "1.0.1.9",
                "method": "blacklist",
                "result": "Win32.Virlock.Gen.8"
            },
            "AVG": {
                "category": "malicious",
                "engine_name": "AVG",
                "engine_update": "20170715",
                "engine_version": "8.0.1489.320",
                "method": "blacklist",
                "result": "Win32:Cryptor"
            },
            "AVware": {
                "category": "malicious",
                "engine_name": "AVware",
                "engine_update": "20170715",
                "engine_version": "1.5.0.42",
                "method": "blacklist",
                "result": "Virus.Win32.Nabucur.c (v)"
            },
            "Ad-Aware": {
                "category": "malicious",
                "engine_name": "Ad-Aware",
                "engine_update": "20170715",
                "engine_version": "3.0.3.1010",
                "method": "blacklist",
                "result": "Win32.Virlock.Gen.8"
            },
            "AegisLab": {
                "category": "undetected",
                "engine_name": "AegisLab",
                "engine_update": "20170715",
                "engine_version": "4.2",
                "method": "blacklist",
                "result": null
            },
            "AhnLab-V3": {
                "category": "malicious",
                "engine_name": "AhnLab-V3",
                "engine_update": "20170715",
                "engine_version": "3.9.1.17914",
                "method": "blacklist",
                "result": "Win32/Nabucur.D"
            },
            "Alibaba": {
                "category": "type-unsupported",
                "engine_name": "Alibaba",
                "engine_update": "20170714",
                "engine_version": "1.0",
                "method": "blacklist",
                "result": null
            },
            "Antiy-AVL": {
                "category": "malicious",
                "engine_name": "Antiy-AVL",
                "engine_update": "20170715",
                "engine_version": "3.0.0.1",
                "method": "blacklist",
                "result": "Virus/Win32.Virlock.j"
            },
            "Arcabit": {
                "category": "malicious",
                "engine_name": "Arcabit",
                "engine_update": "20170715",
                "engine_version": "1.0.0.817",
                "method": "blacklist",
                "result": "Win32.Virlock.Gen.8"
            },
            "Avast": {
                "category": "malicious",
                "engine_name": "Avast",
                "engine_update": "20170715",
                "engine_version": "8.0.1489.320",
                "method": "blacklist",
                "result": "Win32:Cryptor"
            },
            "Avira": {
                "category": "malicious",
                "engine_name": "Avira",
                "engine_update": "20170715",
                "engine_version": "8.3.3.4",
                "method": "blacklist",
                "result": "TR/Crypt.ZPACK.Gen"
            },
            "Baidu": {
                "category": "malicious",
                "engine_name": "Baidu",
                "engine_update": "20170714",
                "engine_version": "1.0.0.2",
                "method": "blacklist",
                "result": "Win32.Virus.Virlock.b"
            },
            "BitDefender": {
                "category": "malicious",
                "engine_name": "BitDefender",
                "engine_update": "20170715",
                "engine_version": "7.2",
                "method": "blacklist",
                "result": "Win32.Virlock.Gen.8"
            },
            "Bkav": {
                "category": "undetected",
                "engine_name": "Bkav",
                "engine_update": "20170714",
                "engine_version": "1.3.0.9188",
                "method": "blacklist",
                "result": null
            },
            "CAT-QuickHeal": {
                "category": "malicious",
                "engine_name": "CAT-QuickHeal",
                "engine_update": "20170715",
                "engine_version": "14.00",
                "method": "blacklist",
                "result": "Ransom.PolyRansom.F3"
            },
            "CMC": {
                "category": "undetected",
                "engine_name": "CMC",
                "engine_update": "20170714",
                "engine_version": "1.1.0.977",
                "method": "blacklist",
                "result": null
            },
            "ClamAV": {
                "category": "malicious",
                "engine_name": "ClamAV",
                "engine_update": "20170715",
                "engine_version": "0.99.2.0",
                "method": "blacklist",
                "result": "Win.Virus.PolyRansom-5704625-0"
            },
            "Comodo": {
                "category": "malicious",
                "engine_name": "Comodo",
                "engine_update": "20170715",
                "engine_version": "27457",
                "method": "blacklist",
                "result": "Virus.Win32.Virlock.cs"
            },
            "CrowdStrike": {
                "category": "malicious",
                "engine_name": "CrowdStrike",
                "engine_update": "20170710",
                "engine_version": "1.0",
                "method": "blacklist",
                "result": "malicious_confidence_100% (D)"
            },
            "Cylance": {
                "category": "malicious",
                "engine_name": "Cylance",
                "engine_update": "20170715",
                "engine_version": "2.3.1.101",
                "method": "blacklist",
                "result": "Unsafe"
            },
            "Cyren": {
                "category": "malicious",
                "engine_name": "Cyren",
                "engine_update": "20170715",
                "engine_version": "5.4.30.7",
                "method": "blacklist",
                "result": "W32/Nabucur.C.gen!Eldorado"
            },
            "DrWeb": {
                "category": "malicious",
                "engine_name": "DrWeb",
                "engine_update": "20170715",
                "engine_version": "7.0.28.2020",
                "method": "blacklist",
                "result": "Win32.VirLock.16"
            },
            "ESET-NOD32": {
                "category": "malicious",
                "engine_name": "ESET-NOD32",
                "engine_update": "20170715",
                "engine_version": "15751",
                "method": "blacklist",
                "result": "a variant of Win32/Virlock.J"
            },
            "Emsisoft": {
                "category": "malicious",
                "engine_name": "Emsisoft",
                "engine_update": "20170715",
                "engine_version": "4.0.1.883",
                "method": "blacklist",
                "result": "Win32.Virlock.Gen.8 (B)"
            },
            "Endgame": {
                "category": "malicious",
                "engine_name": "Endgame",
                "engine_update": "20170713",
                "engine_version": "0.7.5",
                "method": "blacklist",
                "result": "malicious (high confidence)"
            },
            "F-Prot": {
                "category": "malicious",
                "engine_name": "F-Prot",
                "engine_update": "20170715",
                "engine_version": "4.7.1.166",
                "method": "blacklist",
                "result": "W32/Nabucur.C.gen!Eldorado"
            },
            "F-Secure": {
                "category": "malicious",
                "engine_name": "F-Secure",
                "engine_update": "20170715",
                "engine_version": "11.0.19100.45",
                "method": "blacklist",
                "result": "Win32.Virlock.Gen.8"
            },
            "Fortinet": {
                "category": "malicious",
                "engine_name": "Fortinet",
                "engine_update": "20170629",
                "engine_version": "5.4.247.0",
                "method": "blacklist",
                "result": "W32/Virlock.J"
            },
            "GData": {
                "category": "malicious",
                "engine_name": "GData",
                "engine_update": "20170715",
                "engine_version": "A:25.13385B:25.10005",
                "method": "blacklist",
                "result": "Win32.Virlock.Gen.8"
            },
            "Ikarus": {
                "category": "malicious",
                "engine_name": "Ikarus",
                "engine_update": "20170715",
                "engine_version": "0.1.5.2",
                "method": "blacklist",
                "result": "Virus.Win32.Virlock"
            },
            "Invincea": {
                "category": "malicious",
                "engine_name": "Invincea",
                "engine_update": "20170607",
                "engine_version": "6.3.0.25415",
                "method": "blacklist",
                "result": "heuristic"
            },
            "Jiangmin": {
                "category": "undetected",
                "engine_name": "Jiangmin",
                "engine_update": "20170715",
                "engine_version": "16.0.100",
                "method": "blacklist",
                "result": null
            },
            "K7AntiVirus": {
                "category": "malicious",
                "engine_name": "K7AntiVirus",
                "engine_update": "20170714",
                "engine_version": "10.18.23988",
                "method": "blacklist",
                "result": "Trojan ( 004d48ee1 )"
            },
            "K7GW": {
                "category": "malicious",
                "engine_name": "K7GW",
                "engine_update": "20170715",
                "engine_version": "10.18.23991",
                "method": "blacklist",
                "result": "Trojan ( 004d48ee1 )"
            },
            "Kaspersky": {
                "category": "malicious",
                "engine_name": "Kaspersky",
                "engine_update": "20170715",
                "engine_version": "15.0.1.13",
                "method": "blacklist",
                "result": "Virus.Win32.PolyRansom.k"
            },
            "Kingsoft": {
                "category": "undetected",
                "engine_name": "Kingsoft",
                "engine_update": "20170715",
                "engine_version": "2013.8.14.323",
                "method": "blacklist",
                "result": null
            },
            "MAX": {
                "category": "malicious",
                "engine_name": "MAX",
                "engine_update": "20170715",
                "engine_version": "2017.6.26.1",
                "method": "blacklist",
                "result": "malware (ai score=86)"
            },
            "Malwarebytes": {
                "category": "undetected",
                "engine_name": "Malwarebytes",
                "engine_update": "20170715",
                "engine_version": "2.1.1.1115",
                "method": "blacklist",
                "result": null
            },
            "McAfee": {
                "category": "malicious",
                "engine_name": "McAfee",
                "engine_update": "20170715",
                "engine_version": "6.0.6.653",
                "method": "blacklist",
                "result": "W32/VirRansom.c!09AD96E8CA83"
            },
            "McAfee-GW-Edition": {
                "category": "malicious",
                "engine_name": "McAfee-GW-Edition",
                "engine_update": "20170715",
                "engine_version": "v2015",
                "method": "blacklist",
                "result": "BehavesLike.Win32.VirRansom.th"
            },
            "MicroWorld-eScan": {
                "category": "malicious",
                "engine_name": "MicroWorld-eScan",
                "engine_update": "20170715",
                "engine_version": "12.0.250.0",
                "method": "blacklist",
                "result": "Win32.Virlock.Gen.8"
            },
            "Microsoft": {
                "category": "malicious",
                "engine_name": "Microsoft",
                "engine_update": "20170715",
                "engine_version": "1.1.13903.0",
                "method": "blacklist",
                "result": "Virus:Win32/Nabucur.D"
            },
            "NANO-Antivirus": {
                "category": "malicious",
                "engine_name": "NANO-Antivirus",
                "engine_update": "20170715",
                "engine_version": "1.0.76.17587",
                "method": "blacklist",
                "result": "Virus.Win32.Virlock.ejooci"
            },
            "Paloalto": {
                "category": "undetected",
                "engine_name": "Paloalto",
                "engine_update": "20170715",
                "engine_version": "1.0",
                "method": "blacklist",
                "result": null
            },
            "Panda": {
                "category": "malicious",
                "engine_name": "Panda",
                "engine_update": "20170715",
                "engine_version": "4.6.4.2",
                "method": "blacklist",
                "result": "Trj/Genetic.gen"
            },
            "Qihoo-360": {
                "category": "malicious",
                "engine_name": "Qihoo-360",
                "engine_update": "20170715",
                "engine_version": "1.0.0.1120",
                "method": "blacklist",
                "result": "HEUR/QVM20.1.810C.Malware.Gen"
            },
            "Rising": {
                "category": "malicious",
                "engine_name": "Rising",
                "engine_update": "20170715",
                "engine_version": "25.0.0.1",
                "method": "blacklist",
                "result": "Virus.VirLock@EP!1.A247 (classic)"
            },
            "SUPERAntiSpyware": {
                "category": "undetected",
                "engine_name": "SUPERAntiSpyware",
                "engine_update": "20170715",
                "engine_version": "5.6.0.1032",
                "method": "blacklist",
                "result": null
            },
            "SentinelOne": {
                "category": "malicious",
                "engine_name": "SentinelOne",
                "engine_update": "20170516",
                "engine_version": "1.0.0.12",
                "method": "blacklist",
                "result": "static engine - malicious"
            },
            "Sophos": {
                "category": "malicious",
                "engine_name": "Sophos",
                "engine_update": "20170715",
                "engine_version": "4.98.0",
                "method": "blacklist",
                "result": "W32/VirRnsm-F"
            },
            "Symantec": {
                "category": "malicious",
                "engine_name": "Symantec",
                "engine_update": "20170714",
                "engine_version": "1.4.0.0",
                "method": "blacklist",
                "result": "W32.Virlock!gen7"
            },
            "SymantecMobileInsight": {
                "category": "type-unsupported",
                "engine_name": "SymantecMobileInsight",
                "engine_update": "20170713",
                "engine_version": "1.0.0.35_220",
                "method": "blacklist",
                "result": null
            },
            "Tencent": {
                "category": "undetected",
                "engine_name": "Tencent",
                "engine_update": "20170715",
                "engine_version": "1.0.0.1",
                "method": "blacklist",
                "result": null
            },
            "TheHacker": {
                "category": "undetected",
                "engine_name": "TheHacker",
                "engine_update": "20170712",
                "engine_version": "6.8.0.5.1724",
                "method": "blacklist",
                "result": null
            },
            "TotalDefense": {
                "category": "undetected",
                "engine_name": "TotalDefense",
                "engine_update": "20170715",
                "engine_version": "37.1.62.1",
                "method": "blacklist",
                "result": null
            },
            "TrendMicro": {
                "category": "malicious",
                "engine_name": "TrendMicro",
                "engine_update": "20170715",
                "engine_version": "9.862.0.1074",
                "method": "blacklist",
                "result": "PE_VIRLOCK.K-O"
            },
            "TrendMicro-HouseCall": {
                "category": "malicious",
                "engine_name": "TrendMicro-HouseCall",
                "engine_update": "20170715",
                "engine_version": "9.950.0.1006",
                "method": "blacklist",
                "result": "PE_VIRLOCK.K-O"
            },
            "Trustlook": {
                "category": "type-unsupported",
                "engine_name": "Trustlook",
                "engine_update": "20170715",
                "engine_version": "2",
                "method": "blacklist",
                "result": null
            },
            "VBA32": {
                "category": "malicious",
                "engine_name": "VBA32",
                "engine_update": "20170714",
                "engine_version": "3.12.26.4",
                "method": "blacklist",
                "result": "Virus.PolyRansom.k"
            },
            "VIPRE": {
                "category": "malicious",
                "engine_name": "VIPRE",
                "engine_update": "20170715",
                "engine_version": "59554",
                "method": "blacklist",
                "result": "Virus.Win32.Nabucur.c (v)"
            },
            "ViRobot": {
                "category": "malicious",
                "engine_name": "ViRobot",
                "engine_update": "20170715",
                "engine_version": "2014.3.20.0",
                "method": "blacklist",
                "result": "Trojan.Win32.Virlock.Gen.A"
            },
            "Webroot": {
                "category": "malicious",
                "engine_name": "Webroot",
                "engine_update": "20170715",
                "engine_version": "1.0.0.207",
                "method": "blacklist",
                "result": "W32.Trojan.Gen"
            },
            "WhiteArmor": {
                "category": "type-unsupported",
                "engine_name": "WhiteArmor",
                "engine_update": "20170713",
                "engine_version": "9101276",
                "method": "blacklist",
                "result": null
            },
            "Yandex": {
                "category": "undetected",
                "engine_name": "Yandex",
                "engine_update": "20170714",
                "engine_version": "5.5.1.3",
                "method": "blacklist",
                "result": null
            },
            "Zillya": {
                "category": "malicious",
                "engine_name": "Zillya",
                "engine_update": "20170714",
                "engine_version": "2.0.0.3336",
                "method": "blacklist",
                "result": "Virus.Virlock.Win32.6"
            },
            "ZoneAlarm": {
                "category": "malicious",
                "engine_name": "ZoneAlarm",
                "engine_update": "20170715",
                "engine_version": "1.0",
                "method": "blacklist",
                "result": "Virus.Win32.PolyRansom.k"
            },
            "Zoner": {
                "category": "undetected",
                "engine_name": "Zoner",
                "engine_update": "20170715",
                "engine_version": "1.0",
                "method": "blacklist",
                "result": null
            },
            "nProtect": {
                "category": "undetected",
                "engine_name": "nProtect",
                "engine_update": "20170715",
                "engine_version": "2017-07-15.02",
                "method": "blacklist",
                "result": null
            }
        },
        "last_analysis_stats": {
            "confirmed-timeout": 0,
            "failure": 0,
            "harmless": 0,
            "malicious": 50,
            "suspicious": 0,
            "timeout": 0,
            "type-unsupported": 4,
            "undetected": 14
        },
        "last_modification_date": 1500141638,
        "last_submission_date": 1500141478,
        "magic": "PE32 executable for MS Windows (GUI) Intel 80386 32-bit",
        "md5": "09ad96e8ca8360067c2c6377a8d6338b",
        "names": [
            "09ad96e8ca8360067c2c6377a8d6338b"
        ],
        "pe_info": {
            "entry_point": 4096,
            "imphash": "957dcc108d64577e3c64868667c2aeec",
            "import_list": [
                {
                    "imported_functions": [
                        "GetSystemDefaultLangID",
                        "VirtualAlloc",
                        "GetThreadLocale"
                    ],
                    "library_name": "kernel32.dll"
                },
                {
                    "imported_functions": [
                        "GetClipboardOwner"
                    ],
                    "library_name": "user32.dll"
                }
            ],
            "machine_type": 332,
            "sections": [
                {
                    "entropy": 7.11,
                    "md5": "6d1719c17426e243ebab3e1730cae307",
                    "name": ".text",
                    "raw_size": 684032,
                    "virtual_address": 4096,
                    "virtual_size": 684032
                },
                {
                    "entropy": 0.25,
                    "md5": "d57b3a266a2375ef86d16b127074d7d1",
                    "name": ".rdata",
                    "raw_size": 10240,
                    "virtual_address": 688128,
                    "virtual_size": 8192
                },
                {
                    "entropy": 5.86,
                    "md5": "db2fad8c2a849fd5869118d439f7ef22",
                    "name": ".data",
                    "raw_size": 1339392,
                    "virtual_address": 696320,
                    "virtual_size": 1339392
                }
            ],
            "timestamp": 1499559325
        },
        "reputation": 0,
        "sha1": "ff8f963d4dd9ee86c9c98f9e203bc14ebbeb722f",
        "sha256": "000442f30f52b23ca917b2bc800d0f961bbcb99d74bfc66afef23683e8db1f57",
        "size": 2034688,
        "ssdeep": "24576:KylwmdBZY2lssTpR8mE0K3+IknQdeooZDcORqUSbtDQiUC8hIgUgKHIo:g+BZB3y3WTlsBUAv",
        "tags": [
            "peexe"
        ],
        "times_submitted": 1,
        "total_votes": {
            "harmless": 0,
            "malicious": 0
        },
        "trid": [
            {
                "file_type": "Win64 Executable (generic)",
                "probability": 64.6
            },
            {
                "file_type": "Win32 Dynamic Link Library (generic)",
                "probability": 15.4
            },
            {
                "file_type": "Win32 Executable (generic)",
                "probability": 10.5
            },
            {
                "file_type": "Generic Win/DOS Executable",
                "probability": 4.6
            },
            {
                "file_type": "DOS Executable Generic",
                "probability": 4.6
            }
        ],
        "type_description": "Win32 EXE",
        "type_extension": "exe",
        "type_tag": "peexe",
        "unique_sources": 1,
        "vhash": "026036751d5bz3nz1fz"
    },
    "id": "000442f30f52b23ca917b2bc800d0f961bbcb99d74bfc66afef23683e8db1f57",
    "links": {
        "self": "https://www.virustotal.com/api/v3/files/000442f30f52b23ca917b2bc800d0f961bbcb99d74bfc66afef23683e8db1f57"
    },
    "type": "file"
}