{
    "attributes": {
        "authentihash": "22e62d4fe88c4b82cc19b11ca8691a44e73708f8987dc517a39ee295f4af2848",
        "creation_date": 1347010494,
        "first_submission_date": 1525452684,
        "last_analysis_date": 1525452684,
        "last_analysis_results": {
            "ALYac": {
                "category": "malicious",
                "engine_name": "ALYac",
                "engine_update": "20180504",
                "engine_version": "1.1.1.5",
                "method": "blacklist",
                "result": "Win32.Floxif.A"
            },
            "AVG": {
                "category": "malicious",
                "engine_name": "AVG",
                "engine_update": "20180504",
                "engine_version": "18.3.3860.0",
                "method": "blacklist",
                "result": "Win32:FloxLib-A [Trj]"
            },
            "AVware": {
                "category": "malicious",
                "engine_name": "AVware",
                "engine_update": "20180428",
                "engine_version": "1.5.0.42",
                "method": "blacklist",
                "result": "Virus.Win32.Floxif.a (v)"
            },
            "Ad-Aware": {
                "category": "malicious",
                "engine_name": "Ad-Aware",
                "engine_update": "20180504",
                "engine_version": "3.0.5.370",
                "method": "blacklist",
                "result": "Win32.Floxif.A"
            },
            "AegisLab": {
                "category": "undetected",
                "engine_name": "AegisLab",
                "engine_update": "20180504",
                "engine_version": "4.2",
                "method": "blacklist",
                "result": null
            },
            "AhnLab-V3": {
                "category": "malicious",
                "engine_name": "AhnLab-V3",
                "engine_update": "20180504",
                "engine_version": "3.12.1.20782",
                "method": "blacklist",
                "result": "Win32/Fixflo"
            },
            "Alibaba": {
                "category": "type-unsupported",
                "engine_name": "Alibaba",
                "engine_update": "20180503",
                "engine_version": "1.0",
                "method": "blacklist",
                "result": null
            },
            "Antiy-AVL": {
                "category": "malicious",
                "engine_name": "Antiy-AVL",
                "engine_update": "20180504",
                "engine_version": "3.0.0.1",
                "method": "blacklist",
                "result": "Virus/Win32.Pioneer.cz"
            },
            "Arcabit": {
                "category": "undetected",
                "engine_name": "Arcabit",
                "engine_update": "20180504",
                "engine_version": "1.0.0.831",
                "method": "blacklist",
                "result": null
            },
            "Avast": {
                "category": "malicious",
                "engine_name": "Avast",
                "engine_update": "20180504",
                "engine_version": "18.3.3860.0",
                "method": "blacklist",
                "result": "Win32:FloxLib-A [Trj]"
            },
            "Avast-Mobile": {
                "category": "undetected",
                "engine_name": "Avast-Mobile",
                "engine_update": "20180504",
                "engine_version": "180504-02",
                "method": "blacklist",
                "result": null
            },
            "Avira": {
                "category": "malicious",
                "engine_name": "Avira",
                "engine_update": "20180504",
                "engine_version": "8.3.3.6",
                "method": "blacklist",
                "result": "W32/Floxif.hdc"
            },
            "Babable": {
                "category": "undetected",
                "engine_name": "Babable",
                "engine_update": "20180406",
                "engine_version": "9107201",
                "method": "blacklist",
                "result": null
            },
            "BitDefender": {
                "category": "undetected",
                "engine_name": "BitDefender",
                "engine_update": "20180504",
                "engine_version": "7.2",
                "method": "blacklist",
                "result": null
            },
            "Bkav": {
                "category": "malicious",
                "engine_name": "Bkav",
                "engine_update": "20180504",
                "engine_version": "1.3.0.9466",
                "method": "blacklist",
                "result": "W32.FloxitNV.PE"
            },
            "CAT-QuickHeal": {
                "category": "malicious",
                "engine_name": "CAT-QuickHeal",
                "engine_update": "20180504",
                "engine_version": "14.00",
                "method": "blacklist",
                "result": "W32.Pioneer.CZ1"
            },
            "CMC": {
                "category": "undetected",
                "engine_name": "CMC",
                "engine_update": "20180504",
                "engine_version": "1.1.0.977",
                "method": "blacklist",
                "result": null
            },
            "ClamAV": {
                "category": "undetected",
                "engine_name": "ClamAV",
                "engine_update": "20180504",
                "engine_version": "0.99.2.0",
                "method": "blacklist",
                "result": null
            },
            "Comodo": {
                "category": "malicious",
                "engine_name": "Comodo",
                "engine_update": "20180504",
                "engine_version": "28956",
                "method": "blacklist",
                "result": "Virus.Win32.Floxif.A"
            },
            "CrowdStrike": {
                "category": "malicious",
                "engine_name": "CrowdStrike",
                "engine_update": "20180418",
                "engine_version": "1.0",
                "method": "blacklist",
                "result": "malicious_confidence_100% (D)"
            },
            "Cybereason": {
                "category": "type-unsupported",
                "engine_name": "Cybereason",
                "engine_update": null,
                "engine_version": null,
                "method": "blacklist",
                "result": null
            },
            "Cylance": {
                "category": "malicious",
                "engine_name": "Cylance",
                "engine_update": "20180504",
                "engine_version": "2.3.1.101",
                "method": "blacklist",
                "result": "Unsafe"
            },
            "Cyren": {
                "category": "malicious",
                "engine_name": "Cyren",
                "engine_update": "20180504",
                "engine_version": "6.0.0.4",
                "method": "blacklist",
                "result": "W32/Floxif.B"
            },
            "DrWeb": {
                "category": "malicious",
                "engine_name": "DrWeb",
                "engine_update": "20180504",
                "engine_version": "7.0.28.2020",
                "method": "blacklist",
                "result": "Win32.FloodFix.7"
            },
            "ESET-NOD32": {
                "category": "malicious",
                "engine_name": "ESET-NOD32",
                "engine_update": "20180504",
                "engine_version": "17331",
                "method": "blacklist",
                "result": "Win32/Floxif.H"
            },
            "Emsisoft": {
                "category": "malicious",
                "engine_name": "Emsisoft",
                "engine_update": "20180504",
                "engine_version": "4.0.2.899",
                "method": "blacklist",
                "result": "Win32.Floxif.A (B)"
            },
            "Endgame": {
                "category": "malicious",
                "engine_name": "Endgame",
                "engine_update": "20180503",
                "engine_version": "2.1.1",
                "method": "blacklist",
                "result": "malicious (high confidence)"
            },
            "F-Prot": {
                "category": "malicious",
                "engine_name": "F-Prot",
                "engine_update": "20180504",
                "engine_version": "4.7.1.166",
                "method": "blacklist",
                "result": "W32/Floxif.B"
            },
            "F-Secure": {
                "category": "malicious",
                "engine_name": "F-Secure",
                "engine_update": "20180504",
                "engine_version": "11.0.19100.45",
                "method": "blacklist",
                "result": "Win32.Floxif.A"
            },
            "Fortinet": {
                "category": "malicious",
                "engine_name": "Fortinet",
                "engine_update": "20180504",
                "engine_version": "5.4.247.0",
                "method": "blacklist",
                "result": "W32/Pioneer.CZ!tr"
            },
            "GData": {
                "category": "undetected",
                "engine_name": "GData",
                "engine_update": "20180504",
                "engine_version": "A:25.16932B:25.12183",
                "method": "blacklist",
                "result": null
            },
            "Ikarus": {
                "category": "malicious",
                "engine_name": "Ikarus",
                "engine_update": "20180504",
                "engine_version": "0.1.5.2",
                "method": "blacklist",
                "result": "Virus.Win32.Floxif.A"
            },
            "Invincea": {
                "category": "malicious",
                "engine_name": "Invincea",
                "engine_update": "20180503",
                "engine_version": "6.3.4.26036",
                "method": "blacklist",
                "result": "heuristic"
            },
            "Jiangmin": {
                "category": "malicious",
                "engine_name": "Jiangmin",
                "engine_update": "20180504",
                "engine_version": "16.0.100",
                "method": "blacklist",
                "result": "Win32/Pioneer.l"
            },
            "K7AntiVirus": {
                "category": "malicious",
                "engine_name": "K7AntiVirus",
                "engine_update": "20180504",
                "engine_version": "10.45.27041",
                "method": "blacklist",
                "result": "Virus ( 00521e9a1 )"
            },
            "K7GW": {
                "category": "malicious",
                "engine_name": "K7GW",
                "engine_update": "20180504",
                "engine_version": "10.45.27042",
                "method": "blacklist",
                "result": "Virus ( 00521e9a1 )"
            },
            "Kaspersky": {
                "category": "malicious",
                "engine_name": "Kaspersky",
                "engine_update": "20180504",
                "engine_version": "15.0.1.13",
                "method": "blacklist",
                "result": "Virus.Win32.Pioneer.cz"
            },
            "Kingsoft": {
                "category": "undetected",
                "engine_name": "Kingsoft",
                "engine_update": "20180504",
                "engine_version": "2013.8.14.323",
                "method": "blacklist",
                "result": null
            },
            "MAX": {
                "category": "malicious",
                "engine_name": "MAX",
                "engine_update": "20180504",
                "engine_version": "2017.11.15.1",
                "method": "blacklist",
                "result": "malware (ai score=80)"
            },
            "Malwarebytes": {
                "category": "undetected",
                "engine_name": "Malwarebytes",
                "engine_update": "20180504",
                "engine_version": "2.1.1.1115",
                "method": "blacklist",
                "result": null
            },
            "McAfee": {
                "category": "malicious",
                "engine_name": "McAfee",
                "engine_update": "20180504",
                "engine_version": "6.0.6.653",
                "method": "blacklist",
                "result": "Dropper-FIY!08D3BA4AD82E"
            },
            "McAfee-GW-Edition": {
                "category": "malicious",
                "engine_name": "McAfee-GW-Edition",
                "engine_update": "20180504",
                "engine_version": "v2017.2786",
                "method": "blacklist",
                "result": "Dropper-FIY!08D3BA4AD82E"
            },
            "MicroWorld-eScan": {
                "category": "malicious",
                "engine_name": "MicroWorld-eScan",
                "engine_update": "20180504",
                "engine_version": "14.0.297.0",
                "method": "blacklist",
                "result": "Win32.Floxif.A"
            },
            "Microsoft": {
                "category": "malicious",
                "engine_name": "Microsoft",
                "engine_update": "20180504",
                "engine_version": "1.1.14800.3",
                "method": "blacklist",
                "result": "Virus:Win32/Floxif.H"
            },
            "NANO-Antivirus": {
                "category": "malicious",
                "engine_name": "NANO-Antivirus",
                "engine_update": "20180504",
                "engine_version": "1.0.106.22618",
                "method": "blacklist",
                "result": "Virus.Win32.Pioneer.bvrqhu"
            },
            "Paloalto": {
                "category": "undetected",
                "engine_name": "Paloalto",
                "engine_update": "20180504",
                "engine_version": "1.0",
                "method": "blacklist",
                "result": null
            },
            "Panda": {
                "category": "malicious",
                "engine_name": "Panda",
                "engine_update": "20180504",
                "engine_version": "4.6.4.2",
                "method": "blacklist",
                "result": "W32/Floxif.A"
            },
            "Qihoo-360": {
                "category": "malicious",
                "engine_name": "Qihoo-360",
                "engine_update": "20180504",
                "engine_version": "1.0.0.1120",
                "method": "blacklist",
                "result": "Virus.Win32.Pioneer.C"
            },
            "Rising": {
                "category": "malicious",
                "engine_name": "Rising",
                "engine_update": "20180504",
                "engine_version": "25.0.0.1",
                "method": "blacklist",
                "result": "Virus.Floxif!1.9BE6 (CLASSIC)"
            },
            "SUPERAntiSpyware": {
                "category": "undetected",
                "engine_name": "SUPERAntiSpyware",
                "engine_update": "20180504",
                "engine_version": "5.6.0.1032",
                "method": "blacklist",
                "result": null
            },
            "SentinelOne": {
                "category": "undetected",
                "engine_name": "SentinelOne",
                "engine_update": "20180225",
                "engine_version": "1.0.15.206",
                "method": "blacklist",
                "result": null
            },
            "Sophos": {
                "category": "malicious",
                "engine_name": "Sophos",
                "engine_update": "20180504",
                "engine_version": "4.98.0",
                "method": "blacklist",
                "result": "W32/Floxif-C"
            },
            "Symantec": {
                "category": "malicious",
                "engine_name": "Symantec",
                "engine_update": "20180504",
                "engine_version": "1.5.0.0",
                "method": "blacklist",
                "result": "W32.Fixflo.B!inf"
            },
            "SymantecMobileInsight": {
                "category": "type-unsupported",
                "engine_name": "SymantecMobileInsight",
                "engine_update": "20180430",
                "engine_version": "1.0.0.35_220",
                "method": "blacklist",
                "result": null
            },
            "Tencent": {
                "category": "malicious",
                "engine_name": "Tencent",
                "engine_update": "20180504",
                "engine_version": "1.0.0.1",
                "method": "blacklist",
                "result": "Virus.Win32.Pionner.tt"
            },
            "TheHacker": {
                "category": "undetected",
                "engine_name": "TheHacker",
                "engine_update": "20180503",
                "engine_version": "6.8.0.5.2767",
                "method": "blacklist",
                "result": null
            },
            "TotalDefense": {
                "category": "malicious",
                "engine_name": "TotalDefense",
                "engine_update": "20180503",
                "engine_version": "37.1.62.1",
                "method": "blacklist",
                "result": "Win32/Flofix.D"
            },
            "TrendMicro": {
                "category": "malicious",
                "engine_name": "TrendMicro",
                "engine_update": "20180504",
                "engine_version": "10.0.0.1040",
                "method": "blacklist",
                "result": "PE_FLOXIF.D"
            },
            "TrendMicro-HouseCall": {
                "category": "malicious",
                "engine_name": "TrendMicro-HouseCall",
                "engine_update": "20180504",
                "engine_version": "9.950.0.1006",
                "method": "blacklist",
                "result": "PE_FLOXIF.D"
            },
            "Trustlook": {
                "category": "type-unsupported",
                "engine_name": "Trustlook",
                "engine_update": "20180504",
                "engine_version": "2",
                "method": "blacklist",
                "result": null
            },
            "VBA32": {
                "category": "malicious",
                "engine_name": "VBA32",
                "engine_update": "20180504",
                "engine_version": "3.12.28.0",
                "method": "blacklist",
                "result": "Trojan.Sly"
            },
            "VIPRE": {
                "category": "malicious",
                "engine_name": "VIPRE",
                "engine_update": "20180504",
                "engine_version": "66434",
                "method": "blacklist",
                "result": "Virus.Win32.Floxif.a (v)"
            },
            "ViRobot": {
                "category": "undetected",
                "engine_name": "ViRobot",
                "engine_update": "20180504",
                "engine_version": "2014.3.20.0",
                "method": "blacklist",
                "result": null
            },
            "Webroot": {
                "category": "undetected",
                "engine_name": "Webroot",
                "engine_update": "20180504",
                "engine_version": "1.0.0.403",
                "method": "blacklist",
                "result": null
            },
            "Yandex": {
                "category": "undetected",
                "engine_name": "Yandex",
                "engine_update": "20180504",
                "engine_version": "5.5.1.3",
                "method": "blacklist",
                "result": null
            },
            "ZoneAlarm": {
                "category": "malicious",
                "engine_name": "ZoneAlarm",
                "engine_update": "20180504",
                "engine_version": "1.0",
                "method": "blacklist",
                "result": "Virus.Win32.Pioneer.cz"
            },
            "Zoner": {
                "category": "undetected",
                "engine_name": "Zoner",
                "engine_update": "20180503",
                "engine_version": "1.0",
                "method": "blacklist",
                "result": null
            },
            "eGambit": {
                "category": "malicious",
                "engine_name": "eGambit",
                "engine_update": "20180504",
                "engine_version": "v4.3.5",
                "method": "blacklist",
                "result": "Trojan.Generic"
            },
            "nProtect": {
                "category": "undetected",
                "engine_name": "nProtect",
                "engine_update": "20180504",
                "engine_version": "2018-05-04.04",
                "method": "blacklist",
                "result": null
            }
        },
        "last_analysis_stats": {
            "confirmed-timeout": 0,
            "failure": 0,
            "harmless": 0,
            "malicious": 46,
            "suspicious": 0,
            "timeout": 0,
            "type-unsupported": 4,
            "undetected": 19
        },
        "last_modification_date": 1526691799,
        "last_submission_date": 1525452684,
        "magic": "PE32 executable for MS Windows (DLL) (GUI) Intel 80386 32-bit",
        "md5": "08d3ba4ad82e1a957cb7329e9f06e45b",
        "names": [],
        "pe_info": {
            "entry_point": 88790,
            "exports": [
                "_JNI_OnLoad@8",
                "_Java_com_sun_glass_events_KeyEvent__1getKeyCodeForChar@12",
                "_Java_com_sun_glass_ui_win_WinApplication__1enterNestedEventLoop@8",
                "_Java_com_sun_glass_ui_win_WinApplication__1init@8",
                "_Java_com_sun_glass_ui_win_WinApplication__1invokeAndWait@12",
                "_Java_com_sun_glass_ui_win_WinApplication__1invokeLater@12",
                "_Java_com_sun_glass_ui_win_WinApplication__1leaveNestedEventLoop@12",
                "_Java_com_sun_glass_ui_win_WinApplication__1postOnEventQueue@12",
                "_Java_com_sun_glass_ui_win_WinApplication__1runLoop@16",
                "_Java_com_sun_glass_ui_win_WinApplication__1setClassLoader@12",
                "_Java_com_sun_glass_ui_win_WinApplication__1terminateLoop@8",
                "_Java_com_sun_glass_ui_win_WinApplication_initIDs@8",
                "_Java_com_sun_glass_ui_win_WinCommonDialogs__1initIDs@8",
                "_Java_com_sun_glass_ui_win_WinCommonDialogs__1showFileChooser@36",
                "_Java_com_sun_glass_ui_win_WinCommonDialogs__1showFolderChooser@24",
                "_Java_com_sun_glass_ui_win_WinCursor__1createCursor@20",
                "_Java_com_sun_glass_ui_win_WinCursor__1getBestSize@16",
                "_Java_com_sun_glass_ui_win_WinCursor__1initIDs@8",
                "_Java_com_sun_glass_ui_win_WinCursor__1set@12",
                "_Java_com_sun_glass_ui_win_WinCursor__1setCustom@16",
                "_Java_com_sun_glass_ui_win_WinCursor__1setVisible@12",
                "_Java_com_sun_glass_ui_win_WinDnDClipboard_dispose@8",
                "_Java_com_sun_glass_ui_win_WinDnDClipboard_push@16",
                "_Java_com_sun_glass_ui_win_WinGestureSupport__1initIDs@8",
                "_Java_com_sun_glass_ui_win_WinMenuImpl__1checkItem@24",
                "_Java_com_sun_glass_ui_win_WinMenuImpl__1create@8",
                "_Java_com_sun_glass_ui_win_WinMenuImpl__1destroy@16",
                "_Java_com_sun_glass_ui_win_WinMenuImpl__1enableItem@24",
                "_Java_com_sun_glass_ui_win_WinMenuImpl__1enableSubmenu@28",
                "_Java_com_sun_glass_ui_win_WinMenuImpl__1initIDs@8",
                "_Java_com_sun_glass_ui_win_WinMenuImpl__1insertItem@48",
                "_Java_com_sun_glass_ui_win_WinMenuImpl__1insertSeparator@20",
                "_Java_com_sun_glass_ui_win_WinMenuImpl__1insertSubmenu@36",
                "_Java_com_sun_glass_ui_win_WinMenuImpl__1removeAtPos@20",
                "_Java_com_sun_glass_ui_win_WinMenuImpl__1setItemTitle@24",
                "_Java_com_sun_glass_ui_win_WinMenuImpl__1setSubmenuTitle@28",
                "_Java_com_sun_glass_ui_win_WinPixels__1attachByte@36",
                "_Java_com_sun_glass_ui_win_WinPixels__1attachInt@36",
                "_Java_com_sun_glass_ui_win_WinPixels__1fillDirectByteBuffer@12",
                "_Java_com_sun_glass_ui_win_WinPixels__1initIDs@8",
                "_Java_com_sun_glass_ui_win_WinRobot__1create@8",
                "_Java_com_sun_glass_ui_win_WinRobot__1destroy@16",
                "_Java_com_sun_glass_ui_win_WinRobot__1getMouseX@16",
                "_Java_com_sun_glass_ui_win_WinRobot__1getMouseY@16",
                "_Java_com_sun_glass_ui_win_WinRobot__1getPixelColor@24",
                "_Java_com_sun_glass_ui_win_WinRobot__1getScreenCapture@36",
                "_Java_com_sun_glass_ui_win_WinRobot__1keyPress@20",
                "_Java_com_sun_glass_ui_win_WinRobot__1keyRelease@20",
                "_Java_com_sun_glass_ui_win_WinRobot__1mouseMove@24",
                "_Java_com_sun_glass_ui_win_WinRobot__1mousePress@20",
                "_Java_com_sun_glass_ui_win_WinRobot__1mouseRelease@20",
                "_Java_com_sun_glass_ui_win_WinRobot__1mouseWheel@20",
                "_Java_com_sun_glass_ui_win_WinScreen__1getDeepestScreen@12",
                "_Java_com_sun_glass_ui_win_WinScreen__1getMainScreen@12",
                "_Java_com_sun_glass_ui_win_WinScreen__1getScreenForLocation@20",
                "_Java_com_sun_glass_ui_win_WinScreen__1getScreenForPtr@20",
                "_Java_com_sun_glass_ui_win_WinScreen__1getScreens@12",
                "_Java_com_sun_glass_ui_win_WinScreen__1initIDs@8",
                "_Java_com_sun_glass_ui_win_WinSystemClipboard_create@8",
                "_Java_com_sun_glass_ui_win_WinSystemClipboard_dispose@8",
                "_Java_com_sun_glass_ui_win_WinSystemClipboard_initIDs@8",
                "_Java_com_sun_glass_ui_win_WinSystemClipboard_isOwner@8",
                "_Java_com_sun_glass_ui_win_WinSystemClipboard_pop@8",
                "_Java_com_sun_glass_ui_win_WinSystemClipboard_popBytes@20",
                "_Java_com_sun_glass_ui_win_WinSystemClipboard_popMimesFromSystem@8",
                "_Java_com_sun_glass_ui_win_WinSystemClipboard_popSupportedSourceActions@8",
                "_Java_com_sun_glass_ui_win_WinSystemClipboard_push@16",
                "_Java_com_sun_glass_ui_win_WinSystemClipboard_pushTargetActionToSystem@12",
                "_Java_com_sun_glass_ui_win_WinTimer__1getMaxPeriod@8",
                "_Java_com_sun_glass_ui_win_WinTimer__1getMinPeriod@8",
                "_Java_com_sun_glass_ui_win_WinTimer__1start@16",
                "_Java_com_sun_glass_ui_win_WinTimer__1stop@16",
                "_Java_com_sun_glass_ui_win_WinView__1begin@20",
                "_Java_com_sun_glass_ui_win_WinView__1close@16",
                "_Java_com_sun_glass_ui_win_WinView__1create@12",
                "_Java_com_sun_glass_ui_win_WinView__1enableInputMethodEvents@20",
                "_Java_com_sun_glass_ui_win_WinView__1end@24",
                "_Java_com_sun_glass_ui_win_WinView__1enterFullscreen@28",
                "_Java_com_sun_glass_ui_win_WinView__1exitFullscreen@20",
                "_Java_com_sun_glass_ui_win_WinView__1getMultiClickMaxX_1impl@8",
                "_Java_com_sun_glass_ui_win_WinView__1getMultiClickMaxY_1impl@8",
                "_Java_com_sun_glass_ui_win_WinView__1getMultiClickTime_1impl@8",
                "_Java_com_sun_glass_ui_win_WinView__1getNativeView@16",
                "_Java_com_sun_glass_ui_win_WinView__1getX@16",
                "_Java_com_sun_glass_ui_win_WinView__1getY@16",
                "_Java_com_sun_glass_ui_win_WinView__1initIDs@8",
                "_Java_com_sun_glass_ui_win_WinView__1repaint@16",
                "_Java_com_sun_glass_ui_win_WinView__1setParent@24",
                "_Java_com_sun_glass_ui_win_WinView__1uploadPixels@20",
                "_Java_com_sun_glass_ui_win_WinWindow__1close@16",
                "_Java_com_sun_glass_ui_win_WinWindow__1createChildWindow@16",
                "_Java_com_sun_glass_ui_win_WinWindow__1createWindow@28",
                "_Java_com_sun_glass_ui_win_WinWindow__1getEmbeddedX@16",
                "_Java_com_sun_glass_ui_win_WinWindow__1getEmbeddedY@16",
                "_Java_com_sun_glass_ui_win_WinWindow__1grabFocus@16",
                "_Java_com_sun_glass_ui_win_WinWindow__1initIDs@8",
                "_Java_com_sun_glass_ui_win_WinWindow__1maximize@24",
                "_Java_com_sun_glass_ui_win_WinWindow__1minimize@20",
                "_Java_com_sun_glass_ui_win_WinWindow__1requestFocus@20",
                "_Java_com_sun_glass_ui_win_WinWindow__1setAlpha@20",
                "_Java_com_sun_glass_ui_win_WinWindow__1setBackground@28",
                "_Java_com_sun_glass_ui_win_WinWindow__1setBounds@56",
                "_Java_com_sun_glass_ui_win_WinWindow__1setEnabled@20",
                "_Java_com_sun_glass_ui_win_WinWindow__1setFocusable@20",
                "_Java_com_sun_glass_ui_win_WinWindow__1setIcon@20",
                "_Java_com_sun_glass_ui_win_WinWindow__1setLevel@20",
                "_Java_com_sun_glass_ui_win_WinWindow__1setMaximumSize@24",
                "_Java_com_sun_glass_ui_win_WinWindow__1setMenubar@24",
                "_Java_com_sun_glass_ui_win_WinWindow__1setMinimumSize@24",
                "_Java_com_sun_glass_ui_win_WinWindow__1setResizable@20",
                "_Java_com_sun_glass_ui_win_WinWindow__1setTitle@20",
                "_Java_com_sun_glass_ui_win_WinWindow__1setView@20",
                "_Java_com_sun_glass_ui_win_WinWindow__1setVisible@20",
                "_Java_com_sun_glass_ui_win_WinWindow__1toBack@16",
                "_Java_com_sun_glass_ui_win_WinWindow__1toFront@16",
                "_Java_com_sun_glass_ui_win_WinWindow__1ungrabFocus@16"
            ],
            "imphash": "1c93694aef22226f3d25fe55ee47b1dd",
            "import_list": [
                {
                    "imported_functions": [
                        "GetLastError",
                        "GetSystemTimeAsFileTime",
                        "lstrlenA",
                        "FreeLibrary",
                        "QueryPerformanceCounter",
                        "IsDebuggerPresent",
                        "GetTickCount",
                        "DisableThreadLibraryCalls",
                        "GlobalUnlock",
                        "LoadLibraryA",
                        "lstrlenW",
                        "GlobalSize",
                        "GetCurrentProcess",
                        "GetCurrentProcessId",
                        "GetModuleHandleW",
                        "UnhandledExceptionFilter",
                        "MultiByteToWideChar",
                        "GetProcAddress",
                        "InterlockedCompareExchange",
                        "GetLocaleInfoW",
                        "RaiseException",
                        "GetCurrentThreadId",
                        "InterlockedExchange",
                        "SetUnhandledExceptionFilter",
                        "MulDiv",
                        "IsProcessorFeaturePresent",
                        "GetACP",
                        "DecodePointer",
                        "GlobalLock",
                        "LocalFree",
                        "FormatMessageW",
                        "TerminateProcess",
                        "GlobalAlloc",
                        "InterlockedDecrement",
                        "Sleep",
                        "EncodePointer",
                        "GetVersion",
                        "LocalAlloc",
                        "InterlockedIncrement"
                    ],
                    "library_name": "KERNEL32.dll"
                },
                {
                    "imported_functions": [
                        "GetSaveFileNameW",
                        "GetOpenFileNameW"
                    ],
                    "library_name": "COMDLG32.dll"
                },
                {
                    "imported_functions": [
                        "SysAllocString",
                        "SysFreeString",
                        "SysAllocStringByteLen",
                        "VariantClear",
                        "SysStringLen"
                    ],
                    "library_name": "OLEAUT32.dll"
                },
                {
                    "imported_functions": [
                        "OleUninitialize",
                        "CoTaskMemFree",
                        "CreateDataAdviseHolder",
                        "CoTaskMemAlloc",
                        "OleFlushClipboard",
                        "ReleaseStgMedium",
                        "OleCreateStaticFromData",
                        "RegisterDragDrop",
                        "CoCreateInstance",
                        "DoDragDrop",
                        "RevokeDragDrop",
                        "StgCreateDocfile",
                        "OleGetClipboard",
                        "OleIsCurrentClipboard",
                        "OleSetClipboard",
                        "OleQueryCreateFromData",
                        "StringFromIID",
                        "OleInitialize"
                    ],
                    "library_name": "ole32.dll"
                },
                {
                    "imported_functions": [
                        "_malloc_crt",
                        "_purecall",
                        "malloc",
                        "?what@exception@std@@UBEPBDXZ",
                        "??_U@YAPAXI@Z",
                        "__dllonexit",
                        "__RTDynamicCast",
                        "wcsncpy_s",
                        "swprintf_s",
                        "fprintf",
                        "wcscpy_s",
                        "fflush",
                        "wmemcpy_s",
                        "__clean_type_info_names_internal",
                        "_amsg_exit",
                        "?terminate@@YAXXZ",
                        "memset",
                        "?_type_info_dtor_internal_method@type_info@@QAEXXZ",
                        "_CxxThrowException",
                        "??2@YAPAXI@Z",
                        "ldiv",
                        "_lock",
                        "_onexit",
                        "vfwprintf",
                        "??_V@YAXPAX@Z",
                        "_initterm_e",
                        "_i64tow_s",
                        "_unlock",
                        "_crt_debugger_hook",
                        "??3@YAXPAX@Z",
                        "free",
                        "memcpy_s",
                        "_except_handler4_common",
                        "memcpy",
                        "??0exception@std@@QAE@ABV01@@Z",
                        "wprintf_s",
                        "??1exception@std@@UAE@XZ",
                        "__CxxFrameHandler3",
                        "__iob_func",
                        "??0exception@std@@QAE@ABQBD@Z",
                        "_itow_s",
                        "_encoded_null",
                        "__CppXcptFilter",
                        "_initterm",
                        "_wtoi"
                    ],
                    "library_name": "MSVCR100.dll"
                },
                {
                    "imported_functions": [
                        "GetDeviceCaps",
                        "DeleteDC",
                        "SelectObject",
                        "BitBlt",
                        "GetStockObject",
                        "CreateBitmap",
                        "CreateSolidBrush",
                        "GetDIBits",
                        "GetObjectW",
                        "CreateDCW",
                        "GdiFlush",
                        "CreateDIBSection",
                        "CreateCompatibleDC",
                        "DeleteObject",
                        "CreateCompatibleBitmap",
                        "SetDIBitsToDevice"
                    ],
                    "library_name": "GDI32.dll"
                },
                {
                    "imported_functions": [
                        "ImmReleaseContext",
                        "ImmGetCompositionStringW",
                        "ImmSetCandidateWindow",
                        "ImmGetContext"
                    ],
                    "library_name": "IMM32.dll"
                }
            ],
            "machine_type": 332,
            "overlay": {
                "chi2": 88347.828125,
                "entropy": 7.719256401062012,
                "filetype": "data",
                "md5": "a577fadec0eba88334f8dfaf5c595787",
                "offset": 151040,
                "size": 83855
            },
            "sections": [
                {
                    "entropy": 6.52,
                    "md5": "00c38126eaaa0cbcd8b1a0f33167505b",
                    "name": ".text",
                    "raw_size": 92672,
                    "virtual_address": 4096,
                    "virtual_size": 92412
                },
                {
                    "entropy": 4.87,
                    "md5": "d8f93416b74f2e12bffab42c7f27a3d7",
                    "name": ".rdata",
                    "raw_size": 40448,
                    "virtual_address": 98304,
                    "virtual_size": 40093
                },
                {
                    "entropy": 4.96,
                    "md5": "3a29589d8cd878adf2b313106c17a428",
                    "name": ".data",
                    "raw_size": 6144,
                    "virtual_address": 139264,
                    "virtual_size": 7032
                },
                {
                    "entropy": 5.61,
                    "md5": "8fae62f404898e24006becb0bdc15bc5",
                    "name": ".reloc",
                    "raw_size": 10752,
                    "virtual_address": 147456,
                    "virtual_size": 10280
                }
            ],
            "timestamp": 1347010494
        },
        "reputation": 0,
        "sha1": "c04bb16723d4fa2be6121c58a1ca8c4c8dd77602",
        "sha256": "00045eb9d872f4d4b8a8e1876c6d3f37aa6b2700ca31f94eaed083ead38979f4",
        "size": 234895,
        "ssdeep": "6144:/RbszPp5LV8xp1OBX00ghtBV+UdvrEFp7hKqGz:Z4bp5Led0ItBjvrEH7O",
        "tags": [
            "pedll",
            "overlay"
        ],
        "times_submitted": 1,
        "total_votes": {
            "harmless": 0,
            "malicious": 0
        },
        "trid": [
            {
                "file_type": "Win32 Executable MS Visual C++ (generic)",
                "probability": 41.0
            },
            {
                "file_type": "Win64 Executable (generic)",
                "probability": 36.3
            },
            {
                "file_type": "Win32 Dynamic Link Library (generic)",
                "probability": 8.6
            },
            {
                "file_type": "Win32 Executable (generic)",
                "probability": 5.9
            },
            {
                "file_type": "OS/2 Executable (generic)",
                "probability": 2.6
            }
        ],
        "type_description": "Win32 DLL",
        "type_extension": "dll",
        "type_tag": "pedll",
        "unique_sources": 1,
        "vhash": "125046655d5553z20011z276z1205oz2d074"
    },
    "id": "00045eb9d872f4d4b8a8e1876c6d3f37aa6b2700ca31f94eaed083ead38979f4",
    "links": {
        "self": "https://www.virustotal.com/api/v3/files/00045eb9d872f4d4b8a8e1876c6d3f37aa6b2700ca31f94eaed083ead38979f4"
    },
    "type": "file"
}