{
    "attributes": {
        "authentihash": "27aba612782205bedfd0d3e48c7cf3a1e6a1dd1548b98b5243d1b7aa31ffbe36",
        "creation_date": 1094982929,
        "first_submission_date": 1554950916,
        "last_analysis_date": 1573981609,
        "last_analysis_results": {
            "ALYac": {
                "category": "malicious",
                "engine_name": "ALYac",
                "engine_update": "20191117",
                "engine_version": "1.1.1.5",
                "method": "blacklist",
                "result": "Trojan.Prepender.G"
            },
            "APEX": {
                "category": "malicious",
                "engine_name": "APEX",
                "engine_update": "20191116",
                "engine_version": "5.86",
                "method": "blacklist",
                "result": "Malicious"
            },
            "AVG": {
                "category": "malicious",
                "engine_name": "AVG",
                "engine_update": "20191117",
                "engine_version": "18.4.3895.0",
                "method": "blacklist",
                "result": "Win32:Vitro"
            },
            "Acronis": {
                "category": "malicious",
                "engine_name": "Acronis",
                "engine_update": "20191113",
                "engine_version": "1.1.1.58",
                "method": "blacklist",
                "result": "suspicious"
            },
            "Ad-Aware": {
                "category": "malicious",
                "engine_name": "Ad-Aware",
                "engine_update": "20191117",
                "engine_version": "3.0.5.370",
                "method": "blacklist",
                "result": "Trojan.Prepender.G"
            },
            "AegisLab": {
                "category": "malicious",
                "engine_name": "AegisLab",
                "engine_update": "20191116",
                "engine_version": "4.2",
                "method": "blacklist",
                "result": "Virus.Win32.Small.mDCd"
            },
            "AhnLab-V3": {
                "category": "malicious",
                "engine_name": "AhnLab-V3",
                "engine_update": "20191117",
                "engine_version": "3.16.4.25692",
                "method": "blacklist",
                "result": "Win32/Virut.F"
            },
            "Alibaba": {
                "category": "malicious",
                "engine_name": "Alibaba",
                "engine_update": "20190527",
                "engine_version": "0.3.0.5",
                "method": "blacklist",
                "result": "Virus:Win32/Virut.ff25d178"
            },
            "Antiy-AVL": {
                "category": "malicious",
                "engine_name": "Antiy-AVL",
                "engine_update": "20191117",
                "engine_version": "3.0.0.1",
                "method": "blacklist",
                "result": "Virus/Win32.Virut.ce"
            },
            "Arcabit": {
                "category": "malicious",
                "engine_name": "Arcabit",
                "engine_update": "20191117",
                "engine_version": "1.0.0.861",
                "method": "blacklist",
                "result": "Trojan.Prepender.G"
            },
            "Avast": {
                "category": "malicious",
                "engine_name": "Avast",
                "engine_update": "20191117",
                "engine_version": "18.4.3895.0",
                "method": "blacklist",
                "result": "Win32:Vitro"
            },
            "Avast-Mobile": {
                "category": "undetected",
                "engine_name": "Avast-Mobile",
                "engine_update": "20191115",
                "engine_version": "191114-10",
                "method": "blacklist",
                "result": null
            },
            "Avira": {
                "category": "malicious",
                "engine_name": "Avira",
                "engine_update": "20191117",
                "engine_version": "8.3.3.8",
                "method": "blacklist",
                "result": "W32/Virut.Gen"
            },
            "Baidu": {
                "category": "malicious",
                "engine_name": "Baidu",
                "engine_update": "20190318",
                "engine_version": "1.0.0.2",
                "method": "blacklist",
                "result": "Win32.Virus.Virut.gen"
            },
            "BitDefender": {
                "category": "malicious",
                "engine_name": "BitDefender",
                "engine_update": "20191117",
                "engine_version": "7.2",
                "method": "blacklist",
                "result": "Trojan.Prepender.G"
            },
            "BitDefenderTheta": {
                "category": "malicious",
                "engine_name": "BitDefenderTheta",
                "engine_update": "20191113",
                "engine_version": "7.2.37796.0",
                "method": "blacklist",
                "result": "AI:FileInfector.1CDFA6C90F"
            },
            "Bkav": {
                "category": "malicious",
                "engine_name": "Bkav",
                "engine_update": "20191116",
                "engine_version": "1.3.0.9899",
                "method": "blacklist",
                "result": "W32.Vetor.PE"
            },
            "CAT-QuickHeal": {
                "category": "malicious",
                "engine_name": "CAT-QuickHeal",
                "engine_update": "20191116",
                "engine_version": "14.00",
                "method": "blacklist",
                "result": "W32.Virut.G"
            },
            "CMC": {
                "category": "undetected",
                "engine_name": "CMC",
                "engine_update": "20190321",
                "engine_version": "1.1.0.977",
                "method": "blacklist",
                "result": null
            },
            "ClamAV": {
                "category": "malicious",
                "engine_name": "ClamAV",
                "engine_update": "20191117",
                "engine_version": "0.102.0.0",
                "method": "blacklist",
                "result": "Win.Trojan.Agent-1388669"
            },
            "Comodo": {
                "category": "malicious",
                "engine_name": "Comodo",
                "engine_update": "20191117",
                "engine_version": "31733",
                "method": "blacklist",
                "result": "Virus.Win32.Virut.Ce@1fy3nv"
            },
            "CrowdStrike": {
                "category": "malicious",
                "engine_name": "CrowdStrike",
                "engine_update": "20190702",
                "engine_version": "1.0",
                "method": "blacklist",
                "result": "win/malicious_confidence_100% (W)"
            },
            "Cybereason": {
                "category": "malicious",
                "engine_name": "Cybereason",
                "engine_update": "20190616",
                "engine_version": "1.2.449",
                "method": "blacklist",
                "result": "malicious.739cef"
            },
            "Cylance": {
                "category": "malicious",
                "engine_name": "Cylance",
                "engine_update": "20191117",
                "engine_version": "2.3.1.101",
                "method": "blacklist",
                "result": "Unsafe"
            },
            "Cyren": {
                "category": "malicious",
                "engine_name": "Cyren",
                "engine_update": "20191117",
                "engine_version": "6.2.2.2",
                "method": "blacklist",
                "result": "W32/Shodi.WKEE-4558"
            },
            "DrWeb": {
                "category": "malicious",
                "engine_name": "DrWeb",
                "engine_update": "20191117",
                "engine_version": "7.0.41.7240",
                "method": "blacklist",
                "result": "Win32.Virut.56"
            },
            "ESET-NOD32": {
                "category": "malicious",
                "engine_name": "ESET-NOD32",
                "engine_update": "20191117",
                "engine_version": "20361",
                "method": "blacklist",
                "result": "Win32/Virut.NBU"
            },
            "Emsisoft": {
                "category": "malicious",
                "engine_name": "Emsisoft",
                "engine_update": "20191031",
                "engine_version": "2018.12.0.1641",
                "method": "blacklist",
                "result": "Trojan.Prepender.G (B)"
            },
            "Endgame": {
                "category": "malicious",
                "engine_name": "Endgame",
                "engine_update": "20190918",
                "engine_version": "3.0.15",
                "method": "blacklist",
                "result": "malicious (high confidence)"
            },
            "F-Prot": {
                "category": "malicious",
                "engine_name": "F-Prot",
                "engine_update": "20191117",
                "engine_version": "4.7.1.166",
                "method": "blacklist",
                "result": "W32/Shodi.B"
            },
            "F-Secure": {
                "category": "malicious",
                "engine_name": "F-Secure",
                "engine_update": "20191117",
                "engine_version": "12.0.86.52",
                "method": "blacklist",
                "result": "Malware.W32/Virut.Gen"
            },
            "FireEye": {
                "category": "malicious",
                "engine_name": "FireEye",
                "engine_update": "20191117",
                "engine_version": "29.7.0.0",
                "method": "blacklist",
                "result": "Generic.mg.d451b58739cefdf8"
            },
            "Fortinet": {
                "category": "malicious",
                "engine_name": "Fortinet",
                "engine_update": "20191117",
                "engine_version": "5.4.247.0",
                "method": "blacklist",
                "result": "W32/Virut.NBU"
            },
            "GData": {
                "category": "malicious",
                "engine_name": "GData",
                "engine_update": "20191117",
                "engine_version": "A:25.24007B:26.16681",
                "method": "blacklist",
                "result": "Trojan.Prepender.G"
            },
            "Ikarus": {
                "category": "malicious",
                "engine_name": "Ikarus",
                "engine_update": "20191117",
                "engine_version": "0.1.5.2",
                "method": "blacklist",
                "result": "Virus.Win32.Shodi"
            },
            "Invincea": {
                "category": "malicious",
                "engine_name": "Invincea",
                "engine_update": "20190904",
                "engine_version": "6.3.6.26157",
                "method": "blacklist",
                "result": "heuristic"
            },
            "Jiangmin": {
                "category": "malicious",
                "engine_name": "Jiangmin",
                "engine_update": "20191117",
                "engine_version": "16.0.100",
                "method": "blacklist",
                "result": "Win32/Virut.bo"
            },
            "K7AntiVirus": {
                "category": "malicious",
                "engine_name": "K7AntiVirus",
                "engine_update": "20191117",
                "engine_version": "11.78.32579",
                "method": "blacklist",
                "result": "Virus ( f10002001 )"
            },
            "K7GW": {
                "category": "malicious",
                "engine_name": "K7GW",
                "engine_update": "20191117",
                "engine_version": "11.78.32579",
                "method": "blacklist",
                "result": "Virus ( f10002001 )"
            },
            "Kaspersky": {
                "category": "malicious",
                "engine_name": "Kaspersky",
                "engine_update": "20191117",
                "engine_version": "15.0.1.13",
                "method": "blacklist",
                "result": "Virus.Win32.Virut.ce"
            },
            "Kingsoft": {
                "category": "malicious",
                "engine_name": "Kingsoft",
                "engine_update": "20191117",
                "engine_version": "2013.8.14.323",
                "method": "blacklist",
                "result": "Win32.Virut.cr.61440"
            },
            "MAX": {
                "category": "malicious",
                "engine_name": "MAX",
                "engine_update": "20191117",
                "engine_version": "2019.9.16.1",
                "method": "blacklist",
                "result": "malware (ai score=100)"
            },
            "Malwarebytes": {
                "category": "undetected",
                "engine_name": "Malwarebytes",
                "engine_update": "20191117",
                "engine_version": "2.1.1.1115",
                "method": "blacklist",
                "result": null
            },
            "McAfee": {
                "category": "malicious",
                "engine_name": "McAfee",
                "engine_update": "20191113",
                "engine_version": "6.0.6.653",
                "method": "blacklist",
                "result": "W32/Virut.n.gen"
            },
            "McAfee-GW-Edition": {
                "category": "malicious",
                "engine_name": "McAfee-GW-Edition",
                "engine_update": "20191117",
                "engine_version": "v2017.3010",
                "method": "blacklist",
                "result": "BehavesLike.Win32.Virut.tm"
            },
            "MicroWorld-eScan": {
                "category": "malicious",
                "engine_name": "MicroWorld-eScan",
                "engine_update": "20191117",
                "engine_version": "14.0.297.0",
                "method": "blacklist",
                "result": "Trojan.Prepender.G"
            },
            "Microsoft": {
                "category": "malicious",
                "engine_name": "Microsoft",
                "engine_update": "20191117",
                "engine_version": "1.1.16500.1",
                "method": "blacklist",
                "result": "Virus:Win32/Shodi.I"
            },
            "NANO-Antivirus": {
                "category": "malicious",
                "engine_name": "NANO-Antivirus",
                "engine_update": "20191117",
                "engine_version": "1.0.134.24859",
                "method": "blacklist",
                "result": "Virus.Win32.Virut.hpeg"
            },
            "Paloalto": {
                "category": "malicious",
                "engine_name": "Paloalto",
                "engine_update": "20191117",
                "engine_version": "1.0",
                "method": "blacklist",
                "result": "generic.ml"
            },
            "Panda": {
                "category": "malicious",
                "engine_name": "Panda",
                "engine_update": "20191117",
                "engine_version": "4.6.4.2",
                "method": "blacklist",
                "result": "W32/Sality.AO"
            },
            "Qihoo-360": {
                "category": "malicious",
                "engine_name": "Qihoo-360",
                "engine_update": "20191117",
                "engine_version": "1.0.0.1120",
                "method": "blacklist",
                "result": "Virus.Win32.Shohdi.A"
            },
            "Rising": {
                "category": "malicious",
                "engine_name": "Rising",
                "engine_update": "20191117",
                "engine_version": "25.0.0.24",
                "method": "blacklist",
                "result": "Virus.Virut!1.A08B (CLASSIC)"
            },
            "SUPERAntiSpyware": {
                "category": "malicious",
                "engine_name": "SUPERAntiSpyware",
                "engine_update": "20191115",
                "engine_version": "5.6.0.1032",
                "method": "blacklist",
                "result": "Worm.Shodi"
            },
            "SentinelOne": {
                "category": "malicious",
                "engine_name": "SentinelOne",
                "engine_update": "20191115",
                "engine_version": "1.0.31.33",
                "method": "blacklist",
                "result": "DFI - Malicious PE"
            },
            "Sophos": {
                "category": "malicious",
                "engine_name": "Sophos",
                "engine_update": "20191117",
                "engine_version": "4.98.0",
                "method": "blacklist",
                "result": "W32/Scribble-B"
            },
            "Symantec": {
                "category": "malicious",
                "engine_name": "Symantec",
                "engine_update": "20191116",
                "engine_version": "1.11.0.0",
                "method": "blacklist",
                "result": "W32.Virut.CF"
            },
            "SymantecMobileInsight": {
                "category": "type-unsupported",
                "engine_name": "SymantecMobileInsight",
                "engine_update": "20191030",
                "engine_version": "2.0",
                "method": "blacklist",
                "result": null
            },
            "TACHYON": {
                "category": "malicious",
                "engine_name": "TACHYON",
                "engine_update": "20191117",
                "engine_version": "2019-11-17.02",
                "method": "blacklist",
                "result": "Virus/W32.Virut.Gen"
            },
            "Tencent": {
                "category": "malicious",
                "engine_name": "Tencent",
                "engine_update": "20191117",
                "engine_version": "1.0.0.1",
                "method": "blacklist",
                "result": "Virus.Win32.Shodi.o"
            },
            "TotalDefense": {
                "category": "malicious",
                "engine_name": "TotalDefense",
                "engine_update": "20191117",
                "engine_version": "37.1.62.1",
                "method": "blacklist",
                "result": "Win32/Virut.17408"
            },
            "Trapmine": {
                "category": "malicious",
                "engine_name": "Trapmine",
                "engine_update": "20190826",
                "engine_version": "3.1.81.800",
                "method": "blacklist",
                "result": "malicious.high.ml.score"
            },
            "TrendMicro": {
                "category": "malicious",
                "engine_name": "TrendMicro",
                "engine_update": "20191117",
                "engine_version": "11.0.0.1006",
                "method": "blacklist",
                "result": "PE_VIRUX.J"
            },
            "TrendMicro-HouseCall": {
                "category": "malicious",
                "engine_name": "TrendMicro-HouseCall",
                "engine_update": "20191117",
                "engine_version": "10.0.0.1040",
                "method": "blacklist",
                "result": "PE_VIRUX.J"
            },
            "Trustlook": {
                "category": "type-unsupported",
                "engine_name": "Trustlook",
                "engine_update": "20191117",
                "engine_version": "1.0",
                "method": "blacklist",
                "result": null
            },
            "VBA32": {
                "category": "malicious",
                "engine_name": "VBA32",
                "engine_update": "20191116",
                "engine_version": "4.2.0",
                "method": "blacklist",
                "result": "Virus.Virut.02"
            },
            "VIPRE": {
                "category": "malicious",
                "engine_name": "VIPRE",
                "engine_update": "20191117",
                "engine_version": "79390",
                "method": "blacklist",
                "result": "Virus.Win32.Virut.ce (v)"
            },
            "ViRobot": {
                "category": "malicious",
                "engine_name": "ViRobot",
                "engine_update": "20191117",
                "engine_version": "2014.3.20.0",
                "method": "blacklist",
                "result": "Win32.Virut.Gen.C"
            },
            "Webroot": {
                "category": "undetected",
                "engine_name": "Webroot",
                "engine_update": "20191117",
                "engine_version": "1.0.0.403",
                "method": "blacklist",
                "result": null
            },
            "Yandex": {
                "category": "malicious",
                "engine_name": "Yandex",
                "engine_update": "20191114",
                "engine_version": "5.5.2.24",
                "method": "blacklist",
                "result": "Win32.Virut.AB.Gen"
            },
            "Zillya": {
                "category": "malicious",
                "engine_name": "Zillya",
                "engine_update": "20191115",
                "engine_version": "2.0.0.3952",
                "method": "blacklist",
                "result": "Trojan.Virut.Win32.8414"
            },
            "ZoneAlarm": {
                "category": "malicious",
                "engine_name": "ZoneAlarm",
                "engine_update": "20191117",
                "engine_version": "1.0",
                "method": "blacklist",
                "result": "Virus.Win32.Virut.ce"
            },
            "Zoner": {
                "category": "undetected",
                "engine_name": "Zoner",
                "engine_update": "20191116",
                "engine_version": "1.0.0.1",
                "method": "blacklist",
                "result": null
            }
        },
        "last_analysis_stats": {
            "confirmed-timeout": 0,
            "failure": 0,
            "harmless": 0,
            "malicious": 65,
            "suspicious": 0,
            "timeout": 0,
            "type-unsupported": 2,
            "undetected": 5
        },
        "last_modification_date": 1573996914,
        "last_submission_date": 1572493975,
        "magic": "PE32 executable for MS Windows (GUI) Intel 80386 32-bit",
        "md5": "d451b58739cefdf81a17ed9c453bafec",
        "meaningful_name": "myfile.exe",
        "names": [
            "myfile.exe"
        ],
        "pe_info": {
            "entry_point": 122250,
            "imphash": "a0db151d55761167d93eba72d3d94b32",
            "import_list": [
                {
                    "imported_functions": [
                        "?close@ofstream@@QAEXXZ",
                        "??0ofstream@@QAE@PBDHH@Z",
                        "??0ifstream@@QAE@PBDHH@Z",
                        "?tellg@istream@@QAEJXZ",
                        "?write@ostream@@QAEAAV1@PBDH@Z",
                        "?seekg@istream@@QAEAAV1@JW4seek_dir@ios@@@Z",
                        "??1ofstream@@UAE@XZ",
                        "??0fstream@@QAE@PBDHH@Z",
                        "?seekp@ostream@@QAEAAV1@JW4seek_dir@ios@@@Z",
                        "??1ifstream@@UAE@XZ",
                        "?close@ifstream@@QAEXXZ",
                        "?close@fstream@@QAEXXZ",
                        "??1ios@@UAE@XZ",
                        "??1fstream@@UAE@XZ",
                        "?read@istream@@QAEAAV1@PADH@Z",
                        "?openprot@filebuf@@2HB",
                        "?open@ifstream@@QAEXPBDHH@Z"
                    ],
                    "library_name": "MSVCIRT.dll"
                },
                {
                    "imported_functions": [
                        "SetFileAttributesA",
                        "SuspendThread",
                        "MoveFileA",
                        "ResumeThread",
                        "CreateSemaphoreA",
                        "CreateThread",
                        "GetStartupInfoA",
                        "GetModuleHandleA",
                        "WaitForSingleObject",
                        "DeleteFileA",
                        "GetWindowsDirectoryA",
                        "FindClose",
                        "CopyFileA",
                        "Sleep",
                        "FindFirstFileA",
                        "FindNextFileA",
                        "GetCommandLineA",
                        "GetSystemDirectoryA",
                        "WinExec"
                    ],
                    "library_name": "KERNEL32.dll"
                },
                {
                    "imported_functions": [
                        "_except_handler3",
                        "__p__fmode",
                        "strlen",
                        "__CxxFrameHandler",
                        "_acmdln",
                        "??2@YAPAXI@Z",
                        "_exit",
                        "__p__commode",
                        "__setusermatherr",
                        "??3@YAXPAX@Z",
                        "strcat",
                        "_strcmpi",
                        "strcpy",
                        "exit",
                        "_XcptFilter",
                        "__getmainargs",
                        "_initterm",
                        "_controlfp",
                        "_EH_prolog",
                        "_adjust_fdiv",
                        "__set_app_type"
                    ],
                    "library_name": "MSVCRT.dll"
                }
            ],
            "machine_type": 332,
            "overlay": {
                "chi2": 41900908.0,
                "entropy": 5.465924263000488,
                "filetype": "data",
                "md5": "7db0b19408e3b6960b13bec7d8d80fc5",
                "offset": 122880,
                "size": 1209428
            },
            "resource_details": [
                {
                    "chi2": 1087312.0,
                    "entropy": 0.0,
                    "filetype": "ASCII text",
                    "lang": "NEUTRAL",
                    "sha256": "6389684b4c4ad12dc53c8cbbce4cf65f283c8fb4d8b98d90df7485a9424873fa",
                    "type": "RT_ICON"
                },
                {
                    "chi2": 1823.2001953125,
                    "entropy": 1.9192407131195068,
                    "filetype": "data",
                    "lang": "ARABIC EGYPT",
                    "sha256": "1f08569caa4db78cd12752e0343cd4bfd02c5990676e45b472c5e0572a841b7c",
                    "type": "RT_GROUP_ICON"
                }
            ],
            "resource_langs": {
                "ARABIC EGYPT": 1,
                "NEUTRAL": 1
            },
            "resource_types": {
                "RT_GROUP_ICON": 1,
                "RT_ICON": 1
            },
            "sections": [
                {
                    "entropy": 5.75,
                    "md5": "aa693ccb20f4aec4f824279d3129a70a",
                    "name": ".text",
                    "raw_size": 8192,
                    "virtual_address": 4096,
                    "virtual_size": 7232
                },
                {
                    "entropy": 3.0,
                    "md5": "5067223f397aaf0757a8e6e20d932ac1",
                    "name": ".rdata",
                    "raw_size": 4096,
                    "virtual_address": 12288,
                    "virtual_size": 2028
                },
                {
                    "entropy": 0.32,
                    "md5": "0196736a2445edb843d67000ea7086a7",
                    "name": ".data",
                    "raw_size": 4096,
                    "virtual_address": 16384,
                    "virtual_size": 284
                },
                {
                    "entropy": 5.74,
                    "md5": "59c33d86fc948fdf32591502509ca586",
                    "name": ".rsrc",
                    "raw_size": 102400,
                    "virtual_address": 20480,
                    "virtual_size": 102400
                }
            ],
            "timestamp": 1094982929
        },
        "reputation": 0,
        "sha1": "4e60e3590057b47a32b5ef7645a6bff668ce815a",
        "sha256": "00056055e9182b9b00c3edd90f5347e7bb34fdd6d149e3c7cc87c0c15248684e",
        "size": 1332308,
        "ssdeep": "24576:kT1xz+AUTpldXcunajQEPnvg6PhWDC750n6:SjZnvgdo06",
        "tags": [
            "peexe",
            "overlay"
        ],
        "times_submitted": 2,
        "total_votes": {
            "harmless": 0,
            "malicious": 0
        },
        "trid": [
            {
                "file_type": "Microsoft Visual C++ compiled executable (generic)",
                "probability": 66.0
            },
            {
                "file_type": "Win32 Executable (generic)",
                "probability": 18.0
            },
            {
                "file_type": "Generic Win/DOS Executable",
                "probability": 7.9
            },
            {
                "file_type": "DOS Executable Generic",
                "probability": 7.9
            }
        ],
        "type_description": "Win32 EXE",
        "type_extension": "exe",
        "type_tag": "peexe",
        "unique_sources": 2,
        "vhash": "01604e5d1d1f5az1315=z"
    },
    "id": "00056055e9182b9b00c3edd90f5347e7bb34fdd6d149e3c7cc87c0c15248684e",
    "links": {
        "self": "https://www.virustotal.com/api/v3/files/00056055e9182b9b00c3edd90f5347e7bb34fdd6d149e3c7cc87c0c15248684e"
    },
    "type": "file"
}