{
    "attributes": {
        "authentihash": "57f2ab5ec0b7da5776b12cc1c42fb2718ab2de9ebfdef835ac9ec891e18cf43c",
        "creation_date": 1483686027,
        "dot_net_guids": {
            "mvid": "549ac9e6-0160-488d-8c03-6881f2276f8b",
            "typelib_id": "d7cba26b-f764-4783-ae44-761ed92fdbb9"
        },
        "first_submission_date": 1500945429,
        "last_analysis_date": 1500945429,
        "last_analysis_results": {
            "ALYac": {
                "category": "undetected",
                "engine_name": "ALYac",
                "engine_update": "20170725",
                "engine_version": "1.1.1.2",
                "method": "blacklist",
                "result": null
            },
            "AVG": {
                "category": "undetected",
                "engine_name": "AVG",
                "engine_update": "20170724",
                "engine_version": "8.0.1489.320",
                "method": "blacklist",
                "result": null
            },
            "AVware": {
                "category": "undetected",
                "engine_name": "AVware",
                "engine_update": "20170721",
                "engine_version": "1.5.0.42",
                "method": "blacklist",
                "result": null
            },
            "Ad-Aware": {
                "category": "undetected",
                "engine_name": "Ad-Aware",
                "engine_update": "20170725",
                "engine_version": "3.0.3.1010",
                "method": "blacklist",
                "result": null
            },
            "AegisLab": {
                "category": "undetected",
                "engine_name": "AegisLab",
                "engine_update": "20170724",
                "engine_version": "4.2",
                "method": "blacklist",
                "result": null
            },
            "AhnLab-V3": {
                "category": "undetected",
                "engine_name": "AhnLab-V3",
                "engine_update": "20170724",
                "engine_version": "3.9.2.18187",
                "method": "blacklist",
                "result": null
            },
            "Alibaba": {
                "category": "type-unsupported",
                "engine_name": "Alibaba",
                "engine_update": "20170724",
                "engine_version": "1.0",
                "method": "blacklist",
                "result": null
            },
            "Antiy-AVL": {
                "category": "undetected",
                "engine_name": "Antiy-AVL",
                "engine_update": "20170725",
                "engine_version": "3.0.0.1",
                "method": "blacklist",
                "result": null
            },
            "Arcabit": {
                "category": "undetected",
                "engine_name": "Arcabit",
                "engine_update": "20170724",
                "engine_version": "1.0.0.817",
                "method": "blacklist",
                "result": null
            },
            "Avast": {
                "category": "undetected",
                "engine_name": "Avast",
                "engine_update": "20170724",
                "engine_version": "8.0.1489.320",
                "method": "blacklist",
                "result": null
            },
            "Avira": {
                "category": "undetected",
                "engine_name": "Avira",
                "engine_update": "20170724",
                "engine_version": "8.3.3.4",
                "method": "blacklist",
                "result": null
            },
            "Baidu": {
                "category": "undetected",
                "engine_name": "Baidu",
                "engine_update": "20170724",
                "engine_version": "1.0.0.2",
                "method": "blacklist",
                "result": null
            },
            "BitDefender": {
                "category": "undetected",
                "engine_name": "BitDefender",
                "engine_update": "20170724",
                "engine_version": "7.2",
                "method": "blacklist",
                "result": null
            },
            "Bkav": {
                "category": "undetected",
                "engine_name": "Bkav",
                "engine_update": "20170724",
                "engine_version": "1.3.0.9262",
                "method": "blacklist",
                "result": null
            },
            "CAT-QuickHeal": {
                "category": "undetected",
                "engine_name": "CAT-QuickHeal",
                "engine_update": "20170724",
                "engine_version": "14.00",
                "method": "blacklist",
                "result": null
            },
            "CMC": {
                "category": "undetected",
                "engine_name": "CMC",
                "engine_update": "20170724",
                "engine_version": "1.1.0.977",
                "method": "blacklist",
                "result": null
            },
            "ClamAV": {
                "category": "undetected",
                "engine_name": "ClamAV",
                "engine_update": "20170725",
                "engine_version": "0.99.2.0",
                "method": "blacklist",
                "result": null
            },
            "Comodo": {
                "category": "undetected",
                "engine_name": "Comodo",
                "engine_update": "20170724",
                "engine_version": "27504",
                "method": "blacklist",
                "result": null
            },
            "CrowdStrike": {
                "category": "malicious",
                "engine_name": "CrowdStrike",
                "engine_update": "20170710",
                "engine_version": "1.0",
                "method": "blacklist",
                "result": "malicious_confidence_60% (D)"
            },
            "Cylance": {
                "category": "undetected",
                "engine_name": "Cylance",
                "engine_update": "20170725",
                "engine_version": "2.3.1.101",
                "method": "blacklist",
                "result": null
            },
            "Cyren": {
                "category": "undetected",
                "engine_name": "Cyren",
                "engine_update": "20170724",
                "engine_version": "5.4.30.7",
                "method": "blacklist",
                "result": null
            },
            "DrWeb": {
                "category": "undetected",
                "engine_name": "DrWeb",
                "engine_update": "20170724",
                "engine_version": "7.0.28.2020",
                "method": "blacklist",
                "result": null
            },
            "ESET-NOD32": {
                "category": "undetected",
                "engine_name": "ESET-NOD32",
                "engine_update": "20170724",
                "engine_version": "15801",
                "method": "blacklist",
                "result": null
            },
            "Emsisoft": {
                "category": "undetected",
                "engine_name": "Emsisoft",
                "engine_update": "20170724",
                "engine_version": "4.0.1.883",
                "method": "blacklist",
                "result": null
            },
            "Endgame": {
                "category": "undetected",
                "engine_name": "Endgame",
                "engine_update": "20170721",
                "engine_version": "0.7.6",
                "method": "blacklist",
                "result": null
            },
            "F-Prot": {
                "category": "undetected",
                "engine_name": "F-Prot",
                "engine_update": "20170724",
                "engine_version": "4.7.1.166",
                "method": "blacklist",
                "result": null
            },
            "F-Secure": {
                "category": "undetected",
                "engine_name": "F-Secure",
                "engine_update": "20170725",
                "engine_version": "11.0.19100.45",
                "method": "blacklist",
                "result": null
            },
            "Fortinet": {
                "category": "undetected",
                "engine_name": "Fortinet",
                "engine_update": "20170725",
                "engine_version": "5.4.247.0",
                "method": "blacklist",
                "result": null
            },
            "GData": {
                "category": "undetected",
                "engine_name": "GData",
                "engine_update": "20170724",
                "engine_version": "A:25.13542B:25.10073",
                "method": "blacklist",
                "result": null
            },
            "Ikarus": {
                "category": "malicious",
                "engine_name": "Ikarus",
                "engine_update": "20170724",
                "engine_version": "0.1.5.2",
                "method": "blacklist",
                "result": "Trojan.Agent"
            },
            "Invincea": {
                "category": "malicious",
                "engine_name": "Invincea",
                "engine_update": "20170607",
                "engine_version": "6.3.0.25415",
                "method": "blacklist",
                "result": "heuristic"
            },
            "Jiangmin": {
                "category": "malicious",
                "engine_name": "Jiangmin",
                "engine_update": "20170724",
                "engine_version": "16.0.100",
                "method": "blacklist",
                "result": "Trojan.MSIL.firq"
            },
            "K7AntiVirus": {
                "category": "malicious",
                "engine_name": "K7AntiVirus",
                "engine_update": "20170724",
                "engine_version": "10.19.24077",
                "method": "blacklist",
                "result": "Riskware ( 0040eff71 )"
            },
            "K7GW": {
                "category": "malicious",
                "engine_name": "K7GW",
                "engine_update": "20170724",
                "engine_version": "10.19.24077",
                "method": "blacklist",
                "result": "Riskware ( 0040eff71 )"
            },
            "Kaspersky": {
                "category": "undetected",
                "engine_name": "Kaspersky",
                "engine_update": "20170725",
                "engine_version": "15.0.1.13",
                "method": "blacklist",
                "result": null
            },
            "Kingsoft": {
                "category": "undetected",
                "engine_name": "Kingsoft",
                "engine_update": "20170725",
                "engine_version": "2013.8.14.323",
                "method": "blacklist",
                "result": null
            },
            "MAX": {
                "category": "undetected",
                "engine_name": "MAX",
                "engine_update": "20170725",
                "engine_version": "2017.6.26.1",
                "method": "blacklist",
                "result": null
            },
            "Malwarebytes": {
                "category": "undetected",
                "engine_name": "Malwarebytes",
                "engine_update": "20170725",
                "engine_version": "2.1.1.1115",
                "method": "blacklist",
                "result": null
            },
            "McAfee": {
                "category": "undetected",
                "engine_name": "McAfee",
                "engine_update": "20170723",
                "engine_version": "6.0.6.653",
                "method": "blacklist",
                "result": null
            },
            "McAfee-GW-Edition": {
                "category": "undetected",
                "engine_name": "McAfee-GW-Edition",
                "engine_update": "20170724",
                "engine_version": "v2015",
                "method": "blacklist",
                "result": null
            },
            "MicroWorld-eScan": {
                "category": "undetected",
                "engine_name": "MicroWorld-eScan",
                "engine_update": "20170725",
                "engine_version": "12.0.250.0",
                "method": "blacklist",
                "result": null
            },
            "Microsoft": {
                "category": "undetected",
                "engine_name": "Microsoft",
                "engine_update": "20170725",
                "engine_version": "1.1.14003.0",
                "method": "blacklist",
                "result": null
            },
            "NANO-Antivirus": {
                "category": "undetected",
                "engine_name": "NANO-Antivirus",
                "engine_update": "20170724",
                "engine_version": "1.0.92.17955",
                "method": "blacklist",
                "result": null
            },
            "Paloalto": {
                "category": "undetected",
                "engine_name": "Paloalto",
                "engine_update": "20170725",
                "engine_version": "1.0",
                "method": "blacklist",
                "result": null
            },
            "Panda": {
                "category": "undetected",
                "engine_name": "Panda",
                "engine_update": "20170724",
                "engine_version": "4.6.4.2",
                "method": "blacklist",
                "result": null
            },
            "Qihoo-360": {
                "category": "undetected",
                "engine_name": "Qihoo-360",
                "engine_update": "20170725",
                "engine_version": "1.0.0.1120",
                "method": "blacklist",
                "result": null
            },
            "Rising": {
                "category": "undetected",
                "engine_name": "Rising",
                "engine_update": "20170724",
                "engine_version": "25.0.0.1",
                "method": "blacklist",
                "result": null
            },
            "SUPERAntiSpyware": {
                "category": "undetected",
                "engine_name": "SUPERAntiSpyware",
                "engine_update": "20170725",
                "engine_version": "5.6.0.1032",
                "method": "blacklist",
                "result": null
            },
            "SentinelOne": {
                "category": "undetected",
                "engine_name": "SentinelOne",
                "engine_update": "20170718",
                "engine_version": "1.0.1.223",
                "method": "blacklist",
                "result": null
            },
            "Sophos": {
                "category": "undetected",
                "engine_name": "Sophos",
                "engine_update": "20170724",
                "engine_version": "4.98.0",
                "method": "blacklist",
                "result": null
            },
            "Symantec": {
                "category": "undetected",
                "engine_name": "Symantec",
                "engine_update": "20170724",
                "engine_version": "1.4.0.0",
                "method": "blacklist",
                "result": null
            },
            "SymantecMobileInsight": {
                "category": "type-unsupported",
                "engine_name": "SymantecMobileInsight",
                "engine_update": "20170724",
                "engine_version": "1.0.0.35_220",
                "method": "blacklist",
                "result": null
            },
            "Tencent": {
                "category": "undetected",
                "engine_name": "Tencent",
                "engine_update": "20170725",
                "engine_version": "1.0.0.1",
                "method": "blacklist",
                "result": null
            },
            "TheHacker": {
                "category": "undetected",
                "engine_name": "TheHacker",
                "engine_update": "20170724",
                "engine_version": "6.8.0.5.1772",
                "method": "blacklist",
                "result": null
            },
            "TotalDefense": {
                "category": "undetected",
                "engine_name": "TotalDefense",
                "engine_update": "20170724",
                "engine_version": "37.1.62.1",
                "method": "blacklist",
                "result": null
            },
            "TrendMicro-HouseCall": {
                "category": "undetected",
                "engine_name": "TrendMicro-HouseCall",
                "engine_update": "20170725",
                "engine_version": "9.950.0.1006",
                "method": "blacklist",
                "result": null
            },
            "Trustlook": {
                "category": "type-unsupported",
                "engine_name": "Trustlook",
                "engine_update": "20170725",
                "engine_version": "2",
                "method": "blacklist",
                "result": null
            },
            "VBA32": {
                "category": "malicious",
                "engine_name": "VBA32",
                "engine_update": "20170724",
                "engine_version": "3.12.26.4",
                "method": "blacklist",
                "result": "Trojan.MSIL.Agent"
            },
            "VIPRE": {
                "category": "undetected",
                "engine_name": "VIPRE",
                "engine_update": "20170725",
                "engine_version": "59790",
                "method": "blacklist",
                "result": null
            },
            "ViRobot": {
                "category": "undetected",
                "engine_name": "ViRobot",
                "engine_update": "20170724",
                "engine_version": "2014.3.20.0",
                "method": "blacklist",
                "result": null
            },
            "Webroot": {
                "category": "undetected",
                "engine_name": "Webroot",
                "engine_update": "20170725",
                "engine_version": "1.0.0.207",
                "method": "blacklist",
                "result": null
            },
            "WhiteArmor": {
                "category": "type-unsupported",
                "engine_name": "WhiteArmor",
                "engine_update": "20170721",
                "engine_version": "9101276",
                "method": "blacklist",
                "result": null
            },
            "Yandex": {
                "category": "malicious",
                "engine_name": "Yandex",
                "engine_update": "20170724",
                "engine_version": "5.5.1.3",
                "method": "blacklist",
                "result": "Trojan.Agent!Afd94k4Vo+4"
            },
            "Zillya": {
                "category": "undetected",
                "engine_name": "Zillya",
                "engine_update": "20170724",
                "engine_version": "2.0.0.3344",
                "method": "blacklist",
                "result": null
            },
            "ZoneAlarm": {
                "category": "undetected",
                "engine_name": "ZoneAlarm",
                "engine_update": "20170724",
                "engine_version": "1.0",
                "method": "blacklist",
                "result": null
            },
            "Zoner": {
                "category": "undetected",
                "engine_name": "Zoner",
                "engine_update": "20170725",
                "engine_version": "1.0",
                "method": "blacklist",
                "result": null
            },
            "nProtect": {
                "category": "undetected",
                "engine_name": "nProtect",
                "engine_update": "20170725",
                "engine_version": "2017-07-25.01",
                "method": "blacklist",
                "result": null
            }
        },
        "last_analysis_stats": {
            "confirmed-timeout": 0,
            "failure": 0,
            "harmless": 0,
            "malicious": 8,
            "suspicious": 0,
            "timeout": 0,
            "type-unsupported": 4,
            "undetected": 55
        },
        "last_modification_date": 1500945789,
        "last_submission_date": 1500945429,
        "magic": "PE32 executable for MS Windows (GUI) Intel 80386 32-bit Mono/.Net assembly",
        "md5": "8095884f1395f6ccec51c0087abf962d",
        "meaningful_name": "TechSuite.exe",
        "names": [
            "TechSuite.exe"
        ],
        "pe_info": {
            "entry_point": 10827310,
            "imphash": "f34d5f2d4577ed6d9ceec516c1f5a744",
            "import_list": [
                {
                    "imported_functions": [
                        "_CorExeMain"
                    ],
                    "library_name": "mscoree.dll"
                }
            ],
            "machine_type": 332,
            "overlay": {
                "entropy": 7.365642985179299,
                "filetype": "data",
                "md5": "7ee3edcba6297a7c3d7ea28f7a2f2b4e",
                "offset": 11100672,
                "size": 4872
            },
            "resource_details": [
                {
                    "filetype": "data",
                    "lang": "NEUTRAL",
                    "sha256": "7014362dd884609662dd51f242d5aea4a1c92da74869c35cd367ed1a031a85db",
                    "type": "RT_ICON"
                },
                {
                    "filetype": "data",
                    "lang": "NEUTRAL",
                    "sha256": "70052083ed60b3309b8c577681b2f3704df9a9d08693ef1ecc572ee36c8beaed",
                    "type": "RT_ICON"
                },
                {
                    "filetype": "data",
                    "lang": "NEUTRAL",
                    "sha256": "6786bc46712c1ef2a6f4e408585a8352d010e4c4784fe7edbd28ba15dd00ecf6",
                    "type": "RT_ICON"
                },
                {
                    "filetype": "data",
                    "lang": "NEUTRAL",
                    "sha256": "9bb05d4ec2549dbed4429f100d76a3b28b9f43074844f5222556087873a4dea2",
                    "type": "RT_ICON"
                },
                {
                    "filetype": "data",
                    "lang": "NEUTRAL",
                    "sha256": "c689f7e0c23862b93efdcc35a5e6833ed21eb07561f7514e7f5088873ff0a9dc",
                    "type": "RT_ICON"
                },
                {
                    "filetype": "data",
                    "lang": "NEUTRAL",
                    "sha256": "c266223b16d1ae4cfd0cd9df86073a51afee07b570e367bafb4f8ca25a6f153b",
                    "type": "RT_GROUP_ICON"
                },
                {
                    "filetype": "data",
                    "lang": "NEUTRAL",
                    "sha256": "0caac3ddb20ac272ccd91b1c0b36a093533014d82d8c678f95de920bd685e736",
                    "type": "RT_VERSION"
                },
                {
                    "filetype": "data",
                    "lang": "NEUTRAL",
                    "sha256": "1eeeff9046df79d8a285f607493c5d2796a1bb84e5e1f5eef98e5bf3292a5fd5",
                    "type": "RT_MANIFEST"
                }
            ],
            "resource_langs": {
                "NEUTRAL": 8
            },
            "resource_types": {
                "RT_GROUP_ICON": 1,
                "RT_ICON": 5,
                "RT_MANIFEST": 1,
                "RT_VERSION": 1
            },
            "sections": [
                {
                    "entropy": 7.23,
                    "md5": "122a5a100ca137d951e747a6befa09b9",
                    "name": ".text",
                    "raw_size": 10819584,
                    "virtual_address": 8192,
                    "virtual_size": 10819124
                },
                {
                    "entropy": 2.71,
                    "md5": "50183913d5ab2416c2ce6f3990e57847",
                    "name": ".rsrc",
                    "raw_size": 280064,
                    "virtual_address": 10829824,
                    "virtual_size": 280064
                },
                {
                    "entropy": 0.1,
                    "md5": "c964ad157f635b02748389e8ae9b2e3b",
                    "name": ".reloc",
                    "raw_size": 512,
                    "virtual_address": 11116544,
                    "virtual_size": 12
                }
            ],
            "timestamp": 1483686027
        },
        "reputation": 0,
        "sha1": "6796b97128ab11af97b6a01693d0a0d458b327ca",
        "sha256": "00058d9255f48d46f769c35e69450d11381300f4c1edf68323c6997fb7e26428",
        "signature_info": {
            "counter signers": "Symantec Time Stamping Services Signer - G4; Symantec Time Stamping Services CA - G2; Thawte Timestamping CA",
            "counter signers details": [
                {
                    "algorithm": "sha1RSA",
                    "cert issuer": "Symantec Time Stamping Services CA - G2",
                    "name": "Symantec Time Stamping Services Signer - G4",
                    "serial number": "0E CF F4 38 C8 FE BF 35 6E 04 D8 6A 98 1B 1A 50",
                    "status": "Valid",
                    "thumbprint": "65439929B67973EB192D6FF243E6767ADF0834E4",
                    "valid from": "1:00 AM 10/18/2012",
                    "valid to": "12:59 AM 12/30/2020",
                    "valid usage": "Timestamp Signing"
                },
                {
                    "algorithm": "sha1RSA",
                    "cert issuer": "Thawte Timestamping CA",
                    "name": "Symantec Time Stamping Services CA - G2",
                    "serial number": "7E 93 EB FB 7C C6 4E 59 EA 4B 9A 77 D4 06 FC 3B",
                    "status": "Valid",
                    "thumbprint": "6C07453FFDDA08B83707C09B82FB3D15F35336B1",
                    "valid from": "1:00 AM 12/21/2012",
                    "valid to": "12:59 AM 12/31/2020",
                    "valid usage": "Timestamp Signing"
                },
                {
                    "algorithm": "md5RSA",
                    "cert issuer": "Thawte Timestamping CA",
                    "name": "Thawte Timestamping CA",
                    "serial number": "00",
                    "status": "Valid",
                    "thumbprint": "BE36A4562FB2EE05DBB3D32323ADF445084ED656",
                    "valid from": "1:00 AM 1/1/1997",
                    "valid to": "12:59 AM 1/1/2021",
                    "valid usage": "Timestamp Signing"
                }
            ],
            "description": "TechSuite",
            "file version": "1.0.4.0",
            "internal name": "TechSuite.exe",
            "original name": "TechSuite.exe",
            "product": "TechSuite",
            "signers": "RepairTech, Inc.; COMODO RSA Code Signing CA; COMODO SECURE?",
            "signers details": [
                {
                    "algorithm": "sha256RSA",
                    "cert issuer": "COMODO RSA Code Signing CA",
                    "name": "RepairTech, Inc.",
                    "serial number": "00 C7 32 AE B1 83 C8 51 2C 14 0E B7 B2 E7 4F D7 A4",
                    "status": "This certificate or one of the certificates in the certificate chain is not time valid.",
                    "thumbprint": "86387EB539C0405BDD16754D1B83D35B1498D900",
                    "valid from": "1:00 AM 5/14/2016",
                    "valid to": "12:59 AM 5/15/2017",
                    "valid usage": "Code Signing"
                },
                {
                    "algorithm": "sha384RSA",
                    "cert issuer": "COMODO RSA Certification Authority",
                    "name": "COMODO RSA Code Signing CA",
                    "serial number": "2E 7C 87 CC 0E 93 4A 52 FE 94 FD 1C B7 CD 34 AF",
                    "status": "Valid",
                    "thumbprint": "B69E752BBE88B4458200A7C0F4F5B3CCE6F35B47",
                    "valid from": "1:00 AM 5/9/2013",
                    "valid to": "12:59 AM 5/9/2028",
                    "valid usage": "Code Signing"
                },
                {
                    "algorithm": "sha384RSA",
                    "cert issuer": "COMODO RSA Certification Authority",
                    "name": "COMODO SECURE?",
                    "serial number": "4C AA F9 CA DB 63 6F E0 1F F7 4E D8 5B 03 86 9D",
                    "status": "Valid",
                    "thumbprint": "AFE5D244A8D1194230FF479FE2F897BBCD7A8CB4",
                    "valid from": "1:00 AM 1/19/2010",
                    "valid to": "12:59 AM 1/19/2038",
                    "valid usage": "Server Auth, Client Auth, Email Protection, Code Signing, Timestamp Signing, EFS, IPSEC Tunnel, IPSEC User"
                }
            ],
            "verified": "A required certificate is not within its validity period when verifying against the current system clock or the timestamp in the signed file."
        },
        "size": 11105544,
        "ssdeep": "196608:TRJHCCYwsF7FdidV+rNM+8atWx5yKQAj7VHhUX:DHzYPMdArDRUCAPVeX",
        "tags": [
            "peexe",
            "assembly",
            "signed",
            "overlay"
        ],
        "times_submitted": 1,
        "total_votes": {
            "harmless": 0,
            "malicious": 0
        },
        "trid": [
            {
                "file_type": "Win64 Executable (generic)",
                "probability": 61.6
            },
            {
                "file_type": "Win32 Dynamic Link Library (generic)",
                "probability": 14.6
            },
            {
                "file_type": "Win32 Executable (generic)",
                "probability": 10.0
            },
            {
                "file_type": "Win16/32 Executable Delphi generic",
                "probability": 4.6
            },
            {
                "file_type": "Generic Win/DOS Executable",
                "probability": 4.4
            }
        ],
        "type_description": "Win32 EXE",
        "type_extension": "exe",
        "type_tag": "peexe",
        "unique_sources": 1,
        "vhash": "21703675151ff0d17ffff27587f"
    },
    "id": "00058d9255f48d46f769c35e69450d11381300f4c1edf68323c6997fb7e26428",
    "links": {
        "self": "https://www.virustotal.com/api/v3/files/00058d9255f48d46f769c35e69450d11381300f4c1edf68323c6997fb7e26428"
    },
    "type": "file"
}