{
    "attributes": {
        "authentihash": "743c90d76dd58749001510ab9d7601cf68722e8b75392d7be5952d0e77a2f78a",
        "creation_date": 1515589038,
        "first_submission_date": 1518371890,
        "last_analysis_date": 1518371890,
        "last_analysis_results": {
            "ALYac": {
                "category": "malicious",
                "engine_name": "ALYac",
                "engine_update": "20180211",
                "engine_version": "1.1.1.5",
                "method": "blacklist",
                "result": "Gen:Win32.SiteHijack.ws3@aukf3xgb"
            },
            "AVG": {
                "category": "malicious",
                "engine_name": "AVG",
                "engine_update": "20180211",
                "engine_version": "17.9.3761.0",
                "method": "blacklist",
                "result": "Win32:Malware-gen"
            },
            "AVware": {
                "category": "malicious",
                "engine_name": "AVware",
                "engine_update": "20180210",
                "engine_version": "1.5.0.42",
                "method": "blacklist",
                "result": "Trojan.Win32.Generic!BT"
            },
            "Ad-Aware": {
                "category": "malicious",
                "engine_name": "Ad-Aware",
                "engine_update": "20180211",
                "engine_version": "3.0.3.1010",
                "method": "blacklist",
                "result": "Gen:Win32.SiteHijack.ws3@aukf3xgb"
            },
            "AegisLab": {
                "category": "undetected",
                "engine_name": "AegisLab",
                "engine_update": "20180211",
                "engine_version": "4.2",
                "method": "blacklist",
                "result": null
            },
            "AhnLab-V3": {
                "category": "undetected",
                "engine_name": "AhnLab-V3",
                "engine_update": "20180211",
                "engine_version": "3.11.3.19504",
                "method": "blacklist",
                "result": null
            },
            "Alibaba": {
                "category": "type-unsupported",
                "engine_name": "Alibaba",
                "engine_update": "20180209",
                "engine_version": "1.0",
                "method": "blacklist",
                "result": null
            },
            "Antiy-AVL": {
                "category": "malicious",
                "engine_name": "Antiy-AVL",
                "engine_update": "20180211",
                "engine_version": "3.0.0.1",
                "method": "blacklist",
                "result": "Trojan/Win32.TSGeneric"
            },
            "Arcabit": {
                "category": "malicious",
                "engine_name": "Arcabit",
                "engine_update": "20180211",
                "engine_version": "1.0.0.830",
                "method": "blacklist",
                "result": "Gen:Win32.SiteHijack.EFDA12"
            },
            "Avast": {
                "category": "malicious",
                "engine_name": "Avast",
                "engine_update": "20180211",
                "engine_version": "17.9.3761.0",
                "method": "blacklist",
                "result": "Win32:Malware-gen"
            },
            "Avast-Mobile": {
                "category": "undetected",
                "engine_name": "Avast-Mobile",
                "engine_update": "20180211",
                "engine_version": "180211-00",
                "method": "blacklist",
                "result": null
            },
            "Avira": {
                "category": "malicious",
                "engine_name": "Avira",
                "engine_update": "20180211",
                "engine_version": "8.3.3.6",
                "method": "blacklist",
                "result": "TR/ATRAPS.Gen"
            },
            "Baidu": {
                "category": "undetected",
                "engine_name": "Baidu",
                "engine_update": "20180208",
                "engine_version": "1.0.0.2",
                "method": "blacklist",
                "result": null
            },
            "BitDefender": {
                "category": "malicious",
                "engine_name": "BitDefender",
                "engine_update": "20180211",
                "engine_version": "7.2",
                "method": "blacklist",
                "result": "Gen:Win32.SiteHijack.ws3@aukf3xgb"
            },
            "Bkav": {
                "category": "malicious",
                "engine_name": "Bkav",
                "engine_update": "20180209",
                "engine_version": "1.3.0.9466",
                "method": "blacklist",
                "result": "W32.FamVT.InjectMTTc.Worm"
            },
            "CAT-QuickHeal": {
                "category": "malicious",
                "engine_name": "CAT-QuickHeal",
                "engine_update": "20180211",
                "engine_version": "14.00",
                "method": "blacklist",
                "result": "W32.CoinMiner.A4"
            },
            "CMC": {
                "category": "undetected",
                "engine_name": "CMC",
                "engine_update": "20180211",
                "engine_version": "1.1.0.977",
                "method": "blacklist",
                "result": null
            },
            "ClamAV": {
                "category": "malicious",
                "engine_name": "ClamAV",
                "engine_update": "20180211",
                "engine_version": "0.99.2.0",
                "method": "blacklist",
                "result": "Win.Trojan.Qhost-160"
            },
            "Comodo": {
                "category": "undetected",
                "engine_name": "Comodo",
                "engine_update": "20180211",
                "engine_version": null,
                "method": "blacklist",
                "result": null
            },
            "CrowdStrike": {
                "category": "malicious",
                "engine_name": "CrowdStrike",
                "engine_update": "20170201",
                "engine_version": "1.0",
                "method": "blacklist",
                "result": "malicious_confidence_70% (D)"
            },
            "Cybereason": {
                "category": "malicious",
                "engine_name": "Cybereason",
                "engine_update": "20180205",
                "engine_version": "1.2.27",
                "method": "blacklist",
                "result": "malicious.6401b5"
            },
            "Cylance": {
                "category": "malicious",
                "engine_name": "Cylance",
                "engine_update": "20180211",
                "engine_version": "2.3.1.101",
                "method": "blacklist",
                "result": "Unsafe"
            },
            "Cyren": {
                "category": "malicious",
                "engine_name": "Cyren",
                "engine_update": "20180211",
                "engine_version": "5.4.30.7",
                "method": "blacklist",
                "result": "W32/CoinMiner.M.gen!Eldorado"
            },
            "DrWeb": {
                "category": "malicious",
                "engine_name": "DrWeb",
                "engine_update": "20180211",
                "engine_version": "7.0.28.2020",
                "method": "blacklist",
                "result": "Tool.BtcMine.1051"
            },
            "ESET-NOD32": {
                "category": "malicious",
                "engine_name": "ESET-NOD32",
                "engine_update": "20180211",
                "engine_version": "16887",
                "method": "blacklist",
                "result": "a variant of Win32/Agent.OAT"
            },
            "Emsisoft": {
                "category": "malicious",
                "engine_name": "Emsisoft",
                "engine_update": "20180211",
                "engine_version": "4.0.2.899",
                "method": "blacklist",
                "result": "Gen:Win32.SiteHijack.ws3@aukf3xgb (B)"
            },
            "Endgame": {
                "category": "malicious",
                "engine_name": "Endgame",
                "engine_update": "20171130",
                "engine_version": "1.1.4",
                "method": "blacklist",
                "result": "malicious (high confidence)"
            },
            "F-Prot": {
                "category": "malicious",
                "engine_name": "F-Prot",
                "engine_update": "20180211",
                "engine_version": "4.7.1.166",
                "method": "blacklist",
                "result": "W32/CoinMiner.M.gen!Eldorado"
            },
            "F-Secure": {
                "category": "malicious",
                "engine_name": "F-Secure",
                "engine_update": "20180211",
                "engine_version": "11.0.19100.45",
                "method": "blacklist",
                "result": "Gen:Win32.SiteHijack.ws3@aukf3xgb"
            },
            "Fortinet": {
                "category": "malicious",
                "engine_name": "Fortinet",
                "engine_update": "20180211",
                "engine_version": "5.4.247.0",
                "method": "blacklist",
                "result": "W32/Agent.OJQ!tr.spy"
            },
            "GData": {
                "category": "malicious",
                "engine_name": "GData",
                "engine_update": "20180211",
                "engine_version": "A:25.15995B:25.11560",
                "method": "blacklist",
                "result": "Win32.Trojan.Agent.WP"
            },
            "Ikarus": {
                "category": "malicious",
                "engine_name": "Ikarus",
                "engine_update": "20180211",
                "engine_version": "0.1.5.2",
                "method": "blacklist",
                "result": "Worm.Win32.Agent"
            },
            "Invincea": {
                "category": "undetected",
                "engine_name": "Invincea",
                "engine_update": "20180121",
                "engine_version": "6.3.4.26036",
                "method": "blacklist",
                "result": null
            },
            "Jiangmin": {
                "category": "malicious",
                "engine_name": "Jiangmin",
                "engine_update": "20180211",
                "engine_version": "16.0.100",
                "method": "blacklist",
                "result": "Trojan.Generic.bywsd"
            },
            "K7AntiVirus": {
                "category": "malicious",
                "engine_name": "K7AntiVirus",
                "engine_update": "20180211",
                "engine_version": "10.39.26172",
                "method": "blacklist",
                "result": "Trojan ( 005256721 )"
            },
            "K7GW": {
                "category": "malicious",
                "engine_name": "K7GW",
                "engine_update": "20180211",
                "engine_version": "10.39.26172",
                "method": "blacklist",
                "result": "Trojan ( 005256721 )"
            },
            "Kaspersky": {
                "category": "malicious",
                "engine_name": "Kaspersky",
                "engine_update": "20180211",
                "engine_version": "15.0.1.13",
                "method": "blacklist",
                "result": "HEUR:Trojan.Win32.Generic"
            },
            "Kingsoft": {
                "category": "undetected",
                "engine_name": "Kingsoft",
                "engine_update": "20180211",
                "engine_version": "2013.8.14.323",
                "method": "blacklist",
                "result": null
            },
            "MAX": {
                "category": "malicious",
                "engine_name": "MAX",
                "engine_update": "20180211",
                "engine_version": "2017.11.15.1",
                "method": "blacklist",
                "result": "malware (ai score=80)"
            },
            "Malwarebytes": {
                "category": "malicious",
                "engine_name": "Malwarebytes",
                "engine_update": "20180211",
                "engine_version": "2.1.1.1115",
                "method": "blacklist",
                "result": "PUP.Optional.ChinAd"
            },
            "McAfee": {
                "category": "malicious",
                "engine_name": "McAfee",
                "engine_update": "20180211",
                "engine_version": "6.0.6.653",
                "method": "blacklist",
                "result": "Trojan-FOZU!0AE6B5E6401B"
            },
            "McAfee-GW-Edition": {
                "category": "malicious",
                "engine_name": "McAfee-GW-Edition",
                "engine_update": "20180211",
                "engine_version": "v2015",
                "method": "blacklist",
                "result": "BehavesLike.Win32.Trojan.vh"
            },
            "MicroWorld-eScan": {
                "category": "malicious",
                "engine_name": "MicroWorld-eScan",
                "engine_update": "20180211",
                "engine_version": "14.0.297.0",
                "method": "blacklist",
                "result": "Gen:Win32.SiteHijack.ws3@aukf3xgb"
            },
            "Microsoft": {
                "category": "malicious",
                "engine_name": "Microsoft",
                "engine_update": "20180211",
                "engine_version": "1.1.14500.5",
                "method": "blacklist",
                "result": "Trojan:Win32/Qhost!rfn"
            },
            "NANO-Antivirus": {
                "category": "malicious",
                "engine_name": "NANO-Antivirus",
                "engine_update": "20180211",
                "engine_version": "1.0.100.21369",
                "method": "blacklist",
                "result": "Trojan.Win32.BtcMine.exddfs"
            },
            "Paloalto": {
                "category": "undetected",
                "engine_name": "Paloalto",
                "engine_update": "20180211",
                "engine_version": "1.0",
                "method": "blacklist",
                "result": null
            },
            "Panda": {
                "category": "malicious",
                "engine_name": "Panda",
                "engine_update": "20180211",
                "engine_version": "4.6.4.2",
                "method": "blacklist",
                "result": "Trj/Genetic.gen"
            },
            "Qihoo-360": {
                "category": "undetected",
                "engine_name": "Qihoo-360",
                "engine_update": "20180211",
                "engine_version": "1.0.0.1120",
                "method": "blacklist",
                "result": null
            },
            "Rising": {
                "category": "malicious",
                "engine_name": "Rising",
                "engine_update": "20180211",
                "engine_version": "25.0.0.1",
                "method": "blacklist",
                "result": "Worm.Agent!1.AFBD (CLASSIC)"
            },
            "SUPERAntiSpyware": {
                "category": "undetected",
                "engine_name": "SUPERAntiSpyware",
                "engine_update": "20180211",
                "engine_version": "5.6.0.1032",
                "method": "blacklist",
                "result": null
            },
            "SentinelOne": {
                "category": "undetected",
                "engine_name": "SentinelOne",
                "engine_update": "20180115",
                "engine_version": "1.0.12.202",
                "method": "blacklist",
                "result": null
            },
            "Sophos": {
                "category": "malicious",
                "engine_name": "Sophos",
                "engine_update": "20180211",
                "engine_version": "4.98.0",
                "method": "blacklist",
                "result": "W32/Baaxi-Gen"
            },
            "Symantec": {
                "category": "malicious",
                "engine_name": "Symantec",
                "engine_update": "20180211",
                "engine_version": "1.5.0.0",
                "method": "blacklist",
                "result": "W32.XiaobaMiner"
            },
            "SymantecMobileInsight": {
                "category": "type-unsupported",
                "engine_name": "SymantecMobileInsight",
                "engine_update": "20180209",
                "engine_version": "1.0.0.35_220",
                "method": "blacklist",
                "result": null
            },
            "Tencent": {
                "category": "undetected",
                "engine_name": "Tencent",
                "engine_update": "20180211",
                "engine_version": "1.0.0.1",
                "method": "blacklist",
                "result": null
            },
            "TheHacker": {
                "category": "undetected",
                "engine_name": "TheHacker",
                "engine_update": "20180208",
                "engine_version": "6.8.0.5.2381",
                "method": "blacklist",
                "result": null
            },
            "TotalDefense": {
                "category": "malicious",
                "engine_name": "TotalDefense",
                "engine_update": "20180211",
                "engine_version": "37.1.62.1",
                "method": "blacklist",
                "result": "Win32/Oflwr.A!crypt"
            },
            "TrendMicro": {
                "category": "malicious",
                "engine_name": "TrendMicro",
                "engine_update": "20180211",
                "engine_version": "9.862.0.1074",
                "method": "blacklist",
                "result": "TROJ_GEN.R03AC0CBB18"
            },
            "TrendMicro-HouseCall": {
                "category": "malicious",
                "engine_name": "TrendMicro-HouseCall",
                "engine_update": "20180211",
                "engine_version": "9.950.0.1006",
                "method": "blacklist",
                "result": "TROJ_GEN.R03AC0CBB18"
            },
            "Trustlook": {
                "category": "type-unsupported",
                "engine_name": "Trustlook",
                "engine_update": "20180211",
                "engine_version": "2",
                "method": "blacklist",
                "result": null
            },
            "VBA32": {
                "category": "malicious",
                "engine_name": "VBA32",
                "engine_update": "20180209",
                "engine_version": "3.12.28.0",
                "method": "blacklist",
                "result": "Trojan.Forcud"
            },
            "VIPRE": {
                "category": "malicious",
                "engine_name": "VIPRE",
                "engine_update": "20180211",
                "engine_version": "64522",
                "method": "blacklist",
                "result": "Trojan.Win32.Generic!BT"
            },
            "ViRobot": {
                "category": "undetected",
                "engine_name": "ViRobot",
                "engine_update": "20180211",
                "engine_version": "2014.3.20.0",
                "method": "blacklist",
                "result": null
            },
            "Webroot": {
                "category": "malicious",
                "engine_name": "Webroot",
                "engine_update": "20180211",
                "engine_version": "1.0.0.207",
                "method": "blacklist",
                "result": "W32.Trojan.Qhost"
            },
            "WhiteArmor": {
                "category": "undetected",
                "engine_name": "WhiteArmor",
                "engine_update": "20180205",
                "engine_version": null,
                "method": "blacklist",
                "result": null
            },
            "Yandex": {
                "category": "undetected",
                "engine_name": "Yandex",
                "engine_update": "20180210",
                "engine_version": "5.5.1.3",
                "method": "blacklist",
                "result": null
            },
            "Zillya": {
                "category": "malicious",
                "engine_name": "Zillya",
                "engine_update": "20180209",
                "engine_version": "2.0.0.3488",
                "method": "blacklist",
                "result": "Worm.Agent.Win32.43644"
            },
            "ZoneAlarm": {
                "category": "malicious",
                "engine_name": "ZoneAlarm",
                "engine_update": "20180211",
                "engine_version": "1.0",
                "method": "blacklist",
                "result": "HEUR:Trojan.Win32.Generic"
            },
            "Zoner": {
                "category": "undetected",
                "engine_name": "Zoner",
                "engine_update": "20180211",
                "engine_version": "1.0",
                "method": "blacklist",
                "result": null
            },
            "eGambit": {
                "category": "undetected",
                "engine_name": "eGambit",
                "engine_update": "20180211",
                "engine_version": "v4.3.4",
                "method": "blacklist",
                "result": null
            },
            "nProtect": {
                "category": "undetected",
                "engine_name": "nProtect",
                "engine_update": "20180209",
                "engine_version": "2018-02-09.01",
                "method": "blacklist",
                "result": null
            }
        },
        "last_analysis_stats": {
            "confirmed-timeout": 0,
            "failure": 0,
            "harmless": 0,
            "malicious": 48,
            "suspicious": 0,
            "timeout": 0,
            "type-unsupported": 3,
            "undetected": 20
        },
        "last_modification_date": 1518372138,
        "last_submission_date": 1518371890,
        "magic": "PE32 executable for MS Windows (GUI) Intel 80386 32-bit",
        "md5": "0ae6b5e6401b586836da15e26029fb7d",
        "meaningful_name": "ZhuDongFangYu.exe",
        "names": [
            "ZhuDongFangYu",
            "ZhuDongFangYu.exe",
            "0ae6b5e6401b586836da15e26029fb7d"
        ],
        "pe_info": {
            "entry_point": 38435,
            "imphash": "53d02dee8a3558f2a2295b34eb0d6374",
            "import_list": [
                {
                    "imported_functions": [
                        "SetMapMode",
                        "SaveDC",
                        "TextOutA",
                        "GetClipBox",
                        "GetObjectA",
                        "OffsetViewportOrgEx",
                        "DeleteDC",
                        "RestoreDC",
                        "DeleteObject",
                        "SetTextColor",
                        "GetDeviceCaps",
                        "CreateBitmap",
                        "RectVisible",
                        "GetStockObject",
                        "SetViewportOrgEx",
                        "ScaleWindowExtEx",
                        "ExtTextOutA",
                        "PtVisible",
                        "ScaleViewportExtEx",
                        "SelectObject",
                        "SetWindowExtEx",
                        "Escape",
                        "SetBkColor",
                        "SetViewportExtEx"
                    ],
                    "library_name": "GDI32.dll"
                },
                {
                    "imported_functions": [
                        "SHChangeNotify",
                        "SHGetSpecialFolderPathA",
                        "ShellExecuteA"
                    ],
                    "library_name": "SHELL32.dll"
                },
                {
                    "imported_functions": [
                        "GetStdHandle",
                        "FileTimeToSystemTime",
                        "GetDriveTypeA",
                        "HeapDestroy",
                        "FreeEnvironmentStringsA",
                        "DeleteCriticalSection",
                        "GetCurrentProcess",
                        "LocalAlloc",
                        "lstrcatA",
                        "SetErrorMode",
                        "FreeEnvironmentStringsW",
                        "SetStdHandle",
                        "GetTempPathA",
                        "GetCPInfo",
                        "GetStringTypeA",
                        "GetProcessVersion",
                        "InterlockedExchange",
                        "WriteFile",
                        "HeapReAlloc",
                        "GetStringTypeW",
                        "GetFullPathNameA",
                        "FreeLibrary",
                        "LocalFree",
                        "SetWaitableTimer",
                        "GetEnvironmentVariableA",
                        "GlobalHandle",
                        "FindClose",
                        "InterlockedDecrement",
                        "SetLastError",
                        "InitializeCriticalSection",
                        "GlobalFindAtomA",
                        "HeapAlloc",
                        "GetVersionExA",
                        "GetModuleFileNameA",
                        "SetProcessWorkingSetSize",
                        "UnhandledExceptionFilter",
                        "TlsGetValue",
                        "MultiByteToWideChar",
                        "GetModuleHandleA",
                        "CreateThread",
                        "SetFileAttributesA",
                        "GlobalAddAtomA",
                        "SetUnhandledExceptionFilter",
                        "GetSystemDirectoryA",
                        "SetEnvironmentVariableA",
                        "TerminateProcess",
                        "GlobalAlloc",
                        "GetVersion",
                        "LeaveCriticalSection",
                        "CreateToolhelp32Snapshot",
                        "HeapFree",
                        "EnterCriticalSection",
                        "SetHandleCount",
                        "lstrcmpiA",
                        "GetOEMCP",
                        "GetTickCount",
                        "IsBadWritePtr",
                        "TlsAlloc",
                        "FlushFileBuffers",
                        "LoadLibraryA",
                        "RtlUnwind",
                        "Process32Next",
                        "GetStartupInfoA",
                        "GetFileSize",
                        "LCMapStringW",
                        "Process32First",
                        "CreateDirectoryA",
                        "DeleteFileA",
                        "GetWindowsDirectoryA",
                        "OpenProcess",
                        "GlobalLock",
                        "GetProcessHeap",
                        "CompareStringW",
                        "GlobalReAlloc",
                        "lstrcmpA",
                        "FindFirstFileA",
                        "lstrcpyA",
                        "CompareStringA",
                        "CreateWaitableTimerA",
                        "FindNextFileA",
                        "GetProcAddress",
                        "GetTimeZoneInformation",
                        "CreateEventA",
                        "CopyFileA",
                        "GetFileType",
                        "TlsSetValue",
                        "CreateFileA",
                        "ExitProcess",
                        "lstrcpyn",
                        "InterlockedIncrement",
                        "GetLastError",
                        "LocalReAlloc",
                        "GlobalDeleteAtom",
                        "lstrlenA",
                        "GlobalFree",
                        "LCMapStringA",
                        "GlobalGetAtomNameA",
                        "GetEnvironmentStringsW",
                        "GlobalUnlock",
                        "FileTimeToLocalFileTime",
                        "GetEnvironmentStrings",
                        "WritePrivateProfileStringA",
                        "GetCurrentProcessId",
                        "GetCurrentDirectoryA",
                        "HeapSize",
                        "GetCommandLineA",
                        "GetCurrentThread",
                        "RaiseException",
                        "TlsFree",
                        "SetFilePointer",
                        "ReadFile",
                        "GlobalFlags",
                        "CloseHandle",
                        "lstrcpynA",
                        "GetACP",
                        "GetCurrentThreadId",
                        "WideCharToMultiByte",
                        "HeapCreate",
                        "VirtualFree",
                        "Sleep",
                        "IsBadReadPtr",
                        "IsBadCodePtr",
                        "OpenEventA",
                        "VirtualAlloc"
                    ],
                    "library_name": "KERNEL32.DLL"
                },
                {
                    "imported_functions": [
                        "OpenPrinterA",
                        "DocumentPropertiesA",
                        "ClosePrinter"
                    ],
                    "library_name": "WINSPOOL.DRV"
                },
                {
                    "imported_functions": [
                        "RegDeleteKeyA",
                        "LookupPrivilegeValueA",
                        "RegOpenKeyA",
                        "RegCloseKey",
                        "OpenProcessToken",
                        "AdjustTokenPrivileges",
                        "RegSetValueExA",
                        "RegDeleteValueA",
                        "RegCreateKeyExA",
                        "RegOpenKeyExA"
                    ],
                    "library_name": "ADVAPI32.dll"
                },
                {
                    "imported_functions": [
                        "CoCreateInstance"
                    ],
                    "library_name": "ole32.dll"
                },
                {
                    "imported_functions": [
                        "SetFocus",
                        "GetMessagePos",
                        "SetMenuItemBitmaps",
                        "DestroyMenu",
                        "PostQuitMessage",
                        "GetForegroundWindow",
                        "LoadBitmapA",
                        "SetWindowPos",
                        "DispatchMessageA",
                        "GrayStringA",
                        "GetMessageTime",
                        "GetMenuItemID",
                        "GetCursorPos",
                        "DrawTextA",
                        "GetDlgCtrlID",
                        "GetClassInfoA",
                        "GetMenu",
                        "UnregisterClassA",
                        "SendMessageA",
                        "GetClientRect",
                        "GetNextDlgTabItem",
                        "CallNextHookEx",
                        "GetTopWindow",
                        "MsgWaitForMultipleObjects",
                        "GetActiveWindow",
                        "GetWindowTextA",
                        "PtInRect",
                        "GetMessageA",
                        "GetParent",
                        "SetPropA",
                        "ShowWindow",
                        "GetPropA",
                        "ValidateRect",
                        "EnableWindow",
                        "PeekMessageA",
                        "TranslateMessage",
                        "IsWindowEnabled",
                        "GetWindow",
                        "LoadStringA",
                        "GetWindowPlacement",
                        "EnableMenuItem",
                        "RegisterClassA",
                        "TabbedTextOutA",
                        "GetWindowLongA",
                        "CreateWindowExA",
                        "CopyRect",
                        "GetSysColorBrush",
                        "DestroyWindow",
                        "MapWindowPoints",
                        "RegisterWindowMessageA",
                        "DefWindowProcA",
                        "GetSystemMetrics",
                        "IsIconic",
                        "GetWindowRect",
                        "PostMessageA",
                        "SetWindowLongA",
                        "RemovePropA",
                        "SetWindowTextA",
                        "CheckMenuItem",
                        "GetSubMenu",
                        "GetLastActivePopup",
                        "GetDlgItem",
                        "GetMenuCheckMarkDimensions",
                        "ClientToScreen",
                        "GetClassLongA",
                        "LoadCursorA",
                        "LoadIconA",
                        "SetWindowsHookExA",
                        "GetMenuItemCount",
                        "GetMenuState",
                        "GetDC",
                        "SetForegroundWindow",
                        "ReleaseDC",
                        "GetCapture",
                        "GetWindowThreadProcessId",
                        "UnhookWindowsHookEx",
                        "MessageBoxA",
                        "AdjustWindowRectEx",
                        "GetSysColor",
                        "GetKeyState",
                        "SystemParametersInfoA",
                        "IsWindowVisible",
                        "WinHelpA",
                        "wsprintfA",
                        "CallWindowProcA",
                        "GetClassNameA",
                        "GetFocus",
                        "ModifyMenuA",
                        "SetCursor"
                    ],
                    "library_name": "USER32.dll"
                },
                {
                    "imported_functions": [
                        "Ord(17)"
                    ],
                    "library_name": "COMCTL32.dll"
                }
            ],
            "machine_type": 332,
            "overlay": {
                "chi2": 41465180.0,
                "entropy": 6.203535556793213,
                "filetype": "data",
                "md5": "9b3dc2a440972d1701df5edc8e1c0eca",
                "offset": 176128,
                "size": 2282376
            },
            "resource_details": [
                {
                    "chi2": 22901.9453125,
                    "entropy": 5.810733318328857,
                    "filetype": "data",
                    "lang": "CHINESE SIMPLIFIED",
                    "sha256": "f73151f363f5ec07fde73855c601f03a18af489ad9fef8c1c9bcd7ddb4a4ab8e",
                    "type": "RT_ICON"
                },
                {
                    "chi2": 56870.96875,
                    "entropy": 5.768304824829102,
                    "filetype": "data",
                    "lang": "CHINESE SIMPLIFIED",
                    "sha256": "e0de0d6f7e584c5cdfd3897039da252488521453810c10c80e495b5ef313d788",
                    "type": "RT_ICON"
                },
                {
                    "chi2": 103470.140625,
                    "entropy": 5.7487053871154785,
                    "filetype": "data",
                    "lang": "CHINESE SIMPLIFIED",
                    "sha256": "e830c5710af087fea95463f3d5c87b4e4658b213d29f7b675953c50417735058",
                    "type": "RT_ICON"
                },
                {
                    "chi2": 279991.90625,
                    "entropy": 5.539856433868408,
                    "filetype": "data",
                    "lang": "CHINESE SIMPLIFIED",
                    "sha256": "46a2ef7a08acde077fc27afed83284044d8d38744607ef3c8c0b7c5a4af46d5d",
                    "type": "RT_ICON"
                },
                {
                    "chi2": 4612.06298828125,
                    "entropy": 2.6230783462524414,
                    "filetype": "data",
                    "lang": "CHINESE SIMPLIFIED",
                    "sha256": "ad4a5aad6219f3a1fce97f7b45e787ca6947e9af37c4ee39698934208aeffa45",
                    "type": "RT_GROUP_ICON"
                },
                {
                    "chi2": 55034.82421875,
                    "entropy": 3.6776866912841797,
                    "filetype": "data",
                    "lang": "CHINESE SIMPLIFIED",
                    "sha256": "ae216a773e7ad6e7efd3b06e2c310f7b43010229513b899985f876e8ba7c748f",
                    "type": "RT_VERSION"
                },
                {
                    "chi2": 6778.419921875,
                    "entropy": 5.02094030380249,
                    "filetype": "ASCII text",
                    "lang": "CHINESE SIMPLIFIED",
                    "sha256": "70b7f6ec24cf159809467626ceade9ba45e1c46660c86257e85db8caa6b1926b",
                    "type": "RT_MANIFEST"
                }
            ],
            "resource_langs": {
                "CHINESE SIMPLIFIED": 7
            },
            "resource_types": {
                "RT_GROUP_ICON": 1,
                "RT_ICON": 4,
                "RT_MANIFEST": 1,
                "RT_VERSION": 1
            },
            "sections": [
                {
                    "entropy": 6.51,
                    "md5": "06ad700629040907cece454bb206890c",
                    "name": ".text",
                    "raw_size": 110592,
                    "virtual_address": 4096,
                    "virtual_size": 108518
                },
                {
                    "entropy": 4.34,
                    "md5": "abf4fa6cb8d3a592cc57a55c25ffcaeb",
                    "name": ".rdata",
                    "raw_size": 20480,
                    "virtual_address": 114688,
                    "virtual_size": 18084
                },
                {
                    "entropy": 3.08,
                    "md5": "aff137a44ce17c97d9bffc104c243e64",
                    "name": ".data",
                    "raw_size": 20480,
                    "virtual_address": 135168,
                    "virtual_size": 158942
                },
                {
                    "entropy": 5.51,
                    "md5": "e013dce1df4acc97c368b4bac99cbc83",
                    "name": ".rsrc",
                    "raw_size": 20480,
                    "virtual_address": 294912,
                    "virtual_size": 19432
                }
            ],
            "timestamp": 1515589038
        },
        "reputation": 0,
        "sha1": "761d460669a2913644ec0801d7b602cc865f8452",
        "sha256": "0005a18f4f3a02215fb59f3e77417f62a4329be711323a0ecc5d0bef23aca12d",
        "signature_info": {
            "copyright": "(C)360.cn All Rights Reserved.",
            "description": "360\u4e3b\u52a8\u9632\u5fa1\u670d\u52a1\u6a21\u5757",
            "file version": "3, 2, 2, 2075",
            "internal name": "ZhuDongFangYu",
            "original name": "ZhuDongFangYu.exe",
            "product": "360\u5b89\u5168\u536b\u58eb"
        },
        "size": 2458504,
        "ssdeep": "49152:9bYwIkppG8PsrPa0PHAgZe8Ux+V67DXDaZ2hTBfKd:yc1K/OxaeaD",
        "tags": [
            "peexe",
            "overlay"
        ],
        "times_submitted": 1,
        "total_votes": {
            "harmless": 0,
            "malicious": 0
        },
        "trid": [
            {
                "file_type": "Windows ActiveX control",
                "probability": 61.1
            },
            {
                "file_type": "Win32 Executable MS Visual C++ (generic)",
                "probability": 16.3
            },
            {
                "file_type": "Win64 Executable (generic)",
                "probability": 14.5
            },
            {
                "file_type": "Win32 Dynamic Link Library (generic)",
                "probability": 3.4
            },
            {
                "file_type": "Win32 Executable (generic)",
                "probability": 2.3
            }
        ],
        "type_description": "Win32 EXE",
        "type_extension": "exe",
        "type_tag": "peexe",
        "unique_sources": 1,
        "vhash": "026046651d1d50a012z18007c7z17z32z59fz"
    },
    "id": "0005a18f4f3a02215fb59f3e77417f62a4329be711323a0ecc5d0bef23aca12d",
    "links": {
        "self": "https://www.virustotal.com/api/v3/files/0005a18f4f3a02215fb59f3e77417f62a4329be711323a0ecc5d0bef23aca12d"
    },
    "type": "file"
}