{
    "attributes": {
        "authentihash": "9b468c71c58acea27610b3befe4a4d2b45089edd068b9e6b52480d9bd4c102c2",
        "creation_date": 1387472246,
        "first_submission_date": 1537059784,
        "last_analysis_date": 1537739202,
        "last_analysis_results": {
            "ALYac": {
                "category": "malicious",
                "engine_name": "ALYac",
                "engine_update": "20180923",
                "engine_version": "1.1.1.5",
                "method": "blacklist",
                "result": "Adware.DealPly.2.Gen"
            },
            "AVG": {
                "category": "malicious",
                "engine_name": "AVG",
                "engine_update": "20180923",
                "engine_version": "18.4.3895.0",
                "method": "blacklist",
                "result": "Win32:Evo-gen [Susp]"
            },
            "AVware": {
                "category": "undetected",
                "engine_name": "AVware",
                "engine_update": "20180923",
                "engine_version": "1.6.0.52",
                "method": "blacklist",
                "result": null
            },
            "Ad-Aware": {
                "category": "malicious",
                "engine_name": "Ad-Aware",
                "engine_update": "20180923",
                "engine_version": "3.0.5.370",
                "method": "blacklist",
                "result": "Adware.DealPly.2.Gen"
            },
            "AegisLab": {
                "category": "undetected",
                "engine_name": "AegisLab",
                "engine_update": "20180923",
                "engine_version": "4.2",
                "method": "blacklist",
                "result": null
            },
            "AhnLab-V3": {
                "category": "malicious",
                "engine_name": "AhnLab-V3",
                "engine_update": "20180923",
                "engine_version": "3.13.1.21616",
                "method": "blacklist",
                "result": "PUP/Win32.DealPly.C2639267"
            },
            "Alibaba": {
                "category": "undetected",
                "engine_name": "Alibaba",
                "engine_update": "20180921",
                "engine_version": "0.1.0.2",
                "method": "blacklist",
                "result": null
            },
            "Antiy-AVL": {
                "category": "malicious",
                "engine_name": "Antiy-AVL",
                "engine_update": "20180923",
                "engine_version": "3.0.0.1",
                "method": "blacklist",
                "result": "GrayWare[AdWare]/Win32.DealPly"
            },
            "Arcabit": {
                "category": "malicious",
                "engine_name": "Arcabit",
                "engine_update": "20180923",
                "engine_version": "1.0.0.833",
                "method": "blacklist",
                "result": "Adware.DealPly.2.Gen"
            },
            "Avast": {
                "category": "malicious",
                "engine_name": "Avast",
                "engine_update": "20180923",
                "engine_version": "18.4.3895.0",
                "method": "blacklist",
                "result": "Win32:Evo-gen [Susp]"
            },
            "Avast-Mobile": {
                "category": "undetected",
                "engine_name": "Avast-Mobile",
                "engine_update": "20180923",
                "engine_version": "180923-00",
                "method": "blacklist",
                "result": null
            },
            "Avira": {
                "category": "malicious",
                "engine_name": "Avira",
                "engine_update": "20180923",
                "engine_version": "8.3.3.6",
                "method": "blacklist",
                "result": "HEUR/AGEN.1032779"
            },
            "Babable": {
                "category": "undetected",
                "engine_name": "Babable",
                "engine_update": "20180918",
                "engine_version": "9107201",
                "method": "blacklist",
                "result": null
            },
            "Baidu": {
                "category": "undetected",
                "engine_name": "Baidu",
                "engine_update": "20180914",
                "engine_version": "1.0.0.2",
                "method": "blacklist",
                "result": null
            },
            "BitDefender": {
                "category": "malicious",
                "engine_name": "BitDefender",
                "engine_update": "20180923",
                "engine_version": "7.2",
                "method": "blacklist",
                "result": "Adware.DealPly.2.Gen"
            },
            "Bkav": {
                "category": "undetected",
                "engine_name": "Bkav",
                "engine_update": "20180921",
                "engine_version": "1.3.0.8876",
                "method": "blacklist",
                "result": null
            },
            "CAT-QuickHeal": {
                "category": "malicious",
                "engine_name": "CAT-QuickHeal",
                "engine_update": "20180923",
                "engine_version": "14.00",
                "method": "blacklist",
                "result": "Trojan.IGENERIC"
            },
            "CMC": {
                "category": "undetected",
                "engine_name": "CMC",
                "engine_update": "20180923",
                "engine_version": "1.1.0.977",
                "method": "blacklist",
                "result": null
            },
            "ClamAV": {
                "category": "undetected",
                "engine_name": "ClamAV",
                "engine_update": "20180923",
                "engine_version": "0.100.1.0",
                "method": "blacklist",
                "result": null
            },
            "Comodo": {
                "category": "undetected",
                "engine_name": "Comodo",
                "engine_update": "20180923",
                "engine_version": null,
                "method": "blacklist",
                "result": null
            },
            "CrowdStrike": {
                "category": "undetected",
                "engine_name": "CrowdStrike",
                "engine_update": "20180723",
                "engine_version": "1.0",
                "method": "blacklist",
                "result": null
            },
            "Cybereason": {
                "category": "malicious",
                "engine_name": "Cybereason",
                "engine_update": "20180225",
                "engine_version": "1.2.27",
                "method": "blacklist",
                "result": "malicious.535ca2"
            },
            "Cylance": {
                "category": "malicious",
                "engine_name": "Cylance",
                "engine_update": "20180923",
                "engine_version": "2.3.1.101",
                "method": "blacklist",
                "result": "Unsafe"
            },
            "Cyren": {
                "category": "malicious",
                "engine_name": "Cyren",
                "engine_update": "20180923",
                "engine_version": "6.0.0.4",
                "method": "blacklist",
                "result": "W32/Adware.NSKN-1817"
            },
            "DrWeb": {
                "category": "undetected",
                "engine_name": "DrWeb",
                "engine_update": "20180923",
                "engine_version": "7.0.33.6080",
                "method": "blacklist",
                "result": null
            },
            "ESET-NOD32": {
                "category": "malicious",
                "engine_name": "ESET-NOD32",
                "engine_update": "20180923",
                "engine_version": "18099",
                "method": "blacklist",
                "result": "a variant of Win32/DealPly.TP potentially unwanted"
            },
            "Emsisoft": {
                "category": "malicious",
                "engine_name": "Emsisoft",
                "engine_update": "20180923",
                "engine_version": "2018.4.0.1029",
                "method": "blacklist",
                "result": "Adware.DealPly.2.Gen (B)"
            },
            "Endgame": {
                "category": "undetected",
                "engine_name": "Endgame",
                "engine_update": "20180730",
                "engine_version": "3.0.1",
                "method": "blacklist",
                "result": null
            },
            "F-Prot": {
                "category": "undetected",
                "engine_name": "F-Prot",
                "engine_update": "20180923",
                "engine_version": "4.7.1.166",
                "method": "blacklist",
                "result": null
            },
            "F-Secure": {
                "category": "malicious",
                "engine_name": "F-Secure",
                "engine_update": "20180923",
                "engine_version": "11.0.19100.45",
                "method": "blacklist",
                "result": "Adware.DealPly.2"
            },
            "Fortinet": {
                "category": "malicious",
                "engine_name": "Fortinet",
                "engine_update": "20180923",
                "engine_version": "5.4.247.0",
                "method": "blacklist",
                "result": "Adware/DealPly"
            },
            "GData": {
                "category": "malicious",
                "engine_name": "GData",
                "engine_update": "20180923",
                "engine_version": "A:25.18628B:25.13286",
                "method": "blacklist",
                "result": "Adware.DealPly.2.Gen"
            },
            "Ikarus": {
                "category": "malicious",
                "engine_name": "Ikarus",
                "engine_update": "20180923",
                "engine_version": "0.1.5.2",
                "method": "blacklist",
                "result": "PUA.DealPly.Ke"
            },
            "Invincea": {
                "category": "undetected",
                "engine_name": "Invincea",
                "engine_update": "20180717",
                "engine_version": "6.3.5.26121",
                "method": "blacklist",
                "result": null
            },
            "Jiangmin": {
                "category": "undetected",
                "engine_name": "Jiangmin",
                "engine_update": "20180923",
                "engine_version": "16.0.100",
                "method": "blacklist",
                "result": null
            },
            "K7AntiVirus": {
                "category": "malicious",
                "engine_name": "K7AntiVirus",
                "engine_update": "20180923",
                "engine_version": "11.4.28476",
                "method": "blacklist",
                "result": "Adware ( 0053755a1 )"
            },
            "K7GW": {
                "category": "malicious",
                "engine_name": "K7GW",
                "engine_update": "20180923",
                "engine_version": "11.4.28476",
                "method": "blacklist",
                "result": "Adware ( 0053755a1 )"
            },
            "Kaspersky": {
                "category": "malicious",
                "engine_name": "Kaspersky",
                "engine_update": "20180923",
                "engine_version": "15.0.1.13",
                "method": "blacklist",
                "result": "not-a-virus:AdWare.Win32.DealPly.dphpl"
            },
            "Kingsoft": {
                "category": "undetected",
                "engine_name": "Kingsoft",
                "engine_update": "20180923",
                "engine_version": "2013.8.14.323",
                "method": "blacklist",
                "result": null
            },
            "MAX": {
                "category": "malicious",
                "engine_name": "MAX",
                "engine_update": "20180923",
                "engine_version": "2018.9.12.1",
                "method": "blacklist",
                "result": "malware (ai score=68)"
            },
            "Malwarebytes": {
                "category": "undetected",
                "engine_name": "Malwarebytes",
                "engine_update": "20180923",
                "engine_version": "2.1.1.1115",
                "method": "blacklist",
                "result": null
            },
            "McAfee": {
                "category": "malicious",
                "engine_name": "McAfee",
                "engine_update": "20180923",
                "engine_version": "6.0.6.653",
                "method": "blacklist",
                "result": "Artemis!E0A642CB8468"
            },
            "McAfee-GW-Edition": {
                "category": "malicious",
                "engine_name": "McAfee-GW-Edition",
                "engine_update": "20180923",
                "engine_version": "v2017.3010",
                "method": "blacklist",
                "result": "BehavesLike.Win32.Generic.jc"
            },
            "MicroWorld-eScan": {
                "category": "malicious",
                "engine_name": "MicroWorld-eScan",
                "engine_update": "20180923",
                "engine_version": "14.0.297.0",
                "method": "blacklist",
                "result": "Adware.DealPly.2.Gen"
            },
            "Microsoft": {
                "category": "malicious",
                "engine_name": "Microsoft",
                "engine_update": "20180923",
                "engine_version": "1.1.15200.1",
                "method": "blacklist",
                "result": "PUA:Win32/Presenoker"
            },
            "NANO-Antivirus": {
                "category": "malicious",
                "engine_name": "NANO-Antivirus",
                "engine_update": "20180923",
                "engine_version": "1.0.126.23745",
                "method": "blacklist",
                "result": "Riskware.Win32.DealPly.fhsklz"
            },
            "Paloalto": {
                "category": "undetected",
                "engine_name": "Paloalto",
                "engine_update": "20180923",
                "engine_version": "1.0",
                "method": "blacklist",
                "result": null
            },
            "Panda": {
                "category": "malicious",
                "engine_name": "Panda",
                "engine_update": "20180923",
                "engine_version": "4.6.4.2",
                "method": "blacklist",
                "result": "Trj/Genetic.gen"
            },
            "Qihoo-360": {
                "category": "malicious",
                "engine_name": "Qihoo-360",
                "engine_update": "20180923",
                "engine_version": "1.0.0.1120",
                "method": "blacklist",
                "result": "HEUR/QVM11.1.A315.Malware.Gen"
            },
            "Rising": {
                "category": "malicious",
                "engine_name": "Rising",
                "engine_update": "20180923",
                "engine_version": "25.0.0.24",
                "method": "blacklist",
                "result": "PUF.DealPly!1.AA42 (CLOUD)"
            },
            "SUPERAntiSpyware": {
                "category": "undetected",
                "engine_name": "SUPERAntiSpyware",
                "engine_update": "20180907",
                "engine_version": "5.6.0.1032",
                "method": "blacklist",
                "result": null
            },
            "SentinelOne": {
                "category": "undetected",
                "engine_name": "SentinelOne",
                "engine_update": "20180830",
                "engine_version": "1.0.19.234",
                "method": "blacklist",
                "result": null
            },
            "Sophos": {
                "category": "malicious",
                "engine_name": "Sophos",
                "engine_update": "20180923",
                "engine_version": "4.98.0",
                "method": "blacklist",
                "result": "Generic PUA JB (PUA)"
            },
            "Symantec": {
                "category": "malicious",
                "engine_name": "Symantec",
                "engine_update": "20180923",
                "engine_version": "1.7.0.0",
                "method": "blacklist",
                "result": "Trojan.Gen.2"
            },
            "SymantecMobileInsight": {
                "category": "type-unsupported",
                "engine_name": "SymantecMobileInsight",
                "engine_update": "20180918",
                "engine_version": "2.0",
                "method": "blacklist",
                "result": null
            },
            "TACHYON": {
                "category": "undetected",
                "engine_name": "TACHYON",
                "engine_update": "20180922",
                "engine_version": "2018-09-22.02",
                "method": "blacklist",
                "result": null
            },
            "Tencent": {
                "category": "malicious",
                "engine_name": "Tencent",
                "engine_update": "20180923",
                "engine_version": "1.0.0.1",
                "method": "blacklist",
                "result": "Win32.Adware.Dealply.Ajbi"
            },
            "TheHacker": {
                "category": "undetected",
                "engine_name": "TheHacker",
                "engine_update": "20180920",
                "engine_version": "6.8.0.5.3703",
                "method": "blacklist",
                "result": null
            },
            "TotalDefense": {
                "category": "undetected",
                "engine_name": "TotalDefense",
                "engine_update": "20180923",
                "engine_version": "37.1.62.1",
                "method": "blacklist",
                "result": null
            },
            "TrendMicro": {
                "category": "malicious",
                "engine_name": "TrendMicro",
                "engine_update": "20180923",
                "engine_version": "10.0.0.1040",
                "method": "blacklist",
                "result": "TROJ_GEN.R002C0OIH18"
            },
            "TrendMicro-HouseCall": {
                "category": "malicious",
                "engine_name": "TrendMicro-HouseCall",
                "engine_update": "20180923",
                "engine_version": "9.950.0.1006",
                "method": "blacklist",
                "result": "TROJ_GEN.R002C0OIH18"
            },
            "Trustlook": {
                "category": "type-unsupported",
                "engine_name": "Trustlook",
                "engine_update": "20180923",
                "engine_version": "2",
                "method": "blacklist",
                "result": null
            },
            "VBA32": {
                "category": "malicious",
                "engine_name": "VBA32",
                "engine_update": "20180921",
                "engine_version": "3.33.0",
                "method": "blacklist",
                "result": "Adware.DealPly"
            },
            "VIPRE": {
                "category": "undetected",
                "engine_name": "VIPRE",
                "engine_update": "20180923",
                "engine_version": "69796",
                "method": "blacklist",
                "result": null
            },
            "ViRobot": {
                "category": "malicious",
                "engine_name": "ViRobot",
                "engine_update": "20180923",
                "engine_version": "2014.3.20.0",
                "method": "blacklist",
                "result": "Adware.Dealply.691200.XE"
            },
            "Webroot": {
                "category": "undetected",
                "engine_name": "Webroot",
                "engine_update": "20180923",
                "engine_version": "1.0.0.403",
                "method": "blacklist",
                "result": null
            },
            "Yandex": {
                "category": "undetected",
                "engine_name": "Yandex",
                "engine_update": "20180922",
                "engine_version": "5.5.1.3",
                "method": "blacklist",
                "result": null
            },
            "Zillya": {
                "category": "undetected",
                "engine_name": "Zillya",
                "engine_update": "20180922",
                "engine_version": "2.0.0.3653",
                "method": "blacklist",
                "result": null
            },
            "ZoneAlarm": {
                "category": "malicious",
                "engine_name": "ZoneAlarm",
                "engine_update": "20180923",
                "engine_version": "1.0",
                "method": "blacklist",
                "result": "not-a-virus:AdWare.Win32.DealPly.dphpl"
            },
            "Zoner": {
                "category": "undetected",
                "engine_name": "Zoner",
                "engine_update": "20180922",
                "engine_version": "1.0",
                "method": "blacklist",
                "result": null
            },
            "eGambit": {
                "category": "undetected",
                "engine_name": "eGambit",
                "engine_update": "20180923",
                "engine_version": null,
                "method": "blacklist",
                "result": null
            }
        },
        "last_analysis_stats": {
            "confirmed-timeout": 0,
            "failure": 0,
            "harmless": 0,
            "malicious": 39,
            "suspicious": 0,
            "timeout": 0,
            "type-unsupported": 2,
            "undetected": 30
        },
        "last_modification_date": 1537739430,
        "last_submission_date": 1537059784,
        "magic": "PE32 executable for MS Windows (GUI) Intel 80386 32-bit",
        "md5": "e0a642cb8468c4a81ce1d2fd9b9e36d7",
        "meaningful_name": "racag.exe",
        "names": [
            "Racag",
            "racag.exe",
            "PIBONOLAG.EXE"
        ],
        "packers": {
            "F-PROT": "UPX"
        },
        "pe_info": {
            "entry_point": 2334128,
            "imphash": "f3e714945661b15e14bb899dca2baf4f",
            "import_list": [
                {
                    "imported_functions": [
                        "VariantCopy"
                    ],
                    "library_name": "oleaut32.dll"
                },
                {
                    "imported_functions": [
                        "VerQueryValueW"
                    ],
                    "library_name": "version.dll"
                },
                {
                    "imported_functions": [
                        "Pie"
                    ],
                    "library_name": "gdi32.dll"
                },
                {
                    "imported_functions": [
                        "Shell_NotifyIconW"
                    ],
                    "library_name": "shell32.dll"
                },
                {
                    "imported_functions": [
                        "VirtualFree",
                        "ExitProcess",
                        "VirtualProtect",
                        "LoadLibraryA",
                        "VirtualAlloc",
                        "GetProcAddress"
                    ],
                    "library_name": "KERNEL32.DLL"
                },
                {
                    "imported_functions": [
                        "OpenPrinterW"
                    ],
                    "library_name": "winspool.drv"
                },
                {
                    "imported_functions": [
                        "RegCloseKey"
                    ],
                    "library_name": "advapi32.dll"
                },
                {
                    "imported_functions": [
                        "IsEqualGUID"
                    ],
                    "library_name": "ole32.dll"
                },
                {
                    "imported_functions": [
                        "GetDC"
                    ],
                    "library_name": "user32.dll"
                },
                {
                    "imported_functions": [
                        "ImageList_Add"
                    ],
                    "library_name": "comctl32.dll"
                }
            ],
            "machine_type": 332,
            "resource_details": [
                {
                    "chi2": 420.1041564941406,
                    "entropy": 7.067587375640869,
                    "filetype": "data",
                    "lang": "ENGLISH US",
                    "sha256": "e69d8beed601374b6403f7990d1d672bd5024b2cc9642daf16b49f370c03ae14",
                    "type": "RT_CURSOR"
                },
                {
                    "chi2": 383.53253173828125,
                    "entropy": 7.1086225509643555,
                    "filetype": "data",
                    "lang": "ENGLISH US",
                    "sha256": "1cf8f6455984b5e4fec04b59babc76874dc19ec0be63e8103394d27ef92f69f9",
                    "type": "RT_CURSOR"
                },
                {
                    "chi2": 338.6495056152344,
                    "entropy": 7.196913242340088,
                    "filetype": "data",
                    "lang": "ENGLISH US",
                    "sha256": "6b5d0b740417e5ea474a67178bee870f0e2dae31b2423f39779ca0c677835a0b",
                    "type": "RT_CURSOR"
                },
                {
                    "chi2": 318.7012939453125,
                    "entropy": 7.151844024658203,
                    "filetype": "data",
                    "lang": "ENGLISH US",
                    "sha256": "47d0368454bb6d491583e93ea2b01490887f7cb26fc6026c3bf6531ce7f8b1fc",
                    "type": "RT_CURSOR"
                },
                {
                    "chi2": 343.6363220214844,
                    "entropy": 7.160811424255371,
                    "filetype": "data",
                    "lang": "ENGLISH US",
                    "sha256": "6a55a78170a554f5b851e4d95d724fc391cec0eed7e3ec53ef954ab7e3fc0db1",
                    "type": "RT_CURSOR"
                },
                {
                    "chi2": 336.9869079589844,
                    "entropy": 7.155313014984131,
                    "filetype": "data",
                    "lang": "ENGLISH US",
                    "sha256": "f1fe7f2aafc7ea07edd1e975c1df5faa44358befcbe01a0fb31e63f0413116e2",
                    "type": "RT_CURSOR"
                },
                {
                    "chi2": 340.3117980957031,
                    "entropy": 7.151678085327148,
                    "filetype": "data",
                    "lang": "ENGLISH US",
                    "sha256": "469e88b21b4ed015b04da12d40b0186fd5c90ff20ea513b6a015dbb7be373b59",
                    "type": "RT_CURSOR"
                },
                {
                    "chi2": 294175.375,
                    "entropy": 5.4200053215026855,
                    "filetype": "data",
                    "lang": "NEUTRAL",
                    "sha256": "a5f7f33dd0f5090bf68c2aa118391c9c45ed99f9ccb2c91a60dd063a64f3cb84",
                    "type": "RT_ICON"
                },
                {
                    "chi2": 470.0795593261719,
                    "entropy": 7.402876853942871,
                    "filetype": "data",
                    "lang": "NEUTRAL",
                    "sha256": "55c8c981844743e68e4500992cad05ab4abcb87e4317f9ac2f9c5aa06500a0bb",
                    "type": "RT_STRING"
                },
                {
                    "chi2": 525.68212890625,
                    "entropy": 7.576745510101318,
                    "filetype": "data",
                    "lang": "NEUTRAL",
                    "sha256": "5a57867e37908ca98ff6d215b6079e83a4702df023cf5a5269514dbf766b4531",
                    "type": "RT_STRING"
                },
                {
                    "chi2": 553.3228149414062,
                    "entropy": 7.632241725921631,
                    "filetype": "data",
                    "lang": "NEUTRAL",
                    "sha256": "8aed9e14d47db309dd4cc2bfb9a5a1fae19844cd75f1a40dad790d9905882859",
                    "type": "RT_STRING"
                },
                {
                    "chi2": 353.61041259765625,
                    "entropy": 7.1261115074157715,
                    "filetype": "data",
                    "lang": "NEUTRAL",
                    "sha256": "63a649e66ae7dafe60e335d467ceea44fb206914546b6ec0b655dfb10d58913e",
                    "type": "RT_STRING"
                },
                {
                    "chi2": 294.15399169921875,
                    "entropy": 6.924842357635498,
                    "filetype": "data",
                    "lang": "NEUTRAL",
                    "sha256": "37aabb73c0223cbdc67ef2bc4003de09078422d891dbf0f8fa616b32f223f9f7",
                    "type": "RT_STRING"
                },
                {
                    "chi2": 577.171142578125,
                    "entropy": 7.367616653442383,
                    "filetype": "data",
                    "lang": "NEUTRAL",
                    "sha256": "9f21ab1f8c31c586f94f3d6e856a01c8410ad39a24ba1278c4572a6e6c31c439",
                    "type": "RT_STRING"
                },
                {
                    "chi2": 495.5046691894531,
                    "entropy": 7.610188961029053,
                    "filetype": "data",
                    "lang": "NEUTRAL",
                    "sha256": "0387748908b46faf54d61cb7caa962388b498b14ef69c94635c46cd0f6a87d34",
                    "type": "RT_STRING"
                },
                {
                    "chi2": 541.7073974609375,
                    "entropy": 7.610335826873779,
                    "filetype": "data",
                    "lang": "NEUTRAL",
                    "sha256": "c57464f4790bd65efbe786d2e92b92622934afe61e29d142574df1e61ace8d6f",
                    "type": "RT_STRING"
                },
                {
                    "chi2": 574.5453491210938,
                    "entropy": 7.649808883666992,
                    "filetype": "data",
                    "lang": "NEUTRAL",
                    "sha256": "991eced2e93c67661acd5b3ac04a5d7fa8c10eab42d2770986170dc57d7f812c",
                    "type": "RT_STRING"
                },
                {
                    "chi2": 416.4849853515625,
                    "entropy": 7.431359767913818,
                    "filetype": "data",
                    "lang": "NEUTRAL",
                    "sha256": "d7ef613080ff160e41f8a9f4c8ea6273d22c8ca8ae3c29694cd2a8b15013653a",
                    "type": "RT_STRING"
                },
                {
                    "chi2": 556.6045532226562,
                    "entropy": 7.6490702629089355,
                    "filetype": "data",
                    "lang": "NEUTRAL",
                    "sha256": "9d2c922257c2929c66ea0ba31ff58fce9797ffaeec068dc3c24eefc0f6a5d90e",
                    "type": "RT_STRING"
                },
                {
                    "chi2": 645.4752807617188,
                    "entropy": 7.658475399017334,
                    "filetype": "data",
                    "lang": "NEUTRAL",
                    "sha256": "6332f149f7b288b3bc367502e1f28bfeefce88d4dce4e64140591351a4a7e4aa",
                    "type": "RT_STRING"
                },
                {
                    "chi2": 635.8348388671875,
                    "entropy": 7.619450092315674,
                    "filetype": "data",
                    "lang": "NEUTRAL",
                    "sha256": "830a883260eb28c330aceeade7179d0dd17fde000902d65992ae606b4b1ff267",
                    "type": "RT_STRING"
                },
                {
                    "chi2": 437.0526428222656,
                    "entropy": 7.6482648849487305,
                    "filetype": "data",
                    "lang": "NEUTRAL",
                    "sha256": "430c8d0f3b7b1d824b644d4cd783ae14111900b13017e4a192ea1cdc2c332151",
                    "type": "RT_STRING"
                },
                {
                    "chi2": 807.5398559570312,
                    "entropy": 7.552509784698486,
                    "filetype": "data",
                    "lang": "NEUTRAL",
                    "sha256": "22d952eda941625cc71c290686c2d21a568713771f77c76d695177c24762d5f2",
                    "type": "RT_STRING"
                },
                {
                    "chi2": 619.4142456054688,
                    "entropy": 7.165829181671143,
                    "filetype": "data",
                    "lang": "NEUTRAL",
                    "sha256": "49d762e50f5e07f1ef2c57e2e41d58eff2c1885bc18e879d7a9e159657b0fcba",
                    "type": "RT_STRING"
                },
                {
                    "chi2": 378.6936950683594,
                    "entropy": 6.746461868286133,
                    "filetype": "data",
                    "lang": "NEUTRAL",
                    "sha256": "730eeb2f4a924119efb65ce2e202fd89910c4f74aeaf8bf3887f973fe96091fa",
                    "type": "RT_STRING"
                },
                {
                    "chi2": 472.3477783203125,
                    "entropy": 7.1062726974487305,
                    "filetype": "data",
                    "lang": "NEUTRAL",
                    "sha256": "5f5ff3f62721e7666c2ea7bbd2b1b666e65702bf1997c23e3d7d485e772a33db",
                    "type": "RT_STRING"
                },
                {
                    "chi2": 777.8139038085938,
                    "entropy": 7.438801288604736,
                    "filetype": "data",
                    "lang": "NEUTRAL",
                    "sha256": "d7382a84e0a6e458b83dfb3129c37597ddf4e8155e159bdc7ed032fa19e62bba",
                    "type": "RT_STRING"
                },
                {
                    "chi2": 852.27783203125,
                    "entropy": 7.5278239250183105,
                    "filetype": "data",
                    "lang": "NEUTRAL",
                    "sha256": "c89ca8bab71f920a60b94a27beae19693b647219c8e42008f001313c45cdd18e",
                    "type": "RT_STRING"
                },
                {
                    "chi2": 465.60382080078125,
                    "entropy": 7.6237006187438965,
                    "filetype": "data",
                    "lang": "NEUTRAL",
                    "sha256": "501c01fae42ee8593dd8306dff3f1e0ef25ce61cc868937321cfa8c5f03afd64",
                    "type": "RT_STRING"
                },
                {
                    "chi2": 358.6358337402344,
                    "entropy": 7.584584712982178,
                    "filetype": "data",
                    "lang": "NEUTRAL",
                    "sha256": "98bd9a5aa339d4df1540d783fc7b564dc53826e93420eac91a5a961a2400d530",
                    "type": "RT_STRING"
                },
                {
                    "chi2": 304.0,
                    "entropy": 3.75,
                    "filetype": "data",
                    "lang": "NEUTRAL",
                    "sha256": "d54a59b41726ea7e98ccdd9aae6738afd052ff0bc4a9fbdcf02a13ce766d6caf",
                    "type": "RT_RCDATA"
                },
                {
                    "chi2": 875.2101440429688,
                    "entropy": 7.668471336364746,
                    "filetype": "data",
                    "lang": "NEUTRAL",
                    "sha256": "998107df0b43f2f802d4ae378203de09d179a8149bab1f1cdcfcd1a685fae7d9",
                    "type": "RT_RCDATA"
                },
                {
                    "chi2": 755.3518676757812,
                    "entropy": 7.359378814697266,
                    "filetype": "data",
                    "lang": "NEUTRAL",
                    "sha256": "6b42c429259501572080a69a72083c1f6664ed514891b42cbadd65e78499bac0",
                    "type": "RT_RCDATA"
                },
                {
                    "chi2": 312.8000183105469,
                    "entropy": 4.021927833557129,
                    "filetype": "data",
                    "lang": "ENGLISH US",
                    "sha256": "ca98f229965050be687a7850fb624a1b382130ef54619f0f73eac495f4bdd13a",
                    "type": "RT_GROUP_CURSOR"
                },
                {
                    "chi2": 824.7999267578125,
                    "entropy": 3.1393539905548096,
                    "filetype": "data",
                    "lang": "ENGLISH US",
                    "sha256": "ea953a6f698808578fe49ce4512f6711be4564d65994c9c638067e38eb51e196",
                    "type": "RT_GROUP_CURSOR"
                },
                {
                    "chi2": 338.3999328613281,
                    "entropy": 3.9841837882995605,
                    "filetype": "data",
                    "lang": "ENGLISH US",
                    "sha256": "47e51f12948d6f082936bdd630b268c81a128866abe98039cf2935fa61ddf4cf",
                    "type": "RT_GROUP_CURSOR"
                },
                {
                    "chi2": 645.5999145507812,
                    "entropy": 3.446439504623413,
                    "filetype": "data",
                    "lang": "ENGLISH US",
                    "sha256": "0bf1e9e5c7b845dff1aec18beda2ca4aeafbc7e9bc59e1a34d154ed9d682eac9",
                    "type": "RT_GROUP_CURSOR"
                },
                {
                    "chi2": 261.60003662109375,
                    "entropy": 4.221928119659424,
                    "filetype": "data",
                    "lang": "ENGLISH US",
                    "sha256": "3fd5876142dd8649f1e118e18c61b0a413d4a8b850a6f50c67915e82174f23f9",
                    "type": "RT_GROUP_CURSOR"
                },
                {
                    "chi2": 261.60003662109375,
                    "entropy": 4.221928119659424,
                    "filetype": "data",
                    "lang": "ENGLISH US",
                    "sha256": "73a4756ef9b1634a98e524d221e4908d45b5a92d627b3ac586fca464725fc304",
                    "type": "RT_GROUP_CURSOR"
                },
                {
                    "chi2": 261.60003662109375,
                    "entropy": 4.221928119659424,
                    "filetype": "data",
                    "lang": "ENGLISH US",
                    "sha256": "00310305b67516d7276583de21f2247998330fca3aa4897b1f2a8e70a5ca9641",
                    "type": "RT_GROUP_CURSOR"
                },
                {
                    "chi2": 1823.2001953125,
                    "entropy": 1.9192407131195068,
                    "filetype": "data",
                    "lang": "NEUTRAL",
                    "sha256": "f45e559bf63627177a103b00a7164b8b5fee21af1adc63a45579af0a865f135b",
                    "type": "RT_GROUP_ICON"
                },
                {
                    "chi2": 60731.08984375,
                    "entropy": 3.374990224838257,
                    "filetype": "data",
                    "lang": "ENGLISH US",
                    "sha256": "e800b52a388630cba94edc4a516ba3d3a6cf0fd596aa0fd4e36c7902f54d9bd2",
                    "type": "RT_VERSION"
                },
                {
                    "chi2": 5692.796875,
                    "entropy": 5.285139560699463,
                    "filetype": "ASCII text",
                    "lang": "NEUTRAL",
                    "sha256": "98fa6346562bd85521d0a736f497230b074ecd922d9ba07ed5ae8a47202fe588",
                    "type": "RT_MANIFEST"
                }
            ],
            "resource_langs": {
                "ENGLISH US": 15,
                "NEUTRAL": 28
            },
            "resource_types": {
                "RT_CURSOR": 7,
                "RT_GROUP_CURSOR": 7,
                "RT_GROUP_ICON": 1,
                "RT_ICON": 1,
                "RT_MANIFEST": 1,
                "RT_RCDATA": 3,
                "RT_STRING": 22,
                "RT_VERSION": 1
            },
            "sections": [
                {
                    "entropy": 0.0,
                    "md5": "d41d8cd98f00b204e9800998ecf8427e",
                    "name": "UPX0",
                    "raw_size": 0,
                    "virtual_address": 4096,
                    "virtual_size": 1654784
                },
                {
                    "entropy": 7.93,
                    "md5": "28037d48c31ea77cc027344e91caff66",
                    "name": "UPX1",
                    "raw_size": 675840,
                    "virtual_address": 1658880,
                    "virtual_size": 675840
                },
                {
                    "entropy": 5.35,
                    "md5": "40bfd7333972e6a94bce2c4093381571",
                    "name": ".rsrc",
                    "raw_size": 14336,
                    "virtual_address": 2334720,
                    "virtual_size": 16384
                }
            ],
            "timestamp": 1387472246
        },
        "reputation": 0,
        "sha1": "91c524d535ca2fe4bbfb2c9f6ad1635f2c72c35b",
        "sha256": "00056b42b165ab02459899be7e33e943331c0b8e518de9e5b6f540e3d96cb60b",
        "signature_info": {
            "description": "Hif",
            "file version": "3.8.24.45",
            "internal name": "Racag",
            "original name": "racag.exe",
            "product": "Rapagoka Cibanatok Becodade"
        },
        "size": 691200,
        "ssdeep": "12288:RnolV8C4OOYFzxdO2F1i6fcDTvRJNCMjgWtRVadJzfZiQm+pUfo/cTBeQT0hacyV:o1Pj/pfcDTvXcMjgqVYfZd8o/cTYQgIb",
        "tags": [
            "peexe",
            "upx"
        ],
        "times_submitted": 1,
        "total_votes": {
            "harmless": 0,
            "malicious": 0
        },
        "trid": [
            {
                "file_type": "UPX compressed Win32 Executable",
                "probability": 37.1
            },
            {
                "file_type": "Win32 EXE Yoda's Crypter",
                "probability": 36.4
            },
            {
                "file_type": "Win32 Dynamic Link Library (generic)",
                "probability": 9.0
            },
            {
                "file_type": "Win32 Executable (generic)",
                "probability": 6.1
            },
            {
                "file_type": "Win16/32 Executable Delphi generic",
                "probability": 2.8
            }
        ],
        "type_description": "Win32 EXE",
        "type_extension": "exe",
        "type_tag": "peexe",
        "unique_sources": 1,
        "vhash": "06503e0f7d501013z11z67z1015z13z101dz"
    },
    "id": "00056b42b165ab02459899be7e33e943331c0b8e518de9e5b6f540e3d96cb60b",
    "links": {
        "self": "https://www.virustotal.com/api/v3/files/00056b42b165ab02459899be7e33e943331c0b8e518de9e5b6f540e3d96cb60b"
    },
    "type": "file"
}