{
    "attributes": {
        "authentihash": "1a28d46fe82a2bb4ad3314881473ab2d182d78ee1621b1bb965096499dfc02f1",
        "creation_date": 1352743229,
        "first_submission_date": 1511726873,
        "last_analysis_date": 1511726873,
        "last_analysis_results": {
            "ALYac": {
                "category": "undetected",
                "engine_name": "ALYac",
                "engine_update": "20171126",
                "engine_version": "1.1.1.2",
                "method": "blacklist",
                "result": null
            },
            "AVG": {
                "category": "malicious",
                "engine_name": "AVG",
                "engine_update": "20171126",
                "engine_version": "17.8.3705.0",
                "method": "blacklist",
                "result": "Win32:VB-AEZX [Trj]"
            },
            "AVware": {
                "category": "malicious",
                "engine_name": "AVware",
                "engine_update": "20171126",
                "engine_version": "1.5.0.42",
                "method": "blacklist",
                "result": "Worm.Win32.Vobfus.mlo (v)"
            },
            "Ad-Aware": {
                "category": "malicious",
                "engine_name": "Ad-Aware",
                "engine_update": "20171126",
                "engine_version": "3.0.3.1010",
                "method": "blacklist",
                "result": "Gen:Variant.Barys.2644"
            },
            "AegisLab": {
                "category": "malicious",
                "engine_name": "AegisLab",
                "engine_update": "20171126",
                "engine_version": "4.2",
                "method": "blacklist",
                "result": "WIN.Troj.Vobfus.lEaX"
            },
            "AhnLab-V3": {
                "category": "malicious",
                "engine_name": "AhnLab-V3",
                "engine_update": "20171126",
                "engine_version": "3.11.0.19332",
                "method": "blacklist",
                "result": "Worm/Win32.Vobfus.R43029"
            },
            "Alibaba": {
                "category": "type-unsupported",
                "engine_name": "Alibaba",
                "engine_update": "20171124",
                "engine_version": "1.0",
                "method": "blacklist",
                "result": null
            },
            "Antiy-AVL": {
                "category": "malicious",
                "engine_name": "Antiy-AVL",
                "engine_update": "20171126",
                "engine_version": "3.0.0.1",
                "method": "blacklist",
                "result": "Worm/Win32.WBNA.gen"
            },
            "Arcabit": {
                "category": "malicious",
                "engine_name": "Arcabit",
                "engine_update": "20171126",
                "engine_version": "1.0.0.827",
                "method": "blacklist",
                "result": "Trojan.Barys.DA54"
            },
            "Avast": {
                "category": "malicious",
                "engine_name": "Avast",
                "engine_update": "20171126",
                "engine_version": "17.8.3705.0",
                "method": "blacklist",
                "result": "Win32:VB-AEZX [Trj]"
            },
            "Avast-Mobile": {
                "category": "undetected",
                "engine_name": "Avast-Mobile",
                "engine_update": "20171126",
                "engine_version": "171126-00",
                "method": "blacklist",
                "result": null
            },
            "Avira": {
                "category": "malicious",
                "engine_name": "Avira",
                "engine_update": "20171126",
                "engine_version": "8.3.3.6",
                "method": "blacklist",
                "result": "TR/Dropper.Gen"
            },
            "Baidu": {
                "category": "malicious",
                "engine_name": "Baidu",
                "engine_update": "20171124",
                "engine_version": "1.0.0.2",
                "method": "blacklist",
                "result": "Win32.Worm.Pronny.dn"
            },
            "BitDefender": {
                "category": "malicious",
                "engine_name": "BitDefender",
                "engine_update": "20171126",
                "engine_version": "7.2",
                "method": "blacklist",
                "result": "Gen:Variant.Barys.2644"
            },
            "Bkav": {
                "category": "malicious",
                "engine_name": "Bkav",
                "engine_update": "20171124",
                "engine_version": "1.3.0.9410",
                "method": "blacklist",
                "result": "W32.TaskmanMispD.Trojan"
            },
            "CAT-QuickHeal": {
                "category": "malicious",
                "engine_name": "CAT-QuickHeal",
                "engine_update": "20171125",
                "engine_version": "14.00",
                "method": "blacklist",
                "result": "Worm.Raideloz.A3"
            },
            "CMC": {
                "category": "malicious",
                "engine_name": "CMC",
                "engine_update": "20171126",
                "engine_version": "1.1.0.977",
                "method": "blacklist",
                "result": "Worm.Win32.Vobfus!O"
            },
            "ClamAV": {
                "category": "malicious",
                "engine_name": "ClamAV",
                "engine_update": "20171126",
                "engine_version": "0.99.2.0",
                "method": "blacklist",
                "result": "Win.Worm.Vobfus-62714"
            },
            "Comodo": {
                "category": "malicious",
                "engine_name": "Comodo",
                "engine_update": "20171126",
                "engine_version": "28099",
                "method": "blacklist",
                "result": "Worm.Win32.Vobfus.AJR"
            },
            "CrowdStrike": {
                "category": "malicious",
                "engine_name": "CrowdStrike",
                "engine_update": "20171016",
                "engine_version": "1.0",
                "method": "blacklist",
                "result": "malicious_confidence_90% (D)"
            },
            "Cybereason": {
                "category": "malicious",
                "engine_name": "Cybereason",
                "engine_update": "20171103",
                "engine_version": "0.0.914",
                "method": "blacklist",
                "result": "malicious.1b8fb7"
            },
            "Cylance": {
                "category": "malicious",
                "engine_name": "Cylance",
                "engine_update": "20171126",
                "engine_version": "2.3.1.101",
                "method": "blacklist",
                "result": "Unsafe"
            },
            "Cyren": {
                "category": "malicious",
                "engine_name": "Cyren",
                "engine_update": "20171126",
                "engine_version": "5.4.30.7",
                "method": "blacklist",
                "result": "W32/VB.HC.gen!Eldorado"
            },
            "DrWeb": {
                "category": "malicious",
                "engine_name": "DrWeb",
                "engine_update": "20171126",
                "engine_version": "7.0.28.2020",
                "method": "blacklist",
                "result": "Win32.HLLW.Autoruner1.29632"
            },
            "ESET-NOD32": {
                "category": "malicious",
                "engine_name": "ESET-NOD32",
                "engine_update": "20171126",
                "engine_version": "16474",
                "method": "blacklist",
                "result": "a variant of Win32/VBObfus.FU"
            },
            "Emsisoft": {
                "category": "malicious",
                "engine_name": "Emsisoft",
                "engine_update": "20171126",
                "engine_version": "4.0.1.883",
                "method": "blacklist",
                "result": "Gen:Variant.Barys.2644 (B)"
            },
            "Endgame": {
                "category": "malicious",
                "engine_name": "Endgame",
                "engine_update": "20171024",
                "engine_version": "1.1.3",
                "method": "blacklist",
                "result": "malicious (high confidence)"
            },
            "F-Prot": {
                "category": "malicious",
                "engine_name": "F-Prot",
                "engine_update": "20171126",
                "engine_version": "4.7.1.166",
                "method": "blacklist",
                "result": "W32/VB.HC.gen!Eldorado"
            },
            "F-Secure": {
                "category": "malicious",
                "engine_name": "F-Secure",
                "engine_update": "20171126",
                "engine_version": "11.0.19100.45",
                "method": "blacklist",
                "result": "Gen:Variant.Barys.2644"
            },
            "Fortinet": {
                "category": "malicious",
                "engine_name": "Fortinet",
                "engine_update": "20171126",
                "engine_version": "5.4.247.0",
                "method": "blacklist",
                "result": "W32/VBObfus.C!tr"
            },
            "GData": {
                "category": "malicious",
                "engine_name": "GData",
                "engine_update": "20171126",
                "engine_version": "A:25.14921B:25.10983",
                "method": "blacklist",
                "result": "Gen:Variant.Barys.2644"
            },
            "Ikarus": {
                "category": "malicious",
                "engine_name": "Ikarus",
                "engine_update": "20171126",
                "engine_version": "0.1.5.2",
                "method": "blacklist",
                "result": "Worm.Win32.Raideloz"
            },
            "Invincea": {
                "category": "malicious",
                "engine_name": "Invincea",
                "engine_update": "20170914",
                "engine_version": "6.3.1.25473",
                "method": "blacklist",
                "result": "heuristic"
            },
            "Jiangmin": {
                "category": "malicious",
                "engine_name": "Jiangmin",
                "engine_update": "20171126",
                "engine_version": "16.0.100",
                "method": "blacklist",
                "result": "Worm/Vobfus.mos"
            },
            "K7AntiVirus": {
                "category": "malicious",
                "engine_name": "K7AntiVirus",
                "engine_update": "20171124",
                "engine_version": "10.32.25366",
                "method": "blacklist",
                "result": "EmailWorm ( 0040f2c41 )"
            },
            "K7GW": {
                "category": "malicious",
                "engine_name": "K7GW",
                "engine_update": "20171126",
                "engine_version": "10.32.25369",
                "method": "blacklist",
                "result": "EmailWorm ( 0040f2c41 )"
            },
            "Kaspersky": {
                "category": "malicious",
                "engine_name": "Kaspersky",
                "engine_update": "20171126",
                "engine_version": "15.0.1.13",
                "method": "blacklist",
                "result": "Worm.Win32.WBNA.ipa"
            },
            "Kingsoft": {
                "category": "undetected",
                "engine_name": "Kingsoft",
                "engine_update": "20171126",
                "engine_version": "2013.8.14.323",
                "method": "blacklist",
                "result": null
            },
            "MAX": {
                "category": "malicious",
                "engine_name": "MAX",
                "engine_update": "20171126",
                "engine_version": "2017.11.15.1",
                "method": "blacklist",
                "result": "malware (ai score=85)"
            },
            "Malwarebytes": {
                "category": "undetected",
                "engine_name": "Malwarebytes",
                "engine_update": "20171126",
                "engine_version": "2.1.1.1115",
                "method": "blacklist",
                "result": null
            },
            "McAfee": {
                "category": "malicious",
                "engine_name": "McAfee",
                "engine_update": "20171126",
                "engine_version": "6.0.6.653",
                "method": "blacklist",
                "result": "W32/Autorun.worm.aaeh"
            },
            "McAfee-GW-Edition": {
                "category": "malicious",
                "engine_name": "McAfee-GW-Edition",
                "engine_update": "20171126",
                "engine_version": "v2015",
                "method": "blacklist",
                "result": "BehavesLike.Win32.VBObfus.cm"
            },
            "MicroWorld-eScan": {
                "category": "malicious",
                "engine_name": "MicroWorld-eScan",
                "engine_update": "20171126",
                "engine_version": "14.0.297.0",
                "method": "blacklist",
                "result": "Gen:Variant.Barys.2644"
            },
            "Microsoft": {
                "category": "malicious",
                "engine_name": "Microsoft",
                "engine_update": "20171126",
                "engine_version": "1.1.14306.0",
                "method": "blacklist",
                "result": "Worm:Win32/Raideloz.A"
            },
            "NANO-Antivirus": {
                "category": "malicious",
                "engine_name": "NANO-Antivirus",
                "engine_update": "20171126",
                "engine_version": "1.0.100.20407",
                "method": "blacklist",
                "result": "Trojan.Win32.Vobfus.cinarv"
            },
            "Paloalto": {
                "category": "undetected",
                "engine_name": "Paloalto",
                "engine_update": "20171126",
                "engine_version": "1.0",
                "method": "blacklist",
                "result": null
            },
            "Panda": {
                "category": "malicious",
                "engine_name": "Panda",
                "engine_update": "20171126",
                "engine_version": "4.6.4.2",
                "method": "blacklist",
                "result": "Trj/Genetic.gen"
            },
            "Qihoo-360": {
                "category": "malicious",
                "engine_name": "Qihoo-360",
                "engine_update": "20171126",
                "engine_version": "1.0.0.1120",
                "method": "blacklist",
                "result": "HEUR/QVM03.0.72A3.Malware.Gen"
            },
            "Rising": {
                "category": "malicious",
                "engine_name": "Rising",
                "engine_update": "20171126",
                "engine_version": "25.0.0.1",
                "method": "blacklist",
                "result": "Worm.Raideloz!1.6601 (CLASSIC)"
            },
            "SUPERAntiSpyware": {
                "category": "malicious",
                "engine_name": "SUPERAntiSpyware",
                "engine_update": "20171126",
                "engine_version": "5.6.0.1032",
                "method": "blacklist",
                "result": "Trojan.Agent/Gen-VB"
            },
            "SentinelOne": {
                "category": "malicious",
                "engine_name": "SentinelOne",
                "engine_update": "20171113",
                "engine_version": "1.0.9.192",
                "method": "blacklist",
                "result": "static engine - malicious"
            },
            "Sophos": {
                "category": "malicious",
                "engine_name": "Sophos",
                "engine_update": "20171126",
                "engine_version": "4.98.0",
                "method": "blacklist",
                "result": "Mal/Autorun-AX"
            },
            "Symantec": {
                "category": "malicious",
                "engine_name": "Symantec",
                "engine_update": "20171125",
                "engine_version": "1.5.0.0",
                "method": "blacklist",
                "result": "W32.Changeup!gen23"
            },
            "SymantecMobileInsight": {
                "category": "type-unsupported",
                "engine_name": "SymantecMobileInsight",
                "engine_update": "20171124",
                "engine_version": "1.0.0.35_220",
                "method": "blacklist",
                "result": null
            },
            "Tencent": {
                "category": "undetected",
                "engine_name": "Tencent",
                "engine_update": "20171126",
                "engine_version": "1.0.0.1",
                "method": "blacklist",
                "result": null
            },
            "TheHacker": {
                "category": "malicious",
                "engine_name": "TheHacker",
                "engine_update": "20171126",
                "engine_version": "6.8.0.5.2170",
                "method": "blacklist",
                "result": "Trojan/VBObfus.fu"
            },
            "TotalDefense": {
                "category": "undetected",
                "engine_name": "TotalDefense",
                "engine_update": "20171126",
                "engine_version": "37.1.62.1",
                "method": "blacklist",
                "result": null
            },
            "TrendMicro": {
                "category": "malicious",
                "engine_name": "TrendMicro",
                "engine_update": "20171126",
                "engine_version": "9.862.0.1074",
                "method": "blacklist",
                "result": "WORM_VOBFUS.SMJA"
            },
            "TrendMicro-HouseCall": {
                "category": "malicious",
                "engine_name": "TrendMicro-HouseCall",
                "engine_update": "20171126",
                "engine_version": "9.950.0.1006",
                "method": "blacklist",
                "result": "WORM_VOBFUS.SMJA"
            },
            "Trustlook": {
                "category": "type-unsupported",
                "engine_name": "Trustlook",
                "engine_update": "20171126",
                "engine_version": "2",
                "method": "blacklist",
                "result": null
            },
            "VBA32": {
                "category": "malicious",
                "engine_name": "VBA32",
                "engine_update": "20171124",
                "engine_version": "3.12.26.4",
                "method": "blacklist",
                "result": "Worm.Vobfus"
            },
            "VIPRE": {
                "category": "malicious",
                "engine_name": "VIPRE",
                "engine_update": "20171126",
                "engine_version": "62714",
                "method": "blacklist",
                "result": "Worm.Win32.Vobfus.mlo (v)"
            },
            "ViRobot": {
                "category": "malicious",
                "engine_name": "ViRobot",
                "engine_update": "20171126",
                "engine_version": "2014.3.20.0",
                "method": "blacklist",
                "result": "Worm.Win32.A.Vobfus.155648.F"
            },
            "Webroot": {
                "category": "malicious",
                "engine_name": "Webroot",
                "engine_update": "20171126",
                "engine_version": "1.0.0.207",
                "method": "blacklist",
                "result": "W32.Worm.Smjo"
            },
            "WhiteArmor": {
                "category": "malicious",
                "engine_name": "WhiteArmor",
                "engine_update": "20171104",
                "engine_version": null,
                "method": "blacklist",
                "result": "Malware.HighConfidence"
            },
            "Yandex": {
                "category": "undetected",
                "engine_name": "Yandex",
                "engine_update": "20171120",
                "engine_version": "5.5.1.3",
                "method": "blacklist",
                "result": null
            },
            "Zillya": {
                "category": "undetected",
                "engine_name": "Zillya",
                "engine_update": "20171124",
                "engine_version": "2.0.0.3436",
                "method": "blacklist",
                "result": null
            },
            "ZoneAlarm": {
                "category": "malicious",
                "engine_name": "ZoneAlarm",
                "engine_update": "20171126",
                "engine_version": "1.0",
                "method": "blacklist",
                "result": "Worm.Win32.WBNA.ipa"
            },
            "Zoner": {
                "category": "undetected",
                "engine_name": "Zoner",
                "engine_update": "20171126",
                "engine_version": "1.0",
                "method": "blacklist",
                "result": null
            },
            "eGambit": {
                "category": "undetected",
                "engine_name": "eGambit",
                "engine_update": "20171126",
                "engine_version": "v4.2.7",
                "method": "blacklist",
                "result": null
            },
            "nProtect": {
                "category": "malicious",
                "engine_name": "nProtect",
                "engine_update": "20171126",
                "engine_version": "2017-11-26.02",
                "method": "blacklist",
                "result": "Worm/W32.Vobfus.155648.B"
            }
        },
        "last_analysis_stats": {
            "confirmed-timeout": 0,
            "failure": 0,
            "harmless": 0,
            "malicious": 57,
            "suspicious": 0,
            "timeout": 0,
            "type-unsupported": 3,
            "undetected": 11
        },
        "last_modification_date": 1511790192,
        "last_submission_date": 1511726873,
        "magic": "PE32 executable for MS Windows (GUI) Intel 80386 32-bit",
        "md5": "a823e10f24f0ea6d6a466f3a938e9ec3",
        "meaningful_name": "Office.exe",
        "names": [
            "Office",
            "Office.exe",
            "a823e10f24f0ea6d6a466f3a938e9ec3"
        ],
        "pe_info": {
            "entry_point": 4672,
            "imphash": "2fad30eca51b760ea6e69c70bd3a1760",
            "import_list": [
                {
                    "imported_functions": [
                        "EVENT_SINK_QueryInterface",
                        "Ord(712)",
                        "Ord(645)",
                        "Ord(518)",
                        "Ord(535)",
                        "Ord(516)",
                        "Ord(616)",
                        "Ord(614)",
                        "Ord(527)",
                        "Ord(685)",
                        "Ord(584)",
                        "Ord(519)",
                        "Ord(586)",
                        "Ord(594)",
                        "Ord(681)",
                        "Ord(717)",
                        "Ord(583)",
                        "Ord(307)",
                        "MethCallEngine",
                        "DllFunctionCall",
                        "Ord(578)",
                        "Ord(618)",
                        "Ord(100)",
                        "Ord(608)",
                        "EVENT_SINK_AddRef",
                        "Ord(555)",
                        "Ord(561)",
                        "Ord(520)",
                        "Ord(309)",
                        "Ord(517)",
                        "Ord(515)",
                        "ProcCallEngine",
                        "Ord(711)",
                        "Ord(585)",
                        "Ord(318)",
                        "EVENT_SINK_Release",
                        "Ord(595)",
                        "Ord(587)",
                        "Ord(303)",
                        "Ord(593)",
                        "Ord(581)",
                        "Ord(528)",
                        "Ord(582)",
                        "Ord(306)",
                        "Ord(607)",
                        "Ord(669)",
                        "Ord(617)",
                        "Ord(644)",
                        "Ord(606)",
                        "Ord(631)",
                        "Ord(543)",
                        "Ord(187)",
                        "Ord(619)",
                        "Ord(537)",
                        "Ord(598)",
                        "__vbaExceptHandler"
                    ],
                    "library_name": "MSVBVM60.DLL"
                }
            ],
            "machine_type": 332,
            "resource_details": [
                {
                    "filetype": "audio/x-wav",
                    "lang": "ENGLISH US",
                    "sha256": "d58e209583bf91640d219c1ee797a58a9915f5c5e68c5a84f5d90a790dda3636",
                    "type": "SOUND"
                },
                {
                    "filetype": "data",
                    "lang": "ENGLISH US",
                    "sha256": "d3460a2c1a9a3be22bd8cf2c308c16eb41466c29cea5613f8c4b0ce8e1e68734",
                    "type": "RT_ICON"
                },
                {
                    "filetype": "data",
                    "lang": "ENGLISH US",
                    "sha256": "39adb7e90e6656b1ef9c37afde769928df5f5696443ac6f5038f88eb40168e90",
                    "type": "RT_ICON"
                },
                {
                    "filetype": "data",
                    "lang": "ENGLISH US",
                    "sha256": "6d312c69264fd870306b96816e97354aee04297531b6659dff0d600e689dd259",
                    "type": "RT_ICON"
                },
                {
                    "filetype": "data",
                    "lang": "ENGLISH US",
                    "sha256": "49544f535f9f2f1576666e7df98c06e4944fddeaa9f3958b181ede6c2872c8af",
                    "type": "RT_ICON"
                },
                {
                    "filetype": "data",
                    "lang": "NEUTRAL",
                    "sha256": "2d3915cdc82e909357d44c4de1b8890bd753605c28df11b10299e3fd09d930b9",
                    "type": "RT_ICON"
                },
                {
                    "filetype": "data",
                    "lang": "NEUTRAL",
                    "sha256": "a32e750bc1b0315530097434a7e1d324b843e1f5ffd95238b49d3a8aa8e6fe09",
                    "type": "RT_ICON"
                },
                {
                    "filetype": "data",
                    "lang": "NEUTRAL",
                    "sha256": "46dc088910439dad6a0d69da5e64227d04a640845fd1c31e90a7d4340c539fe0",
                    "type": "RT_ICON"
                },
                {
                    "filetype": "ASCII text",
                    "lang": "ENGLISH US",
                    "sha256": "8229e9063fdbb56428265c60ab3645e618c11fa5bd0d7373f026d7379df7667a",
                    "type": "RT_STRING"
                },
                {
                    "filetype": "data",
                    "lang": "ENGLISH US",
                    "sha256": "5882c88601e2283f5279d2691faace657bee7f1ddea5e688b358285c97911a65",
                    "type": "RT_GROUP_ICON"
                },
                {
                    "filetype": "data",
                    "lang": "ENGLISH US",
                    "sha256": "23dbedd19d2cb73a710710cf0118bff7cd94c4386a832669709bcc7a3b40d511",
                    "type": "RT_GROUP_ICON"
                },
                {
                    "filetype": "data",
                    "lang": "NEUTRAL",
                    "sha256": "cbdcb84268fcf2a25b844c1dca787de835c0376e82c1a2e62814a3c940a26cfb",
                    "type": "RT_GROUP_ICON"
                },
                {
                    "filetype": "data",
                    "lang": "ENGLISH US",
                    "sha256": "2cafe09489dccf67a974a3f0234e3710dcc5ca33728def647ebc87697d80e6c2",
                    "type": "RT_VERSION"
                }
            ],
            "resource_langs": {
                "ENGLISH US": 9,
                "NEUTRAL": 4
            },
            "resource_types": {
                "RT_GROUP_ICON": 3,
                "RT_ICON": 7,
                "RT_STRING": 1,
                "RT_VERSION": 1,
                "SOUND": 1
            },
            "sections": [
                {
                    "entropy": 5.14,
                    "md5": "43235738779ff5bf1abccc74c86aecf3",
                    "name": ".text",
                    "raw_size": 102400,
                    "virtual_address": 4096,
                    "virtual_size": 99984
                },
                {
                    "entropy": 0.0,
                    "md5": "d41d8cd98f00b204e9800998ecf8427e",
                    "name": ".data",
                    "raw_size": 0,
                    "virtual_address": 106496,
                    "virtual_size": 9852
                },
                {
                    "entropy": 6.17,
                    "md5": "8f79ea5e7abf8fd9602f41536e3a4a70",
                    "name": ".rsrc",
                    "raw_size": 49152,
                    "virtual_address": 118784,
                    "virtual_size": 47356
                }
            ],
            "timestamp": 1352743229
        },
        "reputation": 0,
        "sha1": "2bb709191c8dc99df4581d60160e98a0eb0e5092",
        "sha256": "00052747563ca2e84c07746a442d7fc2db06d5cb981199b9075b70747aaaf882",
        "signature_info": {
            "file version": "2.75",
            "internal name": "Office",
            "original name": "Office.exe",
            "product": "stonepast"
        },
        "size": 155648,
        "ssdeep": "1536:o8LYeonj9tkf3OMBGI9i7npIRkM4HPdKMq5ELEDkb09cbZTvshVtIZkwn:o4Enj9t6+MBGIGuRnKP4MqUAVhAn",
        "tags": [
            "peexe"
        ],
        "times_submitted": 1,
        "total_votes": {
            "harmless": 0,
            "malicious": 0
        },
        "trid": [
            {
                "file_type": "Win32 Executable Microsoft Visual Basic 6",
                "probability": 84.4
            },
            {
                "file_type": "Win32 Dynamic Link Library (generic)",
                "probability": 6.7
            },
            {
                "file_type": "Win32 Executable (generic)",
                "probability": 4.6
            },
            {
                "file_type": "Generic Win/DOS Executable",
                "probability": 2.0
            },
            {
                "file_type": "DOS Executable Generic",
                "probability": 2.0
            }
        ],
        "type_description": "Win32 EXE",
        "type_extension": "exe",
        "type_tag": "peexe",
        "unique_sources": 1,
        "vhash": "0150365d056)z383z"
    },
    "id": "00052747563ca2e84c07746a442d7fc2db06d5cb981199b9075b70747aaaf882",
    "links": {
        "self": "https://www.virustotal.com/api/v3/files/00052747563ca2e84c07746a442d7fc2db06d5cb981199b9075b70747aaaf882"
    },
    "type": "file"
}