{
    "attributes": {
        "authentihash": "789424d643ae8f28a8c7a0c4774ef0a4d0132046624abb6b24512ed77be2a6dc",
        "creation_date": 1065776882,
        "first_submission_date": 1516049088,
        "last_analysis_date": 1528105999,
        "last_analysis_results": {
            "AVG": {
                "category": "malicious",
                "engine_name": "AVG",
                "engine_update": "20180604",
                "engine_version": "18.4.3895.0",
                "method": "blacklist",
                "result": "Win32:SaliCode"
            },
            "AVware": {
                "category": "malicious",
                "engine_name": "AVware",
                "engine_update": "20180604",
                "engine_version": "1.5.0.42",
                "method": "blacklist",
                "result": "Virus.Win32.Sality.at (v)"
            },
            "Ad-Aware": {
                "category": "malicious",
                "engine_name": "Ad-Aware",
                "engine_update": "20180604",
                "engine_version": "3.0.5.370",
                "method": "blacklist",
                "result": "Win32.Sality.3"
            },
            "AegisLab": {
                "category": "malicious",
                "engine_name": "AegisLab",
                "engine_update": "20180604",
                "engine_version": "4.2",
                "method": "blacklist",
                "result": "Virus.W32.Sality!c"
            },
            "AhnLab-V3": {
                "category": "malicious",
                "engine_name": "AhnLab-V3",
                "engine_update": "20180603",
                "engine_version": "3.12.1.20996",
                "method": "blacklist",
                "result": "Win32/Kashu.E"
            },
            "Alibaba": {
                "category": "type-unsupported",
                "engine_name": "Alibaba",
                "engine_update": "20180604",
                "engine_version": "1.0",
                "method": "blacklist",
                "result": null
            },
            "Antiy-AVL": {
                "category": "malicious",
                "engine_name": "Antiy-AVL",
                "engine_update": "20180604",
                "engine_version": "3.0.0.1",
                "method": "blacklist",
                "result": "Virus/Win32.Sality.gen"
            },
            "Arcabit": {
                "category": "malicious",
                "engine_name": "Arcabit",
                "engine_update": "20180604",
                "engine_version": "1.0.0.831",
                "method": "blacklist",
                "result": "Win32.Sality.3"
            },
            "Avast": {
                "category": "malicious",
                "engine_name": "Avast",
                "engine_update": "20180604",
                "engine_version": "18.4.3895.0",
                "method": "blacklist",
                "result": "Win32:SaliCode"
            },
            "Avast-Mobile": {
                "category": "undetected",
                "engine_name": "Avast-Mobile",
                "engine_update": "20180603",
                "engine_version": "180603-02",
                "method": "blacklist",
                "result": null
            },
            "Avira": {
                "category": "malicious",
                "engine_name": "Avira",
                "engine_update": "20180604",
                "engine_version": "8.3.3.6",
                "method": "blacklist",
                "result": "W32/Sality.AT"
            },
            "Babable": {
                "category": "undetected",
                "engine_name": "Babable",
                "engine_update": "20180406",
                "engine_version": "9107201",
                "method": "blacklist",
                "result": null
            },
            "Baidu": {
                "category": "malicious",
                "engine_name": "Baidu",
                "engine_update": "20180604",
                "engine_version": "1.0.0.2",
                "method": "blacklist",
                "result": "Win32.Virus.Sality.gen"
            },
            "BitDefender": {
                "category": "malicious",
                "engine_name": "BitDefender",
                "engine_update": "20180604",
                "engine_version": "7.2",
                "method": "blacklist",
                "result": "Win32.Sality.3"
            },
            "Bkav": {
                "category": "malicious",
                "engine_name": "Bkav",
                "engine_update": "20180604",
                "engine_version": "1.3.0.9466",
                "method": "blacklist",
                "result": "W32.Sality.PE"
            },
            "CAT-QuickHeal": {
                "category": "malicious",
                "engine_name": "CAT-QuickHeal",
                "engine_update": "20180603",
                "engine_version": "14.00",
                "method": "blacklist",
                "result": "W32.Sality.U"
            },
            "CMC": {
                "category": "undetected",
                "engine_name": "CMC",
                "engine_update": "20180604",
                "engine_version": "1.1.0.977",
                "method": "blacklist",
                "result": null
            },
            "ClamAV": {
                "category": "undetected",
                "engine_name": "ClamAV",
                "engine_update": "20180603",
                "engine_version": "0.99.2.0",
                "method": "blacklist",
                "result": null
            },
            "Comodo": {
                "category": "malicious",
                "engine_name": "Comodo",
                "engine_update": "20180604",
                "engine_version": "29131",
                "method": "blacklist",
                "result": "Virus.Win32.Sality.gen"
            },
            "CrowdStrike": {
                "category": "type-unsupported",
                "engine_name": "CrowdStrike",
                "engine_update": "20180202",
                "engine_version": "1.0",
                "method": "blacklist",
                "result": null
            },
            "Cybereason": {
                "category": "type-unsupported",
                "engine_name": "Cybereason",
                "engine_update": null,
                "engine_version": null,
                "method": "blacklist",
                "result": null
            },
            "Cylance": {
                "category": "malicious",
                "engine_name": "Cylance",
                "engine_update": "20180604",
                "engine_version": "2.3.1.101",
                "method": "blacklist",
                "result": "Unsafe"
            },
            "Cyren": {
                "category": "malicious",
                "engine_name": "Cyren",
                "engine_update": "20180604",
                "engine_version": "6.0.0.4",
                "method": "blacklist",
                "result": "W32/Sality.E.gen!Eldorado"
            },
            "DrWeb": {
                "category": "malicious",
                "engine_name": "DrWeb",
                "engine_update": "20180604",
                "engine_version": "7.0.28.2020",
                "method": "blacklist",
                "result": "Win32.Sector.30"
            },
            "ESET-NOD32": {
                "category": "malicious",
                "engine_name": "ESET-NOD32",
                "engine_update": "20180604",
                "engine_version": "17494",
                "method": "blacklist",
                "result": "Win32/Sality.NBA"
            },
            "Emsisoft": {
                "category": "malicious",
                "engine_name": "Emsisoft",
                "engine_update": "20180604",
                "engine_version": "4.0.2.899",
                "method": "blacklist",
                "result": "Win32.Sality.3 (B)"
            },
            "Endgame": {
                "category": "malicious",
                "engine_name": "Endgame",
                "engine_update": "20180507",
                "engine_version": "2.1.2",
                "method": "blacklist",
                "result": "malicious (high confidence)"
            },
            "F-Prot": {
                "category": "malicious",
                "engine_name": "F-Prot",
                "engine_update": "20180604",
                "engine_version": "4.7.1.166",
                "method": "blacklist",
                "result": "W32/Sality.E.gen!Eldorado"
            },
            "F-Secure": {
                "category": "malicious",
                "engine_name": "F-Secure",
                "engine_update": "20180604",
                "engine_version": "11.0.19100.45",
                "method": "blacklist",
                "result": "Win32.Sality.3"
            },
            "Fortinet": {
                "category": "undetected",
                "engine_name": "Fortinet",
                "engine_update": "20180604",
                "engine_version": "5.4.247.0",
                "method": "blacklist",
                "result": null
            },
            "GData": {
                "category": "malicious",
                "engine_name": "GData",
                "engine_update": "20180604",
                "engine_version": "A:25.17310B:25.12411",
                "method": "blacklist",
                "result": "Win32.Virus.Sality.A"
            },
            "Ikarus": {
                "category": "malicious",
                "engine_name": "Ikarus",
                "engine_update": "20180604",
                "engine_version": "0.1.5.2",
                "method": "blacklist",
                "result": "Virus.Win32.Virut"
            },
            "Invincea": {
                "category": "malicious",
                "engine_name": "Invincea",
                "engine_update": "20180601",
                "engine_version": "6.3.5.26121",
                "method": "blacklist",
                "result": "heuristic"
            },
            "Jiangmin": {
                "category": "malicious",
                "engine_name": "Jiangmin",
                "engine_update": "20180604",
                "engine_version": "16.0.100",
                "method": "blacklist",
                "result": "Win32/HLLP.Kuku.poly2"
            },
            "K7AntiVirus": {
                "category": "malicious",
                "engine_name": "K7AntiVirus",
                "engine_update": "20180604",
                "engine_version": "10.48.27345",
                "method": "blacklist",
                "result": "Virus ( f10001071 )"
            },
            "K7GW": {
                "category": "malicious",
                "engine_name": "K7GW",
                "engine_update": "20180604",
                "engine_version": "10.48.27344",
                "method": "blacklist",
                "result": "Virus ( f10001071 )"
            },
            "Kaspersky": {
                "category": "malicious",
                "engine_name": "Kaspersky",
                "engine_update": "20180604",
                "engine_version": "15.0.1.13",
                "method": "blacklist",
                "result": "Virus.Win32.Sality.gen"
            },
            "Kingsoft": {
                "category": "malicious",
                "engine_name": "Kingsoft",
                "engine_update": "20180604",
                "engine_version": "2013.8.14.323",
                "method": "blacklist",
                "result": "Win32.Sality.lx.368640"
            },
            "MAX": {
                "category": "malicious",
                "engine_name": "MAX",
                "engine_update": "20180604",
                "engine_version": "2017.11.15.1",
                "method": "blacklist",
                "result": "malware (ai score=87)"
            },
            "McAfee": {
                "category": "malicious",
                "engine_name": "McAfee",
                "engine_update": "20180604",
                "engine_version": "6.0.6.653",
                "method": "blacklist",
                "result": "W32/Sality.gen.z"
            },
            "McAfee-GW-Edition": {
                "category": "malicious",
                "engine_name": "McAfee-GW-Edition",
                "engine_update": "20180604",
                "engine_version": "v2017.2786",
                "method": "blacklist",
                "result": "BehavesLike.Win32.Dropper.jc"
            },
            "MicroWorld-eScan": {
                "category": "malicious",
                "engine_name": "MicroWorld-eScan",
                "engine_update": "20180604",
                "engine_version": "14.0.297.0",
                "method": "blacklist",
                "result": "Win32.Sality.3"
            },
            "Microsoft": {
                "category": "malicious",
                "engine_name": "Microsoft",
                "engine_update": "20180604",
                "engine_version": "1.1.14901.4",
                "method": "blacklist",
                "result": "Virus:Win32/Sality.AT"
            },
            "NANO-Antivirus": {
                "category": "malicious",
                "engine_name": "NANO-Antivirus",
                "engine_update": "20180604",
                "engine_version": "1.0.106.22618",
                "method": "blacklist",
                "result": "Virus.Win32.Sality.beygb"
            },
            "Paloalto": {
                "category": "malicious",
                "engine_name": "Paloalto",
                "engine_update": "20180604",
                "engine_version": "1.0",
                "method": "blacklist",
                "result": "generic.ml"
            },
            "Panda": {
                "category": "malicious",
                "engine_name": "Panda",
                "engine_update": "20180603",
                "engine_version": "4.6.4.2",
                "method": "blacklist",
                "result": "W32/Sality.AA"
            },
            "Qihoo-360": {
                "category": "malicious",
                "engine_name": "Qihoo-360",
                "engine_update": "20180604",
                "engine_version": "1.0.0.1120",
                "method": "blacklist",
                "result": "Virus.Win32.Sality.I"
            },
            "Rising": {
                "category": "malicious",
                "engine_name": "Rising",
                "engine_update": "20180604",
                "engine_version": "25.0.0.1",
                "method": "blacklist",
                "result": "Virus.Sality!1.A5BD (CLASSIC)"
            },
            "SUPERAntiSpyware": {
                "category": "undetected",
                "engine_name": "SUPERAntiSpyware",
                "engine_update": "20180604",
                "engine_version": "5.6.0.1032",
                "method": "blacklist",
                "result": null
            },
            "SentinelOne": {
                "category": "malicious",
                "engine_name": "SentinelOne",
                "engine_update": "20180225",
                "engine_version": "1.0.15.206",
                "method": "blacklist",
                "result": "static engine - malicious"
            },
            "Sophos": {
                "category": "malicious",
                "engine_name": "Sophos",
                "engine_update": "20180604",
                "engine_version": "4.98.0",
                "method": "blacklist",
                "result": "Mal/Sality-D"
            },
            "Symantec": {
                "category": "malicious",
                "engine_name": "Symantec",
                "engine_update": "20180604",
                "engine_version": "1.6.0.0",
                "method": "blacklist",
                "result": "W32.Sality.AE"
            },
            "SymantecMobileInsight": {
                "category": "type-unsupported",
                "engine_name": "SymantecMobileInsight",
                "engine_update": "20180601",
                "engine_version": "1.0.0.35_220",
                "method": "blacklist",
                "result": null
            },
            "Tencent": {
                "category": "malicious",
                "engine_name": "Tencent",
                "engine_update": "20180604",
                "engine_version": "1.0.0.1",
                "method": "blacklist",
                "result": "Virus.Win32.TuTu.Gen.200004"
            },
            "TheHacker": {
                "category": "malicious",
                "engine_name": "TheHacker",
                "engine_update": "20180531",
                "engine_version": "6.8.0.5.3045",
                "method": "blacklist",
                "result": "W32/Sality.gen"
            },
            "TotalDefense": {
                "category": "malicious",
                "engine_name": "TotalDefense",
                "engine_update": "20180604",
                "engine_version": "37.1.62.1",
                "method": "blacklist",
                "result": "Win32/Sality.AA"
            },
            "TrendMicro": {
                "category": "malicious",
                "engine_name": "TrendMicro",
                "engine_update": "20180604",
                "engine_version": "10.0.0.1040",
                "method": "blacklist",
                "result": "PE_SALITY.RL"
            },
            "TrendMicro-HouseCall": {
                "category": "malicious",
                "engine_name": "TrendMicro-HouseCall",
                "engine_update": "20180604",
                "engine_version": "9.950.0.1006",
                "method": "blacklist",
                "result": "PE_SALITY.RL"
            },
            "Trustlook": {
                "category": "type-unsupported",
                "engine_name": "Trustlook",
                "engine_update": "20180604",
                "engine_version": "2",
                "method": "blacklist",
                "result": null
            },
            "VBA32": {
                "category": "malicious",
                "engine_name": "VBA32",
                "engine_update": "20180601",
                "engine_version": "3.12.32.0",
                "method": "blacklist",
                "result": "Virus.Win32.Sality.bakc"
            },
            "VIPRE": {
                "category": "malicious",
                "engine_name": "VIPRE",
                "engine_update": "20180604",
                "engine_version": "67028",
                "method": "blacklist",
                "result": "Virus.Win32.Sality.at (v)"
            },
            "ViRobot": {
                "category": "malicious",
                "engine_name": "ViRobot",
                "engine_update": "20180604",
                "engine_version": "2014.3.20.0",
                "method": "blacklist",
                "result": "Win32.Sality.Gen.A"
            },
            "Webroot": {
                "category": "undetected",
                "engine_name": "Webroot",
                "engine_update": "20180604",
                "engine_version": "1.0.0.403",
                "method": "blacklist",
                "result": null
            },
            "Yandex": {
                "category": "malicious",
                "engine_name": "Yandex",
                "engine_update": "20180529",
                "engine_version": "5.5.1.3",
                "method": "blacklist",
                "result": "Win32.Sality.BL"
            },
            "Zillya": {
                "category": "malicious",
                "engine_name": "Zillya",
                "engine_update": "20180601",
                "engine_version": "2.0.0.3565",
                "method": "blacklist",
                "result": "Virus.Sality.Win32.25"
            },
            "ZoneAlarm": {
                "category": "malicious",
                "engine_name": "ZoneAlarm",
                "engine_update": "20180604",
                "engine_version": "1.0",
                "method": "blacklist",
                "result": "Virus.Win32.Sality.gen"
            },
            "Zoner": {
                "category": "malicious",
                "engine_name": "Zoner",
                "engine_update": "20180604",
                "engine_version": "1.0",
                "method": "blacklist",
                "result": "Win32.Sality"
            },
            "eGambit": {
                "category": "undetected",
                "engine_name": "eGambit",
                "engine_update": "20180604",
                "engine_version": null,
                "method": "blacklist",
                "result": null
            },
            "nProtect": {
                "category": "malicious",
                "engine_name": "nProtect",
                "engine_update": "20180604",
                "engine_version": "2018-06-04.02",
                "method": "blacklist",
                "result": "Virus/W32.Sality.D"
            }
        },
        "last_analysis_stats": {
            "confirmed-timeout": 0,
            "failure": 0,
            "harmless": 0,
            "malicious": 56,
            "suspicious": 0,
            "timeout": 0,
            "type-unsupported": 5,
            "undetected": 8
        },
        "last_modification_date": 1528107682,
        "last_submission_date": 1516049088,
        "magic": "PE32 executable for MS Windows (GUI) Intel 80386 32-bit",
        "md5": "cde00d7585794fe6877ac43f96be4d83",
        "meaningful_name": "EReg.exe",
        "names": [
            "EReg",
            "EReg.exe",
            "EREG.EXE"
        ],
        "pe_info": {
            "entry_point": 52951,
            "imphash": "19fcd4f93c424ecb643abe2db4e2ab56",
            "import_list": [
                {
                    "imported_functions": [
                        "GetFileVersionInfoSizeA",
                        "GetFileVersionInfoA",
                        "VerQueryValueA"
                    ],
                    "library_name": "VERSION.dll"
                },
                {
                    "imported_functions": [
                        "InternetGetConnectedState"
                    ],
                    "library_name": "WININET.dll"
                },
                {
                    "imported_functions": [
                        "GetObjectA",
                        "GetDeviceCaps",
                        "DeleteDC",
                        "SelectObject",
                        "PatBlt",
                        "GetStockObject",
                        "CreateSolidBrush",
                        "BitBlt",
                        "CreateCompatibleDC",
                        "DeleteObject",
                        "CreateCompatibleBitmap"
                    ],
                    "library_name": "GDI32.dll"
                },
                {
                    "imported_functions": [
                        "RegOpenKeyExA",
                        "RegSetValueExA",
                        "RegQueryValueExA",
                        "RegCloseKey",
                        "RegCreateKeyExA"
                    ],
                    "library_name": "ADVAPI32.dll"
                },
                {
                    "imported_functions": [
                        "GetStdHandle",
                        "WaitForSingleObject",
                        "HeapDestroy",
                        "GetExitCodeProcess",
                        "FreeEnvironmentStringsA",
                        "DeleteCriticalSection",
                        "GetCurrentProcess",
                        "LocalAlloc",
                        "FreeEnvironmentStringsW",
                        "SetStdHandle",
                        "GetTempPathA",
                        "GetCPInfo",
                        "GetStringTypeA",
                        "WriteFile",
                        "HeapReAlloc",
                        "GetStringTypeW",
                        "GetOEMCP",
                        "LocalFree",
                        "InitializeCriticalSection",
                        "LoadResource",
                        "GlobalHandle",
                        "FindClose",
                        "TlsGetValue",
                        "SetLastError",
                        "GetEnvironmentVariableA",
                        "GetModuleFileNameW",
                        "ExitProcess",
                        "FlushFileBuffers",
                        "GetModuleFileNameA",
                        "UnhandledExceptionFilter",
                        "InterlockedDecrement",
                        "MultiByteToWideChar",
                        "FlushInstructionCache",
                        "SetFilePointer",
                        "SetUnhandledExceptionFilter",
                        "GetSystemDirectoryA",
                        "TerminateProcess",
                        "GlobalAlloc",
                        "GetVersion",
                        "InterlockedIncrement",
                        "HeapFree",
                        "EnterCriticalSection",
                        "SetHandleCount",
                        "FreeLibrary",
                        "TlsAlloc",
                        "GetVersionExA",
                        "LoadLibraryA",
                        "RtlUnwind",
                        "GetStartupInfoA",
                        "OpenProcess",
                        "CreateDirectoryA",
                        "DeleteFileA",
                        "GetWindowsDirectoryA",
                        "GetProcAddress",
                        "lstrcmpA",
                        "FindFirstFileA",
                        "GlobalLock",
                        "GetFileType",
                        "TlsSetValue",
                        "CreateFileA",
                        "HeapAlloc",
                        "LeaveCriticalSection",
                        "GetLastError",
                        "LCMapStringW",
                        "GetShortPathNameW",
                        "lstrlenA",
                        "GlobalFree",
                        "LCMapStringA",
                        "GetEnvironmentStringsW",
                        "GlobalUnlock",
                        "lstrlenW",
                        "GetShortPathNameA",
                        "SizeofResource",
                        "LockResource",
                        "WideCharToMultiByte",
                        "HeapSize",
                        "GetCommandLineA",
                        "RaiseException",
                        "GetModuleHandleA",
                        "CloseHandle",
                        "GetACP",
                        "GetCurrentThreadId",
                        "FreeResource",
                        "GetEnvironmentStrings",
                        "CreateProcessA",
                        "HeapCreate",
                        "VirtualFree",
                        "IsBadCodePtr",
                        "FindResourceA",
                        "VirtualAlloc"
                    ],
                    "library_name": "KERNEL32.dll"
                },
                {
                    "imported_functions": [
                        "LoadRegTypeLib",
                        "OleCreateFontIndirect",
                        "SysStringLen",
                        "SysAllocStringLen",
                        "VariantClear",
                        "SysAllocString",
                        "DispCallFunc",
                        "SysFreeString"
                    ],
                    "library_name": "OLEAUT32.dll"
                },
                {
                    "imported_functions": [
                        "ShellExecuteA"
                    ],
                    "library_name": "SHELL32.dll"
                },
                {
                    "imported_functions": [
                        "CreateStreamOnHGlobal",
                        "OleLockRunning",
                        "CLSIDFromString",
                        "CoInitialize",
                        "CoTaskMemAlloc",
                        "CoCreateInstance",
                        "OleUninitialize",
                        "CLSIDFromProgID",
                        "StringFromCLSID",
                        "CoUninitialize",
                        "CoTaskMemFree",
                        "OleInitialize"
                    ],
                    "library_name": "ole32.dll"
                },
                {
                    "imported_functions": [
                        "SetFocus",
                        "GetMessageA",
                        "GetParent",
                        "RedrawWindow",
                        "BeginPaint",
                        "ReleaseCapture",
                        "CreateDialogIndirectParamA",
                        "UnhookWindowsHookEx",
                        "GetClassInfoExA",
                        "PostQuitMessage",
                        "DefWindowProcA",
                        "ShowWindow",
                        "SetWindowPos",
                        "GetSystemMetrics",
                        "IsWindow",
                        "GetWindowRect",
                        "DispatchMessageA",
                        "EndPaint",
                        "PeekMessageA",
                        "SetCapture",
                        "MoveWindow",
                        "RegisterWindowMessageA",
                        "GetCursor",
                        "SetWindowLongA",
                        "TranslateMessage",
                        "GetWindow",
                        "LoadImageA",
                        "GetSysColor",
                        "GetDC",
                        "RegisterClassExA",
                        "ReleaseDC",
                        "SystemParametersInfoA",
                        "SetWindowTextA",
                        "GetWindowLongA",
                        "SendMessageA",
                        "GetClientRect",
                        "GetDlgItem",
                        "CallNextHookEx",
                        "wsprintfA",
                        "GetWindowTextLengthA",
                        "CreateWindowExA",
                        "LoadCursorA",
                        "InvalidateRect",
                        "SetWindowsHookExA",
                        "FillRect",
                        "GetDesktopWindow",
                        "CallWindowProcA",
                        "GetClassNameA",
                        "GetFocus",
                        "GetWindowTextA",
                        "InvalidateRgn",
                        "CreateAcceleratorTableA",
                        "IsChild",
                        "IsDialogMessageA",
                        "DestroyWindow"
                    ],
                    "library_name": "USER32.dll"
                },
                {
                    "imported_functions": [
                        "Ord(17)"
                    ],
                    "library_name": "COMCTL32.dll"
                }
            ],
            "machine_type": 332,
            "resource_details": [
                {
                    "chi2": 1002.5077514648438,
                    "entropy": 7.998453140258789,
                    "filetype": "data",
                    "lang": "ENGLISH US",
                    "sha256": "4833e06b1a17f74cf5041b98d10ff6de3eda4db01f569775a973c6bb29c2f2de",
                    "type": "CUSTOM"
                },
                {
                    "chi2": 338.8741149902344,
                    "entropy": 7.993648529052734,
                    "filetype": "data",
                    "lang": "ENGLISH US",
                    "sha256": "724d5e2f56b2195ccf1c9822bc4f8181d40eaf3cd3ad0c5db444a3e27b10f075",
                    "type": "CUSTOM"
                },
                {
                    "chi2": 82333.484375,
                    "entropy": 2.0484209060668945,
                    "filetype": "data",
                    "lang": "ENGLISH US",
                    "sha256": "b8eb4a70c451f9a6f02772b88028fc137e74e27d9524a3ad2a16670f29fe537b",
                    "type": "RT_ICON"
                },
                {
                    "chi2": 32776.43359375,
                    "entropy": 2.064722776412964,
                    "filetype": "data",
                    "lang": "ENGLISH US",
                    "sha256": "5abd1a7c804e57a39a4f2a7367ab0e8fffe1e29a842b54492073fb75ff6bdc07",
                    "type": "RT_ICON"
                },
                {
                    "chi2": 12798.2490234375,
                    "entropy": 3.2504677772521973,
                    "filetype": "data",
                    "lang": "ENGLISH US",
                    "sha256": "90a4aa412199d71108d9388da20201af189579fa2db70bbf39dc2afcc78a12f7",
                    "type": "RT_DIALOG"
                },
                {
                    "chi2": 2345.2939453125,
                    "entropy": 2.370859146118164,
                    "filetype": "data",
                    "lang": "ENGLISH US",
                    "sha256": "b10e28a32eddb2ab20a46ceae59d9c0786911eb20f0c8dd2a28421f226ea2b8b",
                    "type": "RT_GROUP_ICON"
                },
                {
                    "chi2": 60296.33203125,
                    "entropy": 3.3599605560302734,
                    "filetype": "data",
                    "lang": "ENGLISH US",
                    "sha256": "3c415e4066ade2b88555c0ca8ccb7f894024a2206ce223ea0320cd5d3a7dad37",
                    "type": "RT_VERSION"
                },
                {
                    "chi2": 16488.482421875,
                    "entropy": 2.605525255203247,
                    "filetype": "data",
                    "lang": "ENGLISH US",
                    "sha256": "89f2f612a7f26721279e42ccc8d1ffc2721518ce1360916b035c2cd2b8a18524",
                    "type": "Struct(240)"
                }
            ],
            "resource_langs": {
                "ENGLISH US": 8
            },
            "resource_types": {
                "CUSTOM": 2,
                "RT_DIALOG": 1,
                "RT_GROUP_ICON": 1,
                "RT_ICON": 2,
                "RT_VERSION": 1,
                "Struct(240)": 1
            },
            "sections": [
                {
                    "entropy": 6.52,
                    "md5": "dce2f8c4e1b7d7693d13afe25a82ef02",
                    "name": ".text",
                    "raw_size": 69632,
                    "virtual_address": 4096,
                    "virtual_size": 67190
                },
                {
                    "entropy": 4.41,
                    "md5": "382171a3e22582513fb8189a9972c261",
                    "name": ".rdata",
                    "raw_size": 12288,
                    "virtual_address": 73728,
                    "virtual_size": 9068
                },
                {
                    "entropy": 1.92,
                    "md5": "f7a2b118e8a4a29b5215f5b6895e2c3c",
                    "name": ".data",
                    "raw_size": 20480,
                    "virtual_address": 86016,
                    "virtual_size": 24492
                },
                {
                    "entropy": 8.0,
                    "md5": "5361dd32cf54f4ef99f3a4ce7e198a3c",
                    "name": ".rsrc",
                    "raw_size": 585728,
                    "virtual_address": 110592,
                    "virtual_size": 585728
                }
            ],
            "timestamp": 1065776882
        },
        "reputation": 0,
        "sha1": "45ace1aac0b5f1c8c5133739e3a81eac892a0396",
        "sha256": "0005383d19c1771738fa626fd5b27f761d6430d0dd028441f59ed41ca7711c42",
        "signature_info": {
            "copyright": "\u00a9 2004 Electronic Arts Inc. All Rights Reserved",
            "file version": "1, 0, 0, 59",
            "internal name": "EReg",
            "original name": "EReg.exe",
            "product": "EReg"
        },
        "size": 692224,
        "ssdeep": "12288:gprodmc22J9eWYo7R/LvqZynM8/kjAk2gQ1wwc3OqitK0bpxjmCAb4E:gZoMA92o7RDqZEM8/kZQ1i3CkCpxjmFd",
        "tags": [
            "peexe"
        ],
        "times_submitted": 1,
        "total_votes": {
            "harmless": 0,
            "malicious": 0
        },
        "trid": [
            {
                "file_type": "Win32 Executable MS Visual C++ (generic)",
                "probability": 44.9
            },
            {
                "file_type": "Win64 Executable (generic)",
                "probability": 39.8
            },
            {
                "file_type": "Win32 Executable (generic)",
                "probability": 6.4
            },
            {
                "file_type": "OS/2 Executable (generic)",
                "probability": 2.9
            },
            {
                "file_type": "Generic Win/DOS Executable",
                "probability": 2.8
            }
        ],
        "type_description": "Win32 EXE",
        "type_extension": "exe",
        "type_tag": "peexe",
        "unique_sources": 1,
        "vhash": "06504e6d1d1f705013zb005a7zc085z12z370301bz"
    },
    "id": "0005383d19c1771738fa626fd5b27f761d6430d0dd028441f59ed41ca7711c42",
    "links": {
        "self": "https://www.virustotal.com/api/v3/files/0005383d19c1771738fa626fd5b27f761d6430d0dd028441f59ed41ca7711c42"
    },
    "type": "file"
}