{
    "attributes": {
        "authentihash": "70efea6962df63052901df4672da900fbcefec9b4c38abe74acb4591c92612ce",
        "creation_date": 1094982929,
        "first_submission_date": 1505497580,
        "last_analysis_date": 1526902862,
        "last_analysis_results": {
            "ALYac": {
                "category": "malicious",
                "engine_name": "ALYac",
                "engine_update": "20180521",
                "engine_version": "1.1.1.5",
                "method": "blacklist",
                "result": "Gen:Variant.Razy.134072"
            },
            "AVG": {
                "category": "malicious",
                "engine_name": "AVG",
                "engine_update": "20180521",
                "engine_version": "18.4.3895.0",
                "method": "blacklist",
                "result": "Win32:Vitro"
            },
            "AVware": {
                "category": "malicious",
                "engine_name": "AVware",
                "engine_update": "20180521",
                "engine_version": "1.5.0.42",
                "method": "blacklist",
                "result": "Virus.Win32.Shodi.i (v)"
            },
            "Ad-Aware": {
                "category": "malicious",
                "engine_name": "Ad-Aware",
                "engine_update": "20180521",
                "engine_version": "3.0.5.370",
                "method": "blacklist",
                "result": "Gen:Variant.Razy.134072"
            },
            "AegisLab": {
                "category": "malicious",
                "engine_name": "AegisLab",
                "engine_update": "20180521",
                "engine_version": "4.2",
                "method": "blacklist",
                "result": "W32.Virut.toSP"
            },
            "AhnLab-V3": {
                "category": "malicious",
                "engine_name": "AhnLab-V3",
                "engine_update": "20180521",
                "engine_version": "3.12.1.20782",
                "method": "blacklist",
                "result": "Win32/Shoudi.B"
            },
            "Alibaba": {
                "category": "type-unsupported",
                "engine_name": "Alibaba",
                "engine_update": "20180521",
                "engine_version": "1.0",
                "method": "blacklist",
                "result": null
            },
            "Antiy-AVL": {
                "category": "malicious",
                "engine_name": "Antiy-AVL",
                "engine_update": "20180521",
                "engine_version": "3.0.0.1",
                "method": "blacklist",
                "result": "Virus/Win32.Virut.ce"
            },
            "Arcabit": {
                "category": "malicious",
                "engine_name": "Arcabit",
                "engine_update": "20180521",
                "engine_version": "1.0.0.831",
                "method": "blacklist",
                "result": "Trojan.Razy.D20BB8"
            },
            "Avast": {
                "category": "malicious",
                "engine_name": "Avast",
                "engine_update": "20180521",
                "engine_version": "18.4.3895.0",
                "method": "blacklist",
                "result": "Win32:Vitro"
            },
            "Avast-Mobile": {
                "category": "undetected",
                "engine_name": "Avast-Mobile",
                "engine_update": "20180520",
                "engine_version": "180520-04",
                "method": "blacklist",
                "result": null
            },
            "Avira": {
                "category": "malicious",
                "engine_name": "Avira",
                "engine_update": "20180521",
                "engine_version": "8.3.3.6",
                "method": "blacklist",
                "result": "W32/Virut.Gen"
            },
            "Babable": {
                "category": "malicious",
                "engine_name": "Babable",
                "engine_update": "20180406",
                "engine_version": "9107201",
                "method": "blacklist",
                "result": "Malware.HighConfidence"
            },
            "Baidu": {
                "category": "malicious",
                "engine_name": "Baidu",
                "engine_update": "20180521",
                "engine_version": "1.0.0.2",
                "method": "blacklist",
                "result": "Win32.Trojan.WisdomEyes.16070401.9500.9920"
            },
            "BitDefender": {
                "category": "malicious",
                "engine_name": "BitDefender",
                "engine_update": "20180521",
                "engine_version": "7.2",
                "method": "blacklist",
                "result": "Gen:Variant.Razy.134072"
            },
            "Bkav": {
                "category": "undetected",
                "engine_name": "Bkav",
                "engine_update": "20180521",
                "engine_version": "1.3.0.9466",
                "method": "blacklist",
                "result": null
            },
            "CAT-QuickHeal": {
                "category": "malicious",
                "engine_name": "CAT-QuickHeal",
                "engine_update": "20180521",
                "engine_version": "14.00",
                "method": "blacklist",
                "result": "W32.Shodi.A1"
            },
            "CMC": {
                "category": "undetected",
                "engine_name": "CMC",
                "engine_update": "20180521",
                "engine_version": "1.1.0.977",
                "method": "blacklist",
                "result": null
            },
            "ClamAV": {
                "category": "malicious",
                "engine_name": "ClamAV",
                "engine_update": "20180521",
                "engine_version": "0.99.2.0",
                "method": "blacklist",
                "result": "Win.Trojan.Shohdi-6136104-0"
            },
            "Comodo": {
                "category": "malicious",
                "engine_name": "Comodo",
                "engine_update": "20180521",
                "engine_version": "29050",
                "method": "blacklist",
                "result": "Virus.Win32.Shodi.B"
            },
            "CrowdStrike": {
                "category": "type-unsupported",
                "engine_name": "CrowdStrike",
                "engine_update": "20180202",
                "engine_version": "1.0",
                "method": "blacklist",
                "result": null
            },
            "Cybereason": {
                "category": "type-unsupported",
                "engine_name": "Cybereason",
                "engine_update": null,
                "engine_version": null,
                "method": "blacklist",
                "result": null
            },
            "Cylance": {
                "category": "malicious",
                "engine_name": "Cylance",
                "engine_update": "20180521",
                "engine_version": "2.3.1.101",
                "method": "blacklist",
                "result": "Unsafe"
            },
            "Cyren": {
                "category": "malicious",
                "engine_name": "Cyren",
                "engine_update": "20180521",
                "engine_version": "6.0.0.4",
                "method": "blacklist",
                "result": "W32/Zbot.AW.gen!Eldorado"
            },
            "DrWeb": {
                "category": "malicious",
                "engine_name": "DrWeb",
                "engine_update": "20180521",
                "engine_version": "7.0.28.2020",
                "method": "blacklist",
                "result": "Win32.HLLP.Shohdi"
            },
            "ESET-NOD32": {
                "category": "malicious",
                "engine_name": "ESET-NOD32",
                "engine_update": "20180521",
                "engine_version": "17418",
                "method": "blacklist",
                "result": "Win32/Virut.NHA"
            },
            "Emsisoft": {
                "category": "malicious",
                "engine_name": "Emsisoft",
                "engine_update": "20180521",
                "engine_version": "4.0.2.899",
                "method": "blacklist",
                "result": "Gen:Variant.Razy.134072 (B)"
            },
            "Endgame": {
                "category": "malicious",
                "engine_name": "Endgame",
                "engine_update": "20180507",
                "engine_version": "2.1.2",
                "method": "blacklist",
                "result": "malicious (high confidence)"
            },
            "F-Prot": {
                "category": "malicious",
                "engine_name": "F-Prot",
                "engine_update": "20180521",
                "engine_version": "4.7.1.166",
                "method": "blacklist",
                "result": "W32/Zbot.AW.gen!Eldorado"
            },
            "F-Secure": {
                "category": "malicious",
                "engine_name": "F-Secure",
                "engine_update": "20180521",
                "engine_version": "11.0.19100.45",
                "method": "blacklist",
                "result": "Gen:Variant.Razy.134072"
            },
            "Fortinet": {
                "category": "malicious",
                "engine_name": "Fortinet",
                "engine_update": "20180521",
                "engine_version": "5.4.247.0",
                "method": "blacklist",
                "result": "W32/Hupigon.NCU"
            },
            "GData": {
                "category": "malicious",
                "engine_name": "GData",
                "engine_update": "20180521",
                "engine_version": "A:25.17128B:25.12305",
                "method": "blacklist",
                "result": "Gen:Variant.Razy.134072"
            },
            "Ikarus": {
                "category": "malicious",
                "engine_name": "Ikarus",
                "engine_update": "20180521",
                "engine_version": "0.1.5.2",
                "method": "blacklist",
                "result": "Backdoor.Win32.Hupigon"
            },
            "Invincea": {
                "category": "malicious",
                "engine_name": "Invincea",
                "engine_update": "20180503",
                "engine_version": "6.3.4.26036",
                "method": "blacklist",
                "result": "heuristic"
            },
            "Jiangmin": {
                "category": "malicious",
                "engine_name": "Jiangmin",
                "engine_update": "20180521",
                "engine_version": "16.0.100",
                "method": "blacklist",
                "result": "Trojan.Generic.arrqo"
            },
            "K7AntiVirus": {
                "category": "malicious",
                "engine_name": "K7AntiVirus",
                "engine_update": "20180521",
                "engine_version": "10.47.27198",
                "method": "blacklist",
                "result": "Virus ( 0050b8571 )"
            },
            "K7GW": {
                "category": "malicious",
                "engine_name": "K7GW",
                "engine_update": "20180521",
                "engine_version": "10.47.27203",
                "method": "blacklist",
                "result": "Virus ( 0050b8571 )"
            },
            "Kaspersky": {
                "category": "malicious",
                "engine_name": "Kaspersky",
                "engine_update": "20180521",
                "engine_version": "15.0.1.13",
                "method": "blacklist",
                "result": "Virus.Win32.Virut.ce"
            },
            "Kingsoft": {
                "category": "undetected",
                "engine_name": "Kingsoft",
                "engine_update": "20180521",
                "engine_version": "2013.8.14.323",
                "method": "blacklist",
                "result": null
            },
            "MAX": {
                "category": "malicious",
                "engine_name": "MAX",
                "engine_update": "20180521",
                "engine_version": "2017.11.15.1",
                "method": "blacklist",
                "result": "malware (ai score=100)"
            },
            "Malwarebytes": {
                "category": "undetected",
                "engine_name": "Malwarebytes",
                "engine_update": "20180521",
                "engine_version": "2.1.1.1115",
                "method": "blacklist",
                "result": null
            },
            "McAfee": {
                "category": "malicious",
                "engine_name": "McAfee",
                "engine_update": "20180521",
                "engine_version": "6.0.6.653",
                "method": "blacklist",
                "result": "W32/Virut.n.gen"
            },
            "McAfee-GW-Edition": {
                "category": "malicious",
                "engine_name": "McAfee-GW-Edition",
                "engine_update": "20180521",
                "engine_version": "v2017.2786",
                "method": "blacklist",
                "result": "BehavesLike.Win32.Virut.cm"
            },
            "MicroWorld-eScan": {
                "category": "malicious",
                "engine_name": "MicroWorld-eScan",
                "engine_update": "20180521",
                "engine_version": "14.0.297.0",
                "method": "blacklist",
                "result": "Gen:Variant.Razy.134072"
            },
            "Microsoft": {
                "category": "malicious",
                "engine_name": "Microsoft",
                "engine_update": "20180521",
                "engine_version": "1.1.14800.3",
                "method": "blacklist",
                "result": "Virus:Win32/Shodi.I"
            },
            "NANO-Antivirus": {
                "category": "malicious",
                "engine_name": "NANO-Antivirus",
                "engine_update": "20180521",
                "engine_version": "1.0.106.22618",
                "method": "blacklist",
                "result": "Virus.Win32.Shodi.ggcu"
            },
            "Paloalto": {
                "category": "malicious",
                "engine_name": "Paloalto",
                "engine_update": "20180521",
                "engine_version": "1.0",
                "method": "blacklist",
                "result": "generic.ml"
            },
            "Panda": {
                "category": "malicious",
                "engine_name": "Panda",
                "engine_update": "20180520",
                "engine_version": "4.6.4.2",
                "method": "blacklist",
                "result": "Trj/Genetic.gen"
            },
            "Qihoo-360": {
                "category": "malicious",
                "engine_name": "Qihoo-360",
                "engine_update": "20180521",
                "engine_version": "1.0.0.1120",
                "method": "blacklist",
                "result": "Win32/Virus.Shohdi.A"
            },
            "Rising": {
                "category": "malicious",
                "engine_name": "Rising",
                "engine_update": "20180521",
                "engine_version": "25.0.0.1",
                "method": "blacklist",
                "result": "Virus.Shodi!1.9B9C (CLASSIC)"
            },
            "SUPERAntiSpyware": {
                "category": "undetected",
                "engine_name": "SUPERAntiSpyware",
                "engine_update": "20180521",
                "engine_version": "5.6.0.1032",
                "method": "blacklist",
                "result": null
            },
            "SentinelOne": {
                "category": "malicious",
                "engine_name": "SentinelOne",
                "engine_update": "20180225",
                "engine_version": "1.0.15.206",
                "method": "blacklist",
                "result": "static engine - malicious"
            },
            "Sophos": {
                "category": "malicious",
                "engine_name": "Sophos",
                "engine_update": "20180521",
                "engine_version": "4.98.0",
                "method": "blacklist",
                "result": "W32/Shodi-I"
            },
            "Symantec": {
                "category": "malicious",
                "engine_name": "Symantec",
                "engine_update": "20180521",
                "engine_version": "1.6.0.0",
                "method": "blacklist",
                "result": "ML.Attribute.HighConfidence"
            },
            "SymantecMobileInsight": {
                "category": "type-unsupported",
                "engine_name": "SymantecMobileInsight",
                "engine_update": "20180518",
                "engine_version": "1.0.0.35_220",
                "method": "blacklist",
                "result": null
            },
            "Tencent": {
                "category": "malicious",
                "engine_name": "Tencent",
                "engine_update": "20180521",
                "engine_version": "1.0.0.1",
                "method": "blacklist",
                "result": "Win32.Virus.Virut.Swam"
            },
            "TheHacker": {
                "category": "undetected",
                "engine_name": "TheHacker",
                "engine_update": "20180516",
                "engine_version": "6.8.0.5.2838",
                "method": "blacklist",
                "result": null
            },
            "TotalDefense": {
                "category": "malicious",
                "engine_name": "TotalDefense",
                "engine_update": "20180520",
                "engine_version": "37.1.62.1",
                "method": "blacklist",
                "result": "Win32/Virut.17408"
            },
            "TrendMicro": {
                "category": "malicious",
                "engine_name": "TrendMicro",
                "engine_update": "20180521",
                "engine_version": "10.0.0.1040",
                "method": "blacklist",
                "result": "TROJ_OBFUSCATOR_GC140262.UVPM"
            },
            "TrendMicro-HouseCall": {
                "category": "malicious",
                "engine_name": "TrendMicro-HouseCall",
                "engine_update": "20180521",
                "engine_version": "9.950.0.1006",
                "method": "blacklist",
                "result": "TROJ_OBFUSCATOR_GC140262.UVPM"
            },
            "Trustlook": {
                "category": "type-unsupported",
                "engine_name": "Trustlook",
                "engine_update": "20180521",
                "engine_version": "2",
                "method": "blacklist",
                "result": null
            },
            "VBA32": {
                "category": "malicious",
                "engine_name": "VBA32",
                "engine_update": "20180521",
                "engine_version": "3.12.32.0",
                "method": "blacklist",
                "result": "Virus.Virut.02"
            },
            "VIPRE": {
                "category": "malicious",
                "engine_name": "VIPRE",
                "engine_update": "20180521",
                "engine_version": "66832",
                "method": "blacklist",
                "result": "Virus.Win32.Shodi.i (v)"
            },
            "ViRobot": {
                "category": "undetected",
                "engine_name": "ViRobot",
                "engine_update": "20180521",
                "engine_version": "2014.3.20.0",
                "method": "blacklist",
                "result": null
            },
            "Webroot": {
                "category": "malicious",
                "engine_name": "Webroot",
                "engine_update": "20180521",
                "engine_version": "1.0.0.403",
                "method": "blacklist",
                "result": "W32.Infector.Virut.Gen"
            },
            "Yandex": {
                "category": "malicious",
                "engine_name": "Yandex",
                "engine_update": "20180518",
                "engine_version": "5.5.1.3",
                "method": "blacklist",
                "result": "Win32.Virut.AB.Gen"
            },
            "Zillya": {
                "category": "malicious",
                "engine_name": "Zillya",
                "engine_update": "20180521",
                "engine_version": "2.0.0.3557",
                "method": "blacklist",
                "result": "Trojan.Virut.Win32.3006"
            },
            "ZoneAlarm": {
                "category": "malicious",
                "engine_name": "ZoneAlarm",
                "engine_update": "20180521",
                "engine_version": "1.0",
                "method": "blacklist",
                "result": "HEUR:Trojan.Win32.Generic"
            },
            "Zoner": {
                "category": "undetected",
                "engine_name": "Zoner",
                "engine_update": "20180521",
                "engine_version": "1.0",
                "method": "blacklist",
                "result": null
            },
            "eGambit": {
                "category": "undetected",
                "engine_name": "eGambit",
                "engine_update": "20180521",
                "engine_version": null,
                "method": "blacklist",
                "result": null
            },
            "nProtect": {
                "category": "undetected",
                "engine_name": "nProtect",
                "engine_update": "20180521",
                "engine_version": "2018-05-21.02",
                "method": "blacklist",
                "result": null
            }
        },
        "last_analysis_stats": {
            "confirmed-timeout": 0,
            "failure": 0,
            "harmless": 0,
            "malicious": 55,
            "suspicious": 0,
            "timeout": 0,
            "type-unsupported": 5,
            "undetected": 11
        },
        "last_modification_date": 1526903080,
        "last_submission_date": 1526902862,
        "magic": "PE32 executable for MS Windows (GUI) Intel 80386 32-bit",
        "md5": "c5249195c7d4f1d43e90731fb7e8b741",
        "meaningful_name": "c5249195c7d4f1d43e90731fb7e8b741.vir",
        "names": [
            "c5249195c7d4f1d43e90731fb7e8b741.vir",
            "c5249195c7d4f1d43e90731fb7e8b741"
        ],
        "pe_info": {
            "entry_point": 10035,
            "imphash": "4e1811b18ce23e363f80351a3925bdae",
            "import_list": [
                {
                    "imported_functions": [
                        "??1ios@@UAE@XZ"
                    ],
                    "library_name": "MSVCIRT.dll"
                },
                {
                    "imported_functions": [
                        "GetModuleHandleA",
                        "VirtualFree",
                        "ExitProcess",
                        "VirtualProtect",
                        "GetProcAddress",
                        "VirtualAlloc",
                        "LoadLibraryA"
                    ],
                    "library_name": "kernel32.dll"
                },
                {
                    "imported_functions": [
                        "exit"
                    ],
                    "library_name": "MSVCRT.dll"
                },
                {
                    "imported_functions": [
                        "wsprintfA",
                        "MessageBoxA"
                    ],
                    "library_name": "user32.dll"
                }
            ],
            "machine_type": 332,
            "overlay": {
                "chi2": 1370188.75,
                "entropy": 6.16804313659668,
                "filetype": "application/x-ms-dos-executable",
                "md5": "b58ff6cb808bf0676b9a21593a88911d",
                "offset": 110459,
                "size": 53276
            },
            "resource_details": [
                {
                    "chi2": 1022032.125,
                    "entropy": 0.0,
                    "filetype": "ASCII text",
                    "lang": "NEUTRAL",
                    "sha256": "4f9e1e02c09d65ec3ed02f1acd87f857959e01b877bbcb9a575037c34d089434",
                    "type": "RT_ICON"
                },
                {
                    "chi2": 1823.2001953125,
                    "entropy": 1.9192407131195068,
                    "filetype": "data",
                    "lang": "ARABIC EGYPT",
                    "sha256": "1f08569caa4db78cd12752e0343cd4bfd02c5990676e45b472c5e0572a841b7c",
                    "type": "RT_GROUP_ICON"
                }
            ],
            "resource_langs": {
                "ARABIC EGYPT": 1,
                "NEUTRAL": 1
            },
            "resource_types": {
                "RT_GROUP_ICON": 1,
                "RT_ICON": 1
            },
            "sections": [
                {
                    "entropy": 7.64,
                    "md5": "4cee79ac2671e36829d0bb610df5b052",
                    "name": "",
                    "raw_size": 6656,
                    "virtual_address": 4096,
                    "virtual_size": 16384
                },
                {
                    "entropy": 4.23,
                    "md5": "aed73b2a47a43cb61cd9421acc163612",
                    "name": ".rsrc",
                    "raw_size": 102400,
                    "virtual_address": 20480,
                    "virtual_size": 102400
                },
                {
                    "entropy": 4.09,
                    "md5": "d9152af36e3787ad41768ba5d11906da",
                    "name": "petite",
                    "raw_size": 379,
                    "virtual_address": 122880,
                    "virtual_size": 379
                }
            ],
            "timestamp": 1094982929
        },
        "reputation": 0,
        "sha1": "edae792dea4dfa62c70c6c63f30be4697461d2ce",
        "sha256": "0005062f43a5e503272746288937c6808565eb391d9f0877daa6e4895ab34ebc",
        "size": 163735,
        "ssdeep": "3072:jlSccsWlXCFLcVygl3vL/Fc8G8G8G8G8SJIfCDWMmvc:jUDCkv+WW",
        "tags": [
            "peexe",
            "overlay"
        ],
        "times_submitted": 2,
        "total_votes": {
            "harmless": 0,
            "malicious": 0
        },
        "trid": [
            {
                "file_type": "Win32 Executable (generic)",
                "probability": 52.9
            },
            {
                "file_type": "Generic Win/DOS Executable",
                "probability": 23.5
            },
            {
                "file_type": "DOS Executable Generic",
                "probability": 23.5
            }
        ],
        "type_description": "Win32 EXE",
        "type_extension": "exe",
        "type_tag": "peexe",
        "unique_sources": 2,
        "vhash": "0150377f151bz701lz2fz"
    },
    "id": "0005062f43a5e503272746288937c6808565eb391d9f0877daa6e4895ab34ebc",
    "links": {
        "self": "https://www.virustotal.com/api/v3/files/0005062f43a5e503272746288937c6808565eb391d9f0877daa6e4895ab34ebc"
    },
    "type": "file"
}