{
    "attributes": {
        "authentihash": "497584824c0240a832daa340d966d8db48e656af112d8bb820beb899cda4a595",
        "creation_date": 976827979,
        "first_submission_date": 1534274605,
        "last_analysis_date": 1534639128,
        "last_analysis_results": {
            "ALYac": {
                "category": "malicious",
                "engine_name": "ALYac",
                "engine_update": "20180819",
                "engine_version": "1.1.1.5",
                "method": "blacklist",
                "result": "Trojan.GenericKD.40401064"
            },
            "AVG": {
                "category": "malicious",
                "engine_name": "AVG",
                "engine_update": "20180818",
                "engine_version": "18.4.3895.0",
                "method": "blacklist",
                "result": "Win32:Trojan-gen"
            },
            "AVware": {
                "category": "undetected",
                "engine_name": "AVware",
                "engine_update": "20180819",
                "engine_version": "1.6.0.52",
                "method": "blacklist",
                "result": null
            },
            "Ad-Aware": {
                "category": "malicious",
                "engine_name": "Ad-Aware",
                "engine_update": "20180818",
                "engine_version": "3.0.5.370",
                "method": "blacklist",
                "result": "Trojan.GenericKD.40401064"
            },
            "AegisLab": {
                "category": "undetected",
                "engine_name": "AegisLab",
                "engine_update": "20180818",
                "engine_version": "4.2",
                "method": "blacklist",
                "result": null
            },
            "AhnLab-V3": {
                "category": "undetected",
                "engine_name": "AhnLab-V3",
                "engine_update": "20180818",
                "engine_version": "3.13.1.21616",
                "method": "blacklist",
                "result": null
            },
            "Alibaba": {
                "category": "type-unsupported",
                "engine_name": "Alibaba",
                "engine_update": "20180713",
                "engine_version": "1.0",
                "method": "blacklist",
                "result": null
            },
            "Antiy-AVL": {
                "category": "malicious",
                "engine_name": "Antiy-AVL",
                "engine_update": "20180819",
                "engine_version": "3.0.0.1",
                "method": "blacklist",
                "result": "HackTool[Constructor]/Win32.GodWill"
            },
            "Arcabit": {
                "category": "malicious",
                "engine_name": "Arcabit",
                "engine_update": "20180819",
                "engine_version": "1.0.0.831",
                "method": "blacklist",
                "result": "Trojan.Generic.D26878A8"
            },
            "Avast": {
                "category": "malicious",
                "engine_name": "Avast",
                "engine_update": "20180818",
                "engine_version": "18.4.3895.0",
                "method": "blacklist",
                "result": "Win32:Trojan-gen"
            },
            "Avast-Mobile": {
                "category": "undetected",
                "engine_name": "Avast-Mobile",
                "engine_update": "20180818",
                "engine_version": "180817-04",
                "method": "blacklist",
                "result": null
            },
            "Avira": {
                "category": "malicious",
                "engine_name": "Avira",
                "engine_update": "20180818",
                "engine_version": "8.3.3.6",
                "method": "blacklist",
                "result": "KIT/GodWill.104"
            },
            "Babable": {
                "category": "undetected",
                "engine_name": "Babable",
                "engine_update": "20180725",
                "engine_version": "9107201",
                "method": "blacklist",
                "result": null
            },
            "Baidu": {
                "category": "undetected",
                "engine_name": "Baidu",
                "engine_update": "20180818",
                "engine_version": "1.0.0.2",
                "method": "blacklist",
                "result": null
            },
            "BitDefender": {
                "category": "malicious",
                "engine_name": "BitDefender",
                "engine_update": "20180819",
                "engine_version": "7.2",
                "method": "blacklist",
                "result": "Trojan.GenericKD.40401064"
            },
            "Bkav": {
                "category": "undetected",
                "engine_name": "Bkav",
                "engine_update": "20180817",
                "engine_version": "1.3.0.8876",
                "method": "blacklist",
                "result": null
            },
            "CAT-QuickHeal": {
                "category": "undetected",
                "engine_name": "CAT-QuickHeal",
                "engine_update": "20180818",
                "engine_version": "14.00",
                "method": "blacklist",
                "result": null
            },
            "CMC": {
                "category": "malicious",
                "engine_name": "CMC",
                "engine_update": "20180817",
                "engine_version": "1.1.0.977",
                "method": "blacklist",
                "result": "Constructor.Win32.GodWill!O"
            },
            "ClamAV": {
                "category": "malicious",
                "engine_name": "ClamAV",
                "engine_update": "20180818",
                "engine_version": "0.100.1.0",
                "method": "blacklist",
                "result": "Win.Trojan.C-62"
            },
            "Comodo": {
                "category": "undetected",
                "engine_name": "Comodo",
                "engine_update": "20180818",
                "engine_version": "29545",
                "method": "blacklist",
                "result": null
            },
            "CrowdStrike": {
                "category": "malicious",
                "engine_name": "CrowdStrike",
                "engine_update": "20180723",
                "engine_version": "1.0",
                "method": "blacklist",
                "result": "malicious_confidence_80% (D)"
            },
            "Cybereason": {
                "category": "malicious",
                "engine_name": "Cybereason",
                "engine_update": "20180225",
                "engine_version": "1.2.27",
                "method": "blacklist",
                "result": "malicious.cfdaae"
            },
            "Cylance": {
                "category": "undetected",
                "engine_name": "Cylance",
                "engine_update": "20180819",
                "engine_version": "2.3.1.101",
                "method": "blacklist",
                "result": null
            },
            "Cyren": {
                "category": "undetected",
                "engine_name": "Cyren",
                "engine_update": "20180819",
                "engine_version": "6.0.0.4",
                "method": "blacklist",
                "result": null
            },
            "DrWeb": {
                "category": "malicious",
                "engine_name": "DrWeb",
                "engine_update": "20180818",
                "engine_version": "7.0.33.6080",
                "method": "blacklist",
                "result": "Constructor.Siggen.1721"
            },
            "ESET-NOD32": {
                "category": "undetected",
                "engine_name": "ESET-NOD32",
                "engine_update": "20180818",
                "engine_version": "17906",
                "method": "blacklist",
                "result": null
            },
            "Emsisoft": {
                "category": "malicious",
                "engine_name": "Emsisoft",
                "engine_update": "20180818",
                "engine_version": "2018.4.0.1029",
                "method": "blacklist",
                "result": "Trojan.GenericKD.40401064 (B)"
            },
            "Endgame": {
                "category": "undetected",
                "engine_name": "Endgame",
                "engine_update": "20180730",
                "engine_version": "3.0.1",
                "method": "blacklist",
                "result": null
            },
            "F-Prot": {
                "category": "undetected",
                "engine_name": "F-Prot",
                "engine_update": "20180818",
                "engine_version": "4.7.1.166",
                "method": "blacklist",
                "result": null
            },
            "F-Secure": {
                "category": "undetected",
                "engine_name": "F-Secure",
                "engine_update": "20180818",
                "engine_version": "11.0.19100.45",
                "method": "blacklist",
                "result": null
            },
            "Fortinet": {
                "category": "malicious",
                "engine_name": "Fortinet",
                "engine_update": "20180818",
                "engine_version": "5.4.247.0",
                "method": "blacklist",
                "result": "W32/GodWill.104!kit"
            },
            "GData": {
                "category": "malicious",
                "engine_name": "GData",
                "engine_update": "20180818",
                "engine_version": "A:25.18170B:25.12999",
                "method": "blacklist",
                "result": "Trojan.GenericKD.40401064"
            },
            "Invincea": {
                "category": "malicious",
                "engine_name": "Invincea",
                "engine_update": "20180717",
                "engine_version": "6.3.5.26121",
                "method": "blacklist",
                "result": "heuristic"
            },
            "Jiangmin": {
                "category": "malicious",
                "engine_name": "Jiangmin",
                "engine_update": "20180818",
                "engine_version": "16.0.100",
                "method": "blacklist",
                "result": "Constructor.GodWill.104"
            },
            "K7AntiVirus": {
                "category": "undetected",
                "engine_name": "K7AntiVirus",
                "engine_update": "20180818",
                "engine_version": "10.59.28115",
                "method": "blacklist",
                "result": null
            },
            "K7GW": {
                "category": "undetected",
                "engine_name": "K7GW",
                "engine_update": "20180819",
                "engine_version": "10.59.28115",
                "method": "blacklist",
                "result": null
            },
            "Kaspersky": {
                "category": "malicious",
                "engine_name": "Kaspersky",
                "engine_update": "20180818",
                "engine_version": "15.0.1.13",
                "method": "blacklist",
                "result": "Constructor.Win32.GodWill.104"
            },
            "Kingsoft": {
                "category": "undetected",
                "engine_name": "Kingsoft",
                "engine_update": "20180819",
                "engine_version": "2013.8.14.323",
                "method": "blacklist",
                "result": null
            },
            "MAX": {
                "category": "malicious",
                "engine_name": "MAX",
                "engine_update": "20180819",
                "engine_version": "2017.11.15.1",
                "method": "blacklist",
                "result": "malware (ai score=99)"
            },
            "Malwarebytes": {
                "category": "undetected",
                "engine_name": "Malwarebytes",
                "engine_update": "20180819",
                "engine_version": "2.1.1.1115",
                "method": "blacklist",
                "result": null
            },
            "McAfee": {
                "category": "malicious",
                "engine_name": "McAfee",
                "engine_update": "20180818",
                "engine_version": "6.0.6.653",
                "method": "blacklist",
                "result": "Artemis!FBA56D6CFDAA"
            },
            "McAfee-GW-Edition": {
                "category": "malicious",
                "engine_name": "McAfee-GW-Edition",
                "engine_update": "20180818",
                "engine_version": "v2017.3010",
                "method": "blacklist",
                "result": "BehavesLike.Win32.BadFile.tz"
            },
            "MicroWorld-eScan": {
                "category": "malicious",
                "engine_name": "MicroWorld-eScan",
                "engine_update": "20180818",
                "engine_version": "14.0.297.0",
                "method": "blacklist",
                "result": "Trojan.GenericKD.40401064"
            },
            "Microsoft": {
                "category": "malicious",
                "engine_name": "Microsoft",
                "engine_update": "20180818",
                "engine_version": "1.1.15100.1",
                "method": "blacklist",
                "result": "Trojan:Win32/Zpevdo.A"
            },
            "NANO-Antivirus": {
                "category": "undetected",
                "engine_name": "NANO-Antivirus",
                "engine_update": "20180819",
                "engine_version": "1.0.116.23366",
                "method": "blacklist",
                "result": null
            },
            "Paloalto": {
                "category": "malicious",
                "engine_name": "Paloalto",
                "engine_update": "20180819",
                "engine_version": "1.0",
                "method": "blacklist",
                "result": "generic.ml"
            },
            "Panda": {
                "category": "undetected",
                "engine_name": "Panda",
                "engine_update": "20180818",
                "engine_version": "4.6.4.2",
                "method": "blacklist",
                "result": null
            },
            "Qihoo-360": {
                "category": "malicious",
                "engine_name": "Qihoo-360",
                "engine_update": "20180819",
                "engine_version": "1.0.0.1120",
                "method": "blacklist",
                "result": "Win32/Constructor.25e"
            },
            "Rising": {
                "category": "malicious",
                "engine_name": "Rising",
                "engine_update": "20180818",
                "engine_version": "25.0.0.24",
                "method": "blacklist",
                "result": "HackTool.GodWill!8.4ECA (CLOUD)"
            },
            "SUPERAntiSpyware": {
                "category": "undetected",
                "engine_name": "SUPERAntiSpyware",
                "engine_update": "20180818",
                "engine_version": "5.6.0.1032",
                "method": "blacklist",
                "result": null
            },
            "SentinelOne": {
                "category": "malicious",
                "engine_name": "SentinelOne",
                "engine_update": "20180701",
                "engine_version": "1.0.17.227",
                "method": "blacklist",
                "result": "static engine - malicious"
            },
            "Sophos": {
                "category": "malicious",
                "engine_name": "Sophos",
                "engine_update": "20180818",
                "engine_version": "4.98.0",
                "method": "blacklist",
                "result": "Mal/Generic-S"
            },
            "Symantec": {
                "category": "malicious",
                "engine_name": "Symantec",
                "engine_update": "20180818",
                "engine_version": "1.7.0.0",
                "method": "blacklist",
                "result": "Trojan.Gen.2"
            },
            "SymantecMobileInsight": {
                "category": "type-unsupported",
                "engine_name": "SymantecMobileInsight",
                "engine_update": "20180814",
                "engine_version": "2.0",
                "method": "blacklist",
                "result": null
            },
            "TACHYON": {
                "category": "undetected",
                "engine_name": "TACHYON",
                "engine_update": "20180818",
                "engine_version": "2018-08-18.02",
                "method": "blacklist",
                "result": null
            },
            "Tencent": {
                "category": "malicious",
                "engine_name": "Tencent",
                "engine_update": "20180819",
                "engine_version": "1.0.0.1",
                "method": "blacklist",
                "result": "Win32.Trojan.Godwill.Egef"
            },
            "TheHacker": {
                "category": "undetected",
                "engine_name": "TheHacker",
                "engine_update": "20180818",
                "engine_version": "6.8.0.5.3560",
                "method": "blacklist",
                "result": null
            },
            "TotalDefense": {
                "category": "undetected",
                "engine_name": "TotalDefense",
                "engine_update": "20180818",
                "engine_version": "37.1.62.1",
                "method": "blacklist",
                "result": null
            },
            "TrendMicro": {
                "category": "undetected",
                "engine_name": "TrendMicro",
                "engine_update": "20180818",
                "engine_version": "10.0.0.1040",
                "method": "blacklist",
                "result": null
            },
            "TrendMicro-HouseCall": {
                "category": "malicious",
                "engine_name": "TrendMicro-HouseCall",
                "engine_update": "20180818",
                "engine_version": "9.950.0.1006",
                "method": "blacklist",
                "result": "TROJ_GEN.R049H07HE18"
            },
            "Trustlook": {
                "category": "type-unsupported",
                "engine_name": "Trustlook",
                "engine_update": "20180819",
                "engine_version": "2",
                "method": "blacklist",
                "result": null
            },
            "VBA32": {
                "category": "undetected",
                "engine_name": "VBA32",
                "engine_update": "20180817",
                "engine_version": "3.33.0",
                "method": "blacklist",
                "result": null
            },
            "VIPRE": {
                "category": "undetected",
                "engine_name": "VIPRE",
                "engine_update": "20180818",
                "engine_version": "68932",
                "method": "blacklist",
                "result": null
            },
            "ViRobot": {
                "category": "undetected",
                "engine_name": "ViRobot",
                "engine_update": "20180818",
                "engine_version": "2014.3.20.0",
                "method": "blacklist",
                "result": null
            },
            "Webroot": {
                "category": "undetected",
                "engine_name": "Webroot",
                "engine_update": "20180819",
                "engine_version": "1.0.0.403",
                "method": "blacklist",
                "result": null
            },
            "Yandex": {
                "category": "undetected",
                "engine_name": "Yandex",
                "engine_update": "20180818",
                "engine_version": "5.5.1.3",
                "method": "blacklist",
                "result": null
            },
            "Zillya": {
                "category": "undetected",
                "engine_name": "Zillya",
                "engine_update": "20180817",
                "engine_version": "2.0.0.3620",
                "method": "blacklist",
                "result": null
            },
            "ZoneAlarm": {
                "category": "malicious",
                "engine_name": "ZoneAlarm",
                "engine_update": "20180818",
                "engine_version": "1.0",
                "method": "blacklist",
                "result": "Constructor.Win32.GodWill.104"
            },
            "Zoner": {
                "category": "undetected",
                "engine_name": "Zoner",
                "engine_update": "20180818",
                "engine_version": "1.0",
                "method": "blacklist",
                "result": null
            },
            "eGambit": {
                "category": "undetected",
                "engine_name": "eGambit",
                "engine_update": "20180819",
                "engine_version": null,
                "method": "blacklist",
                "result": null
            }
        },
        "last_analysis_stats": {
            "confirmed-timeout": 0,
            "failure": 0,
            "harmless": 0,
            "malicious": 33,
            "suspicious": 0,
            "timeout": 0,
            "type-unsupported": 3,
            "undetected": 34
        },
        "last_modification_date": 1534639325,
        "last_submission_date": 1534274605,
        "magic": "PE32 executable for MS Windows (GUI) Intel 80386 32-bit",
        "md5": "fba56d6cfdaae6085e56fbd3bcded4e5",
        "names": [
            "."
        ],
        "pe_info": {
            "entry_point": 10592,
            "machine_type": 332,
            "sections": [
                {
                    "entropy": 3.3,
                    "md5": "4092b863349c3501e6b096a12d1b94b9",
                    "name": ".text",
                    "raw_size": 5959680,
                    "virtual_address": 4096,
                    "virtual_size": 5958840
                },
                {
                    "entropy": 0.0,
                    "md5": "d41d8cd98f00b204e9800998ecf8427e",
                    "name": ".data",
                    "raw_size": 4096,
                    "virtual_address": 5963776,
                    "virtual_size": 62732
                },
                {
                    "entropy": 0.0,
                    "md5": "d41d8cd98f00b204e9800998ecf8427e",
                    "name": ".rsrc",
                    "raw_size": 4096,
                    "virtual_address": 6029312,
                    "virtual_size": 3416
                }
            ],
            "timestamp": 976827979
        },
        "reputation": 0,
        "sha1": "6febab39264d6ed2325a45908600de19e88263a1",
        "sha256": "0005a5076cb682abe06df905dcd84c07f3fb33e3b415b455b4c525ecec2dd00c",
        "size": 1662992,
        "ssdeep": "12288:t/AQJA87kzOjlVBRoGO0Wo2IE3FyVnKae+iBQR:xtJwOJ1opoMQce",
        "tags": [
            "corrupt",
            "peexe"
        ],
        "times_submitted": 1,
        "total_votes": {
            "harmless": 0,
            "malicious": 0
        },
        "trid": [
            {
                "file_type": "Win32 Dynamic Link Library (generic)",
                "probability": 38.4
            },
            {
                "file_type": "Win32 Executable (generic)",
                "probability": 26.3
            },
            {
                "file_type": "OS/2 Executable (generic)",
                "probability": 11.8
            },
            {
                "file_type": "Generic Win/DOS Executable",
                "probability": 11.6
            },
            {
                "file_type": "DOS Executable Generic",
                "probability": 11.6
            }
        ],
        "type_description": "Win32 EXE",
        "type_extension": "exe",
        "type_tag": "peexe",
        "unique_sources": 1,
        "vhash": "0160361d05|z"
    },
    "id": "0005a5076cb682abe06df905dcd84c07f3fb33e3b415b455b4c525ecec2dd00c",
    "links": {
        "self": "https://www.virustotal.com/api/v3/files/0005a5076cb682abe06df905dcd84c07f3fb33e3b415b455b4c525ecec2dd00c"
    },
    "type": "file"
}