{
    "attributes": {
        "authentihash": "2b77a8158010c778791f320fd35a6e4e0d933fea97482f91a7ca6a72b198d87e",
        "creation_date": 1477992122,
        "first_submission_date": 1518133818,
        "last_analysis_date": 1574118753,
        "last_analysis_results": {
            "ALYac": {
                "category": "undetected",
                "engine_name": "ALYac",
                "engine_update": "20191118",
                "engine_version": "1.1.1.5",
                "method": "blacklist",
                "result": null
            },
            "APEX": {
                "category": "malicious",
                "engine_name": "APEX",
                "engine_update": "20191116",
                "engine_version": "5.86",
                "method": "blacklist",
                "result": "Malicious"
            },
            "AVG": {
                "category": "malicious",
                "engine_name": "AVG",
                "engine_update": "20191118",
                "engine_version": "18.4.3895.0",
                "method": "blacklist",
                "result": "Win32:UnwantedSig [PUP]"
            },
            "Acronis": {
                "category": "malicious",
                "engine_name": "Acronis",
                "engine_update": "20191113",
                "engine_version": "1.1.1.58",
                "method": "blacklist",
                "result": "suspicious"
            },
            "Ad-Aware": {
                "category": "malicious",
                "engine_name": "Ad-Aware",
                "engine_update": "20191118",
                "engine_version": "3.0.5.370",
                "method": "blacklist",
                "result": "Application.Agent.DGQ"
            },
            "AegisLab": {
                "category": "undetected",
                "engine_name": "AegisLab",
                "engine_update": "20191116",
                "engine_version": "4.2",
                "method": "blacklist",
                "result": null
            },
            "AhnLab-V3": {
                "category": "malicious",
                "engine_name": "AhnLab-V3",
                "engine_update": "20191118",
                "engine_version": "3.16.4.25692",
                "method": "blacklist",
                "result": "PUP/Win32.Optimizer.R116134"
            },
            "Alibaba": {
                "category": "undetected",
                "engine_name": "Alibaba",
                "engine_update": "20190527",
                "engine_version": "0.3.0.5",
                "method": "blacklist",
                "result": null
            },
            "Antiy-AVL": {
                "category": "malicious",
                "engine_name": "Antiy-AVL",
                "engine_update": "20191118",
                "engine_version": "3.0.0.1",
                "method": "blacklist",
                "result": "RiskWare[RiskTool]/Win32.OptimizerPro"
            },
            "Arcabit": {
                "category": "malicious",
                "engine_name": "Arcabit",
                "engine_update": "20191118",
                "engine_version": "1.0.0.861",
                "method": "blacklist",
                "result": "Application.Agent.DGQ"
            },
            "Avast": {
                "category": "malicious",
                "engine_name": "Avast",
                "engine_update": "20191118",
                "engine_version": "18.4.3895.0",
                "method": "blacklist",
                "result": "Win32:UnwantedSig [PUP]"
            },
            "Avast-Mobile": {
                "category": "undetected",
                "engine_name": "Avast-Mobile",
                "engine_update": "20191118",
                "engine_version": "191118-02",
                "method": "blacklist",
                "result": null
            },
            "Avira": {
                "category": "malicious",
                "engine_name": "Avira",
                "engine_update": "20191118",
                "engine_version": "8.3.3.8",
                "method": "blacklist",
                "result": "PUA/OptimizerPro.RE"
            },
            "Baidu": {
                "category": "malicious",
                "engine_name": "Baidu",
                "engine_update": "20190318",
                "engine_version": "1.0.0.2",
                "method": "blacklist",
                "result": "Win32.Adware.SpeedingUpMyPC.a"
            },
            "BitDefender": {
                "category": "malicious",
                "engine_name": "BitDefender",
                "engine_update": "20191118",
                "engine_version": "7.2",
                "method": "blacklist",
                "result": "Application.Agent.DGQ"
            },
            "BitDefenderTheta": {
                "category": "malicious",
                "engine_name": "BitDefenderTheta",
                "engine_update": "20191118",
                "engine_version": "7.2.37796.0",
                "method": "blacklist",
                "result": "Gen:NN.ZedlaF.32251.ju4@aywoMkhi"
            },
            "Bkav": {
                "category": "malicious",
                "engine_name": "Bkav",
                "engine_update": "20191118",
                "engine_version": "1.3.0.9899",
                "method": "blacklist",
                "result": "W32.HfsAdware.59EA"
            },
            "CAT-QuickHeal": {
                "category": "malicious",
                "engine_name": "CAT-QuickHeal",
                "engine_update": "20191118",
                "engine_version": "14.00",
                "method": "blacklist",
                "result": "Trojan.IGENERIC"
            },
            "CMC": {
                "category": "undetected",
                "engine_name": "CMC",
                "engine_update": "20190321",
                "engine_version": "1.1.0.977",
                "method": "blacklist",
                "result": null
            },
            "ClamAV": {
                "category": "malicious",
                "engine_name": "ClamAV",
                "engine_update": "20191118",
                "engine_version": "0.102.0.0",
                "method": "blacklist",
                "result": "Win.Malware.Speedingupmypc-6792430-0"
            },
            "Comodo": {
                "category": "malicious",
                "engine_name": "Comodo",
                "engine_update": "20191118",
                "engine_version": "31738",
                "method": "blacklist",
                "result": "Application.Win32.SpeedingUpMyPC.PB@816ixr"
            },
            "CrowdStrike": {
                "category": "malicious",
                "engine_name": "CrowdStrike",
                "engine_update": "20190702",
                "engine_version": "1.0",
                "method": "blacklist",
                "result": "win/malicious_confidence_100% (D)"
            },
            "Cybereason": {
                "category": "malicious",
                "engine_name": "Cybereason",
                "engine_update": "20190616",
                "engine_version": "1.2.449",
                "method": "blacklist",
                "result": "malicious.717808"
            },
            "Cylance": {
                "category": "malicious",
                "engine_name": "Cylance",
                "engine_update": "20191119",
                "engine_version": "2.3.1.101",
                "method": "blacklist",
                "result": "Unsafe"
            },
            "Cyren": {
                "category": "malicious",
                "engine_name": "Cyren",
                "engine_update": "20191118",
                "engine_version": "6.2.2.2",
                "method": "blacklist",
                "result": "W32/Adware.AJCF-4665"
            },
            "DrWeb": {
                "category": "malicious",
                "engine_name": "DrWeb",
                "engine_update": "20191118",
                "engine_version": "7.0.42.9300",
                "method": "blacklist",
                "result": "Trojan.PWS.Tibia.2591"
            },
            "ESET-NOD32": {
                "category": "malicious",
                "engine_name": "ESET-NOD32",
                "engine_update": "20191118",
                "engine_version": "20369",
                "method": "blacklist",
                "result": "Win32/Adware.SpeedingUpMyPC.Q"
            },
            "Emsisoft": {
                "category": "malicious",
                "engine_name": "Emsisoft",
                "engine_update": "20191031",
                "engine_version": "2018.12.0.1641",
                "method": "blacklist",
                "result": "Application.AdClean (A)"
            },
            "Endgame": {
                "category": "malicious",
                "engine_name": "Endgame",
                "engine_update": "20190918",
                "engine_version": "3.0.15",
                "method": "blacklist",
                "result": "malicious (high confidence)"
            },
            "F-Prot": {
                "category": "malicious",
                "engine_name": "F-Prot",
                "engine_update": "20191118",
                "engine_version": "4.7.1.166",
                "method": "blacklist",
                "result": "W32/Adware.AMZZ"
            },
            "F-Secure": {
                "category": "malicious",
                "engine_name": "F-Secure",
                "engine_update": "20191118",
                "engine_version": "12.0.86.52",
                "method": "blacklist",
                "result": "PotentialRisk.PUA/OptimizerPro.RE"
            },
            "FireEye": {
                "category": "malicious",
                "engine_name": "FireEye",
                "engine_update": "20191118",
                "engine_version": "29.7.0.0",
                "method": "blacklist",
                "result": "Generic.mg.098bec47178080d7"
            },
            "Fortinet": {
                "category": "malicious",
                "engine_name": "Fortinet",
                "engine_update": "20191118",
                "engine_version": "5.4.247.0",
                "method": "blacklist",
                "result": "Riskware/PUP_XAQ"
            },
            "GData": {
                "category": "malicious",
                "engine_name": "GData",
                "engine_update": "20191118",
                "engine_version": "A:25.24018B:26.16696",
                "method": "blacklist",
                "result": "Win32.Application.OptimizerPro.L"
            },
            "Ikarus": {
                "category": "malicious",
                "engine_name": "Ikarus",
                "engine_update": "20191118",
                "engine_version": "0.1.5.2",
                "method": "blacklist",
                "result": "PUA.SpeedingUpMyPC"
            },
            "Invincea": {
                "category": "malicious",
                "engine_name": "Invincea",
                "engine_update": "20190904",
                "engine_version": "6.3.6.26157",
                "method": "blacklist",
                "result": "heuristic"
            },
            "Jiangmin": {
                "category": "malicious",
                "engine_name": "Jiangmin",
                "engine_update": "20191118",
                "engine_version": "16.0.100",
                "method": "blacklist",
                "result": "Adware.BProtector.h"
            },
            "K7AntiVirus": {
                "category": "malicious",
                "engine_name": "K7AntiVirus",
                "engine_update": "20191118",
                "engine_version": "11.79.32589",
                "method": "blacklist",
                "result": "Adware ( 004be7d31 )"
            },
            "K7GW": {
                "category": "malicious",
                "engine_name": "K7GW",
                "engine_update": "20191118",
                "engine_version": "11.79.32590",
                "method": "blacklist",
                "result": "Adware ( 004be7d31 )"
            },
            "Kaspersky": {
                "category": "malicious",
                "engine_name": "Kaspersky",
                "engine_update": "20191118",
                "engine_version": "15.0.1.13",
                "method": "blacklist",
                "result": "not-a-virus:RiskTool.Win32.SProtector.cmx"
            },
            "Kingsoft": {
                "category": "undetected",
                "engine_name": "Kingsoft",
                "engine_update": "20191119",
                "engine_version": "2013.8.14.323",
                "method": "blacklist",
                "result": null
            },
            "MAX": {
                "category": "malicious",
                "engine_name": "MAX",
                "engine_update": "20191119",
                "engine_version": "2019.9.16.1",
                "method": "blacklist",
                "result": "malware (ai score=79)"
            },
            "Malwarebytes": {
                "category": "malicious",
                "engine_name": "Malwarebytes",
                "engine_update": "20191118",
                "engine_version": "2.1.1.1115",
                "method": "blacklist",
                "result": "PUP.Optional.DriverPro"
            },
            "MaxSecure": {
                "category": "malicious",
                "engine_name": "MaxSecure",
                "engine_update": "20191118",
                "engine_version": "1.0.0.1",
                "method": "blacklist",
                "result": "not-a-virus:RiskTool.Win32.SProtector.VT"
            },
            "McAfee": {
                "category": "malicious",
                "engine_name": "McAfee",
                "engine_update": "20191118",
                "engine_version": "6.0.6.653",
                "method": "blacklist",
                "result": "PUP-XAQ-RQ"
            },
            "McAfee-GW-Edition": {
                "category": "malicious",
                "engine_name": "McAfee-GW-Edition",
                "engine_update": "20191118",
                "engine_version": "v2017.3010",
                "method": "blacklist",
                "result": "BehavesLike.Win32.PUPXAQ.wc"
            },
            "MicroWorld-eScan": {
                "category": "malicious",
                "engine_name": "MicroWorld-eScan",
                "engine_update": "20191118",
                "engine_version": "14.0.297.0",
                "method": "blacklist",
                "result": "Application.Agent.DGQ"
            },
            "Microsoft": {
                "category": "malicious",
                "engine_name": "Microsoft",
                "engine_update": "20191118",
                "engine_version": "1.1.16500.1",
                "method": "blacklist",
                "result": "Misleading:Win32/Specaecupa"
            },
            "NANO-Antivirus": {
                "category": "malicious",
                "engine_name": "NANO-Antivirus",
                "engine_update": "20191118",
                "engine_version": "1.0.134.24859",
                "method": "blacklist",
                "result": "Riskware.Win32.SpeedingUpMyPC.ekuhcj"
            },
            "Paloalto": {
                "category": "malicious",
                "engine_name": "Paloalto",
                "engine_update": "20191119",
                "engine_version": "1.0",
                "method": "blacklist",
                "result": "generic.ml"
            },
            "Panda": {
                "category": "malicious",
                "engine_name": "Panda",
                "engine_update": "20191118",
                "engine_version": "4.6.4.2",
                "method": "blacklist",
                "result": "Generic Malware"
            },
            "Qihoo-360": {
                "category": "malicious",
                "engine_name": "Qihoo-360",
                "engine_update": "20191119",
                "engine_version": "1.0.0.1120",
                "method": "blacklist",
                "result": "Win32/Virus.IM.2bf"
            },
            "Rising": {
                "category": "malicious",
                "engine_name": "Rising",
                "engine_update": "20191118",
                "engine_version": "25.0.0.24",
                "method": "blacklist",
                "result": "Adware.SpeedingUpMyPC!1.A7EC (CLASSIC)"
            },
            "SUPERAntiSpyware": {
                "category": "undetected",
                "engine_name": "SUPERAntiSpyware",
                "engine_update": "20191115",
                "engine_version": "5.6.0.1032",
                "method": "blacklist",
                "result": null
            },
            "SentinelOne": {
                "category": "malicious",
                "engine_name": "SentinelOne",
                "engine_update": "20191118",
                "engine_version": "1.11.0.53",
                "method": "blacklist",
                "result": "DFI - Malicious PE"
            },
            "Sophos": {
                "category": "malicious",
                "engine_name": "Sophos",
                "engine_update": "20191118",
                "engine_version": "4.98.0",
                "method": "blacklist",
                "result": "PC Utilities Driver Pro (PUA)"
            },
            "Symantec": {
                "category": "malicious",
                "engine_name": "Symantec",
                "engine_update": "20191117",
                "engine_version": "1.11.0.0",
                "method": "blacklist",
                "result": "SMG.Heur!gen"
            },
            "SymantecMobileInsight": {
                "category": "type-unsupported",
                "engine_name": "SymantecMobileInsight",
                "engine_update": "20191030",
                "engine_version": "2.0",
                "method": "blacklist",
                "result": null
            },
            "TACHYON": {
                "category": "undetected",
                "engine_name": "TACHYON",
                "engine_update": "20191118",
                "engine_version": "2019-11-18.03",
                "method": "blacklist",
                "result": null
            },
            "Tencent": {
                "category": "undetected",
                "engine_name": "Tencent",
                "engine_update": "20191119",
                "engine_version": "1.0.0.1",
                "method": "blacklist",
                "result": null
            },
            "TotalDefense": {
                "category": "undetected",
                "engine_name": "TotalDefense",
                "engine_update": "20191118",
                "engine_version": "37.1.62.1",
                "method": "blacklist",
                "result": null
            },
            "Trapmine": {
                "category": "malicious",
                "engine_name": "Trapmine",
                "engine_update": "20190826",
                "engine_version": "3.1.81.800",
                "method": "blacklist",
                "result": "malicious.high.ml.score"
            },
            "TrendMicro": {
                "category": "malicious",
                "engine_name": "TrendMicro",
                "engine_update": "20191118",
                "engine_version": "11.0.0.1006",
                "method": "blacklist",
                "result": "HT_SPEEDINGUPMYPC_GC130008.UVPM"
            },
            "TrendMicro-HouseCall": {
                "category": "malicious",
                "engine_name": "TrendMicro-HouseCall",
                "engine_update": "20191118",
                "engine_version": "10.0.0.1040",
                "method": "blacklist",
                "result": "HT_SPEEDINGUPMYPC_GC130008.UVPM"
            },
            "Trustlook": {
                "category": "type-unsupported",
                "engine_name": "Trustlook",
                "engine_update": "20191119",
                "engine_version": "1.0",
                "method": "blacklist",
                "result": null
            },
            "VBA32": {
                "category": "malicious",
                "engine_name": "VBA32",
                "engine_update": "20191118",
                "engine_version": "4.2.0",
                "method": "blacklist",
                "result": "TrojanPSW.Tibia"
            },
            "VIPRE": {
                "category": "malicious",
                "engine_name": "VIPRE",
                "engine_update": "20191118",
                "engine_version": "79424",
                "method": "blacklist",
                "result": "Trojan.Win32.Generic!BT"
            },
            "ViRobot": {
                "category": "undetected",
                "engine_name": "ViRobot",
                "engine_update": "20191118",
                "engine_version": "2014.3.20.0",
                "method": "blacklist",
                "result": null
            },
            "Webroot": {
                "category": "malicious",
                "engine_name": "Webroot",
                "engine_update": "20191119",
                "engine_version": "1.0.0.403",
                "method": "blacklist",
                "result": "Pua.Optimizer.Pro"
            },
            "Yandex": {
                "category": "malicious",
                "engine_name": "Yandex",
                "engine_update": "20191114",
                "engine_version": "5.5.2.24",
                "method": "blacklist",
                "result": "PUA.SpeedingUpMyPC!"
            },
            "Zillya": {
                "category": "malicious",
                "engine_name": "Zillya",
                "engine_update": "20191118",
                "engine_version": "2.0.0.3953",
                "method": "blacklist",
                "result": "Trojan.GenericCRTD.Win32.196"
            },
            "ZoneAlarm": {
                "category": "malicious",
                "engine_name": "ZoneAlarm",
                "engine_update": "20191118",
                "engine_version": "1.0",
                "method": "blacklist",
                "result": "not-a-virus:RiskTool.Win32.SProtector.cmx"
            },
            "Zoner": {
                "category": "undetected",
                "engine_name": "Zoner",
                "engine_update": "20191117",
                "engine_version": "1.0.0.1",
                "method": "blacklist",
                "result": null
            }
        },
        "last_analysis_stats": {
            "confirmed-timeout": 0,
            "failure": 0,
            "harmless": 0,
            "malicious": 59,
            "suspicious": 0,
            "timeout": 0,
            "type-unsupported": 2,
            "undetected": 12
        },
        "last_modification_date": 1574275684,
        "last_submission_date": 1518133818,
        "magic": "PE32 executable for MS Windows (GUI) Intel 80386 32-bit",
        "md5": "098bec47178080d78709cf94440ee264",
        "meaningful_name": "Driver Pro",
        "names": [
            "Driver Pro",
            "76785b3cf58f786dbe50bc7df6b9222f217d20f4"
        ],
        "pe_info": {
            "entry_point": 26729,
            "imphash": "23ee14b7b8bad73645664a22cfd7f754",
            "import_list": [
                {
                    "imported_functions": [
                        "RegCreateKeyExW",
                        "RegFlushKey",
                        "RegCloseKey",
                        "RegSetValueExW"
                    ],
                    "library_name": "ADVAPI32.dll"
                },
                {
                    "imported_functions": [
                        "GetLastError",
                        "InitializeCriticalSectionAndSpinCount",
                        "HeapFree",
                        "GetStdHandle",
                        "EnterCriticalSection",
                        "LCMapStringW",
                        "SetHandleCount",
                        "GetModuleFileNameW",
                        "WaitForSingleObject",
                        "GetExitCodeProcess",
                        "QueryPerformanceCounter",
                        "IsDebuggerPresent",
                        "EncodePointer",
                        "TlsAlloc",
                        "GetEnvironmentStringsW",
                        "FlushFileBuffers",
                        "RtlUnwind",
                        "DeleteCriticalSection",
                        "LeaveCriticalSection",
                        "EnumSystemLocalesA",
                        "SizeofResource",
                        "GetLocaleInfoA",
                        "GetConsoleMode",
                        "HeapSize",
                        "GetCurrentProcessId",
                        "SetLastError",
                        "LockResource",
                        "GetCommandLineW",
                        "IsValidCodePage",
                        "GetCPInfo",
                        "UnhandledExceptionFilter",
                        "TlsGetValue",
                        "MultiByteToWideChar",
                        "GetStartupInfoW",
                        "GetTickCount",
                        "FreeEnvironmentStringsW",
                        "GetProcessHeap",
                        "GetProcAddress",
                        "GetUserDefaultLCID",
                        "GetLocaleInfoW",
                        "SetStdHandle",
                        "GetStringTypeW",
                        "RaiseException",
                        "WideCharToMultiByte",
                        "LoadLibraryW",
                        "TlsFree",
                        "SetFilePointer",
                        "GetSystemTimeAsFileTime",
                        "HeapSetInformation",
                        "ReadFile",
                        "SetUnhandledExceptionFilter",
                        "GetTempPathW",
                        "GetCurrentProcess",
                        "CloseHandle",
                        "IsProcessorFeaturePresent",
                        "IsValidLocale",
                        "GetACP",
                        "HeapReAlloc",
                        "DecodePointer",
                        "GetModuleHandleW",
                        "GetOEMCP",
                        "TerminateProcess",
                        "GetConsoleCP",
                        "InitializeCriticalSection",
                        "LoadResource",
                        "WriteFile",
                        "CreateFileW",
                        "CreateProcessW",
                        "InterlockedDecrement",
                        "Sleep",
                        "GetFileType",
                        "SetEndOfFile",
                        "TlsSetValue",
                        "HeapAlloc",
                        "GetCurrentThreadId",
                        "FindResourceA",
                        "ExitProcess",
                        "HeapCreate",
                        "WriteConsoleW",
                        "InterlockedIncrement"
                    ],
                    "library_name": "KERNEL32.dll"
                },
                {
                    "imported_functions": [
                        "CoUninitialize",
                        "CoInitialize"
                    ],
                    "library_name": "ole32.dll"
                }
            ],
            "machine_type": 332,
            "overlay": {
                "chi2": 6450.95458984375,
                "entropy": 7.486586093902588,
                "filetype": "data",
                "md5": "9c2c5c57c5c5668a81986c1793894888",
                "offset": 3650048,
                "size": 5656
            },
            "resource_details": [
                {
                    "chi2": 40168.98046875,
                    "entropy": 7.993643760681152,
                    "filetype": "application/x-ms-dos-executable",
                    "lang": "ENGLISH US",
                    "sha256": "e9318226bff1cf3225c26f0bde46ad08f2a745fe9de55153a41c7bf7eb194325",
                    "type": "INSTALLER"
                },
                {
                    "chi2": 153376.921875,
                    "entropy": 5.557185173034668,
                    "filetype": "data",
                    "lang": "ENGLISH US",
                    "sha256": "b28cdfb367ce98d9a96c7ff9fe19af0f2985befcd083828039bf892367bd2959",
                    "type": "RT_ICON"
                },
                {
                    "chi2": 67351.2734375,
                    "entropy": 5.998831272125244,
                    "filetype": "data",
                    "lang": "ENGLISH US",
                    "sha256": "3c6ecb505d686fd6b52a9a7ce53af543b4cc8f9e6c9f8bb36fb0e5a8a10b24f8",
                    "type": "RT_ICON"
                },
                {
                    "chi2": 33545.140625,
                    "entropy": 6.1730875968933105,
                    "filetype": "data",
                    "lang": "ENGLISH US",
                    "sha256": "32313d600df4354e7031682c696202cd249d3b60224d260d73aa4ca988f26e05",
                    "type": "RT_ICON"
                },
                {
                    "chi2": 18686870.0,
                    "entropy": 4.1905903816223145,
                    "filetype": "data",
                    "lang": "ENGLISH US",
                    "sha256": "a16ac8cfa75422fa4fa05b0252f2e58040fddd1380488535965ac320ea7cde01",
                    "type": "RT_ICON"
                },
                {
                    "chi2": 362930.09375,
                    "entropy": 5.314004898071289,
                    "filetype": "data",
                    "lang": "ENGLISH US",
                    "sha256": "aab411a3141e56bc242ed90d0dc9dc10b92a54f8990ab3038fc5e46fbad07dfc",
                    "type": "RT_ICON"
                },
                {
                    "chi2": 132846.640625,
                    "entropy": 5.683974266052246,
                    "filetype": "data",
                    "lang": "ENGLISH US",
                    "sha256": "377d0afd25039f3a4fbc7341c8afa42472e2f59898ae8ae0184e16b5ddd14afd",
                    "type": "RT_ICON"
                },
                {
                    "chi2": 39259.078125,
                    "entropy": 5.180851459503174,
                    "filetype": "data",
                    "lang": "ENGLISH US",
                    "sha256": "9d35dc1f17f6ed09cfadb35fb70dc5c12cf053ad3c9a13a646b709ebab92aa94",
                    "type": "RT_ICON"
                },
                {
                    "chi2": 7718.76953125,
                    "entropy": 2.7178714275360107,
                    "filetype": "data",
                    "lang": "ENGLISH US",
                    "sha256": "b4a86ff543995d1a1dcad86ec767539180bbe55d27b306186eb5fa4bc3d5872f",
                    "type": "RT_GROUP_ICON"
                },
                {
                    "chi2": 62617.9765625,
                    "entropy": 3.38995361328125,
                    "filetype": "data",
                    "lang": "ENGLISH US",
                    "sha256": "ea75a3c3d3a5ac3eb9f1af9929dd08bb4a0c3d73ab776cc9a8c4c09af5a2ce97",
                    "type": "RT_VERSION"
                },
                {
                    "chi2": 10138.46484375,
                    "entropy": 5.2760090827941895,
                    "filetype": "ASCII text",
                    "lang": "ENGLISH US",
                    "sha256": "ca38643ca48ef25db36c9dc27aae15a9c198df2bc55b6e96e9023f8eebf0bbc8",
                    "type": "RT_MANIFEST"
                }
            ],
            "resource_langs": {
                "ENGLISH US": 11
            },
            "resource_types": {
                "INSTALLER": 1,
                "RT_GROUP_ICON": 1,
                "RT_ICON": 7,
                "RT_MANIFEST": 1,
                "RT_VERSION": 1
            },
            "sections": [
                {
                    "entropy": 6.57,
                    "md5": "153c25a894558c86b486e20495de16f9",
                    "name": ".text",
                    "raw_size": 83456,
                    "virtual_address": 4096,
                    "virtual_size": 83149
                },
                {
                    "entropy": 4.9,
                    "md5": "8ea5d734322df60fcdfe41193e6c3d59",
                    "name": ".rdata",
                    "raw_size": 20992,
                    "virtual_address": 90112,
                    "virtual_size": 20754
                },
                {
                    "entropy": 3.11,
                    "md5": "2cef89c59f35f4fcafe95749186c0933",
                    "name": ".data",
                    "raw_size": 5632,
                    "virtual_address": 114688,
                    "virtual_size": 13444
                },
                {
                    "entropy": 7.86,
                    "md5": "4fb8f31a4c2c45c1f8b028908219e86a",
                    "name": ".rsrc",
                    "raw_size": 3522560,
                    "virtual_address": 131072,
                    "virtual_size": 3522340
                },
                {
                    "entropy": 2.69,
                    "md5": "55998d3b6241dc40b18743b0cdd28cca",
                    "name": ".reloc",
                    "raw_size": 16384,
                    "virtual_address": 3653632,
                    "virtual_size": 16224
                }
            ],
            "timestamp": 1477992122
        },
        "reputation": 0,
        "sha1": "437825626d38aac67e64eeafe762e20ca0c6d7e8",
        "sha256": "0005c54b207b31b58577ea390ba02c35900e6d80909d1fb2699fc9feaead08db",
        "signature_info": {
            "copyright": "PC Utilities Software Limited",
            "description": "Keep your PC drivers up to date",
            "file version": "3.2.0.2",
            "internal name": "Driver Pro",
            "original name": "Driver Pro",
            "product": "Driver Pro v3.2",
            "signers": "PC Utilities Software Limited; COMODO RSA Code Signing CA; Sectigo (formerly Comodo CA)",
            "signers details": [
                {
                    "algorithm": "sha256RSA",
                    "cert issuer": "COMODO RSA Code Signing CA",
                    "name": "PC Utilities Software Limited",
                    "serial number": "54 7C FD C5 D7 0F D7 C9 44 A9 BA 11 E8 8C CB 1C",
                    "status": "This certificate or one of the certificates in the certificate chain is not time valid.",
                    "thumbprint": "9DEA923F939C82252096885A4616A227F69F2824",
                    "valid from": "12:00 AM 11/06/2015",
                    "valid to": "11:59 PM 11/05/2016",
                    "valid usage": "Code Signing"
                },
                {
                    "algorithm": "sha384RSA",
                    "cert issuer": "COMODO RSA Certification Authority",
                    "name": "COMODO RSA Code Signing CA",
                    "serial number": "2E 7C 87 CC 0E 93 4A 52 FE 94 FD 1C B7 CD 34 AF",
                    "status": "Valid",
                    "thumbprint": "B69E752BBE88B4458200A7C0F4F5B3CCE6F35B47",
                    "valid from": "11:00 PM 05/08/2013",
                    "valid to": "10:59 PM 05/08/2028",
                    "valid usage": "Code Signing"
                },
                {
                    "algorithm": "sha384RSA",
                    "cert issuer": "COMODO RSA Certification Authority",
                    "name": "Sectigo (formerly Comodo CA)",
                    "serial number": "4C AA F9 CA DB 63 6F E0 1F F7 4E D8 5B 03 86 9D",
                    "status": "Valid",
                    "thumbprint": "AFE5D244A8D1194230FF479FE2F897BBCD7A8CB4",
                    "valid from": "12:00 AM 01/19/2010",
                    "valid to": "11:59 PM 01/18/2038",
                    "valid usage": "Server Auth, Client Auth, Email Protection, Code Signing, Timestamp Signing, EFS, IPSEC Tunnel, IPSEC User"
                }
            ],
            "verified": "A required certificate is not within its validity period when verifying against the current system clock or the timestamp in the signed file.",
            "x509": [
                {
                    "algorithm": "sha256RSA",
                    "cert issuer": "COMODO RSA Code Signing CA",
                    "name": "PC Utilities Software Limited",
                    "serial number": "54 7C FD C5 D7 0F D7 C9 44 A9 BA 11 E8 8C CB 1C",
                    "thumbprint": "9DEA923F939C82252096885A4616A227F69F2824",
                    "valid from": "12:00 AM 11/6/2015",
                    "valid to": "11:59 PM 11/5/2016",
                    "valid_usage": "Code Signing"
                },
                {
                    "algorithm": "sha384RSA",
                    "cert issuer": "COMODO RSA Certification Authority",
                    "name": "COMODO RSA Code Signing CA",
                    "serial number": "2E 7C 87 CC 0E 93 4A 52 FE 94 FD 1C B7 CD 34 AF",
                    "thumbprint": "B69E752BBE88B4458200A7C0F4F5B3CCE6F35B47",
                    "valid from": "12:00 AM 5/9/2013",
                    "valid to": "11:59 PM 5/8/2028",
                    "valid_usage": "Code Signing"
                },
                {
                    "algorithm": "sha256RSA",
                    "cert issuer": "COMODO RSA Code Signing CA",
                    "name": "PC Utilities Software Limited",
                    "serial number": "54 7C FD C5 D7 0F D7 C9 44 A9 BA 11 E8 8C CB 1C",
                    "thumbprint": "9DEA923F939C82252096885A4616A227F69F2824",
                    "valid from": "12:00 AM 11/6/2015",
                    "valid to": "11:59 PM 11/5/2016",
                    "valid_usage": "Code Signing"
                },
                {
                    "algorithm": "sha384RSA",
                    "cert issuer": "COMODO RSA Certification Authority",
                    "name": "COMODO RSA Code Signing CA",
                    "serial number": "2E 7C 87 CC 0E 93 4A 52 FE 94 FD 1C B7 CD 34 AF",
                    "thumbprint": "B69E752BBE88B4458200A7C0F4F5B3CCE6F35B47",
                    "valid from": "12:00 AM 5/9/2013",
                    "valid to": "11:59 PM 5/8/2028",
                    "valid_usage": "Code Signing"
                },
                {
                    "algorithm": "sha384RSA",
                    "cert issuer": "COMODO RSA Certification Authority",
                    "name": "COMODO RSA Certification Authority",
                    "serial number": "4C AA F9 CA DB 63 6F E0 1F F7 4E D8 5B 03 86 9D",
                    "thumbprint": "AFE5D244A8D1194230FF479FE2F897BBCD7A8CB4",
                    "valid from": "12:00 AM 1/19/2010",
                    "valid to": "11:59 PM 1/18/2038",
                    "valid_usage": null
                }
            ]
        },
        "size": 3655704,
        "ssdeep": "98304:G3bobVkwiXFlJboUaQXK1XR0ZNSHm8GeRLfWFZze:8beirfa1GZN+PhLIZq",
        "tags": [
            "peexe",
            "signed",
            "overlay"
        ],
        "times_submitted": 1,
        "total_votes": {
            "harmless": 0,
            "malicious": 0
        },
        "trid": [
            {
                "file_type": "Windows Control Panel Item (generic)",
                "probability": 60.4
            },
            {
                "file_type": "InstallShield setup",
                "probability": 13.2
            },
            {
                "file_type": "Win32 Executable MS Visual C++ (generic)",
                "probability": 9.5
            },
            {
                "file_type": "Win64 Executable (generic)",
                "probability": 8.4
            },
            {
                "file_type": "DOS Borland compiled Executable (generic)",
                "probability": 3.0
            }
        ],
        "type_description": "Win32 EXE",
        "type_extension": "exe",
        "type_tag": "peexe",
        "unique_sources": 1,
        "vhash": "036056655d15751048z58z2vz"
    },
    "id": "0005c54b207b31b58577ea390ba02c35900e6d80909d1fb2699fc9feaead08db",
    "links": {
        "self": "https://www.virustotal.com/api/v3/files/0005c54b207b31b58577ea390ba02c35900e6d80909d1fb2699fc9feaead08db"
    },
    "type": "file"
}