{
    "attributes": {
        "authentihash": "5f85c4f6ed12dda897502e5773e05b68f940d1c0c4dc2aa80889b021b4225596",
        "creation_date": 1189436270,
        "first_submission_date": 1529984806,
        "last_analysis_date": 1529984806,
        "last_analysis_results": {
            "ALYac": {
                "category": "malicious",
                "engine_name": "ALYac",
                "engine_update": "20180626",
                "engine_version": "1.1.1.5",
                "method": "blacklist",
                "result": "Worm.Hybris.PLI"
            },
            "AVG": {
                "category": "malicious",
                "engine_name": "AVG",
                "engine_update": "20180626",
                "engine_version": "18.4.3895.0",
                "method": "blacklist",
                "result": "AutoIt:Dropper-D [Drp]"
            },
            "AVware": {
                "category": "malicious",
                "engine_name": "AVware",
                "engine_update": "20180626",
                "engine_version": "1.5.0.42",
                "method": "blacklist",
                "result": "Trojan.Win32.Generic!BT"
            },
            "Ad-Aware": {
                "category": "malicious",
                "engine_name": "Ad-Aware",
                "engine_update": "20180626",
                "engine_version": "3.0.5.370",
                "method": "blacklist",
                "result": "Worm.Hybris.PLI"
            },
            "AegisLab": {
                "category": "malicious",
                "engine_name": "AegisLab",
                "engine_update": "20180626",
                "engine_version": "4.2",
                "method": "blacklist",
                "result": "W32.W.AutoRun.lpi7"
            },
            "AhnLab-V3": {
                "category": "malicious",
                "engine_name": "AhnLab-V3",
                "engine_update": "20180625",
                "engine_version": "3.12.1.21240",
                "method": "blacklist",
                "result": "Worm/Win32.Hybris.R3751"
            },
            "Alibaba": {
                "category": "type-unsupported",
                "engine_name": "Alibaba",
                "engine_update": "20180625",
                "engine_version": "1.0",
                "method": "blacklist",
                "result": null
            },
            "Antiy-AVL": {
                "category": "malicious",
                "engine_name": "Antiy-AVL",
                "engine_update": "20180626",
                "engine_version": "3.0.0.1",
                "method": "blacklist",
                "result": "Trojan/Generic.ASVCS3S.1D5"
            },
            "Arcabit": {
                "category": "malicious",
                "engine_name": "Arcabit",
                "engine_update": "20180626",
                "engine_version": "1.0.0.831",
                "method": "blacklist",
                "result": "Worm.Hybris.PLI"
            },
            "Avast": {
                "category": "malicious",
                "engine_name": "Avast",
                "engine_update": "20180626",
                "engine_version": "18.4.3895.0",
                "method": "blacklist",
                "result": "AutoIt:Dropper-D [Drp]"
            },
            "Avast-Mobile": {
                "category": "undetected",
                "engine_name": "Avast-Mobile",
                "engine_update": "20180626",
                "engine_version": "180625-06",
                "method": "blacklist",
                "result": null
            },
            "Avira": {
                "category": "malicious",
                "engine_name": "Avira",
                "engine_update": "20180625",
                "engine_version": "8.3.3.6",
                "method": "blacklist",
                "result": "WORM/Autorun.856215"
            },
            "Babable": {
                "category": "malicious",
                "engine_name": "Babable",
                "engine_update": "20180406",
                "engine_version": "9107201",
                "method": "blacklist",
                "result": "Malware.HighConfidence"
            },
            "Baidu": {
                "category": "malicious",
                "engine_name": "Baidu",
                "engine_update": "20180625",
                "engine_version": "1.0.0.2",
                "method": "blacklist",
                "result": "Win32.Trojan.WisdomEyes.16070401.9500.9953"
            },
            "BitDefender": {
                "category": "malicious",
                "engine_name": "BitDefender",
                "engine_update": "20180626",
                "engine_version": "7.2",
                "method": "blacklist",
                "result": "Worm.Hybris.PLI"
            },
            "Bkav": {
                "category": "malicious",
                "engine_name": "Bkav",
                "engine_update": "20180625",
                "engine_version": "1.3.0.9466",
                "method": "blacklist",
                "result": "W32.FkzDocHA.Worm"
            },
            "CAT-QuickHeal": {
                "category": "malicious",
                "engine_name": "CAT-QuickHeal",
                "engine_update": "20180625",
                "engine_version": "14.00",
                "method": "blacklist",
                "result": "Worm.AutoIt.Yuner.A"
            },
            "CMC": {
                "category": "malicious",
                "engine_name": "CMC",
                "engine_update": "20180625",
                "engine_version": "1.1.0.977",
                "method": "blacklist",
                "result": "Worm.Win32.AutoRun!O"
            },
            "ClamAV": {
                "category": "malicious",
                "engine_name": "ClamAV",
                "engine_update": "20180625",
                "engine_version": "0.99.2.0",
                "method": "blacklist",
                "result": "Win.Trojan.KillAV-43"
            },
            "Comodo": {
                "category": "undetected",
                "engine_name": "Comodo",
                "engine_update": "20180625",
                "engine_version": null,
                "method": "blacklist",
                "result": null
            },
            "CrowdStrike": {
                "category": "malicious",
                "engine_name": "CrowdStrike",
                "engine_update": "20180530",
                "engine_version": "1.0",
                "method": "blacklist",
                "result": "malicious_confidence_100% (D)"
            },
            "Cybereason": {
                "category": "malicious",
                "engine_name": "Cybereason",
                "engine_update": "20180225",
                "engine_version": "1.2.27",
                "method": "blacklist",
                "result": "malicious.78c703"
            },
            "Cylance": {
                "category": "malicious",
                "engine_name": "Cylance",
                "engine_update": "20180626",
                "engine_version": "2.3.1.101",
                "method": "blacklist",
                "result": "Unsafe"
            },
            "Cyren": {
                "category": "malicious",
                "engine_name": "Cyren",
                "engine_update": "20180626",
                "engine_version": "6.0.0.4",
                "method": "blacklist",
                "result": "W32/A-91e93787!Eldorado"
            },
            "DrWeb": {
                "category": "malicious",
                "engine_name": "DrWeb",
                "engine_update": "20180626",
                "engine_version": "7.0.33.6080",
                "method": "blacklist",
                "result": "Trojan.AVKill.31317"
            },
            "ESET-NOD32": {
                "category": "malicious",
                "engine_name": "ESET-NOD32",
                "engine_update": "20180625",
                "engine_version": "17610",
                "method": "blacklist",
                "result": "Win32/Yuner.A"
            },
            "Emsisoft": {
                "category": "malicious",
                "engine_name": "Emsisoft",
                "engine_update": "20180626",
                "engine_version": "4.0.2.899",
                "method": "blacklist",
                "result": "Worm.Hybris.PLI (B)"
            },
            "Endgame": {
                "category": "malicious",
                "engine_name": "Endgame",
                "engine_update": "20180612",
                "engine_version": "2.1.3",
                "method": "blacklist",
                "result": "malicious (high confidence)"
            },
            "F-Prot": {
                "category": "malicious",
                "engine_name": "F-Prot",
                "engine_update": "20180626",
                "engine_version": "4.7.1.166",
                "method": "blacklist",
                "result": "W32/A-91e93787!Eldorado"
            },
            "F-Secure": {
                "category": "malicious",
                "engine_name": "F-Secure",
                "engine_update": "20180626",
                "engine_version": "11.0.19100.45",
                "method": "blacklist",
                "result": "Worm.Hybris.PLI"
            },
            "Fortinet": {
                "category": "malicious",
                "engine_name": "Fortinet",
                "engine_update": "20180626",
                "engine_version": "5.4.247.0",
                "method": "blacklist",
                "result": "W32/AutoRun.BUT!worm"
            },
            "GData": {
                "category": "malicious",
                "engine_name": "GData",
                "engine_update": "20180626",
                "engine_version": "A:25.17585B:25.12578",
                "method": "blacklist",
                "result": "Worm.Hybris.PLI"
            },
            "Ikarus": {
                "category": "malicious",
                "engine_name": "Ikarus",
                "engine_update": "20180625",
                "engine_version": "0.1.5.2",
                "method": "blacklist",
                "result": "Worm.Win32.AutoRun"
            },
            "Invincea": {
                "category": "malicious",
                "engine_name": "Invincea",
                "engine_update": "20180601",
                "engine_version": "6.3.5.26121",
                "method": "blacklist",
                "result": "heuristic"
            },
            "Jiangmin": {
                "category": "malicious",
                "engine_name": "Jiangmin",
                "engine_update": "20180625",
                "engine_version": "16.0.100",
                "method": "blacklist",
                "result": "TrojanDownloader.JS.hi"
            },
            "K7AntiVirus": {
                "category": "malicious",
                "engine_name": "K7AntiVirus",
                "engine_update": "20180625",
                "engine_version": "10.51.27572",
                "method": "blacklist",
                "result": "EmailWorm ( 00024be71 )"
            },
            "K7GW": {
                "category": "malicious",
                "engine_name": "K7GW",
                "engine_update": "20180625",
                "engine_version": "10.51.27573",
                "method": "blacklist",
                "result": "EmailWorm ( 00024be71 )"
            },
            "Kaspersky": {
                "category": "malicious",
                "engine_name": "Kaspersky",
                "engine_update": "20180626",
                "engine_version": "15.0.1.13",
                "method": "blacklist",
                "result": "Worm.Win32.AutoRun.but"
            },
            "Kingsoft": {
                "category": "malicious",
                "engine_name": "Kingsoft",
                "engine_update": "20180626",
                "engine_version": "2013.8.14.323",
                "method": "blacklist",
                "result": "Worm.Autorun.(kcloud)"
            },
            "MAX": {
                "category": "malicious",
                "engine_name": "MAX",
                "engine_update": "20180626",
                "engine_version": "2017.11.15.1",
                "method": "blacklist",
                "result": "malware (ai score=80)"
            },
            "Malwarebytes": {
                "category": "undetected",
                "engine_name": "Malwarebytes",
                "engine_update": "20180626",
                "engine_version": "2.1.1.1115",
                "method": "blacklist",
                "result": null
            },
            "McAfee": {
                "category": "malicious",
                "engine_name": "McAfee",
                "engine_update": "20180626",
                "engine_version": "6.0.6.653",
                "method": "blacklist",
                "result": "Artemis!EFBF27978C70"
            },
            "McAfee-GW-Edition": {
                "category": "malicious",
                "engine_name": "McAfee-GW-Edition",
                "engine_update": "20180626",
                "engine_version": "v2017.2786",
                "method": "blacklist",
                "result": "BehavesLike.Win32.Yahlover.hh"
            },
            "MicroWorld-eScan": {
                "category": "malicious",
                "engine_name": "MicroWorld-eScan",
                "engine_update": "20180625",
                "engine_version": "14.0.297.0",
                "method": "blacklist",
                "result": "Worm.Hybris.PLI"
            },
            "Microsoft": {
                "category": "malicious",
                "engine_name": "Microsoft",
                "engine_update": "20180626",
                "engine_version": "1.1.14901.4",
                "method": "blacklist",
                "result": "Worm:Win32/Yuner.A"
            },
            "NANO-Antivirus": {
                "category": "malicious",
                "engine_name": "NANO-Antivirus",
                "engine_update": "20180626",
                "engine_version": "1.0.116.23366",
                "method": "blacklist",
                "result": "Trojan.Script.Agent.dbvlfz"
            },
            "Paloalto": {
                "category": "undetected",
                "engine_name": "Paloalto",
                "engine_update": "20180626",
                "engine_version": "1.0",
                "method": "blacklist",
                "result": null
            },
            "Panda": {
                "category": "malicious",
                "engine_name": "Panda",
                "engine_update": "20180625",
                "engine_version": "4.6.4.2",
                "method": "blacklist",
                "result": "W32/Autorun.JFC.worm"
            },
            "Qihoo-360": {
                "category": "malicious",
                "engine_name": "Qihoo-360",
                "engine_update": "20180626",
                "engine_version": "1.0.0.1120",
                "method": "blacklist",
                "result": "HEUR/QVM09.0.181F.Malware.Gen"
            },
            "Rising": {
                "category": "malicious",
                "engine_name": "Rising",
                "engine_update": "20180626",
                "engine_version": "25.0.0.1",
                "method": "blacklist",
                "result": "Malware.Heuristic!ET#84% (RDM+:cmRtazo/82YMRIdoTPF4lG1nhZPk)"
            },
            "SUPERAntiSpyware": {
                "category": "malicious",
                "engine_name": "SUPERAntiSpyware",
                "engine_update": "20180625",
                "engine_version": "5.6.0.1032",
                "method": "blacklist",
                "result": "Trojan.Agent/Gen-Frauder[WinWord]"
            },
            "SentinelOne": {
                "category": "malicious",
                "engine_name": "SentinelOne",
                "engine_update": "20180618",
                "engine_version": "1.0.17.225",
                "method": "blacklist",
                "result": "static engine - malicious"
            },
            "Sophos": {
                "category": "malicious",
                "engine_name": "Sophos",
                "engine_update": "20180625",
                "engine_version": "4.98.0",
                "method": "blacklist",
                "result": "W32/Sohana-CU"
            },
            "Symantec": {
                "category": "malicious",
                "engine_name": "Symantec",
                "engine_update": "20180625",
                "engine_version": "1.6.0.0",
                "method": "blacklist",
                "result": "W32.Badday.A"
            },
            "SymantecMobileInsight": {
                "category": "type-unsupported",
                "engine_name": "SymantecMobileInsight",
                "engine_update": "20180625",
                "engine_version": "1.0.0.35_220",
                "method": "blacklist",
                "result": null
            },
            "TACHYON": {
                "category": "undetected",
                "engine_name": "TACHYON",
                "engine_update": "20180626",
                "engine_version": "2018-06-26.01",
                "method": "blacklist",
                "result": null
            },
            "Tencent": {
                "category": "malicious",
                "engine_name": "Tencent",
                "engine_update": "20180626",
                "engine_version": "1.0.0.1",
                "method": "blacklist",
                "result": "Worm.Win32.AutoRun.f"
            },
            "TheHacker": {
                "category": "malicious",
                "engine_name": "TheHacker",
                "engine_update": "20180624",
                "engine_version": "6.8.0.5.3208",
                "method": "blacklist",
                "result": "Trojan/Yuner.a"
            },
            "TotalDefense": {
                "category": "malicious",
                "engine_name": "TotalDefense",
                "engine_update": "20180625",
                "engine_version": "37.1.62.1",
                "method": "blacklist",
                "result": "Win32/Yahlover.KX"
            },
            "TrendMicro": {
                "category": "malicious",
                "engine_name": "TrendMicro",
                "engine_update": "20180626",
                "engine_version": "10.0.0.1040",
                "method": "blacklist",
                "result": "WORM_AUTORUN.BVM"
            },
            "TrendMicro-HouseCall": {
                "category": "malicious",
                "engine_name": "TrendMicro-HouseCall",
                "engine_update": "20180626",
                "engine_version": "9.950.0.1006",
                "method": "blacklist",
                "result": "WORM_AUTORUN.BVM"
            },
            "Trustlook": {
                "category": "type-unsupported",
                "engine_name": "Trustlook",
                "engine_update": "20180626",
                "engine_version": "2",
                "method": "blacklist",
                "result": null
            },
            "VBA32": {
                "category": "malicious",
                "engine_name": "VBA32",
                "engine_update": "20180625",
                "engine_version": "3.12.32.0",
                "method": "blacklist",
                "result": "Trojan.Yuner.19105"
            },
            "VIPRE": {
                "category": "malicious",
                "engine_name": "VIPRE",
                "engine_update": "20180626",
                "engine_version": "67674",
                "method": "blacklist",
                "result": "Trojan.Win32.Generic!BT"
            },
            "ViRobot": {
                "category": "malicious",
                "engine_name": "ViRobot",
                "engine_update": "20180626",
                "engine_version": "2014.3.20.0",
                "method": "blacklist",
                "result": "Worm.Win32.Autorun.524706"
            },
            "Webroot": {
                "category": "malicious",
                "engine_name": "Webroot",
                "engine_update": "20180626",
                "engine_version": "1.0.0.403",
                "method": "blacklist",
                "result": "W32.Yuner.Gen"
            },
            "Yandex": {
                "category": "malicious",
                "engine_name": "Yandex",
                "engine_update": "20180625",
                "engine_version": "5.5.1.3",
                "method": "blacklist",
                "result": "Worm.Yuner!OOwCwIXRc+0"
            },
            "Zillya": {
                "category": "malicious",
                "engine_name": "Zillya",
                "engine_update": "20180625",
                "engine_version": "2.0.0.3581",
                "method": "blacklist",
                "result": "Worm.AutoRun.Win32.5414"
            },
            "ZoneAlarm": {
                "category": "malicious",
                "engine_name": "ZoneAlarm",
                "engine_update": "20180626",
                "engine_version": "1.0",
                "method": "blacklist",
                "result": "Worm.Win32.AutoRun.but"
            },
            "Zoner": {
                "category": "malicious",
                "engine_name": "Zoner",
                "engine_update": "20180626",
                "engine_version": "1.0",
                "method": "blacklist",
                "result": "I-Worm.Yuner.B"
            },
            "eGambit": {
                "category": "undetected",
                "engine_name": "eGambit",
                "engine_update": "20180626",
                "engine_version": null,
                "method": "blacklist",
                "result": null
            }
        },
        "last_analysis_stats": {
            "confirmed-timeout": 0,
            "failure": 0,
            "harmless": 0,
            "malicious": 62,
            "suspicious": 0,
            "timeout": 0,
            "type-unsupported": 3,
            "undetected": 6
        },
        "last_modification_date": 1529989027,
        "last_submission_date": 1529984806,
        "magic": "PE32 executable for MS Windows (GUI) Intel 80386 32-bit",
        "md5": "efbf27978c703c3e811a96479358eb89",
        "meaningful_name": "efbf27978c703c3e811a96479358eb89.virus",
        "names": [
            "efbf27978c703c3e811a96479358eb89.virus"
        ],
        "pe_info": {
            "entry_point": 337965,
            "imphash": "e058006f898ddaae25f7427eeea044eb",
            "import_list": [
                {
                    "imported_functions": [
                        "WNetGetConnectionW",
                        "WNetCancelConnection2W",
                        "WNetUseConnectionW",
                        "WNetAddConnection2W"
                    ],
                    "library_name": "MPR.dll"
                },
                {
                    "imported_functions": [
                        "GetSaveFileNameW",
                        "GetOpenFileNameW"
                    ],
                    "library_name": "comdlg32.dll"
                },
                {
                    "imported_functions": [
                        "VerQueryValueW",
                        "GetFileVersionInfoW",
                        "GetFileVersionInfoSizeW"
                    ],
                    "library_name": "VERSION.dll"
                },
                {
                    "imported_functions": [
                        "waveOutSetVolume",
                        "mciSendStringW",
                        "timeGetTime"
                    ],
                    "library_name": "WINMM.dll"
                },
                {
                    "imported_functions": [
                        "GetStockObject",
                        "CreatePen",
                        "EndPath",
                        "StrokeAndFillPath",
                        "GetPixel",
                        "Rectangle",
                        "PolyDraw",
                        "LineTo",
                        "DeleteDC",
                        "SetBkMode",
                        "SetPixel",
                        "CreateDCW",
                        "DeleteObject",
                        "GetObjectW",
                        "AngleArc",
                        "CreateDIBSection",
                        "SetTextColor",
                        "GetDeviceCaps",
                        "GetTextFaceW",
                        "MoveToEx",
                        "BitBlt",
                        "SetViewportOrgEx",
                        "StrokePath",
                        "GetDIBits",
                        "RoundRect",
                        "PolyBezierTo",
                        "CreateFontW",
                        "CloseFigure",
                        "SelectObject",
                        "CreateCompatibleBitmap",
                        "CreateSolidBrush",
                        "ExtCreatePen",
                        "SetBkColor",
                        "BeginPath",
                        "GetTextExtentPoint32W",
                        "Ellipse",
                        "CreateCompatibleDC"
                    ],
                    "library_name": "GDI32.dll"
                },
                {
                    "imported_functions": [
                        "DragQueryFileW",
                        "SHBrowseForFolderW",
                        "SHFileOperationW",
                        "ShellExecuteW",
                        "SHGetPathFromIDListW",
                        "DragQueryPoint",
                        "ExtractIconExW",
                        "ShellExecuteExW",
                        "SHGetDesktopFolder",
                        "Shell_NotifyIconW",
                        "SHGetMalloc",
                        "DragFinish"
                    ],
                    "library_name": "SHELL32.dll"
                },
                {
                    "imported_functions": [
                        "GetStdHandle",
                        "GetDriveTypeW",
                        "GetConsoleOutputCP",
                        "FileTimeToSystemTime",
                        "WaitForSingleObject",
                        "HeapDestroy",
                        "GetPrivateProfileSectionNamesW",
                        "GetFileAttributesW",
                        "GetLocalTime",
                        "FreeEnvironmentStringsA",
                        "CreatePipe",
                        "GetCurrentProcess",
                        "GetConsoleMode",
                        "GetLocaleInfoA",
                        "UnhandledExceptionFilter",
                        "SetErrorMode",
                        "FreeEnvironmentStringsW",
                        "SetStdHandle",
                        "WideCharToMultiByte",
                        "GetStringTypeA",
                        "GetDiskFreeSpaceW",
                        "WriteFile",
                        "GetSystemTimeAsFileTime",
                        "HeapReAlloc",
                        "GetStringTypeW",
                        "GetOEMCP",
                        "FormatMessageW",
                        "ResumeThread",
                        "InitializeCriticalSection",
                        "LoadResource",
                        "FindClose",
                        "TlsGetValue",
                        "MoveFileW",
                        "SetFileAttributesW",
                        "GetEnvironmentVariableW",
                        "SetLastError",
                        "PeekNamedPipe",
                        "DeviceIoControl",
                        "InterlockedDecrement",
                        "CopyFileW",
                        "WriteProcessMemory",
                        "OutputDebugStringW",
                        "RemoveDirectoryW",
                        "Beep",
                        "HeapAlloc",
                        "FlushFileBuffers",
                        "GetModuleFileNameA",
                        "LoadLibraryA",
                        "QueryPerformanceFrequency",
                        "SetProcessWorkingSetSize",
                        "WritePrivateProfileSectionW",
                        "GetVolumeInformationW",
                        "LoadLibraryExW",
                        "MultiByteToWideChar",
                        "GetPrivateProfileStringW",
                        "GetModuleHandleA",
                        "GetFullPathNameW",
                        "CreateThread",
                        "SetEnvironmentVariableW",
                        "GetSystemDirectoryW",
                        "DeleteCriticalSection",
                        "SetUnhandledExceptionFilter",
                        "ReadFile",
                        "ExitThread",
                        "SetEnvironmentVariableA",
                        "SetPriorityClass",
                        "GlobalMemoryStatus",
                        "WriteConsoleA",
                        "SetCurrentDirectoryW",
                        "GlobalAlloc",
                        "LocalFileTimeToFileTime",
                        "SetEndOfFile",
                        "GetCurrentThreadId",
                        "LeaveCriticalSection",
                        "WriteConsoleW",
                        "HeapFree",
                        "EnterCriticalSection",
                        "SetHandleCount",
                        "LoadLibraryW",
                        "GetVersionExW",
                        "GetExitCodeProcess",
                        "QueryPerformanceCounter",
                        "GetTickCount",
                        "TlsAlloc",
                        "GetVersionExA",
                        "lstrcmpiW",
                        "RtlUnwind",
                        "FreeLibrary",
                        "GlobalFindAtomW",
                        "GetStartupInfoA",
                        "GetWindowsDirectoryW",
                        "GetFileSize",
                        "LCMapStringW",
                        "OpenProcess",
                        "GetStartupInfoW",
                        "ReadProcessMemory",
                        "CreateDirectoryW",
                        "DeleteFileW",
                        "GlobalLock",
                        "GetProcessHeap",
                        "GetTempFileNameW",
                        "GetComputerNameW",
                        "EnumResourceNamesW",
                        "CompareStringW",
                        "GetModuleFileNameW",
                        "FindNextFileW",
                        "CompareStringA",
                        "FindFirstFileW",
                        "TerminateProcess",
                        "DuplicateHandle",
                        "GetProcAddress",
                        "SetVolumeLabelW",
                        "GetPrivateProfileSectionW",
                        "GetTimeZoneInformation",
                        "CreateFileW",
                        "GetFileType",
                        "TlsSetValue",
                        "CreateFileA",
                        "ExitProcess",
                        "InterlockedIncrement",
                        "GetLastError",
                        "SystemTimeToFileTime",
                        "CreateFileMappingW",
                        "GetShortPathNameW",
                        "UnmapViewOfFile",
                        "GetSystemInfo",
                        "GlobalFree",
                        "GetConsoleCP",
                        "FindResourceW",
                        "LCMapStringA",
                        "GetEnvironmentStringsW",
                        "GlobalUnlock",
                        "VirtualFree",
                        "FileTimeToLocalFileTime",
                        "SizeofResource",
                        "GetCurrentDirectoryW",
                        "GetCurrentProcessId",
                        "LockResource",
                        "SetFileTime",
                        "GetCommandLineW",
                        "GetCPInfo",
                        "HeapSize",
                        "GetCommandLineA",
                        "WritePrivateProfileStringW",
                        "RaiseException",
                        "MapViewOfFile",
                        "TlsFree",
                        "SetFilePointer",
                        "SetSystemPowerState",
                        "CloseHandle",
                        "GetACP",
                        "GetModuleHandleW",
                        "GetEnvironmentStrings",
                        "IsValidCodePage",
                        "HeapCreate",
                        "GetTempPathW",
                        "CreateProcessW",
                        "Sleep",
                        "VirtualAlloc"
                    ],
                    "library_name": "KERNEL32.DLL"
                },
                {
                    "imported_functions": [
                        "LoadRegTypeLib",
                        "VariantCopy",
                        "SafeArrayAccessData",
                        "VariantTimeToSystemTime",
                        "SafeArrayDestroyDescriptor",
                        "SafeArrayUnaccessData",
                        "VarR4FromDec",
                        "SafeArrayDestroyData",
                        "VariantClear",
                        "SysAllocString",
                        "GetActiveObject",
                        "SafeArrayAllocDescriptorEx",
                        "VariantInit",
                        "OleLoadPicture",
                        "SafeArrayAllocData"
                    ],
                    "library_name": "OLEAUT32.dll"
                },
                {
                    "imported_functions": [
                        "RegCreateKeyExW",
                        "CloseServiceHandle",
                        "RegEnumValueW",
                        "RegConnectRegistryW",
                        "RegCloseKey",
                        "OpenProcessToken",
                        "GetUserNameW",
                        "RegSetValueExW",
                        "OpenSCManagerW",
                        "RegDeleteValueW",
                        "LockServiceDatabase",
                        "RegEnumKeyExW",
                        "AdjustTokenPrivileges",
                        "LookupPrivilegeValueW",
                        "RegOpenKeyExW",
                        "RegDeleteKeyW",
                        "UnlockServiceDatabase",
                        "RegQueryValueExW"
                    ],
                    "library_name": "ADVAPI32.dll"
                },
                {
                    "imported_functions": [
                        "__WSAFDIsSet",
                        "bind",
                        "gethostname",
                        "socket",
                        "closesocket",
                        "WSAStartup",
                        "send",
                        "htons",
                        "inet_addr",
                        "accept",
                        "ioctlsocket",
                        "recvfrom",
                        "gethostbyname",
                        "ntohs",
                        "WSAGetLastError",
                        "WSACleanup",
                        "sendto",
                        "listen",
                        "recv",
                        "select",
                        "connect"
                    ],
                    "library_name": "WSOCK32.dll"
                },
                {
                    "imported_functions": [
                        "CreateStreamOnHGlobal",
                        "OleUninitialize",
                        "CoUninitialize",
                        "CoInitialize",
                        "CoTaskMemAlloc",
                        "CreateBindCtx",
                        "OleSetContainedObject",
                        "StringFromIID",
                        "CoCreateInstance",
                        "CoInitializeSecurity",
                        "CLSIDFromProgID",
                        "StringFromCLSID",
                        "CLSIDFromString",
                        "OleSetMenuDescriptor",
                        "CoCreateInstanceEx",
                        "IIDFromString",
                        "MkParseDisplayName",
                        "CoTaskMemFree",
                        "CoSetProxyBlanket",
                        "OleInitialize"
                    ],
                    "library_name": "ole32.dll"
                },
                {
                    "imported_functions": [
                        "RedrawWindow",
                        "GetForegroundWindow",
                        "UnregisterHotKey",
                        "DrawTextW",
                        "DestroyMenu",
                        "PostQuitMessage",
                        "SetWindowPos",
                        "IsWindow",
                        "EndPaint",
                        "VkKeyScanA",
                        "WindowFromPoint",
                        "CharUpperBuffW",
                        "SetMenuItemInfoW",
                        "SetActiveWindow",
                        "DispatchMessageW",
                        "GetCursorPos",
                        "CharLowerBuffW",
                        "GetMenuStringW",
                        "AdjustWindowRectEx",
                        "GetMenu",
                        "GetClientRect",
                        "SetMenuDefaultItem",
                        "GetNextDlgTabItem",
                        "IsClipboardFormatAvailable",
                        "LoadImageW",
                        "CountClipboardFormats",
                        "GetKeyboardLayoutNameW",
                        "ClientToScreen",
                        "GetActiveWindow",
                        "RegisterHotKey",
                        "OpenClipboard",
                        "GetWindowTextW",
                        "LockWindowUpdate",
                        "GetWindowTextLengthW",
                        "CopyImage",
                        "DestroyWindow",
                        "GetParent",
                        "SetClassLongW",
                        "EnumWindows",
                        "GetMessageW",
                        "ShowWindow",
                        "GetCaretPos",
                        "DrawFrameControl",
                        "CreateIconFromResourceEx",
                        "IsCharAlphaW",
                        "PeekMessageW",
                        "EnableWindow",
                        "CharUpperW",
                        "TranslateMessage",
                        "IsWindowEnabled",
                        "GetWindow",
                        "SetClipboardData",
                        "IsZoomed",
                        "LoadStringW",
                        "DrawMenuBar",
                        "IsCharLowerW",
                        "IsIconic",
                        "TrackPopupMenuEx",
                        "DrawFocusRect",
                        "CreateMenu",
                        "IsDialogMessageW",
                        "FillRect",
                        "EnumThreadWindows",
                        "CopyRect",
                        "GetSysColorBrush",
                        "CreateWindowExW",
                        "GetWindowLongW",
                        "CharNextW",
                        "IsChild",
                        "SetFocus",
                        "RegisterWindowMessageW",
                        "GetKeyboardLayoutNameA",
                        "BeginPaint",
                        "OffsetRect",
                        "DefWindowProcW",
                        "keybd_event",
                        "KillTimer",
                        "MapVirtualKeyW",
                        "CheckMenuRadioItem",
                        "GetClipboardData",
                        "GetSystemMetrics",
                        "SetWindowLongW",
                        "GetWindowRect",
                        "InflateRect",
                        "SetCapture",
                        "ReleaseCapture",
                        "EnumChildWindows",
                        "SendDlgItemMessageW",
                        "SetKeyboardState",
                        "GetCursor",
                        "CreatePopupMenu",
                        "GetSubMenu",
                        "PtInRect",
                        "SetWindowTextW",
                        "SetTimer",
                        "GetDlgItem",
                        "ScreenToClient",
                        "PostMessageW",
                        "GetAsyncKeyState",
                        "GetKeyboardState",
                        "GetMenuItemCount",
                        "AttachThreadInput",
                        "GetDesktopWindow",
                        "LoadCursorW",
                        "LoadIconW",
                        "FindWindowExW",
                        "GetMenuItemID",
                        "FlashWindow",
                        "SetForegroundWindow",
                        "ExitWindowsEx",
                        "GetMenuItemInfoW",
                        "EmptyClipboard",
                        "ReleaseDC",
                        "EndDialog",
                        "FindWindowW",
                        "GetDlgCtrlID",
                        "MessageBeep",
                        "GetWindowThreadProcessId",
                        "MessageBoxW",
                        "SendMessageW",
                        "RegisterClassExW",
                        "SetMenu",
                        "MoveWindow",
                        "DialogBoxParamW",
                        "MessageBoxA",
                        "IsMenu",
                        "GetWindowDC",
                        "IsCharAlphaNumericW",
                        "mouse_event",
                        "GetClassWord",
                        "GetFocus",
                        "GetSysColor",
                        "GetKeyState",
                        "DestroyIcon",
                        "wsprintfW",
                        "IsWindowVisible",
                        "SubtractRect",
                        "SystemParametersInfoW",
                        "GetDC",
                        "FrameRect",
                        "SetRect",
                        "DeleteMenu",
                        "InvalidateRect",
                        "GetClassNameW",
                        "CreateIcon",
                        "IsCharUpperW",
                        "SendMessageTimeoutW",
                        "InsertMenuItemW",
                        "CloseClipboard",
                        "SetCursor"
                    ],
                    "library_name": "USER32.dll"
                },
                {
                    "imported_functions": [
                        "ImageList_BeginDrag",
                        "ImageList_Destroy",
                        "ImageList_Create",
                        "ImageList_Remove",
                        "ImageList_SetDragCursorImage",
                        "ImageList_DragMove",
                        "ImageList_DragLeave",
                        "InitCommonControlsEx",
                        "ImageList_ReplaceIcon",
                        "ImageList_DragEnter",
                        "ImageList_EndDrag"
                    ],
                    "library_name": "COMCTL32.dll"
                }
            ],
            "machine_type": 332,
            "overlay": {
                "chi2": 432.478271484375,
                "entropy": 7.971967697143555,
                "filetype": "data",
                "md5": "96afbad04b20779b9b37d36ab7e261e7",
                "offset": 514560,
                "size": 10296
            },
            "resource_details": [
                {
                    "chi2": 29364.2109375,
                    "entropy": 3.3007538318634033,
                    "filetype": "data",
                    "lang": "ENGLISH UK",
                    "sha256": "b7bdbe23718424abbb2bd3156b9c3789e8887db8a08b0d2f928110394f6f2677",
                    "type": "RT_ICON"
                },
                {
                    "chi2": 12401.9521484375,
                    "entropy": 3.420442819595337,
                    "filetype": "data",
                    "lang": "ENGLISH UK",
                    "sha256": "b33b8dc613d1b195ef5d9f44aa5a38cb3be2dedd4f743910ca1e42c479c54cca",
                    "type": "RT_ICON"
                },
                {
                    "chi2": 75855.3828125,
                    "entropy": 6.161774158477783,
                    "filetype": "data",
                    "lang": "ENGLISH UK",
                    "sha256": "8782292984958a02c4df6997924a1566faf83bd7d0f0166b2ba19f0a5e3e64a5",
                    "type": "RT_ICON"
                },
                {
                    "chi2": 38481.90234375,
                    "entropy": 6.426276206970215,
                    "filetype": "data",
                    "lang": "ENGLISH UK",
                    "sha256": "0d7cf04c8012ee7775176f76692f62a1b92e8efe6090a4597bada4743a721f6e",
                    "type": "RT_ICON"
                },
                {
                    "chi2": 78952.21875,
                    "entropy": 4.983526229858398,
                    "filetype": "data",
                    "lang": "ENGLISH UK",
                    "sha256": "f9361233cec54862b251b7f3e70ee062b400ae388e1a2a5b53e1ba5dc4750630",
                    "type": "RT_ICON"
                },
                {
                    "chi2": 273241.84375,
                    "entropy": 5.176907539367676,
                    "filetype": "data",
                    "lang": "ENGLISH UK",
                    "sha256": "94ceb2ba123a8daed08002b358b952c0ff28f6027ec49c70cc2f61ce3a1dfba9",
                    "type": "RT_ICON"
                },
                {
                    "chi2": 102094.171875,
                    "entropy": 5.364933490753174,
                    "filetype": "data",
                    "lang": "ENGLISH UK",
                    "sha256": "e85a8504aba1e04c22a0a68c83991aadb71bac206dfe215f370146ac66fb86b2",
                    "type": "RT_ICON"
                },
                {
                    "chi2": 28110.470703125,
                    "entropy": 5.344408988952637,
                    "filetype": "data",
                    "lang": "ENGLISH UK",
                    "sha256": "29d250430c99d3f7040c4d4444ad6037674135f2b77a8e0d7902c757392c8e28",
                    "type": "RT_ICON"
                },
                {
                    "chi2": 23799.138671875,
                    "entropy": 3.6637094020843506,
                    "filetype": "data",
                    "lang": "ENGLISH UK",
                    "sha256": "62ba0b2575098d4428c9a99bd060ef7572071698bf9d03b4bd430f5f691378e5",
                    "type": "RT_ICON"
                },
                {
                    "chi2": 39565.58203125,
                    "entropy": 2.254985809326172,
                    "filetype": "data",
                    "lang": "ENGLISH UK",
                    "sha256": "245fc49e4e955e1db3975b826dcf27ad2eb32a6831caa4cb6b501a3914bcfaa9",
                    "type": "RT_ICON"
                },
                {
                    "chi2": 7766.4033203125,
                    "entropy": 2.682918071746826,
                    "filetype": "data",
                    "lang": "ENGLISH UK",
                    "sha256": "54f5e2ecbfc4f87380ca7466337676b99d0c4a21f806cf83f69fd48934c857ab",
                    "type": "RT_MENU"
                },
                {
                    "chi2": 23868.892578125,
                    "entropy": 3.0398640632629395,
                    "filetype": "data",
                    "lang": "ENGLISH UK",
                    "sha256": "7de7438fb4425f608109111fdce25be7d2381938f6c5984bcfb14b3b88e9c883",
                    "type": "RT_DIALOG"
                },
                {
                    "chi2": 96337.8359375,
                    "entropy": 3.3193860054016113,
                    "filetype": "data",
                    "lang": "ENGLISH UK",
                    "sha256": "712800ff590c680fed9a2975b054bacb5c47ef1281ddfae4d8eaabf28292a564",
                    "type": "RT_STRING"
                },
                {
                    "chi2": 112113.8984375,
                    "entropy": 3.2862372398376465,
                    "filetype": "ASCII text",
                    "lang": "ENGLISH UK",
                    "sha256": "3f37dba0277dc704f072aaf3e740c2bee9ac04f79982fd41662dfc94e7bfda2e",
                    "type": "RT_STRING"
                },
                {
                    "chi2": 82093.25,
                    "entropy": 3.2947261333465576,
                    "filetype": "ASCII text",
                    "lang": "ENGLISH UK",
                    "sha256": "bde737e3274d48a74b108716c0e0940c28cb61da04e998cdb7f0b5615eeacfe2",
                    "type": "RT_STRING"
                },
                {
                    "chi2": 102165.734375,
                    "entropy": 3.316129446029663,
                    "filetype": "ASCII text",
                    "lang": "ENGLISH UK",
                    "sha256": "c368f679fa81d33cfbc768433ceacbae2094d9cec363a22a29d4c19f5570f644",
                    "type": "RT_STRING"
                },
                {
                    "chi2": 93906.0390625,
                    "entropy": 3.2248446941375732,
                    "filetype": "ASCII text",
                    "lang": "ENGLISH UK",
                    "sha256": "9a21e850a4202649ba3b17b6f19175edc3cd8d53be0b9a589bac67ae1112935a",
                    "type": "RT_STRING"
                },
                {
                    "chi2": 72560.09375,
                    "entropy": 3.2636172771453857,
                    "filetype": "ASCII text",
                    "lang": "ENGLISH UK",
                    "sha256": "1de5e8949f9aa6e2d9600fddeb5a24dcd3eecca11ef6d9fa7475e39302018d99",
                    "type": "RT_STRING"
                },
                {
                    "chi2": 8017.59228515625,
                    "entropy": 2.811582565307617,
                    "filetype": "data",
                    "lang": "ENGLISH UK",
                    "sha256": "0f8e66b41e930335fa661b03299b12d6e7d8f04e7e35a117cb6966b9d1258497",
                    "type": "RT_GROUP_ICON"
                },
                {
                    "chi2": 1618.400146484375,
                    "entropy": 2.0232198238372803,
                    "filetype": "ASCII text",
                    "lang": "ENGLISH UK",
                    "sha256": "8d7605e574e5fa516ec9667f8a955db2d6c24d68cbffd908b32414ed7832f074",
                    "type": "RT_GROUP_ICON"
                },
                {
                    "chi2": 1618.400146484375,
                    "entropy": 2.0232198238372803,
                    "filetype": "ASCII text",
                    "lang": "ENGLISH UK",
                    "sha256": "2ef8f3005787231e5b1b5baaa4e31980f4f0eb0eb40d74513cd03b5f684f2e8f",
                    "type": "RT_GROUP_ICON"
                },
                {
                    "chi2": 35273.8828125,
                    "entropy": 3.137312650680542,
                    "filetype": "data",
                    "lang": "ENGLISH UK",
                    "sha256": "92f56b8164e4a214ce609cf91bbef4f74b8ad79c1357025acad97e796db19ddd",
                    "type": "RT_VERSION"
                },
                {
                    "chi2": 8119.19091796875,
                    "entropy": 5.113859176635742,
                    "filetype": "ASCII text",
                    "lang": "ENGLISH UK",
                    "sha256": "3213571d23645217d89b0b6a8475c4113d7b013d4d11c0cd7180e977dc0d1c58",
                    "type": "RT_MANIFEST"
                }
            ],
            "resource_langs": {
                "ENGLISH UK": 23
            },
            "resource_types": {
                "RT_DIALOG": 1,
                "RT_GROUP_ICON": 3,
                "RT_ICON": 10,
                "RT_MANIFEST": 1,
                "RT_MENU": 1,
                "RT_STRING": 6,
                "RT_VERSION": 1
            },
            "sections": [
                {
                    "entropy": 6.7,
                    "md5": "df9d487ccb89217c1c9c5dbdb0458426",
                    "name": ".text",
                    "raw_size": 408576,
                    "virtual_address": 4096,
                    "virtual_size": 408127
                },
                {
                    "entropy": 4.79,
                    "md5": "5c569435b0b27f95e349586e4a6f2872",
                    "name": ".rdata",
                    "raw_size": 57856,
                    "virtual_address": 413696,
                    "virtual_size": 57728
                },
                {
                    "entropy": 3.84,
                    "md5": "d58a13d82d8b598632f6ea1ecac49697",
                    "name": ".data",
                    "raw_size": 11264,
                    "virtual_address": 475136,
                    "virtual_size": 102264
                },
                {
                    "entropy": 5.41,
                    "md5": "beafbde081a00045c5646597f1b5b055",
                    "name": ".rsrc",
                    "raw_size": 35840,
                    "virtual_address": 577536,
                    "virtual_size": 36864
                }
            ],
            "timestamp": 1189436270
        },
        "reputation": 0,
        "sha1": "1f0dd51fa6b57a2089b3195921f6b25a44729b03",
        "sha256": "000543cdf2f4669bbfbba1eaa59710f49c5b9fbd7bda78c9067e54911a406d08",
        "size": 524856,
        "ssdeep": "6144:1VY0W0sVVZ/dkq5BCoFaJ2i5Lf24C07N5OvSLTUF6pQxI6Upe2cBnTu19bcodj65:1gDhdkq5BCoC5LfWSLTUQpr2Zu19Qm5i",
        "tags": [
            "peexe",
            "overlay"
        ],
        "times_submitted": 1,
        "total_votes": {
            "harmless": 0,
            "malicious": 0
        },
        "trid": [
            {
                "file_type": "InstallShield setup",
                "probability": 36.1
            },
            {
                "file_type": "Win32 Executable MS Visual C++ (generic)",
                "probability": 26.2
            },
            {
                "file_type": "Win64 Executable (generic)",
                "probability": 23.2
            },
            {
                "file_type": "Win32 Dynamic Link Library (generic)",
                "probability": 5.5
            },
            {
                "file_type": "Win32 Executable (generic)",
                "probability": 3.7
            }
        ],
        "type_description": "Win32 EXE",
        "type_extension": "exe",
        "type_tag": "peexe",
        "unique_sources": 1,
        "vhash": "055046655d155120b020025009f6z140f5zc2z96031z39z"
    },
    "id": "000543cdf2f4669bbfbba1eaa59710f49c5b9fbd7bda78c9067e54911a406d08",
    "links": {
        "self": "https://www.virustotal.com/api/v3/files/000543cdf2f4669bbfbba1eaa59710f49c5b9fbd7bda78c9067e54911a406d08"
    },
    "type": "file"
}