{
    "attributes": {
        "authentihash": "be76a6b2dcb243131d93ce4bd92da53bf33f91e5b9430568bd29ae9b809ac2bf",
        "creation_date": 1509699582,
        "first_submission_date": 1510657618,
        "last_analysis_date": 1598410785,
        "last_analysis_results": {
            "ALYac": {
                "category": "undetected",
                "engine_name": "ALYac",
                "engine_update": "20200826",
                "engine_version": "1.1.1.5",
                "method": "blacklist",
                "result": null
            },
            "APEX": {
                "category": "malicious",
                "engine_name": "APEX",
                "engine_update": "20200825",
                "engine_version": "6.63",
                "method": "blacklist",
                "result": "Malicious"
            },
            "AVG": {
                "category": "malicious",
                "engine_name": "AVG",
                "engine_update": "20200826",
                "engine_version": "18.4.3895.0",
                "method": "blacklist",
                "result": "Win32:Adware-gen [Adw]"
            },
            "Acronis": {
                "category": "malicious",
                "engine_name": "Acronis",
                "engine_update": "20200806",
                "engine_version": "1.1.1.77",
                "method": "blacklist",
                "result": "suspicious"
            },
            "Ad-Aware": {
                "category": "malicious",
                "engine_name": "Ad-Aware",
                "engine_update": "20200826",
                "engine_version": "3.0.16.117",
                "method": "blacklist",
                "result": "Application.Bundler.Agent.CR"
            },
            "AegisLab": {
                "category": "malicious",
                "engine_name": "AegisLab",
                "engine_update": "20200826",
                "engine_version": "4.2",
                "method": "blacklist",
                "result": "Riskware.Win32.Generic.1!c"
            },
            "AhnLab-V3": {
                "category": "malicious",
                "engine_name": "AhnLab-V3",
                "engine_update": "20200825",
                "engine_version": "3.18.1.10026",
                "method": "blacklist",
                "result": "Adware/Win32.StartSurf.R212334"
            },
            "Alibaba": {
                "category": "malicious",
                "engine_name": "Alibaba",
                "engine_update": "20190527",
                "engine_version": "0.3.0.5",
                "method": "blacklist",
                "result": "Trojan:Win32/Kryptik.0fcc1d90"
            },
            "Antiy-AVL": {
                "category": "malicious",
                "engine_name": "Antiy-AVL",
                "engine_update": "20200825",
                "engine_version": "3.0.0.1",
                "method": "blacklist",
                "result": "Trojan/Win32.TSGeneric"
            },
            "Arcabit": {
                "category": "malicious",
                "engine_name": "Arcabit",
                "engine_update": "20200825",
                "engine_version": "1.0.0.877",
                "method": "blacklist",
                "result": "Application.Bundler.Agent.CR"
            },
            "Avast-Mobile": {
                "category": "type-unsupported",
                "engine_name": "Avast-Mobile",
                "engine_update": "20200825",
                "engine_version": "200825-00",
                "method": "blacklist",
                "result": null
            },
            "Avira": {
                "category": "malicious",
                "engine_name": "Avira",
                "engine_update": "20200826",
                "engine_version": "8.3.3.8",
                "method": "blacklist",
                "result": "HEUR/AGEN.1103322"
            },
            "Baidu": {
                "category": "undetected",
                "engine_name": "Baidu",
                "engine_update": "20190318",
                "engine_version": "1.0.0.2",
                "method": "blacklist",
                "result": null
            },
            "BitDefender": {
                "category": "malicious",
                "engine_name": "BitDefender",
                "engine_update": "20200826",
                "engine_version": "7.2",
                "method": "blacklist",
                "result": "Application.Bundler.Agent.CR"
            },
            "BitDefenderTheta": {
                "category": "malicious",
                "engine_name": "BitDefenderTheta",
                "engine_update": "20200824",
                "engine_version": "7.2.37796.0",
                "method": "blacklist",
                "result": "Gen:NN.ZexaF.34196.5yW@ayVrUnci"
            },
            "Bkav": {
                "category": "malicious",
                "engine_name": "Bkav",
                "engine_update": "20200826",
                "engine_version": "1.3.0.9899",
                "method": "blacklist",
                "result": "W32.AIDetectVM.malware1"
            },
            "CAT-QuickHeal": {
                "category": "malicious",
                "engine_name": "CAT-QuickHeal",
                "engine_update": "20200826",
                "engine_version": "14.00",
                "method": "blacklist",
                "result": "SwBundler.Prepscram.EMU.Y7"
            },
            "CMC": {
                "category": "undetected",
                "engine_name": "CMC",
                "engine_update": "20200825",
                "engine_version": "2.7.2019.1",
                "method": "blacklist",
                "result": null
            },
            "ClamAV": {
                "category": "undetected",
                "engine_name": "ClamAV",
                "engine_update": "20200825",
                "engine_version": "0.102.4.0",
                "method": "blacklist",
                "result": null
            },
            "Comodo": {
                "category": "malicious",
                "engine_name": "Comodo",
                "engine_update": "20200728",
                "engine_version": "32668",
                "method": "blacklist",
                "result": "Application.Win32.IStartSurf.BS@7lng48"
            },
            "CrowdStrike": {
                "category": "malicious",
                "engine_name": "CrowdStrike",
                "engine_update": "20190702",
                "engine_version": "1.0",
                "method": "blacklist",
                "result": "win/malicious_confidence_100% (D)"
            },
            "Cybereason": {
                "category": "malicious",
                "engine_name": "Cybereason",
                "engine_update": "20190616",
                "engine_version": "1.2.449",
                "method": "blacklist",
                "result": "malicious.052812"
            },
            "Cylance": {
                "category": "malicious",
                "engine_name": "Cylance",
                "engine_update": "20200826",
                "engine_version": "2.3.1.101",
                "method": "blacklist",
                "result": "Unsafe"
            },
            "Cynet": {
                "category": "malicious",
                "engine_name": "Cynet",
                "engine_update": "20200823",
                "engine_version": "4.0.0.24",
                "method": "blacklist",
                "result": "Malicious (score: 100)"
            },
            "Cyren": {
                "category": "malicious",
                "engine_name": "Cyren",
                "engine_update": "20200826",
                "engine_version": "6.3.0.2",
                "method": "blacklist",
                "result": "W32/StartSurf.AJ.gen!Eldorado"
            },
            "DrWeb": {
                "category": "malicious",
                "engine_name": "DrWeb",
                "engine_update": "20200826",
                "engine_version": "7.0.46.3050",
                "method": "blacklist",
                "result": "Trojan.Siggen4.41297"
            },
            "ESET-NOD32": {
                "category": "malicious",
                "engine_name": "ESET-NOD32",
                "engine_update": "20200826",
                "engine_version": "21882",
                "method": "blacklist",
                "result": "a variant of Win32/Kryptik.FYOA"
            },
            "Elastic": {
                "category": "malicious",
                "engine_name": "Elastic",
                "engine_update": "20200817",
                "engine_version": "4.0.7",
                "method": "blacklist",
                "result": "malicious (high confidence)"
            },
            "Emsisoft": {
                "category": "failure",
                "engine_name": "Emsisoft",
                "engine_update": "20200825",
                "engine_version": "2018.12.0.1641",
                "method": "blacklist",
                "result": null
            },
            "F-Secure": {
                "category": "malicious",
                "engine_name": "F-Secure",
                "engine_update": "20200826",
                "engine_version": "12.0.86.52",
                "method": "blacklist",
                "result": "Heuristic.HEUR/AGEN.1103322"
            },
            "FireEye": {
                "category": "malicious",
                "engine_name": "FireEye",
                "engine_update": "20200826",
                "engine_version": "32.36.1.0",
                "method": "blacklist",
                "result": "Generic.mg.a66162505281268c"
            },
            "Fortinet": {
                "category": "malicious",
                "engine_name": "Fortinet",
                "engine_update": "20200826",
                "engine_version": "6.2.142.0",
                "method": "blacklist",
                "result": "W32/Kryptik.GFGF!tr"
            },
            "GData": {
                "category": "malicious",
                "engine_name": "GData",
                "engine_update": "20200826",
                "engine_version": "A:25.26752B:27.19937",
                "method": "blacklist",
                "result": "Application.Bundler.Agent.CR"
            },
            "Ikarus": {
                "category": "malicious",
                "engine_name": "Ikarus",
                "engine_update": "20200825",
                "engine_version": "0.1.5.2",
                "method": "blacklist",
                "result": "PUA.Bundler.Agent"
            },
            "Invincea": {
                "category": "malicious",
                "engine_name": "Invincea",
                "engine_update": "20200502",
                "engine_version": "6.3.6.26157",
                "method": "blacklist",
                "result": "heuristic"
            },
            "Jiangmin": {
                "category": "malicious",
                "engine_name": "Jiangmin",
                "engine_update": "20200825",
                "engine_version": "16.0.100",
                "method": "blacklist",
                "result": "AdWare.StartSurf.agw"
            },
            "K7AntiVirus": {
                "category": "malicious",
                "engine_name": "K7AntiVirus",
                "engine_update": "20200826",
                "engine_version": "11.132.35101",
                "method": "blacklist",
                "result": "Trojan ( 0051bf8d1 )"
            },
            "K7GW": {
                "category": "malicious",
                "engine_name": "K7GW",
                "engine_update": "20200825",
                "engine_version": "11.132.35100",
                "method": "blacklist",
                "result": "Trojan ( 0051ae0f1 )"
            },
            "Kaspersky": {
                "category": "malicious",
                "engine_name": "Kaspersky",
                "engine_update": "20200825",
                "engine_version": "15.0.1.13",
                "method": "blacklist",
                "result": "not-a-virus:HEUR:AdWare.Win32.Generic"
            },
            "Kingsoft": {
                "category": "undetected",
                "engine_name": "Kingsoft",
                "engine_update": "20200826",
                "engine_version": "2013.8.14.323",
                "method": "blacklist",
                "result": null
            },
            "MAX": {
                "category": "malicious",
                "engine_name": "MAX",
                "engine_update": "20200826",
                "engine_version": "2019.9.16.1",
                "method": "blacklist",
                "result": "malware (ai score=100)"
            },
            "Malwarebytes": {
                "category": "malicious",
                "engine_name": "Malwarebytes",
                "engine_update": "20200825",
                "engine_version": "3.6.4.335",
                "method": "blacklist",
                "result": "Adware.IStartSurf"
            },
            "MaxSecure": {
                "category": "undetected",
                "engine_name": "MaxSecure",
                "engine_update": "20200824",
                "engine_version": "1.0.0.1",
                "method": "blacklist",
                "result": null
            },
            "McAfee": {
                "category": "malicious",
                "engine_name": "McAfee",
                "engine_update": "20200826",
                "engine_version": "6.0.6.653",
                "method": "blacklist",
                "result": "Packed-VV!A66162505281"
            },
            "MicroWorld-eScan": {
                "category": "malicious",
                "engine_name": "MicroWorld-eScan",
                "engine_update": "20200826",
                "engine_version": "14.0.409.0",
                "method": "blacklist",
                "result": "Application.Bundler.Agent.CR"
            },
            "Microsoft": {
                "category": "malicious",
                "engine_name": "Microsoft",
                "engine_update": "20200825",
                "engine_version": "1.1.17300.4",
                "method": "blacklist",
                "result": "SoftwareBundler:Win32/Prepscram"
            },
            "NANO-Antivirus": {
                "category": "malicious",
                "engine_name": "NANO-Antivirus",
                "engine_update": "20200826",
                "engine_version": "1.0.134.25140",
                "method": "blacklist",
                "result": "Riskware.Win32.StartSurf.euthcp"
            },
            "Paloalto": {
                "category": "malicious",
                "engine_name": "Paloalto",
                "engine_update": "20200826",
                "engine_version": "1.0",
                "method": "blacklist",
                "result": "generic.ml"
            },
            "Panda": {
                "category": "malicious",
                "engine_name": "Panda",
                "engine_update": "20200825",
                "engine_version": "4.6.4.2",
                "method": "blacklist",
                "result": "Trj/Genetic.gen"
            },
            "Qihoo-360": {
                "category": "malicious",
                "engine_name": "Qihoo-360",
                "engine_update": "20200826",
                "engine_version": "1.0.0.1120",
                "method": "blacklist",
                "result": "Win32/Virus.Adware.b51"
            },
            "Rising": {
                "category": "malicious",
                "engine_name": "Rising",
                "engine_update": "20200825",
                "engine_version": "25.0.0.26",
                "method": "blacklist",
                "result": "Trojan.Kryptik!1.AE0C (CLOUD)"
            },
            "SUPERAntiSpyware": {
                "category": "malicious",
                "engine_name": "SUPERAntiSpyware",
                "engine_update": "20200821",
                "engine_version": "5.6.0.1032",
                "method": "blacklist",
                "result": "Trojan.Agent/Gen-Kryptik"
            },
            "Sangfor": {
                "category": "malicious",
                "engine_name": "Sangfor",
                "engine_update": "20200814",
                "engine_version": "1.0",
                "method": "blacklist",
                "result": "Malware"
            },
            "SentinelOne": {
                "category": "malicious",
                "engine_name": "SentinelOne",
                "engine_update": "20200724",
                "engine_version": "4.4.0.0",
                "method": "blacklist",
                "result": "DFI - Malicious PE"
            },
            "Sophos": {
                "category": "malicious",
                "engine_name": "Sophos",
                "engine_update": "20200825",
                "engine_version": "4.98.0",
                "method": "blacklist",
                "result": "Generic PUA NN (PUA)"
            },
            "Symantec": {
                "category": "malicious",
                "engine_name": "Symantec",
                "engine_update": "20200825",
                "engine_version": "1.11.0.0",
                "method": "blacklist",
                "result": "PUA.Gen.2"
            },
            "SymantecMobileInsight": {
                "category": "type-unsupported",
                "engine_name": "SymantecMobileInsight",
                "engine_update": "20200813",
                "engine_version": "2.0",
                "method": "blacklist",
                "result": null
            },
            "TACHYON": {
                "category": "undetected",
                "engine_name": "TACHYON",
                "engine_update": "20200826",
                "engine_version": "2020-08-26.01",
                "method": "blacklist",
                "result": null
            },
            "Tencent": {
                "category": "malicious",
                "engine_name": "Tencent",
                "engine_update": "20200826",
                "engine_version": "1.0.0.1",
                "method": "blacklist",
                "result": "Malware.Win32.Gencirc.10b3d77a"
            },
            "TotalDefense": {
                "category": "undetected",
                "engine_name": "TotalDefense",
                "engine_update": "20200825",
                "engine_version": "37.1.62.1",
                "method": "blacklist",
                "result": null
            },
            "TrendMicro": {
                "category": "undetected",
                "engine_name": "TrendMicro",
                "engine_update": "20200826",
                "engine_version": "11.0.0.1006",
                "method": "blacklist",
                "result": null
            },
            "TrendMicro-HouseCall": {
                "category": "undetected",
                "engine_name": "TrendMicro-HouseCall",
                "engine_update": "20200826",
                "engine_version": "10.0.0.1040",
                "method": "blacklist",
                "result": null
            },
            "Trustlook": {
                "category": "type-unsupported",
                "engine_name": "Trustlook",
                "engine_update": "20200826",
                "engine_version": "1.0",
                "method": "blacklist",
                "result": null
            },
            "VBA32": {
                "category": "malicious",
                "engine_name": "VBA32",
                "engine_update": "20200825",
                "engine_version": "4.4.1",
                "method": "blacklist",
                "result": "AdWare.StartSurf"
            },
            "VIPRE": {
                "category": "malicious",
                "engine_name": "VIPRE",
                "engine_update": "20200826",
                "engine_version": "86208",
                "method": "blacklist",
                "result": "Trojan.Win32.Generic!BT"
            },
            "ViRobot": {
                "category": "undetected",
                "engine_name": "ViRobot",
                "engine_update": "20200825",
                "engine_version": "2014.3.20.0",
                "method": "blacklist",
                "result": null
            },
            "Webroot": {
                "category": "malicious",
                "engine_name": "Webroot",
                "engine_update": "20200826",
                "engine_version": "1.0.0.403",
                "method": "blacklist",
                "result": "W32.Adware.Gen"
            },
            "Yandex": {
                "category": "undetected",
                "engine_name": "Yandex",
                "engine_update": "20200707",
                "engine_version": "5.5.2.24",
                "method": "blacklist",
                "result": null
            },
            "Zillya": {
                "category": "undetected",
                "engine_name": "Zillya",
                "engine_update": "20200825",
                "engine_version": "2.0.0.4160",
                "method": "blacklist",
                "result": null
            },
            "ZoneAlarm": {
                "category": "malicious",
                "engine_name": "ZoneAlarm",
                "engine_update": "20200826",
                "engine_version": "1.0",
                "method": "blacklist",
                "result": "not-a-virus:HEUR:AdWare.Win32.Generic"
            },
            "Zoner": {
                "category": "undetected",
                "engine_name": "Zoner",
                "engine_update": "20200825",
                "engine_version": "0.0.0.0",
                "method": "blacklist",
                "result": null
            },
            "eGambit": {
                "category": "malicious",
                "engine_name": "eGambit",
                "engine_update": "20200826",
                "engine_version": null,
                "method": "blacklist",
                "result": "Unsafe.AI_Score_100%"
            }
        },
        "last_analysis_stats": {
            "confirmed-timeout": 0,
            "failure": 1,
            "harmless": 0,
            "malicious": 54,
            "suspicious": 0,
            "timeout": 0,
            "type-unsupported": 3,
            "undetected": 14
        },
        "last_modification_date": 1605414388,
        "last_submission_date": 1510657618,
        "magic": "PE32 executable for MS Windows (GUI) Intel 80386 32-bit",
        "md5": "a66162505281268cf839124386f2f40a",
        "names": [
            "dd2574ee732ffed917b1595e38d4772f628f6c9e"
        ],
        "pe_info": {
            "compiler_product_versions": [
                "id: 241, version: 40116 count=12",
                "id: 243, version: 40116 count=147",
                "id: 242, version: 40116 count=29",
                "id: 259, version: 24123 count=22",
                "id: 261, version: 24123 count=58",
                "id: 260, version: 24123 count=34",
                "id: 261, version: 24210 count=1",
                "[IMP] VS2008 SP1 build 30729 count=7",
                "[---] Unmarked objects count=131",
                "id: 265, version: 24210 count=3",
                "[RES] VS2015 UPD3 build 24210 count=1",
                "id: 151, version: 0 count=1",
                "id: 258, version: 24210 count=1"
            ],
            "entry_point": 41133,
            "imphash": "210e185cb5835efa07210457792b0813",
            "import_list": [
                {
                    "imported_functions": [
                        "SHGetFolderPathW"
                    ],
                    "library_name": "SHELL32.dll"
                },
                {
                    "imported_functions": [
                        "GetStdHandle",
                        "WaitForSingleObject",
                        "EncodePointer",
                        "QueueUserAPC",
                        "VerifyVersionInfoW",
                        "DeleteCriticalSection",
                        "GetCurrentProcess",
                        "GetConsoleMode",
                        "EnumSystemLocalesW",
                        "FreeEnvironmentStringsW",
                        "InitializeSListHead",
                        "GetLocaleInfoW",
                        "SetStdHandle",
                        "GetCPInfo",
                        "InterlockedExchange",
                        "WriteFile",
                        "GetSystemTimeAsFileTime",
                        "HeapReAlloc",
                        "GetStringTypeW",
                        "FreeLibrary",
                        "LocalFree",
                        "SetWaitableTimer",
                        "FreeLibraryAndExitThread",
                        "FindClose",
                        "TlsGetValue",
                        "FormatMessageA",
                        "SetLastError",
                        "InterlockedDecrement",
                        "GetModuleFileNameW",
                        "IsDebuggerPresent",
                        "HeapAlloc",
                        "VerSetConditionMask",
                        "UnhandledExceptionFilter",
                        "LoadLibraryExW",
                        "MultiByteToWideChar",
                        "SetFilePointerEx",
                        "InterlockedExchangeAdd",
                        "CreateThread",
                        "SetUnhandledExceptionFilter",
                        "IsProcessorFeaturePresent",
                        "ExitThread",
                        "DecodePointer",
                        "TerminateProcess",
                        "GetModuleHandleExW",
                        "ReadConsoleW",
                        "GetCurrentThreadId",
                        "GetProcAddress",
                        "SleepEx",
                        "WriteConsoleW",
                        "InitializeCriticalSectionAndSpinCount",
                        "HeapFree",
                        "EnterCriticalSection",
                        "TerminateThread",
                        "SetEvent",
                        "QueryPerformanceCounter",
                        "TlsAlloc",
                        "VirtualProtect",
                        "FlushFileBuffers",
                        "RtlUnwind",
                        "LeaveCriticalSection",
                        "GetStartupInfoW",
                        "GetUserDefaultLCID",
                        "GetProcessHeap",
                        "FindNextFileW",
                        "ResetEvent",
                        "IsValidLocale",
                        "FindFirstFileExW",
                        "WaitForMultipleObjects",
                        "CreateEventW",
                        "CreateFileW",
                        "GetFileType",
                        "TlsSetValue",
                        "ExitProcess",
                        "InterlockedIncrement",
                        "GetLastError",
                        "LCMapStringW",
                        "GetConsoleCP",
                        "GetEnvironmentStringsW",
                        "WaitForSingleObjectEx",
                        "GetQueuedCompletionStatus",
                        "GetCurrentProcessId",
                        "CreateIoCompletionPort",
                        "GetCommandLineW",
                        "WideCharToMultiByte",
                        "HeapSize",
                        "GetCommandLineA",
                        "InterlockedCompareExchange",
                        "RaiseException",
                        "TlsFree",
                        "ReadFile",
                        "CloseHandle",
                        "GetACP",
                        "GetModuleHandleW",
                        "IsValidCodePage",
                        "PostQueuedCompletionStatus",
                        "GetOEMCP"
                    ],
                    "library_name": "KERNEL32.dll"
                },
                {
                    "imported_functions": [
                        "setsockopt",
                        "getaddrinfo",
                        "getsockopt",
                        "WSARecv",
                        "WSASend",
                        "ioctlsocket",
                        "WSAStartup",
                        "WSAGetLastError",
                        "freeaddrinfo",
                        "WSASocketW",
                        "WSASetLastError",
                        "WSACleanup",
                        "closesocket",
                        "select",
                        "connect"
                    ],
                    "library_name": "WS2_32.dll"
                }
            ],
            "machine_type": 332,
            "resource_details": [
                {
                    "chi2": 485204.90625,
                    "entropy": 4.82429313659668,
                    "filetype": "Data",
                    "lang": "ENGLISH US",
                    "sha256": "4c3b4abdcc58d93a7d4625d4bc8a761909779db98d26d4efa288fe878abe18c0",
                    "type": "RT_ICON"
                },
                {
                    "chi2": 6245.470703125,
                    "entropy": 7.443241119384766,
                    "filetype": "image/x-png",
                    "lang": "ENGLISH US",
                    "sha256": "59606f95415218da016b3035d6db01aef99009c32cbb9225295161e9cbde599e",
                    "type": "RT_ICON"
                },
                {
                    "chi2": 350735.3125,
                    "entropy": 2.143496036529541,
                    "filetype": "Data",
                    "lang": "ENGLISH US",
                    "sha256": "9282ef76bd7caf21b082ec5372036737a274f4dcde6754b44a14e82f7fc44250",
                    "type": "RT_ICON"
                },
                {
                    "chi2": 254847.578125,
                    "entropy": 1.949556827545166,
                    "filetype": "Data",
                    "lang": "ENGLISH US",
                    "sha256": "0f21d4638acea2a29935821118a405870571395ae6ade17d42acdfd14d926d48",
                    "type": "RT_ICON"
                },
                {
                    "chi2": 244366.40625,
                    "entropy": 1.2432926893234253,
                    "filetype": "Data",
                    "lang": "ENGLISH US",
                    "sha256": "3cf96c4d0f81d50f1ecde1534f7945a48ff5b19c8d0b271647385b0dda219919",
                    "type": "RT_ICON"
                },
                {
                    "chi2": 7433.16015625,
                    "entropy": 7.482458114624023,
                    "filetype": "image/x-png",
                    "lang": "ENGLISH US",
                    "sha256": "0b47c4dbebef9b67af29ce925d575a67b12c998e8d6790f938b262477fd75a74",
                    "type": "RT_ICON"
                },
                {
                    "chi2": 957898.5625,
                    "entropy": 2.582768440246582,
                    "filetype": "Data",
                    "lang": "ENGLISH US",
                    "sha256": "c47e69dfa46836e856531e341cbbe649d011400e16e1af2bc1a854d648937fe1",
                    "type": "RT_ICON"
                },
                {
                    "chi2": 536895.9375,
                    "entropy": 2.6851232051849365,
                    "filetype": "Data",
                    "lang": "ENGLISH US",
                    "sha256": "e133a3834f112a6b436ca01cf5be9762b09ef5903c3a3b4ee713687dbc77e12c",
                    "type": "RT_ICON"
                },
                {
                    "chi2": 231960.109375,
                    "entropy": 2.697172164916992,
                    "filetype": "Data",
                    "lang": "ENGLISH US",
                    "sha256": "8d33b5052feadd6b5970af4783ee1ec4a9d24942b7732e98ec7e9f8aaf983533",
                    "type": "RT_ICON"
                },
                {
                    "chi2": 58468.6953125,
                    "entropy": 2.8702428340911865,
                    "filetype": "Data",
                    "lang": "ENGLISH US",
                    "sha256": "1f5e6628a542770910dddfe17bdc51fe41afbe5c00318202f56854f51746f7e8",
                    "type": "RT_ICON"
                },
                {
                    "chi2": 27552.00390625,
                    "entropy": 6.951560974121094,
                    "filetype": "Data",
                    "lang": "ENGLISH US",
                    "sha256": "84749f4097a47accbd3fb2e7c58f7e1ed86439698fbc6e4f39a466fd408b54d5",
                    "type": "RT_STRING"
                },
                {
                    "chi2": 1823.2001953125,
                    "entropy": 1.9192407131195068,
                    "filetype": "Data",
                    "lang": "ENGLISH US",
                    "sha256": "6eb54801f91b6d8effccbfaefe6b2d7705a274a75940e6226e24e0d4ec58c396",
                    "type": "RT_GROUP_ICON"
                },
                {
                    "chi2": 9184.8486328125,
                    "entropy": 3.04154372215271,
                    "filetype": "Data",
                    "lang": "ENGLISH US",
                    "sha256": "36bf55fddab2557f1aa89bd78e6e36138847fe8f0b71a76c2d48fe1fd022b729",
                    "type": "RT_GROUP_ICON"
                },
                {
                    "chi2": 6246.07470703125,
                    "entropy": 5.086388111114502,
                    "filetype": "application/xml",
                    "lang": "ENGLISH US",
                    "sha256": "e6f2fdcf3cb9690ef3890d5440e1d4bd18f75ee7d8fbb116a5376dbe2aba386f",
                    "type": "RT_MANIFEST"
                }
            ],
            "resource_langs": {
                "ENGLISH US": 14
            },
            "resource_types": {
                "RT_GROUP_ICON": 2,
                "RT_ICON": 10,
                "RT_MANIFEST": 1,
                "RT_STRING": 1
            },
            "rich_pe_header_hash": "b92d4cd5bc503b4d17c7cfe1f1273430",
            "sections": [
                {
                    "chi2": 682167.88,
                    "entropy": 6.63,
                    "flags": "rx",
                    "md5": "230e00d73d28df74e141e9f0f011d5e3",
                    "name": ".text",
                    "raw_size": 128000,
                    "virtual_address": 4096,
                    "virtual_size": 127501
                },
                {
                    "chi2": 2582538.25,
                    "entropy": 5.31,
                    "flags": "r",
                    "md5": "20192c8f7f4d91cfe83e4aa9b2492ad5",
                    "name": ".rdata",
                    "raw_size": 63488,
                    "virtual_address": 135168,
                    "virtual_size": 63182
                },
                {
                    "chi2": 12395327.0,
                    "entropy": 6.68,
                    "flags": "rw",
                    "md5": "e14ccde4ae9536fcad5a4052a1387fc3",
                    "name": ".data",
                    "raw_size": 687104,
                    "virtual_address": 200704,
                    "virtual_size": 691080
                },
                {
                    "chi2": 100961.5,
                    "entropy": 3.12,
                    "flags": "r",
                    "md5": "3f9add117cff952c176a0ae9a9ea1ead",
                    "name": ".gfids",
                    "raw_size": 1024,
                    "virtual_address": 892928,
                    "virtual_size": 780
                },
                {
                    "chi2": 130049.0,
                    "entropy": 0.02,
                    "flags": "rw",
                    "md5": "1f354d76203061bfdd5a53dae48d5435",
                    "name": ".tls",
                    "raw_size": 512,
                    "virtual_address": 897024,
                    "virtual_size": 9
                },
                {
                    "chi2": 2600172.75,
                    "entropy": 4.52,
                    "flags": "r",
                    "md5": "775483b138bad70a1be458b40bf0999f",
                    "name": ".rsrc",
                    "raw_size": 60416,
                    "virtual_address": 901120,
                    "virtual_size": 60232
                }
            ],
            "timestamp": 1509699582
        },
        "reputation": 0,
        "sha1": "dd2574ee732ffed917b1595e38d4772f628f6c9e",
        "sha256": "00065a40f758b8ff02c32f5934250e8448e6328ef37678e15e8df101544640c6",
        "size": 941568,
        "ssdeep": "12288:cQCo9cTgxRUK9k7CkSCgrpXBMD386rwh0ckXk+ccip7R:cQCY2gjUK9kKCUX2LpGJ+",
        "tags": [
            "peexe"
        ],
        "times_submitted": 1,
        "total_votes": {
            "harmless": 0,
            "malicious": 0
        },
        "trid": [
            {
                "file_type": "Win64 Executable (generic)",
                "probability": 52.9
            },
            {
                "file_type": "Win16 NE executable (generic)",
                "probability": 26.9
            },
            {
                "file_type": "Win32 Executable (generic)",
                "probability": 8.6
            },
            {
                "file_type": "OS/2 Executable (generic)",
                "probability": 3.8
            },
            {
                "file_type": "Generic Win/DOS Executable",
                "probability": 3.8
            }
        ],
        "type_description": "Win32 EXE",
        "type_extension": "exe",
        "type_tag": "peexe",
        "unique_sources": 1,
        "vhash": "095066655d651d151az6iz1bzf7z"
    },
    "id": "00065a40f758b8ff02c32f5934250e8448e6328ef37678e15e8df101544640c6",
    "links": {
        "self": "https://www.virustotal.com/api/v3/files/00065a40f758b8ff02c32f5934250e8448e6328ef37678e15e8df101544640c6"
    },
    "type": "file"
}