{
    "attributes": {
        "authentihash": "95c8dbfe80aad5636d0c900284c6d18eec141ab987062313579e2cfb6cfde098",
        "creation_date": 1501547701,
        "first_submission_date": 1509573983,
        "last_analysis_date": 1519307360,
        "last_analysis_results": {
            "ALYac": {
                "category": "undetected",
                "engine_name": "ALYac",
                "engine_update": "20180222",
                "engine_version": "1.1.1.5",
                "method": "blacklist",
                "result": null
            },
            "AVG": {
                "category": "malicious",
                "engine_name": "AVG",
                "engine_update": "20180222",
                "engine_version": "18.1.3800.0",
                "method": "blacklist",
                "result": "Win32:Malware-gen"
            },
            "AVware": {
                "category": "malicious",
                "engine_name": "AVware",
                "engine_update": "20180222",
                "engine_version": "1.5.0.42",
                "method": "blacklist",
                "result": "Trojan.Win32.Generic!BT"
            },
            "Ad-Aware": {
                "category": "undetected",
                "engine_name": "Ad-Aware",
                "engine_update": "20180222",
                "engine_version": "3.0.3.1010",
                "method": "blacklist",
                "result": null
            },
            "AegisLab": {
                "category": "undetected",
                "engine_name": "AegisLab",
                "engine_update": "20180222",
                "engine_version": "4.2",
                "method": "blacklist",
                "result": null
            },
            "AhnLab-V3": {
                "category": "malicious",
                "engine_name": "AhnLab-V3",
                "engine_update": "20180222",
                "engine_version": "3.11.3.19504",
                "method": "blacklist",
                "result": "Downloader/Win32.Tovkater.R217663"
            },
            "Alibaba": {
                "category": "type-unsupported",
                "engine_name": "Alibaba",
                "engine_update": "20180222",
                "engine_version": "1.0",
                "method": "blacklist",
                "result": null
            },
            "Antiy-AVL": {
                "category": "undetected",
                "engine_name": "Antiy-AVL",
                "engine_update": "20180222",
                "engine_version": "3.0.0.1",
                "method": "blacklist",
                "result": null
            },
            "Arcabit": {
                "category": "malicious",
                "engine_name": "Arcabit",
                "engine_update": "20180222",
                "engine_version": "1.0.0.830",
                "method": "blacklist",
                "result": "Trojan.Generic.D5DF0F1"
            },
            "Avast": {
                "category": "malicious",
                "engine_name": "Avast",
                "engine_update": "20180222",
                "engine_version": "18.1.3800.0",
                "method": "blacklist",
                "result": "Win32:Malware-gen"
            },
            "Avast-Mobile": {
                "category": "undetected",
                "engine_name": "Avast-Mobile",
                "engine_update": "20180221",
                "engine_version": "180221-04",
                "method": "blacklist",
                "result": null
            },
            "Avira": {
                "category": "malicious",
                "engine_name": "Avira",
                "engine_update": "20180222",
                "engine_version": "8.3.3.6",
                "method": "blacklist",
                "result": "TR/Tovkater.ujryh"
            },
            "Baidu": {
                "category": "malicious",
                "engine_name": "Baidu",
                "engine_update": "20180208",
                "engine_version": "1.0.0.2",
                "method": "blacklist",
                "result": "Win32.Trojan.WisdomEyes.16070401.9500.9692"
            },
            "BitDefender": {
                "category": "malicious",
                "engine_name": "BitDefender",
                "engine_update": "20180222",
                "engine_version": "7.2",
                "method": "blacklist",
                "result": "Trojan.GenericKD.6156529"
            },
            "Bkav": {
                "category": "malicious",
                "engine_name": "Bkav",
                "engine_update": "20180212",
                "engine_version": "1.3.0.9466",
                "method": "blacklist",
                "result": "HW32.Packed.90FF"
            },
            "CAT-QuickHeal": {
                "category": "malicious",
                "engine_name": "CAT-QuickHeal",
                "engine_update": "20180222",
                "engine_version": "14.00",
                "method": "blacklist",
                "result": "Genvariant.Mikey"
            },
            "CMC": {
                "category": "undetected",
                "engine_name": "CMC",
                "engine_update": "20180222",
                "engine_version": "1.1.0.977",
                "method": "blacklist",
                "result": null
            },
            "ClamAV": {
                "category": "undetected",
                "engine_name": "ClamAV",
                "engine_update": "20180222",
                "engine_version": "0.99.2.0",
                "method": "blacklist",
                "result": null
            },
            "Comodo": {
                "category": "malicious",
                "engine_name": "Comodo",
                "engine_update": "20180222",
                "engine_version": "28564",
                "method": "blacklist",
                "result": "Application.Win32.InstallMonster.DX"
            },
            "CrowdStrike": {
                "category": "malicious",
                "engine_name": "CrowdStrike",
                "engine_update": "20170201",
                "engine_version": "1.0",
                "method": "blacklist",
                "result": "malicious_confidence_100% (D)"
            },
            "Cybereason": {
                "category": "malicious",
                "engine_name": "Cybereason",
                "engine_update": "20180205",
                "engine_version": "1.2.27",
                "method": "blacklist",
                "result": "malicious.eaacd5"
            },
            "Cylance": {
                "category": "undetected",
                "engine_name": "Cylance",
                "engine_update": "20180222",
                "engine_version": "2.3.1.101",
                "method": "blacklist",
                "result": null
            },
            "Cyren": {
                "category": "malicious",
                "engine_name": "Cyren",
                "engine_update": "20180222",
                "engine_version": "5.4.30.7",
                "method": "blacklist",
                "result": "W32/Trojan.JDTT-3889"
            },
            "DrWeb": {
                "category": "malicious",
                "engine_name": "DrWeb",
                "engine_update": "20180222",
                "engine_version": "7.0.28.2020",
                "method": "blacklist",
                "result": "Trojan.InstallMonster.2406"
            },
            "ESET-NOD32": {
                "category": "malicious",
                "engine_name": "ESET-NOD32",
                "engine_update": "20180222",
                "engine_version": "16947",
                "method": "blacklist",
                "result": "Win32/TrojanDownloader.Tovkater.GA"
            },
            "Emsisoft": {
                "category": "malicious",
                "engine_name": "Emsisoft",
                "engine_update": "20180222",
                "engine_version": "4.0.2.899",
                "method": "blacklist",
                "result": "Trojan.GenericKD.6156529 (B)"
            },
            "Endgame": {
                "category": "malicious",
                "engine_name": "Endgame",
                "engine_update": "20180216",
                "engine_version": "1.2.1",
                "method": "blacklist",
                "result": "malicious (high confidence)"
            },
            "F-Prot": {
                "category": "undetected",
                "engine_name": "F-Prot",
                "engine_update": "20180222",
                "engine_version": "4.7.1.166",
                "method": "blacklist",
                "result": null
            },
            "F-Secure": {
                "category": "malicious",
                "engine_name": "F-Secure",
                "engine_update": "20180222",
                "engine_version": "11.0.19100.45",
                "method": "blacklist",
                "result": "Trojan.GenericKD.6156529"
            },
            "Fortinet": {
                "category": "malicious",
                "engine_name": "Fortinet",
                "engine_update": "20180222",
                "engine_version": "5.4.247.0",
                "method": "blacklist",
                "result": "W32/Tovkater.FQ!tr"
            },
            "GData": {
                "category": "malicious",
                "engine_name": "GData",
                "engine_update": "20180222",
                "engine_version": "A:25.16111B:25.11644",
                "method": "blacklist",
                "result": "Trojan.GenericKD.6156529"
            },
            "Ikarus": {
                "category": "malicious",
                "engine_name": "Ikarus",
                "engine_update": "20180222",
                "engine_version": "0.1.5.2",
                "method": "blacklist",
                "result": "Trojan-Downloader.Win32.Tovkater"
            },
            "Invincea": {
                "category": "malicious",
                "engine_name": "Invincea",
                "engine_update": "20180121",
                "engine_version": "6.3.4.26036",
                "method": "blacklist",
                "result": "heuristic"
            },
            "Jiangmin": {
                "category": "undetected",
                "engine_name": "Jiangmin",
                "engine_update": "20180222",
                "engine_version": "16.0.100",
                "method": "blacklist",
                "result": null
            },
            "K7AntiVirus": {
                "category": "malicious",
                "engine_name": "K7AntiVirus",
                "engine_update": "20180222",
                "engine_version": "10.40.26289",
                "method": "blacklist",
                "result": "Trojan-Downloader ( 0051adb91 )"
            },
            "K7GW": {
                "category": "malicious",
                "engine_name": "K7GW",
                "engine_update": "20180222",
                "engine_version": "10.40.26290",
                "method": "blacklist",
                "result": "Trojan-Downloader ( 0051adb91 )"
            },
            "Kaspersky": {
                "category": "undetected",
                "engine_name": "Kaspersky",
                "engine_update": "20180222",
                "engine_version": "15.0.1.13",
                "method": "blacklist",
                "result": null
            },
            "Kingsoft": {
                "category": "undetected",
                "engine_name": "Kingsoft",
                "engine_update": "20180222",
                "engine_version": "2013.8.14.323",
                "method": "blacklist",
                "result": null
            },
            "MAX": {
                "category": "malicious",
                "engine_name": "MAX",
                "engine_update": "20180222",
                "engine_version": "2017.11.15.1",
                "method": "blacklist",
                "result": "malware (ai score=95)"
            },
            "Malwarebytes": {
                "category": "undetected",
                "engine_name": "Malwarebytes",
                "engine_update": "20180222",
                "engine_version": "2.1.1.1115",
                "method": "blacklist",
                "result": null
            },
            "McAfee": {
                "category": "malicious",
                "engine_name": "McAfee",
                "engine_update": "20180221",
                "engine_version": "6.0.6.653",
                "method": "blacklist",
                "result": "Artemis!F6DF0DDEAACD"
            },
            "McAfee-GW-Edition": {
                "category": "malicious",
                "engine_name": "McAfee-GW-Edition",
                "engine_update": "20180222",
                "engine_version": "v2015",
                "method": "blacklist",
                "result": "BehavesLike.Win32.Downloader.cc"
            },
            "MicroWorld-eScan": {
                "category": "malicious",
                "engine_name": "MicroWorld-eScan",
                "engine_update": "20180222",
                "engine_version": "14.0.297.0",
                "method": "blacklist",
                "result": "Trojan.GenericKD.6156529"
            },
            "Microsoft": {
                "category": "undetected",
                "engine_name": "Microsoft",
                "engine_update": "20180222",
                "engine_version": "1.1.14500.5",
                "method": "blacklist",
                "result": null
            },
            "NANO-Antivirus": {
                "category": "malicious",
                "engine_name": "NANO-Antivirus",
                "engine_update": "20180222",
                "engine_version": "1.0.100.21498",
                "method": "blacklist",
                "result": "Trojan.Win32.InstallMonster.eusmce"
            },
            "Paloalto": {
                "category": "malicious",
                "engine_name": "Paloalto",
                "engine_update": "20180222",
                "engine_version": "1.0",
                "method": "blacklist",
                "result": "generic.ml"
            },
            "Panda": {
                "category": "malicious",
                "engine_name": "Panda",
                "engine_update": "20180222",
                "engine_version": "4.6.4.2",
                "method": "blacklist",
                "result": "Trj/Genetic.gen"
            },
            "Qihoo-360": {
                "category": "undetected",
                "engine_name": "Qihoo-360",
                "engine_update": "20180222",
                "engine_version": "1.0.0.1120",
                "method": "blacklist",
                "result": null
            },
            "Rising": {
                "category": "undetected",
                "engine_name": "Rising",
                "engine_update": "20180222",
                "engine_version": "25.0.0.1",
                "method": "blacklist",
                "result": null
            },
            "SUPERAntiSpyware": {
                "category": "undetected",
                "engine_name": "SUPERAntiSpyware",
                "engine_update": "20180221",
                "engine_version": "5.6.0.1032",
                "method": "blacklist",
                "result": null
            },
            "SentinelOne": {
                "category": "malicious",
                "engine_name": "SentinelOne",
                "engine_update": "20180115",
                "engine_version": "1.0.12.202",
                "method": "blacklist",
                "result": "static engine - malicious"
            },
            "Sophos": {
                "category": "malicious",
                "engine_name": "Sophos",
                "engine_update": "20180222",
                "engine_version": "4.98.0",
                "method": "blacklist",
                "result": "Mal/Generic-S"
            },
            "Symantec": {
                "category": "malicious",
                "engine_name": "Symantec",
                "engine_update": "20180222",
                "engine_version": "1.5.0.0",
                "method": "blacklist",
                "result": "Trojan.Gen.2"
            },
            "SymantecMobileInsight": {
                "category": "type-unsupported",
                "engine_name": "SymantecMobileInsight",
                "engine_update": "20180220",
                "engine_version": "1.0.0.35_220",
                "method": "blacklist",
                "result": null
            },
            "Tencent": {
                "category": "malicious",
                "engine_name": "Tencent",
                "engine_update": "20180222",
                "engine_version": "1.0.0.1",
                "method": "blacklist",
                "result": "Win32.Trojan.Generic.Efkx"
            },
            "TheHacker": {
                "category": "undetected",
                "engine_name": "TheHacker",
                "engine_update": "20180219",
                "engine_version": "6.8.0.5.2426",
                "method": "blacklist",
                "result": null
            },
            "TrendMicro-HouseCall": {
                "category": "malicious",
                "engine_name": "TrendMicro-HouseCall",
                "engine_update": "20180222",
                "engine_version": "9.950.0.1006",
                "method": "blacklist",
                "result": "TROJ_GEN.R03BC0PK417"
            },
            "Trustlook": {
                "category": "type-unsupported",
                "engine_name": "Trustlook",
                "engine_update": "20180222",
                "engine_version": "2",
                "method": "blacklist",
                "result": null
            },
            "VBA32": {
                "category": "undetected",
                "engine_name": "VBA32",
                "engine_update": "20180222",
                "engine_version": "3.12.28.0",
                "method": "blacklist",
                "result": null
            },
            "VIPRE": {
                "category": "malicious",
                "engine_name": "VIPRE",
                "engine_update": "20180222",
                "engine_version": "64782",
                "method": "blacklist",
                "result": "Trojan.Win32.Generic!BT"
            },
            "ViRobot": {
                "category": "undetected",
                "engine_name": "ViRobot",
                "engine_update": "20180222",
                "engine_version": "2014.3.20.0",
                "method": "blacklist",
                "result": null
            },
            "Webroot": {
                "category": "undetected",
                "engine_name": "Webroot",
                "engine_update": "20180222",
                "engine_version": "1.0.0.207",
                "method": "blacklist",
                "result": null
            },
            "WhiteArmor": {
                "category": "undetected",
                "engine_name": "WhiteArmor",
                "engine_update": "20180205",
                "engine_version": null,
                "method": "blacklist",
                "result": null
            },
            "Yandex": {
                "category": "malicious",
                "engine_name": "Yandex",
                "engine_update": "20180222",
                "engine_version": "5.5.1.3",
                "method": "blacklist",
                "result": "Trojan.DL.Tovkater!"
            },
            "Zillya": {
                "category": "malicious",
                "engine_name": "Zillya",
                "engine_update": "20180221",
                "engine_version": "2.0.0.3497",
                "method": "blacklist",
                "result": "Trojan.GenericKD.Win32.90990"
            },
            "ZoneAlarm": {
                "category": "undetected",
                "engine_name": "ZoneAlarm",
                "engine_update": "20180222",
                "engine_version": "1.0",
                "method": "blacklist",
                "result": null
            },
            "Zoner": {
                "category": "undetected",
                "engine_name": "Zoner",
                "engine_update": "20180222",
                "engine_version": "1.0",
                "method": "blacklist",
                "result": null
            },
            "eGambit": {
                "category": "undetected",
                "engine_name": "eGambit",
                "engine_update": "20180222",
                "engine_version": "v4.3.5",
                "method": "blacklist",
                "result": null
            },
            "nProtect": {
                "category": "undetected",
                "engine_name": "nProtect",
                "engine_update": "20180222",
                "engine_version": "2018-02-22.02",
                "method": "blacklist",
                "result": null
            }
        },
        "last_analysis_stats": {
            "confirmed-timeout": 0,
            "failure": 0,
            "harmless": 0,
            "malicious": 40,
            "suspicious": 0,
            "timeout": 0,
            "type-unsupported": 3,
            "undetected": 26
        },
        "last_modification_date": 1519307386,
        "last_submission_date": 1509573983,
        "magic": "PE32 executable for MS Windows (GUI) Intel 80386 32-bit",
        "md5": "f6df0ddeaacd57a215cd0c8c98ec10cf",
        "meaningful_name": "jinm Content Installer 20",
        "names": [
            "jinm Content Installer 20",
            "1002-fb325cf0223a0f71a00cec1a465b022069d029c2",
            "000640E8B912913A88AE23A799AE38E105902DDB427CE05B291008276D9890C3"
        ],
        "packers": {
            "F-PROT": "NSIS"
        },
        "pe_info": {
            "entry_point": 13117,
            "imphash": "b34f154ec913d2d2c435cbd644e91687",
            "import_list": [
                {
                    "imported_functions": [
                        "RegCreateKeyExW",
                        "RegEnumValueW",
                        "RegCloseKey",
                        "OpenProcessToken",
                        "RegSetValueExW",
                        "RegDeleteValueW",
                        "RegOpenKeyExW",
                        "SetFileSecurityW",
                        "AdjustTokenPrivileges",
                        "LookupPrivilegeValueW",
                        "RegEnumKeyW",
                        "RegDeleteKeyW",
                        "RegQueryValueExW"
                    ],
                    "library_name": "ADVAPI32.dll"
                },
                {
                    "imported_functions": [
                        "SetFilePointer",
                        "GetLastError",
                        "CopyFileW",
                        "GetShortPathNameW",
                        "lstrlenA",
                        "GetModuleFileNameW",
                        "GlobalFree",
                        "WaitForSingleObject",
                        "GetExitCodeProcess",
                        "GetTickCount",
                        "GlobalUnlock",
                        "GetFileAttributesW",
                        "lstrlenW",
                        "GetCurrentProcess",
                        "CompareFileTime",
                        "GetWindowsDirectoryW",
                        "GetFileSize",
                        "SetFileTime",
                        "GetCommandLineW",
                        "WideCharToMultiByte",
                        "SetErrorMode",
                        "MultiByteToWideChar",
                        "CreateDirectoryW",
                        "DeleteFileW",
                        "lstrcatW",
                        "ReadFile",
                        "lstrcpyA",
                        "GetPrivateProfileStringW",
                        "WritePrivateProfileStringW",
                        "GetTempFileNameW",
                        "lstrcpynW",
                        "RemoveDirectoryW",
                        "ExpandEnvironmentStringsW",
                        "GetFullPathNameW",
                        "lstrcmpiA",
                        "CreateThread",
                        "SetEnvironmentVariableW",
                        "MoveFileExW",
                        "GetModuleHandleA",
                        "GetSystemDirectoryW",
                        "GetDiskFreeSpaceW",
                        "FindNextFileW",
                        "GetTempPathW",
                        "CloseHandle",
                        "FindFirstFileW",
                        "lstrcmpW",
                        "GlobalLock",
                        "GetModuleHandleW",
                        "GetProcAddress",
                        "FreeLibrary",
                        "SearchPathW",
                        "lstrcmpiW",
                        "SetCurrentDirectoryW",
                        "WriteFile",
                        "CreateFileW",
                        "GlobalAlloc",
                        "CreateProcessW",
                        "FindClose",
                        "Sleep",
                        "MoveFileW",
                        "SetFileAttributesW",
                        "ExitProcess",
                        "GetVersion",
                        "LoadLibraryExW",
                        "MulDiv"
                    ],
                    "library_name": "KERNEL32.dll"
                },
                {
                    "imported_functions": [
                        "EmptyClipboard",
                        "GetMessagePos",
                        "EndPaint",
                        "EndDialog",
                        "LoadBitmapW",
                        "SetClassLongW",
                        "DefWindowProcW",
                        "CharPrevW",
                        "PostQuitMessage",
                        "ShowWindow",
                        "SetWindowPos",
                        "SendMessageTimeoutW",
                        "GetSystemMetrics",
                        "SetWindowLongW",
                        "IsWindow",
                        "PeekMessageW",
                        "GetWindowRect",
                        "EnableWindow",
                        "GetDC",
                        "DialogBoxParamW",
                        "AppendMenuW",
                        "IsWindowEnabled",
                        "GetDlgItemTextW",
                        "MessageBoxIndirectW",
                        "GetSysColor",
                        "CheckDlgButton",
                        "DispatchMessageW",
                        "CreateDialogParamW",
                        "ReleaseDC",
                        "BeginPaint",
                        "CreatePopupMenu",
                        "SendMessageW",
                        "SetWindowTextW",
                        "SetClipboardData",
                        "wsprintfW",
                        "FindWindowExW",
                        "IsWindowVisible",
                        "DestroyWindow",
                        "GetClientRect",
                        "SetTimer",
                        "GetDlgItem",
                        "SetForegroundWindow",
                        "SystemParametersInfoW",
                        "DrawTextW",
                        "LoadImageW",
                        "EnableMenuItem",
                        "ScreenToClient",
                        "InvalidateRect",
                        "wsprintfA",
                        "CharNextW",
                        "CallWindowProcW",
                        "TrackPopupMenu",
                        "RegisterClassW",
                        "FillRect",
                        "CharNextA",
                        "SetDlgItemTextW",
                        "LoadCursorW",
                        "GetSystemMenu",
                        "GetClassInfoW",
                        "CreateWindowExW",
                        "GetWindowLongW",
                        "CloseClipboard",
                        "SetCursor",
                        "ExitWindowsEx",
                        "OpenClipboard"
                    ],
                    "library_name": "USER32.dll"
                },
                {
                    "imported_functions": [
                        "SHBrowseForFolderW",
                        "SHFileOperationW",
                        "SHGetPathFromIDListW",
                        "SHGetSpecialFolderLocation",
                        "ShellExecuteExW",
                        "SHGetFileInfoW"
                    ],
                    "library_name": "SHELL32.dll"
                },
                {
                    "imported_functions": [
                        "OleUninitialize",
                        "CoTaskMemFree",
                        "OleInitialize",
                        "CoCreateInstance"
                    ],
                    "library_name": "ole32.dll"
                },
                {
                    "imported_functions": [
                        "GetDeviceCaps",
                        "CreateFontIndirectW",
                        "SelectObject",
                        "CreateBrushIndirect",
                        "SetBkMode",
                        "SetBkColor",
                        "DeleteObject",
                        "SetTextColor"
                    ],
                    "library_name": "GDI32.dll"
                },
                {
                    "imported_functions": [
                        "ImageList_Create",
                        "Ord(17)",
                        "ImageList_Destroy",
                        "ImageList_AddMasked"
                    ],
                    "library_name": "COMCTL32.dll"
                }
            ],
            "machine_type": 332,
            "overlay": {
                "chi2": 244.98443603515625,
                "entropy": 7.998361110687256,
                "filetype": "data",
                "md5": "6dfe927bd1391551604e7ec705de4fa8",
                "offset": 37376,
                "size": 107625
            },
            "resource_details": [
                {
                    "chi2": 39937.27734375,
                    "entropy": 3.506646156311035,
                    "filetype": "data",
                    "lang": "ENGLISH US",
                    "sha256": "7b99f0e5e7a3db2de9f02622f1ac8a0c9599492dd00196b3cb3c2ed15bbde57d",
                    "type": "RT_ICON"
                },
                {
                    "chi2": 26260.0,
                    "entropy": 2.6617395877838135,
                    "filetype": "data",
                    "lang": "ENGLISH US",
                    "sha256": "fecdb955f8d7f1c219ff8167f90b64f3cb52e53337494577ff73c0ac1dafcd96",
                    "type": "RT_DIALOG"
                },
                {
                    "chi2": 29554.447265625,
                    "entropy": 2.88094425201416,
                    "filetype": "data",
                    "lang": "ENGLISH US",
                    "sha256": "69897c784f1491eb3024b0d52c2897196a2e245974497fda1915db5fefcf8729",
                    "type": "RT_DIALOG"
                },
                {
                    "chi2": 10032.0068359375,
                    "entropy": 2.488246202468872,
                    "filetype": "data",
                    "lang": "ENGLISH US",
                    "sha256": "85025c8556952f6a651c2468c8a0d58853b0ba482be9ad5cd3060f216540dfc0",
                    "type": "RT_DIALOG"
                },
                {
                    "chi2": 1567.2001953125,
                    "entropy": 2.160964012145996,
                    "filetype": "data",
                    "lang": "ENGLISH US",
                    "sha256": "a0c9d012e2bf6b2fe05c2d97cb5594d97cf2f539e97935c12abd7a3562f4d9bf",
                    "type": "RT_GROUP_ICON"
                },
                {
                    "chi2": 60279.6328125,
                    "entropy": 3.36875581741333,
                    "filetype": "data",
                    "lang": "ENGLISH US",
                    "sha256": "9d139ea82cc04e13c696a84197d749627124499b584c84aba90f4386e6bfebe4",
                    "type": "RT_VERSION"
                },
                {
                    "chi2": 7847.880859375,
                    "entropy": 5.290104389190674,
                    "filetype": "ASCII text",
                    "lang": "ENGLISH US",
                    "sha256": "8249d8f316bf2331c71d02063c14c39562276c988289d19e03073262cb5117b1",
                    "type": "RT_MANIFEST"
                }
            ],
            "resource_langs": {
                "ENGLISH US": 7
            },
            "resource_types": {
                "RT_DIALOG": 3,
                "RT_GROUP_ICON": 1,
                "RT_ICON": 1,
                "RT_MANIFEST": 1,
                "RT_VERSION": 1
            },
            "sections": [
                {
                    "entropy": 6.41,
                    "md5": "a4aa79b85f4f9577fee22e9024b70fed",
                    "name": ".text",
                    "raw_size": 25600,
                    "virtual_address": 4096,
                    "virtual_size": 25197
                },
                {
                    "entropy": 5.15,
                    "md5": "2914bac53cd4485c9822093463e4eea6",
                    "name": ".rdata",
                    "raw_size": 5120,
                    "virtual_address": 32768,
                    "virtual_size": 5006
                },
                {
                    "entropy": 3.9,
                    "md5": "27aacd2e2ac878fab352ed8b14dc60df",
                    "name": ".data",
                    "raw_size": 1536,
                    "virtual_address": 40960,
                    "virtual_size": 418584
                },
                {
                    "entropy": 0.0,
                    "md5": "d41d8cd98f00b204e9800998ecf8427e",
                    "name": ".ndata",
                    "raw_size": 0,
                    "virtual_address": 462848,
                    "virtual_size": 688128
                },
                {
                    "entropy": 4.28,
                    "md5": "326db9ae7c3b1108e208557a1ea62c7f",
                    "name": ".rsrc",
                    "raw_size": 4096,
                    "virtual_address": 1150976,
                    "virtual_size": 3696
                }
            ],
            "timestamp": 1501547701
        },
        "reputation": 0,
        "sha1": "fb325cf0223a0f71a00cec1a465b022069d029c2",
        "sha256": "000640e8b912913a88ae23a799ae38e105902ddb427ce05b291008276d9890c3",
        "signature_info": {
            "comments": "sab Install  software 16",
            "copyright": "reax iStoneProds 6 All rights reserved.",
            "file version": "6.3.140.22",
            "internal name": "jinm Content Installer 20",
            "product": "linbelas NSIS 32 installer rrt"
        },
        "size": 145001,
        "ssdeep": "3072:mrV1c41UtsunDLxWKG/zSA0FziKwClDZCIMcZGfHB7zGcpvrPW638BFdI:mo4UlDGmxZxMck1GcZb82",
        "tags": [
            "nsis",
            "peexe",
            "overlay"
        ],
        "times_submitted": 1,
        "total_votes": {
            "harmless": 0,
            "malicious": 0
        },
        "trid": [
            {
                "file_type": "Win32 Executable MS Visual C++ (generic)",
                "probability": 64.5
            },
            {
                "file_type": "Win32 Dynamic Link Library (generic)",
                "probability": 13.6
            },
            {
                "file_type": "Win32 Executable (generic)",
                "probability": 9.3
            },
            {
                "file_type": "OS/2 Executable (generic)",
                "probability": 4.1
            },
            {
                "file_type": "Generic Win/DOS Executable",
                "probability": 4.1
            }
        ],
        "type_description": "Win32 EXE",
        "type_extension": "exe",
        "type_tag": "peexe",
        "unique_sources": 1,
        "vhash": "015056655d1c0510d043z800417z47z62z41fz"
    },
    "id": "000640e8b912913a88ae23a799ae38e105902ddb427ce05b291008276d9890c3",
    "links": {
        "self": "https://www.virustotal.com/api/v3/files/000640e8b912913a88ae23a799ae38e105902ddb427ce05b291008276d9890c3"
    },
    "type": "file"
}