{
    "attributes": {
        "authentihash": "c702b72036de0874c6c86d7c98998cc7abe74992cf08f33f0ad5b7e93d1ec349",
        "creation_date": 1536792262,
        "first_submission_date": 1541708271,
        "last_analysis_date": 1549438698,
        "last_analysis_results": {
            "ALYac": {
                "category": "malicious",
                "engine_name": "ALYac",
                "engine_update": "20190206",
                "engine_version": "1.1.1.5",
                "method": "blacklist",
                "result": "Gen:Variant.Fugrafa.865"
            },
            "AVG": {
                "category": "malicious",
                "engine_name": "AVG",
                "engine_update": "20190206",
                "engine_version": "18.4.3895.0",
                "method": "blacklist",
                "result": "Win32:AdwareX-gen [Adw]"
            },
            "Acronis": {
                "category": "malicious",
                "engine_name": "Acronis",
                "engine_update": "20190130",
                "engine_version": "1.0.1.40",
                "method": "blacklist",
                "result": "suspicious"
            },
            "Ad-Aware": {
                "category": "malicious",
                "engine_name": "Ad-Aware",
                "engine_update": "20190206",
                "engine_version": "3.0.5.370",
                "method": "blacklist",
                "result": "Gen:Variant.Fugrafa.865"
            },
            "AegisLab": {
                "category": "undetected",
                "engine_name": "AegisLab",
                "engine_update": "20190206",
                "engine_version": "4.2",
                "method": "blacklist",
                "result": null
            },
            "AhnLab-V3": {
                "category": "malicious",
                "engine_name": "AhnLab-V3",
                "engine_update": "20190206",
                "engine_version": "3.14.1.22785",
                "method": "blacklist",
                "result": "PUP/Win32.Agent.R242738"
            },
            "Alibaba": {
                "category": "undetected",
                "engine_name": "Alibaba",
                "engine_update": "20180921",
                "engine_version": "0.1.0.2",
                "method": "blacklist",
                "result": null
            },
            "Antiy-AVL": {
                "category": "malicious",
                "engine_name": "Antiy-AVL",
                "engine_update": "20190206",
                "engine_version": "3.0.0.1",
                "method": "blacklist",
                "result": "GrayWare[AdWare]/Win32.Adposhel"
            },
            "Arcabit": {
                "category": "malicious",
                "engine_name": "Arcabit",
                "engine_update": "20190206",
                "engine_version": "1.0.0.837",
                "method": "blacklist",
                "result": "Trojan.Fugrafa.865"
            },
            "Avast": {
                "category": "malicious",
                "engine_name": "Avast",
                "engine_update": "20190206",
                "engine_version": "18.4.3895.0",
                "method": "blacklist",
                "result": "Win32:AdwareX-gen [Adw]"
            },
            "Avast-Mobile": {
                "category": "undetected",
                "engine_name": "Avast-Mobile",
                "engine_update": "20190206",
                "engine_version": "190206-00",
                "method": "blacklist",
                "result": null
            },
            "Avira": {
                "category": "malicious",
                "engine_name": "Avira",
                "engine_update": "20190206",
                "engine_version": "8.3.3.8",
                "method": "blacklist",
                "result": "ADWARE/Adware.Gen8"
            },
            "Babable": {
                "category": "undetected",
                "engine_name": "Babable",
                "engine_update": "20180917",
                "engine_version": "9107201",
                "method": "blacklist",
                "result": null
            },
            "Baidu": {
                "category": "undetected",
                "engine_name": "Baidu",
                "engine_update": "20190201",
                "engine_version": "1.0.0.2",
                "method": "blacklist",
                "result": null
            },
            "BitDefender": {
                "category": "malicious",
                "engine_name": "BitDefender",
                "engine_update": "20190206",
                "engine_version": "7.2",
                "method": "blacklist",
                "result": "Gen:Variant.Fugrafa.865"
            },
            "Bkav": {
                "category": "undetected",
                "engine_name": "Bkav",
                "engine_update": "20190201",
                "engine_version": "1.3.0.9899",
                "method": "blacklist",
                "result": null
            },
            "CAT-QuickHeal": {
                "category": "malicious",
                "engine_name": "CAT-QuickHeal",
                "engine_update": "20190205",
                "engine_version": "14.00",
                "method": "blacklist",
                "result": "Adware.Adposhel.S4238554"
            },
            "CMC": {
                "category": "undetected",
                "engine_name": "CMC",
                "engine_update": "20190206",
                "engine_version": "1.1.0.977",
                "method": "blacklist",
                "result": null
            },
            "ClamAV": {
                "category": "undetected",
                "engine_name": "ClamAV",
                "engine_update": "20190205",
                "engine_version": "0.101.1.0",
                "method": "blacklist",
                "result": null
            },
            "Comodo": {
                "category": "malicious",
                "engine_name": "Comodo",
                "engine_update": "20190206",
                "engine_version": "30388",
                "method": "blacklist",
                "result": "Application.Win32.Adposhel.R@7xj4ru"
            },
            "CrowdStrike": {
                "category": "undetected",
                "engine_name": "CrowdStrike",
                "engine_update": "20181023",
                "engine_version": "1.0",
                "method": "blacklist",
                "result": null
            },
            "Cybereason": {
                "category": "malicious",
                "engine_name": "Cybereason",
                "engine_update": "20190109",
                "engine_version": "1.2.27",
                "method": "blacklist",
                "result": "malicious.4d2b94"
            },
            "Cylance": {
                "category": "malicious",
                "engine_name": "Cylance",
                "engine_update": "20190206",
                "engine_version": "2.3.1.101",
                "method": "blacklist",
                "result": "Unsafe"
            },
            "Cyren": {
                "category": "malicious",
                "engine_name": "Cyren",
                "engine_update": "20190206",
                "engine_version": "6.2.0.1",
                "method": "blacklist",
                "result": "W32/S-805f1569!Eldorado"
            },
            "DrWeb": {
                "category": "malicious",
                "engine_name": "DrWeb",
                "engine_update": "20190206",
                "engine_version": "7.0.34.11020",
                "method": "blacklist",
                "result": "Trojan.Adposhel.91"
            },
            "ESET-NOD32": {
                "category": "malicious",
                "engine_name": "ESET-NOD32",
                "engine_update": "20190206",
                "engine_version": "18829",
                "method": "blacklist",
                "result": "a variant of Win32/Adware.Adposhel.BQ"
            },
            "Emsisoft": {
                "category": "malicious",
                "engine_name": "Emsisoft",
                "engine_update": "20190206",
                "engine_version": "2018.4.0.1029",
                "method": "blacklist",
                "result": "Application.Generic (A)"
            },
            "Endgame": {
                "category": "malicious",
                "engine_name": "Endgame",
                "engine_update": "20181108",
                "engine_version": "3.0.2",
                "method": "blacklist",
                "result": "malicious (high confidence)"
            },
            "F-Prot": {
                "category": "malicious",
                "engine_name": "F-Prot",
                "engine_update": "20190206",
                "engine_version": "4.7.1.166",
                "method": "blacklist",
                "result": "W32/S-805f1569!Eldorado"
            },
            "F-Secure": {
                "category": "malicious",
                "engine_name": "F-Secure",
                "engine_update": "20190206",
                "engine_version": "12.0.86.52",
                "method": "blacklist",
                "result": "Adware.ADWARE/Adware.Gen8"
            },
            "Fortinet": {
                "category": "malicious",
                "engine_name": "Fortinet",
                "engine_update": "20190206",
                "engine_version": "5.4.247.0",
                "method": "blacklist",
                "result": "Adware/Adposhel"
            },
            "GData": {
                "category": "malicious",
                "engine_name": "GData",
                "engine_update": "20190206",
                "engine_version": "A:25.20515B:25.14319",
                "method": "blacklist",
                "result": "Gen:Variant.Fugrafa.865"
            },
            "Ikarus": {
                "category": "malicious",
                "engine_name": "Ikarus",
                "engine_update": "20190206",
                "engine_version": "0.1.5.2",
                "method": "blacklist",
                "result": "Trojan.Win32.Esendi"
            },
            "Invincea": {
                "category": "malicious",
                "engine_name": "Invincea",
                "engine_update": "20181128",
                "engine_version": "6.3.6.26157",
                "method": "blacklist",
                "result": "heuristic"
            },
            "Jiangmin": {
                "category": "malicious",
                "engine_name": "Jiangmin",
                "engine_update": "20190206",
                "engine_version": "16.0.100",
                "method": "blacklist",
                "result": "AdWare.Adposhel.kec"
            },
            "K7AntiVirus": {
                "category": "malicious",
                "engine_name": "K7AntiVirus",
                "engine_update": "20190206",
                "engine_version": "11.27.29903",
                "method": "blacklist",
                "result": "Adware ( 005409e11 )"
            },
            "K7GW": {
                "category": "malicious",
                "engine_name": "K7GW",
                "engine_update": "20190206",
                "engine_version": "11.27.29901",
                "method": "blacklist",
                "result": "Adware ( 005409e11 )"
            },
            "Kaspersky": {
                "category": "malicious",
                "engine_name": "Kaspersky",
                "engine_update": "20190206",
                "engine_version": "15.0.1.13",
                "method": "blacklist",
                "result": "not-a-virus:AdWare.Win32.Adposhel.ovzo"
            },
            "Kingsoft": {
                "category": "undetected",
                "engine_name": "Kingsoft",
                "engine_update": "20190206",
                "engine_version": "2013.8.14.323",
                "method": "blacklist",
                "result": null
            },
            "MAX": {
                "category": "malicious",
                "engine_name": "MAX",
                "engine_update": "20190206",
                "engine_version": "2018.9.12.1",
                "method": "blacklist",
                "result": "malware (ai score=99)"
            },
            "Malwarebytes": {
                "category": "malicious",
                "engine_name": "Malwarebytes",
                "engine_update": "20190206",
                "engine_version": "2.1.1.1115",
                "method": "blacklist",
                "result": "Adware.Adposhel"
            },
            "McAfee": {
                "category": "malicious",
                "engine_name": "McAfee",
                "engine_update": "20190206",
                "engine_version": "6.0.6.653",
                "method": "blacklist",
                "result": "Adopshel"
            },
            "McAfee-GW-Edition": {
                "category": "malicious",
                "engine_name": "McAfee-GW-Edition",
                "engine_update": "20190205",
                "engine_version": "v2017.3010",
                "method": "blacklist",
                "result": "BehavesLike.Win32.Adopshel.bz"
            },
            "MicroWorld-eScan": {
                "category": "malicious",
                "engine_name": "MicroWorld-eScan",
                "engine_update": "20190206",
                "engine_version": "14.0.297.0",
                "method": "blacklist",
                "result": "Gen:Variant.Fugrafa.865"
            },
            "Microsoft": {
                "category": "malicious",
                "engine_name": "Microsoft",
                "engine_update": "20190206",
                "engine_version": "1.1.15600.4",
                "method": "blacklist",
                "result": "TrojanDownloader:Win32/Esendi!rfn"
            },
            "NANO-Antivirus": {
                "category": "malicious",
                "engine_name": "NANO-Antivirus",
                "engine_update": "20190206",
                "engine_version": "1.0.134.24576",
                "method": "blacklist",
                "result": "Trojan.Win32.Ulise.fjybzr"
            },
            "Paloalto": {
                "category": "malicious",
                "engine_name": "Paloalto",
                "engine_update": "20190206",
                "engine_version": "1.0",
                "method": "blacklist",
                "result": "generic.ml"
            },
            "Panda": {
                "category": "malicious",
                "engine_name": "Panda",
                "engine_update": "20190205",
                "engine_version": "4.6.4.2",
                "method": "blacklist",
                "result": "Trj/GdSda.A"
            },
            "Qihoo-360": {
                "category": "malicious",
                "engine_name": "Qihoo-360",
                "engine_update": "20190206",
                "engine_version": "1.0.0.1120",
                "method": "blacklist",
                "result": "HEUR/QVM10.2.12DB.Malware.Gen"
            },
            "Rising": {
                "category": "malicious",
                "engine_name": "Rising",
                "engine_update": "20190206",
                "engine_version": "25.0.0.24",
                "method": "blacklist",
                "result": "Trojan.Cloxer!1.B4AB (CLOUD)"
            },
            "SUPERAntiSpyware": {
                "category": "undetected",
                "engine_name": "SUPERAntiSpyware",
                "engine_update": "20190130",
                "engine_version": "5.6.0.1032",
                "method": "blacklist",
                "result": null
            },
            "SentinelOne": {
                "category": "malicious",
                "engine_name": "SentinelOne",
                "engine_update": "20190203",
                "engine_version": "1.0.23.276",
                "method": "blacklist",
                "result": "static engine - malicious"
            },
            "Sophos": {
                "category": "malicious",
                "engine_name": "Sophos",
                "engine_update": "20190205",
                "engine_version": "4.98.0",
                "method": "blacklist",
                "result": "Adposhel (PUA)"
            },
            "Symantec": {
                "category": "malicious",
                "engine_name": "Symantec",
                "engine_update": "20190205",
                "engine_version": "1.8.0.0",
                "method": "blacklist",
                "result": "ML.Attribute.HighConfidence"
            },
            "TACHYON": {
                "category": "undetected",
                "engine_name": "TACHYON",
                "engine_update": "20190205",
                "engine_version": "2019-02-06.02",
                "method": "blacklist",
                "result": null
            },
            "Tencent": {
                "category": "malicious",
                "engine_name": "Tencent",
                "engine_update": "20190206",
                "engine_version": "1.0.0.1",
                "method": "blacklist",
                "result": "Win32.Trojan.Atraps.Syih"
            },
            "TheHacker": {
                "category": "undetected",
                "engine_name": "TheHacker",
                "engine_update": "20190203",
                "engine_version": "6.8.0.5.3996",
                "method": "blacklist",
                "result": null
            },
            "TotalDefense": {
                "category": "undetected",
                "engine_name": "TotalDefense",
                "engine_update": "20190205",
                "engine_version": "37.1.62.1",
                "method": "blacklist",
                "result": null
            },
            "Trapmine": {
                "category": "malicious",
                "engine_name": "Trapmine",
                "engine_update": "20190123",
                "engine_version": "3.1.40.719",
                "method": "blacklist",
                "result": "malicious.moderate.ml.score"
            },
            "TrendMicro": {
                "category": "malicious",
                "engine_name": "TrendMicro",
                "engine_update": "20190206",
                "engine_version": "10.0.0.1040",
                "method": "blacklist",
                "result": "TROJ_GEN.R039C0WK818"
            },
            "TrendMicro-HouseCall": {
                "category": "malicious",
                "engine_name": "TrendMicro-HouseCall",
                "engine_update": "20190206",
                "engine_version": "10.0.0.1040",
                "method": "blacklist",
                "result": "TROJ_GEN.R039C0WK818"
            },
            "Trustlook": {
                "category": "undetected",
                "engine_name": "Trustlook",
                "engine_update": "20190206",
                "engine_version": "1.0",
                "method": "blacklist",
                "result": null
            },
            "VBA32": {
                "category": "malicious",
                "engine_name": "VBA32",
                "engine_update": "20190206",
                "engine_version": "3.35.1",
                "method": "blacklist",
                "result": "Adware.Adposhel"
            },
            "ViRobot": {
                "category": "malicious",
                "engine_name": "ViRobot",
                "engine_update": "20190206",
                "engine_version": "2014.3.20.0",
                "method": "blacklist",
                "result": "Trojan.Win32.Adposhel.Gen.E"
            },
            "Webroot": {
                "category": "undetected",
                "engine_name": "Webroot",
                "engine_update": "20190206",
                "engine_version": "1.0.0.403",
                "method": "blacklist",
                "result": null
            },
            "Yandex": {
                "category": "undetected",
                "engine_name": "Yandex",
                "engine_update": "20190206",
                "engine_version": "5.5.1.3",
                "method": "blacklist",
                "result": null
            },
            "Zillya": {
                "category": "malicious",
                "engine_name": "Zillya",
                "engine_update": "20190206",
                "engine_version": "2.0.0.3747",
                "method": "blacklist",
                "result": "Trojan.AgentGen.Win32.73"
            },
            "ZoneAlarm": {
                "category": "malicious",
                "engine_name": "ZoneAlarm",
                "engine_update": "20190206",
                "engine_version": "1.0",
                "method": "blacklist",
                "result": "not-a-virus:AdWare.Win32.Adposhel.ovzo"
            },
            "Zoner": {
                "category": "undetected",
                "engine_name": "Zoner",
                "engine_update": "20190205",
                "engine_version": "1.0",
                "method": "blacklist",
                "result": null
            },
            "eGambit": {
                "category": "undetected",
                "engine_name": "eGambit",
                "engine_update": "20190206",
                "engine_version": "v4.3.5",
                "method": "blacklist",
                "result": null
            }
        },
        "last_analysis_stats": {
            "confirmed-timeout": 0,
            "failure": 0,
            "harmless": 0,
            "malicious": 51,
            "suspicious": 0,
            "timeout": 0,
            "type-unsupported": 0,
            "undetected": 19
        },
        "last_modification_date": 1549458097,
        "last_submission_date": 1541708271,
        "magic": "PE32 executable for MS Windows (GUI) Intel 80386 32-bit",
        "md5": "5aa7a124d2b94d2f8485b3a889151f97",
        "names": [],
        "pe_info": {
            "entry_point": 13949,
            "imphash": "93b87f33f77eaeaa54a96ba110b18b06",
            "import_list": [
                {
                    "imported_functions": [
                        "SHGetFolderPathW"
                    ],
                    "library_name": "SHELL32.dll"
                },
                {
                    "imported_functions": [
                        "RegCreateKeyExW",
                        "RegCloseKey",
                        "RegSetValueExW",
                        "GetCurrentHwProfileA",
                        "RegOpenKeyExW",
                        "RegQueryValueExW"
                    ],
                    "library_name": "ADVAPI32.dll"
                },
                {
                    "imported_functions": [
                        "GetLastError",
                        "InitializeCriticalSectionAndSpinCount",
                        "HeapFree",
                        "GetSystemTimeAsFileTime",
                        "EnterCriticalSection",
                        "LCMapStringW",
                        "GetConsoleCP",
                        "FreeLibrary",
                        "QueryPerformanceCounter",
                        "IsDebuggerPresent",
                        "GetTickCount",
                        "TlsAlloc",
                        "GetOEMCP",
                        "VirtualProtect",
                        "FlushFileBuffers",
                        "GetModuleFileNameA",
                        "RtlUnwind",
                        "GetACP",
                        "GetStdHandle",
                        "DeleteCriticalSection",
                        "GetCurrentProcess",
                        "GetFileType",
                        "GetConsoleMode",
                        "GetCurrentProcessId",
                        "GetCommandLineW",
                        "GetCPInfo",
                        "UnhandledExceptionFilter",
                        "LoadLibraryExW",
                        "MultiByteToWideChar",
                        "HeapSize",
                        "SetFilePointerEx",
                        "FreeEnvironmentStringsW",
                        "GetCommandLineA",
                        "GetProcAddress",
                        "InitializeSListHead",
                        "GetStartupInfoW",
                        "SetStdHandle",
                        "RaiseException",
                        "WideCharToMultiByte",
                        "TlsFree",
                        "GetModuleHandleA",
                        "FindFirstFileExA",
                        "SetUnhandledExceptionFilter",
                        "WriteFile",
                        "GetEnvironmentStringsW",
                        "CloseHandle",
                        "IsProcessorFeaturePresent",
                        "FindNextFileA",
                        "DuplicateHandle",
                        "HeapReAlloc",
                        "GetStringTypeW",
                        "GetModuleHandleW",
                        "HeapAlloc",
                        "TerminateProcess",
                        "GetModuleHandleExW",
                        "IsValidCodePage",
                        "CreateFileW",
                        "FindClose",
                        "TlsGetValue",
                        "Sleep",
                        "SetLastError",
                        "TlsSetValue",
                        "ExitProcess",
                        "GetCurrentThreadId",
                        "GetProcessHeap",
                        "WriteConsoleW",
                        "LeaveCriticalSection"
                    ],
                    "library_name": "KERNEL32.dll"
                },
                {
                    "imported_functions": [
                        "CoCreateGuid"
                    ],
                    "library_name": "ole32.dll"
                },
                {
                    "imported_functions": [
                        "MessageBoxW",
                        "PeekMessageW",
                        "DispatchMessageW"
                    ],
                    "library_name": "USER32.dll"
                }
            ],
            "machine_type": 332,
            "sections": [
                {
                    "entropy": 6.93,
                    "md5": "ecc4e7c2d4082df4805fd233789c771a",
                    "name": ".text",
                    "raw_size": 84480,
                    "virtual_address": 4096,
                    "virtual_size": 84222
                },
                {
                    "entropy": 5.64,
                    "md5": "5dcc482cdabcf72e9b99f34127faa418",
                    "name": ".rdata",
                    "raw_size": 28672,
                    "virtual_address": 90112,
                    "virtual_size": 28662
                },
                {
                    "entropy": 1.43,
                    "md5": "975d5b258ab191428500e9d28c30a93b",
                    "name": ".data",
                    "raw_size": 616960,
                    "virtual_address": 118784,
                    "virtual_size": 620376
                },
                {
                    "entropy": 6.41,
                    "md5": "598e51c1ee5843c584b6323716c88b8c",
                    "name": ".reloc",
                    "raw_size": 5120,
                    "virtual_address": 741376,
                    "virtual_size": 5056
                }
            ],
            "timestamp": 1536792262
        },
        "reputation": 0,
        "sha1": "feda4aa23093ab72a3ed1cb0ee4a4412b646580d",
        "sha256": "00065e133e50139dc00b501e3061f1ba85e5266b7f0fc38e4f43a35b62417a39",
        "size": 736256,
        "ssdeep": "3072:g+wBhvBqgbT2tyc9lluQfzHGWbJTVHtbMDTqOQJ:+hvr2tvTlu2tRNbM/AJ",
        "tags": [
            "peexe"
        ],
        "times_submitted": 1,
        "total_votes": {
            "harmless": 0,
            "malicious": 0
        },
        "trid": [
            {
                "file_type": "Win64 Executable (generic)",
                "probability": 61.7
            },
            {
                "file_type": "Win32 Dynamic Link Library (generic)",
                "probability": 14.7
            },
            {
                "file_type": "Win32 Executable (generic)",
                "probability": 10.0
            },
            {
                "file_type": "OS/2 Executable (generic)",
                "probability": 4.5
            },
            {
                "file_type": "Generic Win/DOS Executable",
                "probability": 4.4
            }
        ],
        "type_description": "Win32 EXE",
        "type_extension": "exe",
        "type_tag": "peexe",
        "unique_sources": 1,
        "vhash": "075046655d156068z437z17z13z3fz"
    },
    "id": "00065e133e50139dc00b501e3061f1ba85e5266b7f0fc38e4f43a35b62417a39",
    "links": {
        "self": "https://www.virustotal.com/api/v3/files/00065e133e50139dc00b501e3061f1ba85e5266b7f0fc38e4f43a35b62417a39"
    },
    "type": "file"
}