{
    "attributes": {
        "authentihash": "7482b165a72b3dbca743a1c02a7611b59cd25f15eaa84069ddfa9f10798909fb",
        "creation_date": 1524678837,
        "first_submission_date": 1524681686,
        "last_analysis_date": 1524681686,
        "last_analysis_results": {
            "ALYac": {
                "category": "undetected",
                "engine_name": "ALYac",
                "engine_update": "20180425",
                "engine_version": "1.1.1.5",
                "method": "blacklist",
                "result": null
            },
            "AVG": {
                "category": "undetected",
                "engine_name": "AVG",
                "engine_update": "20180425",
                "engine_version": "18.3.3860.0",
                "method": "blacklist",
                "result": null
            },
            "AVware": {
                "category": "undetected",
                "engine_name": "AVware",
                "engine_update": "20180425",
                "engine_version": "1.5.0.42",
                "method": "blacklist",
                "result": null
            },
            "Ad-Aware": {
                "category": "undetected",
                "engine_name": "Ad-Aware",
                "engine_update": "20180425",
                "engine_version": "3.0.5.370",
                "method": "blacklist",
                "result": null
            },
            "AegisLab": {
                "category": "undetected",
                "engine_name": "AegisLab",
                "engine_update": "20180425",
                "engine_version": "4.2",
                "method": "blacklist",
                "result": null
            },
            "AhnLab-V3": {
                "category": "undetected",
                "engine_name": "AhnLab-V3",
                "engine_update": "20180425",
                "engine_version": "3.12.0.20656",
                "method": "blacklist",
                "result": null
            },
            "Alibaba": {
                "category": "type-unsupported",
                "engine_name": "Alibaba",
                "engine_update": "20180425",
                "engine_version": "1.0",
                "method": "blacklist",
                "result": null
            },
            "Antiy-AVL": {
                "category": "undetected",
                "engine_name": "Antiy-AVL",
                "engine_update": "20180418",
                "engine_version": "3.0.0.1",
                "method": "blacklist",
                "result": null
            },
            "Arcabit": {
                "category": "undetected",
                "engine_name": "Arcabit",
                "engine_update": "20180425",
                "engine_version": "1.0.0.831",
                "method": "blacklist",
                "result": null
            },
            "Avast": {
                "category": "undetected",
                "engine_name": "Avast",
                "engine_update": "20180425",
                "engine_version": "18.3.3860.0",
                "method": "blacklist",
                "result": null
            },
            "Avast-Mobile": {
                "category": "undetected",
                "engine_name": "Avast-Mobile",
                "engine_update": "20180425",
                "engine_version": "180425-06",
                "method": "blacklist",
                "result": null
            },
            "Avira": {
                "category": "malicious",
                "engine_name": "Avira",
                "engine_update": "20180425",
                "engine_version": "8.3.3.6",
                "method": "blacklist",
                "result": "TR/Crypt.XPACK.Gen"
            },
            "Babable": {
                "category": "undetected",
                "engine_name": "Babable",
                "engine_update": "20180406",
                "engine_version": "9107201",
                "method": "blacklist",
                "result": null
            },
            "Baidu": {
                "category": "undetected",
                "engine_name": "Baidu",
                "engine_update": "20180425",
                "engine_version": "1.0.0.2",
                "method": "blacklist",
                "result": null
            },
            "BitDefender": {
                "category": "undetected",
                "engine_name": "BitDefender",
                "engine_update": "20180425",
                "engine_version": "7.2",
                "method": "blacklist",
                "result": null
            },
            "Bkav": {
                "category": "undetected",
                "engine_name": "Bkav",
                "engine_update": "20180424",
                "engine_version": "1.3.0.9466",
                "method": "blacklist",
                "result": null
            },
            "CAT-QuickHeal": {
                "category": "undetected",
                "engine_name": "CAT-QuickHeal",
                "engine_update": "20180425",
                "engine_version": "14.00",
                "method": "blacklist",
                "result": null
            },
            "CMC": {
                "category": "undetected",
                "engine_name": "CMC",
                "engine_update": "20180425",
                "engine_version": "1.1.0.977",
                "method": "blacklist",
                "result": null
            },
            "ClamAV": {
                "category": "undetected",
                "engine_name": "ClamAV",
                "engine_update": "20180425",
                "engine_version": "0.99.2.0",
                "method": "blacklist",
                "result": null
            },
            "Comodo": {
                "category": "undetected",
                "engine_name": "Comodo",
                "engine_update": "20180425",
                "engine_version": "28913",
                "method": "blacklist",
                "result": null
            },
            "CrowdStrike": {
                "category": "malicious",
                "engine_name": "CrowdStrike",
                "engine_update": "20180418",
                "engine_version": "1.0",
                "method": "blacklist",
                "result": "malicious_confidence_100% (D)"
            },
            "Cybereason": {
                "category": "undetected",
                "engine_name": "Cybereason",
                "engine_update": "20180225",
                "engine_version": "1.2.27",
                "method": "blacklist",
                "result": null
            },
            "Cylance": {
                "category": "malicious",
                "engine_name": "Cylance",
                "engine_update": "20180425",
                "engine_version": "2.3.1.101",
                "method": "blacklist",
                "result": "Unsafe"
            },
            "Cyren": {
                "category": "undetected",
                "engine_name": "Cyren",
                "engine_update": "20180425",
                "engine_version": "5.4.30.7",
                "method": "blacklist",
                "result": null
            },
            "DrWeb": {
                "category": "malicious",
                "engine_name": "DrWeb",
                "engine_update": "20180425",
                "engine_version": "7.0.28.2020",
                "method": "blacklist",
                "result": "Trojan.Moneyinst.550"
            },
            "ESET-NOD32": {
                "category": "malicious",
                "engine_name": "ESET-NOD32",
                "engine_update": "20180425",
                "engine_version": "17281",
                "method": "blacklist",
                "result": "a variant of Win32/Kryptik.GGBR"
            },
            "Emsisoft": {
                "category": "malicious",
                "engine_name": "Emsisoft",
                "engine_update": "20180425",
                "engine_version": "4.0.2.899",
                "method": "blacklist",
                "result": "Application.FileTour (A)"
            },
            "Endgame": {
                "category": "malicious",
                "engine_name": "Endgame",
                "engine_update": "20180403",
                "engine_version": "2.1.0",
                "method": "blacklist",
                "result": "malicious (high confidence)"
            },
            "F-Prot": {
                "category": "undetected",
                "engine_name": "F-Prot",
                "engine_update": "20180425",
                "engine_version": "4.7.1.166",
                "method": "blacklist",
                "result": null
            },
            "F-Secure": {
                "category": "undetected",
                "engine_name": "F-Secure",
                "engine_update": "20180425",
                "engine_version": "11.0.19100.45",
                "method": "blacklist",
                "result": null
            },
            "Fortinet": {
                "category": "malicious",
                "engine_name": "Fortinet",
                "engine_update": "20180425",
                "engine_version": "5.4.247.0",
                "method": "blacklist",
                "result": "W32/Kryptik.GFYM!tr"
            },
            "GData": {
                "category": "undetected",
                "engine_name": "GData",
                "engine_update": "20180425",
                "engine_version": "A:25.16842B:25.12116",
                "method": "blacklist",
                "result": null
            },
            "Ikarus": {
                "category": "malicious",
                "engine_name": "Ikarus",
                "engine_update": "20180425",
                "engine_version": "0.1.5.2",
                "method": "blacklist",
                "result": "PUA.FileTour"
            },
            "Invincea": {
                "category": "malicious",
                "engine_name": "Invincea",
                "engine_update": "20180121",
                "engine_version": "6.3.4.26036",
                "method": "blacklist",
                "result": "heuristic"
            },
            "Jiangmin": {
                "category": "undetected",
                "engine_name": "Jiangmin",
                "engine_update": "20180425",
                "engine_version": "16.0.100",
                "method": "blacklist",
                "result": null
            },
            "K7AntiVirus": {
                "category": "undetected",
                "engine_name": "K7AntiVirus",
                "engine_update": "20180425",
                "engine_version": "10.45.26936",
                "method": "blacklist",
                "result": null
            },
            "K7GW": {
                "category": "undetected",
                "engine_name": "K7GW",
                "engine_update": "20180425",
                "engine_version": "10.45.26940",
                "method": "blacklist",
                "result": null
            },
            "Kaspersky": {
                "category": "undetected",
                "engine_name": "Kaspersky",
                "engine_update": "20180425",
                "engine_version": "15.0.1.13",
                "method": "blacklist",
                "result": null
            },
            "Kingsoft": {
                "category": "undetected",
                "engine_name": "Kingsoft",
                "engine_update": "20180425",
                "engine_version": "2013.8.14.323",
                "method": "blacklist",
                "result": null
            },
            "MAX": {
                "category": "undetected",
                "engine_name": "MAX",
                "engine_update": "20180425",
                "engine_version": "2017.11.15.1",
                "method": "blacklist",
                "result": null
            },
            "Malwarebytes": {
                "category": "malicious",
                "engine_name": "Malwarebytes",
                "engine_update": "20180425",
                "engine_version": "2.1.1.1115",
                "method": "blacklist",
                "result": "Adware.FileTour"
            },
            "McAfee": {
                "category": "undetected",
                "engine_name": "McAfee",
                "engine_update": "20180425",
                "engine_version": "6.0.6.653",
                "method": "blacklist",
                "result": null
            },
            "McAfee-GW-Edition": {
                "category": "undetected",
                "engine_name": "McAfee-GW-Edition",
                "engine_update": "20180425",
                "engine_version": "v2017.2786",
                "method": "blacklist",
                "result": null
            },
            "MicroWorld-eScan": {
                "category": "undetected",
                "engine_name": "MicroWorld-eScan",
                "engine_update": "20180425",
                "engine_version": "14.0.297.0",
                "method": "blacklist",
                "result": null
            },
            "Microsoft": {
                "category": "undetected",
                "engine_name": "Microsoft",
                "engine_update": "20180424",
                "engine_version": "1.1.14800.3",
                "method": "blacklist",
                "result": null
            },
            "NANO-Antivirus": {
                "category": "undetected",
                "engine_name": "NANO-Antivirus",
                "engine_update": "20180425",
                "engine_version": "1.0.106.22618",
                "method": "blacklist",
                "result": null
            },
            "Paloalto": {
                "category": "undetected",
                "engine_name": "Paloalto",
                "engine_update": "20180425",
                "engine_version": "1.0",
                "method": "blacklist",
                "result": null
            },
            "Panda": {
                "category": "undetected",
                "engine_name": "Panda",
                "engine_update": "20180425",
                "engine_version": "4.6.4.2",
                "method": "blacklist",
                "result": null
            },
            "Qihoo-360": {
                "category": "undetected",
                "engine_name": "Qihoo-360",
                "engine_update": "20180425",
                "engine_version": "1.0.0.1120",
                "method": "blacklist",
                "result": null
            },
            "Rising": {
                "category": "undetected",
                "engine_name": "Rising",
                "engine_update": "20180425",
                "engine_version": "25.0.0.1",
                "method": "blacklist",
                "result": null
            },
            "SUPERAntiSpyware": {
                "category": "undetected",
                "engine_name": "SUPERAntiSpyware",
                "engine_update": "20180425",
                "engine_version": "5.6.0.1032",
                "method": "blacklist",
                "result": null
            },
            "SentinelOne": {
                "category": "malicious",
                "engine_name": "SentinelOne",
                "engine_update": "20180225",
                "engine_version": "1.0.15.206",
                "method": "blacklist",
                "result": "static engine - malicious"
            },
            "Sophos": {
                "category": "undetected",
                "engine_name": "Sophos",
                "engine_update": "20180425",
                "engine_version": "4.98.0",
                "method": "blacklist",
                "result": null
            },
            "Symantec": {
                "category": "malicious",
                "engine_name": "Symantec",
                "engine_update": "20180425",
                "engine_version": "1.5.0.0",
                "method": "blacklist",
                "result": "ML.Attribute.HighConfidence"
            },
            "SymantecMobileInsight": {
                "category": "type-unsupported",
                "engine_name": "SymantecMobileInsight",
                "engine_update": "20180424",
                "engine_version": "1.0.0.35_220",
                "method": "blacklist",
                "result": null
            },
            "Tencent": {
                "category": "undetected",
                "engine_name": "Tencent",
                "engine_update": "20180425",
                "engine_version": "1.0.0.1",
                "method": "blacklist",
                "result": null
            },
            "TheHacker": {
                "category": "undetected",
                "engine_name": "TheHacker",
                "engine_update": "20180425",
                "engine_version": "6.8.0.5.2713",
                "method": "blacklist",
                "result": null
            },
            "TrendMicro": {
                "category": "undetected",
                "engine_name": "TrendMicro",
                "engine_update": "20180425",
                "engine_version": "10.0.0.1040",
                "method": "blacklist",
                "result": null
            },
            "TrendMicro-HouseCall": {
                "category": "undetected",
                "engine_name": "TrendMicro-HouseCall",
                "engine_update": "20180425",
                "engine_version": "9.950.0.1006",
                "method": "blacklist",
                "result": null
            },
            "Trustlook": {
                "category": "type-unsupported",
                "engine_name": "Trustlook",
                "engine_update": "20180425",
                "engine_version": "2",
                "method": "blacklist",
                "result": null
            },
            "VBA32": {
                "category": "undetected",
                "engine_name": "VBA32",
                "engine_update": "20180425",
                "engine_version": "3.12.28.0",
                "method": "blacklist",
                "result": null
            },
            "VIPRE": {
                "category": "undetected",
                "engine_name": "VIPRE",
                "engine_update": "20180425",
                "engine_version": "66244",
                "method": "blacklist",
                "result": null
            },
            "ViRobot": {
                "category": "undetected",
                "engine_name": "ViRobot",
                "engine_update": "20180425",
                "engine_version": "2014.3.20.0",
                "method": "blacklist",
                "result": null
            },
            "Webroot": {
                "category": "malicious",
                "engine_name": "Webroot",
                "engine_update": "20180425",
                "engine_version": "1.0.0.403",
                "method": "blacklist",
                "result": "W32.Adware.Gen"
            },
            "Yandex": {
                "category": "undetected",
                "engine_name": "Yandex",
                "engine_update": "20180425",
                "engine_version": "5.5.1.3",
                "method": "blacklist",
                "result": null
            },
            "Zillya": {
                "category": "undetected",
                "engine_name": "Zillya",
                "engine_update": "20180425",
                "engine_version": "2.0.0.3543",
                "method": "blacklist",
                "result": null
            },
            "ZoneAlarm": {
                "category": "undetected",
                "engine_name": "ZoneAlarm",
                "engine_update": "20180425",
                "engine_version": "1.0",
                "method": "blacklist",
                "result": null
            },
            "Zoner": {
                "category": "undetected",
                "engine_name": "Zoner",
                "engine_update": "20180425",
                "engine_version": "1.0",
                "method": "blacklist",
                "result": null
            },
            "eGambit": {
                "category": "undetected",
                "engine_name": "eGambit",
                "engine_update": "20180425",
                "engine_version": "v4.3.5",
                "method": "blacklist",
                "result": null
            },
            "nProtect": {
                "category": "undetected",
                "engine_name": "nProtect",
                "engine_update": "20180425",
                "engine_version": "2018-04-25.02",
                "method": "blacklist",
                "result": null
            }
        },
        "last_analysis_stats": {
            "confirmed-timeout": 0,
            "failure": 0,
            "harmless": 0,
            "malicious": 14,
            "suspicious": 0,
            "timeout": 0,
            "type-unsupported": 3,
            "undetected": 53
        },
        "last_modification_date": 1524681882,
        "last_submission_date": 1524681686,
        "magic": "PE32 executable for MS Windows (GUI) Intel 80386 32-bit",
        "md5": "2cfeb0cf26d27c8836224cd25b979134",
        "meaningful_name": "WEXTRACT.EXE            .MUI",
        "names": [
            "far-cry5-account_WEU.exe",
            "Wextract",
            "WEXTRACT.EXE            .MUI"
        ],
        "packers": {
            "F-PROT": "CAB"
        },
        "pe_info": {
            "entry_point": 666028,
            "imphash": "92e65f97b9e06dfff7552d41da64c19c",
            "import_list": [
                {
                    "imported_functions": [
                        "VerQueryValueW"
                    ],
                    "library_name": "VERSION.dll"
                },
                {
                    "imported_functions": [
                        "GetClipBox"
                    ],
                    "library_name": "GDI32.dll"
                },
                {
                    "imported_functions": [
                        "SHGetFileInfoA",
                        "Shell_NotifyIconW",
                        "ShellExecuteW"
                    ],
                    "library_name": "SHELL32.dll"
                },
                {
                    "imported_functions": [
                        "GetLastError",
                        "HeapFree",
                        "GetStdHandle",
                        "GetDriveTypeW",
                        "LCMapStringW",
                        "GetVersionExA",
                        "lstrcatA",
                        "TerminateThread",
                        "LoadLibraryA",
                        "GetExitCodeProcess",
                        "LCMapStringA",
                        "HeapDestroy",
                        "HeapAlloc",
                        "GlobalUnlock",
                        "GetEnvironmentStringsW",
                        "FlushFileBuffers",
                        "GetModuleFileNameA",
                        "RtlUnwind",
                        "GetACP",
                        "FreeLibrary",
                        "FreeEnvironmentStringsA",
                        "GetQueuedCompletionStatus",
                        "GetCurrentProcess",
                        "UnlockFile",
                        "GetEnvironmentStrings",
                        "OpenProcess",
                        "CreateIoCompletionPort",
                        "GetCPInfo",
                        "UnhandledExceptionFilter",
                        "MultiByteToWideChar",
                        "GetTickCount",
                        "SetHandleCount",
                        "GetCommandLineA",
                        "GetProcAddress",
                        "GetSystemInfo",
                        "GetFileType",
                        "SetStdHandle",
                        "SetFilePointer",
                        "WriteFile",
                        "GetBinaryTypeW",
                        "GetStringTypeA",
                        "FreeEnvironmentStringsW",
                        "FindFirstFileA",
                        "InterlockedExchange",
                        "GlobalFlags",
                        "FindResourceExW",
                        "GetStartupInfoA",
                        "CreateMutexW",
                        "CloseHandle",
                        "GetSystemTimeAsFileTime",
                        "CreateFileMappingA",
                        "DuplicateHandle",
                        "HeapReAlloc",
                        "GetStringTypeW",
                        "GetCurrentThreadId",
                        "SetFileAttributesA",
                        "GetOEMCP",
                        "TerminateProcess",
                        "GetTimeZoneInformation",
                        "WideCharToMultiByte",
                        "GetEnvironmentVariableA",
                        "HeapCreate",
                        "lstrcpyA",
                        "PostQueuedCompletionStatus",
                        "VirtualFree",
                        "SearchPathA",
                        "FindClose",
                        "IsBadReadPtr",
                        "SetEndOfFile",
                        "ExitProcess",
                        "GetVersion",
                        "VirtualAlloc",
                        "GetModuleHandleA"
                    ],
                    "library_name": "KERNEL32.dll"
                },
                {
                    "imported_functions": [
                        "RegCreateKeyExW",
                        "RegDeleteValueW",
                        "GetSidSubAuthority",
                        "RegCloseKey",
                        "RegSetValueExW",
                        "IsValidSid",
                        "RegQueryInfoKeyW",
                        "RegEnumKeyExW",
                        "EqualSid",
                        "RegDeleteKeyW",
                        "InitializeSid"
                    ],
                    "library_name": "ADVAPI32.dll"
                },
                {
                    "imported_functions": [
                        "SetupGetBinaryField",
                        "SetupGetFileCompressionInfoW",
                        "SetupDecompressOrCopyFileW"
                    ],
                    "library_name": "SETUPAPI.dll"
                },
                {
                    "imported_functions": [
                        "SetFocus",
                        "EmptyClipboard",
                        "GetMessagePos",
                        "ReleaseDC",
                        "BeginPaint",
                        "DefWindowProcW",
                        "DefWindowProcA",
                        "CheckMenuRadioItem",
                        "LoadBitmapA",
                        "SetWindowLongW",
                        "EndPaint",
                        "LoadMenuW",
                        "AdjustWindowRectEx",
                        "IsWindowEnabled",
                        "GetSysColor",
                        "DrawTextA",
                        "CreatePopupMenu",
                        "SendMessageW",
                        "IsWindowVisible",
                        "LoadStringW",
                        "GetClientRect",
                        "EnableMenuItem",
                        "InvalidateRect",
                        "GetSubMenu",
                        "SendMessageTimeoutA",
                        "TrackPopupMenu",
                        "LoadAcceleratorsW",
                        "GetWindowLongW",
                        "CloseClipboard",
                        "SetCursor"
                    ],
                    "library_name": "USER32.dll"
                },
                {
                    "imported_functions": [
                        "ImageList_GetImageCount",
                        "ImageList_Create",
                        "Ord(17)",
                        "ImageList_LoadImageW",
                        "PropertySheetW"
                    ],
                    "library_name": "COMCTL32.dll"
                }
            ],
            "machine_type": 332,
            "overlay": {
                "chi2": 5359.5908203125,
                "entropy": 7.5290656089782715,
                "filetype": "data",
                "md5": "4806129a1625c926168e730d51566a95",
                "offset": 1695232,
                "size": 5056
            },
            "resource_details": [
                {
                    "chi2": 1016174.0,
                    "entropy": 0.0,
                    "filetype": "ASCII text",
                    "lang": "ENGLISH US",
                    "sha256": "29fc29fe55bfc4b4d805becf766ced1a74ae7d8be0352693c78a03eae6b61f00",
                    "type": "RT15139620"
                },
                {
                    "chi2": 18100.140625,
                    "entropy": 6.231002330780029,
                    "filetype": "data",
                    "lang": "ENGLISH US",
                    "sha256": "695945684209b7d6872ec092339eb245ad15bd1a8bcc6c3572afe70b81b5faac",
                    "type": "RT_ICON"
                },
                {
                    "chi2": 101498.1015625,
                    "entropy": 6.113101482391357,
                    "filetype": "data",
                    "lang": "ENGLISH US",
                    "sha256": "9401e7b91694fced3daec4778ff358798ad08cec5b15ab7ae79556c0527a763f",
                    "type": "RT_ICON"
                },
                {
                    "chi2": 457637.65625,
                    "entropy": 6.0983500480651855,
                    "filetype": "data",
                    "lang": "ENGLISH US",
                    "sha256": "bf75b654b1c65614c2d31799850618114b3fbda20ebbcf49d8b8931908f57a0c",
                    "type": "RT_ICON"
                },
                {
                    "chi2": 59482.07421875,
                    "entropy": 3.255751132965088,
                    "filetype": "data",
                    "lang": "ENGLISH US",
                    "sha256": "ea6588cf6a9eaa2daaeace3bcd90ad19cfaca72505c0cbba9f10a0db2923d888",
                    "type": "RT_DIALOG"
                },
                {
                    "chi2": 38193.203125,
                    "entropy": 3.1602468490600586,
                    "filetype": "data",
                    "lang": "ENGLISH US",
                    "sha256": "1abfad902cece4ff79c75ee25d79fe254e3c6af72c161295c7ba006e56cd74b1",
                    "type": "RT_DIALOG"
                },
                {
                    "chi2": 33861.61328125,
                    "entropy": 2.997133493423462,
                    "filetype": "data",
                    "lang": "ENGLISH US",
                    "sha256": "ec8a0548b6bb169afe513ec8a366e746255c3556fe66c95067756fb3ec8b895b",
                    "type": "RT_DIALOG"
                },
                {
                    "chi2": 42042.2578125,
                    "entropy": 3.1199164390563965,
                    "filetype": "data",
                    "lang": "ENGLISH US",
                    "sha256": "a3565ee9a8656bbdf37e3a50d14d954280cba4895576687a261200aefa1b5b39",
                    "type": "RT_DIALOG"
                },
                {
                    "chi2": 28944.00390625,
                    "entropy": 2.973257303237915,
                    "filetype": "data",
                    "lang": "ENGLISH US",
                    "sha256": "238d6c2e50312c555901a61e92afad3c7c6b42b9abd5acdda68658c2e2b48678",
                    "type": "RT_DIALOG"
                },
                {
                    "chi2": 27658.654296875,
                    "entropy": 2.976714849472046,
                    "filetype": "data",
                    "lang": "ENGLISH US",
                    "sha256": "cc21e9115c14c21af11786ff781dcf25c81beda500acf4966d0ddc7260610b06",
                    "type": "RT_DIALOG"
                },
                {
                    "chi2": 8160.0,
                    "entropy": 0.0,
                    "filetype": "ASCII text",
                    "lang": "ENGLISH US",
                    "sha256": "66687aadf862bd776c8fc18b8e9f8e20089714856ee233b3902a591d0d5f2925",
                    "type": "RT_STRING"
                },
                {
                    "chi2": 8160.0,
                    "entropy": 0.0,
                    "filetype": "ASCII text",
                    "lang": "ENGLISH US",
                    "sha256": "66687aadf862bd776c8fc18b8e9f8e20089714856ee233b3902a591d0d5f2925",
                    "type": "RT_STRING"
                },
                {
                    "chi2": 89353.375,
                    "entropy": 3.296570062637329,
                    "filetype": "data",
                    "lang": "ENGLISH US",
                    "sha256": "59cf0e8de26482d780025fcf236cf4a0edc668b4f738ecb961f18b89cd6c0817",
                    "type": "RT_STRING"
                },
                {
                    "chi2": 82061.859375,
                    "entropy": 3.271740436553955,
                    "filetype": "ASCII text",
                    "lang": "ENGLISH US",
                    "sha256": "39023f15fbabf4be02e0d84a76c363003374b11076406f84cd8f92e49aecd3ba",
                    "type": "RT_STRING"
                },
                {
                    "chi2": 75920.671875,
                    "entropy": 3.291196823120117,
                    "filetype": "data",
                    "lang": "ENGLISH US",
                    "sha256": "c1a5490b8a26165048de894aacdcd25e09cec0c4aebc5ff1d435f2cc4757118b",
                    "type": "RT_STRING"
                },
                {
                    "chi2": 68282.171875,
                    "entropy": 3.135911226272583,
                    "filetype": "data",
                    "lang": "ENGLISH US",
                    "sha256": "59d8ad57a3629edd20c7b298a6e3604eeb95dfc7c507ad7e329ea0bff7a571ff",
                    "type": "RT_STRING"
                },
                {
                    "chi2": 249.0,
                    "entropy": 2.8073551654815674,
                    "filetype": "ASCII text",
                    "lang": "ENGLISH US",
                    "sha256": "eaadcdd05a9a7c7f80d53d758f39e4399749d774b09a8a0165fe7c69ad6d8c3c",
                    "type": "RT_RCDATA"
                },
                {
                    "chi2": 540.4548950195312,
                    "entropy": 7.99959659576416,
                    "filetype": "data",
                    "lang": "ENGLISH US",
                    "sha256": "8118df9d98e7d4678e1c806ccd45eca5fd99dab90ce68a2e32822e6584ab0df8",
                    "type": "RT_RCDATA"
                },
                {
                    "chi2": 636.0,
                    "entropy": 0.8112781047821045,
                    "filetype": "VMS Alpha executable",
                    "lang": "ENGLISH US",
                    "sha256": "9d9f290527a6be626a8f5985b26e19b237b44872b03631811df4416fc1713178",
                    "type": "RT_RCDATA"
                },
                {
                    "chi2": 2467.11083984375,
                    "entropy": 2.6383042335510254,
                    "filetype": "data",
                    "lang": "ENGLISH US",
                    "sha256": "add75aaf174ff9793bf6f36ebf37ead4f1cc2f63bd5fcb0d3259cc165b00038d",
                    "type": "RT_RCDATA"
                },
                {
                    "chi2": 249.0,
                    "entropy": 2.8073551654815674,
                    "filetype": "ASCII text",
                    "lang": "ENGLISH US",
                    "sha256": "eaadcdd05a9a7c7f80d53d758f39e4399749d774b09a8a0165fe7c69ad6d8c3c",
                    "type": "RT_RCDATA"
                },
                {
                    "chi2": 249.0,
                    "entropy": 2.8073551654815674,
                    "filetype": "ASCII text",
                    "lang": "ENGLISH US",
                    "sha256": "eaadcdd05a9a7c7f80d53d758f39e4399749d774b09a8a0165fe7c69ad6d8c3c",
                    "type": "RT_RCDATA"
                },
                {
                    "chi2": 1020.0,
                    "entropy": 0.0,
                    "filetype": "ASCII text",
                    "lang": "ENGLISH US",
                    "sha256": "df3f619804a92fdb4057192dc43dd748ea778adc52bc498ce80524c014b81119",
                    "type": "RT_RCDATA"
                },
                {
                    "chi2": 249.0,
                    "entropy": 2.8073551654815674,
                    "filetype": "ASCII text",
                    "lang": "ENGLISH US",
                    "sha256": "eaadcdd05a9a7c7f80d53d758f39e4399749d774b09a8a0165fe7c69ad6d8c3c",
                    "type": "RT_RCDATA"
                },
                {
                    "chi2": 636.0,
                    "entropy": 0.8112781047821045,
                    "filetype": "ASCII text",
                    "lang": "ENGLISH US",
                    "sha256": "67abdd721024f0ff4e0b3f4c2fc13bc5bad42d0b7851d456d88d203d15aaa450",
                    "type": "RT_RCDATA"
                },
                {
                    "chi2": 484.0,
                    "entropy": 3.9407594203948975,
                    "filetype": "ASCII text",
                    "lang": "ENGLISH US",
                    "sha256": "592fd427611d4df8c06431ee296c013961f87a7658d0b5de11ac3d79e7c5dad9",
                    "type": "RT_RCDATA"
                },
                {
                    "chi2": 636.0,
                    "entropy": 0.8112781047821045,
                    "filetype": "ASCII text",
                    "lang": "ENGLISH US",
                    "sha256": "67abdd721024f0ff4e0b3f4c2fc13bc5bad42d0b7851d456d88d203d15aaa450",
                    "type": "RT_RCDATA"
                },
                {
                    "chi2": 492.0,
                    "entropy": 3.521928310394287,
                    "filetype": "ASCII text",
                    "lang": "ENGLISH US",
                    "sha256": "f4f4b0ee1f401622df4ac1643408bb9be09039c897ad16ba066e5bbbafcac7e5",
                    "type": "RT_RCDATA"
                },
                {
                    "chi2": 249.0,
                    "entropy": 2.8073551654815674,
                    "filetype": "ASCII text",
                    "lang": "ENGLISH US",
                    "sha256": "eaadcdd05a9a7c7f80d53d758f39e4399749d774b09a8a0165fe7c69ad6d8c3c",
                    "type": "RT_RCDATA"
                },
                {
                    "chi2": 249.0,
                    "entropy": 2.8073551654815674,
                    "filetype": "ASCII text",
                    "lang": "ENGLISH US",
                    "sha256": "eaadcdd05a9a7c7f80d53d758f39e4399749d774b09a8a0165fe7c69ad6d8c3c",
                    "type": "RT_RCDATA"
                },
                {
                    "chi2": 3674.665771484375,
                    "entropy": 2.5001585483551025,
                    "filetype": "data",
                    "lang": "ENGLISH US",
                    "sha256": "bb8c4b02b0bfc160d92605fe01b2526fe38acbf3ecc1477cb581a51ea90481a6",
                    "type": "RT_GROUP_ICON"
                },
                {
                    "chi2": 60378.1640625,
                    "entropy": 3.2954773902893066,
                    "filetype": "data",
                    "lang": "ENGLISH US",
                    "sha256": "152da57582a09a600a09184aea2dce4fb5bb15093be3d07ef831e64439c33cf9",
                    "type": "RT_VERSION"
                },
                {
                    "chi2": 6543.85009765625,
                    "entropy": 5.002614498138428,
                    "filetype": "ASCII text",
                    "lang": "ENGLISH US",
                    "sha256": "436fdc4dbae86cdcb8fa33d94f86f5d429785feb4b5c2da93641100ebf61efc1",
                    "type": "RT_MANIFEST"
                }
            ],
            "resource_langs": {
                "ENGLISH US": 33
            },
            "resource_types": {
                "RT15139620": 1,
                "RT_DIALOG": 6,
                "RT_GROUP_ICON": 1,
                "RT_ICON": 3,
                "RT_MANIFEST": 1,
                "RT_RCDATA": 14,
                "RT_STRING": 6,
                "RT_VERSION": 1
            },
            "sections": [
                {
                    "entropy": 7.92,
                    "md5": "ebb045a289be2cba4c9ca81b175d0e09",
                    "name": ".text",
                    "raw_size": 677888,
                    "virtual_address": 4096,
                    "virtual_size": 677576
                },
                {
                    "entropy": 5.52,
                    "md5": "e22c1b8cf06c396838f85c8cd3670256",
                    "name": ".rdata",
                    "raw_size": 4608,
                    "virtual_address": 684032,
                    "virtual_size": 4529
                },
                {
                    "entropy": 0.75,
                    "md5": "5ad2b651c78df65bbc43aa4d44196968",
                    "name": ".data",
                    "raw_size": 10752,
                    "virtual_address": 692224,
                    "virtual_size": 391813
                },
                {
                    "entropy": 7.98,
                    "md5": "1e51a8949d5aeb129f84a32721ccab4e",
                    "name": ".rsrc",
                    "raw_size": 1000960,
                    "virtual_address": 1085440,
                    "virtual_size": 1000596
                }
            ],
            "timestamp": 1524678837
        },
        "reputation": 0,
        "sha1": "0784206aac5037707fdc0ea226cccc167a01d222",
        "sha256": "0006996d94842999424abfedb6e1bdee241029bab41f955ea36ab7d72302326e",
        "signature_info": {
            "description": "Win32 Cabinet Self-Extractor                                           ",
            "file version": "11.00.15063.0 (WinBuild.160101.0800)",
            "internal name": "Wextract                ",
            "original name": "WEXTRACT.EXE            .MUI",
            "signers": "RULON, LIMITED; COMODO RSA Code Signing CA; COMODO SECURE\u2122",
            "signers details": [
                {
                    "algorithm": "sha256RSA",
                    "cert issuer": "COMODO RSA Code Signing CA",
                    "name": "RULON, LIMITED",
                    "serial number": "00 A3 9C 74 9D 8E 7C B6 D2 58 39 F4 95 AE 0F 81 8B",
                    "status": "Valid",
                    "thumbprint": "85AAA69C6EE7A36B034DFB10D1EB1E9C636ADDA7",
                    "valid from": "1:00 AM 3/13/2018",
                    "valid to": "12:59 AM 6/15/2018",
                    "valid usage": "Code Signing"
                },
                {
                    "algorithm": "sha384RSA",
                    "cert issuer": "COMODO RSA Certification Authority",
                    "name": "COMODO RSA Code Signing CA",
                    "serial number": "2E 7C 87 CC 0E 93 4A 52 FE 94 FD 1C B7 CD 34 AF",
                    "status": "Valid",
                    "thumbprint": "B69E752BBE88B4458200A7C0F4F5B3CCE6F35B47",
                    "valid from": "1:00 AM 5/9/2013",
                    "valid to": "12:59 AM 5/9/2028",
                    "valid usage": "Code Signing"
                },
                {
                    "algorithm": "sha384RSA",
                    "cert issuer": "COMODO RSA Certification Authority",
                    "name": "COMODO SECURE\u2122",
                    "serial number": "4C AA F9 CA DB 63 6F E0 1F F7 4E D8 5B 03 86 9D",
                    "status": "Valid",
                    "thumbprint": "AFE5D244A8D1194230FF479FE2F897BBCD7A8CB4",
                    "valid from": "1:00 AM 1/19/2010",
                    "valid to": "12:59 AM 1/19/2038",
                    "valid usage": "Server Auth, Client Auth, Email Protection, Code Signing, Timestamp Signing, EFS, IPSEC Tunnel, IPSEC User"
                }
            ],
            "verified": "Signed"
        },
        "size": 1700288,
        "ssdeep": "49152:XjPdw2tSTYBZQnhmD9riHZJCzEM1nznTzBec7vEfO:XLkBnKcJ0JnTTAc7vEf",
        "tags": [
            "peexe",
            "signed",
            "overlay"
        ],
        "times_submitted": 1,
        "total_votes": {
            "harmless": 0,
            "malicious": 0
        },
        "trid": [
            {
                "file_type": "Win32 Executable MS Visual C++ (generic)",
                "probability": 40.0
            },
            {
                "file_type": "Win64 Executable (generic)",
                "probability": 35.4
            },
            {
                "file_type": "Win32 Dynamic Link Library (generic)",
                "probability": 8.4
            },
            {
                "file_type": "Win32 Executable (generic)",
                "probability": 5.7
            },
            {
                "file_type": "OS/2 Executable (generic)",
                "probability": 2.6
            }
        ],
        "type_description": "Win32 EXE",
        "type_extension": "exe",
        "type_tag": "peexe",
        "unique_sources": 1,
        "vhash": "016046755d1570b053z10049hz32z1e01dz"
    },
    "id": "0006996d94842999424abfedb6e1bdee241029bab41f955ea36ab7d72302326e",
    "links": {
        "self": "https://www.virustotal.com/api/v3/files/0006996d94842999424abfedb6e1bdee241029bab41f955ea36ab7d72302326e"
    },
    "type": "file"
}