{
    "attributes": {
        "authentihash": "b19823b7ba74e147b6c7f895645f5ca9832f2952191f8167538cdd2dd44b020e",
        "creation_date": 1541765893,
        "first_submission_date": 1544630406,
        "last_analysis_date": 1544630406,
        "last_analysis_results": {
            "ALYac": {
                "category": "malicious",
                "engine_name": "ALYac",
                "engine_update": "20181212",
                "engine_version": "1.1.1.5",
                "method": "blacklist",
                "result": "Trojan.GenericKD.31348388"
            },
            "AVG": {
                "category": "malicious",
                "engine_name": "AVG",
                "engine_update": "20181212",
                "engine_version": "18.4.3895.0",
                "method": "blacklist",
                "result": "Win32:CryptoMiner-L [Trj]"
            },
            "Ad-Aware": {
                "category": "malicious",
                "engine_name": "Ad-Aware",
                "engine_update": "20181212",
                "engine_version": "3.0.5.370",
                "method": "blacklist",
                "result": "Trojan.GenericKD.31348388"
            },
            "AegisLab": {
                "category": "undetected",
                "engine_name": "AegisLab",
                "engine_update": "20181212",
                "engine_version": "4.2",
                "method": "blacklist",
                "result": null
            },
            "AhnLab-V3": {
                "category": "malicious",
                "engine_name": "AhnLab-V3",
                "engine_update": "20181212",
                "engine_version": "3.14.1.22785",
                "method": "blacklist",
                "result": "Trojan/Win64.Miner.C2822672"
            },
            "Alibaba": {
                "category": "undetected",
                "engine_name": "Alibaba",
                "engine_update": "20180921",
                "engine_version": "0.1.0.2",
                "method": "blacklist",
                "result": null
            },
            "Antiy-AVL": {
                "category": "malicious",
                "engine_name": "Antiy-AVL",
                "engine_update": "20181212",
                "engine_version": "3.0.0.1",
                "method": "blacklist",
                "result": "Trojan/Win32.Miner"
            },
            "Arcabit": {
                "category": "malicious",
                "engine_name": "Arcabit",
                "engine_update": "20181212",
                "engine_version": "1.0.0.837",
                "method": "blacklist",
                "result": "Trojan.Generic.D1DE56A4"
            },
            "Avast": {
                "category": "malicious",
                "engine_name": "Avast",
                "engine_update": "20181212",
                "engine_version": "18.4.3895.0",
                "method": "blacklist",
                "result": "Win32:CryptoMiner-L [Trj]"
            },
            "Avast-Mobile": {
                "category": "undetected",
                "engine_name": "Avast-Mobile",
                "engine_update": "20181212",
                "engine_version": "181212-00",
                "method": "blacklist",
                "result": null
            },
            "Avira": {
                "category": "malicious",
                "engine_name": "Avira",
                "engine_update": "20181212",
                "engine_version": "8.3.3.6",
                "method": "blacklist",
                "result": "HEUR/AGEN.1036656"
            },
            "Babable": {
                "category": "undetected",
                "engine_name": "Babable",
                "engine_update": "20180918",
                "engine_version": "9107201",
                "method": "blacklist",
                "result": null
            },
            "Baidu": {
                "category": "undetected",
                "engine_name": "Baidu",
                "engine_update": "20181207",
                "engine_version": "1.0.0.2",
                "method": "blacklist",
                "result": null
            },
            "BitDefender": {
                "category": "malicious",
                "engine_name": "BitDefender",
                "engine_update": "20181212",
                "engine_version": "7.2",
                "method": "blacklist",
                "result": "Trojan.GenericKD.31348388"
            },
            "Bkav": {
                "category": "undetected",
                "engine_name": "Bkav",
                "engine_update": "20181212",
                "engine_version": "1.3.0.9899",
                "method": "blacklist",
                "result": null
            },
            "CAT-QuickHeal": {
                "category": "malicious",
                "engine_name": "CAT-QuickHeal",
                "engine_update": "20181211",
                "engine_version": "14.00",
                "method": "blacklist",
                "result": "Trojan.Miner.S4324439"
            },
            "CMC": {
                "category": "undetected",
                "engine_name": "CMC",
                "engine_update": "20181212",
                "engine_version": "1.1.0.977",
                "method": "blacklist",
                "result": null
            },
            "ClamAV": {
                "category": "undetected",
                "engine_name": "ClamAV",
                "engine_update": "20181212",
                "engine_version": "0.101.0.0",
                "method": "blacklist",
                "result": null
            },
            "Comodo": {
                "category": "undetected",
                "engine_name": "Comodo",
                "engine_update": "20181212",
                "engine_version": "30111",
                "method": "blacklist",
                "result": null
            },
            "CrowdStrike": {
                "category": "undetected",
                "engine_name": "CrowdStrike",
                "engine_update": "20181022",
                "engine_version": "1.0",
                "method": "blacklist",
                "result": null
            },
            "Cybereason": {
                "category": "undetected",
                "engine_name": "Cybereason",
                "engine_update": "20180225",
                "engine_version": "1.2.27",
                "method": "blacklist",
                "result": null
            },
            "Cylance": {
                "category": "undetected",
                "engine_name": "Cylance",
                "engine_update": "20181212",
                "engine_version": "2.3.1.101",
                "method": "blacklist",
                "result": null
            },
            "Cyren": {
                "category": "malicious",
                "engine_name": "Cyren",
                "engine_update": "20181212",
                "engine_version": "6.2.0.1",
                "method": "blacklist",
                "result": "W64/S-5e692edc!Eldorado"
            },
            "DrWeb": {
                "category": "malicious",
                "engine_name": "DrWeb",
                "engine_update": "20181212",
                "engine_version": "7.0.34.11020",
                "method": "blacklist",
                "result": "Tool.BtcMine.1857"
            },
            "ESET-NOD32": {
                "category": "malicious",
                "engine_name": "ESET-NOD32",
                "engine_update": "20181212",
                "engine_version": "18530",
                "method": "blacklist",
                "result": "a variant of Win64/CoinMiner.DN potentially unwanted"
            },
            "Emsisoft": {
                "category": "malicious",
                "engine_name": "Emsisoft",
                "engine_update": "20181212",
                "engine_version": "2018.4.0.1029",
                "method": "blacklist",
                "result": "Trojan.GenericKD.31348388 (B)"
            },
            "Endgame": {
                "category": "malicious",
                "engine_name": "Endgame",
                "engine_update": "20181108",
                "engine_version": "3.0.2",
                "method": "blacklist",
                "result": "malicious (high confidence)"
            },
            "F-Prot": {
                "category": "undetected",
                "engine_name": "F-Prot",
                "engine_update": "20181212",
                "engine_version": "4.7.1.166",
                "method": "blacklist",
                "result": null
            },
            "F-Secure": {
                "category": "malicious",
                "engine_name": "F-Secure",
                "engine_update": "20181212",
                "engine_version": "11.0.19100.45",
                "method": "blacklist",
                "result": "Trojan.GenericKD.31348388"
            },
            "Fortinet": {
                "category": "malicious",
                "engine_name": "Fortinet",
                "engine_update": "20181212",
                "engine_version": "5.4.247.0",
                "method": "blacklist",
                "result": "W64/CoinMiner.DN!tr"
            },
            "GData": {
                "category": "malicious",
                "engine_name": "GData",
                "engine_update": "20181212",
                "engine_version": "A:25.19768B:25.13883",
                "method": "blacklist",
                "result": "Win32.Application.CoinMiner.T@gen"
            },
            "Ikarus": {
                "category": "malicious",
                "engine_name": "Ikarus",
                "engine_update": "20181212",
                "engine_version": "0.1.5.2",
                "method": "blacklist",
                "result": "PUA.CoinMiner"
            },
            "Invincea": {
                "category": "malicious",
                "engine_name": "Invincea",
                "engine_update": "20181128",
                "engine_version": "6.3.6.26157",
                "method": "blacklist",
                "result": "heuristic"
            },
            "Jiangmin": {
                "category": "malicious",
                "engine_name": "Jiangmin",
                "engine_update": "20181212",
                "engine_version": "16.0.100",
                "method": "blacklist",
                "result": "Trojan.Miner.ftj"
            },
            "K7AntiVirus": {
                "category": "malicious",
                "engine_name": "K7AntiVirus",
                "engine_update": "20181212",
                "engine_version": "11.16.29331",
                "method": "blacklist",
                "result": "Adware ( 00523bf51 )"
            },
            "K7GW": {
                "category": "malicious",
                "engine_name": "K7GW",
                "engine_update": "20181212",
                "engine_version": "11.16.29329",
                "method": "blacklist",
                "result": "Adware ( 00523bf51 )"
            },
            "Kaspersky": {
                "category": "malicious",
                "engine_name": "Kaspersky",
                "engine_update": "20181212",
                "engine_version": "15.0.1.13",
                "method": "blacklist",
                "result": "HEUR:Trojan.Win32.Miner.gen"
            },
            "Kingsoft": {
                "category": "undetected",
                "engine_name": "Kingsoft",
                "engine_update": "20181212",
                "engine_version": "2013.8.14.323",
                "method": "blacklist",
                "result": null
            },
            "MAX": {
                "category": "malicious",
                "engine_name": "MAX",
                "engine_update": "20181212",
                "engine_version": "2018.9.12.1",
                "method": "blacklist",
                "result": "malware (ai score=87)"
            },
            "Malwarebytes": {
                "category": "malicious",
                "engine_name": "Malwarebytes",
                "engine_update": "20181212",
                "engine_version": "2.1.1.1115",
                "method": "blacklist",
                "result": "Trojan.BitCoinMiner"
            },
            "McAfee": {
                "category": "malicious",
                "engine_name": "McAfee",
                "engine_update": "20181212",
                "engine_version": "6.0.6.653",
                "method": "blacklist",
                "result": "W64/CoinMiner!DBDD2B7E6D49"
            },
            "McAfee-GW-Edition": {
                "category": "malicious",
                "engine_name": "McAfee-GW-Edition",
                "engine_update": "20181212",
                "engine_version": "v2017.3010",
                "method": "blacklist",
                "result": "BehavesLike.Win64.CoinMiner.vh"
            },
            "MicroWorld-eScan": {
                "category": "malicious",
                "engine_name": "MicroWorld-eScan",
                "engine_update": "20181212",
                "engine_version": "14.0.297.0",
                "method": "blacklist",
                "result": "Trojan.GenericKD.31348388"
            },
            "Microsoft": {
                "category": "malicious",
                "engine_name": "Microsoft",
                "engine_update": "20181212",
                "engine_version": "1.1.15500.2",
                "method": "blacklist",
                "result": "PUA:Win32/CoinMiner"
            },
            "NANO-Antivirus": {
                "category": "undetected",
                "engine_name": "NANO-Antivirus",
                "engine_update": "20181212",
                "engine_version": "1.0.134.24299",
                "method": "blacklist",
                "result": null
            },
            "Paloalto": {
                "category": "malicious",
                "engine_name": "Paloalto",
                "engine_update": "20181212",
                "engine_version": "1.0",
                "method": "blacklist",
                "result": "generic.ml"
            },
            "Panda": {
                "category": "malicious",
                "engine_name": "Panda",
                "engine_update": "20181211",
                "engine_version": "4.6.4.2",
                "method": "blacklist",
                "result": "Trj/CI.A"
            },
            "Qihoo-360": {
                "category": "malicious",
                "engine_name": "Qihoo-360",
                "engine_update": "20181212",
                "engine_version": "1.0.0.1120",
                "method": "blacklist",
                "result": "Win32/Trojan.ae7"
            },
            "Rising": {
                "category": "malicious",
                "engine_name": "Rising",
                "engine_update": "20181212",
                "engine_version": "25.0.0.24",
                "method": "blacklist",
                "result": "Trojan.Miner!8.EA1 (TFE:dGZlOgXNVfqQec1xBA)"
            },
            "SUPERAntiSpyware": {
                "category": "undetected",
                "engine_name": "SUPERAntiSpyware",
                "engine_update": "20181212",
                "engine_version": "5.6.0.1032",
                "method": "blacklist",
                "result": null
            },
            "SentinelOne": {
                "category": "undetected",
                "engine_name": "SentinelOne",
                "engine_update": "20181011",
                "engine_version": "1.0.19.245",
                "method": "blacklist",
                "result": null
            },
            "Sophos": {
                "category": "malicious",
                "engine_name": "Sophos",
                "engine_update": "20181211",
                "engine_version": "4.98.0",
                "method": "blacklist",
                "result": "XMRig Miner (PUA)"
            },
            "Symantec": {
                "category": "malicious",
                "engine_name": "Symantec",
                "engine_update": "20181212",
                "engine_version": "1.8.0.0",
                "method": "blacklist",
                "result": "Miner.XMRig"
            },
            "SymantecMobileInsight": {
                "category": "type-unsupported",
                "engine_name": "SymantecMobileInsight",
                "engine_update": "20181207",
                "engine_version": "2.0",
                "method": "blacklist",
                "result": null
            },
            "TACHYON": {
                "category": "undetected",
                "engine_name": "TACHYON",
                "engine_update": "20181212",
                "engine_version": "2018-12-12.02",
                "method": "blacklist",
                "result": null
            },
            "Tencent": {
                "category": "undetected",
                "engine_name": "Tencent",
                "engine_update": "20181212",
                "engine_version": "1.0.0.1",
                "method": "blacklist",
                "result": null
            },
            "TheHacker": {
                "category": "undetected",
                "engine_name": "TheHacker",
                "engine_update": "20181210",
                "engine_version": "6.8.0.5.3887",
                "method": "blacklist",
                "result": null
            },
            "TotalDefense": {
                "category": "undetected",
                "engine_name": "TotalDefense",
                "engine_update": "20181212",
                "engine_version": "37.1.62.1",
                "method": "blacklist",
                "result": null
            },
            "Trapmine": {
                "category": "undetected",
                "engine_name": "Trapmine",
                "engine_update": "20181205",
                "engine_version": "3.0.29.679",
                "method": "blacklist",
                "result": null
            },
            "TrendMicro": {
                "category": "malicious",
                "engine_name": "TrendMicro",
                "engine_update": "20181212",
                "engine_version": "10.0.0.1040",
                "method": "blacklist",
                "result": "Coinminer.Win64.TOOLXMR.SMI"
            },
            "TrendMicro-HouseCall": {
                "category": "malicious",
                "engine_name": "TrendMicro-HouseCall",
                "engine_update": "20181212",
                "engine_version": "10.0.0.1040",
                "method": "blacklist",
                "result": "Coinminer.Win64.TOOLXMR.SMI"
            },
            "Trustlook": {
                "category": "undetected",
                "engine_name": "Trustlook",
                "engine_update": "20181212",
                "engine_version": "1.0",
                "method": "blacklist",
                "result": null
            },
            "VBA32": {
                "category": "malicious",
                "engine_name": "VBA32",
                "engine_update": "20181212",
                "engine_version": "3.34.0",
                "method": "blacklist",
                "result": "Trojan.Miner"
            },
            "VIPRE": {
                "category": "malicious",
                "engine_name": "VIPRE",
                "engine_update": "20181212",
                "engine_version": "71612",
                "method": "blacklist",
                "result": "Trojan.Win32.Generic!BT"
            },
            "ViRobot": {
                "category": "undetected",
                "engine_name": "ViRobot",
                "engine_update": "20181212",
                "engine_version": "2014.3.20.0",
                "method": "blacklist",
                "result": null
            },
            "Webroot": {
                "category": "undetected",
                "engine_name": "Webroot",
                "engine_update": "20181212",
                "engine_version": "1.0.0.403",
                "method": "blacklist",
                "result": null
            },
            "Yandex": {
                "category": "malicious",
                "engine_name": "Yandex",
                "engine_update": "20181212",
                "engine_version": "5.5.1.3",
                "method": "blacklist",
                "result": "Trojan.Miner!fP9Hj7+yb0Y"
            },
            "Zillya": {
                "category": "undetected",
                "engine_name": "Zillya",
                "engine_update": "20181211",
                "engine_version": "2.0.0.3711",
                "method": "blacklist",
                "result": null
            },
            "ZoneAlarm": {
                "category": "malicious",
                "engine_name": "ZoneAlarm",
                "engine_update": "20181212",
                "engine_version": "1.0",
                "method": "blacklist",
                "result": "HEUR:Trojan.Win32.Miner.gen"
            },
            "Zoner": {
                "category": "undetected",
                "engine_name": "Zoner",
                "engine_update": "20181212",
                "engine_version": "1.0",
                "method": "blacklist",
                "result": null
            },
            "eGambit": {
                "category": "undetected",
                "engine_name": "eGambit",
                "engine_update": "20181212",
                "engine_version": "v4.3.5",
                "method": "blacklist",
                "result": null
            }
        },
        "last_analysis_stats": {
            "confirmed-timeout": 0,
            "failure": 0,
            "harmless": 0,
            "malicious": 42,
            "suspicious": 0,
            "timeout": 0,
            "type-unsupported": 1,
            "undetected": 28
        },
        "last_modification_date": 1544630743,
        "last_submission_date": 1544630406,
        "magic": "PE32+ executable for MS Windows (console) Mono/.Net assembly",
        "md5": "dbdd2b7e6d4914c35d0f5054b25d0195",
        "meaningful_name": "Voice",
        "names": [
            "dbdd2b7e6d4914c35d0f5054b25d0195.virus",
            "Voice"
        ],
        "pe_info": {
            "entry_point": 1487604,
            "imphash": "c34a6db6abced99cbe4dd4f5ab563c46",
            "import_list": [
                {
                    "imported_functions": [
                        "GetStdHandle",
                        "GetDriveTypeW",
                        "CancelIoEx",
                        "FileTimeToSystemTime",
                        "WaitForSingleObject",
                        "GetFinalPathNameByHandleW",
                        "FindNextFileA",
                        "DebugBreak",
                        "SetConsoleCursorPosition",
                        "GetFileAttributesW",
                        "SystemTimeToTzSpecificLocalTime",
                        "DeleteCriticalSection",
                        "GetCurrentProcess",
                        "GetConsoleMode",
                        "LocalAlloc",
                        "GetConsoleCursorInfo",
                        "SetErrorMode",
                        "UnhandledExceptionFilter",
                        "GetFileInformationByHandle",
                        "InitializeSListHead",
                        "GetLocaleInfoW",
                        "SetStdHandle",
                        "WideCharToMultiByte",
                        "GetSystemTimeAsFileTime",
                        "WriteFile",
                        "DeleteFiber",
                        "SwitchToFiber",
                        "GetCommandLineA",
                        "GetThreadTimes",
                        "HeapReAlloc",
                        "GetStringTypeW",
                        "ConnectNamedPipe",
                        "SetEvent",
                        "LocalFree",
                        "ResumeThread",
                        "GetExitCodeProcess",
                        "FreeLibraryAndExitThread",
                        "InitializeCriticalSection",
                        "FindClose",
                        "TlsGetValue",
                        "FormatMessageA",
                        "SetFileAttributesW",
                        "QueueUserWorkItem",
                        "EncodePointer",
                        "CancelSynchronousIo",
                        "GetEnvironmentVariableW",
                        "SetLastError",
                        "GetQueuedCompletionStatusEx",
                        "GetSystemTime",
                        "DeviceIoControl",
                        "CopyFileW",
                        "RemoveDirectoryW",
                        "GetNumberOfConsoleInputEvents",
                        "ExitProcess",
                        "ReadConsoleInputW",
                        "GetModuleFileNameA",
                        "FillConsoleOutputCharacterW",
                        "QueryPerformanceFrequency",
                        "WakeConditionVariable",
                        "SetThreadPriority",
                        "GetUserDefaultLCID",
                        "InitializeConditionVariable",
                        "RtlVirtualUnwind",
                        "EnumSystemLocalesW",
                        "LoadLibraryExW",
                        "MultiByteToWideChar",
                        "SetFilePointerEx",
                        "RegisterWaitForSingleObject",
                        "GetFullPathNameW",
                        "CreateSemaphoreA",
                        "CreateThread",
                        "MoveFileExW",
                        "SetNamedPipeHandleState",
                        "CreateSemaphoreW",
                        "IsProcessorFeaturePresent",
                        "ExitThread",
                        "SetHandleInformation",
                        "SetEnvironmentVariableA",
                        "ReadConsoleA",
                        "TerminateProcess",
                        "SetUnhandledExceptionFilter",
                        "ConvertThreadToFiber",
                        "GetModuleHandleExW",
                        "SetConsoleCursorInfo",
                        "CreateEventW",
                        "ReadConsoleW",
                        "GetCurrentThreadId",
                        "WriteConsoleW",
                        "InitializeCriticalSectionAndSpinCount",
                        "HeapFree",
                        "EnterCriticalSection",
                        "PeekNamedPipe",
                        "ReOpenFile",
                        "LoadLibraryW",
                        "FreeLibrary",
                        "QueryPerformanceCounter",
                        "SetConsoleTextAttribute",
                        "TlsAlloc",
                        "FlushFileBuffers",
                        "LoadLibraryA",
                        "RtlUnwind",
                        "WriteConsoleInputW",
                        "ConvertFiberToThread",
                        "RtlPcToFileHeader",
                        "DecodePointer",
                        "GetNamedPipeHandleStateA",
                        "GetWindowsDirectoryA",
                        "GetStartupInfoW",
                        "CreateDirectoryW",
                        "GetProcAddress",
                        "GetConsoleScreenBufferInfo",
                        "FillConsoleOutputAttribute",
                        "GetProcessHeap",
                        "SetPriorityClass",
                        "CompareStringW",
                        "SleepConditionVariableCS",
                        "GetModuleFileNameW",
                        "FreeEnvironmentStringsW",
                        "FindFirstFileExA",
                        "FindNextFileW",
                        "RtlLookupFunctionEntry",
                        "CreateHardLinkW",
                        "FreeConsole",
                        "FindFirstFileW",
                        "IsValidLocale",
                        "DuplicateHandle",
                        "RtlUnwindEx",
                        "GetTimeZoneInformation",
                        "ReadDirectoryChangesW",
                        "CreateFileW",
                        "GetConsoleWindow",
                        "CreateEventA",
                        "IsDebuggerPresent",
                        "GetFileType",
                        "TlsSetValue",
                        "CreateFileA",
                        "HeapAlloc",
                        "LeaveCriticalSection",
                        "GetNativeSystemInfo",
                        "GetLastError",
                        "IsValidCodePage",
                        "SetFileCompletionNotificationModes",
                        "SystemTimeToFileTime",
                        "LCMapStringW",
                        "GetShortPathNameW",
                        "GetSystemInfo",
                        "GetConsoleCP",
                        "UnregisterWaitEx",
                        "GetEnvironmentStringsW",
                        "CreateFiber",
                        "SwitchToThread",
                        "UnregisterWait",
                        "GetCurrentProcessId",
                        "CreateIoCompletionPort",
                        "SetFileTime",
                        "GetCommandLineW",
                        "GetCPInfo",
                        "HeapSize",
                        "SetThreadAffinityMask",
                        "CancelIo",
                        "GetCurrentThread",
                        "RaiseException",
                        "ReleaseSemaphore",
                        "TlsFree",
                        "GetModuleHandleA",
                        "CreateSymbolicLinkW",
                        "ReadFile",
                        "SetEndOfFile",
                        "CreateNamedPipeW",
                        "RtlCaptureContext",
                        "CloseHandle",
                        "GetACP",
                        "GetModuleHandleW",
                        "GetFileAttributesExW",
                        "GetLongPathNameW",
                        "GetCurrentDirectoryW",
                        "SetConsoleMode",
                        "PostQueuedCompletionStatus",
                        "VirtualFree",
                        "Sleep",
                        "SetConsoleCtrlHandler",
                        "VirtualAlloc",
                        "GetOEMCP"
                    ],
                    "library_name": "KERNEL32.dll"
                },
                {
                    "imported_functions": [
                        "GetMessageA",
                        "GetUserObjectInformationW",
                        "DispatchMessageA",
                        "ShowWindow",
                        "MapVirtualKeyW",
                        "TranslateMessage",
                        "MessageBoxW",
                        "GetProcessWindowStation"
                    ],
                    "library_name": "USER32.dll"
                },
                {
                    "imported_functions": [
                        "BCryptGenRandom"
                    ],
                    "library_name": "bcrypt.dll"
                },
                {
                    "imported_functions": [
                        "CryptDestroyKey",
                        "CryptSetHashParam",
                        "ReportEventW",
                        "AdjustTokenPrivileges",
                        "LookupPrivilegeValueW",
                        "LsaOpenPolicy",
                        "LsaAddAccountRights",
                        "RegisterEventSourceW",
                        "OpenProcessToken",
                        "DeregisterEventSource",
                        "CryptCreateHash",
                        "GetTokenInformation",
                        "CryptReleaseContext",
                        "CryptAcquireContextA",
                        "CryptGenRandom",
                        "CryptAcquireContextW",
                        "CryptDecrypt",
                        "CryptGetProvParam",
                        "CryptDestroyHash",
                        "CryptGetUserKey",
                        "CryptEnumProvidersW",
                        "CryptSignHashW",
                        "CryptExportKey",
                        "LsaClose"
                    ],
                    "library_name": "ADVAPI32.dll"
                },
                {
                    "imported_functions": [
                        "htonl",
                        "WSARecvFrom",
                        "WSARecv",
                        "ioctlsocket",
                        "WSAStartup",
                        "WSASend",
                        "shutdown",
                        "htons",
                        "WSAGetLastError",
                        "getsockopt",
                        "FreeAddrInfoW",
                        "recv",
                        "send",
                        "select",
                        "WSACleanup",
                        "WSASetLastError",
                        "closesocket",
                        "WSAIoctl",
                        "GetAddrInfoW",
                        "setsockopt",
                        "socket",
                        "bind",
                        "WSASocketW"
                    ],
                    "library_name": "WS2_32.dll"
                },
                {
                    "imported_functions": [
                        "CertEnumCertificatesInStore",
                        "CertOpenStore",
                        "CertFreeCertificateContext",
                        "CertCloseStore",
                        "CertGetCertificateContextProperty",
                        "CertDuplicateCertificateContext",
                        "CertFindCertificateInStore"
                    ],
                    "library_name": "CRYPT32.dll"
                }
            ],
            "machine_type": 34404,
            "overlay": {
                "chi2": 52696.61328125,
                "entropy": 5.941132068634033,
                "filetype": "data",
                "md5": "61dceef4e63734b9e12aef3fa74491ad",
                "offset": 2700288,
                "size": 1610
            },
            "resource_details": [
                {
                    "chi2": 174911.109375,
                    "entropy": 3.8968377113342285,
                    "filetype": "data",
                    "lang": "ENGLISH US",
                    "sha256": "8969e1a8d3018efec0ccfd1a5c6c3f8dd9114ad602788e1c031c9e1df5d4f61a",
                    "type": "RT_ICON"
                },
                {
                    "chi2": 73360.8515625,
                    "entropy": 4.704901695251465,
                    "filetype": "data",
                    "lang": "ENGLISH US",
                    "sha256": "a1ce86a5dc0a77f9e0e59a3df2d5b4d3e2159bb18fbdd5f4418325ba17a186fc",
                    "type": "RT_ICON"
                },
                {
                    "chi2": 148679.453125,
                    "entropy": 2.7370142936706543,
                    "filetype": "data",
                    "lang": "ENGLISH US",
                    "sha256": "d93644a21e95de5f626a99892e44317631d3068d81e2dd9aae323b0da44f3a60",
                    "type": "RT_ICON"
                },
                {
                    "chi2": 727625.625,
                    "entropy": 2.831557273864746,
                    "filetype": "data",
                    "lang": "ENGLISH US",
                    "sha256": "10f2dfcb31c0f0816447923633e79ef4ff7ca1bf89d5f6984e4cce62615ea729",
                    "type": "RT_ICON"
                },
                {
                    "chi2": 277938.625,
                    "entropy": 3.441967725753784,
                    "filetype": "data",
                    "lang": "ENGLISH US",
                    "sha256": "aec3c266b0f119a982069893611ffd2cdd271fdbcf915b17fdf9b00d445676c9",
                    "type": "RT_ICON"
                },
                {
                    "chi2": 52035.11328125,
                    "entropy": 4.058734893798828,
                    "filetype": "data",
                    "lang": "ENGLISH US",
                    "sha256": "7ad7dd241cc84dad41c3f1ee55c9272bd835e6172e6144423af4be38ce3fe2a1",
                    "type": "RT_ICON"
                },
                {
                    "chi2": 6514.80029296875,
                    "entropy": 2.6991312503814697,
                    "filetype": "data",
                    "lang": "ENGLISH US",
                    "sha256": "4a2d022975e1b62b89e1e757b73f563b68b21b71edf8cac8dbbf062b2cb2d2fe",
                    "type": "RT_GROUP_ICON"
                },
                {
                    "chi2": 52237.69140625,
                    "entropy": 3.3514862060546875,
                    "filetype": "data",
                    "lang": "ENGLISH US",
                    "sha256": "f2d12427723999dc4bb4155722cb96b38cf6d9cb68117285043849160f76ec8e",
                    "type": "RT_VERSION"
                },
                {
                    "chi2": 4031.47216796875,
                    "entropy": 4.911615371704102,
                    "filetype": "ASCII text",
                    "lang": "ENGLISH US",
                    "sha256": "4bb79dcea0a901f7d9eac5aa05728ae92acb42e0cb22e5dd14134f4421a3d8df",
                    "type": "RT_MANIFEST"
                }
            ],
            "resource_langs": {
                "ENGLISH US": 9
            },
            "resource_types": {
                "RT_GROUP_ICON": 1,
                "RT_ICON": 6,
                "RT_MANIFEST": 1,
                "RT_VERSION": 1
            },
            "sections": [
                {
                    "entropy": 6.46,
                    "md5": "73f216476cc294c3f40c0ad5988725d0",
                    "name": ".text",
                    "raw_size": 1804800,
                    "virtual_address": 4096,
                    "virtual_size": 1804568
                },
                {
                    "entropy": 5.71,
                    "md5": "2a3f07acfa98d753457313b6a619f8cd",
                    "name": ".rdata",
                    "raw_size": 723456,
                    "virtual_address": 1810432,
                    "virtual_size": 723390
                },
                {
                    "entropy": 3.25,
                    "md5": "8c8caec945fbbceb72966615d7d8b9f8",
                    "name": ".data",
                    "raw_size": 29184,
                    "virtual_address": 2535424,
                    "virtual_size": 48036
                },
                {
                    "entropy": 6.17,
                    "md5": "582d5113881afabd0122b21d36698cf8",
                    "name": ".pdata",
                    "raw_size": 85504,
                    "virtual_address": 2584576,
                    "virtual_size": 85128
                },
                {
                    "entropy": 5.71,
                    "md5": "7bda99bbef7753fe12d485cc85b0b0ea",
                    "name": "_TEXT_CN",
                    "raw_size": 3584,
                    "virtual_address": 2670592,
                    "virtual_size": 3113
                },
                {
                    "entropy": 4.19,
                    "md5": "6fbff3af1ef38797de5e796e8dcb426c",
                    "name": ".rsrc",
                    "raw_size": 24576,
                    "virtual_address": 2674688,
                    "virtual_size": 24072
                },
                {
                    "entropy": 5.45,
                    "md5": "6dd78dffe2444b2806544962cfdc8df0",
                    "name": ".reloc",
                    "raw_size": 28160,
                    "virtual_address": 2699264,
                    "virtual_size": 28140
                }
            ],
            "timestamp": 1541765893
        },
        "reputation": 0,
        "sha1": "250bd37543ad28bb371e618b12e94498449dea20",
        "sha256": "0006358615865fda6311e455c5daaff15a4937d0b153d761edf840716f20e003",
        "signature_info": {
            "copyright": "Copyright (C) 1997-2018 google.com",
            "description": "Voice",
            "file version": "2.8.3",
            "original name": "Voice",
            "product": "Voice"
        },
        "size": 2701898,
        "ssdeep": "49152:elfgoA71I59IfPPszbgy5TvdUIfIqPIyS2yUnCOh5PWfSV7zunZSRYVPXV6CPS:rfPDsUDfSVWnfpV6h",
        "tags": [
            "64bits",
            "peexe",
            "assembly",
            "overlay"
        ],
        "times_submitted": 1,
        "total_votes": {
            "harmless": 0,
            "malicious": 0
        },
        "trid": [
            {
                "file_type": "OS/2 Executable (generic)",
                "probability": 33.6
            },
            {
                "file_type": "Generic Win/DOS Executable",
                "probability": 33.1
            },
            {
                "file_type": "DOS Executable Generic",
                "probability": 33.1
            }
        ],
        "type_description": "Win32 EXE",
        "type_extension": "exe",
        "type_tag": "peexe",
        "unique_sources": 1,
        "vhash": "026076655d156755155183z72zb7nz84z177z"
    },
    "id": "0006358615865fda6311e455c5daaff15a4937d0b153d761edf840716f20e003",
    "links": {
        "self": "https://www.virustotal.com/api/v3/files/0006358615865fda6311e455c5daaff15a4937d0b153d761edf840716f20e003"
    },
    "type": "file"
}