{
    "attributes": {
        "authentihash": "c0284bab3439d3a7a95b68542824bb5bbefd998361a3512700397639b076bf1f",
        "creation_date": 1515589038,
        "first_submission_date": 1516497327,
        "last_analysis_date": 1539931840,
        "last_analysis_results": {
            "ALYac": {
                "category": "malicious",
                "engine_name": "ALYac",
                "engine_update": "20181019",
                "engine_version": "1.1.1.5",
                "method": "blacklist",
                "result": "Dropped:Generic.AutorunINF.Recex.1.1C7C33CC"
            },
            "AVG": {
                "category": "malicious",
                "engine_name": "AVG",
                "engine_update": "20181019",
                "engine_version": "18.4.3895.0",
                "method": "blacklist",
                "result": "Win32:Miner-AL [Trj]"
            },
            "Ad-Aware": {
                "category": "malicious",
                "engine_name": "Ad-Aware",
                "engine_update": "20181019",
                "engine_version": "3.0.5.370",
                "method": "blacklist",
                "result": "Dropped:Generic.AutorunINF.Recex.1.1C7C33CC"
            },
            "AegisLab": {
                "category": "malicious",
                "engine_name": "AegisLab",
                "engine_update": "20181019",
                "engine_version": "4.2",
                "method": "blacklist",
                "result": "Virus.Win32.Lamer.tpqV"
            },
            "AhnLab-V3": {
                "category": "malicious",
                "engine_name": "AhnLab-V3",
                "engine_update": "20181018",
                "engine_version": "3.13.1.21616",
                "method": "blacklist",
                "result": "Trojan/Win32.Tiggre.R218196"
            },
            "Alibaba": {
                "category": "undetected",
                "engine_name": "Alibaba",
                "engine_update": "20180921",
                "engine_version": "0.1.0.2",
                "method": "blacklist",
                "result": null
            },
            "Antiy-AVL": {
                "category": "malicious",
                "engine_name": "Antiy-AVL",
                "engine_update": "20181019",
                "engine_version": "3.0.0.1",
                "method": "blacklist",
                "result": "RiskWare/Win32.BitMiner.h"
            },
            "Arcabit": {
                "category": "malicious",
                "engine_name": "Arcabit",
                "engine_update": "20181019",
                "engine_version": "1.0.0.833",
                "method": "blacklist",
                "result": "Generic.AutorunINF.Recex.1.1C7C33CC"
            },
            "Avast": {
                "category": "malicious",
                "engine_name": "Avast",
                "engine_update": "20181019",
                "engine_version": "18.4.3895.0",
                "method": "blacklist",
                "result": "Win32:Miner-AL [Trj]"
            },
            "Avast-Mobile": {
                "category": "undetected",
                "engine_name": "Avast-Mobile",
                "engine_update": "20181019",
                "engine_version": "181019-04",
                "method": "blacklist",
                "result": null
            },
            "Avira": {
                "category": "malicious",
                "engine_name": "Avira",
                "engine_update": "20181019",
                "engine_version": "8.3.3.6",
                "method": "blacklist",
                "result": "TR/ATRAPS.Gen"
            },
            "Babable": {
                "category": "undetected",
                "engine_name": "Babable",
                "engine_update": "20180918",
                "engine_version": "9107201",
                "method": "blacklist",
                "result": null
            },
            "Baidu": {
                "category": "undetected",
                "engine_name": "Baidu",
                "engine_update": "20181019",
                "engine_version": "1.0.0.2",
                "method": "blacklist",
                "result": null
            },
            "BitDefender": {
                "category": "malicious",
                "engine_name": "BitDefender",
                "engine_update": "20181019",
                "engine_version": "7.2",
                "method": "blacklist",
                "result": "Dropped:Generic.AutorunINF.Recex.1.1C7C33CC"
            },
            "Bkav": {
                "category": "malicious",
                "engine_name": "Bkav",
                "engine_update": "20181018",
                "engine_version": "1.3.0.9898",
                "method": "blacklist",
                "result": "W32.OverAAAND.Worm"
            },
            "CAT-QuickHeal": {
                "category": "malicious",
                "engine_name": "CAT-QuickHeal",
                "engine_update": "20181018",
                "engine_version": "14.00",
                "method": "blacklist",
                "result": "Trojan.Mauvaise.SL1"
            },
            "CMC": {
                "category": "undetected",
                "engine_name": "CMC",
                "engine_update": "20181019",
                "engine_version": "1.1.0.977",
                "method": "blacklist",
                "result": null
            },
            "ClamAV": {
                "category": "malicious",
                "engine_name": "ClamAV",
                "engine_update": "20181019",
                "engine_version": "0.100.2.0",
                "method": "blacklist",
                "result": "Win.Trojan.Qhost-160"
            },
            "Comodo": {
                "category": "malicious",
                "engine_name": "Comodo",
                "engine_update": "20181019",
                "engine_version": "29842",
                "method": "blacklist",
                "result": "Worm.Win32.Agent.OAT"
            },
            "CrowdStrike": {
                "category": "malicious",
                "engine_name": "CrowdStrike",
                "engine_update": "20180723",
                "engine_version": "1.0",
                "method": "blacklist",
                "result": "malicious_confidence_100% (D)"
            },
            "Cybereason": {
                "category": "malicious",
                "engine_name": "Cybereason",
                "engine_update": "20180225",
                "engine_version": "1.2.27",
                "method": "blacklist",
                "result": "malicious.841a69"
            },
            "Cylance": {
                "category": "malicious",
                "engine_name": "Cylance",
                "engine_update": "20181019",
                "engine_version": "2.3.1.101",
                "method": "blacklist",
                "result": "Unsafe"
            },
            "Cyren": {
                "category": "malicious",
                "engine_name": "Cyren",
                "engine_update": "20181019",
                "engine_version": "6.0.0.4",
                "method": "blacklist",
                "result": "W32/CoinMiner.M.gen!Eldorado"
            },
            "DrWeb": {
                "category": "malicious",
                "engine_name": "DrWeb",
                "engine_update": "20181019",
                "engine_version": "7.0.33.6080",
                "method": "blacklist",
                "result": "Tool.BtcMine.1051"
            },
            "ESET-NOD32": {
                "category": "malicious",
                "engine_name": "ESET-NOD32",
                "engine_update": "20181019",
                "engine_version": "18239",
                "method": "blacklist",
                "result": "a variant of Win32/Agent.OCI"
            },
            "Emsisoft": {
                "category": "malicious",
                "engine_name": "Emsisoft",
                "engine_update": "20181019",
                "engine_version": "2018.4.0.1029",
                "method": "blacklist",
                "result": "Dropped:Generic.AutorunINF.Recex.1.1C7C33CC (B)"
            },
            "Endgame": {
                "category": "malicious",
                "engine_name": "Endgame",
                "engine_update": "20180730",
                "engine_version": "3.0.1",
                "method": "blacklist",
                "result": "malicious (moderate confidence)"
            },
            "F-Prot": {
                "category": "malicious",
                "engine_name": "F-Prot",
                "engine_update": "20181019",
                "engine_version": "4.7.1.166",
                "method": "blacklist",
                "result": "W32/CoinMiner.M.gen!Eldorado"
            },
            "F-Secure": {
                "category": "malicious",
                "engine_name": "F-Secure",
                "engine_update": "20181019",
                "engine_version": "11.0.19100.45",
                "method": "blacklist",
                "result": "Dropped:Generic.AutorunINF.Recex.1.1C7C33CC"
            },
            "Fortinet": {
                "category": "malicious",
                "engine_name": "Fortinet",
                "engine_update": "20181019",
                "engine_version": "5.4.247.0",
                "method": "blacklist",
                "result": "W32/Agent.AZID!tr"
            },
            "GData": {
                "category": "malicious",
                "engine_name": "GData",
                "engine_update": "20181019",
                "engine_version": "A:25.18997B:25.13480",
                "method": "blacklist",
                "result": "Win32.Trojan.Agent.WP"
            },
            "Ikarus": {
                "category": "malicious",
                "engine_name": "Ikarus",
                "engine_update": "20181018",
                "engine_version": "0.1.5.2",
                "method": "blacklist",
                "result": "Worm.Win32.Agent"
            },
            "Invincea": {
                "category": "malicious",
                "engine_name": "Invincea",
                "engine_update": "20180717",
                "engine_version": "6.3.5.26121",
                "method": "blacklist",
                "result": "heuristic"
            },
            "Jiangmin": {
                "category": "malicious",
                "engine_name": "Jiangmin",
                "engine_update": "20181019",
                "engine_version": "16.0.100",
                "method": "blacklist",
                "result": "Trojan.Generic.bywsd"
            },
            "K7AntiVirus": {
                "category": "malicious",
                "engine_name": "K7AntiVirus",
                "engine_update": "20181019",
                "engine_version": "11.8.28755",
                "method": "blacklist",
                "result": "Trojan ( 005256721 )"
            },
            "K7GW": {
                "category": "malicious",
                "engine_name": "K7GW",
                "engine_update": "20181019",
                "engine_version": "11.8.28754",
                "method": "blacklist",
                "result": "Trojan ( 005256721 )"
            },
            "Kaspersky": {
                "category": "malicious",
                "engine_name": "Kaspersky",
                "engine_update": "20181019",
                "engine_version": "15.0.1.13",
                "method": "blacklist",
                "result": "Virus.Win32.Lamer.ko"
            },
            "Kingsoft": {
                "category": "undetected",
                "engine_name": "Kingsoft",
                "engine_update": "20181019",
                "engine_version": "2013.8.14.323",
                "method": "blacklist",
                "result": null
            },
            "MAX": {
                "category": "malicious",
                "engine_name": "MAX",
                "engine_update": "20181019",
                "engine_version": "2018.9.12.1",
                "method": "blacklist",
                "result": "malware (ai score=85)"
            },
            "Malwarebytes": {
                "category": "malicious",
                "engine_name": "Malwarebytes",
                "engine_update": "20181019",
                "engine_version": "2.1.1.1115",
                "method": "blacklist",
                "result": "PUP.Optional.ChinAd"
            },
            "McAfee": {
                "category": "malicious",
                "engine_name": "McAfee",
                "engine_update": "20181019",
                "engine_version": "6.0.6.653",
                "method": "blacklist",
                "result": "Trojan-FOZT!9D5A6E6841A6"
            },
            "McAfee-GW-Edition": {
                "category": "malicious",
                "engine_name": "McAfee-GW-Edition",
                "engine_update": "20181019",
                "engine_version": "v2017.3010",
                "method": "blacklist",
                "result": "BehavesLike.Win32.Generic.th"
            },
            "MicroWorld-eScan": {
                "category": "malicious",
                "engine_name": "MicroWorld-eScan",
                "engine_update": "20181019",
                "engine_version": "14.0.297.0",
                "method": "blacklist",
                "result": "Dropped:Generic.AutorunINF.Recex.1.1C7C33CC"
            },
            "Microsoft": {
                "category": "malicious",
                "engine_name": "Microsoft",
                "engine_update": "20181019",
                "engine_version": "1.1.15400.4",
                "method": "blacklist",
                "result": "Trojan:Win32/Qhost"
            },
            "NANO-Antivirus": {
                "category": "malicious",
                "engine_name": "NANO-Antivirus",
                "engine_update": "20181019",
                "engine_version": "1.0.134.24036",
                "method": "blacklist",
                "result": "Trojan.Win32.BtcMine.exddfs"
            },
            "Paloalto": {
                "category": "malicious",
                "engine_name": "Paloalto",
                "engine_update": "20181019",
                "engine_version": "1.0",
                "method": "blacklist",
                "result": "generic.ml"
            },
            "Panda": {
                "category": "malicious",
                "engine_name": "Panda",
                "engine_update": "20181018",
                "engine_version": "4.6.4.2",
                "method": "blacklist",
                "result": "Generic Suspicious"
            },
            "Qihoo-360": {
                "category": "malicious",
                "engine_name": "Qihoo-360",
                "engine_update": "20181019",
                "engine_version": "1.0.0.1120",
                "method": "blacklist",
                "result": "Win32/Trojan.3fd"
            },
            "Rising": {
                "category": "malicious",
                "engine_name": "Rising",
                "engine_update": "20181019",
                "engine_version": "25.0.0.24",
                "method": "blacklist",
                "result": "Trojan.BitMiner!1.B3E8 (RDM+:cmRtazq/xUsCHZ6yclKiI0/BcAyN)"
            },
            "SUPERAntiSpyware": {
                "category": "undetected",
                "engine_name": "SUPERAntiSpyware",
                "engine_update": "20181015",
                "engine_version": "5.6.0.1032",
                "method": "blacklist",
                "result": null
            },
            "SentinelOne": {
                "category": "undetected",
                "engine_name": "SentinelOne",
                "engine_update": "20181011",
                "engine_version": "1.0.19.245",
                "method": "blacklist",
                "result": null
            },
            "Sophos": {
                "category": "malicious",
                "engine_name": "Sophos",
                "engine_update": "20181019",
                "engine_version": "4.98.0",
                "method": "blacklist",
                "result": "Troj/Miner-FU"
            },
            "Symantec": {
                "category": "malicious",
                "engine_name": "Symantec",
                "engine_update": "20181018",
                "engine_version": "1.7.0.0",
                "method": "blacklist",
                "result": "W32.XiaobaMiner"
            },
            "SymantecMobileInsight": {
                "category": "type-unsupported",
                "engine_name": "SymantecMobileInsight",
                "engine_update": "20181001",
                "engine_version": "2.0",
                "method": "blacklist",
                "result": null
            },
            "TACHYON": {
                "category": "undetected",
                "engine_name": "TACHYON",
                "engine_update": "20181019",
                "engine_version": "2018-10-19.02",
                "method": "blacklist",
                "result": null
            },
            "Tencent": {
                "category": "malicious",
                "engine_name": "Tencent",
                "engine_update": "20181019",
                "engine_version": "1.0.0.1",
                "method": "blacklist",
                "result": "Virus.Win32.Lamer.ko"
            },
            "TheHacker": {
                "category": "malicious",
                "engine_name": "TheHacker",
                "engine_update": "20181018",
                "engine_version": "6.8.0.5.3772",
                "method": "blacklist",
                "result": "Trojan/Agent.oat"
            },
            "TotalDefense": {
                "category": "malicious",
                "engine_name": "TotalDefense",
                "engine_update": "20181018",
                "engine_version": "37.1.62.1",
                "method": "blacklist",
                "result": "Win32/Oflwr.A!crypt"
            },
            "TrendMicro": {
                "category": "malicious",
                "engine_name": "TrendMicro",
                "engine_update": "20181019",
                "engine_version": "10.0.0.1040",
                "method": "blacklist",
                "result": "Coinminer_MALXMR.SMTHBBA"
            },
            "TrendMicro-HouseCall": {
                "category": "malicious",
                "engine_name": "TrendMicro-HouseCall",
                "engine_update": "20181019",
                "engine_version": "10.0.0.1040",
                "method": "blacklist",
                "result": "Coinminer_MALXMR.SMTHBBA"
            },
            "Trustlook": {
                "category": "undetected",
                "engine_name": "Trustlook",
                "engine_update": "20181019",
                "engine_version": "1.0",
                "method": "blacklist",
                "result": null
            },
            "VBA32": {
                "category": "malicious",
                "engine_name": "VBA32",
                "engine_update": "20181018",
                "engine_version": "3.33.0",
                "method": "blacklist",
                "result": "Trojan.Qhost"
            },
            "VIPRE": {
                "category": "malicious",
                "engine_name": "VIPRE",
                "engine_update": "20181018",
                "engine_version": "70354",
                "method": "blacklist",
                "result": "Trojan.Win32.Generic!BT"
            },
            "ViRobot": {
                "category": "undetected",
                "engine_name": "ViRobot",
                "engine_update": "20181019",
                "engine_version": "2014.3.20.0",
                "method": "blacklist",
                "result": null
            },
            "Webroot": {
                "category": "undetected",
                "engine_name": "Webroot",
                "engine_update": "20181019",
                "engine_version": "1.0.0.403",
                "method": "blacklist",
                "result": null
            },
            "Yandex": {
                "category": "malicious",
                "engine_name": "Yandex",
                "engine_update": "20181018",
                "engine_version": "5.5.1.3",
                "method": "blacklist",
                "result": "Trojan.Agent!K4n1h1k/94c"
            },
            "Zillya": {
                "category": "malicious",
                "engine_name": "Zillya",
                "engine_update": "20181018",
                "engine_version": "2.0.0.3671",
                "method": "blacklist",
                "result": "Worm.Agent.Win32.43630"
            },
            "ZoneAlarm": {
                "category": "malicious",
                "engine_name": "ZoneAlarm",
                "engine_update": "20181019",
                "engine_version": "1.0",
                "method": "blacklist",
                "result": "Virus.Win32.Lamer.ko"
            },
            "Zoner": {
                "category": "undetected",
                "engine_name": "Zoner",
                "engine_update": "20181018",
                "engine_version": "1.0",
                "method": "blacklist",
                "result": null
            },
            "eGambit": {
                "category": "undetected",
                "engine_name": "eGambit",
                "engine_update": "20181019",
                "engine_version": null,
                "method": "blacklist",
                "result": null
            }
        },
        "last_analysis_stats": {
            "confirmed-timeout": 0,
            "failure": 0,
            "harmless": 0,
            "malicious": 55,
            "suspicious": 0,
            "timeout": 0,
            "type-unsupported": 1,
            "undetected": 14
        },
        "last_modification_date": 1539932295,
        "last_submission_date": 1516497327,
        "magic": "PE32 executable for MS Windows (GUI) Intel 80386 32-bit",
        "md5": "9d5a6e6841a6977c2ae48187e7a5b3ff",
        "meaningful_name": "ZhuDongFangYu.exe",
        "names": [
            "ZhuDongFangYu",
            "ZhuDongFangYu.exe",
            "0006a59807127181_orbd.exe"
        ],
        "packers": {
            "F-PROT": "UPX",
            "PEiD": "UPX 2.90 [LZMA] -> Markus Oberhumer, Laszlo Molnar & John Reiser"
        },
        "pe_info": {
            "entry_point": 327232,
            "imphash": "0ee1aaccebd666cd5f3cceb5c195eece",
            "import_list": [
                {
                    "imported_functions": [
                        "Escape"
                    ],
                    "library_name": "GDI32.dll"
                },
                {
                    "imported_functions": [
                        "RegOpenKeyA"
                    ],
                    "library_name": "ADVAPI32.dll"
                },
                {
                    "imported_functions": [
                        "VirtualProtect",
                        "LoadLibraryA",
                        "ExitProcess",
                        "GetProcAddress"
                    ],
                    "library_name": "KERNEL32.DLL"
                },
                {
                    "imported_functions": [
                        "OpenPrinterA"
                    ],
                    "library_name": "WINSPOOL.DRV"
                },
                {
                    "imported_functions": [
                        "ShellExecuteA"
                    ],
                    "library_name": "SHELL32.dll"
                },
                {
                    "imported_functions": [
                        "CoCreateInstance"
                    ],
                    "library_name": "ole32.dll"
                },
                {
                    "imported_functions": [
                        "GetDC"
                    ],
                    "library_name": "USER32.dll"
                },
                {
                    "imported_functions": [
                        "Ord(17)"
                    ],
                    "library_name": "COMCTL32.dll"
                }
            ],
            "machine_type": 332,
            "overlay": {
                "chi2": 14346074.0,
                "entropy": 6.386652946472168,
                "filetype": "data",
                "md5": "39793170596c9b261abdb0731a695084",
                "offset": 102912,
                "size": 997704
            },
            "resource_details": [
                {
                    "chi2": 22901.9453125,
                    "entropy": 5.810733318328857,
                    "filetype": "data",
                    "lang": "CHINESE SIMPLIFIED",
                    "sha256": "f73151f363f5ec07fde73855c601f03a18af489ad9fef8c1c9bcd7ddb4a4ab8e",
                    "type": "RT_ICON"
                },
                {
                    "chi2": 56870.96875,
                    "entropy": 5.768304824829102,
                    "filetype": "data",
                    "lang": "CHINESE SIMPLIFIED",
                    "sha256": "e0de0d6f7e584c5cdfd3897039da252488521453810c10c80e495b5ef313d788",
                    "type": "RT_ICON"
                },
                {
                    "chi2": 103470.140625,
                    "entropy": 5.7487053871154785,
                    "filetype": "data",
                    "lang": "CHINESE SIMPLIFIED",
                    "sha256": "e830c5710af087fea95463f3d5c87b4e4658b213d29f7b675953c50417735058",
                    "type": "RT_ICON"
                },
                {
                    "chi2": 279991.90625,
                    "entropy": 5.539856433868408,
                    "filetype": "data",
                    "lang": "CHINESE SIMPLIFIED",
                    "sha256": "46a2ef7a08acde077fc27afed83284044d8d38744607ef3c8c0b7c5a4af46d5d",
                    "type": "RT_ICON"
                },
                {
                    "chi2": 4612.06298828125,
                    "entropy": 2.6230783462524414,
                    "filetype": "data",
                    "lang": "CHINESE SIMPLIFIED",
                    "sha256": "ad4a5aad6219f3a1fce97f7b45e787ca6947e9af37c4ee39698934208aeffa45",
                    "type": "RT_GROUP_ICON"
                },
                {
                    "chi2": 55034.82421875,
                    "entropy": 3.6776866912841797,
                    "filetype": "data",
                    "lang": "CHINESE SIMPLIFIED",
                    "sha256": "ae216a773e7ad6e7efd3b06e2c310f7b43010229513b899985f876e8ba7c748f",
                    "type": "RT_VERSION"
                },
                {
                    "chi2": 6778.419921875,
                    "entropy": 5.02094030380249,
                    "filetype": "ASCII text",
                    "lang": "CHINESE SIMPLIFIED",
                    "sha256": "70b7f6ec24cf159809467626ceade9ba45e1c46660c86257e85db8caa6b1926b",
                    "type": "RT_MANIFEST"
                }
            ],
            "resource_langs": {
                "CHINESE SIMPLIFIED": 7
            },
            "resource_types": {
                "RT_GROUP_ICON": 1,
                "RT_ICON": 4,
                "RT_MANIFEST": 1,
                "RT_VERSION": 1
            },
            "sections": [
                {
                    "entropy": 0.0,
                    "md5": "d41d8cd98f00b204e9800998ecf8427e",
                    "name": "UPX0",
                    "raw_size": 0,
                    "virtual_address": 4096,
                    "virtual_size": 241664
                },
                {
                    "entropy": 7.69,
                    "md5": "49ba0340c8ba226a047cf1a51f86de94",
                    "name": "UPX1",
                    "raw_size": 81920,
                    "virtual_address": 245760,
                    "virtual_size": 81920
                },
                {
                    "entropy": 5.72,
                    "md5": "d28a29430b7bea84a55d3b4923fa7ed5",
                    "name": ".rsrc",
                    "raw_size": 19968,
                    "virtual_address": 327680,
                    "virtual_size": 20480
                }
            ],
            "timestamp": 1515589038
        },
        "reputation": 0,
        "sha1": "48e63a9f0041fea28db02662308b543b0de8bc34",
        "sha256": "0006a598071271818e62c90ecc19fdb6cfc4f62df736c938e0f0f29ad3149b0b",
        "signature_info": {
            "copyright": "(C)360.cn All Rights Reserved.",
            "description": "360\u4e3b\u52a8\u9632\u5fa1\u670d\u52a1\u6a21\u5757",
            "file version": "3, 2, 2, 2075",
            "internal name": "ZhuDongFangYu",
            "original name": "ZhuDongFangYu.exe",
            "product": "360\u5b89\u5168\u536b\u58eb"
        },
        "size": 1100616,
        "ssdeep": "24576:oW+JBbwbHF8z3j5D7JaT+KVvrSrtUxWLNm3Hkxcj9:v+XcbHF+3j5D78OBUimOc9",
        "tags": [
            "peexe",
            "upx",
            "overlay"
        ],
        "times_submitted": 1,
        "total_votes": {
            "harmless": 0,
            "malicious": 0
        },
        "trid": [
            {
                "file_type": "Win64 Executable (generic)",
                "probability": 38.4
            },
            {
                "file_type": "UPX compressed Win32 Executable",
                "probability": 37.6
            },
            {
                "file_type": "Win32 Dynamic Link Library (generic)",
                "probability": 9.1
            },
            {
                "file_type": "Win32 Executable (generic)",
                "probability": 6.2
            },
            {
                "file_type": "OS/2 Executable (generic)",
                "probability": 2.8
            }
        ],
        "type_description": "Win32 EXE",
        "type_extension": "exe",
        "type_tag": "peexe",
        "unique_sources": 1,
        "vhash": "01603e0f7d501013z11z47z17z13z1fz"
    },
    "id": "0006a598071271818e62c90ecc19fdb6cfc4f62df736c938e0f0f29ad3149b0b",
    "links": {
        "self": "https://www.virustotal.com/api/v3/files/0006a598071271818e62c90ecc19fdb6cfc4f62df736c938e0f0f29ad3149b0b"
    },
    "type": "file"
}